[
    {
        "client_msg_id": "0e26e7e9-836d-46f1-b2d8-66819d4799fb",
        "type": "message",
        "text": "Convalescent Plasma Brazil",
        "user": "U010BA2NL9E",
        "ts": "1587737446.000500",
        "team": "TUU48M0T1",
        "user_team": "TUU48M0T1",
        "source_team": "TUU48M0T1",
        "user_profile": {
            "avatar_hash": "g3fa100f8f14",
            "image_72": "https:\/\/secure.gravatar.com\/avatar\/3fa100f8f14fc86a0f2f58648b36d29e.jpg?s=72&d=https%3A%2F%2Fa.slack-edge.com%2Fdf10d%2Fimg%2Favatars%2Fava_0008-72.png",
            "first_name": "",
            "real_name": "Eduardo Garcia",
            "display_name": "Eduardo Garcia",
            "team": "TUU48M0T1",
            "name": "eduardo.garcia",
            "is_restricted": false,
            "is_ultra_restricted": false
        },
        "edited": {
            "user": "U010BA2NL9E",
            "ts": "1587737651.000000"
        },
        "blocks": [
            {
                "type": "rich_text",
                "block_id": "iBF1",
                "elements": [
                    {
                        "type": "rich_text_section",
                        "elements": [
                            {
                                "type": "text",
                                "text": "Convalescent Plasma Brazil"
                            }
                        ]
                    }
                ]
            }
        ],
        "thread_ts": "1587737446.000500",
        "reply_count": 1,
        "reply_users_count": 1,
        "latest_reply": "1587737478.000600",
        "reply_users": [
            "U010BA2NL9E"
        ],
        "replies": [
            {
                "user": "U010BA2NL9E",
                "ts": "1587737478.000600"
            }
        ],
        "subscribed": false
    },
    {
        "client_msg_id": "79b32a83-d4d0-4b11-9f11-d5b23b1977f7",
        "type": "message",
        "text": "COVID-19 convalescent plasma transfusion\nDante Mário Langhi Junior\nGil Cunha DeSantis José Orlando Bordinac\n<https:\/\/www.sciencedirect.com\/science\/article\/pii\/S2531137920300341?via%3Dihub|https:\/\/www.sciencedirect.com\/science\/article\/pii\/S2531137920300341?via%3Dihub>",
        "user": "U010BA2NL9E",
        "ts": "1587737478.000600",
        "team": "TUU48M0T1",
        "user_team": "TUU48M0T1",
        "source_team": "TUU48M0T1",
        "user_profile": {
            "avatar_hash": "g3fa100f8f14",
            "image_72": "https:\/\/secure.gravatar.com\/avatar\/3fa100f8f14fc86a0f2f58648b36d29e.jpg?s=72&d=https%3A%2F%2Fa.slack-edge.com%2Fdf10d%2Fimg%2Favatars%2Fava_0008-72.png",
            "first_name": "",
            "real_name": "Eduardo Garcia",
            "display_name": "Eduardo Garcia",
            "team": "TUU48M0T1",
            "name": "eduardo.garcia",
            "is_restricted": false,
            "is_ultra_restricted": false
        },
        "edited": {
            "user": "U010BA2NL9E",
            "ts": "1587737505.000000"
        },
        "attachments": [
            {
                "title": "COVID-19 convalescent plasma transfusion",
                "title_link": "https:\/\/www.sciencedirect.com\/science\/article\/pii\/S2531137920300341?via%3Dihub",
                "fallback": "COVID-19 convalescent plasma transfusion",
                "image_url": "https:\/\/ars.els-cdn.com\/content\/image\/S25311379.gif",
                "from_url": "https:\/\/www.sciencedirect.com\/science\/article\/pii\/S2531137920300341?via%3Dihub",
                "image_width": 111,
                "image_height": 150,
                "image_bytes": 8167,
                "service_icon": "https:\/\/www.sciencedirect.com\/favicon.ico",
                "service_name": "sciencedirect.com",
                "id": 1,
                "original_url": "https:\/\/www.sciencedirect.com\/science\/article\/pii\/S2531137920300341?via%3Dihub"
            }
        ],
        "blocks": [
            {
                "type": "rich_text",
                "block_id": "AfDU",
                "elements": [
                    {
                        "type": "rich_text_section",
                        "elements": [
                            {
                                "type": "text",
                                "text": "COVID-19 convalescent plasma transfusion\nDante Mário Langhi Junior\nGil Cunha DeSantis José Orlando Bordinac\n"
                            },
                            {
                                "type": "link",
                                "url": "https:\/\/www.sciencedirect.com\/science\/article\/pii\/S2531137920300341?via%3Dihub",
                                "text": "https:\/\/www.sciencedirect.com\/science\/article\/pii\/S2531137920300341?via%3Dihub"
                            }
                        ]
                    }
                ]
            }
        ],
        "thread_ts": "1587737446.000500",
        "parent_user_id": "U010BA2NL9E"
    },
    {
        "client_msg_id": "0915f5b9-3229-4ad4-bc81-fb4057cd1497",
        "type": "message",
        "text": "RECOMENDACIONES PARA LA OBTENCIÓN DE PLASMA DE DONANTES CONVALECIENTES DE COVID-19 \n \nComité Científico para la Seguridad Transfusional (CCST)\n\n<https:\/\/www.mscbs.gob.es\/profesionales\/saludPublica\/ccayes\/alertasActual\/nCov-China\/documentos\/COVID-19_RecPlasma_donantes.pdf|https:\/\/www.mscbs.gob.es\/profesionales\/saludPublica\/ccayes\/alertasActual\/nCov-China\/documentos\/COVID-19_RecPlasma_donantes.pdf>",
        "user": "U010BA2NL9E",
        "ts": "1587755202.000100",
        "team": "TUU48M0T1",
        "user_team": "TUU48M0T1",
        "source_team": "TUU48M0T1",
        "user_profile": {
            "avatar_hash": "g3fa100f8f14",
            "image_72": "https:\/\/secure.gravatar.com\/avatar\/3fa100f8f14fc86a0f2f58648b36d29e.jpg?s=72&d=https%3A%2F%2Fa.slack-edge.com%2Fdf10d%2Fimg%2Favatars%2Fava_0008-72.png",
            "first_name": "",
            "real_name": "Eduardo Garcia",
            "display_name": "Eduardo Garcia",
            "team": "TUU48M0T1",
            "name": "eduardo.garcia",
            "is_restricted": false,
            "is_ultra_restricted": false
        },
        "blocks": [
            {
                "type": "rich_text",
                "block_id": "rBkJ",
                "elements": [
                    {
                        "type": "rich_text_section",
                        "elements": [
                            {
                                "type": "text",
                                "text": "RECOMENDACIONES PARA LA OBTENCIÓN DE PLASMA DE DONANTES CONVALECIENTES DE COVID-19 \r\n \r\nComité Científico para la Seguridad Transfusional (CCST)\n\n"
                            },
                            {
                                "type": "link",
                                "url": "https:\/\/www.mscbs.gob.es\/profesionales\/saludPublica\/ccayes\/alertasActual\/nCov-China\/documentos\/COVID-19_RecPlasma_donantes.pdf",
                                "text": "https:\/\/www.mscbs.gob.es\/profesionales\/saludPublica\/ccayes\/alertasActual\/nCov-China\/documentos\/COVID-19_RecPlasma_donantes.pdf"
                            }
                        ]
                    }
                ]
            }
        ],
        "thread_ts": "1586894541.003700",
        "parent_user_id": "U010BA2NL9E"
    },
    {
        "client_msg_id": "0e0c411a-5e84-4bd1-8e2d-f07c1ee71ad2",
        "type": "message",
        "text": "<https:\/\/www.scotblood.co.uk\/news\/covid-19-convalescent-plasma-donation\/|https:\/\/www.scotblood.co.uk\/news\/covid-19-convalescent-plasma-donation\/>",
        "user": "U010BA2NL9E",
        "ts": "1587793408.000100",
        "team": "TUU48M0T1",
        "user_team": "TUU48M0T1",
        "source_team": "TUU48M0T1",
        "user_profile": {
            "avatar_hash": "g3fa100f8f14",
            "image_72": "https:\/\/secure.gravatar.com\/avatar\/3fa100f8f14fc86a0f2f58648b36d29e.jpg?s=72&d=https%3A%2F%2Fa.slack-edge.com%2Fdf10d%2Fimg%2Favatars%2Fava_0008-72.png",
            "first_name": "",
            "real_name": "Eduardo Garcia",
            "display_name": "Eduardo Garcia",
            "team": "TUU48M0T1",
            "name": "eduardo.garcia",
            "is_restricted": false,
            "is_ultra_restricted": false
        },
        "attachments": [
            {
                "title": "Scotblood - Covid-19: Convalescent plasma donation",
                "title_link": "https:\/\/www.scotblood.co.uk\/news\/covid-19-convalescent-plasma-donation\/",
                "text": "SNBTS to collect plasma from people who have recovered from COVID-19.",
                "fallback": "Scotblood - Covid-19: Convalescent plasma donation",
                "image_url": "https:\/\/www.scotblood.co.uk\/media\/2429\/snbts-web-hero-panel.png?anchor=center&mode=crop&width=1200&height=630&rnd=132316048470000000",
                "from_url": "https:\/\/www.scotblood.co.uk\/news\/covid-19-convalescent-plasma-donation\/",
                "image_width": 476,
                "image_height": 250,
                "image_bytes": 1001611,
                "service_icon": "https:\/\/www.scotblood.co.uk\/content\/img\/iconography\/apple-touch-icon-57x57.png",
                "service_name": "scotblood.co.uk",
                "id": 1,
                "original_url": "https:\/\/www.scotblood.co.uk\/news\/covid-19-convalescent-plasma-donation\/"
            }
        ],
        "blocks": [
            {
                "type": "rich_text",
                "block_id": "MveV",
                "elements": [
                    {
                        "type": "rich_text_section",
                        "elements": [
                            {
                                "type": "link",
                                "url": "https:\/\/www.scotblood.co.uk\/news\/covid-19-convalescent-plasma-donation\/",
                                "text": "https:\/\/www.scotblood.co.uk\/news\/covid-19-convalescent-plasma-donation\/"
                            }
                        ]
                    }
                ]
            }
        ],
        "thread_ts": "1587416989.000600",
        "parent_user_id": "U010BA2NL9E"
    }
]