[
    {
        "client_msg_id": "07e08276-35bf-468e-8b26-bf8d9e181c7d",
        "type": "message",
        "text": "Sounds like a LAMP-based test to me",
        "user": "UUPQGNNTV",
        "ts": "1584295213.032500",
        "team": "TUU48M0T1",
        "user_team": "TUU48M0T1",
        "source_team": "TUU48M0T1",
        "user_profile": {
            "avatar_hash": "c28127caf7eb",
            "image_72": "https:\/\/avatars.slack-edge.com\/2020-03-07\/989562470694_c28127caf7ebfe67df97_72.jpg",
            "first_name": "",
            "real_name": "Ellen Jorgensen",
            "display_name": "",
            "team": "TUU48M0T1",
            "name": "ejorgensen",
            "is_restricted": false,
            "is_ultra_restricted": false
        },
        "blocks": [
            {
                "type": "rich_text",
                "block_id": "xCN",
                "elements": [
                    {
                        "type": "rich_text_section",
                        "elements": [
                            {
                                "type": "text",
                                "text": "Sounds like a LAMP-based test to me"
                            }
                        ]
                    }
                ]
            }
        ]
    },
    {
        "client_msg_id": "345c8956-ed62-41ef-8284-7df0a829ae86",
        "type": "message",
        "text": "Huh just looked at this, they say it's the CDC test but say it only takes an hour. Not sure how, maybe not going the full number of 45 cycles??",
        "user": "UUPQGNNTV",
        "ts": "1584295670.034600",
        "team": "TUU48M0T1",
        "user_team": "TUU48M0T1",
        "source_team": "TUU48M0T1",
        "user_profile": {
            "avatar_hash": "c28127caf7eb",
            "image_72": "https:\/\/avatars.slack-edge.com\/2020-03-07\/989562470694_c28127caf7ebfe67df97_72.jpg",
            "first_name": "",
            "real_name": "Ellen Jorgensen",
            "display_name": "",
            "team": "TUU48M0T1",
            "name": "ejorgensen",
            "is_restricted": false,
            "is_ultra_restricted": false
        },
        "blocks": [
            {
                "type": "rich_text",
                "block_id": "LlC",
                "elements": [
                    {
                        "type": "rich_text_section",
                        "elements": [
                            {
                                "type": "text",
                                "text": "Huh just looked at this, they say it's the CDC test but say it only takes an hour. Not sure how, maybe not going the full number of 45 cycles??"
                            }
                        ]
                    }
                ]
            }
        ]
    },
    {
        "type": "message",
        "subtype": "channel_name",
        "ts": "1584300660.035400",
        "user": "UV0QTJCMT",
        "text": "<@UV0QTJCMT> has renamed the channel from \"environmental-monitoring\" to \"proj-environmental-monitoring\"",
        "old_name": "environmental-monitoring",
        "name": "proj-environmental-monitoring"
    },
    {
        "client_msg_id": "e92d53e3-9eb6-485b-8057-8cd36d7c02aa",
        "type": "message",
        "text": "Thanks for sharing <@UV1D9NR1N>!",
        "user": "UV1CX069G",
        "ts": "1584301152.035600",
        "team": "TUU48M0T1",
        "user_team": "TUU48M0T1",
        "source_team": "TUU48M0T1",
        "user_profile": {
            "avatar_hash": "26bcc3d9a939",
            "image_72": "https:\/\/avatars.slack-edge.com\/2020-03-14\/1000260624596_26bcc3d9a93970d5f16b_72.jpg",
            "first_name": "Josh",
            "real_name": "Josh Perfetto",
            "display_name": "Josh Perfetto",
            "team": "TUU48M0T1",
            "name": "josh",
            "is_restricted": false,
            "is_ultra_restricted": false
        },
        "blocks": [
            {
                "type": "rich_text",
                "block_id": "BHbx6",
                "elements": [
                    {
                        "type": "rich_text_section",
                        "elements": [
                            {
                                "type": "text",
                                "text": "Thanks for sharing "
                            },
                            {
                                "type": "user",
                                "user_id": "UV1D9NR1N"
                            },
                            {
                                "type": "text",
                                "text": "!"
                            }
                        ]
                    }
                ]
            }
        ],
        "thread_ts": "1584238380.030000",
        "parent_user_id": "UV1D9NR1N"
    },
    {
        "client_msg_id": "154f3d89-2029-4504-9e52-cacb7fbd35a4",
        "type": "message",
        "text": "Hi <@UV0ASBY3E>, we would like to use lyophilized RNA from the nucleocapsid gene to ensure the RT function is not inhibited. A big concern for us is stability of the kit, and we are testing that currently. We plan to lyophilize in each well, so the user will not need to resuspend and store at -80 which wouldn't be feasible for our intended users. If this doesn't work we may use lyophilized DNA. We will open source the solution we decide on.",
        "user": "UV1CX069G",
        "ts": "1584301362.038000",
        "team": "TUU48M0T1",
        "user_team": "TUU48M0T1",
        "source_team": "TUU48M0T1",
        "user_profile": {
            "avatar_hash": "26bcc3d9a939",
            "image_72": "https:\/\/avatars.slack-edge.com\/2020-03-14\/1000260624596_26bcc3d9a93970d5f16b_72.jpg",
            "first_name": "Josh",
            "real_name": "Josh Perfetto",
            "display_name": "Josh Perfetto",
            "team": "TUU48M0T1",
            "name": "josh",
            "is_restricted": false,
            "is_ultra_restricted": false
        },
        "blocks": [
            {
                "type": "rich_text",
                "block_id": "5e1",
                "elements": [
                    {
                        "type": "rich_text_section",
                        "elements": [
                            {
                                "type": "text",
                                "text": "Hi "
                            },
                            {
                                "type": "user",
                                "user_id": "UV0ASBY3E"
                            },
                            {
                                "type": "text",
                                "text": ", we would like to use lyophilized RNA from the nucleocapsid gene to ensure the RT function is not inhibited. A big concern for us is stability of the kit, and we are testing that currently. We plan to lyophilize in each well, so the user will not need to resuspend and store at -80 which wouldn't be feasible for our intended users. If this doesn't work we may use lyophilized DNA. We will open source the solution we decide on."
                            }
                        ]
                    }
                ]
            }
        ]
    },
    {
        "client_msg_id": "2a33656d-6358-4ad2-8acd-74736a2b3f2b",
        "type": "message",
        "text": "Hi <@UUPQGNNTV>, we are using the CDC primers\/probes but not the exact CDC protocol. However since Open qPCR heats and cools at 5 C\/s, it can execute the CDC protocol in under an hour",
        "user": "UV1CX069G",
        "ts": "1584301480.039200",
        "team": "TUU48M0T1",
        "user_team": "TUU48M0T1",
        "source_team": "TUU48M0T1",
        "user_profile": {
            "avatar_hash": "26bcc3d9a939",
            "image_72": "https:\/\/avatars.slack-edge.com\/2020-03-14\/1000260624596_26bcc3d9a93970d5f16b_72.jpg",
            "first_name": "Josh",
            "real_name": "Josh Perfetto",
            "display_name": "Josh Perfetto",
            "team": "TUU48M0T1",
            "name": "josh",
            "is_restricted": false,
            "is_ultra_restricted": false
        },
        "blocks": [
            {
                "type": "rich_text",
                "block_id": "vc8V",
                "elements": [
                    {
                        "type": "rich_text_section",
                        "elements": [
                            {
                                "type": "text",
                                "text": "Hi "
                            },
                            {
                                "type": "user",
                                "user_id": "UUPQGNNTV"
                            },
                            {
                                "type": "text",
                                "text": ", we are using the CDC primers\/probes but not the exact CDC protocol. However since Open qPCR heats and cools at 5 C\/s, it can execute the CDC protocol in under an hour"
                            }
                        ]
                    }
                ]
            }
        ]
    },
    {
        "client_msg_id": "CE0D3F06-D5D8-4A74-BF69-DF5986BA7B82",
        "type": "message",
        "text": "You can also probably get away with going less than the 45 anyway. That’s just FDA criteria. ",
        "user": "UV5CCJ9RC",
        "ts": "1584311973.040100",
        "team": "TUU48M0T1",
        "user_team": "TUU48M0T1",
        "source_team": "TUU48M0T1",
        "user_profile": {
            "avatar_hash": "2c79fe05f7e7",
            "image_72": "https:\/\/avatars.slack-edge.com\/2020-03-10\/992653932501_2c79fe05f7e75be19699_72.png",
            "first_name": "Chris",
            "real_name": "Chris Monaco",
            "display_name": "",
            "team": "TUU48M0T1",
            "name": "cmonaco.hr",
            "is_restricted": false,
            "is_ultra_restricted": false
        },
        "blocks": [
            {
                "type": "rich_text",
                "block_id": "NMZJ",
                "elements": [
                    {
                        "type": "rich_text_section",
                        "elements": [
                            {
                                "type": "text",
                                "text": "You can also probably get away with going less than the 45 anyway. That’s just FDA criteria. "
                            }
                        ]
                    }
                ]
            }
        ]
    },
    {
        "client_msg_id": "5f66f4ff-4efb-4dd6-997f-bafcde13dc7a",
        "type": "message",
        "text": "is time in pcr reaction the limiting step for the test labs? i'm not familiar enough with their process to know if saving a few cycles would help (e.g. limiting step might be technician processing time)",
        "user": "U0100NGSTDJ",
        "ts": "1584312283.041600",
        "team": "TUU48M0T1",
        "user_team": "TUU48M0T1",
        "source_team": "TUU48M0T1",
        "user_profile": {
            "avatar_hash": "ge1d3326342e",
            "image_72": "https:\/\/secure.gravatar.com\/avatar\/e1d3326342ee9de40822577d766465e8.jpg?s=72&d=https%3A%2F%2Fa.slack-edge.com%2Fdf10d%2Fimg%2Favatars%2Fava_0021-72.png",
            "first_name": "",
            "real_name": "Jason Yamada-Hanff",
            "display_name": "",
            "team": "TUU48M0T1",
            "name": "jyamada1",
            "is_restricted": false,
            "is_ultra_restricted": false
        },
        "blocks": [
            {
                "type": "rich_text",
                "block_id": "4ZrmI",
                "elements": [
                    {
                        "type": "rich_text_section",
                        "elements": [
                            {
                                "type": "text",
                                "text": "is time in pcr reaction the limiting step for the test labs? i'm not familiar enough with their process to know if saving a few cycles would help (e.g. limiting step might be technician processing time)"
                            }
                        ]
                    }
                ]
            }
        ]
    },
    {
        "client_msg_id": "eef36f0d-6236-4372-b8db-520774daed2f",
        "type": "message",
        "text": "I don't think the difference of a few qPCR cycles will make that much difference for throughput capacity. I think a bigger issue is the difficulty and time of the RNA extraction procedure. We are hoping to simplify this and reduce time with a crude extract procedure, but some validation work remains.",
        "user": "UV1CX069G",
        "ts": "1584333621.043000",
        "team": "TUU48M0T1",
        "user_team": "TUU48M0T1",
        "source_team": "TUU48M0T1",
        "user_profile": {
            "avatar_hash": "26bcc3d9a939",
            "image_72": "https:\/\/avatars.slack-edge.com\/2020-03-14\/1000260624596_26bcc3d9a93970d5f16b_72.jpg",
            "first_name": "Josh",
            "real_name": "Josh Perfetto",
            "display_name": "Josh Perfetto",
            "team": "TUU48M0T1",
            "name": "josh",
            "is_restricted": false,
            "is_ultra_restricted": false
        },
        "blocks": [
            {
                "type": "rich_text",
                "block_id": "ELNPO",
                "elements": [
                    {
                        "type": "rich_text_section",
                        "elements": [
                            {
                                "type": "text",
                                "text": "I don't think the difference of a few qPCR cycles will make that much difference for throughput capacity. I think a bigger issue is the difficulty and time of the RNA extraction procedure. We are hoping to simplify this and reduce time with a crude extract procedure, but some validation work remains."
                            }
                        ]
                    }
                ]
            }
        ],
        "thread_ts": "1584333621.043000",
        "reply_count": 1,
        "reply_users_count": 1,
        "latest_reply": "1584369680.045100",
        "reply_users": [
            "U0100NGSTDJ"
        ],
        "replies": [
            {
                "user": "U0100NGSTDJ",
                "ts": "1584369680.045100"
            }
        ],
        "subscribed": false,
        "reactions": [
            {
                "name": "+1",
                "users": [
                    "UVADMLUB0",
                    "U0100NGSTDJ"
                ],
                "count": 2
            }
        ]
    }
]