[
    {
        "client_msg_id": "DBF1CD8C-8B70-434D-9634-E0918E7D1700",
        "type": "message",
        "text": "“Genome extraction” sounds like some painful procedure from a sci-fi horror movie",
        "user": "UV5CCJ9RC",
        "ts": "1584611153.049500",
        "team": "TUU48M0T1",
        "user_team": "TUU48M0T1",
        "source_team": "TUU48M0T1",
        "user_profile": {
            "avatar_hash": "2c79fe05f7e7",
            "image_72": "https:\/\/avatars.slack-edge.com\/2020-03-10\/992653932501_2c79fe05f7e75be19699_72.png",
            "first_name": "Chris",
            "real_name": "Chris Monaco",
            "display_name": "",
            "team": "TUU48M0T1",
            "name": "cmonaco.hr",
            "is_restricted": false,
            "is_ultra_restricted": false
        },
        "blocks": [
            {
                "type": "rich_text",
                "block_id": "Y4D",
                "elements": [
                    {
                        "type": "rich_text_section",
                        "elements": [
                            {
                                "type": "text",
                                "text": "“Genome extraction” sounds like some painful procedure from a sci-fi horror movie"
                            }
                        ]
                    }
                ]
            }
        ]
    },
    {
        "client_msg_id": "1f7e3a15-f426-4fd6-8ad6-ba536812e191",
        "type": "message",
        "text": "My understanding is that there was a livestream yesterday of the White House (ugh but unfortunately that’s how I’m gonna figure out what this administration has not been doing right in the US) regarding ThermoFisher accelerating the production of their kits, is that the case?",
        "user": "U0103128G4D",
        "ts": "1584636511.049700",
        "team": "TUU48M0T1",
        "user_team": "TUU48M0T1",
        "source_team": "TUU48M0T1",
        "user_profile": {
            "avatar_hash": "g76b7a7fcf75",
            "image_72": "https:\/\/secure.gravatar.com\/avatar\/76b7a7fcf754c895c0bf9763dfdebde4.jpg?s=72&d=https%3A%2F%2Fa.slack-edge.com%2Fdf10d%2Fimg%2Favatars%2Fava_0005-72.png",
            "first_name": "",
            "real_name": "Melody Wu",
            "display_name": "Melody Wu",
            "team": "TUU48M0T1",
            "name": "melody_w",
            "is_restricted": false,
            "is_ultra_restricted": false
        },
        "blocks": [
            {
                "type": "rich_text",
                "block_id": "IofZ",
                "elements": [
                    {
                        "type": "rich_text_section",
                        "elements": [
                            {
                                "type": "text",
                                "text": "My understanding is that there was a livestream yesterday of the White House (ugh but unfortunately that’s how I’m gonna figure out what this administration has not been doing right in the US) regarding ThermoFisher accelerating the production of their kits, is that the case?"
                            }
                        ]
                    }
                ]
            }
        ],
        "thread_ts": "1584366749.044800",
        "parent_user_id": "UUPQGNNTV"
    },
    {
        "client_msg_id": "83392094-9a5e-4ab8-bbad-ec4f2c50a340",
        "type": "message",
        "text": "I’m also assuming your on the east coast of the U.S. rn?",
        "user": "U0103128G4D",
        "ts": "1584636530.049900",
        "team": "TUU48M0T1",
        "user_team": "TUU48M0T1",
        "source_team": "TUU48M0T1",
        "user_profile": {
            "avatar_hash": "g76b7a7fcf75",
            "image_72": "https:\/\/secure.gravatar.com\/avatar\/76b7a7fcf754c895c0bf9763dfdebde4.jpg?s=72&d=https%3A%2F%2Fa.slack-edge.com%2Fdf10d%2Fimg%2Favatars%2Fava_0005-72.png",
            "first_name": "",
            "real_name": "Melody Wu",
            "display_name": "Melody Wu",
            "team": "TUU48M0T1",
            "name": "melody_w",
            "is_restricted": false,
            "is_ultra_restricted": false
        },
        "blocks": [
            {
                "type": "rich_text",
                "block_id": "IKLS",
                "elements": [
                    {
                        "type": "rich_text_section",
                        "elements": [
                            {
                                "type": "text",
                                "text": "I’m also assuming your on the east coast of the U.S. rn?"
                            }
                        ]
                    }
                ]
            }
        ],
        "thread_ts": "1584366749.044800",
        "parent_user_id": "UUPQGNNTV"
    },
    {
        "client_msg_id": "8ffa6696-ab66-4cde-9555-f3f47b97222a",
        "type": "message",
        "text": "<!channel> Quick question, is there a doc stating the goals of environmental monitoring that we could pin or add to topic?",
        "user": "U0103128G4D",
        "ts": "1584639995.050500",
        "team": "TUU48M0T1",
        "user_team": "TUU48M0T1",
        "source_team": "TUU48M0T1",
        "user_profile": {
            "avatar_hash": "g76b7a7fcf75",
            "image_72": "https:\/\/secure.gravatar.com\/avatar\/76b7a7fcf754c895c0bf9763dfdebde4.jpg?s=72&d=https%3A%2F%2Fa.slack-edge.com%2Fdf10d%2Fimg%2Favatars%2Fava_0005-72.png",
            "first_name": "",
            "real_name": "Melody Wu",
            "display_name": "Melody Wu",
            "team": "TUU48M0T1",
            "name": "melody_w",
            "is_restricted": false,
            "is_ultra_restricted": false
        },
        "blocks": [
            {
                "type": "rich_text",
                "block_id": "3ZOMT",
                "elements": [
                    {
                        "type": "rich_text_section",
                        "elements": [
                            {
                                "type": "broadcast",
                                "range": "channel"
                            },
                            {
                                "type": "text",
                                "text": " Quick question, is there a doc stating the goals of environmental monitoring that we could pin or add to topic?"
                            }
                        ]
                    }
                ]
            }
        ]
    },
    {
        "client_msg_id": "22496a74-bbb2-42e7-b9eb-308f3f9f6f12",
        "type": "message",
        "text": "Also, I believe someone was talking about tracking apps-- not sure if this was int his channel or somewhere else",
        "user": "U0103128G4D",
        "ts": "1584640006.050900",
        "team": "TUU48M0T1",
        "user_team": "TUU48M0T1",
        "source_team": "TUU48M0T1",
        "user_profile": {
            "avatar_hash": "g76b7a7fcf75",
            "image_72": "https:\/\/secure.gravatar.com\/avatar\/76b7a7fcf754c895c0bf9763dfdebde4.jpg?s=72&d=https%3A%2F%2Fa.slack-edge.com%2Fdf10d%2Fimg%2Favatars%2Fava_0005-72.png",
            "first_name": "",
            "real_name": "Melody Wu",
            "display_name": "Melody Wu",
            "team": "TUU48M0T1",
            "name": "melody_w",
            "is_restricted": false,
            "is_ultra_restricted": false
        },
        "blocks": [
            {
                "type": "rich_text",
                "block_id": "GTjVh",
                "elements": [
                    {
                        "type": "rich_text_section",
                        "elements": [
                            {
                                "type": "text",
                                "text": "Also, I believe someone was talking about tracking apps-- not sure if this was int his channel or somewhere else"
                            }
                        ]
                    }
                ]
            }
        ]
    },
    {
        "client_msg_id": "604cf250-6777-4ae1-abdf-1eb7b1a4d5cb",
        "type": "message",
        "text": "but <https:\/\/www.worldometers.info\/coronavirus\/>",
        "user": "U0103128G4D",
        "ts": "1584640009.051100",
        "team": "TUU48M0T1",
        "user_team": "TUU48M0T1",
        "source_team": "TUU48M0T1",
        "user_profile": {
            "avatar_hash": "g76b7a7fcf75",
            "image_72": "https:\/\/secure.gravatar.com\/avatar\/76b7a7fcf754c895c0bf9763dfdebde4.jpg?s=72&d=https%3A%2F%2Fa.slack-edge.com%2Fdf10d%2Fimg%2Favatars%2Fava_0005-72.png",
            "first_name": "",
            "real_name": "Melody Wu",
            "display_name": "Melody Wu",
            "team": "TUU48M0T1",
            "name": "melody_w",
            "is_restricted": false,
            "is_ultra_restricted": false
        },
        "attachments": [
            {
                "title": "Coronavirus Update (Live): 236,703 Cases and 9,824 Deaths from COVID-19 Virus Outbreak - Worldometer",
                "title_link": "https:\/\/www.worldometers.info\/coronavirus\/",
                "text": "Live statistics and coronavirus news tracking the number of confirmed cases, recovered patients, and death toll by country due to the COVID 19 coronavirus from Wuhan, China. Coronavirus counter with new cases, historical data, and info. Daily charts, graphs, news and updates",
                "fallback": "Coronavirus Update (Live): 236,703 Cases and 9,824 Deaths from COVID-19 Virus Outbreak - Worldometer",
                "from_url": "https:\/\/www.worldometers.info\/coronavirus\/",
                "thumb_url": "http:\/\/www.worldometers.info\/img\/worldometers-fb.jpg",
                "thumb_width": 200,
                "thumb_height": 200,
                "service_icon": "https:\/\/www.worldometers.info\/favicon\/apple-icon-57x57.png",
                "service_name": "worldometers.info",
                "id": 1,
                "original_url": "https:\/\/www.worldometers.info\/coronavirus\/"
            }
        ],
        "blocks": [
            {
                "type": "rich_text",
                "block_id": "7VoH",
                "elements": [
                    {
                        "type": "rich_text_section",
                        "elements": [
                            {
                                "type": "text",
                                "text": "but "
                            },
                            {
                                "type": "link",
                                "url": "https:\/\/www.worldometers.info\/coronavirus\/"
                            }
                        ]
                    }
                ]
            }
        ]
    },
    {
        "client_msg_id": "49a60f10-880d-46e9-99cb-9395bb0caca5",
        "type": "message",
        "text": "I do think that it would be nice to integrate with them",
        "user": "U0103128G4D",
        "ts": "1584640022.051800",
        "team": "TUU48M0T1",
        "user_team": "TUU48M0T1",
        "source_team": "TUU48M0T1",
        "user_profile": {
            "avatar_hash": "g76b7a7fcf75",
            "image_72": "https:\/\/secure.gravatar.com\/avatar\/76b7a7fcf754c895c0bf9763dfdebde4.jpg?s=72&d=https%3A%2F%2Fa.slack-edge.com%2Fdf10d%2Fimg%2Favatars%2Fava_0005-72.png",
            "first_name": "",
            "real_name": "Melody Wu",
            "display_name": "Melody Wu",
            "team": "TUU48M0T1",
            "name": "melody_w",
            "is_restricted": false,
            "is_ultra_restricted": false
        },
        "blocks": [
            {
                "type": "rich_text",
                "block_id": "\/FJBn",
                "elements": [
                    {
                        "type": "rich_text_section",
                        "elements": [
                            {
                                "type": "text",
                                "text": "I do think that it would be nice to integrate with them"
                            }
                        ]
                    }
                ]
            }
        ]
    },
    {
        "client_msg_id": "8a5fa46f-363c-41bb-834d-c67b7405fc4e",
        "type": "message",
        "text": "That's the one I follow",
        "user": "UUPQGNNTV",
        "ts": "1584640033.052400",
        "team": "TUU48M0T1",
        "user_team": "TUU48M0T1",
        "source_team": "TUU48M0T1",
        "user_profile": {
            "avatar_hash": "c28127caf7eb",
            "image_72": "https:\/\/avatars.slack-edge.com\/2020-03-07\/989562470694_c28127caf7ebfe67df97_72.jpg",
            "first_name": "",
            "real_name": "Ellen Jorgensen",
            "display_name": "",
            "team": "TUU48M0T1",
            "name": "ejorgensen",
            "is_restricted": false,
            "is_ultra_restricted": false
        },
        "blocks": [
            {
                "type": "rich_text",
                "block_id": "PiPX",
                "elements": [
                    {
                        "type": "rich_text_section",
                        "elements": [
                            {
                                "type": "text",
                                "text": "That's the one I follow"
                            }
                        ]
                    }
                ]
            }
        ]
    },
    {
        "client_msg_id": "0af81dca-0342-46bd-bdb1-774b346ba54c",
        "type": "message",
        "text": "since I think they keep up to date mainly based off articles at the moment.",
        "user": "U0103128G4D",
        "ts": "1584640035.052500",
        "team": "TUU48M0T1",
        "user_team": "TUU48M0T1",
        "source_team": "TUU48M0T1",
        "user_profile": {
            "avatar_hash": "g76b7a7fcf75",
            "image_72": "https:\/\/secure.gravatar.com\/avatar\/76b7a7fcf754c895c0bf9763dfdebde4.jpg?s=72&d=https%3A%2F%2Fa.slack-edge.com%2Fdf10d%2Fimg%2Favatars%2Fava_0005-72.png",
            "first_name": "",
            "real_name": "Melody Wu",
            "display_name": "Melody Wu",
            "team": "TUU48M0T1",
            "name": "melody_w",
            "is_restricted": false,
            "is_ultra_restricted": false
        },
        "blocks": [
            {
                "type": "rich_text",
                "block_id": "W1n5W",
                "elements": [
                    {
                        "type": "rich_text_section",
                        "elements": [
                            {
                                "type": "text",
                                "text": "since I think they keep up to date mainly based off articles at the moment."
                            }
                        ]
                    }
                ]
            }
        ]
    },
    {
        "client_msg_id": "95630deb-c5f8-4010-bd87-3485cccc7380",
        "type": "message",
        "text": "Oh okay yeah. But I think once (and hopefully soon) testing comes into place, CDC will have more accurate info is the assumption? Idk if getting a phone system will be the most effective at the moment?",
        "user": "U0103128G4D",
        "ts": "1584640072.053900",
        "team": "TUU48M0T1",
        "user_team": "TUU48M0T1",
        "source_team": "TUU48M0T1",
        "user_profile": {
            "avatar_hash": "g76b7a7fcf75",
            "image_72": "https:\/\/secure.gravatar.com\/avatar\/76b7a7fcf754c895c0bf9763dfdebde4.jpg?s=72&d=https%3A%2F%2Fa.slack-edge.com%2Fdf10d%2Fimg%2Favatars%2Fava_0005-72.png",
            "first_name": "",
            "real_name": "Melody Wu",
            "display_name": "Melody Wu",
            "team": "TUU48M0T1",
            "name": "melody_w",
            "is_restricted": false,
            "is_ultra_restricted": false
        },
        "blocks": [
            {
                "type": "rich_text",
                "block_id": "Tfon",
                "elements": [
                    {
                        "type": "rich_text_section",
                        "elements": [
                            {
                                "type": "text",
                                "text": "Oh okay yeah. But I think once (and hopefully soon) testing comes into place, CDC will have more accurate info is the assumption? Idk if getting a phone system will be the most effective at the moment?"
                            }
                        ]
                    }
                ]
            }
        ]
    },
    {
        "client_msg_id": "089df7a7-6c4f-4190-9045-fcd48884f8c4",
        "type": "message",
        "text": "A friend of mine is on the team that collects that data for the NYTimes, he said it is super hard and all the sites suffer from innacuracy",
        "user": "UUPQGNNTV",
        "ts": "1584640115.056200",
        "team": "TUU48M0T1",
        "user_team": "TUU48M0T1",
        "source_team": "TUU48M0T1",
        "user_profile": {
            "avatar_hash": "c28127caf7eb",
            "image_72": "https:\/\/avatars.slack-edge.com\/2020-03-07\/989562470694_c28127caf7ebfe67df97_72.jpg",
            "first_name": "",
            "real_name": "Ellen Jorgensen",
            "display_name": "",
            "team": "TUU48M0T1",
            "name": "ejorgensen",
            "is_restricted": false,
            "is_ultra_restricted": false
        },
        "blocks": [
            {
                "type": "rich_text",
                "block_id": "XER",
                "elements": [
                    {
                        "type": "rich_text_section",
                        "elements": [
                            {
                                "type": "text",
                                "text": "A friend of mine is on the team that collects that data for the NYTimes, he said it is super hard and all the sites suffer from innacuracy"
                            }
                        ]
                    }
                ]
            }
        ],
        "reactions": [
            {
                "name": "+1",
                "users": [
                    "U0103128G4D",
                    "UV1D9NR1N"
                ],
                "count": 2
            }
        ]
    }
]