[
    {
        "client_msg_id": "d90f7e49-22b2-4fba-bea4-0fb724f01ae8",
        "type": "message",
        "text": "<@UV9V03C8Y> question to you and PR team, should we contact them?\nWe were kind of getting it from yesterdays call but whom to write?\n\nTnx.",
        "user": "U010B412MF1",
        "ts": "1588248486.034300",
        "team": "TUU48M0T1",
        "user_team": "TUU48M0T1",
        "source_team": "TUU48M0T1",
        "user_profile": {
            "avatar_hash": "218d963a797f",
            "image_72": "https:\/\/avatars.slack-edge.com\/2020-03-19\/1013072792629_218d963a797fbf4410c0_72.png",
            "first_name": "",
            "real_name": "liu",
            "display_name": "liu",
            "team": "TUU48M0T1",
            "name": "liubov.tupikina",
            "is_restricted": false,
            "is_ultra_restricted": false
        },
        "blocks": [
            {
                "type": "rich_text",
                "block_id": "2p3",
                "elements": [
                    {
                        "type": "rich_text_section",
                        "elements": [
                            {
                                "type": "user",
                                "user_id": "UV9V03C8Y"
                            },
                            {
                                "type": "text",
                                "text": " question to you and PR team, should we contact them?\nWe were kind of getting it from yesterdays call but whom to write?\n\nTnx."
                            }
                        ]
                    }
                ]
            }
        ],
        "thread_ts": "1588173982.034100",
        "parent_user_id": "UV9V03C8Y"
    },
    {
        "client_msg_id": "b56b832d-2dd1-4fa6-8336-815fd48c4da2",
        "type": "message",
        "text": "I mean to spread news about mircogrant and project...if jogl needs to know about it",
        "user": "U010B412MF1",
        "ts": "1588248512.034500",
        "team": "TUU48M0T1",
        "user_team": "TUU48M0T1",
        "source_team": "TUU48M0T1",
        "user_profile": {
            "avatar_hash": "218d963a797f",
            "image_72": "https:\/\/avatars.slack-edge.com\/2020-03-19\/1013072792629_218d963a797fbf4410c0_72.png",
            "first_name": "",
            "real_name": "liu",
            "display_name": "liu",
            "team": "TUU48M0T1",
            "name": "liubov.tupikina",
            "is_restricted": false,
            "is_ultra_restricted": false
        },
        "blocks": [
            {
                "type": "rich_text",
                "block_id": "y42x",
                "elements": [
                    {
                        "type": "rich_text_section",
                        "elements": [
                            {
                                "type": "text",
                                "text": "I mean to spread news about mircogrant and project...if jogl needs to know about it"
                            }
                        ]
                    }
                ]
            }
        ],
        "thread_ts": "1588173982.034100",
        "parent_user_id": "UV9V03C8Y"
    },
    {
        "client_msg_id": "a0908fb1-b2b7-4b75-91a4-60a54b204887",
        "type": "message",
        "text": "Ok we can ask from the team of communication from jogl...",
        "user": "U010B412MF1",
        "ts": "1588248545.034700",
        "team": "TUU48M0T1",
        "user_team": "TUU48M0T1",
        "source_team": "TUU48M0T1",
        "user_profile": {
            "avatar_hash": "218d963a797f",
            "image_72": "https:\/\/avatars.slack-edge.com\/2020-03-19\/1013072792629_218d963a797fbf4410c0_72.png",
            "first_name": "",
            "real_name": "liu",
            "display_name": "liu",
            "team": "TUU48M0T1",
            "name": "liubov.tupikina",
            "is_restricted": false,
            "is_ultra_restricted": false
        },
        "blocks": [
            {
                "type": "rich_text",
                "block_id": "zy0H",
                "elements": [
                    {
                        "type": "rich_text_section",
                        "elements": [
                            {
                                "type": "text",
                                "text": "Ok we can ask from the team of communication from jogl..."
                            }
                        ]
                    }
                ]
            }
        ],
        "thread_ts": "1588157706.032100",
        "parent_user_id": "U012G0X589F"
    },
    {
        "client_msg_id": "2a8fd3a2-5582-4f52-885a-a3109ff1a6cf",
        "type": "message",
        "text": "<@U010B412MF1>, what is PR team? sorry for my english. About the communication of your project and the grant, you can write directly on the <#CURG6ALTC|prgm-communications-team> channel, or mention <!subteam^S012DF438LW|@communications-team> in your post! They have developed guidelines, templates, and a process for posting project on social media :slightly_smiling_face:!",
        "user": "UV9V03C8Y",
        "ts": "1588249571.034900",
        "team": "TUU48M0T1",
        "user_team": "TUU48M0T1",
        "source_team": "TUU48M0T1",
        "user_profile": {
            "avatar_hash": "177697fb7b8f",
            "image_72": "https:\/\/avatars.slack-edge.com\/2020-03-12\/996126178096_177697fb7b8ffa57649c_72.jpg",
            "first_name": "Camille",
            "real_name": "Camille Masselot - JOGL Program coordinator",
            "display_name": "Camille Masselot - JOGL coordinator",
            "team": "TUU48M0T1",
            "name": "masselot.camille",
            "is_restricted": false,
            "is_ultra_restricted": false
        },
        "blocks": [
            {
                "type": "rich_text",
                "block_id": "mfYBr",
                "elements": [
                    {
                        "type": "rich_text_section",
                        "elements": [
                            {
                                "type": "user",
                                "user_id": "U010B412MF1"
                            },
                            {
                                "type": "text",
                                "text": ", what is PR team? sorry for my english. About the communication of your project and the grant, you can write directly on the "
                            },
                            {
                                "type": "channel",
                                "channel_id": "CURG6ALTC"
                            },
                            {
                                "type": "text",
                                "text": " channel, or mention "
                            },
                            {
                                "type": "usergroup",
                                "usergroup_id": "S012DF438LW"
                            },
                            {
                                "type": "text",
                                "text": " in your post! They have developed guidelines, templates, and a process for posting project on social media "
                            },
                            {
                                "type": "emoji",
                                "name": "slightly_smiling_face"
                            },
                            {
                                "type": "text",
                                "text": "!"
                            }
                        ]
                    }
                ]
            }
        ],
        "thread_ts": "1588173982.034100",
        "parent_user_id": "UV9V03C8Y",
        "reactions": [
            {
                "name": "+1",
                "users": [
                    "U011B6VLM2A",
                    "U010B412MF1"
                ],
                "count": 2
            }
        ]
    },
    {
        "client_msg_id": "88977629-322a-4763-a4ae-a8580033b894",
        "type": "message",
        "text": "Yes i meant communication team. Sorry, in german we had pr team in the institute...",
        "user": "U010B412MF1",
        "ts": "1588253088.035200",
        "team": "TUU48M0T1",
        "user_team": "TUU48M0T1",
        "source_team": "TUU48M0T1",
        "user_profile": {
            "avatar_hash": "218d963a797f",
            "image_72": "https:\/\/avatars.slack-edge.com\/2020-03-19\/1013072792629_218d963a797fbf4410c0_72.png",
            "first_name": "",
            "real_name": "liu",
            "display_name": "liu",
            "team": "TUU48M0T1",
            "name": "liubov.tupikina",
            "is_restricted": false,
            "is_ultra_restricted": false
        },
        "blocks": [
            {
                "type": "rich_text",
                "block_id": "DhN",
                "elements": [
                    {
                        "type": "rich_text_section",
                        "elements": [
                            {
                                "type": "text",
                                "text": "Yes i meant communication team. Sorry, in german we had pr team in the institute..."
                            }
                        ]
                    }
                ]
            }
        ],
        "thread_ts": "1588173982.034100",
        "parent_user_id": "UV9V03C8Y"
    },
    {
        "client_msg_id": "2f71f074-f29c-437a-a3e5-adc1852e43e9",
        "type": "message",
        "text": "<@U010APQC76J> i ping you here then also. Tnx!",
        "user": "U010B412MF1",
        "ts": "1588253136.035500",
        "team": "TUU48M0T1",
        "user_team": "TUU48M0T1",
        "source_team": "TUU48M0T1",
        "user_profile": {
            "avatar_hash": "218d963a797f",
            "image_72": "https:\/\/avatars.slack-edge.com\/2020-03-19\/1013072792629_218d963a797fbf4410c0_72.png",
            "first_name": "",
            "real_name": "liu",
            "display_name": "liu",
            "team": "TUU48M0T1",
            "name": "liubov.tupikina",
            "is_restricted": false,
            "is_ultra_restricted": false
        },
        "blocks": [
            {
                "type": "rich_text",
                "block_id": "MD3",
                "elements": [
                    {
                        "type": "rich_text_section",
                        "elements": [
                            {
                                "type": "user",
                                "user_id": "U010APQC76J"
                            },
                            {
                                "type": "text",
                                "text": " i ping you here then also. Tnx!"
                            }
                        ]
                    }
                ]
            }
        ],
        "thread_ts": "1588173982.034100",
        "parent_user_id": "UV9V03C8Y"
    },
    {
        "type": "message",
        "subtype": "channel_join",
        "ts": "1588253138.035800",
        "user": "U010APQC76J",
        "text": "<@U010APQC76J> has joined the channel",
        "inviter": "U010B412MF1",
        "reactions": [
            {
                "name": "heart",
                "users": [
                    "U011D6K9RH6"
                ],
                "count": 1
            }
        ]
    },
    {
        "client_msg_id": "888206fd-35ac-4bd7-af85-b166bb6835ed",
        "type": "message",
        "text": "Also adding <@U011D6K9RH6> here",
        "user": "U010B412MF1",
        "ts": "1588266573.035900",
        "team": "TUU48M0T1",
        "user_team": "TUU48M0T1",
        "source_team": "TUU48M0T1",
        "user_profile": {
            "avatar_hash": "218d963a797f",
            "image_72": "https:\/\/avatars.slack-edge.com\/2020-03-19\/1013072792629_218d963a797fbf4410c0_72.png",
            "first_name": "",
            "real_name": "liu",
            "display_name": "liu",
            "team": "TUU48M0T1",
            "name": "liubov.tupikina",
            "is_restricted": false,
            "is_ultra_restricted": false
        },
        "blocks": [
            {
                "type": "rich_text",
                "block_id": "20vF",
                "elements": [
                    {
                        "type": "rich_text_section",
                        "elements": [
                            {
                                "type": "text",
                                "text": "Also adding "
                            },
                            {
                                "type": "user",
                                "user_id": "U011D6K9RH6"
                            },
                            {
                                "type": "text",
                                "text": " here"
                            }
                        ]
                    }
                ]
            }
        ],
        "thread_ts": "1588173982.034100",
        "parent_user_id": "UV9V03C8Y"
    },
    {
        "type": "message",
        "subtype": "channel_join",
        "ts": "1588266576.036200",
        "user": "U011D6K9RH6",
        "text": "<@U011D6K9RH6> has joined the channel",
        "inviter": "U010B412MF1"
    },
    {
        "client_msg_id": "2599e9c2-f259-4ca3-9547-8cd647ccf8c1",
        "type": "message",
        "text": "Hi <@U010B412MF1> and <@UV9V03C8Y> - Would love to help in any way I can! :slightly_smiling_face:",
        "user": "U011D6K9RH6",
        "ts": "1588267161.036300",
        "team": "TUU48M0T1",
        "user_team": "TUU48M0T1",
        "source_team": "TUU48M0T1",
        "user_profile": {
            "avatar_hash": "85c5155708e4",
            "image_72": "https:\/\/avatars.slack-edge.com\/2020-04-02\/1033600589794_85c5155708e4e6cfa61f_72.jpg",
            "first_name": "George",
            "real_name": "George Elerick",
            "display_name": "George Elerick",
            "team": "TUU48M0T1",
            "name": "george",
            "is_restricted": false,
            "is_ultra_restricted": false
        },
        "blocks": [
            {
                "type": "rich_text",
                "block_id": "EWYb",
                "elements": [
                    {
                        "type": "rich_text_section",
                        "elements": [
                            {
                                "type": "text",
                                "text": "Hi "
                            },
                            {
                                "type": "user",
                                "user_id": "U010B412MF1"
                            },
                            {
                                "type": "text",
                                "text": " and "
                            },
                            {
                                "type": "user",
                                "user_id": "UV9V03C8Y"
                            },
                            {
                                "type": "text",
                                "text": " - Would love to help in any way I can! "
                            },
                            {
                                "type": "emoji",
                                "name": "slightly_smiling_face"
                            }
                        ]
                    }
                ]
            }
        ],
        "thread_ts": "1588173982.034100",
        "parent_user_id": "UV9V03C8Y"
    },
    {
        "client_msg_id": "7590e107-8683-41be-b745-25be401ddc2d",
        "type": "message",
        "text": "Thanks a lot! We will soon update on how people can particulate. Basically there is a link to the google form",
        "user": "U010B412MF1",
        "ts": "1588279738.036500",
        "team": "TUU48M0T1",
        "user_team": "TUU48M0T1",
        "source_team": "TUU48M0T1",
        "user_profile": {
            "avatar_hash": "218d963a797f",
            "image_72": "https:\/\/avatars.slack-edge.com\/2020-03-19\/1013072792629_218d963a797fbf4410c0_72.png",
            "first_name": "",
            "real_name": "liu",
            "display_name": "liu",
            "team": "TUU48M0T1",
            "name": "liubov.tupikina",
            "is_restricted": false,
            "is_ultra_restricted": false
        },
        "thread_ts": "1588173982.034100",
        "parent_user_id": "UV9V03C8Y",
        "reactions": [
            {
                "name": "heart",
                "users": [
                    "U011D6K9RH6"
                ],
                "count": 1
            }
        ]
    }
]