[
    {
        "client_msg_id": "a505b9fd-5a68-47ad-8145-df01c2c5056b",
        "type": "message",
        "text": "Thanks for the initiative <@U010B412MF1>!",
        "user": "UV9V03C8Y",
        "ts": "1587382049.000500",
        "team": "TUU48M0T1",
        "user_team": "TUU48M0T1",
        "source_team": "TUU48M0T1",
        "user_profile": {
            "avatar_hash": "177697fb7b8f",
            "image_72": "https:\/\/avatars.slack-edge.com\/2020-03-12\/996126178096_177697fb7b8ffa57649c_72.jpg",
            "first_name": "Camille",
            "real_name": "Camille Masselot - JOGL Program coordinator",
            "display_name": "Camille Masselot - JOGL coordinator",
            "team": "TUU48M0T1",
            "name": "masselot.camille",
            "is_restricted": false,
            "is_ultra_restricted": false
        },
        "blocks": [
            {
                "type": "rich_text",
                "block_id": "Fs16",
                "elements": [
                    {
                        "type": "rich_text_section",
                        "elements": [
                            {
                                "type": "text",
                                "text": "Thanks for the initiative "
                            },
                            {
                                "type": "user",
                                "user_id": "U010B412MF1"
                            },
                            {
                                "type": "text",
                                "text": "!"
                            }
                        ]
                    }
                ]
            }
        ]
    },
    {
        "client_msg_id": "7823db14-bd89-4b54-b9e5-8785bd77c728",
        "type": "message",
        "text": "I don't know then personally but that would be really awesome!",
        "user": "UV9V03C8Y",
        "ts": "1587382103.000700",
        "team": "TUU48M0T1",
        "user_team": "TUU48M0T1",
        "source_team": "TUU48M0T1",
        "user_profile": {
            "avatar_hash": "177697fb7b8f",
            "image_72": "https:\/\/avatars.slack-edge.com\/2020-03-12\/996126178096_177697fb7b8ffa57649c_72.jpg",
            "first_name": "Camille",
            "real_name": "Camille Masselot - JOGL Program coordinator",
            "display_name": "Camille Masselot - JOGL coordinator",
            "team": "TUU48M0T1",
            "name": "masselot.camille",
            "is_restricted": false,
            "is_ultra_restricted": false
        },
        "blocks": [
            {
                "type": "rich_text",
                "block_id": "\/C08",
                "elements": [
                    {
                        "type": "rich_text_section",
                        "elements": [
                            {
                                "type": "text",
                                "text": "I don't know then personally but that would be really awesome!"
                            }
                        ]
                    }
                ]
            }
        ],
        "thread_ts": "1587246931.006100",
        "parent_user_id": "U0104M5CWV9"
    },
    {
        "client_msg_id": "abe46eb4-5263-4734-a050-f3140bd2ec51",
        "type": "message",
        "text": "If there is any particular aspect of the public health behind this initiative that people\/students would like to learn about, I'm happy to reach out to my network as well",
        "user": "UV9V03C8Y",
        "ts": "1587382149.001600",
        "team": "TUU48M0T1",
        "user_team": "TUU48M0T1",
        "source_team": "TUU48M0T1",
        "user_profile": {
            "avatar_hash": "177697fb7b8f",
            "image_72": "https:\/\/avatars.slack-edge.com\/2020-03-12\/996126178096_177697fb7b8ffa57649c_72.jpg",
            "first_name": "Camille",
            "real_name": "Camille Masselot - JOGL Program coordinator",
            "display_name": "Camille Masselot - JOGL coordinator",
            "team": "TUU48M0T1",
            "name": "masselot.camille",
            "is_restricted": false,
            "is_ultra_restricted": false
        },
        "blocks": [
            {
                "type": "rich_text",
                "block_id": "FItkd",
                "elements": [
                    {
                        "type": "rich_text_section",
                        "elements": [
                            {
                                "type": "text",
                                "text": "If there is any particular aspect of the public health behind this initiative that people\/students would like to learn about, I'm happy to reach out to my network as well"
                            }
                        ]
                    }
                ]
            }
        ],
        "reactions": [
            {
                "name": "heart",
                "users": [
                    "UVDJ0PAQK",
                    "U010B412MF1"
                ],
                "count": 2
            },
            {
                "name": "+1::skin-tone-4",
                "users": [
                    "U0103LPAWQ4"
                ],
                "count": 1
            }
        ]
    },
    {
        "client_msg_id": "5570f75d-b0a7-441e-9389-d1ccd99c06ee",
        "type": "message",
        "text": "Thank you!",
        "user": "U010B412MF1",
        "ts": "1587389705.002900",
        "team": "TUU48M0T1",
        "user_team": "TUU48M0T1",
        "source_team": "TUU48M0T1",
        "user_profile": {
            "avatar_hash": "218d963a797f",
            "image_72": "https:\/\/avatars.slack-edge.com\/2020-03-19\/1013072792629_218d963a797fbf4410c0_72.png",
            "first_name": "",
            "real_name": "liu",
            "display_name": "liu",
            "team": "TUU48M0T1",
            "name": "liubov.tupikina",
            "is_restricted": false,
            "is_ultra_restricted": false
        }
    },
    {
        "client_msg_id": "2332040d-16b5-4144-bb8b-723268800a91",
        "type": "message",
        "text": "<@U0101DKUALV> if you know from the registration form whom we may need to invite here, feel free! Tnx a lot:earth_africa:",
        "user": "U010B412MF1",
        "ts": "1587390402.003900",
        "team": "TUU48M0T1",
        "user_team": "TUU48M0T1",
        "source_team": "TUU48M0T1",
        "user_profile": {
            "avatar_hash": "218d963a797f",
            "image_72": "https:\/\/avatars.slack-edge.com\/2020-03-19\/1013072792629_218d963a797fbf4410c0_72.png",
            "first_name": "",
            "real_name": "liu",
            "display_name": "liu",
            "team": "TUU48M0T1",
            "name": "liubov.tupikina",
            "is_restricted": false,
            "is_ultra_restricted": false
        },
        "blocks": [
            {
                "type": "rich_text",
                "block_id": "u2I0f",
                "elements": [
                    {
                        "type": "rich_text_section",
                        "elements": [
                            {
                                "type": "user",
                                "user_id": "U0101DKUALV"
                            },
                            {
                                "type": "text",
                                "text": " if you know from the registration form whom we may need to invite here, feel free! Tnx a lot"
                            },
                            {
                                "type": "emoji",
                                "name": "earth_africa"
                            }
                        ]
                    }
                ]
            }
        ],
        "thread_ts": "1587390402.003900",
        "reply_count": 1,
        "reply_users_count": 1,
        "latest_reply": "1587410566.006300",
        "reply_users": [
            "U0101DKUALV"
        ],
        "replies": [
            {
                "user": "U0101DKUALV",
                "ts": "1587410566.006300"
            }
        ],
        "subscribed": false
    },
    {
        "type": "message",
        "subtype": "channel_join",
        "ts": "1587401812.004200",
        "user": "U011D8T1Z61",
        "text": "<@U011D8T1Z61> has joined the channel"
    },
    {
        "client_msg_id": "30a6e326-f8e0-4b08-944e-ac94355bfb27",
        "type": "message",
        "text": "Hello everyone, \n\nCheck latest news on JOGl \n<https:\/\/app.jogl.io\/project\/216#news|https:\/\/app.jogl.io\/project\/216#news>\nWe would be happy to communicate with you soon. If you have ideas please feel free to share them here :rainbow::earth_asia::coffee:",
        "user": "U010B412MF1",
        "ts": "1587402082.005900",
        "team": "TUU48M0T1",
        "user_team": "TUU48M0T1",
        "source_team": "TUU48M0T1",
        "user_profile": {
            "avatar_hash": "218d963a797f",
            "image_72": "https:\/\/avatars.slack-edge.com\/2020-03-19\/1013072792629_218d963a797fbf4410c0_72.png",
            "first_name": "",
            "real_name": "liu",
            "display_name": "liu",
            "team": "TUU48M0T1",
            "name": "liubov.tupikina",
            "is_restricted": false,
            "is_ultra_restricted": false
        },
        "attachments": [
            {
                "title": "JOGL - Just One Giant Lab",
                "title_link": "https:\/\/app.jogl.io\/project\/216#news",
                "text": "JOGL helps sync humanity onto solving our most important social &amp; environmental problems using open science, responsible innovation &amp; continuous learning.",
                "fallback": "JOGL - Just One Giant Lab",
                "thumb_url": "https:\/\/app.jogl.io\/planet.jpg",
                "from_url": "https:\/\/app.jogl.io\/project\/216#news",
                "thumb_width": 2049,
                "thumb_height": 1011,
                "service_icon": "https:\/\/app.jogl.io\/favicon.ico",
                "service_name": "app.jogl.io",
                "id": 1,
                "original_url": "https:\/\/app.jogl.io\/project\/216#news"
            }
        ],
        "blocks": [
            {
                "type": "rich_text",
                "block_id": "AhA+",
                "elements": [
                    {
                        "type": "rich_text_section",
                        "elements": [
                            {
                                "type": "text",
                                "text": "Hello everyone, \n\nCheck latest news on JOGl \n"
                            },
                            {
                                "type": "link",
                                "url": "https:\/\/app.jogl.io\/project\/216#news",
                                "text": "https:\/\/app.jogl.io\/project\/216#news"
                            },
                            {
                                "type": "text",
                                "text": "\nWe would be happy to communicate with you soon. If you have ideas please feel free to share them here "
                            },
                            {
                                "type": "emoji",
                                "name": "rainbow"
                            },
                            {
                                "type": "emoji",
                                "name": "earth_asia"
                            },
                            {
                                "type": "emoji",
                                "name": "coffee"
                            }
                        ]
                    }
                ]
            }
        ]
    },
    {
        "client_msg_id": "1f8721f2-ad27-46a2-b275-a1280d21831f",
        "type": "message",
        "text": "Hi, Liubov! I unfortunately got locked out of the first onboarding survey but I can check some JOGL data I received and a few other locations :D",
        "user": "U0101DKUALV",
        "ts": "1587410566.006300",
        "team": "TUU48M0T1",
        "user_team": "TUU48M0T1",
        "source_team": "TUU48M0T1",
        "user_profile": {
            "avatar_hash": "b0aee06ed3e5",
            "image_72": "https:\/\/avatars.slack-edge.com\/2020-04-22\/1072886325190_b0aee06ed3e501ebdf56_72.png",
            "first_name": "",
            "real_name": "Pauline Chane",
            "display_name": "Pauline Chane",
            "team": "TUU48M0T1",
            "name": "pauline.chane",
            "is_restricted": false,
            "is_ultra_restricted": false
        },
        "blocks": [
            {
                "type": "rich_text",
                "block_id": "9bWmD",
                "elements": [
                    {
                        "type": "rich_text_section",
                        "elements": [
                            {
                                "type": "text",
                                "text": "Hi, Liubov! I unfortunately got locked out of the first onboarding survey but I can check some JOGL data I received and a few other locations :D"
                            }
                        ]
                    }
                ]
            }
        ],
        "thread_ts": "1587390402.003900",
        "parent_user_id": "U010B412MF1"
    }
]