[
    {
        "type": "message",
        "subtype": "channel_join",
        "ts": "1586116334.000200",
        "user": "U010GFNDDL4",
        "text": "<@U010GFNDDL4> has joined the channel"
    },
    {
        "type": "message",
        "subtype": "channel_purpose",
        "ts": "1586116335.000300",
        "user": "U010GFNDDL4",
        "text": "<@U010GFNDDL4> set the channel purpose: Breezy Ventilator - <https:\/\/app.jogl.io\/project\/151>",
        "purpose": "Breezy Ventilator - <https:\/\/app.jogl.io\/project\/151>"
    },
    {
        "type": "message",
        "subtype": "channel_join",
        "ts": "1586116363.000500",
        "user": "U010B4EJG2C",
        "text": "<@U010B4EJG2C> has joined the channel",
        "inviter": "U010GFNDDL4"
    },
    {
        "type": "message",
        "subtype": "channel_join",
        "ts": "1586116363.000700",
        "user": "U0108DWH5NH",
        "text": "<@U0108DWH5NH> has joined the channel",
        "inviter": "U010GFNDDL4"
    },
    {
        "type": "message",
        "subtype": "channel_purpose",
        "ts": "1586116932.000800",
        "user": "U010GFNDDL4",
        "text": "<@U010GFNDDL4> set the channel purpose: Breezy - the crisis emergency ventilator <https:\/\/app.jogl.io\/project\/151#about>",
        "purpose": "Breezy - the crisis emergency ventilator <https:\/\/app.jogl.io\/project\/151#about>"
    },
    {
        "type": "message",
        "subtype": "channel_join",
        "ts": "1586121692.001000",
        "user": "U010U9EHR7T",
        "text": "<@U010U9EHR7T> has joined the channel"
    },
    {
        "type": "message",
        "subtype": "channel_join",
        "ts": "1586123429.001200",
        "user": "U0109LRFM3Q",
        "text": "<@U0109LRFM3Q> has joined the channel"
    }
]