[
    {
        "client_msg_id": "D1A973CD-1F7C-4549-BED8-7DF7FD2571F9",
        "type": "message",
        "text": "ask your boss? i just did. #win",
        "user": "U010GHT685A",
        "ts": "1586552651.011600",
        "team": "TUU48M0T1",
        "user_team": "TUU48M0T1",
        "source_team": "TUU48M0T1",
        "user_profile": {
            "avatar_hash": "g8b82eba32dc",
            "image_72": "https:\/\/secure.gravatar.com\/avatar\/8b82eba32dceb4a94f0d2f641621be24.jpg?s=72&d=https%3A%2F%2Fa.slack-edge.com%2Fdf10d%2Fimg%2Favatars%2Fava_0014-72.png",
            "first_name": "",
            "real_name": "Cody Kochmann",
            "display_name": "",
            "team": "TUU48M0T1",
            "name": "kochmanncody",
            "is_restricted": false,
            "is_ultra_restricted": false
        },
        "blocks": [
            {
                "type": "rich_text",
                "block_id": "4WWJ",
                "elements": [
                    {
                        "type": "rich_text_section",
                        "elements": [
                            {
                                "type": "text",
                                "text": "ask your boss? i just did. #win"
                            }
                        ]
                    }
                ]
            }
        ]
    },
    {
        "client_msg_id": "849F4AB6-C89C-4EF3-88F0-6145809AD466",
        "type": "message",
        "text": "or did you mean you had ideas to pitch?",
        "user": "U010GHT685A",
        "ts": "1586553621.012400",
        "team": "TUU48M0T1",
        "user_team": "TUU48M0T1",
        "source_team": "TUU48M0T1",
        "user_profile": {
            "avatar_hash": "g8b82eba32dc",
            "image_72": "https:\/\/secure.gravatar.com\/avatar\/8b82eba32dceb4a94f0d2f641621be24.jpg?s=72&d=https%3A%2F%2Fa.slack-edge.com%2Fdf10d%2Fimg%2Favatars%2Fava_0014-72.png",
            "first_name": "",
            "real_name": "Cody Kochmann",
            "display_name": "",
            "team": "TUU48M0T1",
            "name": "kochmanncody",
            "is_restricted": false,
            "is_ultra_restricted": false
        },
        "blocks": [
            {
                "type": "rich_text",
                "block_id": "8lmEL",
                "elements": [
                    {
                        "type": "rich_text_section",
                        "elements": [
                            {
                                "type": "text",
                                "text": "or did you mean you had ideas to pitch?"
                            }
                        ]
                    }
                ]
            }
        ],
        "thread_ts": "1586553621.012400",
        "reply_count": 2,
        "reply_users_count": 1,
        "latest_reply": "1586592485.012800",
        "reply_users": [
            "U010X9FPMS8"
        ],
        "replies": [
            {
                "user": "U010X9FPMS8",
                "ts": "1586592366.012500"
            },
            {
                "user": "U010X9FPMS8",
                "ts": "1586592485.012800"
            }
        ],
        "subscribed": false
    }
]