[
    {
        "client_msg_id": "a0cfa106-6f45-48e0-8dc7-200b95f43e33",
        "type": "message",
        "text": "Hello, I´m Elena, biomedical reseracher from Spain (south). Emergency state here in Spain since yesterday. Maybe I could be of help if we decide to apply for EU calls.",
        "user": "UV8Q23Y1K",
        "ts": "1584270612.021200",
        "team": "TUU48M0T1",
        "user_team": "TUU48M0T1",
        "source_team": "TUU48M0T1",
        "user_profile": {
            "avatar_hash": "ad69759435b1",
            "image_72": "https:\/\/avatars.slack-edge.com\/2020-03-19\/998559413570_ad69759435b1ba0e6be9_72.png",
            "first_name": "",
            "real_name": "Elena Perez-Nadales",
            "display_name": "Elena Perez-Nadales",
            "team": "TUU48M0T1",
            "name": "epereznadales",
            "is_restricted": false,
            "is_ultra_restricted": false
        },
        "blocks": [
            {
                "type": "rich_text",
                "block_id": "ZGO",
                "elements": [
                    {
                        "type": "rich_text_section",
                        "elements": [
                            {
                                "type": "text",
                                "text": "Hello, I´m Elena, biomedical reseracher from Spain (south). Emergency state here in Spain since yesterday. Maybe I could be of help if we decide to apply for EU calls."
                            }
                        ]
                    }
                ]
            }
        ],
        "reactions": [
            {
                "name": "wave",
                "users": [
                    "UV2SC7ZE3"
                ],
                "count": 1
            }
        ]
    },
    {
        "client_msg_id": "2f78733e-74c1-4963-a06a-0d01bd16a180",
        "type": "message",
        "text": "Sam Altman (a founder of Y Combinator) offers COVID-19 funding. He specifically calls out ventilator projects, vaccine and drug development <https:\/\/blog.samaltman.com\/funding-for-covid-19-projects>",
        "user": "UUVC28VNW",
        "ts": "1584296592.022000",
        "team": "TUU48M0T1",
        "user_team": "TUU48M0T1",
        "source_team": "TUU48M0T1",
        "user_profile": {
            "avatar_hash": "g043992485ea",
            "image_72": "https:\/\/secure.gravatar.com\/avatar\/043992485ea85d5a98f34e6ad42d47f6.jpg?s=72&d=https%3A%2F%2Fa.slack-edge.com%2Fdf10d%2Fimg%2Favatars%2Fava_0026-72.png",
            "first_name": "Eri",
            "real_name": "Eri Gentry",
            "display_name": "Eri Gentry",
            "team": "TUU48M0T1",
            "name": "eri",
            "is_restricted": false,
            "is_ultra_restricted": false
        },
        "attachments": [
            {
                "service_name": "Sam Altman",
                "title": "Funding for COVID-19 Projects",
                "title_link": "https:\/\/blog.samaltman.com\/funding-for-covid-19-projects",
                "text": "I’m trying to fund startups\/projects helping with COVID-19, because it’s basically the one thing I know how to do that can help.  I think we will soon have enough testing capacity, so now I’d like...",
                "fallback": "Sam Altman: Funding for COVID-19 Projects",
                "from_url": "https:\/\/blog.samaltman.com\/funding-for-covid-19-projects",
                "service_icon": "https:\/\/blog.samaltman.com\/favicon.ico",
                "id": 1,
                "original_url": "https:\/\/blog.samaltman.com\/funding-for-covid-19-projects"
            }
        ],
        "blocks": [
            {
                "type": "rich_text",
                "block_id": "7TEC",
                "elements": [
                    {
                        "type": "rich_text_section",
                        "elements": [
                            {
                                "type": "text",
                                "text": "Sam Altman (a founder of Y Combinator) offers COVID-19 funding. He specifically calls out ventilator projects, vaccine and drug development "
                            },
                            {
                                "type": "link",
                                "url": "https:\/\/blog.samaltman.com\/funding-for-covid-19-projects"
                            }
                        ]
                    }
                ]
            }
        ],
        "thread_ts": "1584296592.022000",
        "reply_count": 3,
        "reply_users_count": 3,
        "latest_reply": "1584497737.031400",
        "reply_users": [
            "UVADMLUB0",
            "UV1D9NR1N",
            "UUVC28VNW"
        ],
        "replies": [
            {
                "user": "UVADMLUB0",
                "ts": "1584380374.023200"
            },
            {
                "user": "UV1D9NR1N",
                "ts": "1584384560.024400"
            },
            {
                "user": "UUVC28VNW",
                "ts": "1584497737.031400"
            }
        ],
        "subscribed": false,
        "reactions": [
            {
                "name": "+1",
                "users": [
                    "UV02WET96"
                ],
                "count": 1
            }
        ]
    },
    {
        "client_msg_id": "5ABDC5D1-75AA-451A-809A-9288C6CC47AA",
        "type": "message",
        "text": "Thanks Eri!",
        "user": "UV02WET96",
        "ts": "1584299218.022500",
        "team": "TUU48M0T1",
        "user_team": "TUU48M0T1",
        "source_team": "TUU48M0T1",
        "user_profile": {
            "avatar_hash": "a99c74a194f8",
            "image_72": "https:\/\/avatars.slack-edge.com\/2020-03-07\/975708504851_a99c74a194f86715ca7d_72.png",
            "first_name": "Thomas",
            "real_name": "Thomas Landrain",
            "display_name": "Thomas Landrain - JOGL CoFounder \/ CEO",
            "team": "TUU48M0T1",
            "name": "thomas",
            "is_restricted": false,
            "is_ultra_restricted": false
        },
        "blocks": [
            {
                "type": "rich_text",
                "block_id": "fe7dC",
                "elements": [
                    {
                        "type": "rich_text_section",
                        "elements": [
                            {
                                "type": "text",
                                "text": "Thanks Eri!"
                            }
                        ]
                    }
                ]
            }
        ]
    },
    {
        "type": "message",
        "subtype": "channel_name",
        "ts": "1584300319.022600",
        "user": "UV0QTJCMT",
        "text": "<@UV0QTJCMT> has renamed the channel from \"funding-opportunities\" to \"prgm-funding-team\"",
        "old_name": "funding-opportunities",
        "name": "prgm-funding-team"
    },
    {
        "type": "message",
        "subtype": "channel_topic",
        "ts": "1584300371.022700",
        "user": "UV0QTJCMT",
        "text": "<@UV0QTJCMT> set the channel topic: Channel for all members of the funding program workgroup to discuss any and all funding opportunities and needs on the program, challenge, and project levels",
        "topic": "Channel for all members of the funding program workgroup to discuss any and all funding opportunities and needs on the program, challenge, and project levels"
    }
]