[
    {
        "client_msg_id": "2b6b3ecc-db58-413e-8298-c7b829d015bc",
        "type": "message",
        "text": "Works for me. Put in on my agenda.",
        "user": "U010X9FPMS8",
        "ts": "1586959438.019600",
        "team": "TUU48M0T1",
        "user_team": "TUU48M0T1",
        "source_team": "TUU48M0T1",
        "user_profile": {
            "avatar_hash": "faff4edf8af2",
            "image_72": "https:\/\/avatars.slack-edge.com\/2020-03-27\/1031471711236_faff4edf8af2cc7b11dd_72.jpg",
            "first_name": "Florian",
            "real_name": "Florian Schulte",
            "display_name": "Florian Schulte",
            "team": "TUU48M0T1",
            "name": "schulte.florian",
            "is_restricted": false,
            "is_ultra_restricted": false
        },
        "blocks": [
            {
                "type": "rich_text",
                "block_id": "dAx",
                "elements": [
                    {
                        "type": "rich_text_section",
                        "elements": [
                            {
                                "type": "text",
                                "text": "Works for me. Put in on my agenda."
                            }
                        ]
                    }
                ]
            }
        ],
        "thread_ts": "1586759044.019300",
        "parent_user_id": "U010X9FPMS8"
    }
]