[
    {
        "type": "message",
        "subtype": "channel_join",
        "ts": "1585419596.000200",
        "user": "UV3URUKK5",
        "text": "<@UV3URUKK5> has joined the channel"
    },
    {
        "type": "message",
        "subtype": "channel_purpose",
        "ts": "1585419597.000300",
        "user": "UV3URUKK5",
        "text": "<@UV3URUKK5> set the channel purpose: A channel to discuss about cell-free sensors",
        "purpose": "A channel to discuss about cell-free sensors"
    },
    {
        "type": "message",
        "subtype": "channel_join",
        "ts": "1585419655.000500",
        "user": "UV3746ST1",
        "text": "<@UV3746ST1> has joined the channel",
        "inviter": "UV3URUKK5"
    },
    {
        "type": "message",
        "subtype": "channel_join",
        "ts": "1585419655.000700",
        "user": "UV20M5HGQ",
        "text": "<@UV20M5HGQ> has joined the channel",
        "inviter": "UV3URUKK5"
    },
    {
        "type": "message",
        "subtype": "channel_join",
        "ts": "1585419655.000900",
        "user": "UV5C2TFCH",
        "text": "<@UV5C2TFCH> has joined the channel",
        "inviter": "UV3URUKK5"
    },
    {
        "type": "message",
        "subtype": "channel_join",
        "ts": "1585419655.001100",
        "user": "UUNGFHSV8",
        "text": "<@UUNGFHSV8> has joined the channel",
        "inviter": "UV3URUKK5"
    },
    {
        "type": "message",
        "subtype": "channel_join",
        "ts": "1585419655.001300",
        "user": "UV78JAX0S",
        "text": "<@UV78JAX0S> has joined the channel",
        "inviter": "UV3URUKK5"
    },
    {
        "client_msg_id": "2373FFA4-9D77-428C-AD7C-AFA8C4F07C56",
        "type": "message",
        "text": "Hey team sorry I missed the call this morning. Are there any notes?",
        "user": "UV78JAX0S",
        "ts": "1585420528.002100",
        "team": "TUU48M0T1",
        "user_team": "TUU48M0T1",
        "source_team": "TUU48M0T1",
        "user_profile": {
            "avatar_hash": "ab643489965e",
            "image_72": "https:\/\/avatars.slack-edge.com\/2020-03-17\/996174739571_ab643489965e0031c49d_72.png",
            "first_name": "Khalid",
            "real_name": "Khalid K. Alam",
            "display_name": "Khalid K. Alam",
            "team": "TUU48M0T1",
            "name": "khalid",
            "is_restricted": false,
            "is_ultra_restricted": false
        },
        "blocks": [
            {
                "type": "rich_text",
                "block_id": "0IVo",
                "elements": [
                    {
                        "type": "rich_text_section",
                        "elements": [
                            {
                                "type": "text",
                                "text": "Hey team sorry I missed the call this morning. Are there any notes?"
                            }
                        ]
                    }
                ]
            }
        ]
    },
    {
        "client_msg_id": "ee06c363-027f-4f47-ab2b-dc093ba2f476",
        "type": "message",
        "text": "Yes! <https:\/\/drive.google.com\/open?id=1vSUlOoAkruk4I_qCDoj27s7lAhhvxt8I>",
        "user": "UV3URUKK5",
        "ts": "1585421046.002400",
        "team": "TUU48M0T1",
        "user_team": "TUU48M0T1",
        "source_team": "TUU48M0T1",
        "user_profile": {
            "avatar_hash": "64c99c2ed974",
            "image_72": "https:\/\/avatars.slack-edge.com\/2020-03-15\/1000999702004_64c99c2ed97497e08ca9_72.jpg",
            "first_name": "",
            "real_name": "Francisco Javier Quero",
            "display_name": "Francisco Javier Quero",
            "team": "TUU48M0T1",
            "name": "franxi2953",
            "is_restricted": false,
            "is_ultra_restricted": false
        },
        "blocks": [
            {
                "type": "rich_text",
                "block_id": "Fgci",
                "elements": [
                    {
                        "type": "rich_text_section",
                        "elements": [
                            {
                                "type": "text",
                                "text": "Yes! "
                            },
                            {
                                "type": "link",
                                "url": "https:\/\/drive.google.com\/open?id=1vSUlOoAkruk4I_qCDoj27s7lAhhvxt8I"
                            }
                        ]
                    }
                ]
            }
        ]
    },
    {
        "type": "message",
        "subtype": "channel_join",
        "ts": "1585423335.003300",
        "user": "U0103128G4D",
        "text": "<@U0103128G4D> has joined the channel"
    },
    {
        "type": "message",
        "subtype": "channel_join",
        "ts": "1585427069.003500",
        "user": "U01099UVAUA",
        "text": "<@U01099UVAUA> has joined the channel"
    },
    {
        "type": "message",
        "subtype": "channel_join",
        "ts": "1585431332.003700",
        "user": "U0109T1DV9T",
        "text": "<@U0109T1DV9T> has joined the channel"
    }
]