[
    {
        "client_msg_id": "0fc86de8-1227-4049-9fb3-2c853788c687",
        "type": "message",
        "text": "Hi Cellfree peeps, have you seen this: <https:\/\/www.biorxiv.org\/content\/10.1101\/2020.02.18.954719v1.full>",
        "user": "UV7LUJG1Y",
        "ts": "1587292485.072900",
        "team": "TUU48M0T1",
        "user_team": "TUU48M0T1",
        "source_team": "TUU48M0T1",
        "user_profile": {
            "avatar_hash": "048307b17644",
            "image_72": "https:\/\/avatars.slack-edge.com\/2020-04-04\/1043242365313_048307b17644844abd87_72.jpg",
            "first_name": "",
            "real_name": "Guy Aidelberg",
            "display_name": "Guy Aidelberg",
            "team": "TUU48M0T1",
            "name": "guyaidelberg",
            "is_restricted": false,
            "is_ultra_restricted": false
        },
        "attachments": [
            {
                "service_name": "bioRxiv",
                "title": "Highly specific, multiplexed isothermal pathogen detection with fluorescent aptamer readout",
                "title_link": "https:\/\/www.biorxiv.org\/content\/10.1101\/2020.02.18.954719v1.full",
                "text": "Isothermal, cell-free, synthetic biology-based approaches to pathogen detection leverage the power of tools available in biological systems, such as highly active polymerases compatible with lyophilization, without the complexity inherent to live-cell systems, of which Nucleic Acid Sequence Based Amplification (NASBA) is well known. Despite the reduced complexity associated with cell-free systems, side reactions are a common characteristic of these systems. As a result, these systems often exhibit false positives from reactions lacking an amplicon. Here we show that the inclusion of a DNA duplex lacking a promoter and unassociated with the amplicon, fully suppresses false positives, enabling a suite of fluorescent aptamers to be used as NASBA tags (Apta-NASBA). Apta-NASBA has a 1 pM detection limit and can provide multiplexed, multicolor fluorescent readout. Furthermore, Apta-NASBA can be performed using a variety of equipment, for example a fluorescence microplate reader, a qPCR instrument, or an ultra-low-cost Raspberry Pi-based 3D-printed detection platform employing a cell phone camera module, compatible with field detection.",
                "fallback": "bioRxiv: Highly specific, multiplexed isothermal pathogen detection with fluorescent aptamer readout",
                "thumb_url": "https:\/\/www.biorxiv.org\/sites\/default\/files\/images\/biorxiv_logo_homepage7-5-small.png",
                "ts": 1582099200,
                "from_url": "https:\/\/www.biorxiv.org\/content\/10.1101\/2020.02.18.954719v1.full",
                "thumb_width": 252,
                "thumb_height": 252,
                "service_icon": "https:\/\/www.biorxiv.org\/sites\/default\/files\/images\/favicon.ico",
                "id": 1,
                "original_url": "https:\/\/www.biorxiv.org\/content\/10.1101\/2020.02.18.954719v1.full"
            }
        ],
        "blocks": [
            {
                "type": "rich_text",
                "block_id": "Cv2X",
                "elements": [
                    {
                        "type": "rich_text_section",
                        "elements": [
                            {
                                "type": "text",
                                "text": "Hi Cellfree peeps, have you seen this: "
                            },
                            {
                                "type": "link",
                                "url": "https:\/\/www.biorxiv.org\/content\/10.1101\/2020.02.18.954719v1.full"
                            }
                        ]
                    }
                ]
            }
        ]
    },
    {
        "client_msg_id": "14ff79b1-434c-4062-951f-5919d3096b88",
        "type": "message",
        "text": "BTW I know the girl that developed BioBits and can reach out, and we should also have a self lysing strain in lab and a freeze drier, so might be able to send out lysates...",
        "user": "UV7LUJG1Y",
        "ts": "1587292648.074100",
        "team": "TUU48M0T1",
        "user_team": "TUU48M0T1",
        "source_team": "TUU48M0T1",
        "user_profile": {
            "avatar_hash": "048307b17644",
            "image_72": "https:\/\/avatars.slack-edge.com\/2020-04-04\/1043242365313_048307b17644844abd87_72.jpg",
            "first_name": "",
            "real_name": "Guy Aidelberg",
            "display_name": "Guy Aidelberg",
            "team": "TUU48M0T1",
            "name": "guyaidelberg",
            "is_restricted": false,
            "is_ultra_restricted": false
        },
        "blocks": [
            {
                "type": "rich_text",
                "block_id": "vTpE",
                "elements": [
                    {
                        "type": "rich_text_section",
                        "elements": [
                            {
                                "type": "text",
                                "text": "BTW I know the girl that developed BioBits and can reach out, and we should also have a self lysing strain in lab and a freeze drier, so might be able to send out lysates..."
                            }
                        ]
                    }
                ]
            }
        ],
        "thread_ts": "1587292648.074100",
        "reply_count": 1,
        "reply_users_count": 1,
        "latest_reply": "1587318086.083600",
        "reply_users": [
            "UV20M5HGQ"
        ],
        "replies": [
            {
                "user": "UV20M5HGQ",
                "ts": "1587318086.083600"
            }
        ],
        "subscribed": false
    },
    {
        "client_msg_id": "5ab883d7-dda2-4ea3-8cce-207cf0c1ca95",
        "type": "message",
        "text": "Yup - very similar to work done by Peter Unrau's group using the Mango aptamer (<https:\/\/rnajournal.cshlp.org\/content\/early\/2019\/09\/24\/rna.072629.119>).",
        "user": "UV78JAX0S",
        "ts": "1587309517.076500",
        "team": "TUU48M0T1",
        "user_team": "TUU48M0T1",
        "source_team": "TUU48M0T1",
        "user_profile": {
            "avatar_hash": "ab643489965e",
            "image_72": "https:\/\/avatars.slack-edge.com\/2020-03-17\/996174739571_ab643489965e0031c49d_72.png",
            "first_name": "Khalid",
            "real_name": "Khalid K. Alam",
            "display_name": "Khalid K. Alam",
            "team": "TUU48M0T1",
            "name": "khalid",
            "is_restricted": false,
            "is_ultra_restricted": false
        },
        "attachments": [
            {
                "title": "RNA detection with high specificity and sensitivity using Nested Fluorogenic Mango NASBA ",
                "title_link": "https:\/\/rnajournal.cshlp.org\/content\/early\/2019\/09\/24\/rna.072629.119",
                "text": "A monthly journal publishing high-quality, peer-reviewed research on all topics related to RNA and its metabolism in all organisms",
                "fallback": "RNA detection with high specificity and sensitivity using Nested Fluorogenic Mango NASBA ",
                "from_url": "https:\/\/rnajournal.cshlp.org\/content\/early\/2019\/09\/24\/rna.072629.119",
                "service_icon": "https:\/\/rnajournal.cshlp.org\/favicon.ico",
                "service_name": "rnajournal.cshlp.org",
                "id": 1,
                "original_url": "https:\/\/rnajournal.cshlp.org\/content\/early\/2019\/09\/24\/rna.072629.119"
            }
        ],
        "blocks": [
            {
                "type": "rich_text",
                "block_id": "az4cR",
                "elements": [
                    {
                        "type": "rich_text_section",
                        "elements": [
                            {
                                "type": "text",
                                "text": "Yup - very similar to work done by Peter Unrau's group using the Mango aptamer ("
                            },
                            {
                                "type": "link",
                                "url": "https:\/\/rnajournal.cshlp.org\/content\/early\/2019\/09\/24\/rna.072629.119"
                            },
                            {
                                "type": "text",
                                "text": ")."
                            }
                        ]
                    }
                ]
            }
        ],
        "reactions": [
            {
                "name": "heart_eyes",
                "users": [
                    "UV3URUKK5"
                ],
                "count": 1
            },
            {
                "name": "100",
                "users": [
                    "UUNGFHSV8"
                ],
                "count": 1
            }
        ]
    },
    {
        "client_msg_id": "1b01e2cb-1234-4cf1-bd5c-a7908f4c1a30",
        "type": "message",
        "text": "fluorescent aptamer outputs are pretty underwhelming in cell-free extracts, too much nuclease activity",
        "user": "UV78JAX0S",
        "ts": "1587309540.077300",
        "team": "TUU48M0T1",
        "user_team": "TUU48M0T1",
        "source_team": "TUU48M0T1",
        "user_profile": {
            "avatar_hash": "ab643489965e",
            "image_72": "https:\/\/avatars.slack-edge.com\/2020-03-17\/996174739571_ab643489965e0031c49d_72.png",
            "first_name": "Khalid",
            "real_name": "Khalid K. Alam",
            "display_name": "Khalid K. Alam",
            "team": "TUU48M0T1",
            "name": "khalid",
            "is_restricted": false,
            "is_ultra_restricted": false
        },
        "blocks": [
            {
                "type": "rich_text",
                "block_id": "rZ8o",
                "elements": [
                    {
                        "type": "rich_text_section",
                        "elements": [
                            {
                                "type": "text",
                                "text": "fluorescent aptamer outputs are pretty underwhelming in cell-free extracts, too much nuclease activity"
                            }
                        ]
                    }
                ]
            }
        ]
    },
    {
        "client_msg_id": "dfac68bd-ff3e-447e-97ba-c162c70e0c4b",
        "type": "message",
        "text": "Thanks for those papers.  Peter Unrau's nested mango seems very neet, anyone has experience replicating it?  I am keen on trying it eventually. Also, I am in touch with Lauren from Kate\/Aron lab, and she's shared some protocols and plasmids too. For the freeze-dried extracts, It'll be amazing Guy, do you have experience with freeze-drying extracts? It seems its a bit tricky to have stable dried lysates, yet possible. I also have freeze dryer in Chile maybe we can share experiences when doing that.",
        "user": "UV3746ST1",
        "ts": "1587309766.080000",
        "team": "TUU48M0T1",
        "user_team": "TUU48M0T1",
        "source_team": "TUU48M0T1",
        "user_profile": {
            "avatar_hash": "a83ec6cd1d1a",
            "image_72": "https:\/\/avatars.slack-edge.com\/2020-03-07\/987381527184_a83ec6cd1d1ab6a03a2c_72.jpg",
            "first_name": "Anibal",
            "real_name": "Anibal",
            "display_name": "Anibal",
            "team": "TUU48M0T1",
            "name": "elanibal",
            "is_restricted": false,
            "is_ultra_restricted": false
        },
        "blocks": [
            {
                "type": "rich_text",
                "block_id": "nnPa",
                "elements": [
                    {
                        "type": "rich_text_section",
                        "elements": [
                            {
                                "type": "text",
                                "text": "Thanks for those papers.  Peter Unrau's nested mango seems very neet, anyone has experience replicating it?  I am keen on trying it eventually. Also, I am in touch with Lauren from Kate\/Aron lab, and she's shared some protocols and plasmids too. For the freeze-dried extracts, It'll be amazing Guy, do you have experience with freeze-drying extracts? It seems its a bit tricky to have stable dried lysates, yet possible. I also have freeze dryer in Chile maybe we can share experiences when doing that."
                            }
                        ]
                    }
                ]
            }
        ]
    },
    {
        "client_msg_id": "f977b49d-2122-4b9e-b60e-46edee79eb5d",
        "type": "message",
        "text": "we find it relatively straightforward (no lyoprotectants needed) for freeze-drying extracts. What have you had trouble with <@UV3746ST1>?",
        "user": "UV78JAX0S",
        "ts": "1587309817.081000",
        "team": "TUU48M0T1",
        "user_team": "TUU48M0T1",
        "source_team": "TUU48M0T1",
        "user_profile": {
            "avatar_hash": "ab643489965e",
            "image_72": "https:\/\/avatars.slack-edge.com\/2020-03-17\/996174739571_ab643489965e0031c49d_72.png",
            "first_name": "Khalid",
            "real_name": "Khalid K. Alam",
            "display_name": "Khalid K. Alam",
            "team": "TUU48M0T1",
            "name": "khalid",
            "is_restricted": false,
            "is_ultra_restricted": false
        },
        "blocks": [
            {
                "type": "rich_text",
                "block_id": "l2nlb",
                "elements": [
                    {
                        "type": "rich_text_section",
                        "elements": [
                            {
                                "type": "text",
                                "text": "we find it relatively straightforward (no lyoprotectants needed) for freeze-drying extracts. What have you had trouble with "
                            },
                            {
                                "type": "user",
                                "user_id": "UV3746ST1"
                            },
                            {
                                "type": "text",
                                "text": "?"
                            }
                        ]
                    }
                ]
            }
        ]
    },
    {
        "client_msg_id": "1e4b6fe6-7c3f-49fb-9485-95c4e37d9217",
        "type": "message",
        "text": "I had tried Maltodextrin-based energy for CF reactions after lyophilization without having amazing results, maybe with PEP is better.",
        "user": "UV3746ST1",
        "ts": "1587309912.082400",
        "team": "TUU48M0T1",
        "user_team": "TUU48M0T1",
        "source_team": "TUU48M0T1",
        "user_profile": {
            "avatar_hash": "a83ec6cd1d1a",
            "image_72": "https:\/\/avatars.slack-edge.com\/2020-03-07\/987381527184_a83ec6cd1d1ab6a03a2c_72.jpg",
            "first_name": "Anibal",
            "real_name": "Anibal",
            "display_name": "Anibal",
            "team": "TUU48M0T1",
            "name": "elanibal",
            "is_restricted": false,
            "is_ultra_restricted": false
        },
        "edited": {
            "user": "UV3746ST1",
            "ts": "1587309929.000000"
        },
        "blocks": [
            {
                "type": "rich_text",
                "block_id": "yYVD",
                "elements": [
                    {
                        "type": "rich_text_section",
                        "elements": [
                            {
                                "type": "text",
                                "text": "I had tried Maltodextrin-based energy for CF reactions after lyophilization without having amazing results, maybe with PEP is better."
                            }
                        ]
                    }
                ]
            }
        ]
    },
    {
        "client_msg_id": "3d5f50a3-1cb1-4956-9002-b4e1ac1ddcc8",
        "type": "message",
        "text": "Thanks for sharing Guy! I've reached out to the Biobits team after their webinar last week and they will be sending us some Biobits cell-free lysate pellets as well. They did point out that their kits are educational and are most likely less performant than the commercial versions. Either way, as long as there are positive and negative controls, hopefully the reporter expression is gaugeable.",
        "user": "UV20M5HGQ",
        "ts": "1587318086.083600",
        "team": "TUU48M0T1",
        "user_team": "TUU48M0T1",
        "source_team": "TUU48M0T1",
        "user_profile": {
            "avatar_hash": "de7ea7b7e14e",
            "image_72": "https:\/\/avatars.slack-edge.com\/2020-03-11\/981865374050_de7ea7b7e14e7b4316b9_72.jpg",
            "first_name": "",
            "real_name": "Vesta Korniakova",
            "display_name": "Vesta Korniakova",
            "team": "TUU48M0T1",
            "name": "riboswitchvesta",
            "is_restricted": false,
            "is_ultra_restricted": false
        },
        "blocks": [
            {
                "type": "rich_text",
                "block_id": "4meq",
                "elements": [
                    {
                        "type": "rich_text_section",
                        "elements": [
                            {
                                "type": "text",
                                "text": "Thanks for sharing Guy! I've reached out to the Biobits team after their webinar last week and they will be sending us some Biobits cell-free lysate pellets as well. They did point out that their kits are educational and are most likely less performant than the commercial versions. Either way, as long as there are positive and negative controls, hopefully the reporter expression is gaugeable."
                            }
                        ]
                    }
                ]
            }
        ],
        "thread_ts": "1587292648.074100",
        "parent_user_id": "UV7LUJG1Y"
    }
]