[
    {
        "client_msg_id": "16642990-7892-43f6-97b7-c4a64575cdad",
        "type": "message",
        "text": "Me too (Tuesday any time except 1-2pm Chilean time\/ 5-6pm GMT)",
        "user": "U01099UVAUA",
        "ts": "1586693754.047900",
        "team": "TUU48M0T1",
        "user_team": "TUU48M0T1",
        "source_team": "TUU48M0T1",
        "user_profile": {
            "avatar_hash": "ge3e198df6dc",
            "image_72": "https:\/\/secure.gravatar.com\/avatar\/e3e198df6dc45f8635520f971d0036b2.jpg?s=72&d=https%3A%2F%2Fa.slack-edge.com%2Fdf10d%2Fimg%2Favatars%2Fava_0014-72.png",
            "first_name": "",
            "real_name": "Fernan Federici",
            "display_name": "Fernan Federici",
            "team": "TUU48M0T1",
            "name": "ffederici",
            "is_restricted": false,
            "is_ultra_restricted": false
        },
        "blocks": [
            {
                "type": "rich_text",
                "block_id": "fADI",
                "elements": [
                    {
                        "type": "rich_text_section",
                        "elements": [
                            {
                                "type": "text",
                                "text": "Me too (Tuesday any time except 1-2pm Chilean time\/ 5-6pm GMT)"
                            }
                        ]
                    }
                ]
            }
        ]
    },
    {
        "client_msg_id": "7af9464a-3129-4c49-9802-05086869e85a",
        "type": "message",
        "text": "would love to join Chicago UTC\/GMT -5:00",
        "user": "UV78JAX0S",
        "ts": "1586710391.048000",
        "team": "TUU48M0T1",
        "user_team": "TUU48M0T1",
        "source_team": "TUU48M0T1",
        "user_profile": {
            "avatar_hash": "ab643489965e",
            "image_72": "https:\/\/avatars.slack-edge.com\/2020-03-17\/996174739571_ab643489965e0031c49d_72.png",
            "first_name": "Khalid",
            "real_name": "Khalid K. Alam",
            "display_name": "Khalid K. Alam",
            "team": "TUU48M0T1",
            "name": "khalid",
            "is_restricted": false,
            "is_ultra_restricted": false
        },
        "blocks": [
            {
                "type": "rich_text",
                "block_id": "J2HK",
                "elements": [
                    {
                        "type": "rich_text_section",
                        "elements": [
                            {
                                "type": "text",
                                "text": "would love to join Chicago UTC\/GMT -5:00"
                            }
                        ]
                    }
                ]
            }
        ],
        "thread_ts": "1586627979.045100",
        "parent_user_id": "UV3URUKK5"
    },
    {
        "client_msg_id": "79392bea-5c90-4db7-b581-471e4c718476",
        "type": "message",
        "text": "can make tuesday work as well",
        "user": "UV78JAX0S",
        "ts": "1586710403.048200",
        "team": "TUU48M0T1",
        "user_team": "TUU48M0T1",
        "source_team": "TUU48M0T1",
        "user_profile": {
            "avatar_hash": "ab643489965e",
            "image_72": "https:\/\/avatars.slack-edge.com\/2020-03-17\/996174739571_ab643489965e0031c49d_72.png",
            "first_name": "Khalid",
            "real_name": "Khalid K. Alam",
            "display_name": "Khalid K. Alam",
            "team": "TUU48M0T1",
            "name": "khalid",
            "is_restricted": false,
            "is_ultra_restricted": false
        },
        "blocks": [
            {
                "type": "rich_text",
                "block_id": "VLLz",
                "elements": [
                    {
                        "type": "rich_text_section",
                        "elements": [
                            {
                                "type": "text",
                                "text": "can make tuesday work as well"
                            }
                        ]
                    }
                ]
            }
        ],
        "thread_ts": "1586627979.045100",
        "parent_user_id": "UV3URUKK5"
    },
    {
        "client_msg_id": "baf63d5f-827a-4c8d-8347-2f2d8eec8a79",
        "type": "message",
        "text": "Tuesday works for me as well!",
        "user": "U011BJWBFDM",
        "ts": "1586718154.048400",
        "team": "TUU48M0T1",
        "user_team": "TUU48M0T1",
        "source_team": "TUU48M0T1",
        "user_profile": {
            "avatar_hash": "1c121f4c84c8",
            "image_72": "https:\/\/avatars.slack-edge.com\/2020-04-08\/1054543351585_1c121f4c84c870a82e1f_72.jpg",
            "first_name": "",
            "real_name": "Yannis Ntekas",
            "display_name": "Yannis Ntekas",
            "team": "TUU48M0T1",
            "name": "ntekasi",
            "is_restricted": false,
            "is_ultra_restricted": false
        },
        "blocks": [
            {
                "type": "rich_text",
                "block_id": "8EpW",
                "elements": [
                    {
                        "type": "rich_text_section",
                        "elements": [
                            {
                                "type": "text",
                                "text": "Tuesday works for me as well!"
                            }
                        ]
                    }
                ]
            }
        ],
        "thread_ts": "1586627979.045100",
        "parent_user_id": "UV3URUKK5"
    },
    {
        "client_msg_id": "41c440fb-df98-4418-9f03-48943f174ed8",
        "type": "message",
        "text": "Okey, let's do it at 18:00p.m GMT! Someonte have zoom payed and could host the session? (For a more than 30 min meeting)",
        "user": "UV3URUKK5",
        "ts": "1586718938.049500",
        "team": "TUU48M0T1",
        "user_team": "TUU48M0T1",
        "source_team": "TUU48M0T1",
        "user_profile": {
            "avatar_hash": "64c99c2ed974",
            "image_72": "https:\/\/avatars.slack-edge.com\/2020-03-15\/1000999702004_64c99c2ed97497e08ca9_72.jpg",
            "first_name": "",
            "real_name": "Francisco Javier Quero",
            "display_name": "Francisco Javier Quero",
            "team": "TUU48M0T1",
            "name": "franxi2953",
            "is_restricted": false,
            "is_ultra_restricted": false
        },
        "edited": {
            "user": "UV3URUKK5",
            "ts": "1586718955.000000"
        },
        "blocks": [
            {
                "type": "rich_text",
                "block_id": "ms6",
                "elements": [
                    {
                        "type": "rich_text_section",
                        "elements": [
                            {
                                "type": "text",
                                "text": "Okey, let's do it at 18:00p.m GMT! Someonte have zoom payed and could host the session? (For a more than 30 min meeting)"
                            }
                        ]
                    }
                ]
            }
        ]
    }
]