[
    {
        "client_msg_id": "C948AB1E-E3A8-4E23-BE3C-025D31496D1F",
        "type": "message",
        "text": "<https:\/\/www.nature.com\/articles\/d41587-020-00010-2|https:\/\/www.nature.com\/articles\/d41587-020-00010-2>",
        "user": "UV02WET96",
        "ts": "1584986293.241400",
        "team": "TUU48M0T1",
        "user_team": "TUU48M0T1",
        "source_team": "TUU48M0T1",
        "user_profile": {
            "avatar_hash": "a99c74a194f8",
            "image_72": "https:\/\/avatars.slack-edge.com\/2020-03-07\/975708504851_a99c74a194f86715ca7d_72.png",
            "first_name": "Thomas",
            "real_name": "Thomas Landrain",
            "display_name": "Thomas Landrain - JOGL CoFounder \/ CEO",
            "team": "TUU48M0T1",
            "name": "thomas",
            "is_restricted": false,
            "is_ultra_restricted": false
        },
        "attachments": [
            {
                "title": "Fast, portable tests come online to curb coronavirus pandemic",
                "title_link": "https:\/\/www.nature.com\/articles\/d41587-020-00010-2",
                "text": "Testing kits delivered by courier and digital tools combine to battle the COVID-19 outbreak.",
                "fallback": "Fast, portable tests come online to curb coronavirus pandemic",
                "from_url": "https:\/\/www.nature.com\/articles\/d41587-020-00010-2",
                "service_name": "Nature",
                "id": 1,
                "original_url": "https:\/\/www.nature.com\/articles\/d41587-020-00010-2"
            }
        ],
        "blocks": [
            {
                "type": "rich_text",
                "block_id": "uIn",
                "elements": [
                    {
                        "type": "rich_text_section",
                        "elements": [
                            {
                                "type": "link",
                                "url": "https:\/\/www.nature.com\/articles\/d41587-020-00010-2",
                                "text": "https:\/\/www.nature.com\/articles\/d41587-020-00010-2"
                            }
                        ]
                    }
                ]
            }
        ],
        "reactions": [
            {
                "name": "star-struck",
                "users": [
                    "U010566NJHG"
                ],
                "count": 1
            }
        ]
    },
    {
        "client_msg_id": "8709B249-97A2-410C-B95F-CAA780436DA2",
        "type": "message",
        "text": "Model to explore! :) ",
        "user": "UV02WET96",
        "ts": "1584986311.241800",
        "team": "TUU48M0T1",
        "user_team": "TUU48M0T1",
        "source_team": "TUU48M0T1",
        "user_profile": {
            "avatar_hash": "a99c74a194f8",
            "image_72": "https:\/\/avatars.slack-edge.com\/2020-03-07\/975708504851_a99c74a194f86715ca7d_72.png",
            "first_name": "Thomas",
            "real_name": "Thomas Landrain",
            "display_name": "Thomas Landrain - JOGL CoFounder \/ CEO",
            "team": "TUU48M0T1",
            "name": "thomas",
            "is_restricted": false,
            "is_ultra_restricted": false
        },
        "blocks": [
            {
                "type": "rich_text",
                "block_id": "cuVX9",
                "elements": [
                    {
                        "type": "rich_text_section",
                        "elements": [
                            {
                                "type": "text",
                                "text": "Model to explore! :) "
                            }
                        ]
                    }
                ]
            }
        ]
    },
    {
        "client_msg_id": "e795da14-4a17-4580-a2e8-b36e4142ea3c",
        "type": "message",
        "text": "There is also online conference on covid in Stanford <https:\/\/hai.stanford.edu\/events\/covid-19-and-ai-virtual-conference\/overview>",
        "user": "U010B412MF1",
        "ts": "1585000793.242700",
        "team": "TUU48M0T1",
        "user_team": "TUU48M0T1",
        "source_team": "TUU48M0T1",
        "user_profile": {
            "avatar_hash": "218d963a797f",
            "image_72": "https:\/\/avatars.slack-edge.com\/2020-03-19\/1013072792629_218d963a797fbf4410c0_72.png",
            "first_name": "",
            "real_name": "liu",
            "display_name": "liu",
            "team": "TUU48M0T1",
            "name": "liubov.tupikina",
            "is_restricted": false,
            "is_ultra_restricted": false
        },
        "attachments": [
            {
                "service_name": "Stanford Institute for Human-Centered Artificial Intelligence",
                "title": "COVID-19 and AI: A Virtual Conference",
                "title_link": "https:\/\/hai.stanford.edu\/events\/covid-19-and-ai-virtual-conference\/overview",
                "text": "RSVP for COVID-19 and AI: A Virtual Conference.",
                "fallback": "Stanford Institute for Human-Centered Artificial Intelligence: COVID-19 and AI: A Virtual Conference",
                "image_url": "https:\/\/hai.stanford.edu\/sites\/g\/files\/sbiybj10986\/f\/covid_19_banner_large_0.png",
                "ts": 1583522358,
                "from_url": "https:\/\/hai.stanford.edu\/events\/covid-19-and-ai-virtual-conference\/overview",
                "image_width": 740,
                "image_height": 250,
                "image_bytes": 32143,
                "service_icon": "https:\/\/hai.stanford.edu\/sites\/g\/files\/sbiybj10986\/f\/favicon-310.png",
                "id": 1,
                "original_url": "https:\/\/hai.stanford.edu\/events\/covid-19-and-ai-virtual-conference\/overview"
            }
        ],
        "blocks": [
            {
                "type": "rich_text",
                "block_id": "qG0DV",
                "elements": [
                    {
                        "type": "rich_text_section",
                        "elements": [
                            {
                                "type": "text",
                                "text": "There is also online conference on covid in Stanford "
                            },
                            {
                                "type": "link",
                                "url": "https:\/\/hai.stanford.edu\/events\/covid-19-and-ai-virtual-conference\/overview"
                            }
                        ]
                    }
                ]
            }
        ],
        "reactions": [
            {
                "name": "100",
                "users": [
                    "U01080CJ6P3",
                    "U0103RQF7R8",
                    "U01113Y1PLP"
                ],
                "count": 3
            }
        ]
    }
]