[
    {
        "client_msg_id": "F21C0D61-AF69-4C51-B010-F7BC11C57375",
        "type": "message",
        "text": "Draft Announcement - we need reviewers! Please share this about and help! Message me and I’ll add you to an expert chatroom for reviewing\n\n*Wave 1 of JOGL OpenCOVID19 Grant application Review is now open*:writing_hand:*, and Grant applications for round 1 is now closed.*:pray:\n\nThe JOGL Community has developed many simple and effective open-source products and designs to fight COVID-19. These include hardware devices suitable for consumer production and mass manufacturing, as well as important and pragmatic software products and systems. We will continue the search for these projects in subsequent rounds—please continue your important work developing them. *Now is the time to review the first round of projects for allocation of the miniature grants!*:raised_hands:\n\n*The review process will be conducted openly using both public feedback, and an expert review with administrative involvement to determine the outcomes and grant holders.*\n\nWe will provide a detailed report for proposals that make the final selection. Below is the process for providing public feedback. We request serious and sober thought—your input may affect real world outcomes. *Please if you have time to review projects do so as part of our crowd review*, and encourage your team members to help. Well done for such an extraordinary achievement.\n\n*Here is our repository of projects who applied for a grant* :page_with_curl:\n<https:\/\/docs.google.com\/spreadsheets\/d\/1CQATJl-tyllZyqfHpJqHHe03wxIOEkKPKEdWoCGu-OA\/edit?usp=sharing|https:\/\/docs.google.com\/spreadsheets\/d\/1CQATJl-tyllZyqfHpJqHHe03wxIOEkKPKEdWoCGu-OA\/edit?usp=sharing>\n\n*And here is our repository of projects still being worked on!*:page_facing_up:\n<https:\/\/app.jogl.io\/program\/opencovid19|https:\/\/app.jogl.io\/program\/opencovid19>\n\nThis is an open review and we are looking for reviewers! therefore *if youd like to take part in our review process please do!*\n\n*Our Public Feedback Process: (Open for 72hrs)*:writing_hand:\n\n1.   Please find the links to our  grant proposals in this spreadsheet  <https:\/\/docs.google.com\/spreadsheets\/d\/1CQATJl-tyllZyqfHpJqHHe03wxIOEkKPKEdWoCGu-OA\/edit?usp=sharing|https:\/\/docs.google.com\/spreadsheets\/d\/1CQATJl-tyllZyqfHpJqHHe03wxIOEkKPKEdWoCGu-OA\/edit?usp=sharing>\n2.  *Review each project using this form*: <https:\/\/forms.gle\/fkMCxjhXKURwXkoK9|https:\/\/forms.gle\/fkMCxjhXKURwXkoK9>\n\n*We will be conducting more rounds of grant submission in the next few weeks and invite you to review the above projects using our form to help out with this one!*\n\n*Thank you everyone, we are proud of the community and the projects you have created, and cannot wait to support them.*:heart:  For technical questions related to submissions, please contact <@U0119SR5LMT>",
        "user": "UV0RRGB6H",
        "ts": "1586332705.035700",
        "team": "TUU48M0T1",
        "user_team": "TUU48M0T1",
        "source_team": "TUU48M0T1",
        "user_profile": {
            "avatar_hash": "48d4ab64c90c",
            "image_72": "https:\/\/avatars.slack-edge.com\/2020-03-26\/1029789176912_48d4ab64c90c03f3af4a_72.jpg",
            "first_name": "",
            "real_name": "Chris LB Graham",
            "display_name": "",
            "team": "TUU48M0T1",
            "name": "chris.graham",
            "is_restricted": false,
            "is_ultra_restricted": false
        },
        "edited": {
            "user": "UV0RRGB6H",
            "ts": "1586338111.000000"
        },
        "blocks": [
            {
                "type": "rich_text",
                "block_id": "C\/sw=",
                "elements": [
                    {
                        "type": "rich_text_section",
                        "elements": [
                            {
                                "type": "text",
                                "text": "Draft Announcement - we need reviewers! Please share this about and help! Message me and I’ll add you to an expert chatroom for reviewing\n\n"
                            },
                            {
                                "type": "text",
                                "text": "Wave 1 of JOGL OpenCOVID19 Grant application Review is now open",
                                "style": {
                                    "bold": true
                                }
                            },
                            {
                                "type": "emoji",
                                "name": "writing_hand"
                            },
                            {
                                "type": "text",
                                "text": ", and Grant applications for round 1 is now closed.",
                                "style": {
                                    "bold": true
                                }
                            },
                            {
                                "type": "emoji",
                                "name": "pray"
                            },
                            {
                                "type": "text",
                                "text": "\n\nThe JOGL Community has developed many simple and effective open-source products and designs to fight COVID-19. These include hardware devices suitable for consumer production and mass manufacturing, as well as important and pragmatic software products and systems. We will continue the search for these projects in subsequent rounds—please continue your important work developing them. "
                            },
                            {
                                "type": "text",
                                "text": "Now is the time to review the first round of projects for allocation of the miniature grants!",
                                "style": {
                                    "bold": true
                                }
                            },
                            {
                                "type": "emoji",
                                "name": "raised_hands"
                            },
                            {
                                "type": "text",
                                "text": "\n\n"
                            },
                            {
                                "type": "text",
                                "text": "The review process will be conducted openly using both public feedback, and an expert review with administrative involvement to determine the outcomes and grant holders.",
                                "style": {
                                    "bold": true
                                }
                            },
                            {
                                "type": "text",
                                "text": "\n\nWe will provide a detailed report for proposals that make the final selection. Below is the process for providing public feedback. We request serious and sober thought—your input may affect real world outcomes. "
                            },
                            {
                                "type": "text",
                                "text": "Please if you have time to review projects do so as part of our crowd review",
                                "style": {
                                    "bold": true
                                }
                            },
                            {
                                "type": "text",
                                "text": ", and encourage your team members to help. Well done for such an extraordinary achievement.\n\n"
                            },
                            {
                                "type": "text",
                                "text": "Here is our repository of projects who applied for a grant ",
                                "style": {
                                    "bold": true
                                }
                            },
                            {
                                "type": "emoji",
                                "name": "page_with_curl"
                            },
                            {
                                "type": "text",
                                "text": "\n"
                            },
                            {
                                "type": "link",
                                "url": "https:\/\/docs.google.com\/spreadsheets\/d\/1CQATJl-tyllZyqfHpJqHHe03wxIOEkKPKEdWoCGu-OA\/edit?usp=sharing",
                                "text": "https:\/\/docs.google.com\/spreadsheets\/d\/1CQATJl-tyllZyqfHpJqHHe03wxIOEkKPKEdWoCGu-OA\/edit?usp=sharing"
                            },
                            {
                                "type": "text",
                                "text": "\n\n"
                            },
                            {
                                "type": "text",
                                "text": "And here is our repository of projects still being worked on!",
                                "style": {
                                    "bold": true
                                }
                            },
                            {
                                "type": "emoji",
                                "name": "page_facing_up"
                            },
                            {
                                "type": "text",
                                "text": "\n"
                            },
                            {
                                "type": "link",
                                "url": "https:\/\/app.jogl.io\/program\/opencovid19",
                                "text": "https:\/\/app.jogl.io\/program\/opencovid19"
                            },
                            {
                                "type": "text",
                                "text": "\n\nThis is an open review and we are looking for reviewers! therefore "
                            },
                            {
                                "type": "text",
                                "text": "if youd like to take part in our review process please do!",
                                "style": {
                                    "bold": true
                                }
                            },
                            {
                                "type": "text",
                                "text": "\n\n"
                            },
                            {
                                "type": "text",
                                "text": "Our Public Feedback Process: (Open for 72hrs)",
                                "style": {
                                    "bold": true
                                }
                            },
                            {
                                "type": "emoji",
                                "name": "writing_hand"
                            },
                            {
                                "type": "text",
                                "text": "\n\n1.   Please find the links to our  grant proposals in this spreadsheet  "
                            },
                            {
                                "type": "link",
                                "url": "https:\/\/docs.google.com\/spreadsheets\/d\/1CQATJl-tyllZyqfHpJqHHe03wxIOEkKPKEdWoCGu-OA\/edit?usp=sharing",
                                "text": "https:\/\/docs.google.com\/spreadsheets\/d\/1CQATJl-tyllZyqfHpJqHHe03wxIOEkKPKEdWoCGu-OA\/edit?usp=sharing"
                            },
                            {
                                "type": "text",
                                "text": "\n2.  "
                            },
                            {
                                "type": "text",
                                "text": "Review each project using this form",
                                "style": {
                                    "bold": true
                                }
                            },
                            {
                                "type": "text",
                                "text": ": "
                            },
                            {
                                "type": "link",
                                "url": "https:\/\/forms.gle\/fkMCxjhXKURwXkoK9",
                                "text": "https:\/\/forms.gle\/fkMCxjhXKURwXkoK9"
                            },
                            {
                                "type": "text",
                                "text": "\n\n"
                            },
                            {
                                "type": "text",
                                "text": "We will be conducting more rounds of grant submission in the next few weeks and invite you to review the above projects using our form to help out with this one!",
                                "style": {
                                    "bold": true
                                }
                            },
                            {
                                "type": "text",
                                "text": "\n\n"
                            },
                            {
                                "type": "text",
                                "text": "Thank you everyone, we are proud of the community and the projects you have created, and cannot wait to support them.",
                                "style": {
                                    "bold": true
                                }
                            },
                            {
                                "type": "emoji",
                                "name": "heart"
                            },
                            {
                                "type": "text",
                                "text": "  For technical questions related to submissions, please contact "
                            },
                            {
                                "type": "user",
                                "user_id": "U0119SR5LMT"
                            }
                        ]
                    }
                ]
            }
        ]
    },
    {
        "client_msg_id": "c8a321b0-6fe8-4a3d-8ba8-0abd00a60810",
        "type": "message",
        "text": "has this already been posted: <https:\/\/www.sciencedirect.com\/science\/article\/abs\/pii\/S0925400518309468?via%3Dihub>",
        "user": "UV1A22N3W",
        "ts": "1586371542.036900",
        "team": "TUU48M0T1",
        "user_team": "TUU48M0T1",
        "source_team": "TUU48M0T1",
        "user_profile": {
            "avatar_hash": "71f827776ad6",
            "image_72": "https:\/\/avatars.slack-edge.com\/2020-03-09\/988125642964_71f827776ad610af05a2_72.jpg",
            "first_name": "",
            "real_name": "RachelA",
            "display_name": "RachelA",
            "team": "TUU48M0T1",
            "name": "raronoff",
            "is_restricted": false,
            "is_ultra_restricted": false
        },
        "attachments": [
            {
                "title": "A sample-to-answer labdisc platform integrated novel membrane-resistance valves for detection of highly pathogenic avian influenza viruses",
                "title_link": "https:\/\/www.sciencedirect.com\/science\/article\/abs\/pii\/S0925400518309468?via%3Dihub",
                "text": "This work described a novel labdisc platform adopting membrane-resistance (MembR) valves for fully automated sample-to-answer detection of highly path…",
                "fallback": "A sample-to-answer labdisc platform integrated novel membrane-resistance valves for detection of highly pathogenic avian influenza viruses",
                "image_url": "https:\/\/ars.els-cdn.com\/content\/image\/1-s2.0-S0925400518309468-fx1.jpg",
                "from_url": "https:\/\/www.sciencedirect.com\/science\/article\/abs\/pii\/S0925400518309468?via%3Dihub",
                "image_width": 461,
                "image_height": 200,
                "image_bytes": 34236,
                "service_icon": "https:\/\/www.sciencedirect.com\/favicon.ico",
                "service_name": "sciencedirect.com",
                "id": 1,
                "original_url": "https:\/\/www.sciencedirect.com\/science\/article\/abs\/pii\/S0925400518309468?via%3Dihub"
            }
        ],
        "blocks": [
            {
                "type": "rich_text",
                "block_id": "FQPGB",
                "elements": [
                    {
                        "type": "rich_text_section",
                        "elements": [
                            {
                                "type": "text",
                                "text": "has this already been posted: "
                            },
                            {
                                "type": "link",
                                "url": "https:\/\/www.sciencedirect.com\/science\/article\/abs\/pii\/S0925400518309468?via%3Dihub"
                            }
                        ]
                    }
                ]
            }
        ]
    },
    {
        "client_msg_id": "31ed8ea9-ccd1-4b13-835a-205d9647d5bf",
        "type": "message",
        "text": "or this? <https:\/\/www.kth.se\/mst\/research\/sensors\/project\/detection-airborne-1.523039>",
        "user": "UV1A22N3W",
        "ts": "1586371878.037200",
        "team": "TUU48M0T1",
        "user_team": "TUU48M0T1",
        "source_team": "TUU48M0T1",
        "user_profile": {
            "avatar_hash": "71f827776ad6",
            "image_72": "https:\/\/avatars.slack-edge.com\/2020-03-09\/988125642964_71f827776ad610af05a2_72.jpg",
            "first_name": "",
            "real_name": "RachelA",
            "display_name": "RachelA",
            "team": "TUU48M0T1",
            "name": "raronoff",
            "is_restricted": false,
            "is_ultra_restricted": false
        },
        "attachments": [
            {
                "service_name": "KTH",
                "title": "Detection of Airborne Viruses |  KTH",
                "title_link": "https:\/\/www.kth.se\/mst\/research\/sensors\/project\/detection-airborne-1.523039",
                "text": "The emergence of lab-on-a-chip (LoC) devices has raised hopes for cost-effective and rapid pathogen detection and near-patient diagnostics. Nevertheless, the commercialization of such devices for everyday life has not lived up to expectations due ...",
                "fallback": "KTH: Detection of Airborne Viruses |  KTH",
                "from_url": "https:\/\/www.kth.se\/mst\/research\/sensors\/project\/detection-airborne-1.523039",
                "service_icon": "https:\/\/www.kth.se\/polopoly_fs\/1.871948.1550155901!\/favicon.ico",
                "id": 1,
                "original_url": "https:\/\/www.kth.se\/mst\/research\/sensors\/project\/detection-airborne-1.523039"
            }
        ],
        "blocks": [
            {
                "type": "rich_text",
                "block_id": "uhm35",
                "elements": [
                    {
                        "type": "rich_text_section",
                        "elements": [
                            {
                                "type": "text",
                                "text": "or this? "
                            },
                            {
                                "type": "link",
                                "url": "https:\/\/www.kth.se\/mst\/research\/sensors\/project\/detection-airborne-1.523039"
                            }
                        ]
                    }
                ]
            }
        ]
    }
]