[
    {
        "client_msg_id": "17a395c5-0547-4b38-af11-1d572e6b66cf",
        "type": "message",
        "text": "recreated a diagram with relavant channels it lives on the google drive for your future reference <https:\/\/docs.google.com\/presentation\/d\/1F8ptqzB1WOTlZUZY5lzl7uzS7qo4K1v19jAFk1rOPTo\/edit#slide=id.p>",
        "user": "UV5CCJ9RC",
        "ts": "1585414409.022100",
        "team": "TUU48M0T1",
        "user_team": "TUU48M0T1",
        "source_team": "TUU48M0T1",
        "user_profile": {
            "avatar_hash": "2c79fe05f7e7",
            "image_72": "https:\/\/avatars.slack-edge.com\/2020-03-10\/992653932501_2c79fe05f7e75be19699_72.png",
            "first_name": "Chris",
            "real_name": "Chris Monaco",
            "display_name": "",
            "team": "TUU48M0T1",
            "name": "cmonaco.hr",
            "is_restricted": false,
            "is_ultra_restricted": false
        },
        "blocks": [
            {
                "type": "rich_text",
                "block_id": "=LCB",
                "elements": [
                    {
                        "type": "rich_text_section",
                        "elements": [
                            {
                                "type": "text",
                                "text": "recreated a diagram with relavant channels it lives on the google drive for your future reference "
                            },
                            {
                                "type": "link",
                                "url": "https:\/\/docs.google.com\/presentation\/d\/1F8ptqzB1WOTlZUZY5lzl7uzS7qo4K1v19jAFk1rOPTo\/edit#slide=id.p"
                            }
                        ]
                    }
                ]
            }
        ],
        "thread_ts": "1585216195.002300",
        "parent_user_id": "UV02WET96"
    }
]