[
    {
        "client_msg_id": "ab0a2933-450d-443a-aca8-098f595c4a45",
        "type": "message",
        "text": "<@UV3URUKK5> Have you seen this?",
        "user": "UV7LUJG1Y",
        "ts": "1587028984.046200",
        "team": "TUU48M0T1",
        "user_team": "TUU48M0T1",
        "source_team": "TUU48M0T1",
        "user_profile": {
            "avatar_hash": "048307b17644",
            "image_72": "https:\/\/avatars.slack-edge.com\/2020-04-04\/1043242365313_048307b17644844abd87_72.jpg",
            "first_name": "",
            "real_name": "Guy Aidelberg",
            "display_name": "Guy Aidelberg",
            "team": "TUU48M0T1",
            "name": "guyaidelberg",
            "is_restricted": false,
            "is_ultra_restricted": false
        },
        "blocks": [
            {
                "type": "rich_text",
                "block_id": "+kbu",
                "elements": [
                    {
                        "type": "rich_text_section",
                        "elements": [
                            {
                                "type": "user",
                                "user_id": "UV3URUKK5"
                            },
                            {
                                "type": "text",
                                "text": " Have you seen this?"
                            }
                        ]
                    }
                ]
            }
        ],
        "thread_ts": "1586615652.040400",
        "parent_user_id": "UV20M5HGQ",
        "reactions": [
            {
                "name": "heart",
                "users": [
                    "UV3URUKK5"
                ],
                "count": 1
            }
        ]
    },
    {
        "client_msg_id": "304ba742-5c8f-495c-8de6-d89467e3c24f",
        "type": "message",
        "text": "Yes <@UV7LUJG1Y>! That's the metadata file I attached in our channel. Unfortunately as <@UV20M5HGQ> pointed it doesn't have the sequences into it, and with the access to GISAID you could only download the sequence one by one clicking on them and after on \"download fasta\". Wich is totally crazy for a 9k sequence download. What I just finished is an script that call automatically to gisaid database server for the fasta and store it in your PC.\n\nIt was a pain in the ass to did it because they took really serious the encription but now is running.\n\nThe bad news is that GISAID database have a captcha protection for each ~80 sequences that the script save, so I need to enter the solution for this captcha by hand. I am training a neuronal network to recognize the captcha and do it automatically (Now it became personal :mask-parrot:) but meanwhile I downloaded 4k fasta sequences of the total 9k in the database. I can share them with anyone of this group in private, but let's respect gisaid (and the researchers that uploaded the sequences before publishing them any paper) and don't upload them publically.",
        "user": "UV3URUKK5",
        "ts": "1587029372.046400",
        "team": "TUU48M0T1",
        "user_team": "TUU48M0T1",
        "source_team": "TUU48M0T1",
        "user_profile": {
            "avatar_hash": "64c99c2ed974",
            "image_72": "https:\/\/avatars.slack-edge.com\/2020-03-15\/1000999702004_64c99c2ed97497e08ca9_72.jpg",
            "first_name": "",
            "real_name": "Francisco Javier Quero",
            "display_name": "Francisco Javier Quero",
            "team": "TUU48M0T1",
            "name": "franxi2953",
            "is_restricted": false,
            "is_ultra_restricted": false
        },
        "edited": {
            "user": "UV3URUKK5",
            "ts": "1587030092.000000"
        },
        "blocks": [
            {
                "type": "rich_text",
                "block_id": "6we",
                "elements": [
                    {
                        "type": "rich_text_section",
                        "elements": [
                            {
                                "type": "text",
                                "text": "Yes "
                            },
                            {
                                "type": "user",
                                "user_id": "UV7LUJG1Y"
                            },
                            {
                                "type": "text",
                                "text": "! That's the metadata file I attached in our channel. Unfortunately as "
                            },
                            {
                                "type": "user",
                                "user_id": "UV20M5HGQ"
                            },
                            {
                                "type": "text",
                                "text": " pointed it doesn't have the sequences into it, and with the access to GISAID you could only download the sequence one by one clicking on them and after on \"download fasta\". Wich is totally crazy for a 9k sequence download. What I just finished is an script that call automatically to gisaid database server for the fasta and store it in your PC.\n\nIt was a pain in the ass to did it because they took really serious the encription but now is running.\n\nThe bad news is that GISAID database have a captcha protection for each ~80 sequences that the script save, so I need to enter the solution for this captcha by hand. I am training a neuronal network to recognize the captcha and do it automatically (Now it became personal "
                            },
                            {
                                "type": "emoji",
                                "name": "mask-parrot"
                            },
                            {
                                "type": "text",
                                "text": ") but meanwhile I downloaded 4k fasta sequences of the total 9k in the database. I can share them with anyone of this group in private, but let's respect gisaid (and the researchers that uploaded the sequences before publishing them any paper) and don't upload them publically."
                            }
                        ]
                    }
                ]
            }
        ],
        "thread_ts": "1586615652.040400",
        "parent_user_id": "UV20M5HGQ"
    },
    {
        "client_msg_id": "9fd3fa33-90b5-4779-a328-0d1d827dcce9",
        "type": "message",
        "text": "<@UV8T52QJ3> Is not copyright as far you don't publish the sequence itself. You could publish any result based in that sequence but not the sequence. As far I understood, that's because the laboratories behind that sequences have upload them immediately (for others to use them) before thinking in publishing them in any paper. They use to want some protection from being scooped. And i appreciate that in terms of agility to could track the strain evolution in real time.\n\nThere is some further information about that here -&gt; <https:\/\/www.gisaid.org\/help\/faq\/>\n\nMy problem is not that much with the data protection, which i could more or less understand, but with the issue that once you have access to the database (They gave you the access in 24 hours after you request it with an academic email), is still a pain in the ass to batch download the sequences. Totally unpractical.",
        "user": "UV3URUKK5",
        "ts": "1587030487.047700",
        "team": "TUU48M0T1",
        "user_team": "TUU48M0T1",
        "source_team": "TUU48M0T1",
        "user_profile": {
            "avatar_hash": "64c99c2ed974",
            "image_72": "https:\/\/avatars.slack-edge.com\/2020-03-15\/1000999702004_64c99c2ed97497e08ca9_72.jpg",
            "first_name": "",
            "real_name": "Francisco Javier Quero",
            "display_name": "Francisco Javier Quero",
            "team": "TUU48M0T1",
            "name": "franxi2953",
            "is_restricted": false,
            "is_ultra_restricted": false
        },
        "edited": {
            "user": "UV3URUKK5",
            "ts": "1587030872.000000"
        },
        "blocks": [
            {
                "type": "rich_text",
                "block_id": "c0G",
                "elements": [
                    {
                        "type": "rich_text_section",
                        "elements": [
                            {
                                "type": "user",
                                "user_id": "UV8T52QJ3"
                            },
                            {
                                "type": "text",
                                "text": " Is not copyright as far you don't publish the sequence itself. You could publish any result based in that sequence but not the sequence. As far I understood, that's because the laboratories behind that sequences have upload them immediately (for others to use them) before thinking in publishing them in any paper. They use to want some protection from being scooped. And i appreciate that in terms of agility to could track the strain evolution in real time.\n\nThere is some further information about that here -> "
                            },
                            {
                                "type": "link",
                                "url": "https:\/\/www.gisaid.org\/help\/faq\/"
                            },
                            {
                                "type": "text",
                                "text": "\n\nMy problem is not that much with the data protection, which i could more or less understand, but with the issue that once you have access to the database (They gave you the access in 24 hours after you request it with an academic email), is still a pain in the ass to batch download the sequences. Totally unpractical."
                            }
                        ]
                    }
                ]
            }
        ],
        "thread_ts": "1586615652.040400",
        "parent_user_id": "UV20M5HGQ"
    },
    {
        "client_msg_id": "e99b01bc-101a-4995-83cd-53742bc057cb",
        "type": "message",
        "text": "Thanks <@UV3URUKK5> Have you read *all* the Biostars thread? Because it seems more complicated. As you said:\n\n&gt; “You may not distribute GISAID data outside the GISAID community, such as by releasing genetic sequences obtained in GISAID in any publication”.\nHowever:\n\n_<https:\/\/www.gisaid.org\/|GISAID> will even relicense data that is already publicly available in GenBank! A publicly available sequence, when obtained from GISAID, will carry a license._\n\n_“they only allow access to the data through their site and service, and won’t allow even to deposit data elsewhere - even if you cited the scientist and gave them credit. GISAID wants to be the gatekeeper, that is how they justify their existence, rather than by the added value that they provide.”_\n\n_“Genomic research across a globe is hindered by a company of dubious origin. Our duty as scientists is to keep data open, research reproducible.”_\n\nBesides I don’t see either GISAID sign the sharing research data document <https:\/\/wellcome.ac.uk\/coronavirus-covid-19\/open-data>",
        "user": "UV8T52QJ3",
        "ts": "1587035297.048300",
        "team": "TUU48M0T1",
        "user_team": "TUU48M0T1",
        "source_team": "TUU48M0T1",
        "user_profile": {
            "avatar_hash": "g96f14063d73",
            "image_72": "https:\/\/secure.gravatar.com\/avatar\/96f14063d73cc7867772731f881de414.jpg?s=72&d=https%3A%2F%2Fa.slack-edge.com%2Fdf10d%2Fimg%2Favatars%2Fava_0005-72.png",
            "first_name": "Hernán",
            "real_name": "Hernán Morales Durand",
            "display_name": "Hernán Morales Durand",
            "team": "TUU48M0T1",
            "name": "hernan.morales",
            "is_restricted": false,
            "is_ultra_restricted": false
        },
        "edited": {
            "user": "UV8T52QJ3",
            "ts": "1587035377.000000"
        },
        "attachments": [
            {
                "title": "Sharing research data and findings relevant to the novel coronavirus",
                "title_link": "https:\/\/wellcome.ac.uk\/coronavirus-covid-19\/open-data",
                "text": "We call on researchers, journals and funders to ensure that research findings and data relevant to this outbreak are shared rapidly and openly to inform the public health response and help save lives.",
                "fallback": "Sharing research data and findings relevant to the novel coronavirus",
                "from_url": "https:\/\/wellcome.ac.uk\/coronavirus-covid-19\/open-data",
                "service_icon": "https:\/\/wellcome.ac.uk\/sites\/all\/themes\/corp_base\/assets\/images\/touch-icons\/apple-touch-icon-57x57.png",
                "service_name": "wellcome.ac.uk",
                "id": 1,
                "original_url": "https:\/\/wellcome.ac.uk\/coronavirus-covid-19\/open-data"
            }
        ],
        "blocks": [
            {
                "type": "rich_text",
                "block_id": "p3r2W",
                "elements": [
                    {
                        "type": "rich_text_section",
                        "elements": [
                            {
                                "type": "text",
                                "text": "Thanks "
                            },
                            {
                                "type": "user",
                                "user_id": "UV3URUKK5"
                            },
                            {
                                "type": "text",
                                "text": " Have you read *all* the Biostars thread? Because it seems more complicated. As you said:\n\n"
                            }
                        ]
                    },
                    {
                        "type": "rich_text_quote",
                        "elements": [
                            {
                                "type": "text",
                                "text": "“You may not distribute GISAID data outside the GISAID community, such as by releasing genetic sequences obtained in GISAID in any publication”."
                            }
                        ]
                    },
                    {
                        "type": "rich_text_section",
                        "elements": [
                            {
                                "type": "text",
                                "text": "\nHowever:\n\n"
                            },
                            {
                                "type": "link",
                                "url": "https:\/\/www.gisaid.org\/",
                                "text": "GISAID",
                                "style": {
                                    "italic": true
                                }
                            },
                            {
                                "type": "text",
                                "text": " will even relicense data that is already publicly available in GenBank! A publicly available sequence, when obtained from GISAID, will carry a license.",
                                "style": {
                                    "italic": true
                                }
                            },
                            {
                                "type": "text",
                                "text": "\n\n"
                            },
                            {
                                "type": "text",
                                "text": "“they only allow access to the data through their site and service, and won’t allow even to deposit data elsewhere - even if you cited the scientist and gave them credit. GISAID wants to be the gatekeeper, that is how they justify their existence, rather than by the added value that they provide.”",
                                "style": {
                                    "italic": true
                                }
                            },
                            {
                                "type": "text",
                                "text": "\n\n"
                            },
                            {
                                "type": "text",
                                "text": "“Genomic research across a globe is hindered by a company of dubious origin. Our duty as scientists is to keep data open, research reproducible.”",
                                "style": {
                                    "italic": true
                                }
                            },
                            {
                                "type": "text",
                                "text": "\n\nBesides I don’t see either GISAID sign the sharing research data document "
                            },
                            {
                                "type": "link",
                                "url": "https:\/\/wellcome.ac.uk\/coronavirus-covid-19\/open-data"
                            }
                        ]
                    }
                ]
            }
        ],
        "thread_ts": "1586615652.040400",
        "parent_user_id": "UV20M5HGQ"
    },
    {
        "client_msg_id": "1cc938cf-2992-410c-88bc-e5fb9a93dab5",
        "type": "message",
        "text": "As you can see, even Wiley, PLOS, NIH, Frontiers, The Institute Pasteur, FDA, Elsevier, Bill &amp; Melinda Gates, Springer, Cell Press, Broad Institute of MIT and Harvard and other dozens of important institutes agreed to make all of their COVID-19 and coronavirus-related publications, and the available data supporting them, immediately accessible in PubMed Central (PMC) and license it in ways that facilitate reuse.",
        "user": "UV8T52QJ3",
        "ts": "1587035936.048700",
        "team": "TUU48M0T1",
        "user_team": "TUU48M0T1",
        "source_team": "TUU48M0T1",
        "user_profile": {
            "avatar_hash": "g96f14063d73",
            "image_72": "https:\/\/secure.gravatar.com\/avatar\/96f14063d73cc7867772731f881de414.jpg?s=72&d=https%3A%2F%2Fa.slack-edge.com%2Fdf10d%2Fimg%2Favatars%2Fava_0005-72.png",
            "first_name": "Hernán",
            "real_name": "Hernán Morales Durand",
            "display_name": "Hernán Morales Durand",
            "team": "TUU48M0T1",
            "name": "hernan.morales",
            "is_restricted": false,
            "is_ultra_restricted": false
        },
        "blocks": [
            {
                "type": "rich_text",
                "block_id": "X8ei",
                "elements": [
                    {
                        "type": "rich_text_section",
                        "elements": [
                            {
                                "type": "text",
                                "text": "As you can see, even Wiley, PLOS, NIH, Frontiers, The Institute Pasteur, FDA, Elsevier, Bill & Melinda Gates, Springer, Cell Press, Broad Institute of MIT and Harvard and other dozens of important institutes agreed to make all of their COVID-19 and coronavirus-related publications, and the available data supporting them, immediately accessible in PubMed Central (PMC) and license it in ways that facilitate reuse."
                            }
                        ]
                    }
                ]
            }
        ],
        "thread_ts": "1586615652.040400",
        "parent_user_id": "UV20M5HGQ"
    },
    {
        "client_msg_id": "90cff694-6c0d-4ed3-8255-59b197005b33",
        "type": "message",
        "text": "To the first your first msg, yes I read it! I was so desperate trying to find an script online before doing my own, and some of the people in these thread talk also about that (I never found anything useful). About the public sequences on GeneBank, of course, that's on the side of the researchers. GISAID doesn't have any rights regarding the sequences. If the researchers want to publish them in different sites they are free. But for some reason they preffer GISAID (9k sequences vs 100 curated ones in NCBI, as far I know)\n\nAbout the second message... Yes! And I feel that's the way to try to fight this tgt, we could worry about publications after this madness. A lot of people outside the academia is loosing their entire job anyways so is just being solidary... However I could understand that there are still a lot of people out there who want to protect the sequences. We don't know what are they specific cases, maybe is required by their funding source, maybe they have being scooped before... Who knows! For me it's worst the peer reviewer that scoop a sequence in a paper he must review and publish something before the original paper... It wouldn't be the first time, and they are the real reason bcs everyone is moving to sites as GISAID (As far I understand).",
        "user": "UV3URUKK5",
        "ts": "1587056621.049100",
        "team": "TUU48M0T1",
        "user_team": "TUU48M0T1",
        "source_team": "TUU48M0T1",
        "user_profile": {
            "avatar_hash": "64c99c2ed974",
            "image_72": "https:\/\/avatars.slack-edge.com\/2020-03-15\/1000999702004_64c99c2ed97497e08ca9_72.jpg",
            "first_name": "",
            "real_name": "Francisco Javier Quero",
            "display_name": "Francisco Javier Quero",
            "team": "TUU48M0T1",
            "name": "franxi2953",
            "is_restricted": false,
            "is_ultra_restricted": false
        },
        "edited": {
            "user": "UV3URUKK5",
            "ts": "1587056711.000000"
        },
        "blocks": [
            {
                "type": "rich_text",
                "block_id": "2+8z",
                "elements": [
                    {
                        "type": "rich_text_section",
                        "elements": [
                            {
                                "type": "text",
                                "text": "To the first your first msg, yes I read it! I was so desperate trying to find an script online before doing my own, and some of the people in these thread talk also about that (I never found anything useful). About the public sequences on GeneBank, of course, that's on the side of the researchers. GISAID doesn't have any rights regarding the sequences. If the researchers want to publish them in different sites they are free. But for some reason they preffer GISAID (9k sequences vs 100 curated ones in NCBI, as far I know)\n\nAbout the second message... Yes! And I feel that's the way to try to fight this tgt, we could worry about publications after this madness. A lot of people outside the academia is loosing their entire job anyways so is just being solidary... However I could understand that there are still a lot of people out there who want to protect the sequences. We don't know what are they specific cases, maybe is required by their funding source, maybe they have being scooped before... Who knows! For me it's worst the peer reviewer that scoop a sequence in a paper he must review and publish something before the original paper... It wouldn't be the first time, and they are the real reason bcs everyone is moving to sites as GISAID (As far I understand)."
                            }
                        ]
                    }
                ]
            }
        ],
        "thread_ts": "1586615652.040400",
        "parent_user_id": "UV20M5HGQ"
    }
]