[
    {
        "client_msg_id": "4d5a477a-21da-47bf-9037-cd714efdec1b",
        "type": "message",
        "text": "<https:\/\/www.developer.nvidia.com\/nvidia-parabricks?ncid=em-anno-32165&amp;mkt_tok=eyJpIjoiTVRjd1lUa3lZekUyTlRjNSIsInQiOiJrcWU3ckpXNHVackl6Vks0WDVJVjJ3amVuR1R3NWhhNWk0TjZhM29iXC94MU5qUFJ6Y0FtUXcrekJTUkx4UEFkMENLXC82Y3RiM1NMKzN1aWdNRzFlMENsZk9wN3phZUlvdzRxNHF5SkNvUlZzUitMQnBDMk1cL1NITVZWQjRMTUtoSiJ9#cid=ix09_em-anno_en-us>",
        "user": "UVD8Q035K",
        "ts": "1585060944.244000",
        "team": "TUU48M0T1",
        "user_team": "TUU48M0T1",
        "source_team": "TUU48M0T1",
        "user_profile": {
            "avatar_hash": "8b2d0f7c083b",
            "image_72": "https:\/\/avatars.slack-edge.com\/2020-03-13\/1001496871254_8b2d0f7c083b78fb0457_72.jpg",
            "first_name": "",
            "real_name": "Jonathan W. Vos",
            "display_name": "Jonathan W. Vos",
            "team": "TUU48M0T1",
            "name": "jonathan",
            "is_restricted": false,
            "is_ultra_restricted": false
        },
        "attachments": [
            {
                "service_name": "NVIDIA Developer",
                "title": "NVIDIA PARABRICKS",
                "title_link": "https:\/\/www.developer.nvidia.com\/nvidia-parabricks?ncid=em-anno-32165&mkt_tok=eyJpIjoiTVRjd1lUa3lZekUyTlRjNSIsInQiOiJrcWU3ckpXNHVackl6Vks0WDVJVjJ3amVuR1R3NWhhNWk0TjZhM29iXC94MU5qUFJ6Y0FtUXcrekJTUkx4UEFkMENLXC82Y3RiM1NMKzN1aWdNRzFlMENsZk9wN3phZUlvdzRxNHF5SkNvUlZzUitMQnBDMk1cL1NITVZWQjRMTUtoSiJ9#cid=ix09_em-anno_en-us",
                "text": "Performance NVIDIA Parabricks’ pipeline is generally 35-50 times faster than CPU only GATK4 solutions. Users can run a 30X Whole Genome Sequence Data in about 45 minutes. The renowned NA12878 sample at 43X coverage takes nearly 65 minutes to process with the NVIDIA Parabricks pipeline. These breakneck speeds are achieved using 8 V100 GPUs from NVIDIA. As GPUs become faster, so does the NVIDIA Parabricks pipeline. Accuracy NVIDIA Parabricks’ pipelines were designed with accuracy as the first goal. These pipelines match GATK4 best practices output 100% after marking duplicates (BAM).",
                "fallback": "NVIDIA Developer: NVIDIA PARABRICKS",
                "ts": 1583184424,
                "from_url": "https:\/\/www.developer.nvidia.com\/nvidia-parabricks?ncid=em-anno-32165&mkt_tok=eyJpIjoiTVRjd1lUa3lZekUyTlRjNSIsInQiOiJrcWU3ckpXNHVackl6Vks0WDVJVjJ3amVuR1R3NWhhNWk0TjZhM29iXC94MU5qUFJ6Y0FtUXcrekJTUkx4UEFkMENLXC82Y3RiM1NMKzN1aWdNRzFlMENsZk9wN3phZUlvdzRxNHF5SkNvUlZzUitMQnBDMk1cL1NITVZWQjRMTUtoSiJ9#cid=ix09_em-anno_en-us",
                "service_icon": "https:\/\/developer.nvidia.com\/sites\/all\/themes\/devzone_base\/favicon.ico",
                "id": 1,
                "original_url": "https:\/\/www.developer.nvidia.com\/nvidia-parabricks?ncid=em-anno-32165&amp;mkt_tok=eyJpIjoiTVRjd1lUa3lZekUyTlRjNSIsInQiOiJrcWU3ckpXNHVackl6Vks0WDVJVjJ3amVuR1R3NWhhNWk0TjZhM29iXC94MU5qUFJ6Y0FtUXcrekJTUkx4UEFkMENLXC82Y3RiM1NMKzN1aWdNRzFlMENsZk9wN3phZUlvdzRxNHF5SkNvUlZzUitMQnBDMk1cL1NITVZWQjRMTUtoSiJ9#cid=ix09_em-anno_en-us"
            }
        ],
        "blocks": [
            {
                "type": "rich_text",
                "block_id": "iJFi8",
                "elements": [
                    {
                        "type": "rich_text_section",
                        "elements": [
                            {
                                "type": "link",
                                "url": "https:\/\/www.developer.nvidia.com\/nvidia-parabricks?ncid=em-anno-32165&mkt_tok=eyJpIjoiTVRjd1lUa3lZekUyTlRjNSIsInQiOiJrcWU3ckpXNHVackl6Vks0WDVJVjJ3amVuR1R3NWhhNWk0TjZhM29iXC94MU5qUFJ6Y0FtUXcrekJTUkx4UEFkMENLXC82Y3RiM1NMKzN1aWdNRzFlMENsZk9wN3phZUlvdzRxNHF5SkNvUlZzUitMQnBDMk1cL1NITVZWQjRMTUtoSiJ9#cid=ix09_em-anno_en-us"
                            }
                        ]
                    }
                ]
            }
        ]
    },
    {
        "client_msg_id": "2b77c2d6-175f-4037-abc6-d1a54041635b",
        "type": "message",
        "text": "NVIDIA has made their genomics analysis toolkit 'Parabricks' free for 90 days for novel corona research",
        "user": "UVD8Q035K",
        "ts": "1585060992.244800",
        "team": "TUU48M0T1",
        "user_team": "TUU48M0T1",
        "source_team": "TUU48M0T1",
        "user_profile": {
            "avatar_hash": "8b2d0f7c083b",
            "image_72": "https:\/\/avatars.slack-edge.com\/2020-03-13\/1001496871254_8b2d0f7c083b78fb0457_72.jpg",
            "first_name": "",
            "real_name": "Jonathan W. Vos",
            "display_name": "Jonathan W. Vos",
            "team": "TUU48M0T1",
            "name": "jonathan",
            "is_restricted": false,
            "is_ultra_restricted": false
        },
        "blocks": [
            {
                "type": "rich_text",
                "block_id": "CzGaW",
                "elements": [
                    {
                        "type": "rich_text_section",
                        "elements": [
                            {
                                "type": "text",
                                "text": "NVIDIA has made their genomics analysis toolkit 'Parabricks' free for 90 days for novel corona research"
                            }
                        ]
                    }
                ]
            }
        ]
    },
    {
        "client_msg_id": "90453df3-8082-4abc-9756-bf8f92f58d1b",
        "type": "message",
        "text": "hey, aren’t we doubling any of already executed open source project here <https:\/\/opensource.com\/article\/20\/3\/open-hardware-covid19> ? There are alreay 3 projectes connected with qPCR",
        "user": "U010FUU89B9",
        "ts": "1585066211.246000",
        "team": "TUU48M0T1",
        "user_team": "TUU48M0T1",
        "source_team": "TUU48M0T1",
        "user_profile": {
            "avatar_hash": "g8013a6b45b4",
            "image_72": "https:\/\/secure.gravatar.com\/avatar\/8013a6b45b4ae359e124abba6495cd14.jpg?s=72&d=https%3A%2F%2Fa.slack-edge.com%2Fdf10d%2Fimg%2Favatars%2Fava_0016-72.png",
            "first_name": "Bartłomiej",
            "real_name": "Bartłomiej Żogała",
            "display_name": "nusch",
            "team": "TUU48M0T1",
            "name": "slack1370",
            "is_restricted": false,
            "is_ultra_restricted": false
        },
        "attachments": [
            {
                "service_name": "Opensource.com",
                "title": "7 open hardware projects working to solve COVID-19",
                "title_link": "https:\/\/opensource.com\/article\/20\/3\/open-hardware-covid19",
                "text": "The open source hardware movement has long championed the importance of the right to repair, fully own the technology you buy, and be able to remix and reproduce gadgets, just like you can with music. And so, during this challenging time, open hardware is providing some answers to some of the problems created by the coronavirus pandemic.",
                "fallback": "Opensource.com: 7 open hardware projects working to solve COVID-19",
                "thumb_url": "https:\/\/opensource.com\/sites\/default\/files\/lead-images\/health_heartbeat.png",
                "from_url": "https:\/\/opensource.com\/article\/20\/3\/open-hardware-covid19",
                "thumb_width": 520,
                "thumb_height": 292,
                "service_icon": "https:\/\/opensource.com\/sites\/all\/themes\/opensource\/favicon.ico",
                "id": 1,
                "original_url": "https:\/\/opensource.com\/article\/20\/3\/open-hardware-covid19"
            }
        ],
        "blocks": [
            {
                "type": "rich_text",
                "block_id": "cDg",
                "elements": [
                    {
                        "type": "rich_text_section",
                        "elements": [
                            {
                                "type": "text",
                                "text": "hey, aren’t we doubling any of already executed open source project here "
                            },
                            {
                                "type": "link",
                                "url": "https:\/\/opensource.com\/article\/20\/3\/open-hardware-covid19"
                            },
                            {
                                "type": "text",
                                "text": " ? There are alreay 3 projectes connected with qPCR"
                            }
                        ]
                    }
                ]
            }
        ]
    },
    {
        "client_msg_id": "2049bfb7-c658-4686-b4cc-39a2fcff2a4e",
        "type": "message",
        "text": "A collection of funding calls from Tekiu - Solutions for COVID-19 | Funding calls &amp; collaborative opportunities <https:\/\/docs.google.com\/document\/d\/1dxiT3SVqnoHvLv7UIiA-ybUqDWcyALxNmCdchGU01Bs\/edit#heading=h.r5x7jn4yz162>",
        "user": "U010FKTJX32",
        "ts": "1585088162.248400",
        "team": "TUU48M0T1",
        "user_team": "TUU48M0T1",
        "source_team": "TUU48M0T1",
        "user_profile": {
            "avatar_hash": "ga5fa73210f1",
            "image_72": "https:\/\/secure.gravatar.com\/avatar\/a5fa73210f15125aa001df8c65edf987.jpg?s=72&d=https%3A%2F%2Fa.slack-edge.com%2Fdf10d%2Fimg%2Favatars%2Fava_0018-72.png",
            "first_name": "",
            "real_name": "Muki Haklay",
            "display_name": "Muki Haklay",
            "team": "TUU48M0T1",
            "name": "m.haklay",
            "is_restricted": false,
            "is_ultra_restricted": false
        },
        "blocks": [
            {
                "type": "rich_text",
                "block_id": "AC6",
                "elements": [
                    {
                        "type": "rich_text_section",
                        "elements": [
                            {
                                "type": "text",
                                "text": "A collection of funding calls from Tekiu - Solutions for COVID-19 | Funding calls & collaborative opportunities "
                            },
                            {
                                "type": "link",
                                "url": "https:\/\/docs.google.com\/document\/d\/1dxiT3SVqnoHvLv7UIiA-ybUqDWcyALxNmCdchGU01Bs\/edit#heading=h.r5x7jn4yz162"
                            }
                        ]
                    }
                ]
            }
        ],
        "reactions": [
            {
                "name": "+1",
                "users": [
                    "U010566NJHG",
                    "UV02WET96",
                    "UV10KBUQG"
                ],
                "count": 3
            }
        ]
    }
]