[
    {
        "client_msg_id": "dcef909e-2966-4f5d-a3a8-500bd044129d",
        "type": "message",
        "text": "Hello everybody! My name is Mireia, I am a 1st year Bioengineering PhD student at Northeastern University, Boston. (more info in my <https:\/\/www.linkedin.com\/in\/mireiapereragonzalez\/|linkedin>). Looking forward to helping as much as possible!",
        "user": "U010BMYLX36",
        "ts": "1586868556.027400",
        "team": "TUU48M0T1",
        "user_team": "TUU48M0T1",
        "source_team": "TUU48M0T1",
        "user_profile": {
            "avatar_hash": "29b280e40aff",
            "image_72": "https:\/\/avatars.slack-edge.com\/2020-03-19\/1012233950240_29b280e40aff0bec1689_72.jpg",
            "first_name": "",
            "real_name": "Mireia Perera Gonzalez",
            "display_name": "Mireia Perera Gonzalez",
            "team": "TUU48M0T1",
            "name": "pereragonzalez.m",
            "is_restricted": false,
            "is_ultra_restricted": false
        },
        "blocks": [
            {
                "type": "rich_text",
                "block_id": "S20+Q",
                "elements": [
                    {
                        "type": "rich_text_section",
                        "elements": [
                            {
                                "type": "text",
                                "text": "Hello everybody! My name is Mireia, I am a 1st year Bioengineering PhD student at Northeastern University, Boston. (more info in my "
                            },
                            {
                                "type": "link",
                                "url": "https:\/\/www.linkedin.com\/in\/mireiapereragonzalez\/",
                                "text": "linkedin"
                            },
                            {
                                "type": "text",
                                "text": "). Looking forward to helping as much as possible!"
                            }
                        ]
                    }
                ]
            }
        ],
        "reactions": [
            {
                "name": "heart",
                "users": [
                    "U011D8T1Z61",
                    "U0101DKUALV"
                ],
                "count": 2
            }
        ]
    },
    {
        "type": "message",
        "text": "we are looking for a graduate assistant at Cool Anthropology -- if you or anyone you know has 2+ years of anthropological coursework at the graduate level and is interested in public scholarship, please connect with me! I know there are a lot of bio\/chem\/engineering types around here, but we need more social scientists in the mix, and these are the folks who should be translating the data and working with the communities to tell our stories. hit me up!",
        "files": [
            {
                "id": "F012HTA79GQ",
                "created": 1586886608,
                "timestamp": 1586886608,
                "name": "cool-anthropology-graduate-assistant.pdf",
                "title": "cool-anthropology-graduate-assistant.pdf",
                "mimetype": "application\/pdf",
                "filetype": "pdf",
                "pretty_type": "PDF",
                "user": "UV87UQ37A",
                "editable": false,
                "size": 388174,
                "mode": "hosted",
                "is_external": false,
                "external_type": "",
                "is_public": true,
                "public_url_shared": false,
                "display_as_bot": false,
                "username": "",
                "url_private": "https:\/\/files.slack.com\/files-pri\/TUU48M0T1-F012HTA79GQ\/cool-anthropology-graduate-assistant.pdf?t=xoxe-980144714919-1106606678066-1105227127893-6f722bb664235052954ad46852628b64",
                "url_private_download": "https:\/\/files.slack.com\/files-pri\/TUU48M0T1-F012HTA79GQ\/download\/cool-anthropology-graduate-assistant.pdf?t=xoxe-980144714919-1106606678066-1105227127893-6f722bb664235052954ad46852628b64",
                "thumb_pdf": "https:\/\/files.slack.com\/files-tmb\/TUU48M0T1-F012HTA79GQ-0384b5c89c\/cool-anthropology-graduate-assistant_thumb_pdf.png?t=xoxe-980144714919-1106606678066-1105227127893-6f722bb664235052954ad46852628b64",
                "thumb_pdf_w": 935,
                "thumb_pdf_h": 1210,
                "permalink": "https:\/\/open-covid19.slack.com\/files\/UV87UQ37A\/F012HTA79GQ\/cool-anthropology-graduate-assistant.pdf",
                "permalink_public": "https:\/\/slack-files.com\/TUU48M0T1-F012HTA79GQ-bdd5848e7c",
                "is_starred": false,
                "has_rich_preview": false
            }
        ],
        "upload": true,
        "blocks": [
            {
                "type": "rich_text",
                "block_id": "0GG",
                "elements": [
                    {
                        "type": "rich_text_section",
                        "elements": [
                            {
                                "type": "text",
                                "text": "we are looking for a graduate assistant at Cool Anthropology -- if you or anyone you know has 2+ years of anthropological coursework at the graduate level and is interested in public scholarship, please connect with me! I know there are a lot of bio\/chem\/engineering types around here, but we need more social scientists in the mix, and these are the folks who should be translating the data and working with the communities to tell our stories. hit me up!"
                            }
                        ]
                    }
                ]
            }
        ],
        "user": "UV87UQ37A",
        "display_as_bot": false,
        "ts": "1586886611.028200",
        "client_msg_id": "3263eac6-9f7b-44ba-a2ed-e3e4d97ebb67",
        "reactions": [
            {
                "name": "+1",
                "users": [
                    "UV9V03C8Y",
                    "U0101DKUALV"
                ],
                "count": 2
            }
        ]
    },
    {
        "client_msg_id": "876c2097-9184-4d8a-8122-000128842341",
        "type": "message",
        "text": "Hi <@UV87UQ37A> - This sounds amazing. If you cant find anyone - I am a behavioral scientist\/lecturer with an emphasis is ethnography and anthropology (and I am a mental health project lead). Feel free to DM and get in touch if no students come forward. Hope this finds you well! :slightly_smiling_face:",
        "user": "U011D6K9RH6",
        "ts": "1586887155.030300",
        "team": "TUU48M0T1",
        "user_team": "TUU48M0T1",
        "source_team": "TUU48M0T1",
        "user_profile": {
            "avatar_hash": "85c5155708e4",
            "image_72": "https:\/\/avatars.slack-edge.com\/2020-04-02\/1033600589794_85c5155708e4e6cfa61f_72.jpg",
            "first_name": "George",
            "real_name": "George Elerick",
            "display_name": "George Elerick",
            "team": "TUU48M0T1",
            "name": "george",
            "is_restricted": false,
            "is_ultra_restricted": false
        },
        "blocks": [
            {
                "type": "rich_text",
                "block_id": "ZOL",
                "elements": [
                    {
                        "type": "rich_text_section",
                        "elements": [
                            {
                                "type": "text",
                                "text": "Hi "
                            },
                            {
                                "type": "user",
                                "user_id": "UV87UQ37A"
                            },
                            {
                                "type": "text",
                                "text": " - This sounds amazing. If you cant find anyone - I am a behavioral scientist\/lecturer with an emphasis is ethnography and anthropology (and I am a mental health project lead). Feel free to DM and get in touch if no students come forward. Hope this finds you well! "
                            },
                            {
                                "type": "emoji",
                                "name": "slightly_smiling_face"
                            }
                        ]
                    }
                ]
            }
        ],
        "thread_ts": "1586887155.030300",
        "reply_count": 3,
        "reply_users_count": 2,
        "latest_reply": "1587059110.049600",
        "reply_users": [
            "UV87UQ37A",
            "U011D6K9RH6"
        ],
        "replies": [
            {
                "user": "UV87UQ37A",
                "ts": "1586887501.030400"
            },
            {
                "user": "UV87UQ37A",
                "ts": "1586887521.030600"
            },
            {
                "user": "U011D6K9RH6",
                "ts": "1587059110.049600"
            }
        ],
        "subscribed": false
    },
    {
        "client_msg_id": "8d114dad-768b-4aac-a730-169c2cb685be",
        "type": "message",
        "text": "thanks for showing interest! you should connect in with our network either way! this position is specifically going to manage a social media campaign to get people to participate in a survey about why ethography matters -- we are working on some \"fake news\" journalism vs ethnography pieces now. I'll keep your name and circle back with you soon to talk about how I can inspire you to participate :slightly_smiling_face:",
        "user": "UV87UQ37A",
        "ts": "1586887501.030400",
        "team": "TUU48M0T1",
        "user_team": "TUU48M0T1",
        "source_team": "TUU48M0T1",
        "user_profile": {
            "avatar_hash": "g7c78d2f0258",
            "image_72": "https:\/\/secure.gravatar.com\/avatar\/7c78d2f0258f7bdf78a86301cfd6b712.jpg?s=72&d=https%3A%2F%2Fa.slack-edge.com%2Fdf10d%2Fimg%2Favatars%2Fava_0014-72.png",
            "first_name": "Victoria",
            "real_name": "Victoria Costa",
            "display_name": "Victoria Costa",
            "team": "TUU48M0T1",
            "name": "victorycoast",
            "is_restricted": false,
            "is_ultra_restricted": false
        },
        "blocks": [
            {
                "type": "rich_text",
                "block_id": "a\/0G",
                "elements": [
                    {
                        "type": "rich_text_section",
                        "elements": [
                            {
                                "type": "text",
                                "text": "thanks for showing interest! you should connect in with our network either way! this position is specifically going to manage a social media campaign to get people to participate in a survey about why ethography matters -- we are working on some \"fake news\" journalism vs ethnography pieces now. I'll keep your name and circle back with you soon to talk about how I can inspire you to participate "
                            },
                            {
                                "type": "emoji",
                                "name": "slightly_smiling_face"
                            }
                        ]
                    }
                ]
            }
        ],
        "thread_ts": "1586887155.030300",
        "parent_user_id": "U011D6K9RH6"
    },
    {
        "client_msg_id": "db2e3f02-f212-41f1-a90d-3b3a80d98601",
        "type": "message",
        "text": "<https:\/\/www.coolanthropology.com\/ethnography-matters\/>",
        "user": "UV87UQ37A",
        "ts": "1586887521.030600",
        "team": "TUU48M0T1",
        "user_team": "TUU48M0T1",
        "source_team": "TUU48M0T1",
        "user_profile": {
            "avatar_hash": "g7c78d2f0258",
            "image_72": "https:\/\/secure.gravatar.com\/avatar\/7c78d2f0258f7bdf78a86301cfd6b712.jpg?s=72&d=https%3A%2F%2Fa.slack-edge.com%2Fdf10d%2Fimg%2Favatars%2Fava_0014-72.png",
            "first_name": "Victoria",
            "real_name": "Victoria Costa",
            "display_name": "Victoria Costa",
            "team": "TUU48M0T1",
            "name": "victorycoast",
            "is_restricted": false,
            "is_ultra_restricted": false
        },
        "blocks": [
            {
                "type": "rich_text",
                "block_id": "2hN",
                "elements": [
                    {
                        "type": "rich_text_section",
                        "elements": [
                            {
                                "type": "link",
                                "url": "https:\/\/www.coolanthropology.com\/ethnography-matters\/"
                            }
                        ]
                    }
                ]
            }
        ],
        "thread_ts": "1586887155.030300",
        "parent_user_id": "U011D6K9RH6"
    },
    {
        "client_msg_id": "f0e49d48-c34b-4e70-9f14-03cb5c3d3e64",
        "type": "message",
        "text": "Great! I’m in!",
        "user": "U0118T0THTP",
        "ts": "1586891162.030800",
        "team": "TUU48M0T1",
        "user_team": "TUU48M0T1",
        "source_team": "TUU48M0T1",
        "user_profile": {
            "avatar_hash": "115541311c96",
            "image_72": "https:\/\/avatars.slack-edge.com\/2020-04-02\/1044155516661_115541311c966db28fa4_72.jpg",
            "first_name": "Gabriela",
            "real_name": "Gabriela Rios-Sotelo",
            "display_name": "Gabriela Rios-Sotelo",
            "team": "TUU48M0T1",
            "name": "gabriela18",
            "is_restricted": false,
            "is_ultra_restricted": false
        },
        "blocks": [
            {
                "type": "rich_text",
                "block_id": "nEH",
                "elements": [
                    {
                        "type": "rich_text_section",
                        "elements": [
                            {
                                "type": "text",
                                "text": "Great! I’m in!"
                            }
                        ]
                    }
                ]
            }
        ],
        "thread_ts": "1586839261.025000",
        "parent_user_id": "U0118T0THTP"
    }
]