[
    {
        "type": "message",
        "subtype": "channel_join",
        "ts": "1584531547.002500",
        "user": "U0108DBLQSZ",
        "text": "<@U0108DBLQSZ> has joined the channel"
    },
    {
        "type": "message",
        "subtype": "channel_join",
        "ts": "1584550749.002800",
        "user": "UV8T52QJ3",
        "text": "<@UV8T52QJ3> has joined the channel"
    },
    {
        "type": "message",
        "subtype": "channel_join",
        "ts": "1584551277.003100",
        "user": "UUNGFHSV8",
        "text": "<@UUNGFHSV8> has joined the channel"
    },
    {
        "type": "message",
        "subtype": "channel_join",
        "ts": "1584556940.003400",
        "user": "UVATPEW2W",
        "text": "<@UVATPEW2W> has joined the channel"
    }
]