[
    {
        "client_msg_id": "f0c5db4a-a9f7-4467-9fbc-c73a3ebf7b1d",
        "type": "message",
        "text": "Hi everyone. The proj_dev_endgame team is looking for help with finding facts for a serious\/educational game to help educate the public about how to stay safe. If you know of any relevant resources we should use or if you would like to help fact-check, please see our channel ( <#C01044Q28UB|proj-dev-edgame> ) and feel free to add to this resource:\n<https:\/\/docs.google.com\/document\/d\/1FeSb09gCg9Rqt21-r9GqKTULR47_zH60zDBqalg7qOo\/edit?usp=sharing>",
        "user": "U0103LPAWQ4",
        "ts": "1585364475.002900",
        "team": "TUU48M0T1",
        "user_team": "TUU48M0T1",
        "source_team": "TUU48M0T1",
        "user_profile": {
            "avatar_hash": "7b345029e813",
            "image_72": "https:\/\/avatars.slack-edge.com\/2020-03-17\/1004213082549_7b345029e8137cbdc6b0_72.jpg",
            "first_name": "Bre",
            "real_name": "Bre",
            "display_name": "Bre",
            "team": "TUU48M0T1",
            "name": "info",
            "is_restricted": false,
            "is_ultra_restricted": false
        },
        "blocks": [
            {
                "type": "rich_text",
                "block_id": "sFEHu",
                "elements": [
                    {
                        "type": "rich_text_section",
                        "elements": [
                            {
                                "type": "text",
                                "text": "Hi everyone. The proj_dev_endgame team is looking for help with finding facts for a serious\/educational game to help educate the public about how to stay safe. If you know of any relevant resources we should use or if you would like to help fact-check, please see our channel ( "
                            },
                            {
                                "type": "channel",
                                "channel_id": "C01044Q28UB"
                            },
                            {
                                "type": "text",
                                "text": " ) and feel free to add to this resource:\n"
                            },
                            {
                                "type": "link",
                                "url": "https:\/\/docs.google.com\/document\/d\/1FeSb09gCg9Rqt21-r9GqKTULR47_zH60zDBqalg7qOo\/edit?usp=sharing"
                            }
                        ]
                    }
                ]
            }
        ],
        "reactions": [
            {
                "name": "+1",
                "users": [
                    "UV02WET96"
                ],
                "count": 1
            }
        ]
    }
]