[
    {
        "type": "message",
        "subtype": "channel_join",
        "ts": "1586164920.000200",
        "user": "U011B6VLM2A",
        "text": "<@U011B6VLM2A> has joined the channel"
    },
    {
        "type": "message",
        "subtype": "channel_join",
        "ts": "1586208868.000400",
        "user": "U0115G1A03D",
        "text": "<@U0115G1A03D> has joined the channel"
    }
]