[
    {
        "client_msg_id": "8b95f1a8-5168-491f-ba99-fa4ac348143b",
        "type": "message",
        "text": "<@UV3URUKK5> let's schedule a time to video conference about aptamer ideas. We'll share the time with the rest of the group so they can join if they're available.",
        "user": "UV78JAX0S",
        "ts": "1584804912.000100",
        "team": "TUU48M0T1",
        "user_team": "TUU48M0T1",
        "source_team": "TUU48M0T1",
        "user_profile": {
            "avatar_hash": "ab643489965e",
            "image_72": "https:\/\/avatars.slack-edge.com\/2020-03-17\/996174739571_ab643489965e0031c49d_72.png",
            "first_name": "Khalid",
            "real_name": "Khalid K. Alam",
            "display_name": "Khalid K. Alam",
            "team": "TUU48M0T1",
            "name": "khalid",
            "is_restricted": false,
            "is_ultra_restricted": false
        },
        "blocks": [
            {
                "type": "rich_text",
                "block_id": "9rx2S",
                "elements": [
                    {
                        "type": "rich_text_section",
                        "elements": [
                            {
                                "type": "user",
                                "user_id": "UV3URUKK5"
                            },
                            {
                                "type": "text",
                                "text": " let's schedule a time to video conference about aptamer ideas. We'll share the time with the rest of the group so they can join if they're available."
                            }
                        ]
                    }
                ]
            }
        ],
        "thread_ts": "1584754129.009600",
        "parent_user_id": "UV78JAX0S",
        "reactions": [
            {
                "name": "100",
                "users": [
                    "UV3URUKK5"
                ],
                "count": 1
            }
        ]
    },
    {
        "type": "message",
        "subtype": "channel_join",
        "ts": "1584826475.000400",
        "user": "U0106T9TL3T",
        "text": "<@U0106T9TL3T> has joined the channel"
    }
]