[
    {
        "client_msg_id": "cf60c07f-3d8f-4c1d-ad19-676604be6c3f",
        "type": "message",
        "text": "Hi everyone, has anyone had any experience storing cell free mastermix at - 20 instead of - 80?",
        "user": "UV20M5HGQ",
        "ts": "1585769630.006900",
        "team": "TUU48M0T1",
        "user_team": "TUU48M0T1",
        "source_team": "TUU48M0T1",
        "user_profile": {
            "avatar_hash": "de7ea7b7e14e",
            "image_72": "https:\/\/avatars.slack-edge.com\/2020-03-11\/981865374050_de7ea7b7e14e7b4316b9_72.jpg",
            "first_name": "",
            "real_name": "Vesta Korniakova",
            "display_name": "Vesta Korniakova",
            "team": "TUU48M0T1",
            "name": "riboswitchvesta",
            "is_restricted": false,
            "is_ultra_restricted": false
        },
        "blocks": [
            {
                "type": "rich_text",
                "block_id": "oqk",
                "elements": [
                    {
                        "type": "rich_text_section",
                        "elements": [
                            {
                                "type": "text",
                                "text": "Hi everyone, has anyone had any experience storing cell free mastermix at - 20 instead of - 80?"
                            }
                        ]
                    }
                ]
            }
        ]
    },
    {
        "client_msg_id": "e2e59df3-dca5-4467-bec6-ac01eb0830be",
        "type": "message",
        "text": "I've never tried, but I think it should work good enough.\nAs a rule of thumb just avoid freeze-thaw circles",
        "user": "UV3746ST1",
        "ts": "1585772440.009300",
        "team": "TUU48M0T1",
        "user_team": "TUU48M0T1",
        "source_team": "TUU48M0T1",
        "user_profile": {
            "avatar_hash": "a83ec6cd1d1a",
            "image_72": "https:\/\/avatars.slack-edge.com\/2020-03-07\/987381527184_a83ec6cd1d1ab6a03a2c_72.jpg",
            "first_name": "Anibal",
            "real_name": "Anibal",
            "display_name": "Anibal",
            "team": "TUU48M0T1",
            "name": "elanibal",
            "is_restricted": false,
            "is_ultra_restricted": false
        },
        "blocks": [
            {
                "type": "rich_text",
                "block_id": "IV1th",
                "elements": [
                    {
                        "type": "rich_text_section",
                        "elements": [
                            {
                                "type": "text",
                                "text": "I've never tried, but I think it should work good enough.\nAs a rule of thumb just avoid freeze-thaw circles"
                            }
                        ]
                    }
                ]
            }
        ]
    },
    {
        "client_msg_id": "91ec3bc6-33ff-4931-9a8e-e8b63e44234b",
        "type": "message",
        "text": "ok thanks!",
        "user": "UV20M5HGQ",
        "ts": "1585772710.009500",
        "team": "TUU48M0T1",
        "user_team": "TUU48M0T1",
        "source_team": "TUU48M0T1",
        "user_profile": {
            "avatar_hash": "de7ea7b7e14e",
            "image_72": "https:\/\/avatars.slack-edge.com\/2020-03-11\/981865374050_de7ea7b7e14e7b4316b9_72.jpg",
            "first_name": "",
            "real_name": "Vesta Korniakova",
            "display_name": "Vesta Korniakova",
            "team": "TUU48M0T1",
            "name": "riboswitchvesta",
            "is_restricted": false,
            "is_ultra_restricted": false
        },
        "blocks": [
            {
                "type": "rich_text",
                "block_id": "Guy8",
                "elements": [
                    {
                        "type": "rich_text_section",
                        "elements": [
                            {
                                "type": "text",
                                "text": "ok thanks!"
                            }
                        ]
                    }
                ]
            }
        ]
    },
    {
        "type": "message",
        "subtype": "channel_join",
        "ts": "1585798529.009700",
        "user": "U010N7AFMHA",
        "text": "<@U010N7AFMHA> has joined the channel"
    }
]