[
    {
        "type": "message",
        "subtype": "channel_join",
        "ts": "1585483537.000200",
        "user": "UV5CCJ9RC",
        "text": "<@UV5CCJ9RC> has joined the channel"
    },
    {
        "client_msg_id": "839a0d8b-74b2-48a3-a4a0-d8481e7e6214",
        "type": "message",
        "text": "Hey guys, we have some resources we can share: For designing toeholds <https:\/\/github.com\/elanibal\/NupackSensors\/blob\/master\/README.md>",
        "user": "UV3746ST1",
        "ts": "1585485392.000200",
        "team": "TUU48M0T1",
        "user_team": "TUU48M0T1",
        "source_team": "TUU48M0T1",
        "user_profile": {
            "avatar_hash": "a83ec6cd1d1a",
            "image_72": "https:\/\/avatars.slack-edge.com\/2020-03-07\/987381527184_a83ec6cd1d1ab6a03a2c_72.jpg",
            "first_name": "Anibal",
            "real_name": "Anibal",
            "display_name": "Anibal",
            "team": "TUU48M0T1",
            "name": "elanibal",
            "is_restricted": false,
            "is_ultra_restricted": false
        },
        "attachments": [
            {
                "fallback": "[elanibal\/NupackSensors] README.md",
                "text": "```\n# Designing Novel Toehold Sensors \n\nToehold riboswitches are a de-novo designed regulators of gene expression afecting translation. They have been used in many aplications including biocomputing and biosensors for RNA viruses including ébola, ZIka, Norovirus, PVY, and many more.\n\nThis repository is a open tool for designing novel toehold sensors for a given RNA. It interacts with NUPACK software for annalysis of RNA structures and all the code is writen in Python 3.0. \n\n# Dependencies\n1.-NUPACK 3.0 (<http:\/\/nupack.org\/>).\n\n2.-Python 3\n\n# Fast prototyping Toehold Sensors in cell-free reactions\n\nOnce toehold sensors are design, they can be fastlly screened in Cell-free reactions using PCR products, and In vitro transcribed trigger RNAs. We Use LacZ output, which gives a colorimetrics change from yellow ( negative controls ) to purple. \n\n\n&lt;img src=\"Results_1.jpg\" width=\"400\"&gt;\n\n&lt;img src=\"positive.jpg\" width=\"900\"&gt;\n\n\nHere is a link to the protocol we use for making in-house low-cost cell-free reactions <https:\/\/www.protocols.io\/view\/preparation-of-cell-free-rnapt7-reactions-kz2cx8e>\n\n# References\n\nMost of the code shown here is built on the top of an app from the iGem group EPFL (2017) <http:\/\/2017.igem.org\/Team:EPFL\/Results\/Toehold>.\n\nThe scoring metrics for the designs were taken from  Ma, D. et al.  (Low-cost detection of norovirus using paper-based cell-free systems and synbody-based viral enrichment. Synth.  Biol.3, ysy018 (2018))\n\n\n \n\n```",
                "title": "README.md",
                "footer": "<https:\/\/github.com\/elanibal\/NupackSensors|elanibal\/NupackSensors>",
                "id": 1,
                "title_link": "https:\/\/github.com\/elanibal\/NupackSensors\/blob\/master\/README.md",
                "footer_icon": "https:\/\/github.githubassets.com\/favicon.ico",
                "color": "24292f",
                "mrkdwn_in": [
                    "text"
                ],
                "bot_id": "BUW789DM0",
                "app_unfurl_url": "https:\/\/github.com\/elanibal\/NupackSensors\/blob\/master\/README.md",
                "is_app_unfurl": true
            }
        ],
        "blocks": [
            {
                "type": "rich_text",
                "block_id": "PHn",
                "elements": [
                    {
                        "type": "rich_text_section",
                        "elements": [
                            {
                                "type": "text",
                                "text": "Hey guys, we have some resources we can share: For designing toeholds "
                            },
                            {
                                "type": "link",
                                "url": "https:\/\/github.com\/elanibal\/NupackSensors\/blob\/master\/README.md"
                            }
                        ]
                    }
                ]
            }
        ],
        "reactions": [
            {
                "name": "heart_eyes",
                "users": [
                    "UV3URUKK5"
                ],
                "count": 1
            }
        ]
    },
    {
        "client_msg_id": "9d97bb58-0c48-401d-aae0-3cc625ad2413",
        "type": "message",
        "text": "<https:\/\/www.protocols.io\/view\/preparation-of-cell-free-rnapt7-reactions-kz2cx8e>",
        "user": "UV3746ST1",
        "ts": "1585485447.000500",
        "team": "TUU48M0T1",
        "user_team": "TUU48M0T1",
        "source_team": "TUU48M0T1",
        "user_profile": {
            "avatar_hash": "a83ec6cd1d1a",
            "image_72": "https:\/\/avatars.slack-edge.com\/2020-03-07\/987381527184_a83ec6cd1d1ab6a03a2c_72.jpg",
            "first_name": "Anibal",
            "real_name": "Anibal",
            "display_name": "Anibal",
            "team": "TUU48M0T1",
            "name": "elanibal",
            "is_restricted": false,
            "is_ultra_restricted": false
        },
        "attachments": [
            {
                "id": 1,
                "blocks": [
                    {
                        "type": "section",
                        "block_id": "edD",
                        "text": {
                            "type": "mrkdwn",
                            "text": "*<https:\/\/www.protocols.io\/view\/preparation-of-cell-free-rnapt7-reactions-kz2cx8e|Preparation of cell-free RNAPT7 reactions>*\n```This collection contains the protocols and recipes for the preparation of cell-free RNAPT7 transcription\/translation coupled reactions. The crude extracts are obtained from IPTG-treated E.coli BL21...```",
                            "verbatim": false
                        },
                        "accessory": {
                            "fallback": "152x152px image",
                            "image_url": "https:\/\/s3.amazonaws.com\/pr-journal\/keegdke.jpg",
                            "image_width": 152,
                            "image_height": 152,
                            "image_bytes": 4310,
                            "type": "image",
                            "alt_text": "Preparation of cell-free RNAPT7 reactions"
                        }
                    },
                    {
                        "type": "context",
                        "block_id": "G7va",
                        "elements": [
                            {
                                "type": "mrkdwn",
                                "text": "*Author:* <https:\/\/www.protocols.io\/researchers\/anibal-arce-medina|Anibal Arce Medina>",
                                "verbatim": false
                            }
                        ]
                    }
                ],
                "fallback": "[no preview available]",
                "bot_id": "BVBP9BP97",
                "app_unfurl_url": "https:\/\/www.protocols.io\/view\/preparation-of-cell-free-rnapt7-reactions-kz2cx8e",
                "is_app_unfurl": true
            }
        ],
        "blocks": [
            {
                "type": "rich_text",
                "block_id": "Z8Bu",
                "elements": [
                    {
                        "type": "rich_text_section",
                        "elements": [
                            {
                                "type": "link",
                                "url": "https:\/\/www.protocols.io\/view\/preparation-of-cell-free-rnapt7-reactions-kz2cx8e"
                            }
                        ]
                    }
                ]
            }
        ],
        "reactions": [
            {
                "name": "heart_eyes",
                "users": [
                    "UV3URUKK5"
                ],
                "count": 1
            }
        ]
    },
    {
        "client_msg_id": "2726e52d-e7d9-4f6d-8cbc-2df186324302",
        "type": "message",
        "text": "and our protocol for making in-house cell-free extracts",
        "user": "UV3746ST1",
        "ts": "1585485471.001100",
        "team": "TUU48M0T1",
        "user_team": "TUU48M0T1",
        "source_team": "TUU48M0T1",
        "user_profile": {
            "avatar_hash": "a83ec6cd1d1a",
            "image_72": "https:\/\/avatars.slack-edge.com\/2020-03-07\/987381527184_a83ec6cd1d1ab6a03a2c_72.jpg",
            "first_name": "Anibal",
            "real_name": "Anibal",
            "display_name": "Anibal",
            "team": "TUU48M0T1",
            "name": "elanibal",
            "is_restricted": false,
            "is_ultra_restricted": false
        },
        "blocks": [
            {
                "type": "rich_text",
                "block_id": "DO98p",
                "elements": [
                    {
                        "type": "rich_text_section",
                        "elements": [
                            {
                                "type": "text",
                                "text": "and our protocol for making in-house cell-free extracts"
                            }
                        ]
                    }
                ]
            }
        ]
    },
    {
        "client_msg_id": "ccdf7b60-00b5-4cf3-b3ba-df4c669b19d8",
        "type": "message",
        "text": "I've been working with <@UV20M5HGQ> and others trying to find the best target regions. The idea is to consider expression levels, mutations, recombination sites, and RNA structure to have a list of good candidates to tackle",
        "user": "UV3746ST1",
        "ts": "1585485599.003000",
        "team": "TUU48M0T1",
        "user_team": "TUU48M0T1",
        "source_team": "TUU48M0T1",
        "user_profile": {
            "avatar_hash": "a83ec6cd1d1a",
            "image_72": "https:\/\/avatars.slack-edge.com\/2020-03-07\/987381527184_a83ec6cd1d1ab6a03a2c_72.jpg",
            "first_name": "Anibal",
            "real_name": "Anibal",
            "display_name": "Anibal",
            "team": "TUU48M0T1",
            "name": "elanibal",
            "is_restricted": false,
            "is_ultra_restricted": false
        },
        "blocks": [
            {
                "type": "rich_text",
                "block_id": "b8GT",
                "elements": [
                    {
                        "type": "rich_text_section",
                        "elements": [
                            {
                                "type": "text",
                                "text": "I've been working with "
                            },
                            {
                                "type": "user",
                                "user_id": "UV20M5HGQ"
                            },
                            {
                                "type": "text",
                                "text": " and others trying to find the best target regions. The idea is to consider expression levels, mutations, recombination sites, and RNA structure to have a list of good candidates to tackle"
                            }
                        ]
                    }
                ]
            }
        ]
    },
    {
        "type": "message",
        "subtype": "channel_join",
        "ts": "1585502138.003500",
        "user": "U010QDQ5GR2",
        "text": "<@U010QDQ5GR2> has joined the channel"
    },
    {
        "client_msg_id": "4133e1fc-d300-4b1b-87d3-0ca20a405977",
        "type": "message",
        "text": "<https:\/\/www.biorxiv.org\/content\/10.1101\/2020.03.27.012906v1>",
        "user": "U010QDQ5GR2",
        "ts": "1585502703.003700",
        "team": "TUU48M0T1",
        "user_team": "TUU48M0T1",
        "source_team": "TUU48M0T1",
        "user_profile": {
            "avatar_hash": "ge9072055c1e",
            "image_72": "https:\/\/secure.gravatar.com\/avatar\/e9072055c1e4473558296e77a6dcdcfd.jpg?s=72&d=https%3A%2F%2Fa.slack-edge.com%2Fdf10d%2Fimg%2Favatars%2Fava_0012-72.png",
            "first_name": "",
            "real_name": "emmanouiltsampalas",
            "display_name": "emmanouiltsampalas",
            "team": "TUU48M0T1",
            "name": "manolis.tsampalas",
            "is_restricted": false,
            "is_ultra_restricted": false
        },
        "attachments": [
            {
                "service_name": "bioRxiv",
                "title": "RNA genome conservation and secondary structure in SARS-CoV-2 and SARS-related viruses",
                "title_link": "https:\/\/www.biorxiv.org\/content\/10.1101\/2020.03.27.012906v1",
                "text": "As the COVID-19 outbreak spreads, there is a growing need for a compilation of conserved RNA genome regions in the SARS-CoV-2 virus along with their structural propensities to guide development of antivirals and diagnostics. Using sequence alignments spanning a range of betacoronaviruses, we rank genomic regions by RNA sequence conservation, identifying 79 regions of length at least 15 nucleotides as exactly conserved over SARS-related complete genome sequences available near the beginning of the COVID-19 outbreak. We then confirm the conservation of the majority of these genome regions across 739 SARS-CoV-2 sequences reported to date from the current COVID-19 outbreak, and we present a curated list of 30 ′SARS-related-conserved′ regions. We find that known RNA structured elements curated as Rfam families and in prior literature are enriched in these conserved genome regions, and we predict additional conserved, stable secondary structures across the viral genome. We provide 106 ′SARS-CoV-2-conserved-structured′ regions as potential targets for antivirals that bind to structured RNA. We further provide detailed secondary structure models for the 5′ UTR, frame-shifting element, and 3′ UTR. Last, we predict regions of the SARS-CoV-2 viral genome have low propensity for RNA secondary structure and are conserved within SARS-CoV-2 strains. These 59 ′SARS-CoV-2-conserved-unstructured′ genomic regions may be most easily targeted in primer-based diagnostic and oligonucleotide-based therapeutic strategies.",
                "fallback": "bioRxiv: RNA genome conservation and secondary structure in SARS-CoV-2 and SARS-related viruses",
                "thumb_url": "https:\/\/www.biorxiv.org\/sites\/default\/files\/images\/biorxiv_logo_homepage7-5-small.png",
                "ts": 1585378800,
                "from_url": "https:\/\/www.biorxiv.org\/content\/10.1101\/2020.03.27.012906v1",
                "thumb_width": 252,
                "thumb_height": 252,
                "service_icon": "https:\/\/www.biorxiv.org\/sites\/default\/files\/images\/favicon.ico",
                "id": 1,
                "original_url": "https:\/\/www.biorxiv.org\/content\/10.1101\/2020.03.27.012906v1"
            }
        ],
        "blocks": [
            {
                "type": "rich_text",
                "block_id": "ei1wu",
                "elements": [
                    {
                        "type": "rich_text_section",
                        "elements": [
                            {
                                "type": "link",
                                "url": "https:\/\/www.biorxiv.org\/content\/10.1101\/2020.03.27.012906v1"
                            }
                        ]
                    }
                ]
            }
        ]
    },
    {
        "client_msg_id": "a85b7691-3999-49eb-a4cb-81ff61e46d4d",
        "type": "message",
        "text": "Great. amazing resource!",
        "user": "UV3746ST1",
        "ts": "1585515871.004000",
        "team": "TUU48M0T1",
        "user_team": "TUU48M0T1",
        "source_team": "TUU48M0T1",
        "user_profile": {
            "avatar_hash": "a83ec6cd1d1a",
            "image_72": "https:\/\/avatars.slack-edge.com\/2020-03-07\/987381527184_a83ec6cd1d1ab6a03a2c_72.jpg",
            "first_name": "Anibal",
            "real_name": "Anibal",
            "display_name": "Anibal",
            "team": "TUU48M0T1",
            "name": "elanibal",
            "is_restricted": false,
            "is_ultra_restricted": false
        },
        "edited": {
            "user": "UV3746ST1",
            "ts": "1585515884.000000"
        },
        "blocks": [
            {
                "type": "rich_text",
                "block_id": "aJNf",
                "elements": [
                    {
                        "type": "rich_text_section",
                        "elements": [
                            {
                                "type": "text",
                                "text": "Great. amazing resource!"
                            }
                        ]
                    }
                ]
            }
        ]
    }
]