[
    {
        "client_msg_id": "7de371c0-b775-4644-8237-7648942203fa",
        "type": "message",
        "text": "Hey <@UV78JAX0S> besically we are following the primer rules from Alex Green paper of the Zika virus. Then we match all the primers that are a distance of 100-250 nt, so the amplicons for NASBA and in those we check for single-streadness with NUPACK.",
        "user": "UV3746ST1",
        "ts": "1589218132.097300",
        "team": "TUU48M0T1",
        "user_team": "TUU48M0T1",
        "source_team": "TUU48M0T1",
        "user_profile": {
            "avatar_hash": "a83ec6cd1d1a",
            "image_72": "https:\/\/avatars.slack-edge.com\/2020-03-07\/987381527184_a83ec6cd1d1ab6a03a2c_72.jpg",
            "first_name": "Anibal",
            "real_name": "Anibal",
            "display_name": "Anibal",
            "team": "TUU48M0T1",
            "name": "elanibal",
            "is_restricted": false,
            "is_ultra_restricted": false
        },
        "blocks": [
            {
                "type": "rich_text",
                "block_id": "78h7s",
                "elements": [
                    {
                        "type": "rich_text_section",
                        "elements": [
                            {
                                "type": "text",
                                "text": "Hey "
                            },
                            {
                                "type": "user",
                                "user_id": "UV78JAX0S"
                            },
                            {
                                "type": "text",
                                "text": " besically we are following the primer rules from Alex Green paper of the Zika virus. Then we match all the primers that are a distance of 100-250 nt, so the amplicons for NASBA and in those we check for single-streadness with NUPACK."
                            }
                        ]
                    }
                ]
            }
        ],
        "thread_ts": "1588388642.090900",
        "parent_user_id": "UV3746ST1"
    },
    {
        "client_msg_id": "818b99df-de21-485d-9b33-b56c792dcef0",
        "type": "message",
        "text": "Also we check primer dimers,  and local matches with other unwanted sequences.",
        "user": "UV3746ST1",
        "ts": "1589218174.097500",
        "team": "TUU48M0T1",
        "user_team": "TUU48M0T1",
        "source_team": "TUU48M0T1",
        "user_profile": {
            "avatar_hash": "a83ec6cd1d1a",
            "image_72": "https:\/\/avatars.slack-edge.com\/2020-03-07\/987381527184_a83ec6cd1d1ab6a03a2c_72.jpg",
            "first_name": "Anibal",
            "real_name": "Anibal",
            "display_name": "Anibal",
            "team": "TUU48M0T1",
            "name": "elanibal",
            "is_restricted": false,
            "is_ultra_restricted": false
        },
        "blocks": [
            {
                "type": "rich_text",
                "block_id": "vxm",
                "elements": [
                    {
                        "type": "rich_text_section",
                        "elements": [
                            {
                                "type": "text",
                                "text": "Also we check primer dimers,  and local matches with other unwanted sequences."
                            }
                        ]
                    }
                ]
            }
        ],
        "thread_ts": "1588388642.090900",
        "parent_user_id": "UV3746ST1"
    }
]