[
    {
        "type": "message",
        "subtype": "channel_join",
        "ts": "1583741322.001700",
        "user": "UURGMNE3T",
        "text": "<@UURGMNE3T> has joined the channel"
    },
    {
        "type": "message",
        "subtype": "channel_join",
        "ts": "1583799798.001900",
        "user": "UV02WET96",
        "text": "<@UV02WET96> has joined the channel"
    },
    {
        "client_msg_id": "6e7c4943-ca18-4cbc-9177-cc8925040507",
        "type": "message",
        "text": "1. Here is a list reagents we need, <https:\/\/docs.google.com\/spreadsheets\/d\/1A-ZPp6az-vneTDWBCOb0Oe5C6gmtRKjBIEU3mC2ZOoc\/edit#gid=0> please double check to make sure, I have everything, some of them have questions about and indicated so in the doc",
        "user": "UUPFF4TC3",
        "ts": "1583818607.002800",
        "team": "TUU48M0T1",
        "user_team": "TUU48M0T1",
        "source_team": "TUU48M0T1",
        "user_profile": {
            "avatar_hash": "g563e1ed9e36",
            "image_72": "https:\/\/secure.gravatar.com\/avatar\/563e1ed9e362af0ce5867baad4d7c568.jpg?s=72&d=https%3A%2F%2Fa.slack-edge.com%2Fdf10d%2Fimg%2Favatars%2Fava_0007-72.png",
            "first_name": "Sophie",
            "real_name": "Sophie Liu",
            "display_name": "Sophie Liu",
            "team": "TUU48M0T1",
            "name": "sophie006liu",
            "is_restricted": false,
            "is_ultra_restricted": false
        },
        "blocks": [
            {
                "type": "rich_text",
                "block_id": "EX314",
                "elements": [
                    {
                        "type": "rich_text_list",
                        "elements": [
                            {
                                "type": "rich_text_section",
                                "elements": [
                                    {
                                        "type": "text",
                                        "text": "Here is a list reagents we need, "
                                    },
                                    {
                                        "type": "link",
                                        "url": "https:\/\/docs.google.com\/spreadsheets\/d\/1A-ZPp6az-vneTDWBCOb0Oe5C6gmtRKjBIEU3mC2ZOoc\/edit#gid=0"
                                    },
                                    {
                                        "type": "text",
                                        "text": " please double check to make sure, I have everything, some of them have questions about and indicated so in the doc"
                                    }
                                ]
                            }
                        ],
                        "style": "ordered",
                        "indent": 0
                    }
                ]
            }
        ],
        "thread_ts": "1583818607.002800",
        "reply_count": 1,
        "reply_users_count": 1,
        "latest_reply": "1583853164.004000",
        "reply_users": [
            "UUUEFQW8N"
        ],
        "replies": [
            {
                "user": "UUUEFQW8N",
                "ts": "1583853164.004000"
            }
        ],
        "subscribed": true,
        "last_read": "1583853164.004000",
        "reactions": [
            {
                "name": "100",
                "users": [
                    "UUUEFQW8N"
                ],
                "count": 1
            }
        ]
    },
    {
        "client_msg_id": "280a91f3-2147-4eaf-b25b-a41afe681716",
        "type": "message",
        "text": "2) Here is the protocol <https:\/\/docs.google.com\/document\/d\/1GZzvgywEsfm4rjPHtps0ARY3g_xxXy2MXZC1YEsjSzc\/edit#>",
        "user": "UUPFF4TC3",
        "ts": "1583818623.003400",
        "team": "TUU48M0T1",
        "user_team": "TUU48M0T1",
        "source_team": "TUU48M0T1",
        "user_profile": {
            "avatar_hash": "g563e1ed9e36",
            "image_72": "https:\/\/secure.gravatar.com\/avatar\/563e1ed9e362af0ce5867baad4d7c568.jpg?s=72&d=https%3A%2F%2Fa.slack-edge.com%2Fdf10d%2Fimg%2Favatars%2Fava_0007-72.png",
            "first_name": "Sophie",
            "real_name": "Sophie Liu",
            "display_name": "Sophie Liu",
            "team": "TUU48M0T1",
            "name": "sophie006liu",
            "is_restricted": false,
            "is_ultra_restricted": false
        },
        "blocks": [
            {
                "type": "rich_text",
                "block_id": "X8u",
                "elements": [
                    {
                        "type": "rich_text_section",
                        "elements": [
                            {
                                "type": "text",
                                "text": "2) Here is the protocol "
                            },
                            {
                                "type": "link",
                                "url": "https:\/\/docs.google.com\/document\/d\/1GZzvgywEsfm4rjPHtps0ARY3g_xxXy2MXZC1YEsjSzc\/edit#"
                            }
                        ]
                    }
                ]
            }
        ]
    }
]