[
    {
        "type": "message",
        "subtype": "channel_join",
        "ts": "1586178533.000200",
        "user": "U010BA2NL9E",
        "text": "<@U010BA2NL9E> has joined the channel"
    },
    {
        "type": "message",
        "subtype": "channel_purpose",
        "ts": "1586178533.000300",
        "user": "U010BA2NL9E",
        "text": "<@U010BA2NL9E> set the channel purpose: To discuss plasma blood transfusions as a treatment against COVID19",
        "purpose": "To discuss plasma blood transfusions as a treatment against COVID19"
    },
    {
        "client_msg_id": "525f8641-de98-49b7-a7d3-53f961486cdf",
        "type": "message",
        "text": "Germany:\n<https:\/\/www.zeit.de\/wissen\/gesundheit\/2020-04\/antikoerper-coronavirus-blut-plasma-therapie-medikamente-covid-19-studie|https:\/\/www.zeit.de\/wissen\/gesundheit\/2020-04\/antikoerper-coronavirus-blut-plasma-therapie-medikamente-covid-19-studie>\n\nAustria:\n<https:\/\/www.mimikama.at\/allgemein\/takeda-plasma-covid-19\/|https:\/\/www.mimikama.at\/allgemein\/takeda-plasma-covid-19\/>\n\nCanada:\n<https:\/\/panow.com\/2020\/04\/02\/covid-19-convalescent-plasma-for-patients\/|https:\/\/panow.com\/2020\/04\/02\/covid-19-convalescent-plasma-for-patients\/>\n\nChina:\n<https:\/\/www.medrxiv.org\/content\/10.1101\/2020.03.16.20036145v1|https:\/\/www.medrxiv.org\/content\/10.1101\/2020.03.16.20036145v1>\n<https:\/\/www.jwatch.org\/na51267\/2020\/04\/02\/convalescent-plasma-has-potential-utility-managing-covid|https:\/\/www.jwatch.org\/na51267\/2020\/04\/02\/convalescent-plasma-has-potential-utility-managing-covid>\n<http:\/\/www.ecns.cn\/news\/2020-02-14\/detail-ifztrmvi9816410.shtml|http:\/\/www.ecns.cn\/news\/2020-02-14\/detail-ifztrmvi9816410.shtml>\n<https:\/\/www.thelancet.com\/journals\/laninf\/article\/PIIS1473-3099(20)30141-9\/fulltext|https:\/\/www.thelancet.com\/journals\/laninf\/article\/PIIS1473-3099(20)30141-9\/fulltext>\n\nUSA:\n<https:\/\/www.fda.gov\/vaccines-blood-biologics\/investigational-new-drug-ind-or-device-exemption-ide-process-cber\/investigational-covid-19-convalescent-plasma-emergency-inds|https:\/\/www.fda.gov\/vaccines-blood-biologics\/investigational-new-drug-ind-or-device-exemption-ide-process-cber\/investigational-covid-19-convalescent-plasma-emergency-inds>\n<https:\/\/covidplasma.org\/|https:\/\/covidplasma.org\/>\n<https:\/\/www.washingtonpost.com\/health\/2020\/03\/27\/coronavirus-serum-plasma-treatment\/|https:\/\/www.washingtonpost.com\/health\/2020\/03\/27\/coronavirus-serum-plasma-treatment\/>\n<https:\/\/ccpp19.org\/key-scientific-papers\/index.html|https:\/\/ccpp19.org\/key-scientific-papers\/index.html>\n<https:\/\/www.jci.org\/articles\/view\/138003|https:\/\/www.jci.org\/articles\/view\/138003>\n<https:\/\/www.biospace.com\/article\/releases\/takeda-initiates-development-of-a-plasma-derived-therapy-for-covid-19\/|https:\/\/www.biospace.com\/article\/releases\/takeda-initiates-development-of-a-plasma-derived-therapy-for-covid-19\/>\n<https:\/\/www.wired.com\/story\/trials-of-plasma-from-recovered-covid-19-patients-have-begun\/|https:\/\/www.wired.com\/story\/trials-of-plasma-from-recovered-covid-19-patients-have-begun\/>\n<https:\/\/www.reuters.com\/article\/us-health-coronavirus-usa-plasma-explain\/why-u-s-hospitals-see-promise-in-plasma-from-new-coronavirus-patients-idUSKBN21M0E3|https:\/\/www.reuters.com\/article\/us-health-coronavirus-usa-plasma-explain\/why-u-s-hospitals-see-promise-in-plasma-from-new-coronavirus-patients-idUSKBN21M0E3>\n\nFrance:\n<http:\/\/www.rfi.fr\/en\/science-and-technology\/20200405-france-to-test-plasma-of-coronavirus-survivors-to-treat-sick|http:\/\/www.rfi.fr\/en\/science-and-technology\/20200405-france-to-test-plasma-of-coronavirus-survivors-to-treat-sick>\n\nSpain:\n<https:\/\/elpais.com\/ciencia\/2020-03-26\/los-donantes-de-sangre-que-han-superado-la-covid-19-nueva-esperanza-contra-la-enfermedad.htmle|https:\/\/elpais.com\/ciencia\/2020-03-26\/los-donantes-de-sangre-que-han-superado-la-covid-19-nueva-esperanza-contra-la-enfermedad.htmle> tu mensaje \n\nUK\n<https:\/\/academic.oup.com\/jid\/article\/211\/1\/80\/799341|https:\/\/academic.oup.com\/jid\/article\/211\/1\/80\/799341>",
        "user": "U010BA2NL9E",
        "ts": "1586178815.000400",
        "team": "TUU48M0T1",
        "user_team": "TUU48M0T1",
        "source_team": "TUU48M0T1",
        "user_profile": {
            "avatar_hash": "g3fa100f8f14",
            "image_72": "https:\/\/secure.gravatar.com\/avatar\/3fa100f8f14fc86a0f2f58648b36d29e.jpg?s=72&d=https%3A%2F%2Fa.slack-edge.com%2Fdf10d%2Fimg%2Favatars%2Fava_0008-72.png",
            "first_name": "",
            "real_name": "Eduardo Garcia",
            "display_name": "Eduardo Garcia",
            "team": "TUU48M0T1",
            "name": "eduardo.garcia",
            "is_restricted": false,
            "is_ultra_restricted": false
        },
        "blocks": [
            {
                "type": "rich_text",
                "block_id": "x9o",
                "elements": [
                    {
                        "type": "rich_text_section",
                        "elements": [
                            {
                                "type": "text",
                                "text": "Germany:\n"
                            },
                            {
                                "type": "link",
                                "url": "https:\/\/www.zeit.de\/wissen\/gesundheit\/2020-04\/antikoerper-coronavirus-blut-plasma-therapie-medikamente-covid-19-studie",
                                "text": "https:\/\/www.zeit.de\/wissen\/gesundheit\/2020-04\/antikoerper-coronavirus-blut-plasma-therapie-medikamente-covid-19-studie"
                            },
                            {
                                "type": "text",
                                "text": "\n\nAustria:\n"
                            },
                            {
                                "type": "link",
                                "url": "https:\/\/www.mimikama.at\/allgemein\/takeda-plasma-covid-19\/",
                                "text": "https:\/\/www.mimikama.at\/allgemein\/takeda-plasma-covid-19\/"
                            },
                            {
                                "type": "text",
                                "text": "\n\nCanada:\n"
                            },
                            {
                                "type": "link",
                                "url": "https:\/\/panow.com\/2020\/04\/02\/covid-19-convalescent-plasma-for-patients\/",
                                "text": "https:\/\/panow.com\/2020\/04\/02\/covid-19-convalescent-plasma-for-patients\/"
                            },
                            {
                                "type": "text",
                                "text": "\n\nChina:\n"
                            },
                            {
                                "type": "link",
                                "url": "https:\/\/www.medrxiv.org\/content\/10.1101\/2020.03.16.20036145v1",
                                "text": "https:\/\/www.medrxiv.org\/content\/10.1101\/2020.03.16.20036145v1"
                            },
                            {
                                "type": "text",
                                "text": "\n"
                            },
                            {
                                "type": "link",
                                "url": "https:\/\/www.jwatch.org\/na51267\/2020\/04\/02\/convalescent-plasma-has-potential-utility-managing-covid",
                                "text": "https:\/\/www.jwatch.org\/na51267\/2020\/04\/02\/convalescent-plasma-has-potential-utility-managing-covid"
                            },
                            {
                                "type": "text",
                                "text": "\n"
                            },
                            {
                                "type": "link",
                                "url": "http:\/\/www.ecns.cn\/news\/2020-02-14\/detail-ifztrmvi9816410.shtml",
                                "text": "http:\/\/www.ecns.cn\/news\/2020-02-14\/detail-ifztrmvi9816410.shtml"
                            },
                            {
                                "type": "text",
                                "text": "\n"
                            },
                            {
                                "type": "link",
                                "url": "https:\/\/www.thelancet.com\/journals\/laninf\/article\/PIIS1473-3099(20)30141-9\/fulltext",
                                "text": "https:\/\/www.thelancet.com\/journals\/laninf\/article\/PIIS1473-3099(20)30141-9\/fulltext"
                            },
                            {
                                "type": "text",
                                "text": "\n\nUSA:\n"
                            },
                            {
                                "type": "link",
                                "url": "https:\/\/www.fda.gov\/vaccines-blood-biologics\/investigational-new-drug-ind-or-device-exemption-ide-process-cber\/investigational-covid-19-convalescent-plasma-emergency-inds",
                                "text": "https:\/\/www.fda.gov\/vaccines-blood-biologics\/investigational-new-drug-ind-or-device-exemption-ide-process-cber\/investigational-covid-19-convalescent-plasma-emergency-inds"
                            },
                            {
                                "type": "text",
                                "text": "\n"
                            },
                            {
                                "type": "link",
                                "url": "https:\/\/covidplasma.org\/",
                                "text": "https:\/\/covidplasma.org\/"
                            },
                            {
                                "type": "text",
                                "text": "\n"
                            },
                            {
                                "type": "link",
                                "url": "https:\/\/www.washingtonpost.com\/health\/2020\/03\/27\/coronavirus-serum-plasma-treatment\/",
                                "text": "https:\/\/www.washingtonpost.com\/health\/2020\/03\/27\/coronavirus-serum-plasma-treatment\/"
                            },
                            {
                                "type": "text",
                                "text": "\n"
                            },
                            {
                                "type": "link",
                                "url": "https:\/\/ccpp19.org\/key-scientific-papers\/index.html",
                                "text": "https:\/\/ccpp19.org\/key-scientific-papers\/index.html"
                            },
                            {
                                "type": "text",
                                "text": "\n"
                            },
                            {
                                "type": "link",
                                "url": "https:\/\/www.jci.org\/articles\/view\/138003",
                                "text": "https:\/\/www.jci.org\/articles\/view\/138003"
                            },
                            {
                                "type": "text",
                                "text": "\n"
                            },
                            {
                                "type": "link",
                                "url": "https:\/\/www.biospace.com\/article\/releases\/takeda-initiates-development-of-a-plasma-derived-therapy-for-covid-19\/",
                                "text": "https:\/\/www.biospace.com\/article\/releases\/takeda-initiates-development-of-a-plasma-derived-therapy-for-covid-19\/"
                            },
                            {
                                "type": "text",
                                "text": "\n"
                            },
                            {
                                "type": "link",
                                "url": "https:\/\/www.wired.com\/story\/trials-of-plasma-from-recovered-covid-19-patients-have-begun\/",
                                "text": "https:\/\/www.wired.com\/story\/trials-of-plasma-from-recovered-covid-19-patients-have-begun\/"
                            },
                            {
                                "type": "text",
                                "text": "\n"
                            },
                            {
                                "type": "link",
                                "url": "https:\/\/www.reuters.com\/article\/us-health-coronavirus-usa-plasma-explain\/why-u-s-hospitals-see-promise-in-plasma-from-new-coronavirus-patients-idUSKBN21M0E3",
                                "text": "https:\/\/www.reuters.com\/article\/us-health-coronavirus-usa-plasma-explain\/why-u-s-hospitals-see-promise-in-plasma-from-new-coronavirus-patients-idUSKBN21M0E3"
                            },
                            {
                                "type": "text",
                                "text": "\n\nFrance:\n"
                            },
                            {
                                "type": "link",
                                "url": "http:\/\/www.rfi.fr\/en\/science-and-technology\/20200405-france-to-test-plasma-of-coronavirus-survivors-to-treat-sick",
                                "text": "http:\/\/www.rfi.fr\/en\/science-and-technology\/20200405-france-to-test-plasma-of-coronavirus-survivors-to-treat-sick"
                            },
                            {
                                "type": "text",
                                "text": "\n\nSpain:\n"
                            },
                            {
                                "type": "link",
                                "url": "https:\/\/elpais.com\/ciencia\/2020-03-26\/los-donantes-de-sangre-que-han-superado-la-covid-19-nueva-esperanza-contra-la-enfermedad.htmle",
                                "text": "https:\/\/elpais.com\/ciencia\/2020-03-26\/los-donantes-de-sangre-que-han-superado-la-covid-19-nueva-esperanza-contra-la-enfermedad.htmle"
                            },
                            {
                                "type": "text",
                                "text": " tu mensaje \n\nUK\n"
                            },
                            {
                                "type": "link",
                                "url": "https:\/\/academic.oup.com\/jid\/article\/211\/1\/80\/799341",
                                "text": "https:\/\/academic.oup.com\/jid\/article\/211\/1\/80\/799341"
                            }
                        ]
                    }
                ]
            }
        ]
    }
]