[
    {
        "client_msg_id": "9565f95c-e249-49d6-b521-ad5b323920a2",
        "type": "message",
        "text": "I can do this in consult with <@UV9V03C8Y> near the end of the week.  I’ve got my hands full with an impressively sadistic problem set at the moment.",
        "user": "U0108UAAUQM",
        "ts": "1586792156.013400",
        "team": "TUU48M0T1",
        "user_team": "TUU48M0T1",
        "source_team": "TUU48M0T1",
        "user_profile": {
            "avatar_hash": "8c169aed81a4",
            "image_72": "https:\/\/avatars.slack-edge.com\/2020-03-25\/1026926917366_8c169aed81a4dabd872c_72.jpg",
            "first_name": "Robert",
            "real_name": "Robert Ward",
            "display_name": "Robbie Ward",
            "team": "TUU48M0T1",
            "name": "rward48",
            "is_restricted": false,
            "is_ultra_restricted": false
        },
        "blocks": [
            {
                "type": "rich_text",
                "block_id": "aWd",
                "elements": [
                    {
                        "type": "rich_text_section",
                        "elements": [
                            {
                                "type": "text",
                                "text": "I can do this in consult with "
                            },
                            {
                                "type": "user",
                                "user_id": "UV9V03C8Y"
                            },
                            {
                                "type": "text",
                                "text": " near the end of the week.  I’ve got my hands full with an impressively sadistic problem set at the moment."
                            }
                        ]
                    }
                ]
            }
        ],
        "thread_ts": "1586596788.013200",
        "parent_user_id": "UV85V64SD"
    }
]