[
    {
        "client_msg_id": "3a357ddc-de3f-4180-958f-4d4ff5b3871c",
        "type": "message",
        "text": "<https:\/\/www.infowars.com\/bombshell-plea-from-nyc-icu-doctor-covid-19-a-condition-of-oxygen-deprivation-not-pneumonia\/>",
        "user": "U010FUU89B9",
        "ts": "1586157725.021700",
        "team": "TUU48M0T1",
        "user_team": "TUU48M0T1",
        "source_team": "TUU48M0T1",
        "user_profile": {
            "avatar_hash": "g8013a6b45b4",
            "image_72": "https:\/\/secure.gravatar.com\/avatar\/8013a6b45b4ae359e124abba6495cd14.jpg?s=72&d=https%3A%2F%2Fa.slack-edge.com%2Fdf10d%2Fimg%2Favatars%2Fava_0016-72.png",
            "first_name": "Bartłomiej",
            "real_name": "Bartłomiej Żogała",
            "display_name": "nusch",
            "team": "TUU48M0T1",
            "name": "slack1370",
            "is_restricted": false,
            "is_ultra_restricted": false
        },
        "attachments": [
            {
                "title": "Bombshell Plea From NYC ICU Doctor: COVID-19 A Condition of Oxygen Deprivation, Not Pneumonia",
                "title_link": "https:\/\/www.infowars.com\/bombshell-plea-from-nyc-icu-doctor-covid-19-a-condition-of-oxygen-deprivation-not-pneumonia\/",
                "text": "VENTILATORS may be causing the lung damage, not the virus",
                "fallback": "Bombshell Plea From NYC ICU Doctor: COVID-19 A Condition of Oxygen Deprivation, Not Pneumonia",
                "image_url": "https:\/\/assets.infowars.com\/2020\/04\/doctorsidell234986.jpg",
                "ts": 1586112300,
                "from_url": "https:\/\/www.infowars.com\/bombshell-plea-from-nyc-icu-doctor-covid-19-a-condition-of-oxygen-deprivation-not-pneumonia\/",
                "image_width": 476,
                "image_height": 250,
                "image_bytes": 39416,
                "service_icon": "https:\/\/www.infowars.com\/favicon.ico",
                "service_name": "infowars.com",
                "id": 1,
                "original_url": "https:\/\/www.infowars.com\/bombshell-plea-from-nyc-icu-doctor-covid-19-a-condition-of-oxygen-deprivation-not-pneumonia\/"
            }
        ],
        "blocks": [
            {
                "type": "rich_text",
                "block_id": "Svz",
                "elements": [
                    {
                        "type": "rich_text_section",
                        "elements": [
                            {
                                "type": "link",
                                "url": "https:\/\/www.infowars.com\/bombshell-plea-from-nyc-icu-doctor-covid-19-a-condition-of-oxygen-deprivation-not-pneumonia\/"
                            }
                        ]
                    }
                ]
            }
        ],
        "thread_ts": "1586157725.021700",
        "reply_count": 6,
        "reply_users_count": 1,
        "latest_reply": "1586950961.033800",
        "reply_users": [
            "U010BA2NL9E"
        ],
        "replies": [
            {
                "user": "U010BA2NL9E",
                "ts": "1586161141.024500"
            },
            {
                "user": "U010BA2NL9E",
                "ts": "1586161233.024900"
            },
            {
                "user": "U010BA2NL9E",
                "ts": "1586162391.025200"
            },
            {
                "user": "U010BA2NL9E",
                "ts": "1586163733.025500"
            },
            {
                "user": "U010BA2NL9E",
                "ts": "1586188673.025800"
            },
            {
                "user": "U010BA2NL9E",
                "ts": "1586950961.033800"
            }
        ],
        "subscribed": false
    },
    {
        "client_msg_id": "91286eed-0930-4f7b-a2eb-4ff750fa497d",
        "type": "message",
        "text": "Covid-19 does not lead to a “typical” Acute Respiratory Distress \nSyndrome\n\nD. Chiumello, M. Cressoni, L. Gattinoni\n\n<https:\/\/www.atsjournals.org\/doi\/abs\/10.1164\/rccm.202003-0817LE|https:\/\/www.atsjournals.org\/doi\/abs\/10.1164\/rccm.202003-0817LE>",
        "user": "U010BA2NL9E",
        "ts": "1586160022.022000",
        "team": "TUU48M0T1",
        "user_team": "TUU48M0T1",
        "source_team": "TUU48M0T1",
        "user_profile": {
            "avatar_hash": "g3fa100f8f14",
            "image_72": "https:\/\/secure.gravatar.com\/avatar\/3fa100f8f14fc86a0f2f58648b36d29e.jpg?s=72&d=https%3A%2F%2Fa.slack-edge.com%2Fdf10d%2Fimg%2Favatars%2Fava_0008-72.png",
            "first_name": "",
            "real_name": "Eduardo Garcia",
            "display_name": "Eduardo Garcia",
            "team": "TUU48M0T1",
            "name": "eduardo.garcia",
            "is_restricted": false,
            "is_ultra_restricted": false
        },
        "edited": {
            "user": "U010BA2NL9E",
            "ts": "1586188792.000000"
        },
        "blocks": [
            {
                "type": "rich_text",
                "block_id": "8KtK",
                "elements": [
                    {
                        "type": "rich_text_section",
                        "elements": [
                            {
                                "type": "text",
                                "text": "Covid-19 does not lead to a “typical” Acute Respiratory Distress \r\nSyndrome\n\nD. Chiumello, M. Cressoni, L. Gattinoni\n\n"
                            },
                            {
                                "type": "link",
                                "url": "https:\/\/www.atsjournals.org\/doi\/abs\/10.1164\/rccm.202003-0817LE",
                                "text": "https:\/\/www.atsjournals.org\/doi\/abs\/10.1164\/rccm.202003-0817LE"
                            }
                        ]
                    }
                ]
            }
        ]
    },
    {
        "type": "message",
        "text": "",
        "files": [
            {
                "id": "F0116QX7DFV",
                "created": 1586160067,
                "timestamp": 1586160067,
                "name": "4_5789669142537701197.pdf",
                "title": "File from Android",
                "mimetype": "application\/pdf",
                "filetype": "pdf",
                "pretty_type": "PDF",
                "user": "U010BA2NL9E",
                "editable": false,
                "size": 200655,
                "mode": "hosted",
                "is_external": false,
                "external_type": "",
                "is_public": true,
                "public_url_shared": false,
                "display_as_bot": false,
                "username": "",
                "url_private": "https:\/\/files.slack.com\/files-pri\/TUU48M0T1-F0116QX7DFV\/4_5789669142537701197.pdf?t=xoxe-980144714919-1133254701825-1120841107731-daf595b5a7d6c9028b0b02a925032e36",
                "url_private_download": "https:\/\/files.slack.com\/files-pri\/TUU48M0T1-F0116QX7DFV\/download\/4_5789669142537701197.pdf?t=xoxe-980144714919-1133254701825-1120841107731-daf595b5a7d6c9028b0b02a925032e36",
                "thumb_pdf": "https:\/\/files.slack.com\/files-tmb\/TUU48M0T1-F0116QX7DFV-6b5b9fe098\/4_5789669142537701197_thumb_pdf.png?t=xoxe-980144714919-1133254701825-1120841107731-daf595b5a7d6c9028b0b02a925032e36",
                "thumb_pdf_w": 909,
                "thumb_pdf_h": 1286,
                "permalink": "https:\/\/open-covid19.slack.com\/files\/U010BA2NL9E\/F0116QX7DFV\/4_5789669142537701197.pdf",
                "permalink_public": "https:\/\/slack-files.com\/TUU48M0T1-F0116QX7DFV-ce22db1f8f",
                "is_starred": false,
                "has_rich_preview": false
            }
        ],
        "upload": true,
        "user": "U010BA2NL9E",
        "display_as_bot": false,
        "ts": "1586160069.022100",
        "client_msg_id": "a9a15073-65bf-4e24-af77-b85e78df1697"
    },
    {
        "client_msg_id": "538a680c-044b-46a1-ab6c-433d3f7dc78a",
        "type": "message",
        "text": "<https:\/\/medium.com\/@charli.carpenter\/covid19-may-be-altitude-sickness-not-pneumonia-may-be-54fbf159b12a|https:\/\/medium.com\/@charli.carpenter\/covid19-may-be-altitude-sickness-not-pneumonia-may-be-54fbf159b12a>",
        "user": "U010BA2NL9E",
        "ts": "1586161141.024500",
        "team": "TUU48M0T1",
        "user_team": "TUU48M0T1",
        "source_team": "TUU48M0T1",
        "user_profile": {
            "avatar_hash": "g3fa100f8f14",
            "image_72": "https:\/\/secure.gravatar.com\/avatar\/3fa100f8f14fc86a0f2f58648b36d29e.jpg?s=72&d=https%3A%2F%2Fa.slack-edge.com%2Fdf10d%2Fimg%2Favatars%2Fava_0008-72.png",
            "first_name": "",
            "real_name": "Eduardo Garcia",
            "display_name": "Eduardo Garcia",
            "team": "TUU48M0T1",
            "name": "eduardo.garcia",
            "is_restricted": false,
            "is_ultra_restricted": false
        },
        "attachments": [
            {
                "service_name": "Medium",
                "title": "Covid19 May Be Altitude Sickness, Not Pneumonia. MAY BE.",
                "title_link": "https:\/\/medium.com\/@charli.carpenter\/covid19-may-be-altitude-sickness-not-pneumonia-may-be-54fbf159b12a",
                "text": "Emergency doctors on Twitter have crowd-sourced and are now testing a new hypothesis. Can they keep conspiracy theorists from giving it a…",
                "fallback": "Medium: Covid19 May Be Altitude Sickness, Not Pneumonia. MAY BE.",
                "image_url": "https:\/\/miro.medium.com\/max\/1200\/1*pzQfKLtp_cWKSrwVGp7NyQ.jpeg",
                "fields": [
                    {
                        "title": "Reading time",
                        "value": "9 min read",
                        "short": true
                    }
                ],
                "ts": 1586117575,
                "from_url": "https:\/\/medium.com\/@charli.carpenter\/covid19-may-be-altitude-sickness-not-pneumonia-may-be-54fbf159b12a",
                "image_width": 444,
                "image_height": 250,
                "image_bytes": 133745,
                "service_icon": "https:\/\/cdn-images-1.medium.com\/fit\/c\/152\/152\/1*8I-HPL0bfoIzGied-dzOvA.png",
                "id": 1,
                "original_url": "https:\/\/medium.com\/@charli.carpenter\/covid19-may-be-altitude-sickness-not-pneumonia-may-be-54fbf159b12a"
            }
        ],
        "blocks": [
            {
                "type": "rich_text",
                "block_id": "4t7",
                "elements": [
                    {
                        "type": "rich_text_section",
                        "elements": [
                            {
                                "type": "link",
                                "url": "https:\/\/medium.com\/@charli.carpenter\/covid19-may-be-altitude-sickness-not-pneumonia-may-be-54fbf159b12a",
                                "text": "https:\/\/medium.com\/@charli.carpenter\/covid19-may-be-altitude-sickness-not-pneumonia-may-be-54fbf159b12a"
                            }
                        ]
                    }
                ]
            }
        ],
        "thread_ts": "1586157725.021700",
        "parent_user_id": "U010FUU89B9"
    },
    {
        "client_msg_id": "707c1fc4-863c-4d96-a474-4b1f0a9bc353",
        "type": "message",
        "text": "<https:\/\/rebelem.com\/rebel-cast-ep79-covid-19-trying-not-to-intubate-early-why-ardsnet-may-be-the-wrong-ventilator-paradigm\/|https:\/\/rebelem.com\/rebel-cast-ep79-covid-19-trying-not-to-intubate-early-why-ardsnet-may-be-the-wrong-ventilator-paradigm\/>",
        "user": "U010BA2NL9E",
        "ts": "1586161233.024900",
        "team": "TUU48M0T1",
        "user_team": "TUU48M0T1",
        "source_team": "TUU48M0T1",
        "user_profile": {
            "avatar_hash": "g3fa100f8f14",
            "image_72": "https:\/\/secure.gravatar.com\/avatar\/3fa100f8f14fc86a0f2f58648b36d29e.jpg?s=72&d=https%3A%2F%2Fa.slack-edge.com%2Fdf10d%2Fimg%2Favatars%2Fava_0008-72.png",
            "first_name": "",
            "real_name": "Eduardo Garcia",
            "display_name": "Eduardo Garcia",
            "team": "TUU48M0T1",
            "name": "eduardo.garcia",
            "is_restricted": false,
            "is_ultra_restricted": false
        },
        "attachments": [
            {
                "service_name": "REBEL EM - Emergency Medicine Blog",
                "title": "REBEL Cast Ep79: COVID-19 - Trying Not to Intubate Early &amp; Why ARDSnet may be the Wrong Ventilator Paradigm - REBEL EM - Emergency Medicine Blog",
                "title_link": "https:\/\/rebelem.com\/rebel-cast-ep79-covid-19-trying-not-to-intubate-early-why-ardsnet-may-be-the-wrong-ventilator-paradigm\/",
                "text": "Hey there REBEL Cast listeners, Salim Rezaie here.  For me and I am sure many COVID-19 has been quite the whirlwind.  So much information, so...",
                "fallback": "REBEL EM - Emergency Medicine Blog: REBEL Cast Ep79: COVID-19 - Trying Not to Intubate Early &amp; Why ARDSnet may be the Wrong Ventilator Paradigm - REBEL EM - Emergency Medicine Blog",
                "thumb_url": "https:\/\/rebelem.com\/wp-content\/uploads\/2020\/04\/REBEL-Cast-Ep79-COVID-19-Trying-Not-to-Intubate-Early-Why-ARDSnet-May-be-the-Wrong-Ventilator-Paradigm-1024x575.png",
                "ts": 1586088021,
                "from_url": "https:\/\/rebelem.com\/rebel-cast-ep79-covid-19-trying-not-to-intubate-early-why-ardsnet-may-be-the-wrong-ventilator-paradigm\/",
                "thumb_width": 1024,
                "thumb_height": 575,
                "id": 1,
                "original_url": "https:\/\/rebelem.com\/rebel-cast-ep79-covid-19-trying-not-to-intubate-early-why-ardsnet-may-be-the-wrong-ventilator-paradigm\/"
            }
        ],
        "blocks": [
            {
                "type": "rich_text",
                "block_id": "sjfot",
                "elements": [
                    {
                        "type": "rich_text_section",
                        "elements": [
                            {
                                "type": "link",
                                "url": "https:\/\/rebelem.com\/rebel-cast-ep79-covid-19-trying-not-to-intubate-early-why-ardsnet-may-be-the-wrong-ventilator-paradigm\/",
                                "text": "https:\/\/rebelem.com\/rebel-cast-ep79-covid-19-trying-not-to-intubate-early-why-ardsnet-may-be-the-wrong-ventilator-paradigm\/"
                            }
                        ]
                    }
                ]
            }
        ],
        "thread_ts": "1586157725.021700",
        "parent_user_id": "U010FUU89B9"
    },
    {
        "client_msg_id": "8c3e5874-b0fb-41fd-af99-d45d18cd12a8",
        "type": "message",
        "text": "<https:\/\/youtu.be\/2OXP7_aawUs|https:\/\/youtu.be\/2OXP7_aawUs>",
        "user": "U010BA2NL9E",
        "ts": "1586162391.025200",
        "team": "TUU48M0T1",
        "user_team": "TUU48M0T1",
        "source_team": "TUU48M0T1",
        "user_profile": {
            "avatar_hash": "g3fa100f8f14",
            "image_72": "https:\/\/secure.gravatar.com\/avatar\/3fa100f8f14fc86a0f2f58648b36d29e.jpg?s=72&d=https%3A%2F%2Fa.slack-edge.com%2Fdf10d%2Fimg%2Favatars%2Fava_0008-72.png",
            "first_name": "",
            "real_name": "Eduardo Garcia",
            "display_name": "Eduardo Garcia",
            "team": "TUU48M0T1",
            "name": "eduardo.garcia",
            "is_restricted": false,
            "is_ultra_restricted": false
        },
        "attachments": [
            {
                "service_name": "YouTube",
                "service_url": "https:\/\/www.youtube.com\/",
                "title": "Exclusive interview with forensic expert: First COVID-19 autopsy provides critical insight",
                "title_link": "https:\/\/youtu.be\/2OXP7_aawUs",
                "author_name": "CGTN",
                "author_link": "https:\/\/www.youtube.com\/user\/CCTVNEWSbeijing",
                "thumb_url": "https:\/\/i.ytimg.com\/vi\/2OXP7_aawUs\/hqdefault.jpg",
                "thumb_width": 480,
                "thumb_height": 360,
                "fallback": "YouTube Video: Exclusive interview with forensic expert: First COVID-19 autopsy provides critical insight",
                "video_html": "<iframe width=\"400\" height=\"225\" src=\"https:\/\/www.youtube.com\/embed\/2OXP7_aawUs?feature=oembed&autoplay=1&iv_load_policy=3\" frameborder=\"0\" allow=\"accelerometer; autoplay; encrypted-media; gyroscope; picture-in-picture\" allowfullscreen><\/iframe>",
                "video_html_width": 400,
                "video_html_height": 225,
                "from_url": "https:\/\/youtu.be\/2OXP7_aawUs",
                "service_icon": "https:\/\/a.slack-edge.com\/80588\/img\/unfurl_icons\/youtube.png",
                "id": 1,
                "original_url": "https:\/\/youtu.be\/2OXP7_aawUs"
            }
        ],
        "blocks": [
            {
                "type": "rich_text",
                "block_id": "nRF",
                "elements": [
                    {
                        "type": "rich_text_section",
                        "elements": [
                            {
                                "type": "link",
                                "url": "https:\/\/youtu.be\/2OXP7_aawUs",
                                "text": "https:\/\/youtu.be\/2OXP7_aawUs"
                            }
                        ]
                    }
                ]
            }
        ],
        "thread_ts": "1586157725.021700",
        "parent_user_id": "U010FUU89B9"
    },
    {
        "client_msg_id": "e83c30c6-e2fc-4a9e-9d25-99a301a5e734",
        "type": "message",
        "text": "<https:\/\/youtu.be\/dzGn6bm8y3s|https:\/\/youtu.be\/dzGn6bm8y3s>",
        "user": "U010BA2NL9E",
        "ts": "1586163733.025500",
        "team": "TUU48M0T1",
        "user_team": "TUU48M0T1",
        "source_team": "TUU48M0T1",
        "user_profile": {
            "avatar_hash": "g3fa100f8f14",
            "image_72": "https:\/\/secure.gravatar.com\/avatar\/3fa100f8f14fc86a0f2f58648b36d29e.jpg?s=72&d=https%3A%2F%2Fa.slack-edge.com%2Fdf10d%2Fimg%2Favatars%2Fava_0008-72.png",
            "first_name": "",
            "real_name": "Eduardo Garcia",
            "display_name": "Eduardo Garcia",
            "team": "TUU48M0T1",
            "name": "eduardo.garcia",
            "is_restricted": false,
            "is_ultra_restricted": false
        },
        "attachments": [
            {
                "service_name": "YouTube",
                "service_url": "https:\/\/www.youtube.com\/",
                "title": "Medical Expert on Autopsy Findings of COVID-19",
                "title_link": "https:\/\/youtu.be\/dzGn6bm8y3s",
                "author_name": "CCTV Video News Agency",
                "author_link": "https:\/\/www.youtube.com\/channel\/UCmv5DbNpxH8X2eQxJBqEjKQ",
                "thumb_url": "https:\/\/i.ytimg.com\/vi\/dzGn6bm8y3s\/hqdefault.jpg",
                "thumb_width": 480,
                "thumb_height": 360,
                "fallback": "YouTube Video: Medical Expert on Autopsy Findings of COVID-19",
                "video_html": "<iframe width=\"400\" height=\"225\" src=\"https:\/\/www.youtube.com\/embed\/dzGn6bm8y3s?feature=oembed&autoplay=1&iv_load_policy=3\" frameborder=\"0\" allow=\"accelerometer; autoplay; encrypted-media; gyroscope; picture-in-picture\" allowfullscreen><\/iframe>",
                "video_html_width": 400,
                "video_html_height": 225,
                "from_url": "https:\/\/youtu.be\/dzGn6bm8y3s",
                "service_icon": "https:\/\/a.slack-edge.com\/80588\/img\/unfurl_icons\/youtube.png",
                "id": 1,
                "original_url": "https:\/\/youtu.be\/dzGn6bm8y3s"
            }
        ],
        "blocks": [
            {
                "type": "rich_text",
                "block_id": "8y9",
                "elements": [
                    {
                        "type": "rich_text_section",
                        "elements": [
                            {
                                "type": "link",
                                "url": "https:\/\/youtu.be\/dzGn6bm8y3s",
                                "text": "https:\/\/youtu.be\/dzGn6bm8y3s"
                            }
                        ]
                    }
                ]
            }
        ],
        "thread_ts": "1586157725.021700",
        "parent_user_id": "U010FUU89B9"
    },
    {
        "client_msg_id": "15209500-9cf7-4a2c-a905-1b118cd9721f",
        "type": "message",
        "text": "<https:\/\/en.m.wikipedia.org\/wiki\/InfoWars|https:\/\/en.m.wikipedia.org\/wiki\/InfoWars>",
        "user": "U010BA2NL9E",
        "ts": "1586188673.025800",
        "team": "TUU48M0T1",
        "user_team": "TUU48M0T1",
        "source_team": "TUU48M0T1",
        "user_profile": {
            "avatar_hash": "g3fa100f8f14",
            "image_72": "https:\/\/secure.gravatar.com\/avatar\/3fa100f8f14fc86a0f2f58648b36d29e.jpg?s=72&d=https%3A%2F%2Fa.slack-edge.com%2Fdf10d%2Fimg%2Favatars%2Fava_0008-72.png",
            "first_name": "",
            "real_name": "Eduardo Garcia",
            "display_name": "Eduardo Garcia",
            "team": "TUU48M0T1",
            "name": "eduardo.garcia",
            "is_restricted": false,
            "is_ultra_restricted": false
        },
        "attachments": [
            {
                "image_url": "https:\/\/upload.wikimedia.org\/wikipedia\/en\/5\/5c\/InfoWars.com_homepage.png",
                "image_width": 459,
                "image_height": 217,
                "image_bytes": 104530,
                "title": "InfoWars",
                "title_link": "https:\/\/en.m.wikipedia.org\/wiki\/InfoWars",
                "from_url": "https:\/\/en.m.wikipedia.org\/wiki\/InfoWars",
                "author_name": "Wikipedia",
                "author_link": "https:\/\/en.wikipedia.org\/",
                "text": "InfoWars is a far-right American conspiracy theory and fake news website owned by Alex Jones. It was founded in 1999, and operates under Free Speech Systems LLC.Talk shows and other content for the site are created primarily in studios at an undisclosed location in an industrial area in the outskirts of Austin, Texas. The InfoWars website receives approximately 10 million monthly visits, making its reach greater than some mainstream news websites such as The Economist and Newsweek.The site has regularly published fake stories which have been linked to harassment of victims. In February 2018, Jones, the publisher, director and owner of InfoWars, was accused of discrimination and sexually harassing employees. InfoWars, and in particular Jones, advocate numerous conspiracy theories particularly around purported domestic false flag operations by the U.S. Government (which they allege include the 9\/11 attacks and Sandy Hook shootings). InfoWars has issued retractions various times as a result of legal challenges. Jones has had contentious material removed, and has also been suspended and banned from many platforms, including Facebook, Twitter, YouTube, iTunes, and Roku.InfoWars earns revenue from the sale of products pitched by Jones during the show. It has been called as much \"an online store that uses Mr. Jones's commentary to move merchandise\", as a media outlet.",
                "fallback": "wikipedia: InfoWars",
                "service_icon": "https:\/\/a.slack-edge.com\/80588\/img\/unfurl_icons\/wikipedia.png",
                "id": 1,
                "original_url": "https:\/\/en.m.wikipedia.org\/wiki\/InfoWars"
            }
        ],
        "blocks": [
            {
                "type": "rich_text",
                "block_id": "yDsp8",
                "elements": [
                    {
                        "type": "rich_text_section",
                        "elements": [
                            {
                                "type": "link",
                                "url": "https:\/\/en.m.wikipedia.org\/wiki\/InfoWars",
                                "text": "https:\/\/en.m.wikipedia.org\/wiki\/InfoWars"
                            }
                        ]
                    }
                ]
            }
        ],
        "thread_ts": "1586157725.021700",
        "parent_user_id": "U010FUU89B9"
    },
    {
        "client_msg_id": "7c323373-fab1-4462-9e3b-77cee976cf5a",
        "type": "message",
        "text": "The Army has launched a prize competition on emergency ventilator designs.  \n\n$5K for a quad chart accepted and $100K for pitches accepted to meet these requirements.  \n\nDETAILS:  The Army's xTech COVID-19 Ventilator Challenge seeks a low-cost, readily manufacturable emergency ventilator to quickly augment ventilator capacity during the COVID-19 pandemic.  The technology solution must provide a rapid response breathing apparatus capable of short-term, rugged field operation.  Virtual pitches for selected companies will begin April 13th.  Apply now:\n<https:\/\/www.xTechSearch.army.mil\/|https:\/\/www.xTechSearch.army.mil\/>",
        "user": "U010BA2NL9E",
        "ts": "1586191490.026500",
        "team": "TUU48M0T1",
        "user_team": "TUU48M0T1",
        "source_team": "TUU48M0T1",
        "user_profile": {
            "avatar_hash": "g3fa100f8f14",
            "image_72": "https:\/\/secure.gravatar.com\/avatar\/3fa100f8f14fc86a0f2f58648b36d29e.jpg?s=72&d=https%3A%2F%2Fa.slack-edge.com%2Fdf10d%2Fimg%2Favatars%2Fava_0008-72.png",
            "first_name": "",
            "real_name": "Eduardo Garcia",
            "display_name": "Eduardo Garcia",
            "team": "TUU48M0T1",
            "name": "eduardo.garcia",
            "is_restricted": false,
            "is_ultra_restricted": false
        },
        "blocks": [
            {
                "type": "rich_text",
                "block_id": "KOhKX",
                "elements": [
                    {
                        "type": "rich_text_section",
                        "elements": [
                            {
                                "type": "text",
                                "text": "The Army has launched a prize competition on emergency ventilator designs.  \n\n$5K for a quad chart accepted and $100K for pitches accepted to meet these requirements.  \n\nDETAILS:  The Army's xTech COVID-19 Ventilator Challenge seeks a low-cost, readily manufacturable emergency ventilator to quickly augment ventilator capacity during the COVID-19 pandemic.  The technology solution must provide a rapid response breathing apparatus capable of short-term, rugged field operation.  Virtual pitches for selected companies will begin April 13th.  Apply now:\n"
                            },
                            {
                                "type": "link",
                                "url": "https:\/\/www.xTechSearch.army.mil\/",
                                "text": "https:\/\/www.xTechSearch.army.mil\/"
                            }
                        ]
                    }
                ]
            }
        ]
    },
    {
        "client_msg_id": "e4f9bd22-c867-4a51-bd76-cc47c1d2ab68",
        "type": "message",
        "text": "<https:\/\/breath4life.odoo.com\/> seems to be a very advanced open source ventilator project.\nThey seem very thorough and actually are working in collaboration on a <#C011AQ00L5V|proj-syringepump>\n<@UV02WET96>",
        "user": "U0119D7U2SX",
        "ts": "1586219031.029600",
        "team": "TUU48M0T1",
        "user_team": "TUU48M0T1",
        "source_team": "TUU48M0T1",
        "user_profile": {
            "avatar_hash": "gd7193af2f46",
            "image_72": "https:\/\/secure.gravatar.com\/avatar\/d7193af2f46da98fcd4d6dfbc927088f.jpg?s=72&d=https%3A%2F%2Fa.slack-edge.com%2Fdf10d%2Fimg%2Favatars%2Fava_0006-72.png",
            "first_name": "",
            "real_name": "Antony",
            "display_name": "Antony",
            "team": "TUU48M0T1",
            "name": "arouhban",
            "is_restricted": false,
            "is_ultra_restricted": false
        },
        "attachments": [
            {
                "service_name": "Breath4Life",
                "title": "Home | Breath4Life",
                "title_link": "https:\/\/breath4life.odoo.com\/",
                "fallback": "Breath4Life: Home | Breath4Life",
                "image_url": "https:\/\/breath4life.odoo.com\/web\/image\/website\/1\/logo",
                "from_url": "https:\/\/breath4life.odoo.com\/",
                "image_width": 250,
                "image_height": 33,
                "image_bytes": 7914,
                "service_icon": "https:\/\/breath4life.odoo.com\/web\/image\/website\/1\/favicon?unique=301907f",
                "id": 1,
                "original_url": "https:\/\/breath4life.odoo.com\/"
            }
        ],
        "blocks": [
            {
                "type": "rich_text",
                "block_id": "KrmZ",
                "elements": [
                    {
                        "type": "rich_text_section",
                        "elements": [
                            {
                                "type": "link",
                                "url": "https:\/\/breath4life.odoo.com\/"
                            },
                            {
                                "type": "text",
                                "text": " seems to be a very advanced open source ventilator project.\nThey seem very thorough and actually are working in collaboration on a "
                            },
                            {
                                "type": "channel",
                                "channel_id": "C011AQ00L5V"
                            },
                            {
                                "type": "text",
                                "text": "\n"
                            },
                            {
                                "type": "user",
                                "user_id": "UV02WET96"
                            }
                        ]
                    }
                ]
            }
        ],
        "reactions": [
            {
                "name": "+1",
                "users": [
                    "U011HNEMU9J"
                ],
                "count": 1
            }
        ]
    }
]