[
    {
        "client_msg_id": "6ac425bd-6300-4304-9f39-4deca7542b5d",
        "type": "message",
        "text": "<https:\/\/www.linkedin.com\/posts\/tom-dijkhuis-4728b814b_masterstudenten-tu-delft-starten-initiatief-activity-6646728573564526592-mfuC|https:\/\/www.linkedin.com\/posts\/tom-dijkhuis-4728b814b_masterstudenten-tu-delft-starten-initiatief-activity-6646728573564526592-mfuC>",
        "user": "U01081Y0TBP",
        "ts": "1584947724.115000",
        "team": "TUU48M0T1",
        "user_team": "TUU48M0T1",
        "source_team": "TUU48M0T1",
        "user_profile": {
            "avatar_hash": "60ec5b47107a",
            "image_72": "https:\/\/avatars.slack-edge.com\/2020-03-18\/995274181218_60ec5b47107a3bd2ca7d_72.jpg",
            "first_name": "Peter",
            "real_name": "Peter Kooren",
            "display_name": "Peter Kooren",
            "team": "TUU48M0T1",
            "name": "peterkooren",
            "is_restricted": false,
            "is_ultra_restricted": false
        },
        "attachments": [
            {
                "title": "Tom Dijkhuis posted on LinkedIn",
                "title_link": "https:\/\/www.linkedin.com\/posts\/tom-dijkhuis-4728b814b_masterstudenten-tu-delft-starten-initiatief-activity-6646728573564526592-mfuC",
                "text": "Masterstudenten Technical Medicine TU Delft starten initiatief om beademingsapparatuur te ontwikkelen. Onder leiding van Jaap Harlaar , opleidingsdirecteur...",
                "fallback": "Tom Dijkhuis posted on LinkedIn",
                "thumb_url": "https:\/\/d1rkab7tlqy5f1.cloudfront.net\/News\/2020\/03_March\/TU%20Delft\/IMG_0700-2_klein.jpg",
                "from_url": "https:\/\/www.linkedin.com\/posts\/tom-dijkhuis-4728b814b_masterstudenten-tu-delft-starten-initiatief-activity-6646728573564526592-mfuC",
                "thumb_width": 640,
                "thumb_height": 427,
                "service_icon": "https:\/\/static-exp1.licdn.com\/scds\/common\/u\/images\/logos\/favicons\/v1\/favicon.ico",
                "service_name": "linkedin.com",
                "id": 1,
                "original_url": "https:\/\/www.linkedin.com\/posts\/tom-dijkhuis-4728b814b_masterstudenten-tu-delft-starten-initiatief-activity-6646728573564526592-mfuC"
            }
        ],
        "blocks": [
            {
                "type": "rich_text",
                "block_id": "dUq3Q",
                "elements": [
                    {
                        "type": "rich_text_section",
                        "elements": [
                            {
                                "type": "link",
                                "url": "https:\/\/www.linkedin.com\/posts\/tom-dijkhuis-4728b814b_masterstudenten-tu-delft-starten-initiatief-activity-6646728573564526592-mfuC",
                                "text": "https:\/\/www.linkedin.com\/posts\/tom-dijkhuis-4728b814b_masterstudenten-tu-delft-starten-initiatief-activity-6646728573564526592-mfuC"
                            }
                        ]
                    }
                ]
            }
        ]
    },
    {
        "client_msg_id": "5a218e23-1f5f-4d3d-b175-4a994019c7d2",
        "type": "message",
        "text": "<https:\/\/www.festo.com\/cms\/en-jo_jo\/18481_54238.htm>",
        "user": "U0108DWH5NH",
        "ts": "1584950831.115300",
        "team": "TUU48M0T1",
        "user_team": "TUU48M0T1",
        "source_team": "TUU48M0T1",
        "user_profile": {
            "avatar_hash": "gd582b07cb4c",
            "image_72": "https:\/\/secure.gravatar.com\/avatar\/d582b07cb4cff8ecfdf7095f4f4eefc5.jpg?s=72&d=https%3A%2F%2Fa.slack-edge.com%2Fdf10d%2Fimg%2Favatars%2Fava_0025-72.png",
            "first_name": "",
            "real_name": "Juraj Marak",
            "display_name": "Juraj Marak",
            "team": "TUU48M0T1",
            "name": "kukulo2011",
            "is_restricted": false,
            "is_ultra_restricted": false
        },
        "attachments": [
            {
                "title": "Medical technology | Festo MENA",
                "title_link": "https:\/\/www.festo.com\/cms\/en-jo_jo\/18481_54238.htm",
                "text": "Products and solutions for medical technology",
                "fallback": "Medical technology | Festo MENA",
                "from_url": "https:\/\/www.festo.com\/cms\/en-jo_jo\/18481_54238.htm",
                "service_icon": "https:\/\/www.festo.com\/rep\/en-jo_jo\/fw\/css\/import\/img\/favicon.ico",
                "service_name": "festo.com",
                "id": 1,
                "original_url": "https:\/\/www.festo.com\/cms\/en-jo_jo\/18481_54238.htm"
            }
        ],
        "blocks": [
            {
                "type": "rich_text",
                "block_id": "fZek",
                "elements": [
                    {
                        "type": "rich_text_section",
                        "elements": [
                            {
                                "type": "link",
                                "url": "https:\/\/www.festo.com\/cms\/en-jo_jo\/18481_54238.htm"
                            }
                        ]
                    }
                ]
            }
        ]
    },
    {
        "type": "message",
        "text": "Saw this design on the Open Source Covid 19 Medical Supplies Group",
        "files": [
            {
                "id": "F0108ECGA73",
                "created": 1584953351,
                "timestamp": 1584953351,
                "name": "89826926_758272370558_6056899121476796416_o.jpg",
                "title": "89826926_758272370558_6056899121476796416_o.jpg",
                "mimetype": "image\/jpeg",
                "filetype": "jpg",
                "pretty_type": "JPEG",
                "user": "U0106PLV8PJ",
                "editable": false,
                "size": 60691,
                "mode": "hosted",
                "is_external": false,
                "external_type": "",
                "is_public": true,
                "public_url_shared": false,
                "display_as_bot": false,
                "username": "",
                "url_private": "https:\/\/files.slack.com\/files-pri\/TUU48M0T1-F0108ECGA73\/89826926_758272370558_6056899121476796416_o.jpg?t=xoxe-980144714919-1133254701825-1120841107731-daf595b5a7d6c9028b0b02a925032e36",
                "url_private_download": "https:\/\/files.slack.com\/files-pri\/TUU48M0T1-F0108ECGA73\/download\/89826926_758272370558_6056899121476796416_o.jpg?t=xoxe-980144714919-1133254701825-1120841107731-daf595b5a7d6c9028b0b02a925032e36",
                "thumb_64": "https:\/\/files.slack.com\/files-tmb\/TUU48M0T1-F0108ECGA73-d6ff2c3741\/89826926_758272370558_6056899121476796416_o_64.jpg?t=xoxe-980144714919-1133254701825-1120841107731-daf595b5a7d6c9028b0b02a925032e36",
                "thumb_80": "https:\/\/files.slack.com\/files-tmb\/TUU48M0T1-F0108ECGA73-d6ff2c3741\/89826926_758272370558_6056899121476796416_o_80.jpg?t=xoxe-980144714919-1133254701825-1120841107731-daf595b5a7d6c9028b0b02a925032e36",
                "thumb_360": "https:\/\/files.slack.com\/files-tmb\/TUU48M0T1-F0108ECGA73-d6ff2c3741\/89826926_758272370558_6056899121476796416_o_360.jpg?t=xoxe-980144714919-1133254701825-1120841107731-daf595b5a7d6c9028b0b02a925032e36",
                "thumb_360_w": 360,
                "thumb_360_h": 360,
                "thumb_480": "https:\/\/files.slack.com\/files-tmb\/TUU48M0T1-F0108ECGA73-d6ff2c3741\/89826926_758272370558_6056899121476796416_o_480.jpg?t=xoxe-980144714919-1133254701825-1120841107731-daf595b5a7d6c9028b0b02a925032e36",
                "thumb_480_w": 480,
                "thumb_480_h": 480,
                "thumb_160": "https:\/\/files.slack.com\/files-tmb\/TUU48M0T1-F0108ECGA73-d6ff2c3741\/89826926_758272370558_6056899121476796416_o_160.jpg?t=xoxe-980144714919-1133254701825-1120841107731-daf595b5a7d6c9028b0b02a925032e36",
                "thumb_720": "https:\/\/files.slack.com\/files-tmb\/TUU48M0T1-F0108ECGA73-d6ff2c3741\/89826926_758272370558_6056899121476796416_o_720.jpg?t=xoxe-980144714919-1133254701825-1120841107731-daf595b5a7d6c9028b0b02a925032e36",
                "thumb_720_w": 720,
                "thumb_720_h": 720,
                "thumb_800": "https:\/\/files.slack.com\/files-tmb\/TUU48M0T1-F0108ECGA73-d6ff2c3741\/89826926_758272370558_6056899121476796416_o_800.jpg?t=xoxe-980144714919-1133254701825-1120841107731-daf595b5a7d6c9028b0b02a925032e36",
                "thumb_800_w": 800,
                "thumb_800_h": 800,
                "image_exif_rotation": 1,
                "original_w": 960,
                "original_h": 960,
                "thumb_tiny": "AwAwADDMorYOmW4GSzgfUVH9itc9ZfrkUAZdFa\/9m25GQz\/nSf2bB6v+dAGTRWt\/ZsHq\/wCdH9mwer\/nQBNcSDcozwOahLhhjHWojweacCD1NMC3GwA2luakzVFUO\/dwaeXYfdyDSAm85CDtYE0gl+dQRw3SqgB3AEd6vwrlSfWmA2SHd95c1Xa2\/ukisre394\/nRvb+8fzpAaJSVO2fpQJDnkc\/lWdub+8fzo3H1NAGyi8jIJq0uAvAxXObm\/vH86N7f3j+dAH\/2Q==",
                "permalink": "https:\/\/open-covid19.slack.com\/files\/U0106PLV8PJ\/F0108ECGA73\/89826926_758272370558_6056899121476796416_o.jpg",
                "permalink_public": "https:\/\/slack-files.com\/TUU48M0T1-F0108ECGA73-9f1331f22d",
                "is_starred": false,
                "has_rich_preview": false
            }
        ],
        "upload": true,
        "blocks": [
            {
                "type": "rich_text",
                "block_id": "g4Zf+",
                "elements": [
                    {
                        "type": "rich_text_section",
                        "elements": [
                            {
                                "type": "text",
                                "text": "Saw this design on the Open Source Covid 19 Medical Supplies Group"
                            }
                        ]
                    }
                ]
            }
        ],
        "user": "U0106PLV8PJ",
        "display_as_bot": false,
        "ts": "1584953354.115500",
        "client_msg_id": "973956be-f57e-45e8-8565-88d233181d67",
        "thread_ts": "1584953354.115500",
        "reply_count": 1,
        "reply_users_count": 1,
        "latest_reply": "1584953364.115900",
        "reply_users": [
            "U0106PLV8PJ"
        ],
        "replies": [
            {
                "user": "U0106PLV8PJ",
                "ts": "1584953364.115900"
            }
        ],
        "subscribed": false,
        "reactions": [
            {
                "name": "+1",
                "users": [
                    "U0108DWH5NH"
                ],
                "count": 1
            }
        ]
    },
    {
        "client_msg_id": "059636f4-dc19-4ebd-9125-8bccfafbc46f",
        "type": "message",
        "text": "<https:\/\/www.facebook.com\/groups\/opensourcecovid19medicalsupplies\/permalink\/675908573219538\/>",
        "user": "U0106PLV8PJ",
        "ts": "1584953364.115900",
        "team": "TUU48M0T1",
        "user_team": "TUU48M0T1",
        "source_team": "TUU48M0T1",
        "user_profile": {
            "avatar_hash": "g2cfc1aee243",
            "image_72": "https:\/\/secure.gravatar.com\/avatar\/2cfc1aee24305a18a647efef16d68e02.jpg?s=72&d=https%3A%2F%2Fa.slack-edge.com%2Fdf10d%2Fimg%2Favatars%2Fava_0012-72.png",
            "first_name": "",
            "real_name": "Rupin Chheda",
            "display_name": "",
            "team": "TUU48M0T1",
            "name": "rupin.chheda",
            "is_restricted": false,
            "is_ultra_restricted": false
        },
        "attachments": [
            {
                "title": "Matthew Dryden",
                "title_link": "https:\/\/www.facebook.com\/groups\/opensourcecovid19medicalsupplies\/permalink\/675908573219538\/",
                "text": "Seems to be working quite well as a working prototype. Just loosen the strap to adjust air volume and rate with the knob. I tried the wheel on the bottom but it was not necessary. Holding the bag...",
                "fallback": "Matthew Dryden",
                "image_url": "https:\/\/scontent-iad3-1.xx.fbcdn.net\/v\/t15.5256-10\/83900600_758272570158_5367235108698849280_n.jpg?_nc_cat=105&_nc_sid=f2c4d5&_nc_ohc=C9CDNOs4B54AX-hpL17&_nc_ht=scontent-iad3-1.xx&oh=0f891942df93da134b1460821b601728&oe=5E9D2399",
                "from_url": "https:\/\/www.facebook.com\/groups\/opensourcecovid19medicalsupplies\/permalink\/675908573219538\/",
                "image_width": 444,
                "image_height": 250,
                "image_bytes": 146043,
                "service_icon": "https:\/\/static.xx.fbcdn.net\/rsrc.php\/yz\/r\/KFyVIAWzntM.ico",
                "service_name": "facebook.com",
                "id": 1,
                "original_url": "https:\/\/www.facebook.com\/groups\/opensourcecovid19medicalsupplies\/permalink\/675908573219538\/"
            }
        ],
        "blocks": [
            {
                "type": "rich_text",
                "block_id": "CNIDM",
                "elements": [
                    {
                        "type": "rich_text_section",
                        "elements": [
                            {
                                "type": "link",
                                "url": "https:\/\/www.facebook.com\/groups\/opensourcecovid19medicalsupplies\/permalink\/675908573219538\/"
                            }
                        ]
                    }
                ]
            }
        ],
        "thread_ts": "1584953354.115500",
        "parent_user_id": "U0106PLV8PJ"
    },
    {
        "client_msg_id": "1d639c6c-223c-402e-aaee-6ef714b5232c",
        "type": "message",
        "text": "<https:\/\/derangedphysiology.com\/main\/cicm-primary-exam\/required-reading\/respiratory-system\/Chapter%20551\/introduction-ventilator-waveform>",
        "user": "U0108DWH5NH",
        "ts": "1584958001.116400",
        "team": "TUU48M0T1",
        "user_team": "TUU48M0T1",
        "source_team": "TUU48M0T1",
        "user_profile": {
            "avatar_hash": "gd582b07cb4c",
            "image_72": "https:\/\/secure.gravatar.com\/avatar\/d582b07cb4cff8ecfdf7095f4f4eefc5.jpg?s=72&d=https%3A%2F%2Fa.slack-edge.com%2Fdf10d%2Fimg%2Favatars%2Fava_0025-72.png",
            "first_name": "",
            "real_name": "Juraj Marak",
            "display_name": "Juraj Marak",
            "team": "TUU48M0T1",
            "name": "kukulo2011",
            "is_restricted": false,
            "is_ultra_restricted": false
        },
        "attachments": [
            {
                "title": "An introduction to the ventilator waveform | Deranged Physiology",
                "title_link": "https:\/\/derangedphysiology.com\/main\/cicm-primary-exam\/required-reading\/respiratory-system\/Chapter%20551\/introduction-ventilator-waveform",
                "text": "There are only 4 variables which one can manipulate in the mechanical ventilator: pressure, flow, volume, and time. These variables are plotted on the ventilator monitoring screen. \"Much information scrolls by on the ventilator screen without receiving much notice\", and \"ventilator graphics are seldom afforded the detailed pattern recognition that is commonly devoted to the electrocardiogram\", which is unfair because they are sources of detailed information regarding the interaction between the patient and the ventilator.",
                "fallback": "An introduction to the ventilator waveform | Deranged Physiology",
                "from_url": "https:\/\/derangedphysiology.com\/main\/cicm-primary-exam\/required-reading\/respiratory-system\/Chapter%20551\/introduction-ventilator-waveform",
                "service_icon": "https:\/\/derangedphysiology.com\/main\/sites\/default\/files\/Ef.PNG",
                "service_name": "derangedphysiology.com",
                "id": 1,
                "original_url": "https:\/\/derangedphysiology.com\/main\/cicm-primary-exam\/required-reading\/respiratory-system\/Chapter%20551\/introduction-ventilator-waveform"
            }
        ],
        "blocks": [
            {
                "type": "rich_text",
                "block_id": "Korc",
                "elements": [
                    {
                        "type": "rich_text_section",
                        "elements": [
                            {
                                "type": "link",
                                "url": "https:\/\/derangedphysiology.com\/main\/cicm-primary-exam\/required-reading\/respiratory-system\/Chapter%20551\/introduction-ventilator-waveform"
                            }
                        ]
                    }
                ]
            }
        ]
    },
    {
        "client_msg_id": "6b3876e9-7e95-4068-a81c-d9eb4efc9e0e",
        "type": "message",
        "text": "\"Multiplexing\" two or more patients on a single ventilator seems like a clever hack. It also leads to a radically different design idea: why not have a single \"inhale\" air line at constant pressure and with added O2, and a single \"exhale\" line at slight negative pressure to collect exhaust breath. Then have a smart regulator valve with lots of sensors at each patient that smartly and smoothly switches between those two air lines to create the correct pressure profile over time.",
        "user": "U0102NEMRTR",
        "ts": "1584965143.116700",
        "team": "TUU48M0T1",
        "user_team": "TUU48M0T1",
        "source_team": "TUU48M0T1",
        "user_profile": {
            "avatar_hash": "g6072d132593",
            "image_72": "https:\/\/secure.gravatar.com\/avatar\/6072d132593acb6de99356666ff0ed9e.jpg?s=72&d=https%3A%2F%2Fa.slack-edge.com%2Fdf10d%2Fimg%2Favatars%2Fava_0008-72.png",
            "first_name": "",
            "real_name": "Patrik D'haeseleer",
            "display_name": "Patrik D'haeseleer",
            "team": "TUU48M0T1",
            "name": "patrikd",
            "is_restricted": false,
            "is_ultra_restricted": false
        },
        "blocks": [
            {
                "type": "rich_text",
                "block_id": "wh1l",
                "elements": [
                    {
                        "type": "rich_text_section",
                        "elements": [
                            {
                                "type": "text",
                                "text": "\"Multiplexing\" two or more patients on a single ventilator seems like a clever hack. It also leads to a radically different design idea: why not have a single \"inhale\" air line at constant pressure and with added O2, and a single \"exhale\" line at slight negative pressure to collect exhaust breath. Then have a smart regulator valve with lots of sensors at each patient that smartly and smoothly switches between those two air lines to create the correct pressure profile over time."
                            }
                        ]
                    }
                ]
            }
        ],
        "thread_ts": "1584810498.096000",
        "parent_user_id": "UV2P3AQEN"
    },
    {
        "client_msg_id": "f66bb271-fa1d-4d9d-9ffb-3b5c316715fd",
        "type": "message",
        "text": "That's what I was thinking, basically a feeder system. My only concern is we're not taking into account medical aspects related to the different specs of each patient's lungs, as I've read somewhere. It would be great to hear from a healthcare professional about this.",
        "user": "UV2P3AQEN",
        "ts": "1584965376.116900",
        "team": "TUU48M0T1",
        "user_team": "TUU48M0T1",
        "source_team": "TUU48M0T1",
        "user_profile": {
            "avatar_hash": "82d977ce9645",
            "image_72": "https:\/\/avatars.slack-edge.com\/2020-03-16\/1003452392327_82d977ce9645ebc30917_72.jpg",
            "first_name": "Antonio",
            "real_name": "Antonio Mangiapane",
            "display_name": "Antonio Mangiapane",
            "team": "TUU48M0T1",
            "name": "antonio.mangiapane29",
            "is_restricted": false,
            "is_ultra_restricted": false
        },
        "blocks": [
            {
                "type": "rich_text",
                "block_id": "1sL",
                "elements": [
                    {
                        "type": "rich_text_section",
                        "elements": [
                            {
                                "type": "text",
                                "text": "That's what I was thinking, basically a feeder system. My only concern is we're not taking into account medical aspects related to the different specs of each patient's lungs, as I've read somewhere. It would be great to hear from a healthcare professional about this."
                            }
                        ]
                    }
                ]
            }
        ],
        "thread_ts": "1584810498.096000",
        "parent_user_id": "UV2P3AQEN"
    },
    {
        "client_msg_id": "8e8e121f-dc3d-4fea-9171-c80cc2e99fb7",
        "type": "message",
        "text": "Did you find a contact or specific reference on this?  Its worth digging in to.",
        "user": "U010HTBUHS9",
        "ts": "1584987952.117200",
        "team": "TUU48M0T1",
        "user_team": "TUU48M0T1",
        "source_team": "TUU48M0T1",
        "user_profile": {
            "avatar_hash": "e7bdbebff0d9",
            "image_72": "https:\/\/avatars.slack-edge.com\/2020-03-22\/1017951251813_e7bdbebff0d9ad1e8f12_72.jpg",
            "first_name": "",
            "real_name": "Adam Arabian",
            "display_name": "Adam Arabian",
            "team": "TUU48M0T1",
            "name": "adam.arabian",
            "is_restricted": false,
            "is_ultra_restricted": false
        },
        "blocks": [
            {
                "type": "rich_text",
                "block_id": "hDTus",
                "elements": [
                    {
                        "type": "rich_text_section",
                        "elements": [
                            {
                                "type": "text",
                                "text": "Did you find a contact or specific reference on this?  Its worth digging in to."
                            }
                        ]
                    }
                ]
            }
        ],
        "thread_ts": "1584810498.096000",
        "parent_user_id": "UV2P3AQEN"
    },
    {
        "client_msg_id": "4bc776ed-ae47-48eb-8c03-8721db259c5f",
        "type": "message",
        "text": "There's a publication based on tests performed on \"simulated \"patients:\n<https:\/\/onlinelibrary.wiley.com\/doi\/pdf\/10.1197\/j.aem.2006.05.009>\n\nBesides that, in the past days it's been succesfully tested by University of Bologna and a company named Intersurgical started manufacturing it",
        "user": "UV2P3AQEN",
        "ts": "1584988532.117400",
        "team": "TUU48M0T1",
        "user_team": "TUU48M0T1",
        "source_team": "TUU48M0T1",
        "user_profile": {
            "avatar_hash": "82d977ce9645",
            "image_72": "https:\/\/avatars.slack-edge.com\/2020-03-16\/1003452392327_82d977ce9645ebc30917_72.jpg",
            "first_name": "Antonio",
            "real_name": "Antonio Mangiapane",
            "display_name": "Antonio Mangiapane",
            "team": "TUU48M0T1",
            "name": "antonio.mangiapane29",
            "is_restricted": false,
            "is_ultra_restricted": false
        },
        "blocks": [
            {
                "type": "rich_text",
                "block_id": "gjdLr",
                "elements": [
                    {
                        "type": "rich_text_section",
                        "elements": [
                            {
                                "type": "text",
                                "text": "There's a publication based on tests performed on \"simulated \"patients:\n"
                            },
                            {
                                "type": "link",
                                "url": "https:\/\/onlinelibrary.wiley.com\/doi\/pdf\/10.1197\/j.aem.2006.05.009"
                            },
                            {
                                "type": "text",
                                "text": "\n\nBesides that, in the past days it's been succesfully tested by University of Bologna and a company named Intersurgical started manufacturing it"
                            }
                        ]
                    }
                ]
            }
        ],
        "thread_ts": "1584810498.096000",
        "parent_user_id": "UV2P3AQEN"
    },
    {
        "client_msg_id": "f16dbaec-ee53-4272-91fa-a15af5c1eea4",
        "type": "message",
        "text": "If you have a link to even a news report on the Bologna or intersurgical I'd appreciate it.  I'd like to pass it along to a couple of hospital CEOs here.",
        "user": "U010HTBUHS9",
        "ts": "1585013996.117700",
        "team": "TUU48M0T1",
        "user_team": "TUU48M0T1",
        "source_team": "TUU48M0T1",
        "user_profile": {
            "avatar_hash": "e7bdbebff0d9",
            "image_72": "https:\/\/avatars.slack-edge.com\/2020-03-22\/1017951251813_e7bdbebff0d9ad1e8f12_72.jpg",
            "first_name": "",
            "real_name": "Adam Arabian",
            "display_name": "Adam Arabian",
            "team": "TUU48M0T1",
            "name": "adam.arabian",
            "is_restricted": false,
            "is_ultra_restricted": false
        },
        "blocks": [
            {
                "type": "rich_text",
                "block_id": "Vf4j",
                "elements": [
                    {
                        "type": "rich_text_section",
                        "elements": [
                            {
                                "type": "text",
                                "text": "If you have a link to even a news report on the Bologna or intersurgical I'd appreciate it.  I'd like to pass it along to a couple of hospital CEOs here."
                            }
                        ]
                    }
                ]
            }
        ],
        "thread_ts": "1584810498.096000",
        "parent_user_id": "UV2P3AQEN"
    }
]