"","id"
"1","UG400K8TS"
"2","UG3JWCG83"
"5","USLACKBOT"
"18","UV8V95W14"
"20","U011DHQ3Z4N"
"27","U010CCNGYUB"
"29","U01057RG9HQ"
"30","UVB4DQMDE"
"32","UV16MU59Q"
"36","UNN6LENQJ"
"37","USBSKSF4Z"
"39","U52KBSW9X"
"40","U4A6D8F6J"
"41","US5J9BX0S"
"42","U4EFEMFS9"
"44","UJTJ6RYCF"
"49","UKB404YG1"
"64","URHMFRQHK"
"68","U0101M8SKAA"
"69","U4AGJ7L87"
"70","U6PP2B89F"
"73","U9GTT5PNW"
"77","UHFUVU5C4"
"78","UHLHUFQA3"
"81","U01059K9EMU"
"88","U0102UHSJ0L"
"89","UV9P9CJHX"
"91","UELJCMA12"
"107","U6QB2M5BN"
"110","U010BRWNGPP"
"111","UPGELJS3T"
"116","U0101GKA2BU"
"122","U0106JW4S9X"
"138","UB7HCCZNH"
"151","U01050S7XPU"
"160","U010PTL0X8U"
"215","U010RP0P89L"
"221","ULHKLAAR2"
"222","UPGRYQJBT"
"223","U49QK3BE1"
"224","U010CUK2Q5Q"
"225","U010CL7KUQ3"
"229","U49KHPBUJ"
"234","U010RFV4VAB"
"236","UGRVA4PAQ"
"258","U010TPWBVRD"
"289","U010YPVPZE0"
"293","UH1SAF200"
"305","U010PH0BD97"
"312","UL2Q24D9U"
"373","U010U553ZKK"
"384","U7XDRH7B8"
"395","U0118K9BZEG"
"396","U011902T9PF"
"397","U011943ELAZ"
"410","U011AAQFKSQ"
"416","U0111C7UB8B"
"497","U010Z6TNU11"
"498","UJ50C2AMS"
"502","U011YKGHLM6"
"505","U011H0RLVNJ"
"513","U011JNH9V4N"
"542","U011N2YE97C"
"561","U011QHQV5K4"
"566","U011M4UNVV4"
"567","U011QH7376E"
"582","U011W0CLD27"
"584","U011WC2UP5G"
"602","U012W5WERCY"
"605","UCJ8SS5GE"
"608","U011XPQFU2E"
"628","U01293EAHEF"
"634","UJUV9ATDZ"
"635","U012JMKLM9T"
"664","U012UMJJP37"
"675","U010RFXLS2C"
"689","UB5T7P06R"
"690","U012ZHZ3RB9"
"696","U012PSB1A1K"
"697","UHK0ZKM0V"
"699","U8MNSEUSZ"
"700","U9DKGBDJT"
"701","U8MCB359P"
"702","UF85XFWBS"
"716","UULCKSR2R"
