[
    {
        "type": "message",
        "subtype": "channel_join",
        "ts": "1584552072.000200",
        "user": "UV4Q15S5Q",
        "text": "<@UV4Q15S5Q> has joined the channel"
    },
    {
        "type": "message",
        "subtype": "channel_purpose",
        "ts": "1584552072.000300",
        "user": "UV4Q15S5Q",
        "text": "<@UV4Q15S5Q> set the channel purpose: FreeGenes slack channel",
        "purpose": "FreeGenes slack channel"
    },
    {
        "type": "message",
        "subtype": "channel_join",
        "ts": "1584552110.000500",
        "user": "UV3URUKK5",
        "text": "<@UV3URUKK5> has joined the channel"
    },
    {
        "type": "message",
        "subtype": "channel_join",
        "ts": "1584552131.000700",
        "user": "UUNGFHSV8",
        "text": "<@UUNGFHSV8> has joined the channel"
    },
    {
        "client_msg_id": "cc123377-5be6-4a28-91c9-deab5153a9f6",
        "type": "message",
        "text": "<@UV4Q15S5Q> are there documents\/spreadsheets outlining the COVID19 toolkits that have been developed\/are being developed?",
        "user": "UUNGFHSV8",
        "ts": "1584552212.001900",
        "team": "TUU48M0T1",
        "user_team": "TUU48M0T1",
        "source_team": "TUU48M0T1",
        "user_profile": {
            "avatar_hash": "1c55ee32397a",
            "image_72": "https:\/\/avatars.slack-edge.com\/2020-03-07\/987349161984_1c55ee32397a85a87ec4_72.png",
            "first_name": "Isaac",
            "real_name": "Isaac Larkin",
            "display_name": "Isaac Larkin",
            "team": "TUU48M0T1",
            "name": "eyesmo",
            "is_restricted": false,
            "is_ultra_restricted": false
        },
        "blocks": [
            {
                "type": "rich_text",
                "block_id": "J2+9",
                "elements": [
                    {
                        "type": "rich_text_section",
                        "elements": [
                            {
                                "type": "user",
                                "user_id": "UV4Q15S5Q"
                            },
                            {
                                "type": "text",
                                "text": " are there documents\/spreadsheets outlining the COVID19 toolkits that have been developed\/are being developed?"
                            }
                        ]
                    }
                ]
            }
        ]
    },
    {
        "client_msg_id": "b2e13b1b-c5ec-4514-9425-1feb92ef71ac",
        "type": "message",
        "text": "Also could you say more about Ginkgo’s open sourcing of their expression vectors?",
        "user": "UUNGFHSV8",
        "ts": "1584552239.002400",
        "team": "TUU48M0T1",
        "user_team": "TUU48M0T1",
        "source_team": "TUU48M0T1",
        "user_profile": {
            "avatar_hash": "1c55ee32397a",
            "image_72": "https:\/\/avatars.slack-edge.com\/2020-03-07\/987349161984_1c55ee32397a85a87ec4_72.png",
            "first_name": "Isaac",
            "real_name": "Isaac Larkin",
            "display_name": "Isaac Larkin",
            "team": "TUU48M0T1",
            "name": "eyesmo",
            "is_restricted": false,
            "is_ultra_restricted": false
        },
        "blocks": [
            {
                "type": "rich_text",
                "block_id": "plV",
                "elements": [
                    {
                        "type": "rich_text_section",
                        "elements": [
                            {
                                "type": "text",
                                "text": "Also could you say more about Ginkgo’s open sourcing of their expression vectors?"
                            }
                        ]
                    }
                ]
            }
        ]
    },
    {
        "client_msg_id": "b2ebb0db-7009-444b-8dc0-a3d3e1f6be68",
        "type": "message",
        "text": "<@UUNGFHSV8> Not yet - beyond the ORFs from COVID-19 for expression, the toolkits are being developed right now. Today is full of researching coronavirus for me",
        "user": "UV4Q15S5Q",
        "ts": "1584552316.003500",
        "team": "TUU48M0T1",
        "user_team": "TUU48M0T1",
        "source_team": "TUU48M0T1",
        "user_profile": {
            "avatar_hash": "gdbd3cc24b09",
            "image_72": "https:\/\/secure.gravatar.com\/avatar\/dbd3cc24b092b17d53c09de6bab7969c.jpg?s=72&d=https%3A%2F%2Fa.slack-edge.com%2Fdf10d%2Fimg%2Favatars%2Fava_0012-72.png",
            "first_name": "",
            "real_name": "Keoni Gandall",
            "display_name": "",
            "team": "TUU48M0T1",
            "name": "koeng101",
            "is_restricted": false,
            "is_ultra_restricted": false
        },
        "blocks": [
            {
                "type": "rich_text",
                "block_id": "RVCT",
                "elements": [
                    {
                        "type": "rich_text_section",
                        "elements": [
                            {
                                "type": "user",
                                "user_id": "UUNGFHSV8"
                            },
                            {
                                "type": "text",
                                "text": " Not yet - beyond the ORFs from COVID-19 for expression, the toolkits are being developed right now. Today is full of researching coronavirus for me"
                            }
                        ]
                    }
                ]
            }
        ]
    },
    {
        "client_msg_id": "38a69ab9-ae52-41f7-8b37-7a5d09e4a2a9",
        "type": "message",
        "text": "&gt;  Also could you say more about Ginkgo’s open sourcing of their expression vectors?\nNot much - I have the vector sequences they're thinking about, but will publish them once we get confirmation of em",
        "user": "UV4Q15S5Q",
        "ts": "1584552344.004200",
        "team": "TUU48M0T1",
        "user_team": "TUU48M0T1",
        "source_team": "TUU48M0T1",
        "user_profile": {
            "avatar_hash": "gdbd3cc24b09",
            "image_72": "https:\/\/secure.gravatar.com\/avatar\/dbd3cc24b092b17d53c09de6bab7969c.jpg?s=72&d=https%3A%2F%2Fa.slack-edge.com%2Fdf10d%2Fimg%2Favatars%2Fava_0012-72.png",
            "first_name": "",
            "real_name": "Keoni Gandall",
            "display_name": "",
            "team": "TUU48M0T1",
            "name": "koeng101",
            "is_restricted": false,
            "is_ultra_restricted": false
        },
        "blocks": [
            {
                "type": "rich_text",
                "block_id": "CPo2",
                "elements": [
                    {
                        "type": "rich_text_quote",
                        "elements": [
                            {
                                "type": "text",
                                "text": " Also could you say more about Ginkgo’s open sourcing of their expression vectors?"
                            }
                        ]
                    },
                    {
                        "type": "rich_text_section",
                        "elements": [
                            {
                                "type": "text",
                                "text": "Not much - I have the vector sequences they're thinking about, but will publish them once we get confirmation of em"
                            }
                        ]
                    }
                ]
            }
        ],
        "reactions": [
            {
                "name": "+1",
                "users": [
                    "UUNGFHSV8"
                ],
                "count": 1
            }
        ]
    },
    {
        "client_msg_id": "23d91dd9-a50c-426e-9e1b-e72330d38d85",
        "type": "message",
        "text": "One thing to consider--several important COVID19 proteins (including the spike protein) are highly glycosylated, so it might be worthwhile to design expression vectors in insect\/mammalian (CHO?) cells for them as well to make protein that closely matches what the body actually encounters during infection",
        "user": "UUNGFHSV8",
        "ts": "1584552559.006300",
        "team": "TUU48M0T1",
        "user_team": "TUU48M0T1",
        "source_team": "TUU48M0T1",
        "user_profile": {
            "avatar_hash": "1c55ee32397a",
            "image_72": "https:\/\/avatars.slack-edge.com\/2020-03-07\/987349161984_1c55ee32397a85a87ec4_72.png",
            "first_name": "Isaac",
            "real_name": "Isaac Larkin",
            "display_name": "Isaac Larkin",
            "team": "TUU48M0T1",
            "name": "eyesmo",
            "is_restricted": false,
            "is_ultra_restricted": false
        },
        "blocks": [
            {
                "type": "rich_text",
                "block_id": "\/Fs",
                "elements": [
                    {
                        "type": "rich_text_section",
                        "elements": [
                            {
                                "type": "text",
                                "text": "One thing to consider--several important COVID19 proteins (including the spike protein) are highly glycosylated, so it might be worthwhile to design expression vectors in insect\/mammalian (CHO?) cells for them as well to make protein that closely matches what the body actually encounters during infection"
                            }
                        ]
                    }
                ]
            }
        ],
        "thread_ts": "1584552559.006300",
        "reply_count": 6,
        "reply_users_count": 3,
        "latest_reply": "1584553558.013900",
        "reply_users": [
            "UV3URUKK5",
            "UUNGFHSV8",
            "UV4Q15S5Q"
        ],
        "replies": [
            {
                "user": "UV3URUKK5",
                "ts": "1584553260.012300"
            },
            {
                "user": "UUNGFHSV8",
                "ts": "1584553355.012900"
            },
            {
                "user": "UUNGFHSV8",
                "ts": "1584553380.013100"
            },
            {
                "user": "UV3URUKK5",
                "ts": "1584553387.013300"
            },
            {
                "user": "UUNGFHSV8",
                "ts": "1584553503.013700"
            },
            {
                "user": "UV4Q15S5Q",
                "ts": "1584553558.013900"
            }
        ],
        "subscribed": false
    },
    {
        "client_msg_id": "032e7267-68bf-46c9-867f-0e52d72f0598",
        "type": "message",
        "text": "Got papers for that?",
        "user": "UV4Q15S5Q",
        "ts": "1584552642.006700",
        "team": "TUU48M0T1",
        "user_team": "TUU48M0T1",
        "source_team": "TUU48M0T1",
        "user_profile": {
            "avatar_hash": "gdbd3cc24b09",
            "image_72": "https:\/\/secure.gravatar.com\/avatar\/dbd3cc24b092b17d53c09de6bab7969c.jpg?s=72&d=https%3A%2F%2Fa.slack-edge.com%2Fdf10d%2Fimg%2Favatars%2Fava_0012-72.png",
            "first_name": "",
            "real_name": "Keoni Gandall",
            "display_name": "",
            "team": "TUU48M0T1",
            "name": "koeng101",
            "is_restricted": false,
            "is_ultra_restricted": false
        },
        "blocks": [
            {
                "type": "rich_text",
                "block_id": "Ca5d7",
                "elements": [
                    {
                        "type": "rich_text_section",
                        "elements": [
                            {
                                "type": "text",
                                "text": "Got papers for that?"
                            }
                        ]
                    }
                ]
            }
        ]
    },
    {
        "client_msg_id": "1c5c76e9-38fb-4bc8-907c-916b7038dbde",
        "type": "message",
        "text": "(I will send to Ginkgo)",
        "user": "UV4Q15S5Q",
        "ts": "1584552654.007000",
        "team": "TUU48M0T1",
        "user_team": "TUU48M0T1",
        "source_team": "TUU48M0T1",
        "user_profile": {
            "avatar_hash": "gdbd3cc24b09",
            "image_72": "https:\/\/secure.gravatar.com\/avatar\/dbd3cc24b092b17d53c09de6bab7969c.jpg?s=72&d=https%3A%2F%2Fa.slack-edge.com%2Fdf10d%2Fimg%2Favatars%2Fava_0012-72.png",
            "first_name": "",
            "real_name": "Keoni Gandall",
            "display_name": "",
            "team": "TUU48M0T1",
            "name": "koeng101",
            "is_restricted": false,
            "is_ultra_restricted": false
        },
        "blocks": [
            {
                "type": "rich_text",
                "block_id": "Lfe",
                "elements": [
                    {
                        "type": "rich_text_section",
                        "elements": [
                            {
                                "type": "text",
                                "text": "(I will send to Ginkgo)"
                            }
                        ]
                    }
                ]
            }
        ]
    },
    {
        "client_msg_id": "70b2e8a8-f82c-4941-81b2-b83439aafb20",
        "type": "message",
        "text": "Do you mean for expression vectors, or for dense glycosylation of COVID19 proteins? Here’s a paper that mentions the dense glycosylation of spike protein <https:\/\/science.sciencemag.org\/content\/367\/6483\/1260.full>",
        "user": "UUNGFHSV8",
        "ts": "1584552831.008000",
        "team": "TUU48M0T1",
        "user_team": "TUU48M0T1",
        "source_team": "TUU48M0T1",
        "user_profile": {
            "avatar_hash": "1c55ee32397a",
            "image_72": "https:\/\/avatars.slack-edge.com\/2020-03-07\/987349161984_1c55ee32397a85a87ec4_72.png",
            "first_name": "Isaac",
            "real_name": "Isaac Larkin",
            "display_name": "Isaac Larkin",
            "team": "TUU48M0T1",
            "name": "eyesmo",
            "is_restricted": false,
            "is_ultra_restricted": false
        },
        "blocks": [
            {
                "type": "rich_text",
                "block_id": "ocjoC",
                "elements": [
                    {
                        "type": "rich_text_section",
                        "elements": [
                            {
                                "type": "text",
                                "text": "Do you mean for expression vectors, or for dense glycosylation of COVID19 proteins? Here’s a paper that mentions the dense glycosylation of spike protein "
                            },
                            {
                                "type": "link",
                                "url": "https:\/\/science.sciencemag.org\/content\/367\/6483\/1260.full"
                            }
                        ]
                    }
                ]
            }
        ]
    },
    {
        "client_msg_id": "579060d1-3e5d-414c-a9e0-ffdf0fcb5263",
        "type": "message",
        "text": "dense glycosylation of COVID19 proteins",
        "user": "UV4Q15S5Q",
        "ts": "1584552889.008200",
        "team": "TUU48M0T1",
        "user_team": "TUU48M0T1",
        "source_team": "TUU48M0T1",
        "user_profile": {
            "avatar_hash": "gdbd3cc24b09",
            "image_72": "https:\/\/secure.gravatar.com\/avatar\/dbd3cc24b092b17d53c09de6bab7969c.jpg?s=72&d=https%3A%2F%2Fa.slack-edge.com%2Fdf10d%2Fimg%2Favatars%2Fava_0012-72.png",
            "first_name": "",
            "real_name": "Keoni Gandall",
            "display_name": "",
            "team": "TUU48M0T1",
            "name": "koeng101",
            "is_restricted": false,
            "is_ultra_restricted": false
        },
        "blocks": [
            {
                "type": "rich_text",
                "block_id": "Nrn",
                "elements": [
                    {
                        "type": "rich_text_section",
                        "elements": [
                            {
                                "type": "text",
                                "text": "dense glycosylation of COVID19 proteins"
                            }
                        ]
                    }
                ]
            }
        ]
    },
    {
        "client_msg_id": "0adeec49-448f-4ea2-975d-46068de8fc8e",
        "type": "message",
        "text": "Thanks",
        "user": "UV4Q15S5Q",
        "ts": "1584552891.008400",
        "team": "TUU48M0T1",
        "user_team": "TUU48M0T1",
        "source_team": "TUU48M0T1",
        "user_profile": {
            "avatar_hash": "gdbd3cc24b09",
            "image_72": "https:\/\/secure.gravatar.com\/avatar\/dbd3cc24b092b17d53c09de6bab7969c.jpg?s=72&d=https%3A%2F%2Fa.slack-edge.com%2Fdf10d%2Fimg%2Favatars%2Fava_0012-72.png",
            "first_name": "",
            "real_name": "Keoni Gandall",
            "display_name": "",
            "team": "TUU48M0T1",
            "name": "koeng101",
            "is_restricted": false,
            "is_ultra_restricted": false
        },
        "blocks": [
            {
                "type": "rich_text",
                "block_id": "6Zqg",
                "elements": [
                    {
                        "type": "rich_text_section",
                        "elements": [
                            {
                                "type": "text",
                                "text": "Thanks"
                            }
                        ]
                    }
                ]
            }
        ]
    },
    {
        "client_msg_id": "450c8e1f-f2d2-426d-9e0c-c1e1355fe979",
        "type": "message",
        "text": "FWIW I’ve talked to some people at UW Seattle’s institute for protein design, and the candidate spike protein-based vaccine they’re now testing is expressed in CHO cells, so those might be a good target for expression plasmid design",
        "user": "UUNGFHSV8",
        "ts": "1584553076.011000",
        "team": "TUU48M0T1",
        "user_team": "TUU48M0T1",
        "source_team": "TUU48M0T1",
        "user_profile": {
            "avatar_hash": "1c55ee32397a",
            "image_72": "https:\/\/avatars.slack-edge.com\/2020-03-07\/987349161984_1c55ee32397a85a87ec4_72.png",
            "first_name": "Isaac",
            "real_name": "Isaac Larkin",
            "display_name": "Isaac Larkin",
            "team": "TUU48M0T1",
            "name": "eyesmo",
            "is_restricted": false,
            "is_ultra_restricted": false
        },
        "blocks": [
            {
                "type": "rich_text",
                "block_id": "TiY2",
                "elements": [
                    {
                        "type": "rich_text_section",
                        "elements": [
                            {
                                "type": "text",
                                "text": "FWIW I’ve talked to some people at UW Seattle’s institute for protein design, and the candidate spike protein-based vaccine they’re now testing is expressed in CHO cells, so those might be a good target for expression plasmid design"
                            }
                        ]
                    }
                ]
            }
        ],
        "thread_ts": "1584553076.011000",
        "reply_count": 2,
        "reply_users_count": 2,
        "latest_reply": "1584553266.012500",
        "reply_users": [
            "UV4Q15S5Q",
            "UUNGFHSV8"
        ],
        "replies": [
            {
                "user": "UV4Q15S5Q",
                "ts": "1584553239.012000"
            },
            {
                "user": "UUNGFHSV8",
                "ts": "1584553266.012500"
            }
        ],
        "subscribed": false,
        "reactions": [
            {
                "name": "+1",
                "users": [
                    "UV4Q15S5Q"
                ],
                "count": 1
            }
        ]
    },
    {
        "client_msg_id": "c31bc54e-be78-4406-b06c-5ed28b33315a",
        "type": "message",
        "text": "If you got time after this call we should talk",
        "user": "UV4Q15S5Q",
        "ts": "1584553239.012000",
        "team": "TUU48M0T1",
        "user_team": "TUU48M0T1",
        "source_team": "TUU48M0T1",
        "user_profile": {
            "avatar_hash": "gdbd3cc24b09",
            "image_72": "https:\/\/secure.gravatar.com\/avatar\/dbd3cc24b092b17d53c09de6bab7969c.jpg?s=72&d=https%3A%2F%2Fa.slack-edge.com%2Fdf10d%2Fimg%2Favatars%2Fava_0012-72.png",
            "first_name": "",
            "real_name": "Keoni Gandall",
            "display_name": "",
            "team": "TUU48M0T1",
            "name": "koeng101",
            "is_restricted": false,
            "is_ultra_restricted": false
        },
        "blocks": [
            {
                "type": "rich_text",
                "block_id": "ial",
                "elements": [
                    {
                        "type": "rich_text_section",
                        "elements": [
                            {
                                "type": "text",
                                "text": "If you got time after this call we should talk"
                            }
                        ]
                    }
                ]
            }
        ],
        "thread_ts": "1584553076.011000",
        "parent_user_id": "UUNGFHSV8",
        "reactions": [
            {
                "name": "100",
                "users": [
                    "UUNGFHSV8"
                ],
                "count": 1
            }
        ]
    },
    {
        "client_msg_id": "93f0536c-505b-484a-8d31-8b6a02223202",
        "type": "message",
        "text": "May you consider producing in P. pastoris? The glycosilation pattern is usually enough and for openscience \/ DIY protocols is quite simpler and safer to produce on a yeast chasis than in a mammal cell. Here is an example -&gt; (<http:\/\/doi.org\/10.1007\/s10529-011-0845-8>)",
        "user": "UV3URUKK5",
        "ts": "1584553260.012300",
        "team": "TUU48M0T1",
        "user_team": "TUU48M0T1",
        "source_team": "TUU48M0T1",
        "user_profile": {
            "avatar_hash": "64c99c2ed974",
            "image_72": "https:\/\/avatars.slack-edge.com\/2020-03-15\/1000999702004_64c99c2ed97497e08ca9_72.jpg",
            "first_name": "",
            "real_name": "Francisco Javier Quero",
            "display_name": "Francisco Javier Quero",
            "team": "TUU48M0T1",
            "name": "franxi2953",
            "is_restricted": false,
            "is_ultra_restricted": false
        },
        "edited": {
            "user": "UV3URUKK5",
            "ts": "1584553334.000000"
        },
        "blocks": [
            {
                "type": "rich_text",
                "block_id": "tI8",
                "elements": [
                    {
                        "type": "rich_text_section",
                        "elements": [
                            {
                                "type": "text",
                                "text": "May you consider producing in P. pastoris? The glycosilation pattern is usually enough and for openscience \/ DIY protocols is quite simpler and safer to produce on a yeast chasis than in a mammal cell. Here is an example -> ("
                            },
                            {
                                "type": "link",
                                "url": "http:\/\/doi.org\/10.1007\/s10529-011-0845-8"
                            },
                            {
                                "type": "text",
                                "text": ")"
                            }
                        ]
                    }
                ]
            }
        ],
        "thread_ts": "1584552559.006300",
        "parent_user_id": "UUNGFHSV8"
    },
    {
        "client_msg_id": "5e782390-7497-48a6-b34a-771478a29536",
        "type": "message",
        "text": "I do; looking forward to it",
        "user": "UUNGFHSV8",
        "ts": "1584553266.012500",
        "team": "TUU48M0T1",
        "user_team": "TUU48M0T1",
        "source_team": "TUU48M0T1",
        "user_profile": {
            "avatar_hash": "1c55ee32397a",
            "image_72": "https:\/\/avatars.slack-edge.com\/2020-03-07\/987349161984_1c55ee32397a85a87ec4_72.png",
            "first_name": "Isaac",
            "real_name": "Isaac Larkin",
            "display_name": "Isaac Larkin",
            "team": "TUU48M0T1",
            "name": "eyesmo",
            "is_restricted": false,
            "is_ultra_restricted": false
        },
        "blocks": [
            {
                "type": "rich_text",
                "block_id": "Sh=",
                "elements": [
                    {
                        "type": "rich_text_section",
                        "elements": [
                            {
                                "type": "text",
                                "text": "I do; looking forward to it"
                            }
                        ]
                    }
                ]
            }
        ],
        "thread_ts": "1584553076.011000",
        "parent_user_id": "UUNGFHSV8"
    },
    {
        "client_msg_id": "66fbc99f-8863-429b-bcbb-71d1e5a4e11b",
        "type": "message",
        "text": "Yes, Pichia could be good, especially if we can get access to and widely share one of the strains that has been engineered with human glycosylation enzymes",
        "user": "UUNGFHSV8",
        "ts": "1584553355.012900",
        "team": "TUU48M0T1",
        "user_team": "TUU48M0T1",
        "source_team": "TUU48M0T1",
        "user_profile": {
            "avatar_hash": "1c55ee32397a",
            "image_72": "https:\/\/avatars.slack-edge.com\/2020-03-07\/987349161984_1c55ee32397a85a87ec4_72.png",
            "first_name": "Isaac",
            "real_name": "Isaac Larkin",
            "display_name": "Isaac Larkin",
            "team": "TUU48M0T1",
            "name": "eyesmo",
            "is_restricted": false,
            "is_ultra_restricted": false
        },
        "blocks": [
            {
                "type": "rich_text",
                "block_id": "3cFn",
                "elements": [
                    {
                        "type": "rich_text_section",
                        "elements": [
                            {
                                "type": "text",
                                "text": "Yes, Pichia could be good, especially if we can get access to and widely share one of the strains that has been engineered with human glycosylation enzymes"
                            }
                        ]
                    }
                ]
            }
        ],
        "thread_ts": "1584552559.006300",
        "parent_user_id": "UUNGFHSV8"
    },
    {
        "client_msg_id": "d11cb06c-4b98-424b-a8dd-b08bf71367a1",
        "type": "message",
        "text": "Might be a good thing to request in <#C0109FA216U|prgm-reagent-sourcing>",
        "user": "UUNGFHSV8",
        "ts": "1584553380.013100",
        "team": "TUU48M0T1",
        "user_team": "TUU48M0T1",
        "source_team": "TUU48M0T1",
        "user_profile": {
            "avatar_hash": "1c55ee32397a",
            "image_72": "https:\/\/avatars.slack-edge.com\/2020-03-07\/987349161984_1c55ee32397a85a87ec4_72.png",
            "first_name": "Isaac",
            "real_name": "Isaac Larkin",
            "display_name": "Isaac Larkin",
            "team": "TUU48M0T1",
            "name": "eyesmo",
            "is_restricted": false,
            "is_ultra_restricted": false
        },
        "blocks": [
            {
                "type": "rich_text",
                "block_id": "uUoxY",
                "elements": [
                    {
                        "type": "rich_text_section",
                        "elements": [
                            {
                                "type": "text",
                                "text": "Might be a good thing to request in "
                            },
                            {
                                "type": "channel",
                                "channel_id": "C0109FA216U"
                            }
                        ]
                    }
                ]
            }
        ],
        "thread_ts": "1584552559.006300",
        "parent_user_id": "UUNGFHSV8"
    },
    {
        "client_msg_id": "6e386e96-99be-4930-aac7-88194e352ebf",
        "type": "message",
        "text": "I have access and could send you some as soon as Madrid labs return to normality.",
        "user": "UV3URUKK5",
        "ts": "1584553387.013300",
        "team": "TUU48M0T1",
        "user_team": "TUU48M0T1",
        "source_team": "TUU48M0T1",
        "user_profile": {
            "avatar_hash": "64c99c2ed974",
            "image_72": "https:\/\/avatars.slack-edge.com\/2020-03-15\/1000999702004_64c99c2ed97497e08ca9_72.jpg",
            "first_name": "",
            "real_name": "Francisco Javier Quero",
            "display_name": "Francisco Javier Quero",
            "team": "TUU48M0T1",
            "name": "franxi2953",
            "is_restricted": false,
            "is_ultra_restricted": false
        },
        "blocks": [
            {
                "type": "rich_text",
                "block_id": "E4MN",
                "elements": [
                    {
                        "type": "rich_text_section",
                        "elements": [
                            {
                                "type": "text",
                                "text": "I have access and could send you some as soon as Madrid labs return to normality."
                            }
                        ]
                    }
                ]
            }
        ],
        "thread_ts": "1584552559.006300",
        "parent_user_id": "UUNGFHSV8",
        "reactions": [
            {
                "name": "heart",
                "users": [
                    "UUNGFHSV8"
                ],
                "count": 1
            },
            {
                "name": "the_horns",
                "users": [
                    "UUNGFHSV8"
                ],
                "count": 1
            }
        ]
    },
    {
        "client_msg_id": "49c7345f-ec5d-42c5-8b77-ca3e529b0581",
        "type": "message",
        "text": "Sharing that strain with <@UV4Q15S5Q> and the Biobricks foundation could be very useful; they have well-developed distribution systems",
        "user": "UUNGFHSV8",
        "ts": "1584553503.013700",
        "team": "TUU48M0T1",
        "user_team": "TUU48M0T1",
        "source_team": "TUU48M0T1",
        "user_profile": {
            "avatar_hash": "1c55ee32397a",
            "image_72": "https:\/\/avatars.slack-edge.com\/2020-03-07\/987349161984_1c55ee32397a85a87ec4_72.png",
            "first_name": "Isaac",
            "real_name": "Isaac Larkin",
            "display_name": "Isaac Larkin",
            "team": "TUU48M0T1",
            "name": "eyesmo",
            "is_restricted": false,
            "is_ultra_restricted": false
        },
        "blocks": [
            {
                "type": "rich_text",
                "block_id": "3PNL2",
                "elements": [
                    {
                        "type": "rich_text_section",
                        "elements": [
                            {
                                "type": "text",
                                "text": "Sharing that strain with "
                            },
                            {
                                "type": "user",
                                "user_id": "UV4Q15S5Q"
                            },
                            {
                                "type": "text",
                                "text": " and the Biobricks foundation could be very useful; they have well-developed distribution systems"
                            }
                        ]
                    }
                ]
            }
        ],
        "thread_ts": "1584552559.006300",
        "parent_user_id": "UUNGFHSV8"
    },
    {
        "client_msg_id": "8f528f81-c355-485c-af0d-7b4bd64553a4",
        "type": "message",
        "text": "We can share strains quite efficiently - would like to get those expression vectors",
        "user": "UV4Q15S5Q",
        "ts": "1584553558.013900",
        "team": "TUU48M0T1",
        "user_team": "TUU48M0T1",
        "source_team": "TUU48M0T1",
        "user_profile": {
            "avatar_hash": "gdbd3cc24b09",
            "image_72": "https:\/\/secure.gravatar.com\/avatar\/dbd3cc24b092b17d53c09de6bab7969c.jpg?s=72&d=https%3A%2F%2Fa.slack-edge.com%2Fdf10d%2Fimg%2Favatars%2Fava_0012-72.png",
            "first_name": "",
            "real_name": "Keoni Gandall",
            "display_name": "",
            "team": "TUU48M0T1",
            "name": "koeng101",
            "is_restricted": false,
            "is_ultra_restricted": false
        },
        "blocks": [
            {
                "type": "rich_text",
                "block_id": "QuX",
                "elements": [
                    {
                        "type": "rich_text_section",
                        "elements": [
                            {
                                "type": "text",
                                "text": "We can share strains quite efficiently - would like to get those expression vectors"
                            }
                        ]
                    }
                ]
            }
        ],
        "thread_ts": "1584552559.006300",
        "parent_user_id": "UUNGFHSV8"
    },
    {
        "type": "message",
        "subtype": "channel_join",
        "ts": "1584553560.014200",
        "user": "U010BNPDPSS",
        "text": "<@U010BNPDPSS> has joined the channel"
    },
    {
        "type": "message",
        "subtype": "channel_join",
        "ts": "1584553880.014400",
        "user": "UV7LUJG1Y",
        "text": "<@UV7LUJG1Y> has joined the channel"
    },
    {
        "type": "message",
        "subtype": "channel_join",
        "ts": "1584554368.014600",
        "user": "U010BM999V4",
        "text": "<@U010BM999V4> has joined the channel"
    },
    {
        "client_msg_id": "1740c8cf-7cc0-4be1-9177-9d1672086cc0",
        "type": "message",
        "text": "A thought, if the virus mutates from host to host. So if say, 20% of the virus mutates leaving around 80% of the original structure intact, means that every sixth person is infected with a new strain.",
        "user": "U010BM999V4",
        "ts": "1584554506.015000",
        "team": "TUU48M0T1",
        "user_team": "TUU48M0T1",
        "source_team": "TUU48M0T1",
        "user_profile": {
            "avatar_hash": "205e6e5268de",
            "image_72": "https:\/\/avatars.slack-edge.com\/2020-03-18\/1011381023911_205e6e5268de0d35b0fc_72.jpg",
            "first_name": "Dan",
            "real_name": "Dan Rodriguez",
            "display_name": "Dan Rodriguez",
            "team": "TUU48M0T1",
            "name": "dan.unicellular",
            "is_restricted": false,
            "is_ultra_restricted": false
        },
        "blocks": [
            {
                "type": "rich_text",
                "block_id": "6tBpy",
                "elements": [
                    {
                        "type": "rich_text_section",
                        "elements": [
                            {
                                "type": "text",
                                "text": "A thought, if the virus mutates from host to host. So if say, 20% of the virus mutates leaving around 80% of the original structure intact, means that every sixth person is infected with a new strain."
                            }
                        ]
                    }
                ]
            }
        ]
    },
    {
        "client_msg_id": "aefb7921-d96c-4340-8213-ac755910c737",
        "type": "message",
        "text": "Yes, viral mutation is an important point Dan; it may be necessary for certain testing applications to make multiple variants of the viral genes, or at minimum to make clear what regions of the viral protein sequences are highly conserved across strains. This NCBI list of viral sequences could be useful for that: <https:\/\/www.ncbi.nlm.nih.gov\/genbank\/sars-cov-2-seqs\/>",
        "user": "UUNGFHSV8",
        "ts": "1584554978.016900",
        "team": "TUU48M0T1",
        "user_team": "TUU48M0T1",
        "source_team": "TUU48M0T1",
        "user_profile": {
            "avatar_hash": "1c55ee32397a",
            "image_72": "https:\/\/avatars.slack-edge.com\/2020-03-07\/987349161984_1c55ee32397a85a87ec4_72.png",
            "first_name": "Isaac",
            "real_name": "Isaac Larkin",
            "display_name": "Isaac Larkin",
            "team": "TUU48M0T1",
            "name": "eyesmo",
            "is_restricted": false,
            "is_ultra_restricted": false
        },
        "edited": {
            "user": "UUNGFHSV8",
            "ts": "1584554990.000000"
        },
        "blocks": [
            {
                "type": "rich_text",
                "block_id": "Ijy",
                "elements": [
                    {
                        "type": "rich_text_section",
                        "elements": [
                            {
                                "type": "text",
                                "text": "Yes, viral mutation is an important point Dan; it may be necessary for certain testing applications to make multiple variants of the viral genes, or at minimum to make clear what regions of the viral protein sequences are highly conserved across strains. This NCBI list of viral sequences could be useful for that: "
                            },
                            {
                                "type": "link",
                                "url": "https:\/\/www.ncbi.nlm.nih.gov\/genbank\/sars-cov-2-seqs\/"
                            }
                        ]
                    }
                ]
            }
        ]
    },
    {
        "type": "message",
        "subtype": "channel_join",
        "ts": "1584556182.017200",
        "user": "UUWSJTQ67",
        "text": "<@UUWSJTQ67> has joined the channel"
    },
    {
        "type": "message",
        "subtype": "channel_join",
        "ts": "1584558643.017400",
        "user": "U0108GAETPZ",
        "text": "<@U0108GAETPZ> has joined the channel"
    },
    {
        "type": "message",
        "subtype": "channel_join",
        "ts": "1584559617.017600",
        "user": "UVDNYPPFB",
        "text": "<@UVDNYPPFB> has joined the channel"
    },
    {
        "type": "message",
        "subtype": "channel_join",
        "ts": "1584563457.018000",
        "user": "U0109G7NH0D",
        "text": "<@U0109G7NH0D> has joined the channel"
    },
    {
        "type": "message",
        "subtype": "channel_join",
        "ts": "1584570216.018200",
        "user": "U0100EPL9RT",
        "text": "<@U0100EPL9RT> has joined the channel"
    },
    {
        "client_msg_id": "4390b40f-7ba9-45e9-b7dd-aa868d5600d8",
        "type": "message",
        "text": "From next strain it looks like based on the data so far we are seeing a rate of ~30 nucleotide substitutions per year.  <https:\/\/nextstrain.org\/ncov?c=country&amp;l=clock>",
        "user": "U0100EPL9RT",
        "ts": "1584570295.019000",
        "team": "TUU48M0T1",
        "user_team": "TUU48M0T1",
        "source_team": "TUU48M0T1",
        "user_profile": {
            "avatar_hash": "gcb426d5e001",
            "image_72": "https:\/\/secure.gravatar.com\/avatar\/cb426d5e001776a4cbc74343e46f1916.jpg?s=72&d=https%3A%2F%2Fa.slack-edge.com%2Fdf10d%2Fimg%2Favatars%2Fava_0000-72.png",
            "first_name": "Zac",
            "real_name": "Zac",
            "display_name": "Zac",
            "team": "TUU48M0T1",
            "name": "zac",
            "is_restricted": false,
            "is_ultra_restricted": false
        },
        "blocks": [
            {
                "type": "rich_text",
                "block_id": "+9WR",
                "elements": [
                    {
                        "type": "rich_text_section",
                        "elements": [
                            {
                                "type": "text",
                                "text": "From next strain it looks like based on the data so far we are seeing a rate of ~30 nucleotide substitutions per year.  "
                            },
                            {
                                "type": "link",
                                "url": "https:\/\/nextstrain.org\/ncov?c=country&l=clock"
                            }
                        ]
                    }
                ]
            }
        ]
    },
    {
        "client_msg_id": "0d966d94-29e8-4501-b81f-c6f01124bbad",
        "type": "message",
        "text": "If you look at the frequency chart, its also somewhat spikey",
        "user": "U0100EPL9RT",
        "ts": "1584570335.019700",
        "team": "TUU48M0T1",
        "user_team": "TUU48M0T1",
        "source_team": "TUU48M0T1",
        "user_profile": {
            "avatar_hash": "gcb426d5e001",
            "image_72": "https:\/\/secure.gravatar.com\/avatar\/cb426d5e001776a4cbc74343e46f1916.jpg?s=72&d=https%3A%2F%2Fa.slack-edge.com%2Fdf10d%2Fimg%2Favatars%2Fava_0000-72.png",
            "first_name": "Zac",
            "real_name": "Zac",
            "display_name": "Zac",
            "team": "TUU48M0T1",
            "name": "zac",
            "is_restricted": false,
            "is_ultra_restricted": false
        },
        "blocks": [
            {
                "type": "rich_text",
                "block_id": "G4ft",
                "elements": [
                    {
                        "type": "rich_text_section",
                        "elements": [
                            {
                                "type": "text",
                                "text": "If you look at the frequency chart, its also somewhat spikey"
                            }
                        ]
                    }
                ]
            }
        ]
    },
    {
        "client_msg_id": "f2aef01a-d12c-416c-8fb7-c9e0fbf791b4",
        "type": "message",
        "text": "If we assume random mutation across the viral genome, and assume somewhere between 20-60 bp of specificity is required for any given set of primers\/gRNA to accurately detect the virus, there’s a (1-(20 to 60)\/30,000)^30 = 94-98% chance that a test for one strain will still work on an evolved virus strain in a year. And those numbers should improve if the primers are designed to bind to more highly conserved regions of the viral genome",
        "user": "UUNGFHSV8",
        "ts": "1584570982.023900",
        "team": "TUU48M0T1",
        "user_team": "TUU48M0T1",
        "source_team": "TUU48M0T1",
        "user_profile": {
            "avatar_hash": "1c55ee32397a",
            "image_72": "https:\/\/avatars.slack-edge.com\/2020-03-07\/987349161984_1c55ee32397a85a87ec4_72.png",
            "first_name": "Isaac",
            "real_name": "Isaac Larkin",
            "display_name": "Isaac Larkin",
            "team": "TUU48M0T1",
            "name": "eyesmo",
            "is_restricted": false,
            "is_ultra_restricted": false
        },
        "edited": {
            "user": "UUNGFHSV8",
            "ts": "1584571164.000000"
        },
        "blocks": [
            {
                "type": "rich_text",
                "block_id": "95O",
                "elements": [
                    {
                        "type": "rich_text_section",
                        "elements": [
                            {
                                "type": "text",
                                "text": "If we assume random mutation across the viral genome, and assume somewhere between 20-60 bp of specificity is required for any given set of primers\/gRNA to accurately detect the virus, there’s a (1-(20 to 60)\/30,000)^30 = 94-98% chance that a test for one strain will still work on an evolved virus strain in a year. And those numbers should improve if the primers are designed to bind to more highly conserved regions of the viral genome"
                            }
                        ]
                    }
                ]
            }
        ]
    },
    {
        "client_msg_id": "3d7b1938-0171-4f40-a1c4-58bb048c4c90",
        "type": "message",
        "text": "Agreed.  If you look at the S gene (spike) it's got some super conserved targets (compared to SARS-CoV-1). I'll try to find the paper.",
        "user": "U0100EPL9RT",
        "ts": "1584571480.025200",
        "team": "TUU48M0T1",
        "user_team": "TUU48M0T1",
        "source_team": "TUU48M0T1",
        "user_profile": {
            "avatar_hash": "gcb426d5e001",
            "image_72": "https:\/\/secure.gravatar.com\/avatar\/cb426d5e001776a4cbc74343e46f1916.jpg?s=72&d=https%3A%2F%2Fa.slack-edge.com%2Fdf10d%2Fimg%2Favatars%2Fava_0000-72.png",
            "first_name": "Zac",
            "real_name": "Zac",
            "display_name": "Zac",
            "team": "TUU48M0T1",
            "name": "zac",
            "is_restricted": false,
            "is_ultra_restricted": false
        },
        "blocks": [
            {
                "type": "rich_text",
                "block_id": "StK",
                "elements": [
                    {
                        "type": "rich_text_section",
                        "elements": [
                            {
                                "type": "text",
                                "text": "Agreed.  If you look at the S gene (spike) it's got some super conserved targets (compared to SARS-CoV-1). I'll try to find the paper."
                            }
                        ]
                    }
                ]
            }
        ]
    },
    {
        "type": "message",
        "subtype": "channel_join",
        "ts": "1584573746.025400",
        "user": "UV143JZD3",
        "text": "<@UV143JZD3> has joined the channel"
    },
    {
        "type": "message",
        "subtype": "channel_join",
        "ts": "1584577950.025600",
        "user": "UVDM3SQ3A",
        "text": "<@UVDM3SQ3A> has joined the channel"
    },
    {
        "type": "message",
        "subtype": "channel_join",
        "ts": "1584584283.025800",
        "user": "UV20M5HGQ",
        "text": "<@UV20M5HGQ> has joined the channel"
    }
]