[
    {
        "client_msg_id": "9f4dfa60-b16f-440b-9ae8-4f8130f85bec",
        "type": "message",
        "text": "Hey there :slightly_smiling_face:\nDo you have an update you’d like to share during the global community call?\nIf yes, please put your name in this document: <https:\/\/docs.google.com\/document\/d\/1H0v-5KD1eATfnkD1U_XnoxfCT-BLIKl7sD3-tL1lmMQ\/edit>",
        "user": "UV02WET96",
        "ts": "1585756228.006100",
        "team": "TUU48M0T1",
        "user_team": "TUU48M0T1",
        "source_team": "TUU48M0T1",
        "user_profile": {
            "avatar_hash": "a99c74a194f8",
            "image_72": "https:\/\/avatars.slack-edge.com\/2020-03-07\/975708504851_a99c74a194f86715ca7d_72.png",
            "first_name": "Thomas",
            "real_name": "Thomas Landrain",
            "display_name": "Thomas Landrain - JOGL CoFounder \/ CEO",
            "team": "TUU48M0T1",
            "name": "thomas",
            "is_restricted": false,
            "is_ultra_restricted": false
        },
        "blocks": [
            {
                "type": "rich_text",
                "block_id": "WwpMA",
                "elements": [
                    {
                        "type": "rich_text_section",
                        "elements": [
                            {
                                "type": "text",
                                "text": "Hey there "
                            },
                            {
                                "type": "emoji",
                                "name": "slightly_smiling_face"
                            },
                            {
                                "type": "text",
                                "text": "\nDo you have an update you’d like to share during the global community call?\nIf yes, please put your name in this document: "
                            },
                            {
                                "type": "link",
                                "url": "https:\/\/docs.google.com\/document\/d\/1H0v-5KD1eATfnkD1U_XnoxfCT-BLIKl7sD3-tL1lmMQ\/edit"
                            }
                        ]
                    }
                ]
            }
        ]
    },
    {
        "client_msg_id": "58699953-7c17-4133-8615-e2e516f0102f",
        "type": "message",
        "text": "Yep added to document!",
        "user": "UV4Q15S5Q",
        "ts": "1585758003.006400",
        "team": "TUU48M0T1",
        "user_team": "TUU48M0T1",
        "source_team": "TUU48M0T1",
        "user_profile": {
            "avatar_hash": "gdbd3cc24b09",
            "image_72": "https:\/\/secure.gravatar.com\/avatar\/dbd3cc24b092b17d53c09de6bab7969c.jpg?s=72&d=https%3A%2F%2Fa.slack-edge.com%2Fdf10d%2Fimg%2Favatars%2Fava_0012-72.png",
            "first_name": "",
            "real_name": "Keoni Gandall",
            "display_name": "",
            "team": "TUU48M0T1",
            "name": "koeng101",
            "is_restricted": false,
            "is_ultra_restricted": false
        },
        "blocks": [
            {
                "type": "rich_text",
                "block_id": "Aco",
                "elements": [
                    {
                        "type": "rich_text_section",
                        "elements": [
                            {
                                "type": "text",
                                "text": "Yep added to document!"
                            }
                        ]
                    }
                ]
            }
        ],
        "reactions": [
            {
                "name": "+1",
                "users": [
                    "UV02WET96"
                ],
                "count": 1
            }
        ]
    },
    {
        "client_msg_id": "6db1b6b2-c49c-401a-a72f-46ed05c955c7",
        "type": "message",
        "text": "Do you have proteinase K in the library?? There used to be a spreadsheet on openbioeconomy with all the patent free enzymes, but I can't find it now..",
        "user": "UV7LUJG1Y",
        "ts": "1585761780.007800",
        "team": "TUU48M0T1",
        "user_team": "TUU48M0T1",
        "source_team": "TUU48M0T1",
        "user_profile": {
            "avatar_hash": "048307b17644",
            "image_72": "https:\/\/avatars.slack-edge.com\/2020-04-04\/1043242365313_048307b17644844abd87_72.jpg",
            "first_name": "",
            "real_name": "Guy Aidelberg",
            "display_name": "Guy Aidelberg",
            "team": "TUU48M0T1",
            "name": "guyaidelberg",
            "is_restricted": false,
            "is_ultra_restricted": false
        },
        "blocks": [
            {
                "type": "rich_text",
                "block_id": "wX6",
                "elements": [
                    {
                        "type": "rich_text_section",
                        "elements": [
                            {
                                "type": "text",
                                "text": "Do you have proteinase K in the library?? There used to be a spreadsheet on openbioeconomy with all the patent free enzymes, but I can't find it now.."
                            }
                        ]
                    }
                ]
            }
        ],
        "thread_ts": "1585761780.007800",
        "reply_count": 4,
        "reply_users_count": 2,
        "latest_reply": "1585766807.012600",
        "reply_users": [
            "U010QHBTBPY",
            "UV1V637PU"
        ],
        "replies": [
            {
                "user": "U010QHBTBPY",
                "ts": "1585764728.010700"
            },
            {
                "user": "U010QHBTBPY",
                "ts": "1585764848.011000"
            },
            {
                "user": "UV1V637PU",
                "ts": "1585766763.012400"
            },
            {
                "user": "UV1V637PU",
                "ts": "1585766807.012600"
            }
        ],
        "subscribed": false
    },
    {
        "client_msg_id": "13c5d893-e194-4a7a-9504-9fd80b0de782",
        "type": "message",
        "text": "This is the full list of genes in the first Open Enzyme Collection, curated and designed by <@UV1V637PU>’s group and synthesized through FreeGenes: <https:\/\/endylab.stanford.edu\/e\/distribution\/287d661f-05e3-4272-b545-cb1a4f2fc7f7>",
        "user": "U010QHBTBPY",
        "ts": "1585762766.009100",
        "team": "TUU48M0T1",
        "user_team": "TUU48M0T1",
        "source_team": "TUU48M0T1",
        "user_profile": {
            "avatar_hash": "g4e30c4af69a",
            "image_72": "https:\/\/secure.gravatar.com\/avatar\/4e30c4af69a6429e53cd9cce9da9f65c.jpg?s=72&d=https%3A%2F%2Fa.slack-edge.com%2Fdf10d%2Fimg%2Favatars%2Fava_0015-72.png",
            "first_name": "",
            "real_name": "osn_scott",
            "display_name": "osn_scott",
            "team": "TUU48M0T1",
            "name": "scott527",
            "is_restricted": false,
            "is_ultra_restricted": false
        },
        "attachments": [
            {
                "service_name": "EndyLab Node",
                "title": "EndyLab: Node for opensource genomics",
                "title_link": "https:\/\/endylab.stanford.edu\/e\/distribution\/287d661f-05e3-4272-b545-cb1a4f2fc7f7",
                "text": "EndyLab Node",
                "fallback": "EndyLab Node: EndyLab: Node for opensource genomics",
                "from_url": "https:\/\/endylab.stanford.edu\/e\/distribution\/287d661f-05e3-4272-b545-cb1a4f2fc7f7",
                "thumb_url": "https:\/\/endylab.stanford.edu\/static\/img\/logo\/logo.png",
                "thumb_width": 45,
                "thumb_height": 45,
                "service_icon": "https:\/\/endylab.stanford.edu\/static\/img\/favicon.ico",
                "id": 1,
                "original_url": "https:\/\/endylab.stanford.edu\/e\/distribution\/287d661f-05e3-4272-b545-cb1a4f2fc7f7"
            }
        ],
        "blocks": [
            {
                "type": "rich_text",
                "block_id": "s=h4x",
                "elements": [
                    {
                        "type": "rich_text_section",
                        "elements": [
                            {
                                "type": "text",
                                "text": "This is the full list of genes in the first Open Enzyme Collection, curated and designed by "
                            },
                            {
                                "type": "user",
                                "user_id": "UV1V637PU"
                            },
                            {
                                "type": "text",
                                "text": "’s group and synthesized through FreeGenes: "
                            },
                            {
                                "type": "link",
                                "url": "https:\/\/endylab.stanford.edu\/e\/distribution\/287d661f-05e3-4272-b545-cb1a4f2fc7f7"
                            }
                        ]
                    }
                ]
            }
        ]
    },
    {
        "client_msg_id": "07e66131-bc67-4826-9fb7-cd2f5ca70e08",
        "type": "message",
        "text": "42 Enzymes in total.",
        "user": "U010QHBTBPY",
        "ts": "1585762790.009500",
        "team": "TUU48M0T1",
        "user_team": "TUU48M0T1",
        "source_team": "TUU48M0T1",
        "user_profile": {
            "avatar_hash": "g4e30c4af69a",
            "image_72": "https:\/\/secure.gravatar.com\/avatar\/4e30c4af69a6429e53cd9cce9da9f65c.jpg?s=72&d=https%3A%2F%2Fa.slack-edge.com%2Fdf10d%2Fimg%2Favatars%2Fava_0015-72.png",
            "first_name": "",
            "real_name": "osn_scott",
            "display_name": "osn_scott",
            "team": "TUU48M0T1",
            "name": "scott527",
            "is_restricted": false,
            "is_ultra_restricted": false
        },
        "blocks": [
            {
                "type": "rich_text",
                "block_id": "7oAnN",
                "elements": [
                    {
                        "type": "rich_text_section",
                        "elements": [
                            {
                                "type": "text",
                                "text": "42 Enzymes in total."
                            }
                        ]
                    }
                ]
            }
        ]
    },
    {
        "client_msg_id": "98e40a9c-ce7d-4b1b-9195-3021e8e2ce02",
        "type": "message",
        "text": "These genes are all IP free.",
        "user": "U010QHBTBPY",
        "ts": "1585762834.009900",
        "team": "TUU48M0T1",
        "user_team": "TUU48M0T1",
        "source_team": "TUU48M0T1",
        "user_profile": {
            "avatar_hash": "g4e30c4af69a",
            "image_72": "https:\/\/secure.gravatar.com\/avatar\/4e30c4af69a6429e53cd9cce9da9f65c.jpg?s=72&d=https%3A%2F%2Fa.slack-edge.com%2Fdf10d%2Fimg%2Favatars%2Fava_0015-72.png",
            "first_name": "",
            "real_name": "osn_scott",
            "display_name": "osn_scott",
            "team": "TUU48M0T1",
            "name": "scott527",
            "is_restricted": false,
            "is_ultra_restricted": false
        },
        "blocks": [
            {
                "type": "rich_text",
                "block_id": "vjXI",
                "elements": [
                    {
                        "type": "rich_text_section",
                        "elements": [
                            {
                                "type": "text",
                                "text": "These genes are all IP free."
                            }
                        ]
                    }
                ]
            }
        ]
    },
    {
        "client_msg_id": "20E6D40A-D125-4AAD-99FF-A41C70CB05F0",
        "type": "message",
        "text": "<https:\/\/forms.gle\/rD4Qu9gM3djtUSQF6|https:\/\/forms.gle\/rD4Qu9gM3djtUSQF6> also fill out form if you’re interested in materials!",
        "user": "UV4Q15S5Q",
        "ts": "1585762873.010400",
        "team": "TUU48M0T1",
        "user_team": "TUU48M0T1",
        "source_team": "TUU48M0T1",
        "user_profile": {
            "avatar_hash": "gdbd3cc24b09",
            "image_72": "https:\/\/secure.gravatar.com\/avatar\/dbd3cc24b092b17d53c09de6bab7969c.jpg?s=72&d=https%3A%2F%2Fa.slack-edge.com%2Fdf10d%2Fimg%2Favatars%2Fava_0012-72.png",
            "first_name": "",
            "real_name": "Keoni Gandall",
            "display_name": "",
            "team": "TUU48M0T1",
            "name": "koeng101",
            "is_restricted": false,
            "is_ultra_restricted": false
        },
        "attachments": [
            {
                "service_name": "Google Docs",
                "title": "FreeGenes SARS-CoV-2 Distribution",
                "title_link": "https:\/\/forms.gle\/rD4Qu9gM3djtUSQF6",
                "text": "We want to distribute DNA to help research possible SARS-CoV-2 cures and to enable local production of diagnostic test materials. We need your help to get this material to as many people as possible. Make genes free, make FreeGenes.",
                "fallback": "Google Docs: FreeGenes SARS-CoV-2 Distribution",
                "image_url": "https:\/\/lh3.googleusercontent.com\/4oRdSlE3_KM0gQqKvFoBlx8Al78HDvei2DIny_-BJFrEI8DiK9vgTcWQx9SCRvPXklq1ETI",
                "image_width": 333,
                "image_height": 250,
                "from_url": "https:\/\/forms.gle\/rD4Qu9gM3djtUSQF6",
                "image_bytes": 113414,
                "service_icon": "http:\/\/ssl.gstatic.com\/docs\/forms\/device_home\/ios_120.png",
                "id": 1,
                "original_url": "https:\/\/forms.gle\/rD4Qu9gM3djtUSQF6"
            }
        ],
        "blocks": [
            {
                "type": "rich_text",
                "block_id": "Zsv",
                "elements": [
                    {
                        "type": "rich_text_section",
                        "elements": [
                            {
                                "type": "link",
                                "url": "https:\/\/forms.gle\/rD4Qu9gM3djtUSQF6",
                                "text": "https:\/\/forms.gle\/rD4Qu9gM3djtUSQF6"
                            },
                            {
                                "type": "text",
                                "text": " also fill out form if you’re interested in materials!"
                            }
                        ]
                    }
                ]
            }
        ],
        "reactions": [
            {
                "name": "free",
                "users": [
                    "UV78JAX0S",
                    "UV7LUJG1Y",
                    "U010QHBTBPY",
                    "UV10KBUQG",
                    "U010D014546"
                ],
                "count": 5
            }
        ]
    },
    {
        "client_msg_id": "1ee39f6a-b1b2-4efa-b981-53cc4527f355",
        "type": "message",
        "text": "Guy, the patent for Proteinase K expired in 2016 (<https:\/\/patents.google.com\/patent\/US5962765A\/en>). This would be a good gene for inclusion in the next Open Enzyme Collection. What species for codon optimization would you prefer? Pinging <@UV1V637PU>. I’ll also crosspost in the FreeGenes discord.",
        "user": "U010QHBTBPY",
        "ts": "1585764728.010700",
        "team": "TUU48M0T1",
        "user_team": "TUU48M0T1",
        "source_team": "TUU48M0T1",
        "user_profile": {
            "avatar_hash": "g4e30c4af69a",
            "image_72": "https:\/\/secure.gravatar.com\/avatar\/4e30c4af69a6429e53cd9cce9da9f65c.jpg?s=72&d=https%3A%2F%2Fa.slack-edge.com%2Fdf10d%2Fimg%2Favatars%2Fava_0015-72.png",
            "first_name": "",
            "real_name": "osn_scott",
            "display_name": "osn_scott",
            "team": "TUU48M0T1",
            "name": "scott527",
            "is_restricted": false,
            "is_ultra_restricted": false
        },
        "attachments": [
            {
                "title": "US5962765A - Molecular cloning of a complimentary DNA sequence encoding a cuticle degrading protease produced by entomopathogenic fungi          - Google Patents",
                "title_link": "https:\/\/patents.google.com\/patent\/US5962765A\/en",
                "text": "We have studied the regulation of the extracellular chymoelastase protease (Pr1) of Metarhizium anisopliae, an enzyme involved in the penetration of insect cuticle by Metarhizium and other entomopathogenic fungi. We report here the isolation and characterization of a Pr1 cDNA clone with a full length insert. Pr1 is synthesized as a large precursor (40.3 kDa) containing a signal peptide and a propeptide and the mature protein is predicted to have a relative molecular mass of 28.6 kDa. The primary structure of Pr1 shares extensive homology (30-60%) with enzymes of the subtilisin subclass of the serine endopeptidases and the serine, histidine and aspartyl components of the active site in subtilisins are preserved. The genes coding for chymoelastase or slightly altered versions thereof, can be used to transform various organisms (i.e. fungi, viruses, plants, bacteria, etc.) such that the transformed organisms are capable of producing chymoelastase in recoverable quantities. Fragments and derviatives of a DNA sequence coding for a chymoelastase could be used to code for a polypeptide having an activity which can: a) bind to insect cuticle; b) enhance signal processing of proteins; c) hydrolyse polypepetides; d) suppress protease expression; or e) be used as a probe to identify homologous genes in organisms. While chymoelastases and Pr1 have been previously isolated, new and novel uses for chymoelastase are disclosed, wherein the chymoelastase is used to selectively degrade protein in the presence of non-protein polymers. A new insecticide insecticide is disclosed which comprises a recombinant virus, microorganism, cell, plant or fungi infects, is eaten by or otherwise taken up by, an insect and expresses the enzyme Pr1 within said insect such that Pr1 activates a prophenoloxidase system within said insect.",
                "fallback": "US5962765A - Molecular cloning of a complimentary DNA sequence encoding a cuticle degrading protease produced by entomopathogenic fungi          - Google Patents",
                "from_url": "https:\/\/patents.google.com\/patent\/US5962765A\/en",
                "service_icon": "https:\/\/patents.google.com\/favicon.ico",
                "service_name": "patents.google.com",
                "id": 1,
                "original_url": "https:\/\/patents.google.com\/patent\/US5962765A\/en"
            }
        ],
        "blocks": [
            {
                "type": "rich_text",
                "block_id": "GDHW",
                "elements": [
                    {
                        "type": "rich_text_section",
                        "elements": [
                            {
                                "type": "text",
                                "text": "Guy, the patent for Proteinase K expired in 2016 ("
                            },
                            {
                                "type": "link",
                                "url": "https:\/\/patents.google.com\/patent\/US5962765A\/en"
                            },
                            {
                                "type": "text",
                                "text": "). This would be a good gene for inclusion in the next Open Enzyme Collection. What species for codon optimization would you prefer? Pinging "
                            },
                            {
                                "type": "user",
                                "user_id": "UV1V637PU"
                            },
                            {
                                "type": "text",
                                "text": ". I’ll also crosspost in the FreeGenes discord."
                            }
                        ]
                    }
                ]
            }
        ],
        "thread_ts": "1585761780.007800",
        "parent_user_id": "UV7LUJG1Y"
    },
    {
        "client_msg_id": "a956cfd7-8ab1-43d0-b9c4-531ca250bacc",
        "type": "message",
        "text": "Here is the protein sequence: <https:\/\/www.uniprot.org\/uniprot\/P06873>",
        "user": "U010QHBTBPY",
        "ts": "1585764848.011000",
        "team": "TUU48M0T1",
        "user_team": "TUU48M0T1",
        "source_team": "TUU48M0T1",
        "user_profile": {
            "avatar_hash": "g4e30c4af69a",
            "image_72": "https:\/\/secure.gravatar.com\/avatar\/4e30c4af69a6429e53cd9cce9da9f65c.jpg?s=72&d=https%3A%2F%2Fa.slack-edge.com%2Fdf10d%2Fimg%2Favatars%2Fava_0015-72.png",
            "first_name": "",
            "real_name": "osn_scott",
            "display_name": "osn_scott",
            "team": "TUU48M0T1",
            "name": "scott527",
            "is_restricted": false,
            "is_ultra_restricted": false
        },
        "attachments": [
            {
                "title": "PROK - Proteinase K precursor - Parengyodontium album - PROK gene &amp; protein",
                "title_link": "https:\/\/www.uniprot.org\/uniprot\/P06873",
                "text": "Hydrolyzes keratin at aromatic and hydrophobic residues.",
                "fallback": "PROK - Proteinase K precursor - Parengyodontium album - PROK gene &amp; protein",
                "from_url": "https:\/\/www.uniprot.org\/uniprot\/P06873",
                "service_icon": "https:\/\/www.uniprot.org\/favicon.ico",
                "service_name": "uniprot.org",
                "id": 1,
                "original_url": "https:\/\/www.uniprot.org\/uniprot\/P06873"
            }
        ],
        "blocks": [
            {
                "type": "rich_text",
                "block_id": "ie1h",
                "elements": [
                    {
                        "type": "rich_text_section",
                        "elements": [
                            {
                                "type": "text",
                                "text": "Here is the protein sequence: "
                            },
                            {
                                "type": "link",
                                "url": "https:\/\/www.uniprot.org\/uniprot\/P06873"
                            }
                        ]
                    }
                ]
            }
        ],
        "thread_ts": "1585761780.007800",
        "parent_user_id": "UV7LUJG1Y"
    },
    {
        "client_msg_id": "8585aea7-bde2-47e4-ac2e-eb5ceeb46f14",
        "type": "message",
        "text": "<@UV7LUJG1Y> Here is the library of sequences, so far we have 84 enzymes and 45 reporters but 42 have been synthesised so far with Free Genes, the rest are heading through the pipeline  <https:\/\/openbioeconomy.org\/projects\/open-enzyme-collections\/>",
        "user": "UV1V637PU",
        "ts": "1585766691.012300",
        "team": "TUU48M0T1",
        "user_team": "TUU48M0T1",
        "source_team": "TUU48M0T1",
        "user_profile": {
            "avatar_hash": "ee709c1ddf53",
            "image_72": "https:\/\/avatars.slack-edge.com\/2020-03-16\/990321352259_ee709c1ddf5354d38023_72.png",
            "first_name": "Jenny",
            "real_name": "Jenny Molloy",
            "display_name": "Jenny",
            "team": "TUU48M0T1",
            "name": "jcm80",
            "is_restricted": false,
            "is_ultra_restricted": false
        },
        "blocks": [
            {
                "type": "rich_text",
                "block_id": "mWyA",
                "elements": [
                    {
                        "type": "rich_text_section",
                        "elements": [
                            {
                                "type": "user",
                                "user_id": "UV7LUJG1Y"
                            },
                            {
                                "type": "text",
                                "text": " Here is the library of sequences, so far we have 84 enzymes and 45 reporters but 42 have been synthesised so far with Free Genes, the rest are heading through the pipeline  "
                            },
                            {
                                "type": "link",
                                "url": "https:\/\/openbioeconomy.org\/projects\/open-enzyme-collections\/"
                            }
                        ]
                    }
                ]
            }
        ],
        "reactions": [
            {
                "name": "100",
                "users": [
                    "U010QHBTBPY",
                    "UV02WET96",
                    "UV7LUJG1Y",
                    "U011CQ8C9GU",
                    "UV10KBUQG",
                    "UUNGFHSV8",
                    "UV2SC7ZE3"
                ],
                "count": 7
            },
            {
                "name": "star-struck",
                "users": [
                    "U011B5424FR"
                ],
                "count": 1
            }
        ]
    },
    {
        "client_msg_id": "211e1899-203d-4e34-a758-9c4e2701d342",
        "type": "message",
        "text": "We were going to add it but it is apparently very hard to express in E coli and we were focused on that host for now! We have a Submit an Enzyme button on the page which gets requests into our pipeline if you'd be willing to add the info! <https:\/\/openbioeconomy.org\/projects\/open-enzyme-collections\/>",
        "user": "UV1V637PU",
        "ts": "1585766763.012400",
        "team": "TUU48M0T1",
        "user_team": "TUU48M0T1",
        "source_team": "TUU48M0T1",
        "user_profile": {
            "avatar_hash": "ee709c1ddf53",
            "image_72": "https:\/\/avatars.slack-edge.com\/2020-03-16\/990321352259_ee709c1ddf5354d38023_72.png",
            "first_name": "Jenny",
            "real_name": "Jenny Molloy",
            "display_name": "Jenny",
            "team": "TUU48M0T1",
            "name": "jcm80",
            "is_restricted": false,
            "is_ultra_restricted": false
        },
        "blocks": [
            {
                "type": "rich_text",
                "block_id": "\/rGkZ",
                "elements": [
                    {
                        "type": "rich_text_section",
                        "elements": [
                            {
                                "type": "text",
                                "text": "We were going to add it but it is apparently very hard to express in E coli and we were focused on that host for now! We have a Submit an Enzyme button on the page which gets requests into our pipeline if you'd be willing to add the info! "
                            },
                            {
                                "type": "link",
                                "url": "https:\/\/openbioeconomy.org\/projects\/open-enzyme-collections\/"
                            }
                        ]
                    }
                ]
            }
        ],
        "thread_ts": "1585761780.007800",
        "parent_user_id": "UV7LUJG1Y"
    },
    {
        "client_msg_id": "be497980-1798-4afe-bb30-e397dd2d626e",
        "type": "message",
        "text": "Here are the submissions (not many, we only recently added the button!) <https:\/\/trello.com\/b\/vCSmhs25\/open-enzyme-submissions>",
        "user": "UV1V637PU",
        "ts": "1585766807.012600",
        "team": "TUU48M0T1",
        "user_team": "TUU48M0T1",
        "source_team": "TUU48M0T1",
        "user_profile": {
            "avatar_hash": "ee709c1ddf53",
            "image_72": "https:\/\/avatars.slack-edge.com\/2020-03-16\/990321352259_ee709c1ddf5354d38023_72.png",
            "first_name": "Jenny",
            "real_name": "Jenny Molloy",
            "display_name": "Jenny",
            "team": "TUU48M0T1",
            "name": "jcm80",
            "is_restricted": false,
            "is_ultra_restricted": false
        },
        "attachments": [
            {
                "service_name": "Trello",
                "title": "Open Enzyme Submissions",
                "title_link": "https:\/\/trello.com\/b\/vCSmhs25\/open-enzyme-submissions",
                "text": "Trello is the visual collaboration platform that gives teams perspective on projects. Use Trello to collaborate, communicate and coordinate on all of your projects.",
                "fallback": "Trello: Open Enzyme Submissions",
                "thumb_url": "https:\/\/s3.amazonaws.com\/trello\/images\/og\/trello-icon.png?v=2013-08-15",
                "from_url": "https:\/\/trello.com\/b\/vCSmhs25\/open-enzyme-submissions",
                "thumb_width": 200,
                "thumb_height": 200,
                "service_icon": "https:\/\/trello.com\/favicon.ico",
                "id": 1,
                "original_url": "https:\/\/trello.com\/b\/vCSmhs25\/open-enzyme-submissions"
            }
        ],
        "blocks": [
            {
                "type": "rich_text",
                "block_id": "lpWzP",
                "elements": [
                    {
                        "type": "rich_text_section",
                        "elements": [
                            {
                                "type": "text",
                                "text": "Here are the submissions (not many, we only recently added the button!) "
                            },
                            {
                                "type": "link",
                                "url": "https:\/\/trello.com\/b\/vCSmhs25\/open-enzyme-submissions"
                            }
                        ]
                    }
                ]
            }
        ],
        "thread_ts": "1585761780.007800",
        "parent_user_id": "UV7LUJG1Y"
    }
]