[
    {
        "type": "message",
        "text": "<!channel> here's the <https:\/\/docs.google.com\/document\/d\/1BL_l2pp2MEUHVd7rugBZDm8c97OLi6yu8itDNTWLyTE\/edit#|agenda> and <https:\/\/zoom.us\/j\/7804345815|zoom link> for the call today at 6PM CET, feel free to add any items to the agenda that i might've missed",
        "files": [
            {
                "id": "F0104H4MZQA",
                "created": 1584862353,
                "timestamp": 1584862353,
                "name": "2020-03-22 Biosafety Townhall (6PM CET)",
                "title": "2020-03-22 Biosafety Townhall (6PM CET)",
                "mimetype": "application\/vnd.google-apps.document",
                "filetype": "gdoc",
                "pretty_type": "GSuite Document",
                "user": "UV0QTJCMT",
                "editable": false,
                "size": 965,
                "mode": "external",
                "is_external": true,
                "external_type": "gdrive",
                "is_public": true,
                "public_url_shared": false,
                "display_as_bot": false,
                "username": "",
                "url_private": "https:\/\/docs.google.com\/document\/d\/1BL_l2pp2MEUHVd7rugBZDm8c97OLi6yu8itDNTWLyTE\/edit#",
                "thumb_64": "https:\/\/files.slack.com\/files-tmb\/TUU48M0T1-F0104H4MZQA-2757765efa\/2020-03-22_biosafety_townhall__6pm_cet__64.png?t=xoxe-980144714919-1133254701825-1120841107731-daf595b5a7d6c9028b0b02a925032e36",
                "thumb_80": "https:\/\/files.slack.com\/files-tmb\/TUU48M0T1-F0104H4MZQA-2757765efa\/2020-03-22_biosafety_townhall__6pm_cet__80.png?t=xoxe-980144714919-1133254701825-1120841107731-daf595b5a7d6c9028b0b02a925032e36",
                "thumb_360": "https:\/\/files.slack.com\/files-tmb\/TUU48M0T1-F0104H4MZQA-2757765efa\/2020-03-22_biosafety_townhall__6pm_cet__360.png?t=xoxe-980144714919-1133254701825-1120841107731-daf595b5a7d6c9028b0b02a925032e36",
                "thumb_360_w": 278,
                "thumb_360_h": 360,
                "thumb_480": "https:\/\/files.slack.com\/files-tmb\/TUU48M0T1-F0104H4MZQA-2757765efa\/2020-03-22_biosafety_townhall__6pm_cet__480.png?t=xoxe-980144714919-1133254701825-1120841107731-daf595b5a7d6c9028b0b02a925032e36",
                "thumb_480_w": 371,
                "thumb_480_h": 480,
                "thumb_160": "https:\/\/files.slack.com\/files-tmb\/TUU48M0T1-F0104H4MZQA-2757765efa\/2020-03-22_biosafety_townhall__6pm_cet__160.png?t=xoxe-980144714919-1133254701825-1120841107731-daf595b5a7d6c9028b0b02a925032e36",
                "thumb_720": "https:\/\/files.slack.com\/files-tmb\/TUU48M0T1-F0104H4MZQA-2757765efa\/2020-03-22_biosafety_townhall__6pm_cet__720.png?t=xoxe-980144714919-1133254701825-1120841107731-daf595b5a7d6c9028b0b02a925032e36",
                "thumb_720_w": 557,
                "thumb_720_h": 720,
                "thumb_800": "https:\/\/files.slack.com\/files-tmb\/TUU48M0T1-F0104H4MZQA-2757765efa\/2020-03-22_biosafety_townhall__6pm_cet__800.png?t=xoxe-980144714919-1133254701825-1120841107731-daf595b5a7d6c9028b0b02a925032e36",
                "thumb_800_w": 800,
                "thumb_800_h": 1035,
                "thumb_960": "https:\/\/files.slack.com\/files-tmb\/TUU48M0T1-F0104H4MZQA-2757765efa\/2020-03-22_biosafety_townhall__6pm_cet__960.png?t=xoxe-980144714919-1133254701825-1120841107731-daf595b5a7d6c9028b0b02a925032e36",
                "thumb_960_w": 742,
                "thumb_960_h": 960,
                "thumb_1024": "https:\/\/files.slack.com\/files-tmb\/TUU48M0T1-F0104H4MZQA-2757765efa\/2020-03-22_biosafety_townhall__6pm_cet__1024.png?t=xoxe-980144714919-1133254701825-1120841107731-daf595b5a7d6c9028b0b02a925032e36",
                "thumb_1024_w": 791,
                "thumb_1024_h": 1024,
                "image_exif_rotation": 1,
                "original_w": 800,
                "original_h": 1035,
                "thumb_tiny": "AwAwACXTJA6mml+emfxpW6Um4elABu\/2TSg57Ypc0UAFFFFAAelR\/lUlN2D3oAT8AaUCl2ijAoAWiiigAooooAKKKKACiiigD\/\/Z",
                "permalink": "https:\/\/open-covid19.slack.com\/files\/UV0QTJCMT\/F0104H4MZQA\/2020-03-22_biosafety_townhall__6pm_cet_",
                "is_starred": false,
                "external_id": "1BL_l2pp2MEUHVd7rugBZDm8c97OLi6yu8itDNTWLyTE",
                "external_url": "https:\/\/docs.google.com\/document\/d\/1BL_l2pp2MEUHVd7rugBZDm8c97OLi6yu8itDNTWLyTE\/edit#",
                "has_rich_preview": true
            }
        ],
        "upload": false,
        "blocks": [
            {
                "type": "rich_text",
                "block_id": "TtE",
                "elements": [
                    {
                        "type": "rich_text_section",
                        "elements": [
                            {
                                "type": "broadcast",
                                "range": "channel"
                            },
                            {
                                "type": "text",
                                "text": " here's the "
                            },
                            {
                                "type": "link",
                                "url": "https:\/\/docs.google.com\/document\/d\/1BL_l2pp2MEUHVd7rugBZDm8c97OLi6yu8itDNTWLyTE\/edit#",
                                "text": "agenda"
                            },
                            {
                                "type": "text",
                                "text": " and "
                            },
                            {
                                "type": "link",
                                "url": "https:\/\/zoom.us\/j\/7804345815",
                                "text": "zoom link"
                            },
                            {
                                "type": "text",
                                "text": " for the call today at 6PM CET, feel free to add any items to the agenda that i might've missed"
                            }
                        ]
                    }
                ]
            }
        ],
        "user": "UV0QTJCMT",
        "display_as_bot": false,
        "x_files": [
            "F0104H4MZQA"
        ],
        "ts": "1584862351.200100",
        "client_msg_id": "7ea6de75-788e-4ad5-b65a-3494f8b5c65b",
        "reactions": [
            {
                "name": "+1",
                "users": [
                    "UV02WET96",
                    "UV10KBUQG"
                ],
                "count": 2
            }
        ]
    },
    {
        "client_msg_id": "d2fa75d8-5788-4099-b79d-cb292323ba95",
        "type": "message",
        "text": "Happy to join the call, apologies for being out of touch, I just got back from Ethiopia yesterday and had even less time that I anticipated while I was there.",
        "user": "UV1V637PU",
        "ts": "1584868495.201000",
        "team": "TUU48M0T1",
        "user_team": "TUU48M0T1",
        "source_team": "TUU48M0T1",
        "user_profile": {
            "avatar_hash": "ee709c1ddf53",
            "image_72": "https:\/\/avatars.slack-edge.com\/2020-03-16\/990321352259_ee709c1ddf5354d38023_72.png",
            "first_name": "Jenny",
            "real_name": "Jenny Molloy",
            "display_name": "Jenny",
            "team": "TUU48M0T1",
            "name": "jcm80",
            "is_restricted": false,
            "is_ultra_restricted": false
        },
        "blocks": [
            {
                "type": "rich_text",
                "block_id": "t7Z",
                "elements": [
                    {
                        "type": "rich_text_section",
                        "elements": [
                            {
                                "type": "text",
                                "text": "Happy to join the call, apologies for being out of touch, I just got back from Ethiopia yesterday and had even less time that I anticipated while I was there."
                            }
                        ]
                    }
                ]
            }
        ],
        "reactions": [
            {
                "name": "wave",
                "users": [
                    "UV02WET96",
                    "UV0QTJCMT",
                    "UV3URUKK5"
                ],
                "count": 3
            }
        ]
    },
    {
        "client_msg_id": "e35481f8-54a0-43af-831c-2e81f96283c1",
        "type": "message",
        "text": "earlier we pointed to a 'need for a cohesive, clear set of statements regarding the initiative and especially in regards to biosafety' - so, maybe one more item for the agenda (if not already done by comms group?) is to clarify the purpose(s) of the initiative overall, too...",
        "user": "UV1A22N3W",
        "ts": "1584886125.203400",
        "team": "TUU48M0T1",
        "user_team": "TUU48M0T1",
        "source_team": "TUU48M0T1",
        "user_profile": {
            "avatar_hash": "71f827776ad6",
            "image_72": "https:\/\/avatars.slack-edge.com\/2020-03-09\/988125642964_71f827776ad610af05a2_72.jpg",
            "first_name": "",
            "real_name": "RachelA",
            "display_name": "RachelA",
            "team": "TUU48M0T1",
            "name": "raronoff",
            "is_restricted": false,
            "is_ultra_restricted": false
        },
        "blocks": [
            {
                "type": "rich_text",
                "block_id": "ymEwA",
                "elements": [
                    {
                        "type": "rich_text_section",
                        "elements": [
                            {
                                "type": "text",
                                "text": "earlier we pointed to a 'need for a cohesive, clear set of statements regarding the initiative and especially in regards to biosafety' - so, maybe one more item for the agenda (if not already done by comms group?) is to clarify the purpose(s) of the initiative overall, too..."
                            }
                        ]
                    }
                ]
            }
        ],
        "reactions": [
            {
                "name": "+1",
                "users": [
                    "UV10KBUQG"
                ],
                "count": 1
            }
        ]
    },
    {
        "client_msg_id": "3240c688-d255-4f27-9677-896133c193f3",
        "type": "message",
        "text": "I also had a phonecall with Thomas yesterday and talked about how the board only advised so JOGL has to move forward on developing as internal vetting process for projects that get posted on the site",
        "user": "UUPQGNNTV",
        "ts": "1584886919.206100",
        "team": "TUU48M0T1",
        "user_team": "TUU48M0T1",
        "source_team": "TUU48M0T1",
        "user_profile": {
            "avatar_hash": "c28127caf7eb",
            "image_72": "https:\/\/avatars.slack-edge.com\/2020-03-07\/989562470694_c28127caf7ebfe67df97_72.jpg",
            "first_name": "",
            "real_name": "Ellen Jorgensen",
            "display_name": "",
            "team": "TUU48M0T1",
            "name": "ejorgensen",
            "is_restricted": false,
            "is_ultra_restricted": false
        },
        "blocks": [
            {
                "type": "rich_text",
                "block_id": "seS1c",
                "elements": [
                    {
                        "type": "rich_text_section",
                        "elements": [
                            {
                                "type": "text",
                                "text": "I also had a phonecall with Thomas yesterday and talked about how the board only advised so JOGL has to move forward on developing as internal vetting process for projects that get posted on the site"
                            }
                        ]
                    }
                ]
            }
        ]
    },
    {
        "client_msg_id": "D59E142B-FE48-456A-B018-8100B5248BF5",
        "type": "message",
        "text": "Hi all. I won’t be able to make the call today. Will there be a recording?",
        "user": "UV5CCJ9RC",
        "ts": "1584894483.206700",
        "team": "TUU48M0T1",
        "user_team": "TUU48M0T1",
        "source_team": "TUU48M0T1",
        "user_profile": {
            "avatar_hash": "2c79fe05f7e7",
            "image_72": "https:\/\/avatars.slack-edge.com\/2020-03-10\/992653932501_2c79fe05f7e75be19699_72.png",
            "first_name": "Chris",
            "real_name": "Chris Monaco",
            "display_name": "",
            "team": "TUU48M0T1",
            "name": "cmonaco.hr",
            "is_restricted": false,
            "is_ultra_restricted": false
        },
        "blocks": [
            {
                "type": "rich_text",
                "block_id": "NHGe",
                "elements": [
                    {
                        "type": "rich_text_section",
                        "elements": [
                            {
                                "type": "text",
                                "text": "Hi all. I won’t be able to make the call today. Will there be a recording?"
                            }
                        ]
                    }
                ]
            }
        ]
    },
    {
        "client_msg_id": "FE6AA751-045D-451B-9981-9F5ECC68C610",
        "type": "message",
        "text": "I’ll record the session <@UV5CCJ9RC> :+1:",
        "user": "UV02WET96",
        "ts": "1584894528.207200",
        "team": "TUU48M0T1",
        "user_team": "TUU48M0T1",
        "source_team": "TUU48M0T1",
        "user_profile": {
            "avatar_hash": "a99c74a194f8",
            "image_72": "https:\/\/avatars.slack-edge.com\/2020-03-07\/975708504851_a99c74a194f86715ca7d_72.png",
            "first_name": "Thomas",
            "real_name": "Thomas Landrain",
            "display_name": "Thomas Landrain - JOGL CoFounder \/ CEO",
            "team": "TUU48M0T1",
            "name": "thomas",
            "is_restricted": false,
            "is_ultra_restricted": false
        },
        "blocks": [
            {
                "type": "rich_text",
                "block_id": "1d=",
                "elements": [
                    {
                        "type": "rich_text_section",
                        "elements": [
                            {
                                "type": "text",
                                "text": "I’ll record the session "
                            },
                            {
                                "type": "user",
                                "user_id": "UV5CCJ9RC"
                            },
                            {
                                "type": "text",
                                "text": " "
                            },
                            {
                                "type": "emoji",
                                "name": "+1"
                            }
                        ]
                    }
                ]
            }
        ]
    },
    {
        "client_msg_id": "8289fc48-4fc1-40fb-b428-ebcbe091f559",
        "type": "message",
        "text": "*<!channel>* see you in 5min for our biosafety and biosecurity board call :slightly_smiling_face:\nLink to the zoom: <https:\/\/zoom.us\/j\/7804345815>",
        "user": "UV02WET96",
        "ts": "1584896205.207700",
        "team": "TUU48M0T1",
        "user_team": "TUU48M0T1",
        "source_team": "TUU48M0T1",
        "user_profile": {
            "avatar_hash": "a99c74a194f8",
            "image_72": "https:\/\/avatars.slack-edge.com\/2020-03-07\/975708504851_a99c74a194f86715ca7d_72.png",
            "first_name": "Thomas",
            "real_name": "Thomas Landrain",
            "display_name": "Thomas Landrain - JOGL CoFounder \/ CEO",
            "team": "TUU48M0T1",
            "name": "thomas",
            "is_restricted": false,
            "is_ultra_restricted": false
        },
        "blocks": [
            {
                "type": "rich_text",
                "block_id": "YuRJ",
                "elements": [
                    {
                        "type": "rich_text_section",
                        "elements": [
                            {
                                "type": "broadcast",
                                "range": "channel",
                                "style": {
                                    "bold": true
                                }
                            },
                            {
                                "type": "text",
                                "text": " see you in 5min for our biosafety and biosecurity board call "
                            },
                            {
                                "type": "emoji",
                                "name": "slightly_smiling_face"
                            },
                            {
                                "type": "text",
                                "text": "\nLink to the zoom: "
                            },
                            {
                                "type": "link",
                                "url": "https:\/\/zoom.us\/j\/7804345815"
                            }
                        ]
                    }
                ]
            }
        ]
    },
    {
        "client_msg_id": "11727c12-e055-45e0-a516-4e552e5a03df",
        "type": "message",
        "text": "link to the agenda: <https:\/\/docs.google.com\/document\/d\/1BL_l2pp2MEUHVd7rugBZDm8c97OLi6yu8itDNTWLyTE\/edit>",
        "user": "UV02WET96",
        "ts": "1584896279.207900",
        "team": "TUU48M0T1",
        "user_team": "TUU48M0T1",
        "source_team": "TUU48M0T1",
        "user_profile": {
            "avatar_hash": "a99c74a194f8",
            "image_72": "https:\/\/avatars.slack-edge.com\/2020-03-07\/975708504851_a99c74a194f86715ca7d_72.png",
            "first_name": "Thomas",
            "real_name": "Thomas Landrain",
            "display_name": "Thomas Landrain - JOGL CoFounder \/ CEO",
            "team": "TUU48M0T1",
            "name": "thomas",
            "is_restricted": false,
            "is_ultra_restricted": false
        },
        "blocks": [
            {
                "type": "rich_text",
                "block_id": "YYpO",
                "elements": [
                    {
                        "type": "rich_text_section",
                        "elements": [
                            {
                                "type": "text",
                                "text": "link to the agenda: "
                            },
                            {
                                "type": "link",
                                "url": "https:\/\/docs.google.com\/document\/d\/1BL_l2pp2MEUHVd7rugBZDm8c97OLi6yu8itDNTWLyTE\/edit"
                            }
                        ]
                    }
                ]
            }
        ]
    },
    {
        "client_msg_id": "d646afb1-5330-4771-834a-6b452f404154",
        "type": "message",
        "text": "I thought the call was at 6 pm CST, not 6 pm CET :disappointed:  I will watch the recorded session once it is posted.",
        "user": "UV10KBUQG",
        "ts": "1584903004.208500",
        "team": "TUU48M0T1",
        "user_team": "TUU48M0T1",
        "source_team": "TUU48M0T1",
        "user_profile": {
            "avatar_hash": "2deebbf6be3d",
            "image_72": "https:\/\/avatars.slack-edge.com\/2020-03-06\/976932190641_2deebbf6be3d17141d91_72.jpg",
            "first_name": "Sarah",
            "real_name": "Sarah Blossom Ware",
            "display_name": "Sarah Blossom Ware - BioBlaze Community Bio Lab",
            "team": "TUU48M0T1",
            "name": "ware.sarah",
            "is_restricted": false,
            "is_ultra_restricted": false
        },
        "edited": {
            "user": "UV10KBUQG",
            "ts": "1584903154.000000"
        },
        "blocks": [
            {
                "type": "rich_text",
                "block_id": "nptg",
                "elements": [
                    {
                        "type": "rich_text_section",
                        "elements": [
                            {
                                "type": "text",
                                "text": "I thought the call was at 6 pm CST, not 6 pm CET "
                            },
                            {
                                "type": "emoji",
                                "name": "disappointed"
                            },
                            {
                                "type": "text",
                                "text": "  I will watch the recorded session once it is posted."
                            }
                        ]
                    }
                ]
            }
        ],
        "reactions": [
            {
                "name": "+1",
                "users": [
                    "UV0QTJCMT"
                ],
                "count": 1
            }
        ]
    },
    {
        "client_msg_id": "cebd3ab4-de2b-44cc-807b-70ce16f718c7",
        "type": "message",
        "text": "Thanks again everyone for your very relevent feedbacks and for being so supportive to this initiative.\nHere is the link to the video: <https:\/\/we.tl\/t-YngS3yXZir>\nI didn’t put it on youtube, you have to download it.",
        "user": "UV02WET96",
        "ts": "1584908520.210800",
        "team": "TUU48M0T1",
        "user_team": "TUU48M0T1",
        "source_team": "TUU48M0T1",
        "user_profile": {
            "avatar_hash": "a99c74a194f8",
            "image_72": "https:\/\/avatars.slack-edge.com\/2020-03-07\/975708504851_a99c74a194f86715ca7d_72.png",
            "first_name": "Thomas",
            "real_name": "Thomas Landrain",
            "display_name": "Thomas Landrain - JOGL CoFounder \/ CEO",
            "team": "TUU48M0T1",
            "name": "thomas",
            "is_restricted": false,
            "is_ultra_restricted": false
        },
        "attachments": [
            {
                "title": "zoom_0.mp4",
                "title_link": "https:\/\/we.tl\/t-YngS3yXZir",
                "text": "1 file sent via WeTransfer, the simplest way to send your files around the world",
                "fallback": "zoom_0.mp4",
                "from_url": "https:\/\/we.tl\/t-YngS3yXZir",
                "thumb_url": "https:\/\/prod-cdn.wetransfer.net\/assets\/wt-facebook-568be8def5a86a09cedeb21b8f24cb208e86515a552bd07d856c7d5dfc6a23df.png",
                "thumb_width": 200,
                "thumb_height": 200,
                "service_icon": "https:\/\/prod-cdn.wetransfer.net\/assets\/apple-touch-icon-5a0a98ed8a06dd436f4881fc6225806c45db7d636175e4b5a6e3e20fa7228233.png",
                "service_name": "WeTransfer",
                "id": 1,
                "original_url": "https:\/\/we.tl\/t-YngS3yXZir"
            }
        ],
        "blocks": [
            {
                "type": "rich_text",
                "block_id": "Ib7Jf",
                "elements": [
                    {
                        "type": "rich_text_section",
                        "elements": [
                            {
                                "type": "text",
                                "text": "Thanks again everyone for your very relevent feedbacks and for being so supportive to this initiative.\nHere is the link to the video: "
                            },
                            {
                                "type": "link",
                                "url": "https:\/\/we.tl\/t-YngS3yXZir"
                            },
                            {
                                "type": "text",
                                "text": "\nI didn’t put it on youtube, you have to download it."
                            }
                        ]
                    }
                ]
            }
        ],
        "reactions": [
            {
                "name": "+1",
                "users": [
                    "UV5CCJ9RC"
                ],
                "count": 1
            }
        ]
    }
]