[
    {
        "client_msg_id": "034afbc9-c947-4224-abff-cb8f4aaeffcd",
        "type": "message",
        "text": "Okay, that sounds interesting. What do you think when the test is going to be ready for a clinical trial? I think we are going to meet with a couple of doctorands soon here in Dortmund, so it may help later if I could be able to drop a comment soon...",
        "user": "U010X9FPMS8",
        "ts": "1586180207.048900",
        "team": "TUU48M0T1",
        "user_team": "TUU48M0T1",
        "source_team": "TUU48M0T1",
        "user_profile": {
            "avatar_hash": "faff4edf8af2",
            "image_72": "https:\/\/avatars.slack-edge.com\/2020-03-27\/1031471711236_faff4edf8af2cc7b11dd_72.jpg",
            "first_name": "Florian",
            "real_name": "Florian Schulte",
            "display_name": "Florian Schulte",
            "team": "TUU48M0T1",
            "name": "schulte.florian",
            "is_restricted": false,
            "is_ultra_restricted": false
        },
        "blocks": [
            {
                "type": "rich_text",
                "block_id": "92xF",
                "elements": [
                    {
                        "type": "rich_text_section",
                        "elements": [
                            {
                                "type": "text",
                                "text": "Okay, that sounds interesting. What do you think when the test is going to be ready for a clinical trial? I think we are going to meet with a couple of doctorands soon here in Dortmund, so it may help later if I could be able to drop a comment soon..."
                            }
                        ]
                    }
                ]
            }
        ],
        "thread_ts": "1585809597.038100",
        "parent_user_id": "U010X9FPMS8"
    },
    {
        "client_msg_id": "780790C7-8297-4B27-A3F4-816DB4D5BB3B",
        "type": "message",
        "text": "wow... see the project 181 in front end of jogl. we will add more info by tomorrow.",
        "user": "UV1A22N3W",
        "ts": "1586190877.050600",
        "team": "TUU48M0T1",
        "user_team": "TUU48M0T1",
        "source_team": "TUU48M0T1",
        "user_profile": {
            "avatar_hash": "71f827776ad6",
            "image_72": "https:\/\/avatars.slack-edge.com\/2020-03-09\/988125642964_71f827776ad610af05a2_72.jpg",
            "first_name": "",
            "real_name": "RachelA",
            "display_name": "RachelA",
            "team": "TUU48M0T1",
            "name": "raronoff",
            "is_restricted": false,
            "is_ultra_restricted": false
        },
        "blocks": [
            {
                "type": "rich_text",
                "block_id": "C0pp",
                "elements": [
                    {
                        "type": "rich_text_section",
                        "elements": [
                            {
                                "type": "text",
                                "text": "wow... see the project 181 in front end of jogl. we will add more info by tomorrow."
                            }
                        ]
                    }
                ]
            }
        ],
        "thread_ts": "1585809597.038100",
        "parent_user_id": "U010X9FPMS8"
    }
]