[
    {
        "client_msg_id": "1caf3588-c9bd-44b5-85b9-b64d298ea7ba",
        "type": "message",
        "text": "<@UV0QTJCMT> thanks! We’re missin a headshot for Dee Zimmerman (who’s not on Slack — do you know how to get in touch?) and <@UV8Q23Y1K> (could you plz send a headshot via PM for the new program landing page?)",
        "user": "U011B6VLM2A",
        "ts": "1588777541.096800",
        "team": "TUU48M0T1",
        "user_team": "TUU48M0T1",
        "source_team": "TUU48M0T1",
        "user_profile": {
            "avatar_hash": "4231dc598cfc",
            "image_72": "https:\/\/avatars.slack-edge.com\/2020-04-02\/1044784558839_4231dc598cfc2e59c4c4_72.jpg",
            "first_name": "Alix",
            "real_name": "Alix Mains",
            "display_name": "Alix Mains - JOGL Coordinator",
            "team": "TUU48M0T1",
            "name": "alixhmains",
            "is_restricted": false,
            "is_ultra_restricted": false
        },
        "blocks": [
            {
                "type": "rich_text",
                "block_id": "9oh\/9",
                "elements": [
                    {
                        "type": "rich_text_section",
                        "elements": [
                            {
                                "type": "user",
                                "user_id": "UV0QTJCMT"
                            },
                            {
                                "type": "text",
                                "text": " thanks! We’re missin a headshot for Dee Zimmerman (who’s not on Slack — do you know how to get in touch?) and "
                            },
                            {
                                "type": "user",
                                "user_id": "UV8Q23Y1K"
                            },
                            {
                                "type": "text",
                                "text": " (could you plz send a headshot via PM for the new program landing page?)"
                            }
                        ]
                    }
                ]
            }
        ],
        "thread_ts": "1588251322.090500",
        "parent_user_id": "U011B6VLM2A"
    },
    {
        "client_msg_id": "b7d60815-2feb-4b72-b015-8370f76f0141",
        "type": "message",
        "text": "Thanks!",
        "user": "U011B6VLM2A",
        "ts": "1588777542.097000",
        "team": "TUU48M0T1",
        "user_team": "TUU48M0T1",
        "source_team": "TUU48M0T1",
        "user_profile": {
            "avatar_hash": "4231dc598cfc",
            "image_72": "https:\/\/avatars.slack-edge.com\/2020-04-02\/1044784558839_4231dc598cfc2e59c4c4_72.jpg",
            "first_name": "Alix",
            "real_name": "Alix Mains",
            "display_name": "Alix Mains - JOGL Coordinator",
            "team": "TUU48M0T1",
            "name": "alixhmains",
            "is_restricted": false,
            "is_ultra_restricted": false
        },
        "blocks": [
            {
                "type": "rich_text",
                "block_id": "RuSoX",
                "elements": [
                    {
                        "type": "rich_text_section",
                        "elements": [
                            {
                                "type": "text",
                                "text": "Thanks!"
                            }
                        ]
                    }
                ]
            }
        ],
        "thread_ts": "1588251322.090500",
        "parent_user_id": "U011B6VLM2A"
    }
]