[
    {
        "client_msg_id": "521848f8-a7d9-4370-8108-ecba74281b85",
        "type": "message",
        "text": "More than an idea is another serious question. Our university (where all BSL2labs are apart the hospitals) previously gently invited everybody to go home and don't continue experiments. Now, it has been officially shut down and no people are allowed (even with badge and even working on COVI19). If we test LAMP, CRISPR or whatever in non BSL2 places what happens? Apart our NON-safety? Is it illegeal?",
        "user": "UV18Y0Q1Y",
        "ts": "1584720871.046600",
        "team": "TUU48M0T1",
        "user_team": "TUU48M0T1",
        "source_team": "TUU48M0T1",
        "user_profile": {
            "avatar_hash": "ab7e379b5648",
            "image_72": "https:\/\/avatars.slack-edge.com\/2020-03-16\/991446609699_ab7e379b5648a9ac0566_72.jpg",
            "first_name": "",
            "real_name": "Alecrimi",
            "display_name": "Alecrimi",
            "team": "TUU48M0T1",
            "name": "alecrimi",
            "is_restricted": false,
            "is_ultra_restricted": false
        },
        "blocks": [
            {
                "type": "rich_text",
                "block_id": "ti1",
                "elements": [
                    {
                        "type": "rich_text_section",
                        "elements": [
                            {
                                "type": "text",
                                "text": "More than an idea is another serious question. Our university (where all BSL2labs are apart the hospitals) previously gently invited everybody to go home and don't continue experiments. Now, it has been officially shut down and no people are allowed (even with badge and even working on COVI19). If we test LAMP, CRISPR or whatever in non BSL2 places what happens? Apart our NON-safety? Is it illegeal?"
                            }
                        ]
                    }
                ]
            }
        ]
    }
]