[
    {
        "client_msg_id": "8365ae1c-dc9f-4a3f-902a-bfe8b59abe2b",
        "type": "message",
        "text": "Hi all, I'm interested in practice guidelines and I'm very alarmed at the blanket ban on methylprednisone. Practice guidelines generally tell doctors not to use it which is dangerous because people in hyperinflammatory states need it. More to follow. Opinion may be changing but the faster it changes the more lives to save. Here's one practice guideline that said not to use it a month ago: <https:\/\/emcrit.org\/wp-content\/uploads\/2020\/03\/COVID-19-EMCrit-Project3-16.pdf> and the most recent version says it may help especially in those who develop hyperinflammation. <https:\/\/emcrit.org\/ibcc\/covid19\/>. My very VERY rough notes are here (<https:\/\/docs.google.com\/document\/d\/1pYvFIeIFk2KZ1YyL7WQDw5xAALPFzaNyX6V4d9DZQ3U\/edit?usp=sharing>) for anyone interested. I'm not a good writer, but I want to write newspapers and professional orgs to change practice guidelines because right now they are set to hurt people because docs are told NOT to use life-saving medicine.",
        "user": "U01181TG37X",
        "ts": "1585769850.003800",
        "team": "TUU48M0T1",
        "user_team": "TUU48M0T1",
        "source_team": "TUU48M0T1",
        "user_profile": {
            "avatar_hash": "gd289e036ea7",
            "image_72": "https:\/\/secure.gravatar.com\/avatar\/d289e036ea7edb5e2f513ff27eacc080.jpg?s=72&d=https%3A%2F%2Fa.slack-edge.com%2Fdf10d%2Fimg%2Favatars%2Fava_0006-72.png",
            "first_name": "",
            "real_name": "Mary Paniscus",
            "display_name": "Mary Paniscus",
            "team": "TUU48M0T1",
            "name": "marypaniscus",
            "is_restricted": false,
            "is_ultra_restricted": false
        },
        "attachments": [
            {
                "service_name": "EMCrit Project",
                "title": "COVID-19 - EMCrit Project",
                "title_link": "https:\/\/emcrit.org\/ibcc\/covid19\/",
                "text": " Last updated 3\/29 CONTENTS Basic biology Infection control Transmission Personal protective equipment (PPE) Diagnosis Signs &amp; symptoms Labs Imaging CXR &amp; CT scan Lung ultrasonography General approach to imaging Bronchoscopy Diagnostic approach for admitted patients Treatment: General protocols Protocol for hypoxemic, non-intubated patients Protocol for intubated patients Treatment: Specific anti-viral &amp; immunosuppressive therapies Anti-viral therapies …",
                "fallback": "EMCrit Project: COVID-19 - EMCrit Project",
                "image_url": "https:\/\/i1.wp.com\/emcrit.org\/wp-content\/uploads\/2020\/03\/coronatopbrief.jpg?fit=1000%2C240&ssl=1",
                "image_width": 1000,
                "image_height": 240,
                "from_url": "https:\/\/emcrit.org\/ibcc\/covid19\/",
                "image_bytes": 15298,
                "service_icon": "https:\/\/emcrit.org\/wp-content\/themes\/magazine-pro\/images\/favicon.ico",
                "id": 1,
                "original_url": "https:\/\/emcrit.org\/ibcc\/covid19\/"
            }
        ],
        "blocks": [
            {
                "type": "rich_text",
                "block_id": "2PIM",
                "elements": [
                    {
                        "type": "rich_text_section",
                        "elements": [
                            {
                                "type": "text",
                                "text": "Hi all, I'm interested in practice guidelines and I'm very alarmed at the blanket ban on methylprednisone. Practice guidelines generally tell doctors not to use it which is dangerous because people in hyperinflammatory states need it. More to follow. Opinion may be changing but the faster it changes the more lives to save. Here's one practice guideline that said not to use it a month ago: "
                            },
                            {
                                "type": "link",
                                "url": "https:\/\/emcrit.org\/wp-content\/uploads\/2020\/03\/COVID-19-EMCrit-Project3-16.pdf"
                            },
                            {
                                "type": "text",
                                "text": " and the most recent version says it may help especially in those who develop hyperinflammation. "
                            },
                            {
                                "type": "link",
                                "url": "https:\/\/emcrit.org\/ibcc\/covid19\/"
                            },
                            {
                                "type": "text",
                                "text": ". My very VERY rough notes are here ("
                            },
                            {
                                "type": "link",
                                "url": "https:\/\/docs.google.com\/document\/d\/1pYvFIeIFk2KZ1YyL7WQDw5xAALPFzaNyX6V4d9DZQ3U\/edit?usp=sharing"
                            },
                            {
                                "type": "text",
                                "text": ") for anyone interested. I'm not a good writer, but I want to write newspapers and professional orgs to change practice guidelines because right now they are set to hurt people because docs are told NOT to use life-saving medicine."
                            }
                        ]
                    }
                ]
            }
        ]
    }
]