[
    {
        "client_msg_id": "10B7370E-F88D-4005-A691-71CAFF768B59",
        "type": "message",
        "text": "BT is to guarantee we are being smart about how we do it. if we just wanna validate functionality, lets have hypothesis generate the tests and test both",
        "user": "U010GHT685A",
        "ts": "1586872105.207000",
        "team": "TUU48M0T1",
        "user_team": "TUU48M0T1",
        "source_team": "TUU48M0T1",
        "user_profile": {
            "avatar_hash": "g8b82eba32dc",
            "image_72": "https:\/\/secure.gravatar.com\/avatar\/8b82eba32dceb4a94f0d2f641621be24.jpg?s=72&d=https%3A%2F%2Fa.slack-edge.com%2Fdf10d%2Fimg%2Favatars%2Fava_0014-72.png",
            "first_name": "",
            "real_name": "Cody Kochmann",
            "display_name": "",
            "team": "TUU48M0T1",
            "name": "kochmanncody",
            "is_restricted": false,
            "is_ultra_restricted": false
        },
        "blocks": [
            {
                "type": "rich_text",
                "block_id": "AzwFB",
                "elements": [
                    {
                        "type": "rich_text_section",
                        "elements": [
                            {
                                "type": "text",
                                "text": "BT is to guarantee we are being smart about how we do it. if we just wanna validate functionality, lets have hypothesis generate the tests and test both"
                            }
                        ]
                    }
                ]
            }
        ],
        "thread_ts": "1586872105.207000",
        "reply_count": 2,
        "reply_users_count": 2,
        "latest_reply": "1586893584.222000",
        "reply_users": [
            "U010ZD43P2L",
            "U010GHT685A"
        ],
        "replies": [
            {
                "user": "U010ZD43P2L",
                "ts": "1586879360.213700"
            },
            {
                "user": "U010GHT685A",
                "ts": "1586893584.222000"
            }
        ],
        "subscribed": false
    },
    {
        "client_msg_id": "D6270E9A-8C1E-46D3-ADA1-9003D661C046",
        "type": "message",
        "text": "f***",
        "user": "U010GHT685A",
        "ts": "1586873148.207800",
        "team": "TUU48M0T1",
        "user_team": "TUU48M0T1",
        "source_team": "TUU48M0T1",
        "user_profile": {
            "avatar_hash": "g8b82eba32dc",
            "image_72": "https:\/\/secure.gravatar.com\/avatar\/8b82eba32dceb4a94f0d2f641621be24.jpg?s=72&d=https%3A%2F%2Fa.slack-edge.com%2Fdf10d%2Fimg%2Favatars%2Fava_0014-72.png",
            "first_name": "",
            "real_name": "Cody Kochmann",
            "display_name": "",
            "team": "TUU48M0T1",
            "name": "kochmanncody",
            "is_restricted": false,
            "is_ultra_restricted": false
        },
        "blocks": [
            {
                "type": "rich_text",
                "block_id": "nG4",
                "elements": [
                    {
                        "type": "rich_text_section",
                        "elements": [
                            {
                                "type": "text",
                                "text": "f***"
                            }
                        ]
                    }
                ]
            }
        ]
    },
    {
        "client_msg_id": "F290970F-7C08-451B-A7B2-288E30597946",
        "type": "message",
        "text": "I just had a duh moment",
        "user": "U010GHT685A",
        "ts": "1586873158.208100",
        "team": "TUU48M0T1",
        "user_team": "TUU48M0T1",
        "source_team": "TUU48M0T1",
        "user_profile": {
            "avatar_hash": "g8b82eba32dc",
            "image_72": "https:\/\/secure.gravatar.com\/avatar\/8b82eba32dceb4a94f0d2f641621be24.jpg?s=72&d=https%3A%2F%2Fa.slack-edge.com%2Fdf10d%2Fimg%2Favatars%2Fava_0014-72.png",
            "first_name": "",
            "real_name": "Cody Kochmann",
            "display_name": "",
            "team": "TUU48M0T1",
            "name": "kochmanncody",
            "is_restricted": false,
            "is_ultra_restricted": false
        },
        "blocks": [
            {
                "type": "rich_text",
                "block_id": "J9rGl",
                "elements": [
                    {
                        "type": "rich_text_section",
                        "elements": [
                            {
                                "type": "text",
                                "text": "I just had a duh moment"
                            }
                        ]
                    }
                ]
            }
        ]
    },
    {
        "client_msg_id": "F0CAF338-12F4-4CE5-8CE5-9208DB4E6737",
        "type": "message",
        "text": "Not once did we consider streaming through `difflib`",
        "user": "U010GHT685A",
        "ts": "1586873193.209000",
        "team": "TUU48M0T1",
        "user_team": "TUU48M0T1",
        "source_team": "TUU48M0T1",
        "user_profile": {
            "avatar_hash": "g8b82eba32dc",
            "image_72": "https:\/\/secure.gravatar.com\/avatar\/8b82eba32dceb4a94f0d2f641621be24.jpg?s=72&d=https%3A%2F%2Fa.slack-edge.com%2Fdf10d%2Fimg%2Favatars%2Fava_0014-72.png",
            "first_name": "",
            "real_name": "Cody Kochmann",
            "display_name": "",
            "team": "TUU48M0T1",
            "name": "kochmanncody",
            "is_restricted": false,
            "is_ultra_restricted": false
        },
        "blocks": [
            {
                "type": "rich_text",
                "block_id": "laO",
                "elements": [
                    {
                        "type": "rich_text_section",
                        "elements": [
                            {
                                "type": "text",
                                "text": "Not once did we consider streaming through "
                            },
                            {
                                "type": "text",
                                "text": "difflib",
                                "style": {
                                    "code": true
                                }
                            }
                        ]
                    }
                ]
            }
        ]
    },
    {
        "client_msg_id": "0775F814-19F4-4035-90E3-2EF7D58F2C1B",
        "type": "message",
        "text": "I was thinking of using it as a display layer for the matches. but then remembered it has a ton of actual optimized functionality as well\n\n<https:\/\/docs.python.org\/3\/library\/difflib.html|https:\/\/docs.python.org\/3\/library\/difflib.html>",
        "user": "U010GHT685A",
        "ts": "1586873265.210300",
        "team": "TUU48M0T1",
        "user_team": "TUU48M0T1",
        "source_team": "TUU48M0T1",
        "user_profile": {
            "avatar_hash": "g8b82eba32dc",
            "image_72": "https:\/\/secure.gravatar.com\/avatar\/8b82eba32dceb4a94f0d2f641621be24.jpg?s=72&d=https%3A%2F%2Fa.slack-edge.com%2Fdf10d%2Fimg%2Favatars%2Fava_0014-72.png",
            "first_name": "",
            "real_name": "Cody Kochmann",
            "display_name": "",
            "team": "TUU48M0T1",
            "name": "kochmanncody",
            "is_restricted": false,
            "is_ultra_restricted": false
        },
        "blocks": [
            {
                "type": "rich_text",
                "block_id": "zGlBe",
                "elements": [
                    {
                        "type": "rich_text_section",
                        "elements": [
                            {
                                "type": "text",
                                "text": "I was thinking of using it as a display layer for the matches. but then remembered it has a ton of actual optimized functionality as well\n\n"
                            },
                            {
                                "type": "link",
                                "url": "https:\/\/docs.python.org\/3\/library\/difflib.html",
                                "text": "https:\/\/docs.python.org\/3\/library\/difflib.html"
                            }
                        ]
                    }
                ]
            }
        ]
    },
    {
        "client_msg_id": "0DE7F076-E12F-4348-940B-574F255848E9",
        "type": "message",
        "text": "yeah.. that actually works pretty damn well and can be fairly well parallelized to use all cores",
        "user": "U010GHT685A",
        "ts": "1586875494.211300",
        "team": "TUU48M0T1",
        "user_team": "TUU48M0T1",
        "source_team": "TUU48M0T1",
        "user_profile": {
            "avatar_hash": "g8b82eba32dc",
            "image_72": "https:\/\/secure.gravatar.com\/avatar\/8b82eba32dceb4a94f0d2f641621be24.jpg?s=72&d=https%3A%2F%2Fa.slack-edge.com%2Fdf10d%2Fimg%2Favatars%2Fava_0014-72.png",
            "first_name": "",
            "real_name": "Cody Kochmann",
            "display_name": "",
            "team": "TUU48M0T1",
            "name": "kochmanncody",
            "is_restricted": false,
            "is_ultra_restricted": false
        },
        "blocks": [
            {
                "type": "rich_text",
                "block_id": "MJ=+T",
                "elements": [
                    {
                        "type": "rich_text_section",
                        "elements": [
                            {
                                "type": "text",
                                "text": "yeah.. that actually works pretty damn well and can be fairly well parallelized to use all cores"
                            }
                        ]
                    }
                ]
            }
        ]
    },
    {
        "client_msg_id": "489B0A1F-63AC-4AF0-9221-7F6047BCB299",
        "type": "message",
        "text": "this doesnt mean I wanna use it as a replacement for our solution. this is definitely gonna be slower. but combine this with hypothesis and we have ourselves a good auto-tester for xor matches",
        "user": "U010GHT685A",
        "ts": "1586876194.212900",
        "team": "TUU48M0T1",
        "user_team": "TUU48M0T1",
        "source_team": "TUU48M0T1",
        "user_profile": {
            "avatar_hash": "g8b82eba32dc",
            "image_72": "https:\/\/secure.gravatar.com\/avatar\/8b82eba32dceb4a94f0d2f641621be24.jpg?s=72&d=https%3A%2F%2Fa.slack-edge.com%2Fdf10d%2Fimg%2Favatars%2Fava_0014-72.png",
            "first_name": "",
            "real_name": "Cody Kochmann",
            "display_name": "",
            "team": "TUU48M0T1",
            "name": "kochmanncody",
            "is_restricted": false,
            "is_ultra_restricted": false
        },
        "blocks": [
            {
                "type": "rich_text",
                "block_id": "i5\/oE",
                "elements": [
                    {
                        "type": "rich_text_section",
                        "elements": [
                            {
                                "type": "text",
                                "text": "this doesnt mean I wanna use it as a replacement for our solution. this is definitely gonna be slower. but combine this with hypothesis and we have ourselves a good auto-tester for xor matches"
                            }
                        ]
                    }
                ]
            }
        ]
    },
    {
        "client_msg_id": "293d337f-fdbc-4f2d-8279-89b05d910e26",
        "type": "message",
        "text": "<https:\/\/www.percona.com\/blog\/2020\/04\/14\/benchmarking-more-stable-results-with-cpu-affinity-setting\/>  in other news, the grass is green :confused:",
        "user": "U010ZD43P2L",
        "ts": "1586879320.213400",
        "team": "TUU48M0T1",
        "user_team": "TUU48M0T1",
        "source_team": "TUU48M0T1",
        "user_profile": {
            "avatar_hash": "g0c2f52ce1ed",
            "image_72": "https:\/\/secure.gravatar.com\/avatar\/0c2f52ce1edc35f686d3240bf7043264.jpg?s=72&d=https%3A%2F%2Fa.slack-edge.com%2Fdf10d%2Fimg%2Favatars%2Fava_0024-72.png",
            "first_name": "",
            "real_name": "Marcin Pohl",
            "display_name": "Marcin Pohl",
            "team": "TUU48M0T1",
            "name": "marcinpohl",
            "is_restricted": false,
            "is_ultra_restricted": false
        },
        "edited": {
            "user": "U010ZD43P2L",
            "ts": "1586879324.000000"
        },
        "blocks": [
            {
                "type": "rich_text",
                "block_id": "8zrYn",
                "elements": [
                    {
                        "type": "rich_text_section",
                        "elements": [
                            {
                                "type": "link",
                                "url": "https:\/\/www.percona.com\/blog\/2020\/04\/14\/benchmarking-more-stable-results-with-cpu-affinity-setting\/"
                            },
                            {
                                "type": "text",
                                "text": "  in other news, the grass is green "
                            },
                            {
                                "type": "emoji",
                                "name": "confused"
                            }
                        ]
                    }
                ]
            }
        ]
    },
    {
        "client_msg_id": "cb1cd58e-5666-4385-beab-7d09efd17576",
        "type": "message",
        "text": "use BT to mass-produce tests",
        "user": "U010ZD43P2L",
        "ts": "1586879360.213700",
        "team": "TUU48M0T1",
        "user_team": "TUU48M0T1",
        "source_team": "TUU48M0T1",
        "user_profile": {
            "avatar_hash": "g0c2f52ce1ed",
            "image_72": "https:\/\/secure.gravatar.com\/avatar\/0c2f52ce1edc35f686d3240bf7043264.jpg?s=72&d=https%3A%2F%2Fa.slack-edge.com%2Fdf10d%2Fimg%2Favatars%2Fava_0024-72.png",
            "first_name": "",
            "real_name": "Marcin Pohl",
            "display_name": "Marcin Pohl",
            "team": "TUU48M0T1",
            "name": "marcinpohl",
            "is_restricted": false,
            "is_ultra_restricted": false
        },
        "blocks": [
            {
                "type": "rich_text",
                "block_id": "V2sFk",
                "elements": [
                    {
                        "type": "rich_text_section",
                        "elements": [
                            {
                                "type": "text",
                                "text": "use BT to mass-produce tests"
                            }
                        ]
                    }
                ]
            }
        ],
        "thread_ts": "1586872105.207000",
        "parent_user_id": "U010GHT685A"
    },
    {
        "client_msg_id": "956d6fca-3b6b-45f1-8bec-4cd6d5702b20",
        "type": "message",
        "text": "i do not expect any screwups in the xor matches, if that screws up, that means some cosmic radiation just mangled your non-ECC RAM, or Intel _really_ screwed up",
        "user": "U010ZD43P2L",
        "ts": "1586879436.214900",
        "team": "TUU48M0T1",
        "user_team": "TUU48M0T1",
        "source_team": "TUU48M0T1",
        "user_profile": {
            "avatar_hash": "g0c2f52ce1ed",
            "image_72": "https:\/\/secure.gravatar.com\/avatar\/0c2f52ce1edc35f686d3240bf7043264.jpg?s=72&d=https%3A%2F%2Fa.slack-edge.com%2Fdf10d%2Fimg%2Favatars%2Fava_0024-72.png",
            "first_name": "",
            "real_name": "Marcin Pohl",
            "display_name": "Marcin Pohl",
            "team": "TUU48M0T1",
            "name": "marcinpohl",
            "is_restricted": false,
            "is_ultra_restricted": false
        },
        "blocks": [
            {
                "type": "rich_text",
                "block_id": "eJj26",
                "elements": [
                    {
                        "type": "rich_text_section",
                        "elements": [
                            {
                                "type": "text",
                                "text": "i do not expect any screwups in the xor matches, if that screws up, that means some cosmic radiation just mangled your non-ECC RAM, or Intel "
                            },
                            {
                                "type": "text",
                                "text": "really ",
                                "style": {
                                    "italic": true
                                }
                            },
                            {
                                "type": "text",
                                "text": "screwed up"
                            }
                        ]
                    }
                ]
            }
        ]
    },
    {
        "client_msg_id": "36b4e1d9-b47a-45e7-a22e-a0d7b5d5a4ca",
        "type": "message",
        "text": "i'd do more of a property testing approach:  like the bug i found&amp;fixed with grabbing 28 bits instead of 28 symbols",
        "user": "U010ZD43P2L",
        "ts": "1586879481.215800",
        "team": "TUU48M0T1",
        "user_team": "TUU48M0T1",
        "source_team": "TUU48M0T1",
        "user_profile": {
            "avatar_hash": "g0c2f52ce1ed",
            "image_72": "https:\/\/secure.gravatar.com\/avatar\/0c2f52ce1edc35f686d3240bf7043264.jpg?s=72&d=https%3A%2F%2Fa.slack-edge.com%2Fdf10d%2Fimg%2Favatars%2Fava_0024-72.png",
            "first_name": "",
            "real_name": "Marcin Pohl",
            "display_name": "Marcin Pohl",
            "team": "TUU48M0T1",
            "name": "marcinpohl",
            "is_restricted": false,
            "is_ultra_restricted": false
        },
        "blocks": [
            {
                "type": "rich_text",
                "block_id": "OKBs",
                "elements": [
                    {
                        "type": "rich_text_section",
                        "elements": [
                            {
                                "type": "text",
                                "text": "i'd do more of a property testing approach:  like the bug i found&fixed with grabbing 28 bits instead of 28 symbols"
                            }
                        ]
                    }
                ]
            }
        ]
    },
    {
        "client_msg_id": "5fcfc8e8-3818-49a4-9f09-e32e9e1f7c07",
        "type": "message",
        "text": "the test for that i made was a simple altering `00110011` sequence and made sure my binary substring chopper and expander worked with it in a way that they'd never produce a `01` or `10` outputs, so they'd always chop on boundary",
        "user": "U010ZD43P2L",
        "ts": "1586879575.217400",
        "team": "TUU48M0T1",
        "user_team": "TUU48M0T1",
        "source_team": "TUU48M0T1",
        "user_profile": {
            "avatar_hash": "g0c2f52ce1ed",
            "image_72": "https:\/\/secure.gravatar.com\/avatar\/0c2f52ce1edc35f686d3240bf7043264.jpg?s=72&d=https%3A%2F%2Fa.slack-edge.com%2Fdf10d%2Fimg%2Favatars%2Fava_0024-72.png",
            "first_name": "",
            "real_name": "Marcin Pohl",
            "display_name": "Marcin Pohl",
            "team": "TUU48M0T1",
            "name": "marcinpohl",
            "is_restricted": false,
            "is_ultra_restricted": false
        },
        "blocks": [
            {
                "type": "rich_text",
                "block_id": "V0G",
                "elements": [
                    {
                        "type": "rich_text_section",
                        "elements": [
                            {
                                "type": "text",
                                "text": "the test for that i made was a simple altering "
                            },
                            {
                                "type": "text",
                                "text": "00110011",
                                "style": {
                                    "code": true
                                }
                            },
                            {
                                "type": "text",
                                "text": " sequence and made sure my binary substring chopper and expander worked with it in a way that they'd never produce a "
                            },
                            {
                                "type": "text",
                                "text": "01",
                                "style": {
                                    "code": true
                                }
                            },
                            {
                                "type": "text",
                                "text": " or "
                            },
                            {
                                "type": "text",
                                "text": "10",
                                "style": {
                                    "code": true
                                }
                            },
                            {
                                "type": "text",
                                "text": " outputs, so they'd always chop on boundary"
                            }
                        ]
                    }
                ]
            }
        ]
    },
    {
        "client_msg_id": "0063d525-ea48-412f-9caf-56085f3cf4c1",
        "type": "message",
        "text": "in general property testing would work well here, since we're disassembling losslessly, there should be a test to reassemble and make sure we get the orignal item.",
        "user": "U010ZD43P2L",
        "ts": "1586879994.218600",
        "team": "TUU48M0T1",
        "user_team": "TUU48M0T1",
        "source_team": "TUU48M0T1",
        "user_profile": {
            "avatar_hash": "g0c2f52ce1ed",
            "image_72": "https:\/\/secure.gravatar.com\/avatar\/0c2f52ce1edc35f686d3240bf7043264.jpg?s=72&d=https%3A%2F%2Fa.slack-edge.com%2Fdf10d%2Fimg%2Favatars%2Fava_0024-72.png",
            "first_name": "",
            "real_name": "Marcin Pohl",
            "display_name": "Marcin Pohl",
            "team": "TUU48M0T1",
            "name": "marcinpohl",
            "is_restricted": false,
            "is_ultra_restricted": false
        },
        "blocks": [
            {
                "type": "rich_text",
                "block_id": "p+i",
                "elements": [
                    {
                        "type": "rich_text_section",
                        "elements": [
                            {
                                "type": "text",
                                "text": "in general property testing would work well here, since we're disassembling losslessly, there should be a test to reassemble and make sure we get the orignal item."
                            }
                        ]
                    }
                ]
            }
        ]
    },
    {
        "client_msg_id": "b7fe1104-1492-4c42-90a0-ba24d98d90ae",
        "type": "message",
        "text": "unfortunately i think people at work are starting to figure out why i've been MIA, so i need to do some work instead of working on this :confused:",
        "user": "U010ZD43P2L",
        "ts": "1586880391.219700",
        "team": "TUU48M0T1",
        "user_team": "TUU48M0T1",
        "source_team": "TUU48M0T1",
        "user_profile": {
            "avatar_hash": "g0c2f52ce1ed",
            "image_72": "https:\/\/secure.gravatar.com\/avatar\/0c2f52ce1edc35f686d3240bf7043264.jpg?s=72&d=https%3A%2F%2Fa.slack-edge.com%2Fdf10d%2Fimg%2Favatars%2Fava_0024-72.png",
            "first_name": "",
            "real_name": "Marcin Pohl",
            "display_name": "Marcin Pohl",
            "team": "TUU48M0T1",
            "name": "marcinpohl",
            "is_restricted": false,
            "is_ultra_restricted": false
        },
        "blocks": [
            {
                "type": "rich_text",
                "block_id": "afc",
                "elements": [
                    {
                        "type": "rich_text_section",
                        "elements": [
                            {
                                "type": "text",
                                "text": "unfortunately i think people at work are starting to figure out why i've been MIA, so i need to do some work instead of working on this "
                            },
                            {
                                "type": "emoji",
                                "name": "confused"
                            }
                        ]
                    }
                ]
            }
        ]
    },
    {
        "client_msg_id": "e807118c-bddc-403a-bd63-6f1184a62652",
        "type": "message",
        "text": "NP, thanks for the help",
        "user": "U01084P4ELX",
        "ts": "1586880779.220000",
        "team": "TUU48M0T1",
        "user_team": "TUU48M0T1",
        "source_team": "TUU48M0T1",
        "user_profile": {
            "avatar_hash": "g314bfba96c5",
            "image_72": "https:\/\/secure.gravatar.com\/avatar\/314bfba96c545495efbc8e77256c78a1.jpg?s=72&d=https%3A%2F%2Fa.slack-edge.com%2Fdf10d%2Fimg%2Favatars%2Fava_0024-72.png",
            "first_name": "",
            "real_name": "Chris Hennick",
            "display_name": "Chris Hennick",
            "team": "TUU48M0T1",
            "name": "chrishennick1",
            "is_restricted": false,
            "is_ultra_restricted": false
        },
        "blocks": [
            {
                "type": "rich_text",
                "block_id": "d38W",
                "elements": [
                    {
                        "type": "rich_text_section",
                        "elements": [
                            {
                                "type": "text",
                                "text": "NP, thanks for the help"
                            }
                        ]
                    }
                ]
            }
        ]
    },
    {
        "client_msg_id": "18db1876-2632-4c96-b2cc-e02098272db2",
        "type": "message",
        "text": "i'm not quitting or anything, just gotta show some effort at work ;)",
        "user": "U010ZD43P2L",
        "ts": "1586882357.220700",
        "team": "TUU48M0T1",
        "user_team": "TUU48M0T1",
        "source_team": "TUU48M0T1",
        "user_profile": {
            "avatar_hash": "g0c2f52ce1ed",
            "image_72": "https:\/\/secure.gravatar.com\/avatar\/0c2f52ce1edc35f686d3240bf7043264.jpg?s=72&d=https%3A%2F%2Fa.slack-edge.com%2Fdf10d%2Fimg%2Favatars%2Fava_0024-72.png",
            "first_name": "",
            "real_name": "Marcin Pohl",
            "display_name": "Marcin Pohl",
            "team": "TUU48M0T1",
            "name": "marcinpohl",
            "is_restricted": false,
            "is_ultra_restricted": false
        },
        "blocks": [
            {
                "type": "rich_text",
                "block_id": "OOVhS",
                "elements": [
                    {
                        "type": "rich_text_section",
                        "elements": [
                            {
                                "type": "text",
                                "text": "i'm not quitting or anything, just gotta show some effort at work ;)"
                            }
                        ]
                    }
                ]
            }
        ]
    },
    {
        "client_msg_id": "2CB24F39-CCE9-4AF8-9DD0-4FC8AF052A9D",
        "type": "message",
        "text": "i was thinking of letting hypothesis preprocess a few mass tests. BT will be able to do things on the fly as per usual",
        "user": "U010GHT685A",
        "ts": "1586893584.222000",
        "team": "TUU48M0T1",
        "user_team": "TUU48M0T1",
        "source_team": "TUU48M0T1",
        "user_profile": {
            "avatar_hash": "g8b82eba32dc",
            "image_72": "https:\/\/secure.gravatar.com\/avatar\/8b82eba32dceb4a94f0d2f641621be24.jpg?s=72&d=https%3A%2F%2Fa.slack-edge.com%2Fdf10d%2Fimg%2Favatars%2Fava_0014-72.png",
            "first_name": "",
            "real_name": "Cody Kochmann",
            "display_name": "",
            "team": "TUU48M0T1",
            "name": "kochmanncody",
            "is_restricted": false,
            "is_ultra_restricted": false
        },
        "blocks": [
            {
                "type": "rich_text",
                "block_id": "QcEpP",
                "elements": [
                    {
                        "type": "rich_text_section",
                        "elements": [
                            {
                                "type": "text",
                                "text": "i was thinking of letting hypothesis preprocess a few mass tests. BT will be able to do things on the fly as per usual"
                            }
                        ]
                    }
                ]
            }
        ],
        "thread_ts": "1586872105.207000",
        "parent_user_id": "U010GHT685A"
    }
]