[
    {
        "type": "message",
        "text": "update slides from yesterday’s call!",
        "files": [
            {
                "id": "F01339MAN9E",
                "created": 1587644708,
                "timestamp": 1587644708,
                "name": "2020-04-22 - update 6.pdf",
                "title": "2020-04-22 - update 6.pdf",
                "mimetype": "application\/pdf",
                "filetype": "pdf",
                "pretty_type": "PDF",
                "user": "UV85V64SD",
                "editable": false,
                "size": 15511400,
                "mode": "hosted",
                "is_external": false,
                "external_type": "",
                "is_public": true,
                "public_url_shared": false,
                "display_as_bot": false,
                "username": "",
                "url_private": "https:\/\/files.slack.com\/files-pri\/TUU48M0T1-F01339MAN9E\/2020-04-22_-_update_6.pdf?t=xoxe-980144714919-1106606678066-1105227127893-6f722bb664235052954ad46852628b64",
                "url_private_download": "https:\/\/files.slack.com\/files-pri\/TUU48M0T1-F01339MAN9E\/download\/2020-04-22_-_update_6.pdf?t=xoxe-980144714919-1106606678066-1105227127893-6f722bb664235052954ad46852628b64",
                "thumb_pdf": "https:\/\/files.slack.com\/files-tmb\/TUU48M0T1-F01339MAN9E-5615d492c5\/2020-04-22_-_update_6_thumb_pdf.png?t=xoxe-980144714919-1106606678066-1105227127893-6f722bb664235052954ad46852628b64",
                "thumb_pdf_w": 2933,
                "thumb_pdf_h": 1650,
                "permalink": "https:\/\/open-covid19.slack.com\/files\/UV85V64SD\/F01339MAN9E\/2020-04-22_-_update_6.pdf",
                "permalink_public": "https:\/\/slack-files.com\/TUU48M0T1-F01339MAN9E-d7dd1ffff6",
                "is_starred": false,
                "has_rich_preview": false
            }
        ],
        "upload": true,
        "blocks": [
            {
                "type": "rich_text",
                "block_id": "50Y",
                "elements": [
                    {
                        "type": "rich_text_section",
                        "elements": [
                            {
                                "type": "text",
                                "text": "update slides from yesterday’s call!"
                            }
                        ]
                    }
                ]
            }
        ],
        "user": "UV85V64SD",
        "display_as_bot": false,
        "ts": "1587644711.169200",
        "client_msg_id": "f7a17ac0-fb7f-4dcc-b7ac-c7b90336e196",
        "reactions": [
            {
                "name": "pray",
                "users": [
                    "UV0RRGB6H"
                ],
                "count": 1
            }
        ]
    },
    {
        "client_msg_id": "DDE5F60B-031A-4A03-BBD2-0AFF293C0896",
        "type": "message",
        "text": "Wow Thomas and camilles insane circles ",
        "user": "UV0RRGB6H",
        "ts": "1587653299.170100",
        "team": "TUU48M0T1",
        "user_team": "TUU48M0T1",
        "source_team": "TUU48M0T1",
        "user_profile": {
            "avatar_hash": "48d4ab64c90c",
            "image_72": "https:\/\/avatars.slack-edge.com\/2020-03-26\/1029789176912_48d4ab64c90c03f3af4a_72.jpg",
            "first_name": "",
            "real_name": "Chris LB Graham",
            "display_name": "",
            "team": "TUU48M0T1",
            "name": "chris.graham",
            "is_restricted": false,
            "is_ultra_restricted": false
        },
        "blocks": [
            {
                "type": "rich_text",
                "block_id": "FPP1S",
                "elements": [
                    {
                        "type": "rich_text_section",
                        "elements": [
                            {
                                "type": "text",
                                "text": "Wow Thomas and camilles insane circles "
                            }
                        ]
                    }
                ]
            }
        ],
        "thread_ts": "1587653299.170100",
        "reply_count": 1,
        "reply_users_count": 1,
        "latest_reply": "1587668535.170800",
        "reply_users": [
            "UV85V64SD"
        ],
        "replies": [
            {
                "user": "UV85V64SD",
                "ts": "1587668535.170800"
            }
        ],
        "subscribed": false,
        "reactions": [
            {
                "name": "spider_web",
                "users": [
                    "UV02WET96",
                    "U0101DKUALV",
                    "U010B412MF1"
                ],
                "count": 3
            }
        ]
    },
    {
        "client_msg_id": "92366002-016c-42ec-9859-bdd61312d097",
        "type": "message",
        "text": "there’s also an announcements bias :slightly_smiling_face: (it’s based on reactions to messages and we didn’t get read of the announcements channel)",
        "user": "UV85V64SD",
        "ts": "1587668535.170800",
        "team": "TUU48M0T1",
        "user_team": "TUU48M0T1",
        "source_team": "TUU48M0T1",
        "user_profile": {
            "avatar_hash": "1e73a651bdfe",
            "image_72": "https:\/\/avatars.slack-edge.com\/2020-03-16\/1004297548853_1e73a651bdfef2c41501_72.jpg",
            "first_name": "Marc",
            "real_name": "Marc Santolini",
            "display_name": "Marc Santolini - JOGL CoFounder \/ CSO",
            "team": "TUU48M0T1",
            "name": "marc.santolini",
            "is_restricted": false,
            "is_ultra_restricted": false
        },
        "blocks": [
            {
                "type": "rich_text",
                "block_id": "iM\/F",
                "elements": [
                    {
                        "type": "rich_text_section",
                        "elements": [
                            {
                                "type": "text",
                                "text": "there’s also an announcements bias "
                            },
                            {
                                "type": "emoji",
                                "name": "slightly_smiling_face"
                            },
                            {
                                "type": "text",
                                "text": " (it’s based on reactions to messages and we didn’t get read of the announcements channel)"
                            }
                        ]
                    }
                ]
            }
        ],
        "thread_ts": "1587653299.170100",
        "parent_user_id": "UV0RRGB6H"
    }
]