[
    {
        "type": "message",
        "text": ":face_with_monocle::muscle:Hi *<!channel>*! I hope you are doing well! \n*Who, among you, would have the time and energy to sit once a week as a meta-study Ambassador at a general meeting?* \nThis meeting would gather weekly ambassadors of each working groups (<https:\/\/docs.google.com\/document\/d\/1qWtQqIMKxFDwFB6XVelH6ST_2iHtrml3UL7iyW2HqVk\/edit#|see governance 0.2>) in order to:\n• Communicate updates, news, and stage of advancement of each working group and needs for collaboration\n• When applicable, take decisions on how to move forward together \n• Identify sore spots and address them\n• Learn from each others’ experience and expertise\nAll the best, and take care!",
        "files": [
            {
                "id": "F0117SL22P9",
                "created": 1585694588,
                "timestamp": 1585694588,
                "name": "governance_0",
                "title": "governance_0.2_PART 1_Opencovid19",
                "mimetype": "application\/vnd.google-apps.document",
                "filetype": "gdoc",
                "pretty_type": "GSuite Document",
                "user": "UV9V03C8Y",
                "editable": false,
                "size": 13009,
                "mode": "external",
                "is_external": true,
                "external_type": "gdrive",
                "is_public": true,
                "public_url_shared": false,
                "display_as_bot": false,
                "username": "",
                "url_private": "https:\/\/docs.google.com\/document\/d\/1qWtQqIMKxFDwFB6XVelH6ST_2iHtrml3UL7iyW2HqVk\/edit#",
                "thumb_64": "https:\/\/files.slack.com\/files-tmb\/TUU48M0T1-F0117SL22P9-06e619f506\/governance_0_64.png?t=xoxe-980144714919-1106606678066-1105227127893-6f722bb664235052954ad46852628b64",
                "thumb_80": "https:\/\/files.slack.com\/files-tmb\/TUU48M0T1-F0117SL22P9-06e619f506\/governance_0_80.png?t=xoxe-980144714919-1106606678066-1105227127893-6f722bb664235052954ad46852628b64",
                "thumb_360": "https:\/\/files.slack.com\/files-tmb\/TUU48M0T1-F0117SL22P9-06e619f506\/governance_0_360.png?t=xoxe-980144714919-1106606678066-1105227127893-6f722bb664235052954ad46852628b64",
                "thumb_360_w": 255,
                "thumb_360_h": 360,
                "thumb_480": "https:\/\/files.slack.com\/files-tmb\/TUU48M0T1-F0117SL22P9-06e619f506\/governance_0_480.png?t=xoxe-980144714919-1106606678066-1105227127893-6f722bb664235052954ad46852628b64",
                "thumb_480_w": 340,
                "thumb_480_h": 480,
                "thumb_160": "https:\/\/files.slack.com\/files-tmb\/TUU48M0T1-F0117SL22P9-06e619f506\/governance_0_160.png?t=xoxe-980144714919-1106606678066-1105227127893-6f722bb664235052954ad46852628b64",
                "thumb_720": "https:\/\/files.slack.com\/files-tmb\/TUU48M0T1-F0117SL22P9-06e619f506\/governance_0_720.png?t=xoxe-980144714919-1106606678066-1105227127893-6f722bb664235052954ad46852628b64",
                "thumb_720_w": 509,
                "thumb_720_h": 720,
                "thumb_800": "https:\/\/files.slack.com\/files-tmb\/TUU48M0T1-F0117SL22P9-06e619f506\/governance_0_800.png?t=xoxe-980144714919-1106606678066-1105227127893-6f722bb664235052954ad46852628b64",
                "thumb_800_w": 800,
                "thumb_800_h": 1131,
                "thumb_960": "https:\/\/files.slack.com\/files-tmb\/TUU48M0T1-F0117SL22P9-06e619f506\/governance_0_960.png?t=xoxe-980144714919-1106606678066-1105227127893-6f722bb664235052954ad46852628b64",
                "thumb_960_w": 679,
                "thumb_960_h": 960,
                "thumb_1024": "https:\/\/files.slack.com\/files-tmb\/TUU48M0T1-F0117SL22P9-06e619f506\/governance_0_1024.png?t=xoxe-980144714919-1106606678066-1105227127893-6f722bb664235052954ad46852628b64",
                "thumb_1024_w": 724,
                "thumb_1024_h": 1024,
                "image_exif_rotation": 1,
                "original_w": 800,
                "original_h": 1131,
                "thumb_tiny": "AwAwACHTpDu7EUjcUm40AKN3fFOpm40oJJoAdRRRQAhGaTaKdRQAm0UBQDmlooAKKKKACiiigAooooAKKKKAP\/\/Z",
                "permalink": "https:\/\/open-covid19.slack.com\/files\/UV9V03C8Y\/F0117SL22P9\/governance_0",
                "is_starred": false,
                "external_id": "1qWtQqIMKxFDwFB6XVelH6ST_2iHtrml3UL7iyW2HqVk",
                "external_url": "https:\/\/docs.google.com\/document\/d\/1qWtQqIMKxFDwFB6XVelH6ST_2iHtrml3UL7iyW2HqVk\/edit#",
                "has_rich_preview": true
            }
        ],
        "upload": false,
        "blocks": [
            {
                "type": "rich_text",
                "block_id": "+2g",
                "elements": [
                    {
                        "type": "rich_text_section",
                        "elements": [
                            {
                                "type": "emoji",
                                "name": "face_with_monocle"
                            },
                            {
                                "type": "emoji",
                                "name": "muscle"
                            },
                            {
                                "type": "text",
                                "text": "Hi "
                            },
                            {
                                "type": "broadcast",
                                "range": "channel",
                                "style": {
                                    "bold": true
                                }
                            },
                            {
                                "type": "text",
                                "text": "! I hope you are doing well! \n"
                            },
                            {
                                "type": "text",
                                "text": "Who, among you, would have the time and energy to sit once a week as a meta-study Ambassador at a general meeting? ",
                                "style": {
                                    "bold": true
                                }
                            },
                            {
                                "type": "text",
                                "text": "\nThis meeting would gather weekly ambassadors of each working groups ("
                            },
                            {
                                "type": "link",
                                "url": "https:\/\/docs.google.com\/document\/d\/1qWtQqIMKxFDwFB6XVelH6ST_2iHtrml3UL7iyW2HqVk\/edit#",
                                "text": "see governance 0.2"
                            },
                            {
                                "type": "text",
                                "text": ") in order to:\n"
                            }
                        ]
                    },
                    {
                        "type": "rich_text_list",
                        "style": "bullet",
                        "indent": 0,
                        "elements": [
                            {
                                "type": "rich_text_section",
                                "elements": [
                                    {
                                        "type": "text",
                                        "text": "Communicate updates, news, and stage of advancement of each working group and needs for collaboration"
                                    }
                                ]
                            },
                            {
                                "type": "rich_text_section",
                                "elements": [
                                    {
                                        "type": "text",
                                        "text": "When applicable, take decisions on how to move forward together "
                                    }
                                ]
                            },
                            {
                                "type": "rich_text_section",
                                "elements": [
                                    {
                                        "type": "text",
                                        "text": "Identify sore spots and address them"
                                    }
                                ]
                            },
                            {
                                "type": "rich_text_section",
                                "elements": [
                                    {
                                        "type": "text",
                                        "text": "Learn from each others’ experience and expertise"
                                    }
                                ]
                            }
                        ]
                    },
                    {
                        "type": "rich_text_section",
                        "elements": [
                            {
                                "type": "text",
                                "text": "All the best, and take care!"
                            }
                        ]
                    }
                ]
            }
        ],
        "user": "UV9V03C8Y",
        "display_as_bot": false,
        "x_files": [
            "F0117SL22P9"
        ],
        "ts": "1585694937.045100",
        "client_msg_id": "2201db4b-8676-4a67-bb4c-0d9a37d677c7",
        "reactions": [
            {
                "name": "+1",
                "users": [
                    "UUWPKNE2E"
                ],
                "count": 1
            }
        ]
    }
]