[
    {
        "client_msg_id": "D5B87641-C6E6-407C-9D09-548FB486653D",
        "type": "message",
        "text": "Bit of a random question for people here but I think the topic fits.\n\nWhat do you do to the statistics to deal with government branches\/organizations who are slowly realizing that reporting infection spread accurately might be financially damaging in the long run so reported cases begin to cut down when really its just the counting that is cut down?",
        "user": "U010GHT685A",
        "ts": "1586117753.065000",
        "team": "TUU48M0T1",
        "user_team": "TUU48M0T1",
        "source_team": "TUU48M0T1",
        "user_profile": {
            "avatar_hash": "g8b82eba32dc",
            "image_72": "https:\/\/secure.gravatar.com\/avatar\/8b82eba32dceb4a94f0d2f641621be24.jpg?s=72&d=https%3A%2F%2Fa.slack-edge.com%2Fdf10d%2Fimg%2Favatars%2Fava_0014-72.png",
            "first_name": "",
            "real_name": "Cody Kochmann",
            "display_name": "",
            "team": "TUU48M0T1",
            "name": "kochmanncody",
            "is_restricted": false,
            "is_ultra_restricted": false
        },
        "blocks": [
            {
                "type": "rich_text",
                "block_id": "T=z",
                "elements": [
                    {
                        "type": "rich_text_section",
                        "elements": [
                            {
                                "type": "text",
                                "text": "Bit of a random question for people here but I think the topic fits.\n"
                            },
                            {
                                "type": "text",
                                "text": "\n"
                            },
                            {
                                "type": "text",
                                "text": "What do you do to the statistics to deal with government branches\/organizations who are slowly realizing that reporting infection spread accurately might be financially damaging in the long run so reported cases begin to cut down when really its just the counting that is cut down?"
                            }
                        ]
                    }
                ]
            }
        ]
    }
]