[
    {
        "client_msg_id": "3b5af3cb-0042-4cb1-bdf7-017e92389003",
        "type": "message",
        "text": "great! i also present you to <@U010AGDDEBZ> with whom we work on this. maybe you saw each other at CRI already",
        "user": "U010B412MF1",
        "ts": "1585379140.040700",
        "team": "TUU48M0T1",
        "user_team": "TUU48M0T1",
        "source_team": "TUU48M0T1",
        "user_profile": {
            "avatar_hash": "218d963a797f",
            "image_72": "https:\/\/avatars.slack-edge.com\/2020-03-19\/1013072792629_218d963a797fbf4410c0_72.png",
            "first_name": "",
            "real_name": "liu",
            "display_name": "liu",
            "team": "TUU48M0T1",
            "name": "liubov.tupikina",
            "is_restricted": false,
            "is_ultra_restricted": false
        },
        "blocks": [
            {
                "type": "rich_text",
                "block_id": "Q\/I",
                "elements": [
                    {
                        "type": "rich_text_section",
                        "elements": [
                            {
                                "type": "text",
                                "text": "great! i also present you to "
                            },
                            {
                                "type": "user",
                                "user_id": "U010AGDDEBZ"
                            },
                            {
                                "type": "text",
                                "text": " with whom we work on this. maybe you saw each other at CRI already"
                            }
                        ]
                    }
                ]
            }
        ],
        "thread_ts": "1585266282.025000",
        "parent_user_id": "U010RE1NDCG"
    },
    {
        "client_msg_id": "7260ba93-2da4-4d43-bad9-617a13bfa8c6",
        "type": "message",
        "text": "ty",
        "user": "UVDCTDP8B",
        "ts": "1585384563.041000",
        "team": "TUU48M0T1",
        "user_team": "TUU48M0T1",
        "source_team": "TUU48M0T1",
        "user_profile": {
            "avatar_hash": "b9681d276810",
            "image_72": "https:\/\/avatars.slack-edge.com\/2020-03-21\/1018866726103_b9681d2768103ad056d7_72.jpg",
            "first_name": "",
            "real_name": "Wesley",
            "display_name": "Wesley",
            "team": "TUU48M0T1",
            "name": "someprogrammerorsomet",
            "is_restricted": false,
            "is_ultra_restricted": false
        },
        "blocks": [
            {
                "type": "rich_text",
                "block_id": "3ZrRE",
                "elements": [
                    {
                        "type": "rich_text_section",
                        "elements": [
                            {
                                "type": "text",
                                "text": "ty"
                            }
                        ]
                    }
                ]
            }
        ],
        "thread_ts": "1585324474.035600",
        "parent_user_id": "UV85V64SD"
    }
]