[
    {
        "type": "message",
        "text": "Attaching the slides that I showed during the community call for future reference",
        "files": [
            {
                "id": "F01010HJHFT",
                "created": 1584606534,
                "timestamp": 1584606534,
                "name": "slides jogl.pdf",
                "title": "slides jogl.pdf",
                "mimetype": "application\/pdf",
                "filetype": "pdf",
                "pretty_type": "PDF",
                "user": "UV85V64SD",
                "editable": false,
                "size": 1737184,
                "mode": "hosted",
                "is_external": false,
                "external_type": "",
                "is_public": true,
                "public_url_shared": false,
                "display_as_bot": false,
                "username": "",
                "url_private": "https:\/\/files.slack.com\/files-pri\/TUU48M0T1-F01010HJHFT\/slides_jogl.pdf?t=xoxe-980144714919-1106606678066-1105227127893-6f722bb664235052954ad46852628b64",
                "url_private_download": "https:\/\/files.slack.com\/files-pri\/TUU48M0T1-F01010HJHFT\/download\/slides_jogl.pdf?t=xoxe-980144714919-1106606678066-1105227127893-6f722bb664235052954ad46852628b64",
                "thumb_pdf": "https:\/\/files.slack.com\/files-tmb\/TUU48M0T1-F01010HJHFT-ed09f8adf6\/slides_jogl_thumb_pdf.png?t=xoxe-980144714919-1106606678066-1105227127893-6f722bb664235052954ad46852628b64",
                "thumb_pdf_w": 2933,
                "thumb_pdf_h": 1650,
                "permalink": "https:\/\/open-covid19.slack.com\/files\/UV85V64SD\/F01010HJHFT\/slides_jogl.pdf",
                "permalink_public": "https:\/\/slack-files.com\/TUU48M0T1-F01010HJHFT-760e7ebc4d",
                "is_starred": false,
                "has_rich_preview": false
            }
        ],
        "upload": true,
        "blocks": [
            {
                "type": "rich_text",
                "block_id": "CDeK",
                "elements": [
                    {
                        "type": "rich_text_section",
                        "elements": [
                            {
                                "type": "text",
                                "text": "Attaching the slides that I showed during the community call for future reference"
                            }
                        ]
                    }
                ]
            }
        ],
        "user": "UV85V64SD",
        "display_as_bot": false,
        "ts": "1584606538.040400",
        "client_msg_id": "5a3f94ed-7977-4e34-b687-325f19baba13",
        "reactions": [
            {
                "name": "heart",
                "users": [
                    "U010B412MF1",
                    "UUWPKNE2E"
                ],
                "count": 2
            },
            {
                "name": "+1",
                "users": [
                    "UV8AZ6ABC",
                    "UV0QTJCMT",
                    "U01012QS8J0"
                ],
                "count": 3
            }
        ]
    },
    {
        "client_msg_id": "795a6694-6b38-4c4e-90f4-2c862f5e3217",
        "type": "message",
        "text": "Metastudy call will be Friday 20 March 6pm CET (Paris time)",
        "user": "UV85V64SD",
        "ts": "1584606572.041300",
        "team": "TUU48M0T1",
        "user_team": "TUU48M0T1",
        "source_team": "TUU48M0T1",
        "user_profile": {
            "avatar_hash": "1e73a651bdfe",
            "image_72": "https:\/\/avatars.slack-edge.com\/2020-03-16\/1004297548853_1e73a651bdfef2c41501_72.jpg",
            "first_name": "Marc",
            "real_name": "Marc Santolini",
            "display_name": "Marc Santolini - JOGL CoFounder \/ CSO",
            "team": "TUU48M0T1",
            "name": "marc.santolini",
            "is_restricted": false,
            "is_ultra_restricted": false
        },
        "blocks": [
            {
                "type": "rich_text",
                "block_id": "CQlT",
                "elements": [
                    {
                        "type": "rich_text_section",
                        "elements": [
                            {
                                "type": "text",
                                "text": "Metastudy call will be Friday 20 March 6pm CET (Paris time)"
                            }
                        ]
                    }
                ]
            }
        ]
    },
    {
        "type": "message",
        "subtype": "channel_join",
        "ts": "1584620569.041800",
        "user": "U010BHAPG3F",
        "text": "<@U010BHAPG3F> has joined the channel",
        "inviter": "UV85V64SD"
    }
]