[
    {
        "type": "message",
        "subtype": "channel_join",
        "ts": "1584328029.000200",
        "user": "UV0QTJCMT",
        "text": "<@UV0QTJCMT> has joined the channel"
    },
    {
        "type": "message",
        "subtype": "channel_purpose",
        "ts": "1584328031.000300",
        "user": "UV0QTJCMT",
        "text": "<@UV0QTJCMT> set the channel purpose: Group interested in analyzing the workings of this initiative as a whole, producing a \"science of science\" study to help future large-scale international scientific collaborations",
        "purpose": "Group interested in analyzing the workings of this initiative as a whole, producing a \"science of science\" study to help future large-scale international scientific collaborations"
    },
    {
        "type": "message",
        "subtype": "channel_join",
        "ts": "1584328052.000500",
        "user": "UUWPKNE2E",
        "text": "<@UUWPKNE2E> has joined the channel",
        "inviter": "UV0QTJCMT"
    },
    {
        "type": "message",
        "subtype": "channel_join",
        "ts": "1584337912.000200",
        "user": "U0102T8BDB9",
        "text": "<@U0102T8BDB9> has joined the channel"
    }
]