[
    {
        "client_msg_id": "dbeb19f0-d5fa-48ac-be38-ac3948107bb5",
        "type": "message",
        "text": "<@UV9V03C8Y> great idea, I can do this. The week is now filled with other subgroup meetings, but it seems the hour just before the community call would be a great timing, so that we could directly update the community afterwards.",
        "user": "UV85V64SD",
        "ts": "1585730621.048000",
        "team": "TUU48M0T1",
        "user_team": "TUU48M0T1",
        "source_team": "TUU48M0T1",
        "user_profile": {
            "avatar_hash": "1e73a651bdfe",
            "image_72": "https:\/\/avatars.slack-edge.com\/2020-03-16\/1004297548853_1e73a651bdfef2c41501_72.jpg",
            "first_name": "Marc",
            "real_name": "Marc Santolini",
            "display_name": "Marc Santolini - JOGL CoFounder \/ CSO",
            "team": "TUU48M0T1",
            "name": "marc.santolini",
            "is_restricted": false,
            "is_ultra_restricted": false
        },
        "blocks": [
            {
                "type": "rich_text",
                "block_id": "XD2m0",
                "elements": [
                    {
                        "type": "rich_text_section",
                        "elements": [
                            {
                                "type": "user",
                                "user_id": "UV9V03C8Y"
                            },
                            {
                                "type": "text",
                                "text": " great idea, I can do this. The week is now filled with other subgroup meetings, but it seems the hour just before the community call would be a great timing, so that we could directly update the community afterwards."
                            }
                        ]
                    }
                ]
            }
        ]
    }
]