[
    {
        "type": "message",
        "text": "hey <!channel>!\n\nTonight we have our *regular meeting at 6pm CET.*\n\nZoom link: <https:\/\/zoom.us\/j\/361609725>\nAgenda: <https:\/\/docs.google.com\/document\/d\/18CAs3c4jopAD3vLM34EPw-11HJCZBsaUe5fzJo7IlXo\/edit#>.\n\nIt will be mainly about synchronizing between the different subgroups (Slack study, Survey design, and Recommendation system).\n\nSee you there!",
        "files": [
            {
                "id": "F0112KHJWE7",
                "created": 1585920142,
                "timestamp": 1585920142,
                "name": " 2020-04-03 Metastudy Call - Agenda and Notes",
                "title": "2020-04-03 Metastudy Call - Agenda and Notes",
                "mimetype": "application\/vnd.google-apps.document",
                "filetype": "gdoc",
                "pretty_type": "GSuite Document",
                "user": "UV85V64SD",
                "editable": false,
                "size": 2219,
                "mode": "external",
                "is_external": true,
                "external_type": "gdrive",
                "is_public": true,
                "public_url_shared": false,
                "display_as_bot": false,
                "username": "",
                "url_private": "https:\/\/docs.google.com\/document\/d\/18CAs3c4jopAD3vLM34EPw-11HJCZBsaUe5fzJo7IlXo\/edit#",
                "thumb_64": "https:\/\/files.slack.com\/files-tmb\/TUU48M0T1-F0112KHJWE7-d1b7a71feb\/_2020-04-03_metastudy_call_-_agenda_and_notes_64.png?t=xoxe-980144714919-1106606678066-1105227127893-6f722bb664235052954ad46852628b64",
                "thumb_80": "https:\/\/files.slack.com\/files-tmb\/TUU48M0T1-F0112KHJWE7-d1b7a71feb\/_2020-04-03_metastudy_call_-_agenda_and_notes_80.png?t=xoxe-980144714919-1106606678066-1105227127893-6f722bb664235052954ad46852628b64",
                "thumb_360": "https:\/\/files.slack.com\/files-tmb\/TUU48M0T1-F0112KHJWE7-d1b7a71feb\/_2020-04-03_metastudy_call_-_agenda_and_notes_360.png?t=xoxe-980144714919-1106606678066-1105227127893-6f722bb664235052954ad46852628b64",
                "thumb_360_w": 278,
                "thumb_360_h": 360,
                "thumb_480": "https:\/\/files.slack.com\/files-tmb\/TUU48M0T1-F0112KHJWE7-d1b7a71feb\/_2020-04-03_metastudy_call_-_agenda_and_notes_480.png?t=xoxe-980144714919-1106606678066-1105227127893-6f722bb664235052954ad46852628b64",
                "thumb_480_w": 371,
                "thumb_480_h": 480,
                "thumb_160": "https:\/\/files.slack.com\/files-tmb\/TUU48M0T1-F0112KHJWE7-d1b7a71feb\/_2020-04-03_metastudy_call_-_agenda_and_notes_160.png?t=xoxe-980144714919-1106606678066-1105227127893-6f722bb664235052954ad46852628b64",
                "thumb_720": "https:\/\/files.slack.com\/files-tmb\/TUU48M0T1-F0112KHJWE7-d1b7a71feb\/_2020-04-03_metastudy_call_-_agenda_and_notes_720.png?t=xoxe-980144714919-1106606678066-1105227127893-6f722bb664235052954ad46852628b64",
                "thumb_720_w": 557,
                "thumb_720_h": 720,
                "thumb_800": "https:\/\/files.slack.com\/files-tmb\/TUU48M0T1-F0112KHJWE7-d1b7a71feb\/_2020-04-03_metastudy_call_-_agenda_and_notes_800.png?t=xoxe-980144714919-1106606678066-1105227127893-6f722bb664235052954ad46852628b64",
                "thumb_800_w": 800,
                "thumb_800_h": 1035,
                "thumb_960": "https:\/\/files.slack.com\/files-tmb\/TUU48M0T1-F0112KHJWE7-d1b7a71feb\/_2020-04-03_metastudy_call_-_agenda_and_notes_960.png?t=xoxe-980144714919-1106606678066-1105227127893-6f722bb664235052954ad46852628b64",
                "thumb_960_w": 742,
                "thumb_960_h": 960,
                "thumb_1024": "https:\/\/files.slack.com\/files-tmb\/TUU48M0T1-F0112KHJWE7-d1b7a71feb\/_2020-04-03_metastudy_call_-_agenda_and_notes_1024.png?t=xoxe-980144714919-1106606678066-1105227127893-6f722bb664235052954ad46852628b64",
                "thumb_1024_w": 791,
                "thumb_1024_h": 1024,
                "image_exif_rotation": 1,
                "original_w": 800,
                "original_h": 1035,
                "thumb_tiny": "AwAwACXTpCcUNTcn0oAXd9KUcihc96WgAooooAQ0Z+lDfQUgA9B+VADqKTA9BS0AFFFFACNyKaAc9KeRmk2\/T8qAADPr+dGPrQBjpj8qWgAooooA\/9k=",
                "permalink": "https:\/\/open-covid19.slack.com\/files\/UV85V64SD\/F0112KHJWE7\/_2020-04-03_metastudy_call_-_agenda_and_notes",
                "is_starred": false,
                "external_id": "18CAs3c4jopAD3vLM34EPw-11HJCZBsaUe5fzJo7IlXo",
                "external_url": "https:\/\/docs.google.com\/document\/d\/18CAs3c4jopAD3vLM34EPw-11HJCZBsaUe5fzJo7IlXo\/edit#",
                "has_rich_preview": true
            }
        ],
        "upload": false,
        "blocks": [
            {
                "type": "rich_text",
                "block_id": "u6GT6",
                "elements": [
                    {
                        "type": "rich_text_section",
                        "elements": [
                            {
                                "type": "text",
                                "text": "hey "
                            },
                            {
                                "type": "broadcast",
                                "range": "channel"
                            },
                            {
                                "type": "text",
                                "text": "!\n\nTonight we have our "
                            },
                            {
                                "type": "text",
                                "text": "regular meeting at 6pm CET.",
                                "style": {
                                    "bold": true
                                }
                            },
                            {
                                "type": "text",
                                "text": "\n\nZoom link: "
                            },
                            {
                                "type": "link",
                                "url": "https:\/\/zoom.us\/j\/361609725"
                            },
                            {
                                "type": "text",
                                "text": "\nAgenda: "
                            },
                            {
                                "type": "link",
                                "url": "https:\/\/docs.google.com\/document\/d\/18CAs3c4jopAD3vLM34EPw-11HJCZBsaUe5fzJo7IlXo\/edit#"
                            },
                            {
                                "type": "text",
                                "text": ".\n\nIt will be mainly about synchronizing between the different subgroups (Slack study, Survey design, and Recommendation system).\n\nSee you there!"
                            }
                        ]
                    }
                ]
            }
        ],
        "user": "UV85V64SD",
        "display_as_bot": false,
        "x_files": [
            "F0112KHJWE7"
        ],
        "ts": "1585920139.055500",
        "client_msg_id": "c556c318-42fe-4cc0-8ea1-25faab9b082b",
        "reactions": [
            {
                "name": "+1",
                "users": [
                    "U010AGDDEBZ",
                    "U010B412MF1"
                ],
                "count": 2
            }
        ]
    }
]