[
    {
        "type": "message",
        "subtype": "channel_join",
        "ts": "1584351456.007300",
        "user": "UV2P3AQEN",
        "text": "<@UV2P3AQEN> has joined the channel"
    },
    {
        "client_msg_id": "e5aed834-759a-4b9f-a1e8-f57d7508dae3",
        "type": "message",
        "text": "Hello everyone, this is quite interesting. It would be great to know if there are already publications on the topic; if that's the case, I'd be happy to start looking into the hardware side of it.",
        "user": "UV2P3AQEN",
        "ts": "1584351683.008800",
        "team": "TUU48M0T1",
        "user_team": "TUU48M0T1",
        "source_team": "TUU48M0T1",
        "user_profile": {
            "avatar_hash": "82d977ce9645",
            "image_72": "https:\/\/avatars.slack-edge.com\/2020-03-16\/1003452392327_82d977ce9645ebc30917_72.jpg",
            "first_name": "Antonio",
            "real_name": "Antonio Mangiapane",
            "display_name": "Antonio Mangiapane",
            "team": "TUU48M0T1",
            "name": "antonio.mangiapane29",
            "is_restricted": false,
            "is_ultra_restricted": false
        },
        "blocks": [
            {
                "type": "rich_text",
                "block_id": "sio",
                "elements": [
                    {
                        "type": "rich_text_section",
                        "elements": [
                            {
                                "type": "text",
                                "text": "Hello everyone, this is quite interesting. It would be great to know if there are already publications on the topic; if that's the case, I'd be happy to start looking into the hardware side of it."
                            }
                        ]
                    }
                ]
            }
        ]
    },
    {
        "type": "message",
        "subtype": "channel_join",
        "ts": "1584356330.009000",
        "user": "UV6870881",
        "text": "<@UV6870881> has joined the channel"
    },
    {
        "type": "message",
        "subtype": "channel_join",
        "ts": "1584359547.009300",
        "user": "UV4EY2049",
        "text": "<@UV4EY2049> has joined the channel"
    },
    {
        "client_msg_id": "9cc40437-ccc8-466c-8d51-765d8d158b09",
        "type": "message",
        "text": "<https:\/\/www.nature.com\/articles\/srep39956>",
        "user": "UV4EY2049",
        "ts": "1584359583.009500",
        "team": "TUU48M0T1",
        "user_team": "TUU48M0T1",
        "source_team": "TUU48M0T1",
        "user_profile": {
            "avatar_hash": "g39686510263",
            "image_72": "https:\/\/secure.gravatar.com\/avatar\/396865102632c62e794e2f93f65f4d55.jpg?s=72&d=https%3A%2F%2Fa.slack-edge.com%2Fdf10d%2Fimg%2Favatars%2Fava_0024-72.png",
            "first_name": "",
            "real_name": "Vit Zemanek",
            "display_name": "Vit Zemanek",
            "team": "TUU48M0T1",
            "name": "2vitzemanek",
            "is_restricted": false,
            "is_ultra_restricted": false
        },
        "attachments": [
            {
                "service_name": "Scientific Reports",
                "title": "Universal and reusable virus deactivation system for respiratory prote",
                "title_link": "https:\/\/www.nature.com\/articles\/srep39956",
                "text": "Universal and reusable virus deactivation system for respiratory protection",
                "fallback": "Scientific Reports: Universal and reusable virus deactivation system for respiratory prote",
                "thumb_url": "https:\/\/media.springernature.com\/full\/springer-static\/image\/art%3A10.1038%2Fsrep39956\/MediaObjects\/41598_2017_Article_BFsrep39956_Fig1_HTML.jpg",
                "from_url": "https:\/\/www.nature.com\/articles\/srep39956",
                "thumb_width": 1575,
                "thumb_height": 1289,
                "id": 1,
                "original_url": "https:\/\/www.nature.com\/articles\/srep39956"
            }
        ],
        "blocks": [
            {
                "type": "rich_text",
                "block_id": "YGi",
                "elements": [
                    {
                        "type": "rich_text_section",
                        "elements": [
                            {
                                "type": "link",
                                "url": "https:\/\/www.nature.com\/articles\/srep39956"
                            }
                        ]
                    }
                ]
            }
        ],
        "thread_ts": "1584230803.005200",
        "parent_user_id": "UV20M5HGQ"
    },
    {
        "client_msg_id": "7dbb1967-a07b-4e8d-b39a-b8803de11e74",
        "type": "message",
        "text": "Hi again. I've read the publication linked by <@UV4EY2049> and found it very interesting. It would seem that, according to it, atmospheres with enhanced salinity provide beneficial effects against infected aerosol. Looks like this is due to the action of osmotic pressure, which tends to facilitate the insertion of saline agents inside the droplets. The subsequent recrystallization of NaCl then deactivates pathogen agents.\nNow, I'm sorry for possibly wrong terminology, but this really seems something worth elaborating on.",
        "user": "UV2P3AQEN",
        "ts": "1584390026.015100",
        "team": "TUU48M0T1",
        "user_team": "TUU48M0T1",
        "source_team": "TUU48M0T1",
        "user_profile": {
            "avatar_hash": "82d977ce9645",
            "image_72": "https:\/\/avatars.slack-edge.com\/2020-03-16\/1003452392327_82d977ce9645ebc30917_72.jpg",
            "first_name": "Antonio",
            "real_name": "Antonio Mangiapane",
            "display_name": "Antonio Mangiapane",
            "team": "TUU48M0T1",
            "name": "antonio.mangiapane29",
            "is_restricted": false,
            "is_ultra_restricted": false
        },
        "blocks": [
            {
                "type": "rich_text",
                "block_id": "shbI",
                "elements": [
                    {
                        "type": "rich_text_section",
                        "elements": [
                            {
                                "type": "text",
                                "text": "Hi again. I've read the publication linked by "
                            },
                            {
                                "type": "user",
                                "user_id": "UV4EY2049"
                            },
                            {
                                "type": "text",
                                "text": " and found it very interesting. It would seem that, according to it, atmospheres with enhanced salinity provide beneficial effects against infected aerosol. Looks like this is due to the action of osmotic pressure, which tends to facilitate the insertion of saline agents inside the droplets. The subsequent recrystallization of NaCl then deactivates pathogen agents.\nNow, I'm sorry for possibly wrong terminology, but this really seems something worth elaborating on."
                            }
                        ]
                    }
                ]
            }
        ],
        "thread_ts": "1584390026.015100",
        "reply_count": 2,
        "reply_users_count": 2,
        "latest_reply": "1584391843.015400",
        "reply_users": [
            "UV20M5HGQ",
            "UV2P3AQEN"
        ],
        "replies": [
            {
                "user": "UV20M5HGQ",
                "ts": "1584391816.015200"
            },
            {
                "user": "UV2P3AQEN",
                "ts": "1584391843.015400"
            }
        ],
        "subscribed": false
    },
    {
        "client_msg_id": "cf6d47d6-3b9a-415d-8903-8567c9b13b1b",
        "type": "message",
        "text": "Thanks for the info! Could you re-share <@UV4EY2049>’s post in this channel?",
        "user": "UV20M5HGQ",
        "ts": "1584391816.015200",
        "team": "TUU48M0T1",
        "user_team": "TUU48M0T1",
        "source_team": "TUU48M0T1",
        "user_profile": {
            "avatar_hash": "de7ea7b7e14e",
            "image_72": "https:\/\/avatars.slack-edge.com\/2020-03-11\/981865374050_de7ea7b7e14e7b4316b9_72.jpg",
            "first_name": "",
            "real_name": "Vesta Korniakova",
            "display_name": "Vesta Korniakova",
            "team": "TUU48M0T1",
            "name": "riboswitchvesta",
            "is_restricted": false,
            "is_ultra_restricted": false
        },
        "blocks": [
            {
                "type": "rich_text",
                "block_id": "Y\/lyi",
                "elements": [
                    {
                        "type": "rich_text_section",
                        "elements": [
                            {
                                "type": "text",
                                "text": "Thanks for the info! Could you re-share "
                            },
                            {
                                "type": "user",
                                "user_id": "UV4EY2049"
                            },
                            {
                                "type": "text",
                                "text": "’s post in this channel?"
                            }
                        ]
                    }
                ]
            }
        ],
        "thread_ts": "1584390026.015100",
        "parent_user_id": "UV2P3AQEN"
    },
    {
        "client_msg_id": "77518432-ebf4-420f-9c78-92bebd7c7036",
        "type": "message",
        "text": "Sure",
        "user": "UV2P3AQEN",
        "ts": "1584391843.015400",
        "team": "TUU48M0T1",
        "user_team": "TUU48M0T1",
        "source_team": "TUU48M0T1",
        "user_profile": {
            "avatar_hash": "82d977ce9645",
            "image_72": "https:\/\/avatars.slack-edge.com\/2020-03-16\/1003452392327_82d977ce9645ebc30917_72.jpg",
            "first_name": "Antonio",
            "real_name": "Antonio Mangiapane",
            "display_name": "Antonio Mangiapane",
            "team": "TUU48M0T1",
            "name": "antonio.mangiapane29",
            "is_restricted": false,
            "is_ultra_restricted": false
        },
        "blocks": [
            {
                "type": "rich_text",
                "block_id": "m2Y",
                "elements": [
                    {
                        "type": "rich_text_section",
                        "elements": [
                            {
                                "type": "text",
                                "text": "Sure"
                            }
                        ]
                    }
                ]
            }
        ],
        "thread_ts": "1584390026.015100",
        "parent_user_id": "UV2P3AQEN"
    },
    {
        "client_msg_id": "7e1e07b2-a4a8-4e42-a06d-a25937328848",
        "type": "message",
        "text": "<https:\/\/www.nature.com\/articles\/srep39956>\n\nIt's worth mentioning that the specific application still requires the utilization of fibre-based filters. I leave it to anyone more competent than me in the field to decide whether it's significant.",
        "user": "UV2P3AQEN",
        "ts": "1584392226.016900",
        "team": "TUU48M0T1",
        "user_team": "TUU48M0T1",
        "source_team": "TUU48M0T1",
        "user_profile": {
            "avatar_hash": "82d977ce9645",
            "image_72": "https:\/\/avatars.slack-edge.com\/2020-03-16\/1003452392327_82d977ce9645ebc30917_72.jpg",
            "first_name": "Antonio",
            "real_name": "Antonio Mangiapane",
            "display_name": "Antonio Mangiapane",
            "team": "TUU48M0T1",
            "name": "antonio.mangiapane29",
            "is_restricted": false,
            "is_ultra_restricted": false
        },
        "attachments": [
            {
                "service_name": "Scientific Reports",
                "title": "Universal and reusable virus deactivation system for respiratory prote",
                "title_link": "https:\/\/www.nature.com\/articles\/srep39956",
                "text": "Universal and reusable virus deactivation system for respiratory protection",
                "fallback": "Scientific Reports: Universal and reusable virus deactivation system for respiratory prote",
                "thumb_url": "https:\/\/media.springernature.com\/full\/springer-static\/image\/art%3A10.1038%2Fsrep39956\/MediaObjects\/41598_2017_Article_BFsrep39956_Fig1_HTML.jpg",
                "from_url": "https:\/\/www.nature.com\/articles\/srep39956",
                "thumb_width": 1575,
                "thumb_height": 1289,
                "id": 1,
                "original_url": "https:\/\/www.nature.com\/articles\/srep39956"
            }
        ],
        "blocks": [
            {
                "type": "rich_text",
                "block_id": "oTUEA",
                "elements": [
                    {
                        "type": "rich_text_section",
                        "elements": [
                            {
                                "type": "link",
                                "url": "https:\/\/www.nature.com\/articles\/srep39956"
                            },
                            {
                                "type": "text",
                                "text": "\n\nIt's worth mentioning that the specific application still requires the utilization of fibre-based filters. I leave it to anyone more competent than me in the field to decide whether it's significant."
                            }
                        ]
                    }
                ]
            }
        ],
        "thread_ts": "1584392226.016900",
        "reply_count": 3,
        "reply_users_count": 3,
        "latest_reply": "1584460548.018500",
        "reply_users": [
            "UV20M5HGQ",
            "UV2P3AQEN",
            "UV4EY2049"
        ],
        "replies": [
            {
                "user": "UV20M5HGQ",
                "ts": "1584393434.017200"
            },
            {
                "user": "UV2P3AQEN",
                "ts": "1584396300.018300"
            },
            {
                "user": "UV4EY2049",
                "ts": "1584460548.018500"
            }
        ],
        "subscribed": false,
        "reactions": [
            {
                "name": "+1",
                "users": [
                    "UV20M5HGQ"
                ],
                "count": 1
            }
        ]
    },
    {
        "client_msg_id": "1adb0139-e1ad-418a-b48e-5f7376ec8d83",
        "type": "message",
        "text": "Wow that is amazing, I wonder if this sort of de-activation also works in saline water droplets and how quickly this deactivation occurs.",
        "user": "UV20M5HGQ",
        "ts": "1584393434.017200",
        "team": "TUU48M0T1",
        "user_team": "TUU48M0T1",
        "source_team": "TUU48M0T1",
        "user_profile": {
            "avatar_hash": "de7ea7b7e14e",
            "image_72": "https:\/\/avatars.slack-edge.com\/2020-03-11\/981865374050_de7ea7b7e14e7b4316b9_72.jpg",
            "first_name": "",
            "real_name": "Vesta Korniakova",
            "display_name": "Vesta Korniakova",
            "team": "TUU48M0T1",
            "name": "riboswitchvesta",
            "is_restricted": false,
            "is_ultra_restricted": false
        },
        "blocks": [
            {
                "type": "rich_text",
                "block_id": "LxA0X",
                "elements": [
                    {
                        "type": "rich_text_section",
                        "elements": [
                            {
                                "type": "text",
                                "text": "Wow that is amazing, I wonder if this sort of de-activation also works in saline water droplets and how quickly this deactivation occurs."
                            }
                        ]
                    }
                ]
            }
        ],
        "thread_ts": "1584392226.016900",
        "parent_user_id": "UV2P3AQEN"
    },
    {
        "client_msg_id": "1618a6af-3f9c-4303-b674-10cc2ac9834b",
        "type": "message",
        "text": "I guess that's what this is all about. My only concern is related to the effects of a long exposure to a saline atmosphere on the user, but I know nothing about it.",
        "user": "UV2P3AQEN",
        "ts": "1584396300.018300",
        "team": "TUU48M0T1",
        "user_team": "TUU48M0T1",
        "source_team": "TUU48M0T1",
        "user_profile": {
            "avatar_hash": "82d977ce9645",
            "image_72": "https:\/\/avatars.slack-edge.com\/2020-03-16\/1003452392327_82d977ce9645ebc30917_72.jpg",
            "first_name": "Antonio",
            "real_name": "Antonio Mangiapane",
            "display_name": "Antonio Mangiapane",
            "team": "TUU48M0T1",
            "name": "antonio.mangiapane29",
            "is_restricted": false,
            "is_ultra_restricted": false
        },
        "blocks": [
            {
                "type": "rich_text",
                "block_id": "A6A",
                "elements": [
                    {
                        "type": "rich_text_section",
                        "elements": [
                            {
                                "type": "text",
                                "text": "I guess that's what this is all about. My only concern is related to the effects of a long exposure to a saline atmosphere on the user, but I know nothing about it."
                            }
                        ]
                    }
                ]
            }
        ],
        "thread_ts": "1584392226.016900",
        "parent_user_id": "UV2P3AQEN"
    }
]