[
    {
        "client_msg_id": "111368aa-a082-4bd7-b9f3-84f1d317bde8",
        "type": "message",
        "text": "*Hello @ channel*!\nI’m working on the coordination team and implementing a new Slack tool: User Groups. We’re looking to identify the main Project Lead(s) for each project, and add them to the Project Leads user group so that they can be easily contacted.\n*Who should I add from this project? <@UV20M5HGQ> or <@UV2P3AQEN>, would you be the right people for this?*\nThanks!!",
        "user": "U011B6VLM2A",
        "ts": "1588152862.005300",
        "team": "TUU48M0T1",
        "user_team": "TUU48M0T1",
        "source_team": "TUU48M0T1",
        "user_profile": {
            "avatar_hash": "4231dc598cfc",
            "image_72": "https:\/\/avatars.slack-edge.com\/2020-04-02\/1044784558839_4231dc598cfc2e59c4c4_72.jpg",
            "first_name": "Alix",
            "real_name": "Alix Mains",
            "display_name": "Alix Mains - JOGL Coordinator",
            "team": "TUU48M0T1",
            "name": "alixhmains",
            "is_restricted": false,
            "is_ultra_restricted": false
        },
        "blocks": [
            {
                "type": "rich_text",
                "block_id": "wHmM",
                "elements": [
                    {
                        "type": "rich_text_section",
                        "elements": [
                            {
                                "type": "text",
                                "text": "Hello @ channel",
                                "style": {
                                    "bold": true
                                }
                            },
                            {
                                "type": "text",
                                "text": "!\nI’m working on the coordination team and implementing a new Slack tool: User Groups. We’re looking to identify the main Project Lead(s) for each project, and add them to the Project Leads user group so that they can be easily contacted.\n"
                            },
                            {
                                "type": "text",
                                "text": "Who should I add from this project? ",
                                "style": {
                                    "bold": true
                                }
                            },
                            {
                                "type": "user",
                                "user_id": "UV20M5HGQ",
                                "style": {
                                    "bold": true
                                }
                            },
                            {
                                "type": "text",
                                "text": " or ",
                                "style": {
                                    "bold": true
                                }
                            },
                            {
                                "type": "user",
                                "user_id": "UV2P3AQEN",
                                "style": {
                                    "bold": true
                                }
                            },
                            {
                                "type": "text",
                                "text": ", would you be the right people for this?",
                                "style": {
                                    "bold": true
                                }
                            },
                            {
                                "type": "text",
                                "text": "\nThanks!!"
                            }
                        ]
                    }
                ]
            }
        ],
        "thread_ts": "1588152862.005300",
        "reply_count": 1,
        "reply_users_count": 1,
        "latest_reply": "1588173769.005400",
        "reply_users": [
            "UV20M5HGQ"
        ],
        "replies": [
            {
                "user": "UV20M5HGQ",
                "ts": "1588173769.005400"
            }
        ],
        "subscribed": false
    },
    {
        "client_msg_id": "48fea328-29bf-4be6-82f4-091929ecb912",
        "type": "message",
        "text": "Hey Alix! There isn't a concrete project that is being worked on here. This is more of a brainstorming channel to share information in and explore the topic.",
        "user": "UV20M5HGQ",
        "ts": "1588173769.005400",
        "team": "TUU48M0T1",
        "user_team": "TUU48M0T1",
        "source_team": "TUU48M0T1",
        "user_profile": {
            "avatar_hash": "de7ea7b7e14e",
            "image_72": "https:\/\/avatars.slack-edge.com\/2020-03-11\/981865374050_de7ea7b7e14e7b4316b9_72.jpg",
            "first_name": "",
            "real_name": "Vesta Korniakova",
            "display_name": "Vesta Korniakova",
            "team": "TUU48M0T1",
            "name": "riboswitchvesta",
            "is_restricted": false,
            "is_ultra_restricted": false
        },
        "blocks": [
            {
                "type": "rich_text",
                "block_id": "4JSi",
                "elements": [
                    {
                        "type": "rich_text_section",
                        "elements": [
                            {
                                "type": "text",
                                "text": "Hey Alix! There isn't a concrete project that is being worked on here. This is more of a brainstorming channel to share information in and explore the topic."
                            }
                        ]
                    }
                ]
            }
        ],
        "thread_ts": "1588152862.005300",
        "parent_user_id": "U011B6VLM2A"
    }
]