[
    {
        "type": "message",
        "text": "*Introducing here some of my teammates at the MIT \"Africa takes on covid19\" hackathon* this weekend: <@U012XSSRE82> <@U012H74ACEB> <@U01342HB9QU> <@U012Z5VG6R1>\n\n*They are amazing people, I had the best time working with them!*\n\n*We worked on a SMART Mobile Lab:* providing Sustainable, Modular, Accessible, Reliable, and Timely Approach for Testing Everywhere!\nHere are the <https:\/\/docs.google.com\/presentation\/d\/1qTngv4ccJAiqZia3gGpWzocg_Cn_iomjAR8nWvlQ4RE\/edit#slide=id.g7702e0ea70_0_0|slides we presented> (the video pitch is comming soon).\nIf you want to hear more about it, feel free to reach out!\n\nIs there any next call planed we could join you?",
        "files": [
            {
                "id": "F013G8P9FS5",
                "created": 1588709956,
                "timestamp": 1588709956,
                "name": "SMART Mobile Labs Testing Units",
                "title": "SMART Mobile Labs Testing Units",
                "mimetype": "application\/vnd.google-apps.presentation",
                "filetype": "gpres",
                "pretty_type": "GSuite Presentation",
                "user": "UV9V03C8Y",
                "editable": false,
                "size": 2806,
                "mode": "external",
                "is_external": true,
                "external_type": "gdrive",
                "is_public": true,
                "public_url_shared": false,
                "display_as_bot": false,
                "username": "",
                "url_private": "https:\/\/docs.google.com\/presentation\/d\/1qTngv4ccJAiqZia3gGpWzocg_Cn_iomjAR8nWvlQ4RE\/edit#slide=id.g7702e0ea70_0_0",
                "thumb_64": "https:\/\/files.slack.com\/files-tmb\/TUU48M0T1-F013G8P9FS5-89b7152966\/smart_mobile_labs_testing_units_64.png?t=xoxe-980144714919-1133254701825-1120841107731-daf595b5a7d6c9028b0b02a925032e36",
                "thumb_80": "https:\/\/files.slack.com\/files-tmb\/TUU48M0T1-F013G8P9FS5-89b7152966\/smart_mobile_labs_testing_units_80.png?t=xoxe-980144714919-1133254701825-1120841107731-daf595b5a7d6c9028b0b02a925032e36",
                "thumb_360": "https:\/\/files.slack.com\/files-tmb\/TUU48M0T1-F013G8P9FS5-89b7152966\/smart_mobile_labs_testing_units_360.png?t=xoxe-980144714919-1133254701825-1120841107731-daf595b5a7d6c9028b0b02a925032e36",
                "thumb_360_w": 360,
                "thumb_360_h": 203,
                "thumb_480": "https:\/\/files.slack.com\/files-tmb\/TUU48M0T1-F013G8P9FS5-89b7152966\/smart_mobile_labs_testing_units_480.png?t=xoxe-980144714919-1133254701825-1120841107731-daf595b5a7d6c9028b0b02a925032e36",
                "thumb_480_w": 480,
                "thumb_480_h": 270,
                "thumb_160": "https:\/\/files.slack.com\/files-tmb\/TUU48M0T1-F013G8P9FS5-89b7152966\/smart_mobile_labs_testing_units_160.png?t=xoxe-980144714919-1133254701825-1120841107731-daf595b5a7d6c9028b0b02a925032e36",
                "thumb_720": "https:\/\/files.slack.com\/files-tmb\/TUU48M0T1-F013G8P9FS5-89b7152966\/smart_mobile_labs_testing_units_720.png?t=xoxe-980144714919-1133254701825-1120841107731-daf595b5a7d6c9028b0b02a925032e36",
                "thumb_720_w": 720,
                "thumb_720_h": 405,
                "thumb_800": "https:\/\/files.slack.com\/files-tmb\/TUU48M0T1-F013G8P9FS5-89b7152966\/smart_mobile_labs_testing_units_800.png?t=xoxe-980144714919-1133254701825-1120841107731-daf595b5a7d6c9028b0b02a925032e36",
                "thumb_800_w": 800,
                "thumb_800_h": 450,
                "image_exif_rotation": 1,
                "original_w": 800,
                "original_h": 450,
                "thumb_tiny": "AwAbADCATRjrEPzqVZ4sfdxTNin+EY+lSCGIdCPyo5TLmXYY8q5+UHH0qMuW6EKPerASPON2B9KTyo8feH5UwTitbFbk\/wAQpDyeoFWhDGepUfhTNij+EflRYftERCZvQUonbPP6VCOSB61LIoUrgYoL5YkjOwGQD+NM85vSmsxVRg8+tOdR5W7+I96BcqHCYH1\/DvTWkYEAYJ9KiAyc96sxqACwHzetGpL5V0P\/2Q==",
                "permalink": "https:\/\/open-covid19.slack.com\/files\/UV9V03C8Y\/F013G8P9FS5\/smart_mobile_labs_testing_units",
                "is_starred": false,
                "external_id": "1qTngv4ccJAiqZia3gGpWzocg_Cn_iomjAR8nWvlQ4RE",
                "external_url": "https:\/\/docs.google.com\/presentation\/d\/1qTngv4ccJAiqZia3gGpWzocg_Cn_iomjAR8nWvlQ4RE\/edit#slide=id.g7702e0ea70_0_0",
                "has_rich_preview": true
            }
        ],
        "upload": false,
        "blocks": [
            {
                "type": "rich_text",
                "block_id": "d62",
                "elements": [
                    {
                        "type": "rich_text_section",
                        "elements": [
                            {
                                "type": "text",
                                "text": "Introducing here some of my teammates at the MIT \"Africa takes on covid19\" hackathon",
                                "style": {
                                    "bold": true
                                }
                            },
                            {
                                "type": "text",
                                "text": " this weekend: "
                            },
                            {
                                "type": "user",
                                "user_id": "U012XSSRE82"
                            },
                            {
                                "type": "text",
                                "text": " "
                            },
                            {
                                "type": "user",
                                "user_id": "U012H74ACEB"
                            },
                            {
                                "type": "text",
                                "text": " "
                            },
                            {
                                "type": "user",
                                "user_id": "U01342HB9QU"
                            },
                            {
                                "type": "text",
                                "text": " "
                            },
                            {
                                "type": "user",
                                "user_id": "U012Z5VG6R1"
                            },
                            {
                                "type": "text",
                                "text": "\n\n"
                            },
                            {
                                "type": "text",
                                "text": "They are amazing people, I had the best time working with them!",
                                "style": {
                                    "bold": true
                                }
                            },
                            {
                                "type": "text",
                                "text": "\n\n"
                            },
                            {
                                "type": "text",
                                "text": "We worked on a SMART Mobile Lab: ",
                                "style": {
                                    "bold": true
                                }
                            },
                            {
                                "type": "text",
                                "text": "providing Sustainable, Modular, Accessible, Reliable, and Timely Approach for Testing Everywhere!\nHere are the "
                            },
                            {
                                "type": "link",
                                "url": "https:\/\/docs.google.com\/presentation\/d\/1qTngv4ccJAiqZia3gGpWzocg_Cn_iomjAR8nWvlQ4RE\/edit#slide=id.g7702e0ea70_0_0",
                                "text": "slides we presented"
                            },
                            {
                                "type": "text",
                                "text": " (the video pitch is comming soon).\nIf you want to hear more about it, feel free to reach out!\n\nIs there any next call planed we could join you?"
                            }
                        ]
                    }
                ]
            }
        ],
        "user": "UV9V03C8Y",
        "display_as_bot": false,
        "x_files": [
            "F013G8P9FS5"
        ],
        "ts": "1588770374.045300",
        "client_msg_id": "27c1cf3d-afbb-4eb1-a627-61d584eb4d36",
        "reactions": [
            {
                "name": "+1",
                "users": [
                    "U011B5424FR"
                ],
                "count": 1
            }
        ]
    },
    {
        "type": "message",
        "subtype": "channel_join",
        "ts": "1588770426.046100",
        "user": "U012XSSRE82",
        "text": "<@U012XSSRE82> has joined the channel",
        "inviter": "UV9V03C8Y"
    },
    {
        "type": "message",
        "subtype": "channel_join",
        "ts": "1588770426.046300",
        "user": "U012H74ACEB",
        "text": "<@U012H74ACEB> has joined the channel",
        "inviter": "UV9V03C8Y"
    },
    {
        "type": "message",
        "subtype": "channel_join",
        "ts": "1588770426.046500",
        "user": "U01342HB9QU",
        "text": "<@U01342HB9QU> has joined the channel",
        "inviter": "UV9V03C8Y"
    },
    {
        "type": "message",
        "subtype": "channel_join",
        "ts": "1588770426.046700",
        "user": "U012Z5VG6R1",
        "text": "<@U012Z5VG6R1> has joined the channel",
        "inviter": "UV9V03C8Y"
    },
    {
        "type": "message",
        "text": "*<!channel> * Dear all, *if you have a project on JOGL*, please use this document to *indicate any updates* you’d like to share during our *Global Community call happening in 1 hour! <https:\/\/us02web.zoom.us\/j\/7804345815>*\nThanks a lot and take care :raised_hands:\n\n :point_right: <https:\/\/docs.google.com\/document\/d\/14wSi_AG7mduWY3IrkUGpUdFJAB-Dnxrh5RmFuxTt2D0\/edit>",
        "files": [
            {
                "id": "F01357PU350",
                "created": 1588774560,
                "timestamp": 1588774560,
                "name": "2020-05-06 Tenth Global Community Call - OpenCovid19",
                "title": "2020-05-06 Tenth Global Community Call - OpenCovid19",
                "mimetype": "application\/vnd.google-apps.document",
                "filetype": "gdoc",
                "pretty_type": "GSuite Document",
                "user": "U011B6VLM2A",
                "editable": false,
                "size": 2240,
                "mode": "external",
                "is_external": true,
                "external_type": "gdrive",
                "is_public": true,
                "public_url_shared": false,
                "display_as_bot": false,
                "username": "",
                "url_private": "https:\/\/docs.google.com\/document\/d\/14wSi_AG7mduWY3IrkUGpUdFJAB-Dnxrh5RmFuxTt2D0\/edit",
                "thumb_64": "https:\/\/files.slack.com\/files-tmb\/TUU48M0T1-F01357PU350-fc46c9690c\/2020-05-06_tenth_global_community_call_-_opencovid19_64.png?t=xoxe-980144714919-1133254701825-1120841107731-daf595b5a7d6c9028b0b02a925032e36",
                "thumb_80": "https:\/\/files.slack.com\/files-tmb\/TUU48M0T1-F01357PU350-fc46c9690c\/2020-05-06_tenth_global_community_call_-_opencovid19_80.png?t=xoxe-980144714919-1133254701825-1120841107731-daf595b5a7d6c9028b0b02a925032e36",
                "thumb_360": "https:\/\/files.slack.com\/files-tmb\/TUU48M0T1-F01357PU350-fc46c9690c\/2020-05-06_tenth_global_community_call_-_opencovid19_360.png?t=xoxe-980144714919-1133254701825-1120841107731-daf595b5a7d6c9028b0b02a925032e36",
                "thumb_360_w": 278,
                "thumb_360_h": 360,
                "thumb_480": "https:\/\/files.slack.com\/files-tmb\/TUU48M0T1-F01357PU350-fc46c9690c\/2020-05-06_tenth_global_community_call_-_opencovid19_480.png?t=xoxe-980144714919-1133254701825-1120841107731-daf595b5a7d6c9028b0b02a925032e36",
                "thumb_480_w": 371,
                "thumb_480_h": 480,
                "thumb_160": "https:\/\/files.slack.com\/files-tmb\/TUU48M0T1-F01357PU350-fc46c9690c\/2020-05-06_tenth_global_community_call_-_opencovid19_160.png?t=xoxe-980144714919-1133254701825-1120841107731-daf595b5a7d6c9028b0b02a925032e36",
                "thumb_720": "https:\/\/files.slack.com\/files-tmb\/TUU48M0T1-F01357PU350-fc46c9690c\/2020-05-06_tenth_global_community_call_-_opencovid19_720.png?t=xoxe-980144714919-1133254701825-1120841107731-daf595b5a7d6c9028b0b02a925032e36",
                "thumb_720_w": 557,
                "thumb_720_h": 720,
                "thumb_800": "https:\/\/files.slack.com\/files-tmb\/TUU48M0T1-F01357PU350-fc46c9690c\/2020-05-06_tenth_global_community_call_-_opencovid19_800.png?t=xoxe-980144714919-1133254701825-1120841107731-daf595b5a7d6c9028b0b02a925032e36",
                "thumb_800_w": 800,
                "thumb_800_h": 1035,
                "thumb_960": "https:\/\/files.slack.com\/files-tmb\/TUU48M0T1-F01357PU350-fc46c9690c\/2020-05-06_tenth_global_community_call_-_opencovid19_960.png?t=xoxe-980144714919-1133254701825-1120841107731-daf595b5a7d6c9028b0b02a925032e36",
                "thumb_960_w": 742,
                "thumb_960_h": 960,
                "thumb_1024": "https:\/\/files.slack.com\/files-tmb\/TUU48M0T1-F01357PU350-fc46c9690c\/2020-05-06_tenth_global_community_call_-_opencovid19_1024.png?t=xoxe-980144714919-1133254701825-1120841107731-daf595b5a7d6c9028b0b02a925032e36",
                "thumb_1024_w": 791,
                "thumb_1024_h": 1024,
                "image_exif_rotation": 1,
                "original_w": 800,
                "original_h": 1035,
                "thumb_tiny": "AwAwACXTppkQEgsAR156Upz2xUZxuJ2rnuaAJNy\/3h+dKCD0NRbv9lacpOPlC\/nQA+iiigBCQOtNOD0z+VObkdcUzb70AG0+p\/Kngcd6QYxySaUY7UALRRRQAjdKjxnoKlpNooARV5\/+tTuKTaKMCgBaKKKAP\/\/Z",
                "permalink": "https:\/\/open-covid19.slack.com\/files\/U011B6VLM2A\/F01357PU350\/2020-05-06_tenth_global_community_call_-_opencovid19",
                "is_starred": false,
                "external_id": "14wSi_AG7mduWY3IrkUGpUdFJAB-Dnxrh5RmFuxTt2D0",
                "external_url": "https:\/\/docs.google.com\/document\/d\/14wSi_AG7mduWY3IrkUGpUdFJAB-Dnxrh5RmFuxTt2D0\/edit",
                "has_rich_preview": true
            }
        ],
        "upload": false,
        "blocks": [
            {
                "type": "rich_text",
                "block_id": "e0T",
                "elements": [
                    {
                        "type": "rich_text_section",
                        "elements": [
                            {
                                "type": "broadcast",
                                "range": "channel",
                                "style": {
                                    "bold": true
                                }
                            },
                            {
                                "type": "text",
                                "text": " ",
                                "style": {
                                    "bold": true
                                }
                            },
                            {
                                "type": "text",
                                "text": " Dear all, "
                            },
                            {
                                "type": "text",
                                "text": "if you have a project on JOGL",
                                "style": {
                                    "bold": true
                                }
                            },
                            {
                                "type": "text",
                                "text": ", please use this document to "
                            },
                            {
                                "type": "text",
                                "text": "indicate any updates",
                                "style": {
                                    "bold": true
                                }
                            },
                            {
                                "type": "text",
                                "text": " you’d like to share during our "
                            },
                            {
                                "type": "text",
                                "text": "Global Community call happening in 1 hour! ",
                                "style": {
                                    "bold": true
                                }
                            },
                            {
                                "type": "link",
                                "url": "https:\/\/us02web.zoom.us\/j\/7804345815",
                                "style": {
                                    "bold": true
                                }
                            },
                            {
                                "type": "text",
                                "text": "\nThanks a lot and take care "
                            },
                            {
                                "type": "emoji",
                                "name": "raised_hands"
                            },
                            {
                                "type": "text",
                                "text": "\n\n "
                            },
                            {
                                "type": "emoji",
                                "name": "point_right"
                            },
                            {
                                "type": "text",
                                "text": " "
                            },
                            {
                                "type": "link",
                                "url": "https:\/\/docs.google.com\/document\/d\/14wSi_AG7mduWY3IrkUGpUdFJAB-Dnxrh5RmFuxTt2D0\/edit"
                            }
                        ]
                    }
                ]
            }
        ],
        "user": "UV9V03C8Y",
        "display_as_bot": false,
        "x_files": [
            "F01357PU350"
        ],
        "ts": "1588776901.047000",
        "client_msg_id": "669255c7-7bb7-49af-8148-22366d4ec1b2"
    },
    {
        "client_msg_id": "8EBAADFA-A276-457A-A40D-4A799C11AFE1",
        "type": "message",
        "text": "<@U011MH0U9K4> agreed! awesome to see you here too! :)",
        "user": "UV1A22N3W",
        "ts": "1588796076.049500",
        "team": "TUU48M0T1",
        "user_team": "TUU48M0T1",
        "source_team": "TUU48M0T1",
        "user_profile": {
            "avatar_hash": "71f827776ad6",
            "image_72": "https:\/\/avatars.slack-edge.com\/2020-03-09\/988125642964_71f827776ad610af05a2_72.jpg",
            "first_name": "",
            "real_name": "RachelA",
            "display_name": "RachelA",
            "team": "TUU48M0T1",
            "name": "raronoff",
            "is_restricted": false,
            "is_ultra_restricted": false
        },
        "blocks": [
            {
                "type": "rich_text",
                "block_id": "SzgRF",
                "elements": [
                    {
                        "type": "rich_text_section",
                        "elements": [
                            {
                                "type": "user",
                                "user_id": "U011MH0U9K4"
                            },
                            {
                                "type": "text",
                                "text": " agreed! awesome to see you here too! :)"
                            }
                        ]
                    }
                ]
            }
        ],
        "thread_ts": "1588270453.041500",
        "parent_user_id": "U011B5424FR"
    }
]