[
    {
        "client_msg_id": "21a044f4-e442-4ad4-bc4a-f1303d14b0f2",
        "type": "message",
        "text": "maybe good to connect with?\n\n<https:\/\/tomglobal.org\/login|Tikkun Olam Makers (TOM)> is a global humanitarian venture, a movement of innovators and inventors dedicated to inventing and disseminating extremely affordable solutions for neglected needs of people with disabilities, the elderly and other disadvantaged individuals and communities around the world. TOM was launched in 2014 inspired by a bold goal of helping 250,000,000 people. As of March 2020, TOM has supported 67 TOM Communities in 23 countries with 4,500 top-skill volunteers.Together our organization has worked on 450+ prototypes. Over the years TOM has received many accolades, including: the “Next Big Idea” competition of UJA Federation, _Forbes Magazine_ named TOM as one of fifteen technology companies to watch in 2018, while being the only social impact venture on that list (<https:\/\/www.forbes.com\/sites\/danreich\/2017\/12\/14\/15-technology-companies-to-watch-in-2018\/#5bcc5d9e17e8|here>); Winner of the Arona Accessibility Award; Recently winner of the first prize in a Blackstone Competition. Visit <https:\/\/tomglobal.org> to learn more and connect with us on Instagram <https:\/\/www.instagram.com\/tikkunolammakers\/|@tikkunolammakers>, Facebook <https:\/\/www.facebook.com\/TikkunOlamMakers\/|@TikkunOlamMakers>and Twitter <https:\/\/twitter.com\/TikkunOlamMakrs|@TikkunOlamMakrs>.",
        "user": "U0116HWM0UX",
        "ts": "1587897708.022600",
        "team": "TUU48M0T1",
        "user_team": "TUU48M0T1",
        "source_team": "TUU48M0T1",
        "user_profile": {
            "avatar_hash": "0ba6883eb3d3",
            "image_72": "https:\/\/avatars.slack-edge.com\/2020-04-03\/1050250600736_0ba6883eb3d3a9f2b765_72.jpg",
            "first_name": "Jo",
            "real_name": "Jo Havemann",
            "display_name": "Jo Havemann",
            "team": "TUU48M0T1",
            "name": "info112",
            "is_restricted": false,
            "is_ultra_restricted": false
        },
        "blocks": [
            {
                "type": "rich_text",
                "block_id": "FUdN",
                "elements": [
                    {
                        "type": "rich_text_section",
                        "elements": [
                            {
                                "type": "text",
                                "text": "maybe good to connect with?\n\n"
                            },
                            {
                                "type": "link",
                                "url": "https:\/\/tomglobal.org\/login",
                                "text": "Tikkun Olam Makers (TOM)"
                            },
                            {
                                "type": "text",
                                "text": " is a global humanitarian venture, a movement of innovators and inventors dedicated to inventing and disseminating extremely affordable solutions for neglected needs of people with disabilities, the elderly and other disadvantaged individuals and communities around the world. TOM was launched in 2014 inspired by a bold goal of helping 250,000,000 people. As of March 2020, TOM has supported 67 TOM Communities in 23 countries with 4,500 top-skill volunteers.Together our organization has worked on 450+ prototypes. Over the years TOM has received many accolades, including: the “Next Big Idea” competition of UJA Federation, "
                            },
                            {
                                "type": "text",
                                "text": "Forbes Magazine",
                                "style": {
                                    "italic": true
                                }
                            },
                            {
                                "type": "text",
                                "text": " named TOM as one of fifteen technology companies to watch in 2018, while being the only social impact venture on that list ("
                            },
                            {
                                "type": "link",
                                "url": "https:\/\/www.forbes.com\/sites\/danreich\/2017\/12\/14\/15-technology-companies-to-watch-in-2018\/#5bcc5d9e17e8",
                                "text": "here"
                            },
                            {
                                "type": "text",
                                "text": "); Winner of the Arona Accessibility Award; Recently winner of the first prize in a Blackstone Competition. Visit "
                            },
                            {
                                "type": "link",
                                "url": "https:\/\/tomglobal.org"
                            },
                            {
                                "type": "text",
                                "text": " to learn more and connect with us on Instagram "
                            },
                            {
                                "type": "link",
                                "url": "https:\/\/www.instagram.com\/tikkunolammakers\/",
                                "text": "@tikkunolammakers"
                            },
                            {
                                "type": "text",
                                "text": ", Facebook "
                            },
                            {
                                "type": "link",
                                "url": "https:\/\/www.facebook.com\/TikkunOlamMakers\/",
                                "text": "@TikkunOlamMakers"
                            },
                            {
                                "type": "text",
                                "text": "and Twitter "
                            },
                            {
                                "type": "link",
                                "url": "https:\/\/twitter.com\/TikkunOlamMakrs",
                                "text": "@TikkunOlamMakrs"
                            },
                            {
                                "type": "text",
                                "text": "."
                            }
                        ]
                    }
                ]
            }
        ],
        "thread_ts": "1587897708.022600",
        "reply_count": 1,
        "reply_users_count": 1,
        "latest_reply": "1587984521.035300",
        "reply_users": [
            "U011B5424FR"
        ],
        "replies": [
            {
                "user": "U011B5424FR",
                "ts": "1587984521.035300"
            }
        ],
        "subscribed": false,
        "reactions": [
            {
                "name": "star-struck",
                "users": [
                    "U011B5424FR"
                ],
                "count": 1
            },
            {
                "name": "100",
                "users": [
                    "UV9V03C8Y"
                ],
                "count": 1
            }
        ]
    },
    {
        "client_msg_id": "bb857389-3a29-4c2e-82c0-e0ec78a35250",
        "type": "message",
        "text": "Thanks <@UV3URUKK5> for the directions.\n\n<@U012CUFADR9> is looking into this and we can have a call next week.\n\nWhen are you available?",
        "user": "U011B5424FR",
        "ts": "1587908736.022800",
        "team": "TUU48M0T1",
        "user_team": "TUU48M0T1",
        "source_team": "TUU48M0T1",
        "user_profile": {
            "avatar_hash": "eb7c0d044867",
            "image_72": "https:\/\/avatars.slack-edge.com\/2020-04-05\/1054431511504_eb7c0d044867df386504_72.jpg",
            "first_name": "Aravinth",
            "real_name": "Aravinth Panch",
            "display_name": "Ara - DreamSpace Academy - SLINTEC - Sri Lanka",
            "team": "TUU48M0T1",
            "name": "me1435",
            "is_restricted": false,
            "is_ultra_restricted": false
        },
        "edited": {
            "user": "U011B5424FR",
            "ts": "1587908783.000000"
        },
        "blocks": [
            {
                "type": "rich_text",
                "block_id": "rW3sc",
                "elements": [
                    {
                        "type": "rich_text_section",
                        "elements": [
                            {
                                "type": "text",
                                "text": "Thanks "
                            },
                            {
                                "type": "user",
                                "user_id": "UV3URUKK5"
                            },
                            {
                                "type": "text",
                                "text": " for the directions.\n\n"
                            },
                            {
                                "type": "user",
                                "user_id": "U012CUFADR9"
                            },
                            {
                                "type": "text",
                                "text": " is looking into this and we can have a call next week.\n\nWhen are you available?"
                            }
                        ]
                    }
                ]
            }
        ],
        "thread_ts": "1587742934.019900",
        "parent_user_id": "UV3URUKK5"
    },
    {
        "client_msg_id": "9d587e8a-665b-427e-82f2-5ef403f81248",
        "type": "message",
        "text": "Hey <@UV1G2M821>. It would be great to combine some forces.",
        "user": "U011B5424FR",
        "ts": "1587908818.023200",
        "team": "TUU48M0T1",
        "user_team": "TUU48M0T1",
        "source_team": "TUU48M0T1",
        "user_profile": {
            "avatar_hash": "eb7c0d044867",
            "image_72": "https:\/\/avatars.slack-edge.com\/2020-04-05\/1054431511504_eb7c0d044867df386504_72.jpg",
            "first_name": "Aravinth",
            "real_name": "Aravinth Panch",
            "display_name": "Ara - DreamSpace Academy - SLINTEC - Sri Lanka",
            "team": "TUU48M0T1",
            "name": "me1435",
            "is_restricted": false,
            "is_ultra_restricted": false
        },
        "blocks": [
            {
                "type": "rich_text",
                "block_id": "g34n",
                "elements": [
                    {
                        "type": "rich_text_section",
                        "elements": [
                            {
                                "type": "text",
                                "text": "Hey "
                            },
                            {
                                "type": "user",
                                "user_id": "UV1G2M821"
                            },
                            {
                                "type": "text",
                                "text": ". It would be great to combine some forces."
                            }
                        ]
                    }
                ]
            }
        ],
        "thread_ts": "1587742934.019900",
        "parent_user_id": "UV3URUKK5"
    },
    {
        "client_msg_id": "70e736b1-91f5-428c-aeab-e9655c66834b",
        "type": "message",
        "text": "It would be great to combine some forces.",
        "user": "U011B5424FR",
        "ts": "1587909026.023400",
        "team": "TUU48M0T1",
        "user_team": "TUU48M0T1",
        "source_team": "TUU48M0T1",
        "user_profile": {
            "avatar_hash": "eb7c0d044867",
            "image_72": "https:\/\/avatars.slack-edge.com\/2020-04-05\/1054431511504_eb7c0d044867df386504_72.jpg",
            "first_name": "Aravinth",
            "real_name": "Aravinth Panch",
            "display_name": "Ara - DreamSpace Academy - SLINTEC - Sri Lanka",
            "team": "TUU48M0T1",
            "name": "me1435",
            "is_restricted": false,
            "is_ultra_restricted": false
        },
        "blocks": [
            {
                "type": "rich_text",
                "block_id": "8jeCE",
                "elements": [
                    {
                        "type": "rich_text_section",
                        "elements": [
                            {
                                "type": "text",
                                "text": "It would be great to combine some forces."
                            }
                        ]
                    }
                ]
            }
        ],
        "thread_ts": "1587683738.016700",
        "parent_user_id": "U011R307NH3"
    },
    {
        "client_msg_id": "220da215-2c0f-489e-b372-f554bcebc1b8",
        "type": "message",
        "text": "Thanks Francisco, we can do the things you mentioned here using our facilities.",
        "user": "U012CUFADR9",
        "ts": "1587909720.023800",
        "team": "TUU48M0T1",
        "user_team": "TUU48M0T1",
        "source_team": "TUU48M0T1",
        "user_profile": {
            "avatar_hash": "g67e125f7a09",
            "image_72": "https:\/\/secure.gravatar.com\/avatar\/67e125f7a09a1d75cb9c0395ff6ac07f.jpg?s=72&d=https%3A%2F%2Fa.slack-edge.com%2Fdf10d%2Fimg%2Favatars%2Fava_0024-72.png",
            "first_name": "",
            "real_name": "Sanjaya Bathige",
            "display_name": "Sanjaya Bathige",
            "team": "TUU48M0T1",
            "name": "sanjayachem",
            "is_restricted": false,
            "is_ultra_restricted": false
        },
        "blocks": [
            {
                "type": "rich_text",
                "block_id": "Bj8",
                "elements": [
                    {
                        "type": "rich_text_section",
                        "elements": [
                            {
                                "type": "text",
                                "text": "Thanks Francisco, we can do the things you mentioned here using our facilities."
                            }
                        ]
                    }
                ]
            }
        ],
        "thread_ts": "1587653770.010300",
        "parent_user_id": "UV3URUKK5"
    },
    {
        "client_msg_id": "43f8bd57-f204-4eee-9396-3afd237d9597",
        "type": "message",
        "text": "we will talk about when you free.",
        "user": "U012CUFADR9",
        "ts": "1587909738.024000",
        "team": "TUU48M0T1",
        "user_team": "TUU48M0T1",
        "source_team": "TUU48M0T1",
        "user_profile": {
            "avatar_hash": "g67e125f7a09",
            "image_72": "https:\/\/secure.gravatar.com\/avatar\/67e125f7a09a1d75cb9c0395ff6ac07f.jpg?s=72&d=https%3A%2F%2Fa.slack-edge.com%2Fdf10d%2Fimg%2Favatars%2Fava_0024-72.png",
            "first_name": "",
            "real_name": "Sanjaya Bathige",
            "display_name": "Sanjaya Bathige",
            "team": "TUU48M0T1",
            "name": "sanjayachem",
            "is_restricted": false,
            "is_ultra_restricted": false
        },
        "blocks": [
            {
                "type": "rich_text",
                "block_id": "j0D6",
                "elements": [
                    {
                        "type": "rich_text_section",
                        "elements": [
                            {
                                "type": "text",
                                "text": "we will talk about when you free."
                            }
                        ]
                    }
                ]
            }
        ],
        "thread_ts": "1587653770.010300",
        "parent_user_id": "UV3URUKK5"
    },
    {
        "client_msg_id": "2127a1fe-1c01-4c35-bf01-57f240e88ac3",
        "type": "message",
        "text": "For me it will be amazing if we could fit it somewhere here <http:\/\/calendly.com\/franquero|calendly.com\/franquero>. If it's difficult because the time zones, i could try to adapt.",
        "user": "UV3URUKK5",
        "ts": "1587909791.024200",
        "team": "TUU48M0T1",
        "user_team": "TUU48M0T1",
        "source_team": "TUU48M0T1",
        "user_profile": {
            "avatar_hash": "64c99c2ed974",
            "image_72": "https:\/\/avatars.slack-edge.com\/2020-03-15\/1000999702004_64c99c2ed97497e08ca9_72.jpg",
            "first_name": "",
            "real_name": "Francisco Javier Quero",
            "display_name": "Francisco Javier Quero",
            "team": "TUU48M0T1",
            "name": "franxi2953",
            "is_restricted": false,
            "is_ultra_restricted": false
        },
        "blocks": [
            {
                "type": "rich_text",
                "block_id": "oHAYH",
                "elements": [
                    {
                        "type": "rich_text_section",
                        "elements": [
                            {
                                "type": "text",
                                "text": "For me it will be amazing if we could fit it somewhere here "
                            },
                            {
                                "type": "link",
                                "url": "http:\/\/calendly.com\/franquero",
                                "text": "calendly.com\/franquero"
                            },
                            {
                                "type": "text",
                                "text": ". If it's difficult because the time zones, i could try to adapt."
                            }
                        ]
                    }
                ]
            }
        ],
        "thread_ts": "1587742934.019900",
        "parent_user_id": "UV3URUKK5",
        "reactions": [
            {
                "name": "+1",
                "users": [
                    "U011B5424FR"
                ],
                "count": 1
            }
        ]
    },
    {
        "client_msg_id": "7904415e-8d7f-4901-ab40-6de638de97b7",
        "type": "message",
        "text": "Thanks Aravinth. we will have a short call when Fracisco free",
        "user": "U012CUFADR9",
        "ts": "1587909818.024400",
        "team": "TUU48M0T1",
        "user_team": "TUU48M0T1",
        "source_team": "TUU48M0T1",
        "user_profile": {
            "avatar_hash": "g67e125f7a09",
            "image_72": "https:\/\/secure.gravatar.com\/avatar\/67e125f7a09a1d75cb9c0395ff6ac07f.jpg?s=72&d=https%3A%2F%2Fa.slack-edge.com%2Fdf10d%2Fimg%2Favatars%2Fava_0024-72.png",
            "first_name": "",
            "real_name": "Sanjaya Bathige",
            "display_name": "Sanjaya Bathige",
            "team": "TUU48M0T1",
            "name": "sanjayachem",
            "is_restricted": false,
            "is_ultra_restricted": false
        },
        "blocks": [
            {
                "type": "rich_text",
                "block_id": "CO1BT",
                "elements": [
                    {
                        "type": "rich_text_section",
                        "elements": [
                            {
                                "type": "text",
                                "text": "Thanks Aravinth. we will have a short call when Fracisco free"
                            }
                        ]
                    }
                ]
            }
        ],
        "thread_ts": "1587653770.010300",
        "parent_user_id": "UV3URUKK5"
    },
    {
        "client_msg_id": "d01a3432-9911-4704-a9ea-ea24c1b1e637",
        "type": "message",
        "text": "I am sorry we dont have a cold room and deli fridge at this time. in the future we are planing to arrange a cold room",
        "user": "U012CUFADR9",
        "ts": "1587912076.024700",
        "team": "TUU48M0T1",
        "user_team": "TUU48M0T1",
        "source_team": "TUU48M0T1",
        "user_profile": {
            "avatar_hash": "g67e125f7a09",
            "image_72": "https:\/\/secure.gravatar.com\/avatar\/67e125f7a09a1d75cb9c0395ff6ac07f.jpg?s=72&d=https%3A%2F%2Fa.slack-edge.com%2Fdf10d%2Fimg%2Favatars%2Fava_0024-72.png",
            "first_name": "",
            "real_name": "Sanjaya Bathige",
            "display_name": "Sanjaya Bathige",
            "team": "TUU48M0T1",
            "name": "sanjayachem",
            "is_restricted": false,
            "is_ultra_restricted": false
        },
        "blocks": [
            {
                "type": "rich_text",
                "block_id": "cfH",
                "elements": [
                    {
                        "type": "rich_text_section",
                        "elements": [
                            {
                                "type": "text",
                                "text": "I am sorry we dont have a cold room and deli fridge at this time. in the future we are planing to arrange a cold room"
                            }
                        ]
                    }
                ]
            }
        ],
        "thread_ts": "1587673285.014900",
        "parent_user_id": "UV1A22N3W",
        "reactions": [
            {
                "name": "+1",
                "users": [
                    "U011B5424FR"
                ],
                "count": 1
            }
        ]
    },
    {
        "client_msg_id": "892D1FA6-A78F-49D9-AA60-6619A54DE7BD",
        "type": "message",
        "text": "no need to apologize! the freegenes might even work crudely (no columns, dried lysates) <@UV3URUKK5> knows more than I do...",
        "user": "UV1A22N3W",
        "ts": "1587919925.026900",
        "team": "TUU48M0T1",
        "user_team": "TUU48M0T1",
        "source_team": "TUU48M0T1",
        "user_profile": {
            "avatar_hash": "71f827776ad6",
            "image_72": "https:\/\/avatars.slack-edge.com\/2020-03-09\/988125642964_71f827776ad610af05a2_72.jpg",
            "first_name": "",
            "real_name": "RachelA",
            "display_name": "RachelA",
            "team": "TUU48M0T1",
            "name": "raronoff",
            "is_restricted": false,
            "is_ultra_restricted": false
        },
        "blocks": [
            {
                "type": "rich_text",
                "block_id": "7Xou",
                "elements": [
                    {
                        "type": "rich_text_section",
                        "elements": [
                            {
                                "type": "text",
                                "text": "no need to apologize! the freegenes might even work crudely (no columns, dried lysates) "
                            },
                            {
                                "type": "user",
                                "user_id": "UV3URUKK5"
                            },
                            {
                                "type": "text",
                                "text": " knows more than I do..."
                            }
                        ]
                    }
                ]
            }
        ],
        "thread_ts": "1587673285.014900",
        "parent_user_id": "UV1A22N3W",
        "reactions": [
            {
                "name": "+1",
                "users": [
                    "U011B5424FR",
                    "U012CUFADR9"
                ],
                "count": 2
            }
        ]
    },
    {
        "client_msg_id": "514606d8-7aa9-44d3-a98a-32f4d7248eaa",
        "type": "message",
        "text": "Dear diagnostics team <@UV3URUKK5> <@UV1A22N3W> <@UV7LUJG1Y> <@U010QHBTBPY> <@U0116HWM0UX> <@UV9V03C8Y> <@U0101DKUALV> <@U010DG4358Q> <@UV02WET96> <@U01136GDY5V> <@UV1V637PU> <@UV10KBUQG> <@UUPQGNNTV> :\n\n<@U012CUFADR9> and two of his PhD candidates, who are allocated (full time) by SLINTEC to the diagnostic project, will join the diagnostic team call at 5PM CET \/ 8:30PM SLST on Monday (27.04.2020).\n\nSLINTEC with BSL2 Lab is ready to contribute to the project and looking forward to locally produce the solution in Sri Lanka.",
        "user": "U011B5424FR",
        "ts": "1587926126.031600",
        "team": "TUU48M0T1",
        "user_team": "TUU48M0T1",
        "source_team": "TUU48M0T1",
        "user_profile": {
            "avatar_hash": "eb7c0d044867",
            "image_72": "https:\/\/avatars.slack-edge.com\/2020-04-05\/1054431511504_eb7c0d044867df386504_72.jpg",
            "first_name": "Aravinth",
            "real_name": "Aravinth Panch",
            "display_name": "Ara - DreamSpace Academy - SLINTEC - Sri Lanka",
            "team": "TUU48M0T1",
            "name": "me1435",
            "is_restricted": false,
            "is_ultra_restricted": false
        },
        "blocks": [
            {
                "type": "rich_text",
                "block_id": "x4zL",
                "elements": [
                    {
                        "type": "rich_text_section",
                        "elements": [
                            {
                                "type": "text",
                                "text": "Dear diagnostics team "
                            },
                            {
                                "type": "user",
                                "user_id": "UV3URUKK5"
                            },
                            {
                                "type": "text",
                                "text": " "
                            },
                            {
                                "type": "user",
                                "user_id": "UV1A22N3W"
                            },
                            {
                                "type": "text",
                                "text": " "
                            },
                            {
                                "type": "user",
                                "user_id": "UV7LUJG1Y"
                            },
                            {
                                "type": "text",
                                "text": " "
                            },
                            {
                                "type": "user",
                                "user_id": "U010QHBTBPY"
                            },
                            {
                                "type": "text",
                                "text": " "
                            },
                            {
                                "type": "user",
                                "user_id": "U0116HWM0UX"
                            },
                            {
                                "type": "text",
                                "text": " "
                            },
                            {
                                "type": "user",
                                "user_id": "UV9V03C8Y"
                            },
                            {
                                "type": "text",
                                "text": " "
                            },
                            {
                                "type": "user",
                                "user_id": "U0101DKUALV"
                            },
                            {
                                "type": "text",
                                "text": " "
                            },
                            {
                                "type": "user",
                                "user_id": "U010DG4358Q"
                            },
                            {
                                "type": "text",
                                "text": " "
                            },
                            {
                                "type": "user",
                                "user_id": "UV02WET96"
                            },
                            {
                                "type": "text",
                                "text": " "
                            },
                            {
                                "type": "user",
                                "user_id": "U01136GDY5V"
                            },
                            {
                                "type": "text",
                                "text": " "
                            },
                            {
                                "type": "user",
                                "user_id": "UV1V637PU"
                            },
                            {
                                "type": "text",
                                "text": " "
                            },
                            {
                                "type": "user",
                                "user_id": "UV10KBUQG"
                            },
                            {
                                "type": "text",
                                "text": " "
                            },
                            {
                                "type": "user",
                                "user_id": "UUPQGNNTV"
                            },
                            {
                                "type": "text",
                                "text": " :\n\n"
                            },
                            {
                                "type": "user",
                                "user_id": "U012CUFADR9"
                            },
                            {
                                "type": "text",
                                "text": " and two of his PhD candidates, who are allocated (full time) by SLINTEC to the diagnostic project, will join the diagnostic team call at 5PM CET \/ 8:30PM SLST on Monday (27.04.2020).\n\nSLINTEC with BSL2 Lab is ready to contribute to the project and looking forward to locally produce the solution in Sri Lanka."
                            }
                        ]
                    }
                ]
            }
        ],
        "thread_ts": "1587926126.031600",
        "reply_count": 2,
        "reply_users_count": 2,
        "latest_reply": "1587984473.034500",
        "reply_users": [
            "U0116HWM0UX",
            "U011B5424FR"
        ],
        "replies": [
            {
                "user": "U0116HWM0UX",
                "ts": "1587984111.033400"
            },
            {
                "user": "U011B5424FR",
                "ts": "1587984473.034500"
            }
        ],
        "subscribed": false,
        "reactions": [
            {
                "name": "100",
                "users": [
                    "U010QHBTBPY",
                    "UV3URUKK5",
                    "UV02WET96",
                    "U0101DKUALV"
                ],
                "count": 4
            },
            {
                "name": "wave",
                "users": [
                    "U0101DKUALV"
                ],
                "count": 1
            },
            {
                "name": "heart",
                "users": [
                    "UV9V03C8Y"
                ],
                "count": 1
            },
            {
                "name": "+1::skin-tone-4",
                "users": [
                    "U0116HWM0UX"
                ],
                "count": 1
            }
        ]
    },
    {
        "type": "message",
        "subtype": "channel_join",
        "ts": "1587926131.031800",
        "user": "UV1V637PU",
        "text": "<@UV1V637PU> has joined the channel",
        "inviter": "U011B5424FR"
    },
    {
        "client_msg_id": "5522a506-c620-4841-b901-b83c91a75554",
        "type": "message",
        "text": "This is awesome! Looking forward!",
        "user": "UV02WET96",
        "ts": "1587929168.032600",
        "team": "TUU48M0T1",
        "user_team": "TUU48M0T1",
        "source_team": "TUU48M0T1",
        "user_profile": {
            "avatar_hash": "a99c74a194f8",
            "image_72": "https:\/\/avatars.slack-edge.com\/2020-03-07\/975708504851_a99c74a194f86715ca7d_72.png",
            "first_name": "Thomas",
            "real_name": "Thomas Landrain",
            "display_name": "Thomas Landrain - JOGL CoFounder \/ CEO",
            "team": "TUU48M0T1",
            "name": "thomas",
            "is_restricted": false,
            "is_ultra_restricted": false
        },
        "blocks": [
            {
                "type": "rich_text",
                "block_id": "1xI0",
                "elements": [
                    {
                        "type": "rich_text_section",
                        "elements": [
                            {
                                "type": "text",
                                "text": "This is awesome! Looking forward!"
                            }
                        ]
                    }
                ]
            }
        ]
    }
]