[
    {
        "client_msg_id": "7bf6d3db-fefe-457c-ba63-6fbe3fae987b",
        "type": "message",
        "text": "so cool! it was <@U0104M5CWV9> :slightly_smiling_face:",
        "user": "UV85V64SD",
        "ts": "1587558990.081100",
        "team": "TUU48M0T1",
        "user_team": "TUU48M0T1",
        "source_team": "TUU48M0T1",
        "user_profile": {
            "avatar_hash": "1e73a651bdfe",
            "image_72": "https:\/\/avatars.slack-edge.com\/2020-03-16\/1004297548853_1e73a651bdfef2c41501_72.jpg",
            "first_name": "Marc",
            "real_name": "Marc Santolini",
            "display_name": "Marc Santolini - JOGL CoFounder \/ CSO",
            "team": "TUU48M0T1",
            "name": "marc.santolini",
            "is_restricted": false,
            "is_ultra_restricted": false
        },
        "blocks": [
            {
                "type": "rich_text",
                "block_id": "Tcw",
                "elements": [
                    {
                        "type": "rich_text_section",
                        "elements": [
                            {
                                "type": "text",
                                "text": "so cool! it was "
                            },
                            {
                                "type": "user",
                                "user_id": "U0104M5CWV9"
                            },
                            {
                                "type": "text",
                                "text": " "
                            },
                            {
                                "type": "emoji",
                                "name": "slightly_smiling_face"
                            }
                        ]
                    }
                ]
            }
        ]
    },
    {
        "client_msg_id": "0d43bc9f-e89b-4dc1-8e2f-0ae02c4059b5",
        "type": "message",
        "text": "oh he reacted already :wink:",
        "user": "UV85V64SD",
        "ts": "1587558999.081300",
        "team": "TUU48M0T1",
        "user_team": "TUU48M0T1",
        "source_team": "TUU48M0T1",
        "user_profile": {
            "avatar_hash": "1e73a651bdfe",
            "image_72": "https:\/\/avatars.slack-edge.com\/2020-03-16\/1004297548853_1e73a651bdfef2c41501_72.jpg",
            "first_name": "Marc",
            "real_name": "Marc Santolini",
            "display_name": "Marc Santolini - JOGL CoFounder \/ CSO",
            "team": "TUU48M0T1",
            "name": "marc.santolini",
            "is_restricted": false,
            "is_ultra_restricted": false
        },
        "blocks": [
            {
                "type": "rich_text",
                "block_id": "sISZ",
                "elements": [
                    {
                        "type": "rich_text_section",
                        "elements": [
                            {
                                "type": "text",
                                "text": "oh he reacted already "
                            },
                            {
                                "type": "emoji",
                                "name": "wink"
                            }
                        ]
                    }
                ]
            }
        ],
        "thread_ts": "1587558999.081300",
        "reply_count": 1,
        "reply_users_count": 1,
        "latest_reply": "1587673152.082300",
        "reply_users": [
            "U010B412MF1"
        ],
        "replies": [
            {
                "user": "U010B412MF1",
                "ts": "1587673152.082300"
            }
        ],
        "subscribed": false,
        "reactions": [
            {
                "name": "stuck_out_tongue",
                "users": [
                    "U0104M5CWV9"
                ],
                "count": 1
            }
        ]
    },
    {
        "client_msg_id": "f86bbbaa-3c85-4131-b45a-14722e9c6a94",
        "type": "message",
        "text": "next meeting will be next Monday 6pm CET and will now be on this link! <https:\/\/us02web.zoom.us\/j\/87110731777>",
        "user": "UV85V64SD",
        "ts": "1587574120.081900",
        "team": "TUU48M0T1",
        "user_team": "TUU48M0T1",
        "source_team": "TUU48M0T1",
        "user_profile": {
            "avatar_hash": "1e73a651bdfe",
            "image_72": "https:\/\/avatars.slack-edge.com\/2020-03-16\/1004297548853_1e73a651bdfef2c41501_72.jpg",
            "first_name": "Marc",
            "real_name": "Marc Santolini",
            "display_name": "Marc Santolini - JOGL CoFounder \/ CSO",
            "team": "TUU48M0T1",
            "name": "marc.santolini",
            "is_restricted": false,
            "is_ultra_restricted": false
        },
        "blocks": [
            {
                "type": "rich_text",
                "block_id": "uqsw",
                "elements": [
                    {
                        "type": "rich_text_section",
                        "elements": [
                            {
                                "type": "text",
                                "text": "next meeting will be next Monday 6pm CET and will now be on this link! "
                            },
                            {
                                "type": "link",
                                "url": "https:\/\/us02web.zoom.us\/j\/87110731777"
                            }
                        ]
                    }
                ]
            }
        ],
        "reactions": [
            {
                "name": "+1",
                "users": [
                    "U010AGDDEBZ"
                ],
                "count": 1
            }
        ]
    }
]