[
    {
        "client_msg_id": "a32e7389-29c5-4476-96ae-0c93ded9a35d",
        "type": "message",
        "text": "Clinical Trials Registry \n\n<https:\/\/www.thelancet.com\/journals\/landig\/article\/PIIS2589-7500(20)30086-8\/fulltext|https:\/\/www.thelancet.com\/journals\/landig\/article\/PIIS2589-7500(20)30086-8\/fulltext>\n\n<https:\/\/www.covid-trials.org|https:\/\/www.covid-trials.org>",
        "user": "U010BA2NL9E",
        "ts": "1587796288.083600",
        "team": "TUU48M0T1",
        "user_team": "TUU48M0T1",
        "source_team": "TUU48M0T1",
        "user_profile": {
            "avatar_hash": "g3fa100f8f14",
            "image_72": "https:\/\/secure.gravatar.com\/avatar\/3fa100f8f14fc86a0f2f58648b36d29e.jpg?s=72&d=https%3A%2F%2Fa.slack-edge.com%2Fdf10d%2Fimg%2Favatars%2Fava_0008-72.png",
            "first_name": "",
            "real_name": "Eduardo Garcia",
            "display_name": "Eduardo Garcia",
            "team": "TUU48M0T1",
            "name": "eduardo.garcia",
            "is_restricted": false,
            "is_ultra_restricted": false
        },
        "attachments": [
            {
                "text": "Covid-19 Trial Map provided by Cytel",
                "fallback": "Covid-19 Trial Map provided by Cytel",
                "from_url": "https:\/\/www.covid-trials.org\/",
                "service_name": "covid-trials.org",
                "id": 1,
                "original_url": "https:\/\/www.covid-trials.org"
            }
        ],
        "blocks": [
            {
                "type": "rich_text",
                "block_id": "WVrwR",
                "elements": [
                    {
                        "type": "rich_text_section",
                        "elements": [
                            {
                                "type": "text",
                                "text": "Clinical Trials Registry \n\n"
                            },
                            {
                                "type": "link",
                                "url": "https:\/\/www.thelancet.com\/journals\/landig\/article\/PIIS2589-7500(20)30086-8\/fulltext",
                                "text": "https:\/\/www.thelancet.com\/journals\/landig\/article\/PIIS2589-7500(20)30086-8\/fulltext"
                            },
                            {
                                "type": "text",
                                "text": "\n\n"
                            },
                            {
                                "type": "link",
                                "url": "https:\/\/www.covid-trials.org",
                                "text": "https:\/\/www.covid-trials.org"
                            }
                        ]
                    }
                ]
            }
        ]
    }
]