[
    {
        "client_msg_id": "8cca1e41-8637-443a-8798-de9bb87690d2",
        "type": "message",
        "text": "*World's largest trial of potential coronavirus treatments rolled out across the UK*\nThe largest randomised clinical trial of potential coronavirus (COVID-19) treatments is underway as part of the race to find a treatment.\n\nPublished 3 April 2020\n<https:\/\/www.gov.uk\/government\/news\/worlds-largest-trial-of-potential-coronavirus-treatments-rolled-out-across-the-uk|https:\/\/www.gov.uk\/government\/news\/worlds-largest-trial-of-potential-coronavirus-treatments-rolled-out-across-the-uk>",
        "user": "U010BA2NL9E",
        "ts": "1586345024.039000",
        "team": "TUU48M0T1",
        "user_team": "TUU48M0T1",
        "source_team": "TUU48M0T1",
        "user_profile": {
            "avatar_hash": "g3fa100f8f14",
            "image_72": "https:\/\/secure.gravatar.com\/avatar\/3fa100f8f14fc86a0f2f58648b36d29e.jpg?s=72&d=https%3A%2F%2Fa.slack-edge.com%2Fdf10d%2Fimg%2Favatars%2Fava_0008-72.png",
            "first_name": "",
            "real_name": "Eduardo Garcia",
            "display_name": "Eduardo Garcia",
            "team": "TUU48M0T1",
            "name": "eduardo.garcia",
            "is_restricted": false,
            "is_ultra_restricted": false
        },
        "edited": {
            "user": "U010BA2NL9E",
            "ts": "1586346306.000000"
        },
        "blocks": [
            {
                "type": "rich_text",
                "block_id": "3W\/",
                "elements": [
                    {
                        "type": "rich_text_section",
                        "elements": [
                            {
                                "type": "text",
                                "text": "World's largest trial of potential coronavirus treatments rolled out across the UK",
                                "style": {
                                    "bold": true
                                }
                            },
                            {
                                "type": "text",
                                "text": "\nThe largest randomised clinical trial of potential coronavirus (COVID-19) treatments is underway as part of the race to find a treatment.\n\nPublished 3 April 2020\n"
                            },
                            {
                                "type": "link",
                                "url": "https:\/\/www.gov.uk\/government\/news\/worlds-largest-trial-of-potential-coronavirus-treatments-rolled-out-across-the-uk",
                                "text": "https:\/\/www.gov.uk\/government\/news\/worlds-largest-trial-of-potential-coronavirus-treatments-rolled-out-across-the-uk"
                            }
                        ]
                    }
                ]
            }
        ],
        "thread_ts": "1586345024.039000",
        "reply_count": 15,
        "reply_users_count": 1,
        "latest_reply": "1586445551.050800",
        "reply_users": [
            "U010BA2NL9E"
        ],
        "replies": [
            {
                "user": "U010BA2NL9E",
                "ts": "1586345947.039500"
            },
            {
                "user": "U010BA2NL9E",
                "ts": "1586345960.039800"
            },
            {
                "user": "U010BA2NL9E",
                "ts": "1586345987.040100"
            },
            {
                "user": "U010BA2NL9E",
                "ts": "1586346504.041300"
            },
            {
                "user": "U010BA2NL9E",
                "ts": "1586346706.041600"
            },
            {
                "user": "U010BA2NL9E",
                "ts": "1586353181.041900"
            },
            {
                "user": "U010BA2NL9E",
                "ts": "1586353256.042200"
            },
            {
                "user": "U010BA2NL9E",
                "ts": "1586433647.045600"
            },
            {
                "user": "U010BA2NL9E",
                "ts": "1586433672.045800"
            },
            {
                "user": "U010BA2NL9E",
                "ts": "1586433716.046100"
            },
            {
                "user": "U010BA2NL9E",
                "ts": "1586433735.046400"
            },
            {
                "user": "U010BA2NL9E",
                "ts": "1586433755.046700"
            },
            {
                "user": "U010BA2NL9E",
                "ts": "1586433794.047000"
            },
            {
                "user": "U010BA2NL9E",
                "ts": "1586433951.047300"
            },
            {
                "user": "U010BA2NL9E",
                "ts": "1586445551.050800"
            }
        ],
        "subscribed": false
    },
    {
        "client_msg_id": "0b16d0f6-cd83-4ce4-a8c8-5a172ba92224",
        "type": "message",
        "text": "<https:\/\/www.recoverytrial.net|https:\/\/www.recoverytrial.net>",
        "user": "U010BA2NL9E",
        "ts": "1586345947.039500",
        "team": "TUU48M0T1",
        "user_team": "TUU48M0T1",
        "source_team": "TUU48M0T1",
        "user_profile": {
            "avatar_hash": "g3fa100f8f14",
            "image_72": "https:\/\/secure.gravatar.com\/avatar\/3fa100f8f14fc86a0f2f58648b36d29e.jpg?s=72&d=https%3A%2F%2Fa.slack-edge.com%2Fdf10d%2Fimg%2Favatars%2Fava_0008-72.png",
            "first_name": "",
            "real_name": "Eduardo Garcia",
            "display_name": "Eduardo Garcia",
            "team": "TUU48M0T1",
            "name": "eduardo.garcia",
            "is_restricted": false,
            "is_ultra_restricted": false
        },
        "edited": {
            "user": "U010BA2NL9E",
            "ts": "1586346195.000000"
        },
        "blocks": [
            {
                "type": "rich_text",
                "block_id": "VIoG",
                "elements": [
                    {
                        "type": "rich_text_section",
                        "elements": [
                            {
                                "type": "link",
                                "url": "https:\/\/www.recoverytrial.net",
                                "text": "https:\/\/www.recoverytrial.net"
                            }
                        ]
                    }
                ]
            }
        ],
        "thread_ts": "1586345024.039000",
        "parent_user_id": "U010BA2NL9E"
    },
    {
        "client_msg_id": "cf0a9bc8-57e1-4215-8727-6a1274a93f78",
        "type": "message",
        "text": "<https:\/\/mft.nhs.uk\/2020\/04\/02\/first-mft-patient-recruited-to-research-trial-for-potential-covid-19-treatments\/|https:\/\/mft.nhs.uk\/2020\/04\/02\/first-mft-patient-recruited-to-research-trial-for-potential-covid-19-treatments\/>",
        "user": "U010BA2NL9E",
        "ts": "1586345960.039800",
        "team": "TUU48M0T1",
        "user_team": "TUU48M0T1",
        "source_team": "TUU48M0T1",
        "user_profile": {
            "avatar_hash": "g3fa100f8f14",
            "image_72": "https:\/\/secure.gravatar.com\/avatar\/3fa100f8f14fc86a0f2f58648b36d29e.jpg?s=72&d=https%3A%2F%2Fa.slack-edge.com%2Fdf10d%2Fimg%2Favatars%2Fava_0008-72.png",
            "first_name": "",
            "real_name": "Eduardo Garcia",
            "display_name": "Eduardo Garcia",
            "team": "TUU48M0T1",
            "name": "eduardo.garcia",
            "is_restricted": false,
            "is_ultra_restricted": false
        },
        "attachments": [
            {
                "service_name": "Manchester University NHS Foundation Trust",
                "title": "First MFT patient recruited to research trial for potential COVID-19 treatments - Manchester University NHS Foundation Trust",
                "title_link": "https:\/\/mft.nhs.uk\/2020\/04\/02\/first-mft-patient-recruited-to-research-trial-for-potential-covid-19-treatments\/",
                "fallback": "Manchester University NHS Foundation Trust: First MFT patient recruited to research trial for potential COVID-19 treatments - Manchester University NHS Foundation Trust",
                "image_url": "https:\/\/mft.nhs.uk\/app\/uploads\/2020\/04\/COVID19-Trials-Header-31.03.2020-2.png",
                "image_width": 749,
                "image_height": 250,
                "ts": 1585824018,
                "from_url": "https:\/\/mft.nhs.uk\/2020\/04\/02\/first-mft-patient-recruited-to-research-trial-for-potential-covid-19-treatments\/",
                "image_bytes": 159841,
                "service_icon": "https:\/\/mft.nhs.uk\/app\/themes\/mft\/dist\/images\/favicons\/apple-touch-icon.png",
                "id": 1,
                "original_url": "https:\/\/mft.nhs.uk\/2020\/04\/02\/first-mft-patient-recruited-to-research-trial-for-potential-covid-19-treatments\/"
            }
        ],
        "blocks": [
            {
                "type": "rich_text",
                "block_id": "jJLwx",
                "elements": [
                    {
                        "type": "rich_text_section",
                        "elements": [
                            {
                                "type": "link",
                                "url": "https:\/\/mft.nhs.uk\/2020\/04\/02\/first-mft-patient-recruited-to-research-trial-for-potential-covid-19-treatments\/",
                                "text": "https:\/\/mft.nhs.uk\/2020\/04\/02\/first-mft-patient-recruited-to-research-trial-for-potential-covid-19-treatments\/"
                            }
                        ]
                    }
                ]
            }
        ],
        "thread_ts": "1586345024.039000",
        "parent_user_id": "U010BA2NL9E"
    },
    {
        "client_msg_id": "02bc4e82-cce1-46ab-b7ac-5f8d0eaa6c2b",
        "type": "message",
        "text": "<http:\/\/www.ox.ac.uk\/news\/2020-03-23-first-patients-enrolled-new-clinical-trial-possible-covid-19-treatments|http:\/\/www.ox.ac.uk\/news\/2020-03-23-first-patients-enrolled-new-clinical-trial-possible-covid-19-treatments>",
        "user": "U010BA2NL9E",
        "ts": "1586345987.040100",
        "team": "TUU48M0T1",
        "user_team": "TUU48M0T1",
        "source_team": "TUU48M0T1",
        "user_profile": {
            "avatar_hash": "g3fa100f8f14",
            "image_72": "https:\/\/secure.gravatar.com\/avatar\/3fa100f8f14fc86a0f2f58648b36d29e.jpg?s=72&d=https%3A%2F%2Fa.slack-edge.com%2Fdf10d%2Fimg%2Favatars%2Fava_0008-72.png",
            "first_name": "",
            "real_name": "Eduardo Garcia",
            "display_name": "Eduardo Garcia",
            "team": "TUU48M0T1",
            "name": "eduardo.garcia",
            "is_restricted": false,
            "is_ultra_restricted": false
        },
        "attachments": [
            {
                "title": "First patients enrolled in new clinical trial of possible COVID-19 treatments | University of Oxford",
                "title_link": "http:\/\/www.ox.ac.uk\/news\/2020-03-23-first-patients-enrolled-new-clinical-trial-possible-covid-19-treatments",
                "text": "Researchers from the University of Oxford have launched a new clinical trial to test the effects of potential drug treatments for patients admitted to hospital with COVID-19. The first patients have now been recruited.",
                "fallback": "First patients enrolled in new clinical trial of possible COVID-19 treatments | University of Oxford",
                "image_url": "http:\/\/www.ox.ac.uk\/sites\/files\/oxford\/field\/field_image_main\/shutterstock_182164571.jpg",
                "from_url": "http:\/\/www.ox.ac.uk\/news\/2020-03-23-first-patients-enrolled-new-clinical-trial-possible-covid-19-treatments",
                "image_width": 522,
                "image_height": 250,
                "image_bytes": 348879,
                "service_icon": "http:\/\/www.ox.ac.uk\/sites\/default\/themes\/custom\/oxweb\/apple-touch-icon-114x114.png",
                "service_name": "ox.ac.uk",
                "id": 1,
                "original_url": "http:\/\/www.ox.ac.uk\/news\/2020-03-23-first-patients-enrolled-new-clinical-trial-possible-covid-19-treatments"
            }
        ],
        "blocks": [
            {
                "type": "rich_text",
                "block_id": "dex",
                "elements": [
                    {
                        "type": "rich_text_section",
                        "elements": [
                            {
                                "type": "link",
                                "url": "http:\/\/www.ox.ac.uk\/news\/2020-03-23-first-patients-enrolled-new-clinical-trial-possible-covid-19-treatments",
                                "text": "http:\/\/www.ox.ac.uk\/news\/2020-03-23-first-patients-enrolled-new-clinical-trial-possible-covid-19-treatments"
                            }
                        ]
                    }
                ]
            }
        ],
        "thread_ts": "1586345024.039000",
        "parent_user_id": "U010BA2NL9E"
    },
    {
        "client_msg_id": "902d01b3-3357-4eec-81c4-7c8c7df02a47",
        "type": "message",
        "text": "<https:\/\/www.clinicaltrialsarena.com\/news\/covid-19-trial-uk-canada-europe\/|https:\/\/www.clinicaltrialsarena.com\/news\/covid-19-trial-uk-canada-europe\/>",
        "user": "U010BA2NL9E",
        "ts": "1586346504.041300",
        "team": "TUU48M0T1",
        "user_team": "TUU48M0T1",
        "source_team": "TUU48M0T1",
        "user_profile": {
            "avatar_hash": "g3fa100f8f14",
            "image_72": "https:\/\/secure.gravatar.com\/avatar\/3fa100f8f14fc86a0f2f58648b36d29e.jpg?s=72&d=https%3A%2F%2Fa.slack-edge.com%2Fdf10d%2Fimg%2Favatars%2Fava_0008-72.png",
            "first_name": "",
            "real_name": "Eduardo Garcia",
            "display_name": "Eduardo Garcia",
            "team": "TUU48M0T1",
            "name": "eduardo.garcia",
            "is_restricted": false,
            "is_ultra_restricted": false
        },
        "attachments": [
            {
                "service_name": "Clinical Trials Arena",
                "title": "Covid-19 trials begin in the UK, Canada and Europe",
                "title_link": "https:\/\/www.clinicaltrialsarena.com\/news\/covid-19-trial-uk-canada-europe\/",
                "text": "Amid rapid spread of Covid-19 coronavirus infection, companies and researchers around the world have launched trial to assess vaccine and treatments.",
                "fallback": "Clinical Trials Arena: Covid-19 trials begin in the UK, Canada and Europe",
                "image_url": "https:\/\/www.clinicaltrialsarena.com\/wp-content\/uploads\/sites\/33\/2020\/03\/corona_2403.jpg",
                "image_width": 376,
                "image_height": 250,
                "ts": 1585054972,
                "from_url": "https:\/\/www.clinicaltrialsarena.com\/news\/covid-19-trial-uk-canada-europe\/",
                "image_bytes": 74750,
                "service_icon": "https:\/\/www.clinicaltrialsarena.com\/wp-content\/uploads\/sites\/33\/2018\/06\/favicon.png",
                "id": 1,
                "original_url": "https:\/\/www.clinicaltrialsarena.com\/news\/covid-19-trial-uk-canada-europe\/"
            }
        ],
        "blocks": [
            {
                "type": "rich_text",
                "block_id": "Gt3",
                "elements": [
                    {
                        "type": "rich_text_section",
                        "elements": [
                            {
                                "type": "link",
                                "url": "https:\/\/www.clinicaltrialsarena.com\/news\/covid-19-trial-uk-canada-europe\/",
                                "text": "https:\/\/www.clinicaltrialsarena.com\/news\/covid-19-trial-uk-canada-europe\/"
                            }
                        ]
                    }
                ]
            }
        ],
        "thread_ts": "1586345024.039000",
        "parent_user_id": "U010BA2NL9E"
    },
    {
        "client_msg_id": "fdb3d362-9993-48fc-a946-f9614a03950e",
        "type": "message",
        "text": "<https:\/\/www.sciencedaily.com\/releases\/2020\/04\/200406120130.htm|https:\/\/www.sciencedaily.com\/releases\/2020\/04\/200406120130.htm>",
        "user": "U010BA2NL9E",
        "ts": "1586346706.041600",
        "team": "TUU48M0T1",
        "user_team": "TUU48M0T1",
        "source_team": "TUU48M0T1",
        "user_profile": {
            "avatar_hash": "g3fa100f8f14",
            "image_72": "https:\/\/secure.gravatar.com\/avatar\/3fa100f8f14fc86a0f2f58648b36d29e.jpg?s=72&d=https%3A%2F%2Fa.slack-edge.com%2Fdf10d%2Fimg%2Favatars%2Fava_0008-72.png",
            "first_name": "",
            "real_name": "Eduardo Garcia",
            "display_name": "Eduardo Garcia",
            "team": "TUU48M0T1",
            "name": "eduardo.garcia",
            "is_restricted": false,
            "is_ultra_restricted": false
        },
        "attachments": [
            {
                "service_name": "ScienceDaily",
                "title": "Positives in first published clinical trial of COVID-19 treatment",
                "title_link": "https:\/\/www.sciencedaily.com\/releases\/2020\/04\/200406120130.htm",
                "text": "A statistician who worked on the first published large randomized clinical trial for a potential treatment for the COVID-19 virus said the study produced positive results.",
                "fallback": "ScienceDaily: Positives in first published clinical trial of COVID-19 treatment",
                "from_url": "https:\/\/www.sciencedaily.com\/releases\/2020\/04\/200406120130.htm",
                "service_icon": "https:\/\/www.sciencedaily.com\/favicon.ico",
                "id": 1,
                "original_url": "https:\/\/www.sciencedaily.com\/releases\/2020\/04\/200406120130.htm"
            }
        ],
        "blocks": [
            {
                "type": "rich_text",
                "block_id": "RI50y",
                "elements": [
                    {
                        "type": "rich_text_section",
                        "elements": [
                            {
                                "type": "link",
                                "url": "https:\/\/www.sciencedaily.com\/releases\/2020\/04\/200406120130.htm",
                                "text": "https:\/\/www.sciencedaily.com\/releases\/2020\/04\/200406120130.htm"
                            }
                        ]
                    }
                ]
            }
        ],
        "thread_ts": "1586345024.039000",
        "parent_user_id": "U010BA2NL9E"
    },
    {
        "client_msg_id": "1e3954d6-ebd0-4e59-be54-160c601cc9d9",
        "type": "message",
        "text": "Clinical Trials. Spain\n\n<https:\/\/galicia.economiadigital.es\/directivos-y-empresas\/sanidad-acelera-ensayos-clinicos-con-covid-19-como-el-de-pharma-mar_20051655_102.html|https:\/\/galicia.economiadigital.es\/directivos-y-empresas\/sanidad-acelera-ensayos-clinicos-con-covid-19-como-el-de-pharma-mar_20051655_102.html>",
        "user": "U010BA2NL9E",
        "ts": "1586353181.041900",
        "team": "TUU48M0T1",
        "user_team": "TUU48M0T1",
        "source_team": "TUU48M0T1",
        "user_profile": {
            "avatar_hash": "g3fa100f8f14",
            "image_72": "https:\/\/secure.gravatar.com\/avatar\/3fa100f8f14fc86a0f2f58648b36d29e.jpg?s=72&d=https%3A%2F%2Fa.slack-edge.com%2Fdf10d%2Fimg%2Favatars%2Fava_0008-72.png",
            "first_name": "",
            "real_name": "Eduardo Garcia",
            "display_name": "Eduardo Garcia",
            "team": "TUU48M0T1",
            "name": "eduardo.garcia",
            "is_restricted": false,
            "is_ultra_restricted": false
        },
        "attachments": [
            {
                "service_name": "Economía Digital Galicia",
                "title": "Sanidad acelera ensayos clínicos con Covid-19, como el de Pharma Mar",
                "title_link": "https:\/\/galicia.economiadigital.es\/directivos-y-empresas\/sanidad-acelera-ensayos-clinicos-con-covid-19-como-el-de-pharma-mar_20051655_102.html",
                "text": "La Agencia Española del Medicamento indica que está priorizando la investigación de ensayos clínicos para frenar el coronavirus",
                "fallback": "Economía Digital Galicia: Sanidad acelera ensayos clínicos con Covid-19, como el de Pharma Mar",
                "image_url": "https:\/\/galicia.economiadigital.es\/uploads\/s1\/10\/41\/32\/31\/a0896abf714ce550f62922c619b214d813566e52.jpeg",
                "image_width": 375,
                "image_height": 250,
                "from_url": "https:\/\/galicia.economiadigital.es\/directivos-y-empresas\/sanidad-acelera-ensayos-clinicos-con-covid-19-como-el-de-pharma-mar_20051655_102.html",
                "image_bytes": 1010784,
                "service_icon": "https:\/\/galicia.economiadigital.es\/uploads\/static\/ed\/icons\/galicia\/ed-galicia-logo-squared-152x152.png",
                "id": 1,
                "original_url": "https:\/\/galicia.economiadigital.es\/directivos-y-empresas\/sanidad-acelera-ensayos-clinicos-con-covid-19-como-el-de-pharma-mar_20051655_102.html"
            }
        ],
        "blocks": [
            {
                "type": "rich_text",
                "block_id": "458",
                "elements": [
                    {
                        "type": "rich_text_section",
                        "elements": [
                            {
                                "type": "text",
                                "text": "Clinical Trials. Spain\n\n"
                            },
                            {
                                "type": "link",
                                "url": "https:\/\/galicia.economiadigital.es\/directivos-y-empresas\/sanidad-acelera-ensayos-clinicos-con-covid-19-como-el-de-pharma-mar_20051655_102.html",
                                "text": "https:\/\/galicia.economiadigital.es\/directivos-y-empresas\/sanidad-acelera-ensayos-clinicos-con-covid-19-como-el-de-pharma-mar_20051655_102.html"
                            }
                        ]
                    }
                ]
            }
        ],
        "thread_ts": "1586345024.039000",
        "parent_user_id": "U010BA2NL9E"
    },
    {
        "client_msg_id": "99d2bd00-37b4-4a36-a7b0-46a8b56dcf71",
        "type": "message",
        "text": "<https:\/\/www.lavanguardia.com\/politica\/20200408\/48388329257\/sanidad-inicia-ensayo-para-mejorar-la-proteccion-de-sanitarios-frente-covid19.html|https:\/\/www.lavanguardia.com\/politica\/20200408\/48388329257\/sanidad-inicia-ensayo-para-mejorar-la-proteccion-de-sanitarios-frente-covid19.html>",
        "user": "U010BA2NL9E",
        "ts": "1586353256.042200",
        "team": "TUU48M0T1",
        "user_team": "TUU48M0T1",
        "source_team": "TUU48M0T1",
        "user_profile": {
            "avatar_hash": "g3fa100f8f14",
            "image_72": "https:\/\/secure.gravatar.com\/avatar\/3fa100f8f14fc86a0f2f58648b36d29e.jpg?s=72&d=https%3A%2F%2Fa.slack-edge.com%2Fdf10d%2Fimg%2Favatars%2Fava_0008-72.png",
            "first_name": "",
            "real_name": "Eduardo Garcia",
            "display_name": "Eduardo Garcia",
            "team": "TUU48M0T1",
            "name": "eduardo.garcia",
            "is_restricted": false,
            "is_ultra_restricted": false
        },
        "attachments": [
            {
                "service_name": "La Vanguardia",
                "title": "Sanidad inicia ensayo para mejorar la protección de sanitarios frente COVID19",
                "title_link": "https:\/\/www.lavanguardia.com\/politica\/20200408\/48388329257\/sanidad-inicia-ensayo-para-mejorar-la-proteccion-de-sanitarios-frente-covid19.html",
                "text": "Madrid, 8 abr (EFE).- El Ministerio de Sanidad iniciará en los próximos días un ensayo dirigido a buscar alternativas para mejorar la...",
                "fallback": "La Vanguardia: Sanidad inicia ensayo para mejorar la protección de sanitarios frente COVID19",
                "image_url": "https:\/\/www.lavanguardia.com\/rsc\/images\/default_story_image.jpg",
                "from_url": "https:\/\/www.lavanguardia.com\/politica\/20200408\/48388329257\/sanidad-inicia-ensayo-para-mejorar-la-proteccion-de-sanitarios-frente-covid19.html",
                "image_width": 445,
                "image_height": 250,
                "image_bytes": 12047,
                "service_icon": "https:\/\/www.lavanguardia.com\/rsc\/images\/ico\/apple-touch-icon-72x72.png",
                "id": 1,
                "original_url": "https:\/\/www.lavanguardia.com\/politica\/20200408\/48388329257\/sanidad-inicia-ensayo-para-mejorar-la-proteccion-de-sanitarios-frente-covid19.html"
            }
        ],
        "blocks": [
            {
                "type": "rich_text",
                "block_id": "Gnr3z",
                "elements": [
                    {
                        "type": "rich_text_section",
                        "elements": [
                            {
                                "type": "link",
                                "url": "https:\/\/www.lavanguardia.com\/politica\/20200408\/48388329257\/sanidad-inicia-ensayo-para-mejorar-la-proteccion-de-sanitarios-frente-covid19.html",
                                "text": "https:\/\/www.lavanguardia.com\/politica\/20200408\/48388329257\/sanidad-inicia-ensayo-para-mejorar-la-proteccion-de-sanitarios-frente-covid19.html"
                            }
                        ]
                    }
                ]
            }
        ],
        "thread_ts": "1586345024.039000",
        "parent_user_id": "U010BA2NL9E"
    },
    {
        "client_msg_id": "229cded3-dcd9-4e2d-aa17-6ea806355983",
        "type": "message",
        "text": "The no ARDS school of thought\n\nCameron Kyle-Sidell, MD, NYC ICU\n\n<https:\/\/youtu.be\/k9GYTc53r2o|https:\/\/youtu.be\/k9GYTc53r2o>\n\n<https:\/\/youtu.be\/QWaq8HoEROU|https:\/\/youtu.be\/QWaq8HoEROU>",
        "user": "U010BA2NL9E",
        "ts": "1586410319.043200",
        "team": "TUU48M0T1",
        "user_team": "TUU48M0T1",
        "source_team": "TUU48M0T1",
        "user_profile": {
            "avatar_hash": "g3fa100f8f14",
            "image_72": "https:\/\/secure.gravatar.com\/avatar\/3fa100f8f14fc86a0f2f58648b36d29e.jpg?s=72&d=https%3A%2F%2Fa.slack-edge.com%2Fdf10d%2Fimg%2Favatars%2Fava_0008-72.png",
            "first_name": "",
            "real_name": "Eduardo Garcia",
            "display_name": "Eduardo Garcia",
            "team": "TUU48M0T1",
            "name": "eduardo.garcia",
            "is_restricted": false,
            "is_ultra_restricted": false
        },
        "edited": {
            "user": "U010BA2NL9E",
            "ts": "1586410332.000000"
        },
        "blocks": [
            {
                "type": "rich_text",
                "block_id": "QSa",
                "elements": [
                    {
                        "type": "rich_text_section",
                        "elements": [
                            {
                                "type": "text",
                                "text": "The no ARDS school of thought\n\nCameron Kyle-Sidell, MD, NYC ICU\n\n"
                            },
                            {
                                "type": "link",
                                "url": "https:\/\/youtu.be\/k9GYTc53r2o",
                                "text": "https:\/\/youtu.be\/k9GYTc53r2o"
                            },
                            {
                                "type": "text",
                                "text": "\n\n"
                            },
                            {
                                "type": "link",
                                "url": "https:\/\/youtu.be\/QWaq8HoEROU",
                                "text": "https:\/\/youtu.be\/QWaq8HoEROU"
                            }
                        ]
                    }
                ]
            }
        ],
        "thread_ts": "1586410319.043200",
        "reply_count": 26,
        "reply_users_count": 2,
        "latest_reply": "1587623306.083100",
        "reply_users": [
            "U010BA2NL9E",
            "U01181TG37X"
        ],
        "replies": [
            {
                "user": "U010BA2NL9E",
                "ts": "1586410373.043500"
            },
            {
                "user": "U010BA2NL9E",
                "ts": "1586410415.043700"
            },
            {
                "user": "U010BA2NL9E",
                "ts": "1586410460.044000"
            },
            {
                "user": "U010BA2NL9E",
                "ts": "1586410508.044300"
            },
            {
                "user": "U010BA2NL9E",
                "ts": "1586410544.044600"
            },
            {
                "user": "U010BA2NL9E",
                "ts": "1586410580.044900"
            },
            {
                "user": "U010BA2NL9E",
                "ts": "1586412562.045200"
            },
            {
                "user": "U01181TG37X",
                "ts": "1586440281.050100"
            },
            {
                "user": "U010BA2NL9E",
                "ts": "1586451530.051100"
            },
            {
                "user": "U010BA2NL9E",
                "ts": "1586455654.055000"
            },
            {
                "user": "U010BA2NL9E",
                "ts": "1586501140.055600"
            },
            {
                "user": "U010BA2NL9E",
                "ts": "1586513769.055900"
            },
            {
                "user": "U010BA2NL9E",
                "ts": "1586514377.056200"
            },
            {
                "user": "U010BA2NL9E",
                "ts": "1586534853.057900"
            },
            {
                "user": "U010BA2NL9E",
                "ts": "1586544646.066200"
            },
            {
                "user": "U010BA2NL9E",
                "ts": "1586610096.070800"
            },
            {
                "user": "U010BA2NL9E",
                "ts": "1586611308.071300"
            },
            {
                "user": "U010BA2NL9E",
                "ts": "1586949080.075000"
            },
            {
                "user": "U010BA2NL9E",
                "ts": "1587113973.075200"
            },
            {
                "user": "U010BA2NL9E",
                "ts": "1587390593.076300"
            },
            {
                "user": "U010BA2NL9E",
                "ts": "1587539335.081200"
            },
            {
                "user": "U010BA2NL9E",
                "ts": "1587539348.081500"
            },
            {
                "user": "U010BA2NL9E",
                "ts": "1587570534.082100"
            },
            {
                "user": "U010BA2NL9E",
                "ts": "1587588032.082500"
            },
            {
                "user": "U010BA2NL9E",
                "ts": "1587589593.082800"
            },
            {
                "user": "U010BA2NL9E",
                "ts": "1587623306.083100"
            }
        ],
        "subscribed": false
    },
    {
        "client_msg_id": "82e4330b-ec1b-4e38-bcd4-d3927ecf3081",
        "type": "message",
        "text": "Covid-19 does not lead to a “typical” Acute Respiratory Distress Syndrome\n\nD. Chiumello, M. Cressoni, L. Gattinoni\n\n<https:\/\/www.atsjournals.org\/doi\/abs\/10.1164\/rccm.202003-0817LE|https:\/\/www.atsjournals.org\/doi\/abs\/10.1164\/rccm.202003-0817LE>",
        "user": "U010BA2NL9E",
        "ts": "1586410373.043500",
        "team": "TUU48M0T1",
        "user_team": "TUU48M0T1",
        "source_team": "TUU48M0T1",
        "user_profile": {
            "avatar_hash": "g3fa100f8f14",
            "image_72": "https:\/\/secure.gravatar.com\/avatar\/3fa100f8f14fc86a0f2f58648b36d29e.jpg?s=72&d=https%3A%2F%2Fa.slack-edge.com%2Fdf10d%2Fimg%2Favatars%2Fava_0008-72.png",
            "first_name": "",
            "real_name": "Eduardo Garcia",
            "display_name": "Eduardo Garcia",
            "team": "TUU48M0T1",
            "name": "eduardo.garcia",
            "is_restricted": false,
            "is_ultra_restricted": false
        },
        "blocks": [
            {
                "type": "rich_text",
                "block_id": "iHn",
                "elements": [
                    {
                        "type": "rich_text_section",
                        "elements": [
                            {
                                "type": "text",
                                "text": "Covid-19 does not lead to a “typical” Acute Respiratory Distress Syndrome\n\nD. Chiumello, M. Cressoni, L. Gattinoni\n\n"
                            },
                            {
                                "type": "link",
                                "url": "https:\/\/www.atsjournals.org\/doi\/abs\/10.1164\/rccm.202003-0817LE",
                                "text": "https:\/\/www.atsjournals.org\/doi\/abs\/10.1164\/rccm.202003-0817LE"
                            }
                        ]
                    }
                ]
            }
        ],
        "thread_ts": "1586410319.043200",
        "parent_user_id": "U010BA2NL9E"
    },
    {
        "client_msg_id": "ebf4b9eb-8ff3-40f2-a525-89bf2677f67a",
        "type": "message",
        "text": "<https:\/\/medium.com\/@charli.carpenter\/covid19-may-be-altitude-sickness-not-pneumonia-may-be-54fbf159b12a|https:\/\/medium.com\/@charli.carpenter\/covid19-may-be-altitude-sickness-not-pneumonia-may-be-54fbf159b12a>",
        "user": "U010BA2NL9E",
        "ts": "1586410415.043700",
        "team": "TUU48M0T1",
        "user_team": "TUU48M0T1",
        "source_team": "TUU48M0T1",
        "user_profile": {
            "avatar_hash": "g3fa100f8f14",
            "image_72": "https:\/\/secure.gravatar.com\/avatar\/3fa100f8f14fc86a0f2f58648b36d29e.jpg?s=72&d=https%3A%2F%2Fa.slack-edge.com%2Fdf10d%2Fimg%2Favatars%2Fava_0008-72.png",
            "first_name": "",
            "real_name": "Eduardo Garcia",
            "display_name": "Eduardo Garcia",
            "team": "TUU48M0T1",
            "name": "eduardo.garcia",
            "is_restricted": false,
            "is_ultra_restricted": false
        },
        "attachments": [
            {
                "service_name": "Medium",
                "title": "Covid19 May Be Altitude Sickness, Not Pneumonia. MAY BE.",
                "title_link": "https:\/\/medium.com\/@charli.carpenter\/covid19-may-be-altitude-sickness-not-pneumonia-may-be-54fbf159b12a",
                "text": "Emergency doctors on Twitter have crowd-sourced and are now testing a new hypothesis. Can they keep conspiracy theorists from giving it a…",
                "fallback": "Medium: Covid19 May Be Altitude Sickness, Not Pneumonia. MAY BE.",
                "image_url": "https:\/\/miro.medium.com\/max\/1200\/1*pzQfKLtp_cWKSrwVGp7NyQ.jpeg",
                "fields": [
                    {
                        "title": "Reading time",
                        "value": "9 min read",
                        "short": true
                    }
                ],
                "ts": 1586347120,
                "from_url": "https:\/\/medium.com\/@charli.carpenter\/covid19-may-be-altitude-sickness-not-pneumonia-may-be-54fbf159b12a",
                "image_width": 444,
                "image_height": 250,
                "image_bytes": 133745,
                "service_icon": "https:\/\/cdn-images-1.medium.com\/fit\/c\/152\/152\/1*8I-HPL0bfoIzGied-dzOvA.png",
                "id": 1,
                "original_url": "https:\/\/medium.com\/@charli.carpenter\/covid19-may-be-altitude-sickness-not-pneumonia-may-be-54fbf159b12a"
            }
        ],
        "blocks": [
            {
                "type": "rich_text",
                "block_id": "cJ2",
                "elements": [
                    {
                        "type": "rich_text_section",
                        "elements": [
                            {
                                "type": "link",
                                "url": "https:\/\/medium.com\/@charli.carpenter\/covid19-may-be-altitude-sickness-not-pneumonia-may-be-54fbf159b12a",
                                "text": "https:\/\/medium.com\/@charli.carpenter\/covid19-may-be-altitude-sickness-not-pneumonia-may-be-54fbf159b12a"
                            }
                        ]
                    }
                ]
            }
        ],
        "thread_ts": "1586410319.043200",
        "parent_user_id": "U010BA2NL9E"
    },
    {
        "client_msg_id": "2c64dd06-9871-4d57-8b1c-82572c883cd0",
        "type": "message",
        "text": "<https:\/\/rebelem.com\/rebel-cast-ep79-covid-19-trying-not-to-intubate-early-why-ardsnet-may-be-the-wrong-ventilator-paradigm\/|https:\/\/rebelem.com\/rebel-cast-ep79-covid-19-trying-not-to-intubate-early-why-ardsnet-may-be-the-wrong-ventilator-paradigm\/>",
        "user": "U010BA2NL9E",
        "ts": "1586410460.044000",
        "team": "TUU48M0T1",
        "user_team": "TUU48M0T1",
        "source_team": "TUU48M0T1",
        "user_profile": {
            "avatar_hash": "g3fa100f8f14",
            "image_72": "https:\/\/secure.gravatar.com\/avatar\/3fa100f8f14fc86a0f2f58648b36d29e.jpg?s=72&d=https%3A%2F%2Fa.slack-edge.com%2Fdf10d%2Fimg%2Favatars%2Fava_0008-72.png",
            "first_name": "",
            "real_name": "Eduardo Garcia",
            "display_name": "Eduardo Garcia",
            "team": "TUU48M0T1",
            "name": "eduardo.garcia",
            "is_restricted": false,
            "is_ultra_restricted": false
        },
        "attachments": [
            {
                "service_name": "REBEL EM - Emergency Medicine Blog",
                "title": "REBEL Cast Ep79: COVID-19 - Trying Not to Intubate Early &amp; Why ARDSnet may be the Wrong Ventilator Paradigm - REBEL EM - Emergency Medicine Blog",
                "title_link": "https:\/\/rebelem.com\/rebel-cast-ep79-covid-19-trying-not-to-intubate-early-why-ardsnet-may-be-the-wrong-ventilator-paradigm\/",
                "text": "Hey there REBEL Cast listeners, Salim Rezaie here.  For me and I am sure many COVID-19 has been quite the whirlwind.  So much information, so...",
                "fallback": "REBEL EM - Emergency Medicine Blog: REBEL Cast Ep79: COVID-19 - Trying Not to Intubate Early &amp; Why ARDSnet may be the Wrong Ventilator Paradigm - REBEL EM - Emergency Medicine Blog",
                "thumb_url": "https:\/\/rebelem.com\/wp-content\/uploads\/2020\/04\/REBEL-Cast-Ep79-COVID-19-Trying-Not-to-Intubate-Early-Why-ARDSnet-May-be-the-Wrong-Ventilator-Paradigm-1024x575.png",
                "ts": 1586088021,
                "from_url": "https:\/\/rebelem.com\/rebel-cast-ep79-covid-19-trying-not-to-intubate-early-why-ardsnet-may-be-the-wrong-ventilator-paradigm\/",
                "thumb_width": 1024,
                "thumb_height": 575,
                "id": 1,
                "original_url": "https:\/\/rebelem.com\/rebel-cast-ep79-covid-19-trying-not-to-intubate-early-why-ardsnet-may-be-the-wrong-ventilator-paradigm\/"
            }
        ],
        "blocks": [
            {
                "type": "rich_text",
                "block_id": "0Hwvn",
                "elements": [
                    {
                        "type": "rich_text_section",
                        "elements": [
                            {
                                "type": "link",
                                "url": "https:\/\/rebelem.com\/rebel-cast-ep79-covid-19-trying-not-to-intubate-early-why-ardsnet-may-be-the-wrong-ventilator-paradigm\/",
                                "text": "https:\/\/rebelem.com\/rebel-cast-ep79-covid-19-trying-not-to-intubate-early-why-ardsnet-may-be-the-wrong-ventilator-paradigm\/"
                            }
                        ]
                    }
                ]
            }
        ],
        "thread_ts": "1586410319.043200",
        "parent_user_id": "U010BA2NL9E"
    },
    {
        "client_msg_id": "aef352e3-4a20-4590-b567-0c506f4732fe",
        "type": "message",
        "text": "Trash! See comment below.\n\nComments on another Slack are that this article was removed from medium and is only available via web archive.\n\n<https:\/\/web.archive.org\/web\/20200405061401\/https:\/\/medium.com\/@agaiziunas\/covid-19-had-us-all-fooled-but-now-we-might-have-finally-found-its-secret-91182386efcb|https:\/\/web.archive.org\/web\/20200405061401\/https:\/\/medium.com\/@agaiziunas\/covid-19-had-us-all-fooled-but-now-we-might-have-finally-found-its-secret-91182386efcb>",
        "user": "U010BA2NL9E",
        "ts": "1586410508.044300",
        "team": "TUU48M0T1",
        "user_team": "TUU48M0T1",
        "source_team": "TUU48M0T1",
        "user_profile": {
            "avatar_hash": "g3fa100f8f14",
            "image_72": "https:\/\/secure.gravatar.com\/avatar\/3fa100f8f14fc86a0f2f58648b36d29e.jpg?s=72&d=https%3A%2F%2Fa.slack-edge.com%2Fdf10d%2Fimg%2Favatars%2Fava_0008-72.png",
            "first_name": "",
            "real_name": "Eduardo Garcia",
            "display_name": "Eduardo Garcia",
            "team": "TUU48M0T1",
            "name": "eduardo.garcia",
            "is_restricted": false,
            "is_ultra_restricted": false
        },
        "edited": {
            "user": "U010BA2NL9E",
            "ts": "1586443109.000000"
        },
        "attachments": [
            {
                "service_name": "Medium",
                "title": "Covid-19 had us all fooled, but now we might have finally found its secret.",
                "title_link": "https:\/\/web.archive.org\/web\/20200405061401\/https:\/\/medium.com\/@agaiziunas\/covid-19-had-us-all-fooled-but-now-we-might-have-finally-found-its-secret-91182386efcb",
                "text": "In the last 3–5 days, a mountain of anecdotal evidence has come out of NYC, Italy, Spain, etc. about COVID-19 and characteristics of…",
                "fallback": "Medium: Covid-19 had us all fooled, but now we might have finally found its secret.",
                "fields": [
                    {
                        "title": "Reading time",
                        "value": "8 min read",
                        "short": true
                    }
                ],
                "ts": 1586063372,
                "from_url": "https:\/\/web.archive.org\/web\/20200405061401\/https:\/\/medium.com\/@agaiziunas\/covid-19-had-us-all-fooled-but-now-we-might-have-finally-found-its-secret-91182386efcb",
                "service_icon": "https:\/\/web.archive.org\/web\/20200405061401im_\/https:\/\/cdn-images-1.medium.com\/fit\/c\/152\/152\/1*8I-HPL0bfoIzGied-dzOvA.png",
                "id": 1,
                "original_url": "https:\/\/web.archive.org\/web\/20200405061401\/https:\/\/medium.com\/@agaiziunas\/covid-19-had-us-all-fooled-but-now-we-might-have-finally-found-its-secret-91182386efcb"
            }
        ],
        "blocks": [
            {
                "type": "rich_text",
                "block_id": "ufB",
                "elements": [
                    {
                        "type": "rich_text_section",
                        "elements": [
                            {
                                "type": "text",
                                "text": "Trash! See comment below.\n\nComments on another Slack are that this article was removed from medium and is only available via web archive.\n\n"
                            },
                            {
                                "type": "link",
                                "url": "https:\/\/web.archive.org\/web\/20200405061401\/https:\/\/medium.com\/@agaiziunas\/covid-19-had-us-all-fooled-but-now-we-might-have-finally-found-its-secret-91182386efcb",
                                "text": "https:\/\/web.archive.org\/web\/20200405061401\/https:\/\/medium.com\/@agaiziunas\/covid-19-had-us-all-fooled-but-now-we-might-have-finally-found-its-secret-91182386efcb"
                            }
                        ]
                    }
                ]
            }
        ],
        "thread_ts": "1586410319.043200",
        "parent_user_id": "U010BA2NL9E",
        "reactions": [
            {
                "name": "-1",
                "users": [
                    "U01181TG37X"
                ],
                "count": 1
            }
        ]
    },
    {
        "client_msg_id": "a47d45eb-e309-466c-ad55-6ebad7baf59a",
        "type": "message",
        "text": "<https:\/\/youtu.be\/2OXP7_aawUs|https:\/\/youtu.be\/2OXP7_aawUs>",
        "user": "U010BA2NL9E",
        "ts": "1586410544.044600",
        "team": "TUU48M0T1",
        "user_team": "TUU48M0T1",
        "source_team": "TUU48M0T1",
        "user_profile": {
            "avatar_hash": "g3fa100f8f14",
            "image_72": "https:\/\/secure.gravatar.com\/avatar\/3fa100f8f14fc86a0f2f58648b36d29e.jpg?s=72&d=https%3A%2F%2Fa.slack-edge.com%2Fdf10d%2Fimg%2Favatars%2Fava_0008-72.png",
            "first_name": "",
            "real_name": "Eduardo Garcia",
            "display_name": "Eduardo Garcia",
            "team": "TUU48M0T1",
            "name": "eduardo.garcia",
            "is_restricted": false,
            "is_ultra_restricted": false
        },
        "attachments": [
            {
                "service_name": "YouTube",
                "service_url": "https:\/\/www.youtube.com\/",
                "title": "Exclusive interview with forensic expert: First COVID-19 autopsy provides critical insight",
                "title_link": "https:\/\/youtu.be\/2OXP7_aawUs",
                "author_name": "CGTN",
                "author_link": "https:\/\/www.youtube.com\/user\/CCTVNEWSbeijing",
                "thumb_url": "https:\/\/i.ytimg.com\/vi\/2OXP7_aawUs\/hqdefault.jpg",
                "thumb_width": 480,
                "thumb_height": 360,
                "fallback": "YouTube Video: Exclusive interview with forensic expert: First COVID-19 autopsy provides critical insight",
                "video_html": "<iframe width=\"400\" height=\"225\" src=\"https:\/\/www.youtube.com\/embed\/2OXP7_aawUs?feature=oembed&autoplay=1&iv_load_policy=3\" frameborder=\"0\" allow=\"accelerometer; autoplay; encrypted-media; gyroscope; picture-in-picture\" allowfullscreen><\/iframe>",
                "video_html_width": 400,
                "video_html_height": 225,
                "from_url": "https:\/\/youtu.be\/2OXP7_aawUs",
                "service_icon": "https:\/\/a.slack-edge.com\/80588\/img\/unfurl_icons\/youtube.png",
                "id": 1,
                "original_url": "https:\/\/youtu.be\/2OXP7_aawUs"
            }
        ],
        "blocks": [
            {
                "type": "rich_text",
                "block_id": "yOu",
                "elements": [
                    {
                        "type": "rich_text_section",
                        "elements": [
                            {
                                "type": "link",
                                "url": "https:\/\/youtu.be\/2OXP7_aawUs",
                                "text": "https:\/\/youtu.be\/2OXP7_aawUs"
                            }
                        ]
                    }
                ]
            }
        ],
        "thread_ts": "1586410319.043200",
        "parent_user_id": "U010BA2NL9E"
    },
    {
        "client_msg_id": "7842fca5-5bee-45b2-acd4-e6df22b3b257",
        "type": "message",
        "text": "<https:\/\/youtu.be\/dzGn6bm8y3s|https:\/\/youtu.be\/dzGn6bm8y3s>",
        "user": "U010BA2NL9E",
        "ts": "1586410580.044900",
        "team": "TUU48M0T1",
        "user_team": "TUU48M0T1",
        "source_team": "TUU48M0T1",
        "user_profile": {
            "avatar_hash": "g3fa100f8f14",
            "image_72": "https:\/\/secure.gravatar.com\/avatar\/3fa100f8f14fc86a0f2f58648b36d29e.jpg?s=72&d=https%3A%2F%2Fa.slack-edge.com%2Fdf10d%2Fimg%2Favatars%2Fava_0008-72.png",
            "first_name": "",
            "real_name": "Eduardo Garcia",
            "display_name": "Eduardo Garcia",
            "team": "TUU48M0T1",
            "name": "eduardo.garcia",
            "is_restricted": false,
            "is_ultra_restricted": false
        },
        "attachments": [
            {
                "service_name": "YouTube",
                "service_url": "https:\/\/www.youtube.com\/",
                "title": "Medical Expert on Autopsy Findings of COVID-19",
                "title_link": "https:\/\/youtu.be\/dzGn6bm8y3s",
                "author_name": "CCTV Video News Agency",
                "author_link": "https:\/\/www.youtube.com\/channel\/UCmv5DbNpxH8X2eQxJBqEjKQ",
                "thumb_url": "https:\/\/i.ytimg.com\/vi\/dzGn6bm8y3s\/hqdefault.jpg",
                "thumb_width": 480,
                "thumb_height": 360,
                "fallback": "YouTube Video: Medical Expert on Autopsy Findings of COVID-19",
                "video_html": "<iframe width=\"400\" height=\"225\" src=\"https:\/\/www.youtube.com\/embed\/dzGn6bm8y3s?feature=oembed&autoplay=1&iv_load_policy=3\" frameborder=\"0\" allow=\"accelerometer; autoplay; encrypted-media; gyroscope; picture-in-picture\" allowfullscreen><\/iframe>",
                "video_html_width": 400,
                "video_html_height": 225,
                "from_url": "https:\/\/youtu.be\/dzGn6bm8y3s",
                "service_icon": "https:\/\/a.slack-edge.com\/80588\/img\/unfurl_icons\/youtube.png",
                "id": 1,
                "original_url": "https:\/\/youtu.be\/dzGn6bm8y3s"
            }
        ],
        "blocks": [
            {
                "type": "rich_text",
                "block_id": "MX7NO",
                "elements": [
                    {
                        "type": "rich_text_section",
                        "elements": [
                            {
                                "type": "link",
                                "url": "https:\/\/youtu.be\/dzGn6bm8y3s",
                                "text": "https:\/\/youtu.be\/dzGn6bm8y3s"
                            }
                        ]
                    }
                ]
            }
        ],
        "thread_ts": "1586410319.043200",
        "parent_user_id": "U010BA2NL9E"
    },
    {
        "client_msg_id": "93a097ae-7592-4470-8cdb-f7aa35439a29",
        "type": "message",
        "text": "<https:\/\/chemrxiv.org\/articles\/COVID-19_Disease_ORF8_and_Surface_Glycoprotein_Inhibit_Heme_Metabolism_by_Binding_to_Porphyrin\/11938173|https:\/\/chemrxiv.org\/articles\/COVID-19_Disease_ORF8_and_Surface_Glycoprotein_Inhibit_Heme_Metabolism_by_Binding_to_Porphyrin\/11938173>",
        "user": "U010BA2NL9E",
        "ts": "1586412562.045200",
        "team": "TUU48M0T1",
        "user_team": "TUU48M0T1",
        "source_team": "TUU48M0T1",
        "user_profile": {
            "avatar_hash": "g3fa100f8f14",
            "image_72": "https:\/\/secure.gravatar.com\/avatar\/3fa100f8f14fc86a0f2f58648b36d29e.jpg?s=72&d=https%3A%2F%2Fa.slack-edge.com%2Fdf10d%2Fimg%2Favatars%2Fava_0008-72.png",
            "first_name": "",
            "real_name": "Eduardo Garcia",
            "display_name": "Eduardo Garcia",
            "team": "TUU48M0T1",
            "name": "eduardo.garcia",
            "is_restricted": false,
            "is_ultra_restricted": false
        },
        "attachments": [
            {
                "service_name": "figshare",
                "title": "COVID-19: Attacks the 1-Beta Chain of Hemoglobin and Captures the Porphyrin to Inhibit Human Heme Metabolism",
                "title_link": "https:\/\/chemrxiv.org\/articles\/COVID-19_Disease_ORF8_and_Surface_Glycoprotein_Inhibit_Heme_Metabolism_by_Binding_to_Porphyrin\/11938173",
                "text": "The novel coronavirus pneumonia (COVID-19) is an infectious acute respiratory infection caused by the novel coronavirus. The virus is a positive-strand RNA virus with high homology to bat coronavirus. In this study, conserved domain analysis, homology modeling, and molecular docking were used to compare the biological roles of certain proteins of the novel coronavirus. The results showed the ORF8 and surface glycoprotein could bind to the porphyrin, respectively. At the same time, orf1ab, ORF10, and ORF3a proteins could coordinate attack the heme on the 1-beta chain of hemoglobin to dissociate the iron to form the porphyrin. The attack will cause less and less hemoglobin that can carry oxygen and carbon dioxide. The lung cells have extremely intense poisoning and inflammatory due to the inability to exchange carbon dioxide and oxygen frequently, which eventually results in ground-glass-like lung images. The mechanism also interfered with the normal heme anabolic pathway of the human body, is expected to result in human disease. According to the validation analysis of these finds, chloroquine could prevent orf1ab, ORF3a, and ORF10 to attack the heme to form the porphyrin, and inhibit the binding of ORF8 and surface glycoproteins to porphyrins to a certain extent, effectively relieve the symptoms of respiratory distress. Favipiravir could inhibit the envelope protein and ORF7a protein bind to porphyrin, prevent the virus from entering host cells, and catching free porphyrins. Because the novel coronavirus is dependent on porphyrins, it may originate from an ancient virus. Therefore, this research is of high value to contemporary biological experiments, disease prevention, and clinical treatment.",
                "fallback": "figshare: COVID-19: Attacks the 1-Beta Chain of Hemoglobin and Captures the Porphyrin to Inhibit Human Heme Metabolism",
                "thumb_url": "https:\/\/s3-eu-west-1.amazonaws.com\/ppreviews-chemrxiv-7984736271254\/22129965\/thumb.png",
                "from_url": "https:\/\/chemrxiv.org\/articles\/COVID-19_Disease_ORF8_and_Surface_Glycoprotein_Inhibit_Heme_Metabolism_by_Binding_to_Porphyrin\/11938173",
                "thumb_width": 250,
                "thumb_height": 354,
                "service_icon": "http:\/\/website-p-eu.figstatic.com\/assets\/d8fdea89be25e043ce9c291bc0ce1d570055a531\/public\/global\/favicon\/apple-touch-icon-57x57.png",
                "id": 1,
                "original_url": "https:\/\/chemrxiv.org\/articles\/COVID-19_Disease_ORF8_and_Surface_Glycoprotein_Inhibit_Heme_Metabolism_by_Binding_to_Porphyrin\/11938173"
            }
        ],
        "blocks": [
            {
                "type": "rich_text",
                "block_id": "PIJ",
                "elements": [
                    {
                        "type": "rich_text_section",
                        "elements": [
                            {
                                "type": "link",
                                "url": "https:\/\/chemrxiv.org\/articles\/COVID-19_Disease_ORF8_and_Surface_Glycoprotein_Inhibit_Heme_Metabolism_by_Binding_to_Porphyrin\/11938173",
                                "text": "https:\/\/chemrxiv.org\/articles\/COVID-19_Disease_ORF8_and_Surface_Glycoprotein_Inhibit_Heme_Metabolism_by_Binding_to_Porphyrin\/11938173"
                            }
                        ]
                    }
                ]
            }
        ],
        "thread_ts": "1586410319.043200",
        "parent_user_id": "U010BA2NL9E"
    }
]