[
    {
        "client_msg_id": "c1d8e4f0-8442-4042-8c74-16702858771c",
        "type": "message",
        "text": "Most promising treatments according to <http:\/\/thelocal.it|thelocal.it>\n\n<https:\/\/www.thelocal.it\/20200406\/what-are-the-most-promising-treatments-for-covid-19|https:\/\/www.thelocal.it\/20200406\/what-are-the-most-promising-treatments-for-covid-19>",
        "user": "U010BA2NL9E",
        "ts": "1586433647.045600",
        "team": "TUU48M0T1",
        "user_team": "TUU48M0T1",
        "source_team": "TUU48M0T1",
        "user_profile": {
            "avatar_hash": "g3fa100f8f14",
            "image_72": "https:\/\/secure.gravatar.com\/avatar\/3fa100f8f14fc86a0f2f58648b36d29e.jpg?s=72&d=https%3A%2F%2Fa.slack-edge.com%2Fdf10d%2Fimg%2Favatars%2Fava_0008-72.png",
            "first_name": "",
            "real_name": "Eduardo Garcia",
            "display_name": "Eduardo Garcia",
            "team": "TUU48M0T1",
            "name": "eduardo.garcia",
            "is_restricted": false,
            "is_ultra_restricted": false
        },
        "blocks": [
            {
                "type": "rich_text",
                "block_id": "00f",
                "elements": [
                    {
                        "type": "rich_text_section",
                        "elements": [
                            {
                                "type": "text",
                                "text": "Most promising treatments according to "
                            },
                            {
                                "type": "link",
                                "url": "http:\/\/thelocal.it",
                                "text": "thelocal.it"
                            },
                            {
                                "type": "text",
                                "text": "\n\n"
                            },
                            {
                                "type": "link",
                                "url": "https:\/\/www.thelocal.it\/20200406\/what-are-the-most-promising-treatments-for-covid-19",
                                "text": "https:\/\/www.thelocal.it\/20200406\/what-are-the-most-promising-treatments-for-covid-19"
                            }
                        ]
                    }
                ]
            }
        ],
        "thread_ts": "1586345024.039000",
        "parent_user_id": "U010BA2NL9E"
    },
    {
        "client_msg_id": "56a79b8b-3e58-481f-b977-ab97297b22ab",
        "type": "message",
        "text": "Interferon\n<https:\/\/www.dw.com\/en\/cuban-drug-as-possible-treatment-for-coronavirus-patients\/a-53015483|https:\/\/www.dw.com\/en\/cuban-drug-as-possible-treatment-for-coronavirus-patients\/a-53015483>",
        "user": "U010BA2NL9E",
        "ts": "1586433672.045800",
        "team": "TUU48M0T1",
        "user_team": "TUU48M0T1",
        "source_team": "TUU48M0T1",
        "user_profile": {
            "avatar_hash": "g3fa100f8f14",
            "image_72": "https:\/\/secure.gravatar.com\/avatar\/3fa100f8f14fc86a0f2f58648b36d29e.jpg?s=72&d=https%3A%2F%2Fa.slack-edge.com%2Fdf10d%2Fimg%2Favatars%2Fava_0008-72.png",
            "first_name": "",
            "real_name": "Eduardo Garcia",
            "display_name": "Eduardo Garcia",
            "team": "TUU48M0T1",
            "name": "eduardo.garcia",
            "is_restricted": false,
            "is_ultra_restricted": false
        },
        "attachments": [
            {
                "service_name": "DW.COM",
                "title": "Cuban drug as possible treatment for coronavirus patients? | DW | 04.04.2020",
                "title_link": "https:\/\/www.dw.com\/en\/cuban-drug-as-possible-treatment-for-coronavirus-patients\/a-53015483",
                "text": "A German businessman wants to import the Cuban drug hydroxychloroquine — normally used to prevent and treat malaria — which may help treat coronavirus patients. But German bureaucracy is proving a formidable challenge.",
                "fallback": "DW.COM: Cuban drug as possible treatment for coronavirus patients? | DW | 04.04.2020",
                "image_url": "https:\/\/www.dw.com\/image\/53004874_304.jpg",
                "image_width": 444,
                "image_height": 250,
                "from_url": "https:\/\/www.dw.com\/en\/cuban-drug-as-possible-treatment-for-coronavirus-patients\/a-53015483",
                "image_bytes": 32171,
                "service_icon": "https:\/\/www.dw.com\/favicon.png",
                "id": 1,
                "original_url": "https:\/\/www.dw.com\/en\/cuban-drug-as-possible-treatment-for-coronavirus-patients\/a-53015483"
            }
        ],
        "blocks": [
            {
                "type": "rich_text",
                "block_id": "Fpy=z",
                "elements": [
                    {
                        "type": "rich_text_section",
                        "elements": [
                            {
                                "type": "text",
                                "text": "Interferon\n"
                            },
                            {
                                "type": "link",
                                "url": "https:\/\/www.dw.com\/en\/cuban-drug-as-possible-treatment-for-coronavirus-patients\/a-53015483",
                                "text": "https:\/\/www.dw.com\/en\/cuban-drug-as-possible-treatment-for-coronavirus-patients\/a-53015483"
                            }
                        ]
                    }
                ]
            }
        ],
        "thread_ts": "1586345024.039000",
        "parent_user_id": "U010BA2NL9E"
    },
    {
        "client_msg_id": "ddc99b39-852c-4397-b0c4-dac77d8a21b8",
        "type": "message",
        "text": "<https:\/\/www.youtube.com\/watch?v=mvenyaXV_x0|https:\/\/www.youtube.com\/watch?v=mvenyaXV_x0>",
        "user": "U010BA2NL9E",
        "ts": "1586433716.046100",
        "team": "TUU48M0T1",
        "user_team": "TUU48M0T1",
        "source_team": "TUU48M0T1",
        "user_profile": {
            "avatar_hash": "g3fa100f8f14",
            "image_72": "https:\/\/secure.gravatar.com\/avatar\/3fa100f8f14fc86a0f2f58648b36d29e.jpg?s=72&d=https%3A%2F%2Fa.slack-edge.com%2Fdf10d%2Fimg%2Favatars%2Fava_0008-72.png",
            "first_name": "",
            "real_name": "Eduardo Garcia",
            "display_name": "Eduardo Garcia",
            "team": "TUU48M0T1",
            "name": "eduardo.garcia",
            "is_restricted": false,
            "is_ultra_restricted": false
        },
        "attachments": [
            {
                "service_name": "YouTube",
                "service_url": "https:\/\/www.youtube.com\/",
                "title": "Creador de Interferón Alfa 2B explica cómo actúa contra el coronavirus",
                "title_link": "https:\/\/www.youtube.com\/watch?v=mvenyaXV_x0",
                "author_name": "teleSUR tv",
                "author_link": "https:\/\/www.youtube.com\/user\/telesurtv",
                "thumb_url": "https:\/\/i.ytimg.com\/vi\/mvenyaXV_x0\/hqdefault.jpg",
                "thumb_width": 480,
                "thumb_height": 360,
                "fallback": "YouTube Video: Creador de Interferón Alfa 2B explica cómo actúa contra el coronavirus",
                "video_html": "<iframe width=\"400\" height=\"225\" src=\"https:\/\/www.youtube.com\/embed\/mvenyaXV_x0?feature=oembed&autoplay=1&iv_load_policy=3\" frameborder=\"0\" allow=\"accelerometer; autoplay; encrypted-media; gyroscope; picture-in-picture\" allowfullscreen><\/iframe>",
                "video_html_width": 400,
                "video_html_height": 225,
                "from_url": "https:\/\/www.youtube.com\/watch?v=mvenyaXV_x0",
                "service_icon": "https:\/\/a.slack-edge.com\/80588\/img\/unfurl_icons\/youtube.png",
                "id": 1,
                "original_url": "https:\/\/www.youtube.com\/watch?v=mvenyaXV_x0"
            }
        ],
        "blocks": [
            {
                "type": "rich_text",
                "block_id": "jSrQE",
                "elements": [
                    {
                        "type": "rich_text_section",
                        "elements": [
                            {
                                "type": "link",
                                "url": "https:\/\/www.youtube.com\/watch?v=mvenyaXV_x0",
                                "text": "https:\/\/www.youtube.com\/watch?v=mvenyaXV_x0"
                            }
                        ]
                    }
                ]
            }
        ],
        "thread_ts": "1586345024.039000",
        "parent_user_id": "U010BA2NL9E"
    },
    {
        "client_msg_id": "1938e86b-d6a3-428c-a298-4673f955072f",
        "type": "message",
        "text": "<https:\/\/www.sciencedirect.com\/science\/article\/pii\/S0166354220302059|https:\/\/www.sciencedirect.com\/science\/article\/pii\/S0166354220302059>",
        "user": "U010BA2NL9E",
        "ts": "1586433735.046400",
        "team": "TUU48M0T1",
        "user_team": "TUU48M0T1",
        "source_team": "TUU48M0T1",
        "user_profile": {
            "avatar_hash": "g3fa100f8f14",
            "image_72": "https:\/\/secure.gravatar.com\/avatar\/3fa100f8f14fc86a0f2f58648b36d29e.jpg?s=72&d=https%3A%2F%2Fa.slack-edge.com%2Fdf10d%2Fimg%2Favatars%2Fava_0008-72.png",
            "first_name": "",
            "real_name": "Eduardo Garcia",
            "display_name": "Eduardo Garcia",
            "team": "TUU48M0T1",
            "name": "eduardo.garcia",
            "is_restricted": false,
            "is_ultra_restricted": false
        },
        "attachments": [
            {
                "title": "Type 1 interferons as a potential treatment against COVID-19",
                "title_link": "https:\/\/www.sciencedirect.com\/science\/article\/pii\/S0166354220302059",
                "text": "Type 1 interferons have a broad antiviral activity in vitro and are currently evaluated in a clinical trial to treat MERS-CoV. In this review, we disc…",
                "fallback": "Type 1 interferons as a potential treatment against COVID-19",
                "from_url": "https:\/\/www.sciencedirect.com\/science\/article\/pii\/S0166354220302059",
                "thumb_url": "https:\/\/ars.els-cdn.com\/content\/image\/S01663542.gif",
                "thumb_width": 113,
                "thumb_height": 150,
                "service_icon": "https:\/\/www.sciencedirect.com\/favicon.ico",
                "service_name": "sciencedirect.com",
                "id": 1,
                "original_url": "https:\/\/www.sciencedirect.com\/science\/article\/pii\/S0166354220302059"
            }
        ],
        "blocks": [
            {
                "type": "rich_text",
                "block_id": "BIsP",
                "elements": [
                    {
                        "type": "rich_text_section",
                        "elements": [
                            {
                                "type": "link",
                                "url": "https:\/\/www.sciencedirect.com\/science\/article\/pii\/S0166354220302059",
                                "text": "https:\/\/www.sciencedirect.com\/science\/article\/pii\/S0166354220302059"
                            }
                        ]
                    }
                ]
            }
        ],
        "thread_ts": "1586345024.039000",
        "parent_user_id": "U010BA2NL9E"
    },
    {
        "client_msg_id": "1e300d82-2ff5-422d-b0d6-28fbedaca4ce",
        "type": "message",
        "text": "<https:\/\/www.sciencemag.org\/news\/2020\/03\/who-launches-global-megatrial-four-most-promising-coronavirus-treatments|https:\/\/www.sciencemag.org\/news\/2020\/03\/who-launches-global-megatrial-four-most-promising-coronavirus-treatments>",
        "user": "U010BA2NL9E",
        "ts": "1586433755.046700",
        "team": "TUU48M0T1",
        "user_team": "TUU48M0T1",
        "source_team": "TUU48M0T1",
        "user_profile": {
            "avatar_hash": "g3fa100f8f14",
            "image_72": "https:\/\/secure.gravatar.com\/avatar\/3fa100f8f14fc86a0f2f58648b36d29e.jpg?s=72&d=https%3A%2F%2Fa.slack-edge.com%2Fdf10d%2Fimg%2Favatars%2Fava_0008-72.png",
            "first_name": "",
            "real_name": "Eduardo Garcia",
            "display_name": "Eduardo Garcia",
            "team": "TUU48M0T1",
            "name": "eduardo.garcia",
            "is_restricted": false,
            "is_ultra_restricted": false
        },
        "attachments": [
            {
                "service_name": "Science | AAAS",
                "title": "WHO launches global megatrial of the four most promising coronavirus treatments",
                "title_link": "https:\/\/www.sciencemag.org\/news\/2020\/03\/who-launches-global-megatrial-four-most-promising-coronavirus-treatments",
                "text": "Simple design aims to let even overwhelmed physicians and hospitals participate",
                "fallback": "Science | AAAS: WHO launches global megatrial of the four most promising coronavirus treatments",
                "image_url": "https:\/\/www.sciencemag.org\/sites\/default\/files\/styles\/article_main_large\/public\/49565662436_5841b11820_k_2.jpg?itok=y899txdv",
                "image_width": 444,
                "image_height": 250,
                "ts": 1584905280,
                "from_url": "https:\/\/www.sciencemag.org\/news\/2020\/03\/who-launches-global-megatrial-four-most-promising-coronavirus-treatments",
                "image_bytes": 241775,
                "service_icon": "https:\/\/www.sciencemag.org\/sites\/default\/files\/favicon.ico",
                "id": 1,
                "original_url": "https:\/\/www.sciencemag.org\/news\/2020\/03\/who-launches-global-megatrial-four-most-promising-coronavirus-treatments"
            }
        ],
        "blocks": [
            {
                "type": "rich_text",
                "block_id": "Kn=",
                "elements": [
                    {
                        "type": "rich_text_section",
                        "elements": [
                            {
                                "type": "link",
                                "url": "https:\/\/www.sciencemag.org\/news\/2020\/03\/who-launches-global-megatrial-four-most-promising-coronavirus-treatments",
                                "text": "https:\/\/www.sciencemag.org\/news\/2020\/03\/who-launches-global-megatrial-four-most-promising-coronavirus-treatments"
                            }
                        ]
                    }
                ]
            }
        ],
        "thread_ts": "1586345024.039000",
        "parent_user_id": "U010BA2NL9E"
    },
    {
        "client_msg_id": "a0bea821-e2ec-4d84-af6f-c57af7b41486",
        "type": "message",
        "text": "<https:\/\/www.ema.europa.eu\/en\/news\/update-treatments-vaccines-against-covid-19-under-development|https:\/\/www.ema.europa.eu\/en\/news\/update-treatments-vaccines-against-covid-19-under-development>",
        "user": "U010BA2NL9E",
        "ts": "1586433794.047000",
        "team": "TUU48M0T1",
        "user_team": "TUU48M0T1",
        "source_team": "TUU48M0T1",
        "user_profile": {
            "avatar_hash": "g3fa100f8f14",
            "image_72": "https:\/\/secure.gravatar.com\/avatar\/3fa100f8f14fc86a0f2f58648b36d29e.jpg?s=72&d=https%3A%2F%2Fa.slack-edge.com%2Fdf10d%2Fimg%2Favatars%2Fava_0008-72.png",
            "first_name": "",
            "real_name": "Eduardo Garcia",
            "display_name": "Eduardo Garcia",
            "team": "TUU48M0T1",
            "name": "eduardo.garcia",
            "is_restricted": false,
            "is_ultra_restricted": false
        },
        "attachments": [
            {
                "service_name": "European Medicines Agency",
                "title": "Update on treatments and vaccines against COVID-19 under development - European Medicines Agency",
                "title_link": "https:\/\/www.ema.europa.eu\/en\/news\/update-treatments-vaccines-against-covid-19-under-development",
                "text": "Update on treatments and vaccines against COVID-19 under development",
                "fallback": "European Medicines Agency: Update on treatments and vaccines against COVID-19 under development - European Medicines Agency",
                "ts": 1585660378,
                "from_url": "https:\/\/www.ema.europa.eu\/en\/news\/update-treatments-vaccines-against-covid-19-under-development",
                "service_icon": "https:\/\/www.ema.europa.eu\/favicon.ico",
                "id": 1,
                "original_url": "https:\/\/www.ema.europa.eu\/en\/news\/update-treatments-vaccines-against-covid-19-under-development"
            }
        ],
        "blocks": [
            {
                "type": "rich_text",
                "block_id": "fLAo",
                "elements": [
                    {
                        "type": "rich_text_section",
                        "elements": [
                            {
                                "type": "link",
                                "url": "https:\/\/www.ema.europa.eu\/en\/news\/update-treatments-vaccines-against-covid-19-under-development",
                                "text": "https:\/\/www.ema.europa.eu\/en\/news\/update-treatments-vaccines-against-covid-19-under-development"
                            }
                        ]
                    }
                ]
            }
        ],
        "thread_ts": "1586345024.039000",
        "parent_user_id": "U010BA2NL9E"
    },
    {
        "client_msg_id": "0c3f91b2-5cba-48a2-9de4-a257d92784bf",
        "type": "message",
        "text": "Revealing the Potency of Citrus and Galangal Constituents  to Halt SARS-CoV-2 Infection\n\n<https:\/\/www.preprints.org\/manuscript\/202003.0214\/v1\/download|https:\/\/www.preprints.org\/manuscript\/202003.0214\/v1\/download>",
        "user": "U010BA2NL9E",
        "ts": "1586433951.047300",
        "team": "TUU48M0T1",
        "user_team": "TUU48M0T1",
        "source_team": "TUU48M0T1",
        "user_profile": {
            "avatar_hash": "g3fa100f8f14",
            "image_72": "https:\/\/secure.gravatar.com\/avatar\/3fa100f8f14fc86a0f2f58648b36d29e.jpg?s=72&d=https%3A%2F%2Fa.slack-edge.com%2Fdf10d%2Fimg%2Favatars%2Fava_0008-72.png",
            "first_name": "",
            "real_name": "Eduardo Garcia",
            "display_name": "Eduardo Garcia",
            "team": "TUU48M0T1",
            "name": "eduardo.garcia",
            "is_restricted": false,
            "is_ultra_restricted": false
        },
        "edited": {
            "user": "U010BA2NL9E",
            "ts": "1586433963.000000"
        },
        "blocks": [
            {
                "type": "rich_text",
                "block_id": "GKZ2c",
                "elements": [
                    {
                        "type": "rich_text_section",
                        "elements": [
                            {
                                "type": "text",
                                "text": "Revealing the Potency of Citrus and Galangal Constituents  to Halt SARS-CoV-2 Infection\n\n"
                            },
                            {
                                "type": "link",
                                "url": "https:\/\/www.preprints.org\/manuscript\/202003.0214\/v1\/download",
                                "text": "https:\/\/www.preprints.org\/manuscript\/202003.0214\/v1\/download"
                            }
                        ]
                    }
                ]
            }
        ],
        "thread_ts": "1586345024.039000",
        "parent_user_id": "U010BA2NL9E"
    },
    {
        "client_msg_id": "52D64083-EDCD-4C74-9C52-B6B2C3209953",
        "type": "message",
        "text": "At least one of these is pure trash, (the medium article on it being a blood disease) I think medium is not for medical advice and that preprints should be suspect. ",
        "user": "U01181TG37X",
        "ts": "1586440281.050100",
        "team": "TUU48M0T1",
        "user_team": "TUU48M0T1",
        "source_team": "TUU48M0T1",
        "user_profile": {
            "avatar_hash": "gd289e036ea7",
            "image_72": "https:\/\/secure.gravatar.com\/avatar\/d289e036ea7edb5e2f513ff27eacc080.jpg?s=72&d=https%3A%2F%2Fa.slack-edge.com%2Fdf10d%2Fimg%2Favatars%2Fava_0006-72.png",
            "first_name": "",
            "real_name": "Mary Paniscus",
            "display_name": "Mary Paniscus",
            "team": "TUU48M0T1",
            "name": "marypaniscus",
            "is_restricted": false,
            "is_ultra_restricted": false
        },
        "blocks": [
            {
                "type": "rich_text",
                "block_id": "+Gx",
                "elements": [
                    {
                        "type": "rich_text_section",
                        "elements": [
                            {
                                "type": "text",
                                "text": "At least one of these is pure trash, (the medium article on it being a blood disease) I think medium is not for medical advice and that preprints should be suspect. "
                            }
                        ]
                    }
                ]
            }
        ],
        "thread_ts": "1586410319.043200",
        "parent_user_id": "U010BA2NL9E"
    },
    {
        "client_msg_id": "81d40d8a-015b-477d-8334-c720dea77e5b",
        "type": "message",
        "text": "<https:\/\/www.prnewswire.com\/news-releases\/moleculin-announces-active-compound-in-wp1122-reduces-coronavirus-replication-in-vitro-by-100-301037143.html|https:\/\/www.prnewswire.com\/news-releases\/moleculin-announces-active-compound-in-wp1122-reduces-coronavirus-replication-in-vitro-by-100-301037143.html>",
        "user": "U010BA2NL9E",
        "ts": "1586445551.050800",
        "team": "TUU48M0T1",
        "user_team": "TUU48M0T1",
        "source_team": "TUU48M0T1",
        "user_profile": {
            "avatar_hash": "g3fa100f8f14",
            "image_72": "https:\/\/secure.gravatar.com\/avatar\/3fa100f8f14fc86a0f2f58648b36d29e.jpg?s=72&d=https%3A%2F%2Fa.slack-edge.com%2Fdf10d%2Fimg%2Favatars%2Fava_0008-72.png",
            "first_name": "",
            "real_name": "Eduardo Garcia",
            "display_name": "Eduardo Garcia",
            "team": "TUU48M0T1",
            "name": "eduardo.garcia",
            "is_restricted": false,
            "is_ultra_restricted": false
        },
        "attachments": [
            {
                "title": "Moleculin Announces Active Compound in WP1122 Reduces Coronavirus Replication In Vitro by 100%",
                "title_link": "https:\/\/www.prnewswire.com\/news-releases\/moleculin-announces-active-compound-in-wp1122-reduces-coronavirus-replication-in-vitro-by-100-301037143.html",
                "text": "\/PRNewswire\/ -- Moleculin Biotech, Inc., (Nasdaq: MBRX) (\"Moleculin\" or the \"Company\"), a clinical stage pharmaceutical company with a broad portfolio of drug...",
                "fallback": "Moleculin Announces Active Compound in WP1122 Reduces Coronavirus Replication In Vitro by 100%",
                "image_url": "https:\/\/mma.prnewswire.com\/media\/959635\/Moleculin_Biotech_Inc_Logo.jpg?p=twitter",
                "from_url": "https:\/\/www.prnewswire.com\/news-releases\/moleculin-announces-active-compound-in-wp1122-reduces-coronavirus-replication-in-vitro-by-100-301037143.html",
                "image_width": 249,
                "image_height": 250,
                "image_bytes": 69686,
                "service_icon": "https:\/\/www.prnewswire.com\/content\/dam\/prnewswire\/icons\/2019-Q4-PRN-Icon-32-32.png",
                "service_name": "prnewswire.com",
                "id": 1,
                "original_url": "https:\/\/www.prnewswire.com\/news-releases\/moleculin-announces-active-compound-in-wp1122-reduces-coronavirus-replication-in-vitro-by-100-301037143.html"
            }
        ],
        "blocks": [
            {
                "type": "rich_text",
                "block_id": "QnT",
                "elements": [
                    {
                        "type": "rich_text_section",
                        "elements": [
                            {
                                "type": "link",
                                "url": "https:\/\/www.prnewswire.com\/news-releases\/moleculin-announces-active-compound-in-wp1122-reduces-coronavirus-replication-in-vitro-by-100-301037143.html",
                                "text": "https:\/\/www.prnewswire.com\/news-releases\/moleculin-announces-active-compound-in-wp1122-reduces-coronavirus-replication-in-vitro-by-100-301037143.html"
                            }
                        ]
                    }
                ]
            }
        ],
        "thread_ts": "1586345024.039000",
        "parent_user_id": "U010BA2NL9E"
    },
    {
        "client_msg_id": "33b39048-6c5b-4c3d-87d8-fa5b399fa17e",
        "type": "message",
        "text": "<https:\/\/www.webmd.com\/lung\/news\/20200407\/doctors-puzzle-over-covid19-lung-problems|https:\/\/www.webmd.com\/lung\/news\/20200407\/doctors-puzzle-over-covid19-lung-problems>",
        "user": "U010BA2NL9E",
        "ts": "1586451530.051100",
        "team": "TUU48M0T1",
        "user_team": "TUU48M0T1",
        "source_team": "TUU48M0T1",
        "user_profile": {
            "avatar_hash": "g3fa100f8f14",
            "image_72": "https:\/\/secure.gravatar.com\/avatar\/3fa100f8f14fc86a0f2f58648b36d29e.jpg?s=72&d=https%3A%2F%2Fa.slack-edge.com%2Fdf10d%2Fimg%2Favatars%2Fava_0008-72.png",
            "first_name": "",
            "real_name": "Eduardo Garcia",
            "display_name": "Eduardo Garcia",
            "team": "TUU48M0T1",
            "name": "eduardo.garcia",
            "is_restricted": false,
            "is_ultra_restricted": false
        },
        "attachments": [
            {
                "service_name": "WebMD",
                "title": "Doctors Puzzle Over COVID-19 Lung Problems",
                "title_link": "https:\/\/www.webmd.com\/lung\/news\/20200407\/doctors-puzzle-over-covid19-lung-problems",
                "text": "As they see more patients with COVID-19, doctors are noticing differences in their lungs that could mean all patients should not be treated alike.",
                "fallback": "WebMD: Doctors Puzzle Over COVID-19 Lung Problems",
                "image_url": "https:\/\/img.webmd.com\/dtmcms\/live\/webmd\/consumer_assets\/site_images\/article_thumbnails\/news\/2020\/03_2020\/coronavirus_lung_effects\/1800x1200_coronavirus_lung_effects.jpg",
                "from_url": "https:\/\/www.webmd.com\/lung\/news\/20200407\/doctors-puzzle-over-covid19-lung-problems",
                "image_width": 375,
                "image_height": 250,
                "image_bytes": 664874,
                "service_icon": "https:\/\/www.webmd.com\/favico\/apple-touch-icon-precomposed.png",
                "id": 1,
                "original_url": "https:\/\/www.webmd.com\/lung\/news\/20200407\/doctors-puzzle-over-covid19-lung-problems"
            }
        ],
        "blocks": [
            {
                "type": "rich_text",
                "block_id": "3kdg",
                "elements": [
                    {
                        "type": "rich_text_section",
                        "elements": [
                            {
                                "type": "link",
                                "url": "https:\/\/www.webmd.com\/lung\/news\/20200407\/doctors-puzzle-over-covid19-lung-problems",
                                "text": "https:\/\/www.webmd.com\/lung\/news\/20200407\/doctors-puzzle-over-covid19-lung-problems"
                            }
                        ]
                    }
                ]
            }
        ],
        "thread_ts": "1586410319.043200",
        "parent_user_id": "U010BA2NL9E"
    },
    {
        "client_msg_id": "a70f9902-82ff-4617-b2e2-326ec8af6a2f",
        "type": "message",
        "text": "COVID‐19: Interim Guidance on Management Pending Empirical Evidence. From an American Thoracic Society‐led International Task Force \n\nKevin C. Wilson, Sanjay H. Chotirmall, Chunxue Bai, and Jordi Rello, on behalf of the International Task Force on COVID‐19\n\n<https:\/\/www.thoracic.org\/professionals\/clinical-resources\/disease-related-resources\/covid-19-guidance.pdf> (edited)",
        "user": "U010BA2NL9E",
        "ts": "1586453462.054900",
        "team": "TUU48M0T1",
        "user_team": "TUU48M0T1",
        "source_team": "TUU48M0T1",
        "user_profile": {
            "avatar_hash": "g3fa100f8f14",
            "image_72": "https:\/\/secure.gravatar.com\/avatar\/3fa100f8f14fc86a0f2f58648b36d29e.jpg?s=72&d=https%3A%2F%2Fa.slack-edge.com%2Fdf10d%2Fimg%2Favatars%2Fava_0008-72.png",
            "first_name": "",
            "real_name": "Eduardo Garcia",
            "display_name": "Eduardo Garcia",
            "team": "TUU48M0T1",
            "name": "eduardo.garcia",
            "is_restricted": false,
            "is_ultra_restricted": false
        },
        "blocks": [
            {
                "type": "rich_text",
                "block_id": "iCoc9",
                "elements": [
                    {
                        "type": "rich_text_section",
                        "elements": [
                            {
                                "type": "text",
                                "text": "COVID‐19: Interim Guidance on Management Pending Empirical Evidence. From an American Thoracic Society‐led International Task Force \n\nKevin C. Wilson, Sanjay H. Chotirmall, Chunxue Bai, and Jordi Rello, on behalf of the International Task Force on COVID‐19\n\n"
                            },
                            {
                                "type": "link",
                                "url": "https:\/\/www.thoracic.org\/professionals\/clinical-resources\/disease-related-resources\/covid-19-guidance.pdf"
                            },
                            {
                                "type": "text",
                                "text": " (edited)"
                            }
                        ]
                    }
                ]
            }
        ]
    },
    {
        "client_msg_id": "24630ee6-d9f0-49dc-ab79-14380bf07c44",
        "type": "message",
        "text": "<https:\/\/www.the-hospitalist.org\/hospitalist\/article\/220301\/coronavirus-updates\/protocol-driven-covid-19-respiratory-therapy-doing|https:\/\/www.the-hospitalist.org\/hospitalist\/article\/220301\/coronavirus-updates\/protocol-driven-covid-19-respiratory-therapy-doing>",
        "user": "U010BA2NL9E",
        "ts": "1586455654.055000",
        "team": "TUU48M0T1",
        "user_team": "TUU48M0T1",
        "source_team": "TUU48M0T1",
        "user_profile": {
            "avatar_hash": "g3fa100f8f14",
            "image_72": "https:\/\/secure.gravatar.com\/avatar\/3fa100f8f14fc86a0f2f58648b36d29e.jpg?s=72&d=https%3A%2F%2Fa.slack-edge.com%2Fdf10d%2Fimg%2Favatars%2Fava_0008-72.png",
            "first_name": "",
            "real_name": "Eduardo Garcia",
            "display_name": "Eduardo Garcia",
            "team": "TUU48M0T1",
            "name": "eduardo.garcia",
            "is_restricted": false,
            "is_ultra_restricted": false
        },
        "attachments": [
            {
                "title": "Is protocol-driven COVID-19 respiratory therapy doing more harm than good?",
                "title_link": "https:\/\/www.the-hospitalist.org\/hospitalist\/article\/220301\/coronavirus-updates\/protocol-driven-covid-19-respiratory-therapy-doing",
                "text": "“This is a kind of disease in which you don’t have to follow the protocol – you have to follow the physiology. Unfortunately, many, many doctors around the world cannot think outside the protocol,” said Dr. Luciano Gattinoni.",
                "fallback": "Is protocol-driven COVID-19 respiratory therapy doing more harm than good?",
                "thumb_url": "https:\/\/mdedge-files-live.s3.us-east-2.amazonaws.com\/files\/s3fs-public\/styles\/teaser_opengraph\/public\/145863_gattinoni_luciano_web.jpg",
                "from_url": "https:\/\/www.the-hospitalist.org\/hospitalist\/article\/220301\/coronavirus-updates\/protocol-driven-covid-19-respiratory-therapy-doing",
                "thumb_width": 400,
                "thumb_height": 400,
                "service_icon": "https:\/\/www.the-hospitalist.org\/sites\/all\/themes\/custom\/medstat_aurora\/img\/default-icons\/apple-touch-icon.png",
                "service_name": "the-hospitalist.org",
                "id": 1,
                "original_url": "https:\/\/www.the-hospitalist.org\/hospitalist\/article\/220301\/coronavirus-updates\/protocol-driven-covid-19-respiratory-therapy-doing"
            }
        ],
        "blocks": [
            {
                "type": "rich_text",
                "block_id": "t6C",
                "elements": [
                    {
                        "type": "rich_text_section",
                        "elements": [
                            {
                                "type": "link",
                                "url": "https:\/\/www.the-hospitalist.org\/hospitalist\/article\/220301\/coronavirus-updates\/protocol-driven-covid-19-respiratory-therapy-doing",
                                "text": "https:\/\/www.the-hospitalist.org\/hospitalist\/article\/220301\/coronavirus-updates\/protocol-driven-covid-19-respiratory-therapy-doing"
                            }
                        ]
                    }
                ]
            }
        ],
        "thread_ts": "1586410319.043200",
        "parent_user_id": "U010BA2NL9E"
    },
    {
        "client_msg_id": "7f07d02f-7d93-4620-a474-13caed54ec9d",
        "type": "message",
        "text": "<https:\/\/www.jpost.com\/HEALTH-SCIENCE\/Israeli-COVID-19-treatment-shows-100-percent-survival-rate-preliminary-data-624058|https:\/\/www.jpost.com\/HEALTH-SCIENCE\/Israeli-COVID-19-treatment-shows-100-percent-survival-rate-preliminary-data-624058>",
        "user": "U010BA2NL9E",
        "ts": "1586464482.055400",
        "team": "TUU48M0T1",
        "user_team": "TUU48M0T1",
        "source_team": "TUU48M0T1",
        "user_profile": {
            "avatar_hash": "g3fa100f8f14",
            "image_72": "https:\/\/secure.gravatar.com\/avatar\/3fa100f8f14fc86a0f2f58648b36d29e.jpg?s=72&d=https%3A%2F%2Fa.slack-edge.com%2Fdf10d%2Fimg%2Favatars%2Fava_0008-72.png",
            "first_name": "",
            "real_name": "Eduardo Garcia",
            "display_name": "Eduardo Garcia",
            "team": "TUU48M0T1",
            "name": "eduardo.garcia",
            "is_restricted": false,
            "is_ultra_restricted": false
        },
        "attachments": [
            {
                "service_name": "The Jerusalem Post | JPost.com",
                "title": "Israeli COVID-19 treatment shows 100% survival rate - preliminary data",
                "title_link": "https:\/\/www.jpost.com\/HEALTH-SCIENCE\/Israeli-COVID-19-treatment-shows-100-percent-survival-rate-preliminary-data-624058",
                "text": "Not only have all the patients survived, according to Pluristem, but four of them showed improvement in respiratory parameters.",
                "fallback": "The Jerusalem Post | JPost.com: Israeli COVID-19 treatment shows 100% survival rate - preliminary data",
                "image_url": "https:\/\/images.jpost.com\/image\/upload\/f_auto,fl_lossy\/t_JD_ArticleMainImageFaceDetect\/426388",
                "from_url": "https:\/\/www.jpost.com\/HEALTH-SCIENCE\/Israeli-COVID-19-treatment-shows-100-percent-survival-rate-preliminary-data-624058",
                "image_width": 383,
                "image_height": 250,
                "image_bytes": 92492,
                "service_icon": "https:\/\/images.jpost.com\/image\/upload\/f_auto,fl_lossy\/Icons\/PNG\/favicon-76.png",
                "id": 1,
                "original_url": "https:\/\/www.jpost.com\/HEALTH-SCIENCE\/Israeli-COVID-19-treatment-shows-100-percent-survival-rate-preliminary-data-624058"
            }
        ],
        "blocks": [
            {
                "type": "rich_text",
                "block_id": "\/=kfn",
                "elements": [
                    {
                        "type": "rich_text_section",
                        "elements": [
                            {
                                "type": "link",
                                "url": "https:\/\/www.jpost.com\/HEALTH-SCIENCE\/Israeli-COVID-19-treatment-shows-100-percent-survival-rate-preliminary-data-624058",
                                "text": "https:\/\/www.jpost.com\/HEALTH-SCIENCE\/Israeli-COVID-19-treatment-shows-100-percent-survival-rate-preliminary-data-624058"
                            }
                        ]
                    }
                ]
            }
        ]
    },
    {
        "client_msg_id": "c5057387-76a6-4739-b77b-33395bd49bd7",
        "type": "message",
        "text": "The blood disease story keeps propagating.\n\n<https:\/\/msmindful.org\/coronavirus-actually-a-blood-disease\/|https:\/\/msmindful.org\/coronavirus-actually-a-blood-disease\/>\n\nAbout MsMindful\n\nIn my 15 years as a critical care nurse, I have seen a decline in patient care. I believe patients deserve better care than what they are receiving. To change this I am ready to help you fight for and demand better quality care.",
        "user": "U010BA2NL9E",
        "ts": "1586501140.055600",
        "team": "TUU48M0T1",
        "user_team": "TUU48M0T1",
        "source_team": "TUU48M0T1",
        "user_profile": {
            "avatar_hash": "g3fa100f8f14",
            "image_72": "https:\/\/secure.gravatar.com\/avatar\/3fa100f8f14fc86a0f2f58648b36d29e.jpg?s=72&d=https%3A%2F%2Fa.slack-edge.com%2Fdf10d%2Fimg%2Favatars%2Fava_0008-72.png",
            "first_name": "",
            "real_name": "Eduardo Garcia",
            "display_name": "Eduardo Garcia",
            "team": "TUU48M0T1",
            "name": "eduardo.garcia",
            "is_restricted": false,
            "is_ultra_restricted": false
        },
        "attachments": [
            {
                "service_name": "MsMindful Blog",
                "title": "Coronavirus: Actually a blood disease? | MsMindful Blog",
                "title_link": "https:\/\/msmindful.org\/coronavirus-actually-a-blood-disease\/",
                "text": "The CDC has been calling Coronavirus a respiratory disease and lists the following symptoms FeverCoughShortness of breath These symptoms of the disease",
                "fallback": "MsMindful Blog: Coronavirus: Actually a blood disease? | MsMindful Blog",
                "image_url": "https:\/\/msmindful.org\/wp-content\/uploads\/2020\/04\/img_2615.jpg",
                "ts": 1586374648,
                "from_url": "https:\/\/msmindful.org\/coronavirus-actually-a-blood-disease\/",
                "image_width": 252,
                "image_height": 200,
                "image_bytes": 21196,
                "service_icon": "https:\/\/msmindful.org\/wp-content\/uploads\/2019\/10\/cropped-msmindful-logo-03-1-180x180.png",
                "id": 1,
                "original_url": "https:\/\/msmindful.org\/coronavirus-actually-a-blood-disease\/"
            }
        ],
        "blocks": [
            {
                "type": "rich_text",
                "block_id": "bgs8C",
                "elements": [
                    {
                        "type": "rich_text_section",
                        "elements": [
                            {
                                "type": "text",
                                "text": "The blood disease story keeps propagating.\n\n"
                            },
                            {
                                "type": "link",
                                "url": "https:\/\/msmindful.org\/coronavirus-actually-a-blood-disease\/",
                                "text": "https:\/\/msmindful.org\/coronavirus-actually-a-blood-disease\/"
                            },
                            {
                                "type": "text",
                                "text": "\n\nAbout MsMindful\n\nIn my 15 years as a critical care nurse, I have seen a decline in patient care. I believe patients deserve better care than what they are receiving. To change this I am ready to help you fight for and demand better quality care."
                            }
                        ]
                    }
                ]
            }
        ],
        "thread_ts": "1586410319.043200",
        "parent_user_id": "U010BA2NL9E"
    }
]