[
    {
        "client_msg_id": "d14ce6aa-0629-401a-b0f9-46dab3eb2b8b",
        "type": "message",
        "text": "I'd rather trust the Chinese guidelines here: <https:\/\/covid-19.alibabacloud.com\/#J_8102420620>\n\nSee standard version, from page 24.\n\nAlthough there is no date when this manual has been last updated, so maybe something drastic has changed since. But in that case I'd assume they'd update the manual.",
        "user": "U0115U5P1B6",
        "ts": "1585812733.028800",
        "team": "TUU48M0T1",
        "user_team": "TUU48M0T1",
        "source_team": "TUU48M0T1",
        "user_profile": {
            "avatar_hash": "6874ee7768d4",
            "image_72": "https:\/\/avatars.slack-edge.com\/2020-04-01\/1040583598240_6874ee7768d4233e0047_72.jpg",
            "first_name": "",
            "real_name": "Mika Turkia",
            "display_name": "Mika Turkia",
            "team": "TUU48M0T1",
            "name": "turkia",
            "is_restricted": false,
            "is_ultra_restricted": false
        },
        "edited": {
            "user": "U0115U5P1B6",
            "ts": "1585812832.000000"
        },
        "blocks": [
            {
                "type": "rich_text",
                "block_id": "zQjxe",
                "elements": [
                    {
                        "type": "rich_text_section",
                        "elements": [
                            {
                                "type": "text",
                                "text": "I'd rather trust the Chinese guidelines here: "
                            },
                            {
                                "type": "link",
                                "url": "https:\/\/covid-19.alibabacloud.com\/#J_8102420620"
                            },
                            {
                                "type": "text",
                                "text": "\n\nSee standard version, from page 24.\n\nAlthough there is no date when this manual has been last updated, so maybe something drastic has changed since. But in that case I'd assume they'd update the manual."
                            }
                        ]
                    }
                ]
            }
        ],
        "thread_ts": "1585769801.028500",
        "parent_user_id": "U01181TG37X"
    },
    {
        "client_msg_id": "22f5105b-b6da-4538-91d8-1a74a00832c6",
        "type": "message",
        "text": "IBCC seems interesting and there are useful points but it's still more like a blog post by two doctors. Chinese guidelines are based on a lot more experience going back to 2003 SARS epidemic and they have managed to stop the epidemic unlike most other countries. Regardless, many other countries or medical societies have their own guidelines by now.",
        "user": "U0115U5P1B6",
        "ts": "1585815877.029300",
        "team": "TUU48M0T1",
        "user_team": "TUU48M0T1",
        "source_team": "TUU48M0T1",
        "user_profile": {
            "avatar_hash": "6874ee7768d4",
            "image_72": "https:\/\/avatars.slack-edge.com\/2020-04-01\/1040583598240_6874ee7768d4233e0047_72.jpg",
            "first_name": "",
            "real_name": "Mika Turkia",
            "display_name": "Mika Turkia",
            "team": "TUU48M0T1",
            "name": "turkia",
            "is_restricted": false,
            "is_ultra_restricted": false
        },
        "edited": {
            "user": "U0115U5P1B6",
            "ts": "1585833381.000000"
        },
        "blocks": [
            {
                "type": "rich_text",
                "block_id": "0Fb",
                "elements": [
                    {
                        "type": "rich_text_section",
                        "elements": [
                            {
                                "type": "text",
                                "text": "IBCC seems interesting and there are useful points but it's still more like a blog post by two doctors. Chinese guidelines are based on a lot more experience going back to 2003 SARS epidemic and they have managed to stop the epidemic unlike most other countries. Regardless, many other countries or medical societies have their own guidelines by now."
                            }
                        ]
                    }
                ]
            }
        ],
        "thread_ts": "1585769801.028500",
        "parent_user_id": "U01181TG37X"
    },
    {
        "client_msg_id": "13e034fe-92bc-48c4-8a5d-7ae94a2d3c4b",
        "type": "message",
        "text": "Hello amazing people! My name is George Elerick. I am a behavioral scientist (I have worked with the United Nations, Los Angeles Films and more), I am also a member of the Social Psychology Association. I am wondering if there is a space where post-treatment includes mental health? If so, could I join that? If not, how could I get that going? - THANKS for such a great opportunity!! :slightly_smiling_face:",
        "user": "U011D6K9RH6",
        "ts": "1585855644.032300",
        "team": "TUU48M0T1",
        "user_team": "TUU48M0T1",
        "source_team": "TUU48M0T1",
        "user_profile": {
            "avatar_hash": "85c5155708e4",
            "image_72": "https:\/\/avatars.slack-edge.com\/2020-04-02\/1033600589794_85c5155708e4e6cfa61f_72.jpg",
            "first_name": "George",
            "real_name": "George Elerick",
            "display_name": "George Elerick",
            "team": "TUU48M0T1",
            "name": "george",
            "is_restricted": false,
            "is_ultra_restricted": false
        },
        "blocks": [
            {
                "type": "rich_text",
                "block_id": "Eb4",
                "elements": [
                    {
                        "type": "rich_text_section",
                        "elements": [
                            {
                                "type": "text",
                                "text": "Hello amazing people! My name is George Elerick. I am a behavioral scientist (I have worked with the United Nations, Los Angeles Films and more), I am also a member of the Social Psychology Association. I am wondering if there is a space where post-treatment includes mental health? If so, could I join that? If not, how could I get that going? - THANKS for such a great opportunity!! "
                            },
                            {
                                "type": "emoji",
                                "name": "slightly_smiling_face"
                            }
                        ]
                    }
                ]
            }
        ],
        "reactions": [
            {
                "name": "100",
                "users": [
                    "UV02WET96"
                ],
                "count": 1
            },
            {
                "name": "+1",
                "users": [
                    "U01084P4ELX"
                ],
                "count": 1
            }
        ]
    }
]