[
    {
        "type": "message",
        "subtype": "channel_join",
        "ts": "1584453199.000200",
        "user": "UV10KBUQG",
        "text": "<@UV10KBUQG> has joined the channel"
    },
    {
        "type": "message",
        "subtype": "channel_join",
        "ts": "1584461554.000400",
        "user": "UV7CJF9SN",
        "text": "<@UV7CJF9SN> has joined the channel"
    },
    {
        "type": "message",
        "subtype": "channel_join",
        "ts": "1584498258.000600",
        "user": "UVA3EP8DR",
        "text": "<@UVA3EP8DR> has joined the channel"
    }
]