[
    {
        "type": "message",
        "subtype": "channel_join",
        "ts": "1584797586.000200",
        "user": "UV6870881",
        "text": "<@UV6870881> has joined the channel"
    },
    {
        "client_msg_id": "5aa233e3-f70a-44cd-b1e6-d1ca80dfefc1",
        "type": "message",
        "text": "<@UV10KBUQG>  why not immunoglobulin tests there are already antibodies identified for covid19?",
        "user": "UV6870881",
        "ts": "1584802168.000300",
        "team": "TUU48M0T1",
        "user_team": "TUU48M0T1",
        "source_team": "TUU48M0T1",
        "user_profile": {
            "avatar_hash": "gbbbbcc3accd",
            "image_72": "https:\/\/secure.gravatar.com\/avatar\/bbbbcc3accdddb02dfb1c03a4a65b994.jpg?s=72&d=https%3A%2F%2Fa.slack-edge.com%2Fdf10d%2Fimg%2Favatars%2Fava_0011-72.png",
            "first_name": "Quant",
            "real_name": "Quant",
            "display_name": "",
            "team": "TUU48M0T1",
            "name": "admin",
            "is_restricted": false,
            "is_ultra_restricted": false
        },
        "blocks": [
            {
                "type": "rich_text",
                "block_id": "eZjl",
                "elements": [
                    {
                        "type": "rich_text_section",
                        "elements": [
                            {
                                "type": "user",
                                "user_id": "UV10KBUQG"
                            },
                            {
                                "type": "text",
                                "text": "  why not immunoglobulin tests there are already antibodies identified for covid19?"
                            }
                        ]
                    }
                ]
            }
        ],
        "thread_ts": "1584563376.008000",
        "parent_user_id": "UV8FL0JCA"
    },
    {
        "client_msg_id": "9bf7a6a0-f32e-446c-a4c8-0420c79e6cdd",
        "type": "message",
        "text": "1. immunoassays are generally not as sensitive as needed for early detection and widespread surveillance 2. antibody production does not scale well.",
        "user": "UV78JAX0S",
        "ts": "1584811695.000500",
        "team": "TUU48M0T1",
        "user_team": "TUU48M0T1",
        "source_team": "TUU48M0T1",
        "user_profile": {
            "avatar_hash": "ab643489965e",
            "image_72": "https:\/\/avatars.slack-edge.com\/2020-03-17\/996174739571_ab643489965e0031c49d_72.png",
            "first_name": "Khalid",
            "real_name": "Khalid K. Alam",
            "display_name": "Khalid K. Alam",
            "team": "TUU48M0T1",
            "name": "khalid",
            "is_restricted": false,
            "is_ultra_restricted": false
        },
        "blocks": [
            {
                "type": "rich_text",
                "block_id": "3aT",
                "elements": [
                    {
                        "type": "rich_text_list",
                        "elements": [
                            {
                                "type": "rich_text_section",
                                "elements": [
                                    {
                                        "type": "text",
                                        "text": "immunoassays are generally not as sensitive as needed for early detection and widespread surveillance 2. antibody production does not scale well."
                                    }
                                ]
                            }
                        ],
                        "style": "ordered",
                        "indent": 0
                    }
                ]
            }
        ],
        "thread_ts": "1584563376.008000",
        "parent_user_id": "UV8FL0JCA"
    },
    {
        "client_msg_id": "3329fc42-9505-4991-8ac3-297996216da1",
        "type": "message",
        "text": "it's far simpler than that, I could grab a plasmid with the NS proteins, append some sequences via PCR, transform it directly into E. coli and rely on recombination to get a full length viral sequence. In vitro it'd be as simple as a gibson assembly.",
        "user": "UV78JAX0S",
        "ts": "1584811878.000700",
        "team": "TUU48M0T1",
        "user_team": "TUU48M0T1",
        "source_team": "TUU48M0T1",
        "user_profile": {
            "avatar_hash": "ab643489965e",
            "image_72": "https:\/\/avatars.slack-edge.com\/2020-03-17\/996174739571_ab643489965e0031c49d_72.png",
            "first_name": "Khalid",
            "real_name": "Khalid K. Alam",
            "display_name": "Khalid K. Alam",
            "team": "TUU48M0T1",
            "name": "khalid",
            "is_restricted": false,
            "is_ultra_restricted": false
        },
        "blocks": [
            {
                "type": "rich_text",
                "block_id": "XKG",
                "elements": [
                    {
                        "type": "rich_text_section",
                        "elements": [
                            {
                                "type": "text",
                                "text": "it's far simpler than that, I could grab a plasmid with the NS proteins, append some sequences via PCR, transform it directly into E. coli and rely on recombination to get a full length viral sequence. In vitro it'd be as simple as a gibson assembly."
                            }
                        ]
                    }
                ]
            }
        ],
        "thread_ts": "1584494031.007700",
        "parent_user_id": "UV78JAX0S"
    },
    {
        "client_msg_id": "80e5b5c7-4d44-4df1-bf4d-53019387d7d9",
        "type": "message",
        "text": "Good point about scaling <@UV78JAX0S> if u know the antibody for covid who can u contact right now in Chicago or continental USA to provide u with some Abs may be not at scale but to run a pilot at least to validate an Ab based assay, am thinking saliva based because blood based the chinese seems to have it covered",
        "user": "UV6870881",
        "ts": "1584813586.000900",
        "team": "TUU48M0T1",
        "user_team": "TUU48M0T1",
        "source_team": "TUU48M0T1",
        "user_profile": {
            "avatar_hash": "gbbbbcc3accd",
            "image_72": "https:\/\/secure.gravatar.com\/avatar\/bbbbcc3accdddb02dfb1c03a4a65b994.jpg?s=72&d=https%3A%2F%2Fa.slack-edge.com%2Fdf10d%2Fimg%2Favatars%2Fava_0011-72.png",
            "first_name": "Quant",
            "real_name": "Quant",
            "display_name": "",
            "team": "TUU48M0T1",
            "name": "admin",
            "is_restricted": false,
            "is_ultra_restricted": false
        },
        "blocks": [
            {
                "type": "rich_text",
                "block_id": "eGr",
                "elements": [
                    {
                        "type": "rich_text_section",
                        "elements": [
                            {
                                "type": "text",
                                "text": "Good point about scaling "
                            },
                            {
                                "type": "user",
                                "user_id": "UV78JAX0S"
                            },
                            {
                                "type": "text",
                                "text": " if u know the antibody for covid who can u contact right now in Chicago or continental USA to provide u with some Abs may be not at scale but to run a pilot at least to validate an Ab based assay, am thinking saliva based because blood based the chinese seems to have it covered"
                            }
                        ]
                    }
                ]
            }
        ],
        "thread_ts": "1584563376.008000",
        "parent_user_id": "UV8FL0JCA"
    },
    {
        "client_msg_id": "2bbe6ea2-6c22-41f0-b997-e799aaaf4994",
        "type": "message",
        "text": "i dont think it's worthwhile shunting resources like Abs away from the professionals that need it",
        "user": "UV78JAX0S",
        "ts": "1584813631.001100",
        "team": "TUU48M0T1",
        "user_team": "TUU48M0T1",
        "source_team": "TUU48M0T1",
        "user_profile": {
            "avatar_hash": "ab643489965e",
            "image_72": "https:\/\/avatars.slack-edge.com\/2020-03-17\/996174739571_ab643489965e0031c49d_72.png",
            "first_name": "Khalid",
            "real_name": "Khalid K. Alam",
            "display_name": "Khalid K. Alam",
            "team": "TUU48M0T1",
            "name": "khalid",
            "is_restricted": false,
            "is_ultra_restricted": false
        },
        "blocks": [
            {
                "type": "rich_text",
                "block_id": "nlnkO",
                "elements": [
                    {
                        "type": "rich_text_section",
                        "elements": [
                            {
                                "type": "text",
                                "text": "i dont think it's worthwhile shunting resources like Abs away from the professionals that need it"
                            }
                        ]
                    }
                ]
            }
        ],
        "thread_ts": "1584563376.008000",
        "parent_user_id": "UV8FL0JCA"
    },
    {
        "client_msg_id": "2d75619a-3a4e-4af4-99e5-471d288a7482",
        "type": "message",
        "text": "i love the biohacker community, but too many of us are attempting to secure kits, isolation reagents, etc. that others more desperately need",
        "user": "UV78JAX0S",
        "ts": "1584813663.001300",
        "team": "TUU48M0T1",
        "user_team": "TUU48M0T1",
        "source_team": "TUU48M0T1",
        "user_profile": {
            "avatar_hash": "ab643489965e",
            "image_72": "https:\/\/avatars.slack-edge.com\/2020-03-17\/996174739571_ab643489965e0031c49d_72.png",
            "first_name": "Khalid",
            "real_name": "Khalid K. Alam",
            "display_name": "Khalid K. Alam",
            "team": "TUU48M0T1",
            "name": "khalid",
            "is_restricted": false,
            "is_ultra_restricted": false
        },
        "blocks": [
            {
                "type": "rich_text",
                "block_id": "ADxrY",
                "elements": [
                    {
                        "type": "rich_text_section",
                        "elements": [
                            {
                                "type": "text",
                                "text": "i love the biohacker community, but too many of us are attempting to secure kits, isolation reagents, etc. that others more desperately need"
                            }
                        ]
                    }
                ]
            }
        ],
        "thread_ts": "1584563376.008000",
        "parent_user_id": "UV8FL0JCA"
    },
    {
        "client_msg_id": "c618e12b-1de0-4222-824d-38b230762d4c",
        "type": "message",
        "text": "I dont think Abs are considered even at this point FDA and CDC are allowing only PCR, so Abs R&amp;D is still ok and Abs based blood test are produced in Chima so there is no monopolizing happening here right?",
        "user": "UV6870881",
        "ts": "1584813762.001500",
        "team": "TUU48M0T1",
        "user_team": "TUU48M0T1",
        "source_team": "TUU48M0T1",
        "user_profile": {
            "avatar_hash": "gbbbbcc3accd",
            "image_72": "https:\/\/secure.gravatar.com\/avatar\/bbbbcc3accdddb02dfb1c03a4a65b994.jpg?s=72&d=https%3A%2F%2Fa.slack-edge.com%2Fdf10d%2Fimg%2Favatars%2Fava_0011-72.png",
            "first_name": "Quant",
            "real_name": "Quant",
            "display_name": "",
            "team": "TUU48M0T1",
            "name": "admin",
            "is_restricted": false,
            "is_ultra_restricted": false
        },
        "blocks": [
            {
                "type": "rich_text",
                "block_id": "HV5",
                "elements": [
                    {
                        "type": "rich_text_section",
                        "elements": [
                            {
                                "type": "text",
                                "text": "I dont think Abs are considered even at this point FDA and CDC are allowing only PCR, so Abs R&D is still ok and Abs based blood test are produced in Chima so there is no monopolizing happening here right?"
                            }
                        ]
                    }
                ]
            }
        ],
        "thread_ts": "1584563376.008000",
        "parent_user_id": "UV8FL0JCA"
    },
    {
        "client_msg_id": "b0696b0d-7753-440b-9091-404e6d8db7b9",
        "type": "message",
        "text": "the Abs are pretty important for serology and research-use-only applications. applications that community labs are in no position to scale",
        "user": "UV78JAX0S",
        "ts": "1584813811.001700",
        "team": "TUU48M0T1",
        "user_team": "TUU48M0T1",
        "source_team": "TUU48M0T1",
        "user_profile": {
            "avatar_hash": "ab643489965e",
            "image_72": "https:\/\/avatars.slack-edge.com\/2020-03-17\/996174739571_ab643489965e0031c49d_72.png",
            "first_name": "Khalid",
            "real_name": "Khalid K. Alam",
            "display_name": "Khalid K. Alam",
            "team": "TUU48M0T1",
            "name": "khalid",
            "is_restricted": false,
            "is_ultra_restricted": false
        },
        "blocks": [
            {
                "type": "rich_text",
                "block_id": "R8ks",
                "elements": [
                    {
                        "type": "rich_text_section",
                        "elements": [
                            {
                                "type": "text",
                                "text": "the Abs are pretty important for serology and research-use-only applications. applications that community labs are in no position to scale"
                            }
                        ]
                    }
                ]
            }
        ],
        "thread_ts": "1584563376.008000",
        "parent_user_id": "UV8FL0JCA"
    },
    {
        "client_msg_id": "546c9863-a05b-4469-9f3a-7c557b6f4b10",
        "type": "message",
        "text": "So without getting into a philosophical fight because i plan to come back to u latet on a Covid aptamer selex idea and want to stay on your good side :) do u have an idea of where i can procure so Covid Abs?",
        "user": "UV6870881",
        "ts": "1584813920.001900",
        "team": "TUU48M0T1",
        "user_team": "TUU48M0T1",
        "source_team": "TUU48M0T1",
        "user_profile": {
            "avatar_hash": "gbbbbcc3accd",
            "image_72": "https:\/\/secure.gravatar.com\/avatar\/bbbbcc3accdddb02dfb1c03a4a65b994.jpg?s=72&d=https%3A%2F%2Fa.slack-edge.com%2Fdf10d%2Fimg%2Favatars%2Fava_0011-72.png",
            "first_name": "Quant",
            "real_name": "Quant",
            "display_name": "",
            "team": "TUU48M0T1",
            "name": "admin",
            "is_restricted": false,
            "is_ultra_restricted": false
        },
        "blocks": [
            {
                "type": "rich_text",
                "block_id": "mpYWz",
                "elements": [
                    {
                        "type": "rich_text_section",
                        "elements": [
                            {
                                "type": "text",
                                "text": "So without getting into a philosophical fight because i plan to come back to u latet on a Covid aptamer selex idea and want to stay on your good side :) do u have an idea of where i can procure so Covid Abs?"
                            }
                        ]
                    }
                ]
            }
        ],
        "thread_ts": "1584563376.008000",
        "parent_user_id": "UV8FL0JCA"
    },
    {
        "client_msg_id": "d39c6a05-79e5-4743-95e1-6634d916e0b0",
        "type": "message",
        "text": ":slightly_smiling_face: sorry I have strong opinions on this. I love that people are trying to do good, but worry about alot of other issues. Not sure where COVID Abs are coming from at the moment, but have seen several companies now with lateral flow assays  so there must be a supply somwhere",
        "user": "UV78JAX0S",
        "ts": "1584814049.002100",
        "team": "TUU48M0T1",
        "user_team": "TUU48M0T1",
        "source_team": "TUU48M0T1",
        "user_profile": {
            "avatar_hash": "ab643489965e",
            "image_72": "https:\/\/avatars.slack-edge.com\/2020-03-17\/996174739571_ab643489965e0031c49d_72.png",
            "first_name": "Khalid",
            "real_name": "Khalid K. Alam",
            "display_name": "Khalid K. Alam",
            "team": "TUU48M0T1",
            "name": "khalid",
            "is_restricted": false,
            "is_ultra_restricted": false
        },
        "blocks": [
            {
                "type": "rich_text",
                "block_id": "3kl",
                "elements": [
                    {
                        "type": "rich_text_section",
                        "elements": [
                            {
                                "type": "emoji",
                                "name": "slightly_smiling_face"
                            },
                            {
                                "type": "text",
                                "text": " sorry I have strong opinions on this. I love that people are trying to do good, but worry about alot of other issues. Not sure where COVID Abs are coming from at the moment, but have seen several companies now with lateral flow assays  so there must be a supply somwhere"
                            }
                        ]
                    }
                ]
            }
        ],
        "thread_ts": "1584563376.008000",
        "parent_user_id": "UV8FL0JCA"
    },
    {
        "client_msg_id": "cdf7022d-7f75-4399-b32c-ea222a956c2f",
        "type": "message",
        "text": "All good man i believe we all here are trying to just make thos world a better place, different strategies but still same goal. So that brings me to selexing Covid, am not a molecular biologist just a hacker, so i wonder : 1. How can i accelerate Selex, from what i read i should expect 2 months to finding a Covid aptamer. 2. How can i work on covid without having a level 3 lab to run my selex?",
        "user": "UV6870881",
        "ts": "1584814208.002300",
        "team": "TUU48M0T1",
        "user_team": "TUU48M0T1",
        "source_team": "TUU48M0T1",
        "user_profile": {
            "avatar_hash": "gbbbbcc3accd",
            "image_72": "https:\/\/secure.gravatar.com\/avatar\/bbbbcc3accdddb02dfb1c03a4a65b994.jpg?s=72&d=https%3A%2F%2Fa.slack-edge.com%2Fdf10d%2Fimg%2Favatars%2Fava_0011-72.png",
            "first_name": "Quant",
            "real_name": "Quant",
            "display_name": "",
            "team": "TUU48M0T1",
            "name": "admin",
            "is_restricted": false,
            "is_ultra_restricted": false
        },
        "blocks": [
            {
                "type": "rich_text",
                "block_id": "JjI",
                "elements": [
                    {
                        "type": "rich_text_section",
                        "elements": [
                            {
                                "type": "text",
                                "text": "All good man i believe we all here are trying to just make thos world a better place, different strategies but still same goal. So that brings me to selexing Covid, am not a molecular biologist just a hacker, so i wonder : 1. How can i accelerate Selex, from what i read i should expect 2 months to finding a Covid aptamer. 2. How can i work on covid without having a level 3 lab to run my selex?"
                            }
                        ]
                    }
                ]
            }
        ],
        "thread_ts": "1584563376.008000",
        "parent_user_id": "UV8FL0JCA"
    },
    {
        "client_msg_id": "9c35cb36-55b6-4064-b468-ddc724cd7c0c",
        "type": "message",
        "text": "Also 3. How can i account for possible viral mutations to have a wide detection sensitivity",
        "user": "UV6870881",
        "ts": "1584814288.002500",
        "team": "TUU48M0T1",
        "user_team": "TUU48M0T1",
        "source_team": "TUU48M0T1",
        "user_profile": {
            "avatar_hash": "gbbbbcc3accd",
            "image_72": "https:\/\/secure.gravatar.com\/avatar\/bbbbcc3accdddb02dfb1c03a4a65b994.jpg?s=72&d=https%3A%2F%2Fa.slack-edge.com%2Fdf10d%2Fimg%2Favatars%2Fava_0011-72.png",
            "first_name": "Quant",
            "real_name": "Quant",
            "display_name": "",
            "team": "TUU48M0T1",
            "name": "admin",
            "is_restricted": false,
            "is_ultra_restricted": false
        },
        "blocks": [
            {
                "type": "rich_text",
                "block_id": "N3a",
                "elements": [
                    {
                        "type": "rich_text_section",
                        "elements": [
                            {
                                "type": "text",
                                "text": "Also 3. How can i account for possible viral mutations to have a wide detection sensitivity"
                            }
                        ]
                    }
                ]
            }
        ],
        "thread_ts": "1584563376.008000",
        "parent_user_id": "UV8FL0JCA"
    },
    {
        "client_msg_id": "2da91f53-7910-4070-8c83-8c6e6b8090ca",
        "type": "message",
        "text": "SELEX is easy to do poorly, difficult to do properly. If you have coding skills there's a ton of value to be gained with improved bioinformatic analysis of high-throughput sequencing of selection libraries.",
        "user": "UV78JAX0S",
        "ts": "1584825424.002700",
        "team": "TUU48M0T1",
        "user_team": "TUU48M0T1",
        "source_team": "TUU48M0T1",
        "user_profile": {
            "avatar_hash": "ab643489965e",
            "image_72": "https:\/\/avatars.slack-edge.com\/2020-03-17\/996174739571_ab643489965e0031c49d_72.png",
            "first_name": "Khalid",
            "real_name": "Khalid K. Alam",
            "display_name": "Khalid K. Alam",
            "team": "TUU48M0T1",
            "name": "khalid",
            "is_restricted": false,
            "is_ultra_restricted": false
        },
        "blocks": [
            {
                "type": "rich_text",
                "block_id": "yCm",
                "elements": [
                    {
                        "type": "rich_text_section",
                        "elements": [
                            {
                                "type": "text",
                                "text": "SELEX is easy to do poorly, difficult to do properly. If you have coding skills there's a ton of value to be gained with improved bioinformatic analysis of high-throughput sequencing of selection libraries."
                            }
                        ]
                    }
                ]
            }
        ],
        "thread_ts": "1584563376.008000",
        "parent_user_id": "UV8FL0JCA"
    },
    {
        "client_msg_id": "418d5a12-f476-466d-af66-e39701d10e3d",
        "type": "message",
        "text": "you can work on COVID in BSL1 settings - for example, by selecting against a recombinant expressed protein",
        "user": "UV78JAX0S",
        "ts": "1584825457.002900",
        "team": "TUU48M0T1",
        "user_team": "TUU48M0T1",
        "source_team": "TUU48M0T1",
        "user_profile": {
            "avatar_hash": "ab643489965e",
            "image_72": "https:\/\/avatars.slack-edge.com\/2020-03-17\/996174739571_ab643489965e0031c49d_72.png",
            "first_name": "Khalid",
            "real_name": "Khalid K. Alam",
            "display_name": "Khalid K. Alam",
            "team": "TUU48M0T1",
            "name": "khalid",
            "is_restricted": false,
            "is_ultra_restricted": false
        },
        "blocks": [
            {
                "type": "rich_text",
                "block_id": "nFQB",
                "elements": [
                    {
                        "type": "rich_text_section",
                        "elements": [
                            {
                                "type": "text",
                                "text": "you can work on COVID in BSL1 settings - for example, by selecting against a recombinant expressed protein"
                            }
                        ]
                    }
                ]
            }
        ],
        "thread_ts": "1584563376.008000",
        "parent_user_id": "UV8FL0JCA"
    },
    {
        "client_msg_id": "0caf1516-4d0d-4190-ae07-39151c3cf90d",
        "type": "message",
        "text": "the best way to account for mutation is to perform a selection with appropriate counter-selections. I created an approach that we published called \"poly-target selection\" that employed a panel of closely related targets",
        "user": "UV78JAX0S",
        "ts": "1584825501.003100",
        "team": "TUU48M0T1",
        "user_team": "TUU48M0T1",
        "source_team": "TUU48M0T1",
        "user_profile": {
            "avatar_hash": "ab643489965e",
            "image_72": "https:\/\/avatars.slack-edge.com\/2020-03-17\/996174739571_ab643489965e0031c49d_72.png",
            "first_name": "Khalid",
            "real_name": "Khalid K. Alam",
            "display_name": "Khalid K. Alam",
            "team": "TUU48M0T1",
            "name": "khalid",
            "is_restricted": false,
            "is_ultra_restricted": false
        },
        "blocks": [
            {
                "type": "rich_text",
                "block_id": "vOQ",
                "elements": [
                    {
                        "type": "rich_text_section",
                        "elements": [
                            {
                                "type": "text",
                                "text": "the best way to account for mutation is to perform a selection with appropriate counter-selections. I created an approach that we published called \"poly-target selection\" that employed a panel of closely related targets"
                            }
                        ]
                    }
                ]
            }
        ],
        "thread_ts": "1584563376.008000",
        "parent_user_id": "UV8FL0JCA"
    },
    {
        "client_msg_id": "82a6ab70-965c-40c3-b512-4b2f321d1d9f",
        "type": "message",
        "text": "<https:\/\/www.cell.com\/molecular-therapy-family\/nucleic-acids\/fulltext\/S2162-2531(16)30016-6>",
        "user": "UV78JAX0S",
        "ts": "1584825526.003300",
        "team": "TUU48M0T1",
        "user_team": "TUU48M0T1",
        "source_team": "TUU48M0T1",
        "user_profile": {
            "avatar_hash": "ab643489965e",
            "image_72": "https:\/\/avatars.slack-edge.com\/2020-03-17\/996174739571_ab643489965e0031c49d_72.png",
            "first_name": "Khalid",
            "real_name": "Khalid K. Alam",
            "display_name": "Khalid K. Alam",
            "team": "TUU48M0T1",
            "name": "khalid",
            "is_restricted": false,
            "is_ultra_restricted": false
        },
        "blocks": [
            {
                "type": "rich_text",
                "block_id": "DkPW",
                "elements": [
                    {
                        "type": "rich_text_section",
                        "elements": [
                            {
                                "type": "link",
                                "url": "https:\/\/www.cell.com\/molecular-therapy-family\/nucleic-acids\/fulltext\/S2162-2531(16)30016-6"
                            }
                        ]
                    }
                ]
            }
        ],
        "thread_ts": "1584563376.008000",
        "parent_user_id": "UV8FL0JCA"
    },
    {
        "client_msg_id": "8fe408db-e345-416b-bc07-ff5e17734c80",
        "type": "message",
        "text": "<https:\/\/www.cell.com\/molecular-therapy-family\/nucleic-acids\/fulltext\/S2162-2531(18)30281-6>",
        "user": "UV78JAX0S",
        "ts": "1584825541.003500",
        "team": "TUU48M0T1",
        "user_team": "TUU48M0T1",
        "source_team": "TUU48M0T1",
        "user_profile": {
            "avatar_hash": "ab643489965e",
            "image_72": "https:\/\/avatars.slack-edge.com\/2020-03-17\/996174739571_ab643489965e0031c49d_72.png",
            "first_name": "Khalid",
            "real_name": "Khalid K. Alam",
            "display_name": "Khalid K. Alam",
            "team": "TUU48M0T1",
            "name": "khalid",
            "is_restricted": false,
            "is_ultra_restricted": false
        },
        "blocks": [
            {
                "type": "rich_text",
                "block_id": "Wa=4",
                "elements": [
                    {
                        "type": "rich_text_section",
                        "elements": [
                            {
                                "type": "link",
                                "url": "https:\/\/www.cell.com\/molecular-therapy-family\/nucleic-acids\/fulltext\/S2162-2531(18)30281-6"
                            }
                        ]
                    }
                ]
            }
        ],
        "thread_ts": "1584563376.008000",
        "parent_user_id": "UV8FL0JCA"
    },
    {
        "client_msg_id": "4e3358a2-f687-4a7f-a2e4-7d695c754ea6",
        "type": "message",
        "text": "Awesome man! Thank you very much i appreciate this!",
        "user": "UV6870881",
        "ts": "1584825800.003700",
        "team": "TUU48M0T1",
        "user_team": "TUU48M0T1",
        "source_team": "TUU48M0T1",
        "user_profile": {
            "avatar_hash": "gbbbbcc3accd",
            "image_72": "https:\/\/secure.gravatar.com\/avatar\/bbbbcc3accdddb02dfb1c03a4a65b994.jpg?s=72&d=https%3A%2F%2Fa.slack-edge.com%2Fdf10d%2Fimg%2Favatars%2Fava_0011-72.png",
            "first_name": "Quant",
            "real_name": "Quant",
            "display_name": "",
            "team": "TUU48M0T1",
            "name": "admin",
            "is_restricted": false,
            "is_ultra_restricted": false
        },
        "blocks": [
            {
                "type": "rich_text",
                "block_id": "MEg",
                "elements": [
                    {
                        "type": "rich_text_section",
                        "elements": [
                            {
                                "type": "text",
                                "text": "Awesome man! Thank you very much i appreciate this!"
                            }
                        ]
                    }
                ]
            }
        ],
        "thread_ts": "1584563376.008000",
        "parent_user_id": "UV8FL0JCA"
    }
]