[
    {
        "type": "message",
        "subtype": "channel_join",
        "ts": "1585219967.005600",
        "user": "UVABNG1A9",
        "text": "<@UVABNG1A9> has joined the channel"
    },
    {
        "type": "message",
        "subtype": "channel_join",
        "ts": "1585231560.005800",
        "user": "U010FMSQ210",
        "text": "<@U010FMSQ210> has joined the channel"
    },
    {
        "client_msg_id": "d56ee3af-b2f4-4e3a-ab4e-832a9649bfbe",
        "type": "message",
        "text": "<@U010RE1NDCG> there are some examples from data analysis we started",
        "user": "U010B412MF1",
        "ts": "1585240032.005900",
        "team": "TUU48M0T1",
        "user_team": "TUU48M0T1",
        "source_team": "TUU48M0T1",
        "user_profile": {
            "avatar_hash": "218d963a797f",
            "image_72": "https:\/\/avatars.slack-edge.com\/2020-03-19\/1013072792629_218d963a797fbf4410c0_72.png",
            "first_name": "",
            "real_name": "liu",
            "display_name": "liu",
            "team": "TUU48M0T1",
            "name": "liubov.tupikina",
            "is_restricted": false,
            "is_ultra_restricted": false
        },
        "blocks": [
            {
                "type": "rich_text",
                "block_id": "Luh",
                "elements": [
                    {
                        "type": "rich_text_section",
                        "elements": [
                            {
                                "type": "user",
                                "user_id": "U010RE1NDCG"
                            },
                            {
                                "type": "text",
                                "text": " there are some examples from data analysis we started"
                            }
                        ]
                    }
                ]
            }
        ],
        "thread_ts": "1585075585.014900",
        "parent_user_id": "U010B412MF1"
    },
    {
        "type": "message",
        "subtype": "channel_join",
        "ts": "1585246551.006200",
        "user": "UV02WET96",
        "text": "<@UV02WET96> has joined the channel"
    },
    {
        "client_msg_id": "2df9152c-5e3d-4ca5-b30b-971b1f28387a",
        "type": "message",
        "text": "Also, just realized I may still be judging a science fair tomorrow, here's hoping I can make the call....",
        "user": "U0101DKUALV",
        "ts": "1585266794.006300",
        "team": "TUU48M0T1",
        "user_team": "TUU48M0T1",
        "source_team": "TUU48M0T1",
        "user_profile": {
            "avatar_hash": "b0aee06ed3e5",
            "image_72": "https:\/\/avatars.slack-edge.com\/2020-04-22\/1072886325190_b0aee06ed3e501ebdf56_72.png",
            "first_name": "",
            "real_name": "Pauline Chane",
            "display_name": "Pauline Chane",
            "team": "TUU48M0T1",
            "name": "pauline.chane",
            "is_restricted": false,
            "is_ultra_restricted": false
        },
        "blocks": [
            {
                "type": "rich_text",
                "block_id": "f5ii",
                "elements": [
                    {
                        "type": "rich_text_section",
                        "elements": [
                            {
                                "type": "text",
                                "text": "Also, just realized I may still be judging a science fair tomorrow, here's hoping I can make the call...."
                            }
                        ]
                    }
                ]
            }
        ],
        "thread_ts": "1585127713.001900",
        "parent_user_id": "UV85V64SD"
    }
]