[
    {
        "client_msg_id": "8c16756e-00a7-47d1-9c1d-7a7379d9f2ea",
        "type": "message",
        "text": "Hey!\nWe will have a call at 6pm on metastudy slack\n<https:\/\/zoom.us\/j\/587591464?pwd=VDFxZXlteWVqYTFIcVRZY05TdVJOQT09>\n\nWas very good to talk to you <@U0104M5CWV9> Welcome!",
        "user": "U010B412MF1",
        "ts": "1586792842.023900",
        "team": "TUU48M0T1",
        "user_team": "TUU48M0T1",
        "source_team": "TUU48M0T1",
        "user_profile": {
            "avatar_hash": "218d963a797f",
            "image_72": "https:\/\/avatars.slack-edge.com\/2020-03-19\/1013072792629_218d963a797fbf4410c0_72.png",
            "first_name": "",
            "real_name": "liu",
            "display_name": "liu",
            "team": "TUU48M0T1",
            "name": "liubov.tupikina",
            "is_restricted": false,
            "is_ultra_restricted": false
        },
        "blocks": [
            {
                "type": "rich_text",
                "block_id": "=bu",
                "elements": [
                    {
                        "type": "rich_text_section",
                        "elements": [
                            {
                                "type": "text",
                                "text": "Hey!\nWe will have a call at 6pm on metastudy slack\n"
                            },
                            {
                                "type": "link",
                                "url": "https:\/\/zoom.us\/j\/587591464?pwd=VDFxZXlteWVqYTFIcVRZY05TdVJOQT09"
                            },
                            {
                                "type": "text",
                                "text": "\n\nWas very good to talk to you "
                            },
                            {
                                "type": "user",
                                "user_id": "U0104M5CWV9"
                            },
                            {
                                "type": "text",
                                "text": " Welcome!"
                            }
                        ]
                    }
                ]
            }
        ],
        "thread_ts": "1586792842.023900",
        "reply_count": 3,
        "reply_users_count": 2,
        "latest_reply": "1586803994.024600",
        "reply_users": [
            "U010AGDDEBZ",
            "U0101DKUALV"
        ],
        "replies": [
            {
                "user": "U010AGDDEBZ",
                "ts": "1586793677.024200"
            },
            {
                "user": "U0101DKUALV",
                "ts": "1586803935.024400"
            },
            {
                "user": "U010AGDDEBZ",
                "ts": "1586803994.024600"
            }
        ],
        "subscribed": false
    },
    {
        "type": "message",
        "subtype": "channel_join",
        "ts": "1586792845.024100",
        "user": "U0104M5CWV9",
        "text": "<@U0104M5CWV9> has joined the channel",
        "inviter": "U010B412MF1"
    },
    {
        "client_msg_id": "307696cf-0f58-4ef4-a2a3-6b3c81dbeb57",
        "type": "message",
        "text": "Isn't the usual call tomorrow?",
        "user": "U010AGDDEBZ",
        "ts": "1586793677.024200",
        "team": "TUU48M0T1",
        "user_team": "TUU48M0T1",
        "source_team": "TUU48M0T1",
        "user_profile": {
            "avatar_hash": "a1cf28a8adcc",
            "image_72": "https:\/\/avatars.slack-edge.com\/2020-03-22\/1017122430308_a1cf28a8adcc052e8332_72.png",
            "first_name": "Rathin",
            "real_name": "Rathin Jeyaram",
            "display_name": "Rathin Jeyaram",
            "team": "TUU48M0T1",
            "name": "jeyaram.rathin",
            "is_restricted": false,
            "is_ultra_restricted": false
        },
        "blocks": [
            {
                "type": "rich_text",
                "block_id": "Fy=5b",
                "elements": [
                    {
                        "type": "rich_text_section",
                        "elements": [
                            {
                                "type": "text",
                                "text": "Isn't the usual call tomorrow?"
                            }
                        ]
                    }
                ]
            }
        ],
        "thread_ts": "1586792842.023900",
        "parent_user_id": "U010B412MF1"
    },
    {
        "client_msg_id": "db3fe8a3-2b77-4ec7-a72d-45256409767d",
        "type": "message",
        "text": "^ Are we still meeting tomorrow?",
        "user": "U0101DKUALV",
        "ts": "1586803935.024400",
        "team": "TUU48M0T1",
        "user_team": "TUU48M0T1",
        "source_team": "TUU48M0T1",
        "user_profile": {
            "avatar_hash": "b0aee06ed3e5",
            "image_72": "https:\/\/avatars.slack-edge.com\/2020-04-22\/1072886325190_b0aee06ed3e501ebdf56_72.png",
            "first_name": "",
            "real_name": "Pauline Chane",
            "display_name": "Pauline Chane",
            "team": "TUU48M0T1",
            "name": "pauline.chane",
            "is_restricted": false,
            "is_ultra_restricted": false
        },
        "blocks": [
            {
                "type": "rich_text",
                "block_id": "Zhkd",
                "elements": [
                    {
                        "type": "rich_text_section",
                        "elements": [
                            {
                                "type": "text",
                                "text": "^ Are we still meeting tomorrow?"
                            }
                        ]
                    }
                ]
            }
        ],
        "thread_ts": "1586792842.023900",
        "parent_user_id": "U010B412MF1"
    },
    {
        "client_msg_id": "172ce68f-4a5f-400a-a82b-b898cbd46c1f",
        "type": "message",
        "text": "The invitation for the Metastudy is still tomorrow I guess",
        "user": "U010AGDDEBZ",
        "ts": "1586803994.024600",
        "team": "TUU48M0T1",
        "user_team": "TUU48M0T1",
        "source_team": "TUU48M0T1",
        "user_profile": {
            "avatar_hash": "a1cf28a8adcc",
            "image_72": "https:\/\/avatars.slack-edge.com\/2020-03-22\/1017122430308_a1cf28a8adcc052e8332_72.png",
            "first_name": "Rathin",
            "real_name": "Rathin Jeyaram",
            "display_name": "Rathin Jeyaram",
            "team": "TUU48M0T1",
            "name": "jeyaram.rathin",
            "is_restricted": false,
            "is_ultra_restricted": false
        },
        "blocks": [
            {
                "type": "rich_text",
                "block_id": "Zdj",
                "elements": [
                    {
                        "type": "rich_text_section",
                        "elements": [
                            {
                                "type": "text",
                                "text": "The invitation for the Metastudy is still tomorrow I guess"
                            }
                        ]
                    }
                ]
            }
        ],
        "thread_ts": "1586792842.023900",
        "parent_user_id": "U010B412MF1"
    },
    {
        "client_msg_id": "45a797fd-c792-4e8d-be8c-552a94387077",
        "type": "message",
        "text": "so, i think I managed to repair teamchatviz itself ... (i think!) it's running here <https:\/\/tcviz-git.herokuapp.com\/>\n\nmain thing was the specific slack oauth app setting which needed to be made \"distributed slack app\" (i'll put it on gitlab)\n\n <@UV02WET96>since you'd have the slack admin account, could you try to use \"Add to slack\" to trigger a data sync?",
        "user": "U010RE1NDCG",
        "ts": "1586822947.029000",
        "team": "TUU48M0T1",
        "user_team": "TUU48M0T1",
        "source_team": "TUU48M0T1",
        "user_profile": {
            "avatar_hash": "9b536de47814",
            "image_72": "https:\/\/avatars.slack-edge.com\/2020-03-27\/1033593346022_9b536de4781429680ea1_72.jpg",
            "first_name": "",
            "real_name": "Prashant Sinha",
            "display_name": "",
            "team": "TUU48M0T1",
            "name": "prashant",
            "is_restricted": false,
            "is_ultra_restricted": false
        },
        "blocks": [
            {
                "type": "rich_text",
                "block_id": "t7SnQ",
                "elements": [
                    {
                        "type": "rich_text_section",
                        "elements": [
                            {
                                "type": "text",
                                "text": "so, i think I managed to repair teamchatviz itself ... (i think!) it's running here "
                            },
                            {
                                "type": "link",
                                "url": "https:\/\/tcviz-git.herokuapp.com\/"
                            },
                            {
                                "type": "text",
                                "text": "\n\nmain thing was the specific slack oauth app setting which needed to be made \"distributed slack app\" (i'll put it on gitlab)\n\n "
                            },
                            {
                                "type": "user",
                                "user_id": "UV02WET96"
                            },
                            {
                                "type": "text",
                                "text": "since you'd have the slack admin account, could you try to use \"Add to slack\" to trigger a data sync?"
                            }
                        ]
                    }
                ]
            }
        ]
    },
    {
        "type": "message",
        "text": "actually, i could just login with my own slack! :smile:",
        "files": [
            {
                "id": "F011RFGBASW",
                "created": 1586823069,
                "timestamp": 1586823069,
                "name": "Snip 2020-04-14 at 02.10.48.png",
                "title": "Snip 2020-04-14 at 02.10.48.png",
                "mimetype": "image\/png",
                "filetype": "png",
                "pretty_type": "PNG",
                "user": "U010RE1NDCG",
                "editable": false,
                "size": 455876,
                "mode": "hosted",
                "is_external": false,
                "external_type": "",
                "is_public": true,
                "public_url_shared": false,
                "display_as_bot": false,
                "username": "",
                "url_private": "https:\/\/files.slack.com\/files-pri\/TUU48M0T1-F011RFGBASW\/snip_2020-04-14_at_02.10.48.png?t=xoxe-980144714919-1106606678066-1105227127893-6f722bb664235052954ad46852628b64",
                "url_private_download": "https:\/\/files.slack.com\/files-pri\/TUU48M0T1-F011RFGBASW\/download\/snip_2020-04-14_at_02.10.48.png?t=xoxe-980144714919-1106606678066-1105227127893-6f722bb664235052954ad46852628b64",
                "thumb_64": "https:\/\/files.slack.com\/files-tmb\/TUU48M0T1-F011RFGBASW-b24ad55c0e\/snip_2020-04-14_at_02.10.48_64.png?t=xoxe-980144714919-1106606678066-1105227127893-6f722bb664235052954ad46852628b64",
                "thumb_80": "https:\/\/files.slack.com\/files-tmb\/TUU48M0T1-F011RFGBASW-b24ad55c0e\/snip_2020-04-14_at_02.10.48_80.png?t=xoxe-980144714919-1106606678066-1105227127893-6f722bb664235052954ad46852628b64",
                "thumb_360": "https:\/\/files.slack.com\/files-tmb\/TUU48M0T1-F011RFGBASW-b24ad55c0e\/snip_2020-04-14_at_02.10.48_360.png?t=xoxe-980144714919-1106606678066-1105227127893-6f722bb664235052954ad46852628b64",
                "thumb_360_w": 360,
                "thumb_360_h": 308,
                "thumb_480": "https:\/\/files.slack.com\/files-tmb\/TUU48M0T1-F011RFGBASW-b24ad55c0e\/snip_2020-04-14_at_02.10.48_480.png?t=xoxe-980144714919-1106606678066-1105227127893-6f722bb664235052954ad46852628b64",
                "thumb_480_w": 480,
                "thumb_480_h": 411,
                "thumb_160": "https:\/\/files.slack.com\/files-tmb\/TUU48M0T1-F011RFGBASW-b24ad55c0e\/snip_2020-04-14_at_02.10.48_160.png?t=xoxe-980144714919-1106606678066-1105227127893-6f722bb664235052954ad46852628b64",
                "thumb_720": "https:\/\/files.slack.com\/files-tmb\/TUU48M0T1-F011RFGBASW-b24ad55c0e\/snip_2020-04-14_at_02.10.48_720.png?t=xoxe-980144714919-1106606678066-1105227127893-6f722bb664235052954ad46852628b64",
                "thumb_720_w": 720,
                "thumb_720_h": 616,
                "thumb_800": "https:\/\/files.slack.com\/files-tmb\/TUU48M0T1-F011RFGBASW-b24ad55c0e\/snip_2020-04-14_at_02.10.48_800.png?t=xoxe-980144714919-1106606678066-1105227127893-6f722bb664235052954ad46852628b64",
                "thumb_800_w": 800,
                "thumb_800_h": 685,
                "thumb_960": "https:\/\/files.slack.com\/files-tmb\/TUU48M0T1-F011RFGBASW-b24ad55c0e\/snip_2020-04-14_at_02.10.48_960.png?t=xoxe-980144714919-1106606678066-1105227127893-6f722bb664235052954ad46852628b64",
                "thumb_960_w": 960,
                "thumb_960_h": 822,
                "thumb_1024": "https:\/\/files.slack.com\/files-tmb\/TUU48M0T1-F011RFGBASW-b24ad55c0e\/snip_2020-04-14_at_02.10.48_1024.png?t=xoxe-980144714919-1106606678066-1105227127893-6f722bb664235052954ad46852628b64",
                "thumb_1024_w": 1024,
                "thumb_1024_h": 876,
                "original_w": 2400,
                "original_h": 2054,
                "thumb_tiny": "AwApADC19ih\/2vzo+ww+jD8as0UAVvsUXq\/\/AH1R9ii9X\/76qzRQBV+xQ56SfXdS\/YovV\/8AvqpmljRwjMAx6Cn0AIR9aWg0UAFFFFACYBOSOaWiigANFI1NoAfRQOlFABRRRQB\/\/9k=",
                "permalink": "https:\/\/open-covid19.slack.com\/files\/U010RE1NDCG\/F011RFGBASW\/snip_2020-04-14_at_02.10.48.png",
                "permalink_public": "https:\/\/slack-files.com\/TUU48M0T1-F011RFGBASW-64e12564b3",
                "is_starred": false,
                "has_rich_preview": false
            }
        ],
        "upload": true,
        "blocks": [
            {
                "type": "rich_text",
                "block_id": "t624",
                "elements": [
                    {
                        "type": "rich_text_section",
                        "elements": [
                            {
                                "type": "text",
                                "text": "actually, i could just login with my own slack! "
                            },
                            {
                                "type": "emoji",
                                "name": "smile"
                            }
                        ]
                    }
                ]
            }
        ],
        "user": "U010RE1NDCG",
        "display_as_bot": false,
        "ts": "1586823072.029100",
        "client_msg_id": "0542add8-0643-4f00-8bfe-04fb804b199d"
    },
    {
        "client_msg_id": "e7c24a96-cb14-4630-9e95-c388e112c376",
        "type": "message",
        "text": "that was easy; thanks <@UVC9WMA7N> for convincing me to repair it!",
        "user": "U010RE1NDCG",
        "ts": "1586823115.030000",
        "team": "TUU48M0T1",
        "user_team": "TUU48M0T1",
        "source_team": "TUU48M0T1",
        "user_profile": {
            "avatar_hash": "9b536de47814",
            "image_72": "https:\/\/avatars.slack-edge.com\/2020-03-27\/1033593346022_9b536de4781429680ea1_72.jpg",
            "first_name": "",
            "real_name": "Prashant Sinha",
            "display_name": "",
            "team": "TUU48M0T1",
            "name": "prashant",
            "is_restricted": false,
            "is_ultra_restricted": false
        },
        "blocks": [
            {
                "type": "rich_text",
                "block_id": "28u",
                "elements": [
                    {
                        "type": "rich_text_section",
                        "elements": [
                            {
                                "type": "text",
                                "text": "that was easy; thanks "
                            },
                            {
                                "type": "user",
                                "user_id": "UVC9WMA7N"
                            },
                            {
                                "type": "text",
                                "text": " for convincing me to repair it!"
                            }
                        ]
                    }
                ]
            }
        ]
    },
    {
        "client_msg_id": "fc048672-12cc-4315-9dea-477c199b367c",
        "type": "message",
        "text": "so i see from logs that this heroku instance is a little slow; i'll move this to a proper instance later",
        "user": "U010RE1NDCG",
        "ts": "1586823166.030900",
        "team": "TUU48M0T1",
        "user_team": "TUU48M0T1",
        "source_team": "TUU48M0T1",
        "user_profile": {
            "avatar_hash": "9b536de47814",
            "image_72": "https:\/\/avatars.slack-edge.com\/2020-03-27\/1033593346022_9b536de4781429680ea1_72.jpg",
            "first_name": "",
            "real_name": "Prashant Sinha",
            "display_name": "",
            "team": "TUU48M0T1",
            "name": "prashant",
            "is_restricted": false,
            "is_ultra_restricted": false
        },
        "blocks": [
            {
                "type": "rich_text",
                "block_id": "oOemf",
                "elements": [
                    {
                        "type": "rich_text_section",
                        "elements": [
                            {
                                "type": "text",
                                "text": "so i see from logs that this heroku instance is a little slow; i'll move this to a proper instance later"
                            }
                        ]
                    }
                ]
            }
        ]
    }
]