<?xml version="1.0" encoding="UTF-8"?>
<graphml xmlns="http://graphml.graphdrawing.org/xmlns"
         xmlns:xsi="http://www.w3.org/2001/XMLSchema-instance"
         xsi:schemaLocation="http://graphml.graphdrawing.org/xmlns
         http://graphml.graphdrawing.org/xmlns/1.0/graphml.xsd">
<!-- Created by igraph -->
  <key id="e_weight" for="edge" attr.name="weight" attr.type="double"/>
  <graph id="G" edgedefault="directed">
    <node id="n0">
    </node>
    <node id="n1">
    </node>
    <node id="n2">
    </node>
    <node id="n3">
    </node>
    <node id="n4">
    </node>
    <node id="n5">
    </node>
    <node id="n6">
    </node>
    <node id="n7">
    </node>
    <node id="n8">
    </node>
    <node id="n9">
    </node>
    <node id="n10">
    </node>
    <node id="n11">
    </node>
    <node id="n12">
    </node>
    <node id="n13">
    </node>
    <node id="n14">
    </node>
    <node id="n15">
    </node>
    <node id="n16">
    </node>
    <node id="n17">
    </node>
    <node id="n18">
    </node>
    <node id="n19">
    </node>
    <edge source="n0" target="n0">
      <data key="e_weight">34</data>
    </edge>
    <edge source="n0" target="n1">
      <data key="e_weight">15</data>
    </edge>
    <edge source="n0" target="n2">
      <data key="e_weight">20</data>
    </edge>
    <edge source="n0" target="n3">
      <data key="e_weight">6</data>
    </edge>
    <edge source="n0" target="n4">
      <data key="e_weight">5</data>
    </edge>
    <edge source="n0" target="n5">
      <data key="e_weight">5</data>
    </edge>
    <edge source="n0" target="n6">
      <data key="e_weight">4</data>
    </edge>
    <edge source="n0" target="n7">
      <data key="e_weight">9</data>
    </edge>
    <edge source="n0" target="n8">
      <data key="e_weight">7</data>
    </edge>
    <edge source="n0" target="n9">
      <data key="e_weight">8</data>
    </edge>
    <edge source="n0" target="n10">
      <data key="e_weight">5</data>
    </edge>
    <edge source="n0" target="n11">
      <data key="e_weight">8</data>
    </edge>
    <edge source="n0" target="n12">
      <data key="e_weight">5</data>
    </edge>
    <edge source="n0" target="n13">
      <data key="e_weight">8</data>
    </edge>
    <edge source="n0" target="n14">
      <data key="e_weight">3</data>
    </edge>
    <edge source="n0" target="n15">
      <data key="e_weight">7</data>
    </edge>
    <edge source="n0" target="n16">
      <data key="e_weight">3</data>
    </edge>
    <edge source="n0" target="n17">
      <data key="e_weight">4</data>
    </edge>
    <edge source="n0" target="n18">
      <data key="e_weight">1</data>
    </edge>
    <edge source="n0" target="n19">
      <data key="e_weight">1</data>
    </edge>
    <edge source="n1" target="n0">
      <data key="e_weight">15</data>
    </edge>
    <edge source="n1" target="n1">
      <data key="e_weight">26</data>
    </edge>
    <edge source="n1" target="n2">
      <data key="e_weight">14</data>
    </edge>
    <edge source="n1" target="n3">
      <data key="e_weight">7</data>
    </edge>
    <edge source="n1" target="n4">
      <data key="e_weight">2</data>
    </edge>
    <edge source="n1" target="n5">
      <data key="e_weight">4</data>
    </edge>
    <edge source="n1" target="n6">
      <data key="e_weight">2</data>
    </edge>
    <edge source="n1" target="n7">
      <data key="e_weight">7</data>
    </edge>
    <edge source="n1" target="n8">
      <data key="e_weight">3</data>
    </edge>
    <edge source="n1" target="n9">
      <data key="e_weight">6</data>
    </edge>
    <edge source="n1" target="n10">
      <data key="e_weight">3</data>
    </edge>
    <edge source="n1" target="n11">
      <data key="e_weight">5</data>
    </edge>
    <edge source="n1" target="n12">
      <data key="e_weight">3</data>
    </edge>
    <edge source="n1" target="n13">
      <data key="e_weight">5</data>
    </edge>
    <edge source="n1" target="n14">
      <data key="e_weight">1</data>
    </edge>
    <edge source="n1" target="n15">
      <data key="e_weight">6</data>
    </edge>
    <edge source="n1" target="n16">
      <data key="e_weight">2</data>
    </edge>
    <edge source="n1" target="n17">
      <data key="e_weight">2</data>
    </edge>
    <edge source="n2" target="n0">
      <data key="e_weight">20</data>
    </edge>
    <edge source="n2" target="n1">
      <data key="e_weight">14</data>
    </edge>
    <edge source="n2" target="n2">
      <data key="e_weight">29</data>
    </edge>
    <edge source="n2" target="n3">
      <data key="e_weight">8</data>
    </edge>
    <edge source="n2" target="n4">
      <data key="e_weight">2</data>
    </edge>
    <edge source="n2" target="n5">
      <data key="e_weight">6</data>
    </edge>
    <edge source="n2" target="n6">
      <data key="e_weight">2</data>
    </edge>
    <edge source="n2" target="n7">
      <data key="e_weight">8</data>
    </edge>
    <edge source="n2" target="n8">
      <data key="e_weight">7</data>
    </edge>
    <edge source="n2" target="n9">
      <data key="e_weight">8</data>
    </edge>
    <edge source="n2" target="n10">
      <data key="e_weight">5</data>
    </edge>
    <edge source="n2" target="n11">
      <data key="e_weight">8</data>
    </edge>
    <edge source="n2" target="n12">
      <data key="e_weight">4</data>
    </edge>
    <edge source="n2" target="n13">
      <data key="e_weight">8</data>
    </edge>
    <edge source="n2" target="n14">
      <data key="e_weight">2</data>
    </edge>
    <edge source="n2" target="n15">
      <data key="e_weight">5</data>
    </edge>
    <edge source="n2" target="n16">
      <data key="e_weight">4</data>
    </edge>
    <edge source="n2" target="n17">
      <data key="e_weight">3</data>
    </edge>
    <edge source="n2" target="n18">
      <data key="e_weight">1</data>
    </edge>
    <edge source="n2" target="n19">
      <data key="e_weight">1</data>
    </edge>
    <edge source="n3" target="n0">
      <data key="e_weight">6</data>
    </edge>
    <edge source="n3" target="n1">
      <data key="e_weight">7</data>
    </edge>
    <edge source="n3" target="n2">
      <data key="e_weight">8</data>
    </edge>
    <edge source="n3" target="n3">
      <data key="e_weight">16</data>
    </edge>
    <edge source="n3" target="n4">
      <data key="e_weight">1</data>
    </edge>
    <edge source="n3" target="n5">
      <data key="e_weight">2</data>
    </edge>
    <edge source="n3" target="n6">
      <data key="e_weight">2</data>
    </edge>
    <edge source="n3" target="n7">
      <data key="e_weight">5</data>
    </edge>
    <edge source="n3" target="n8">
      <data key="e_weight">2</data>
    </edge>
    <edge source="n3" target="n9">
      <data key="e_weight">1</data>
    </edge>
    <edge source="n3" target="n10">
      <data key="e_weight">1</data>
    </edge>
    <edge source="n3" target="n11">
      <data key="e_weight">5</data>
    </edge>
    <edge source="n3" target="n12">
      <data key="e_weight">2</data>
    </edge>
    <edge source="n3" target="n13">
      <data key="e_weight">3</data>
    </edge>
    <edge source="n3" target="n14">
      <data key="e_weight">1</data>
    </edge>
    <edge source="n3" target="n15">
      <data key="e_weight">3</data>
    </edge>
    <edge source="n3" target="n16">
      <data key="e_weight">3</data>
    </edge>
    <edge source="n4" target="n0">
      <data key="e_weight">5</data>
    </edge>
    <edge source="n4" target="n1">
      <data key="e_weight">2</data>
    </edge>
    <edge source="n4" target="n2">
      <data key="e_weight">2</data>
    </edge>
    <edge source="n4" target="n3">
      <data key="e_weight">1</data>
    </edge>
    <edge source="n4" target="n4">
      <data key="e_weight">8</data>
    </edge>
    <edge source="n4" target="n5">
      <data key="e_weight">1</data>
    </edge>
    <edge source="n4" target="n7">
      <data key="e_weight">1</data>
    </edge>
    <edge source="n4" target="n8">
      <data key="e_weight">1</data>
    </edge>
    <edge source="n4" target="n9">
      <data key="e_weight">1</data>
    </edge>
    <edge source="n4" target="n10">
      <data key="e_weight">1</data>
    </edge>
    <edge source="n4" target="n11">
      <data key="e_weight">1</data>
    </edge>
    <edge source="n4" target="n12">
      <data key="e_weight">1</data>
    </edge>
    <edge source="n4" target="n13">
      <data key="e_weight">1</data>
    </edge>
    <edge source="n4" target="n14">
      <data key="e_weight">1</data>
    </edge>
    <edge source="n4" target="n15">
      <data key="e_weight">1</data>
    </edge>
    <edge source="n4" target="n16">
      <data key="e_weight">1</data>
    </edge>
    <edge source="n4" target="n18">
      <data key="e_weight">1</data>
    </edge>
    <edge source="n4" target="n19">
      <data key="e_weight">1</data>
    </edge>
    <edge source="n5" target="n0">
      <data key="e_weight">5</data>
    </edge>
    <edge source="n5" target="n1">
      <data key="e_weight">4</data>
    </edge>
    <edge source="n5" target="n2">
      <data key="e_weight">6</data>
    </edge>
    <edge source="n5" target="n3">
      <data key="e_weight">2</data>
    </edge>
    <edge source="n5" target="n4">
      <data key="e_weight">1</data>
    </edge>
    <edge source="n5" target="n5">
      <data key="e_weight">14</data>
    </edge>
    <edge source="n5" target="n7">
      <data key="e_weight">3</data>
    </edge>
    <edge source="n5" target="n8">
      <data key="e_weight">1</data>
    </edge>
    <edge source="n5" target="n9">
      <data key="e_weight">2</data>
    </edge>
    <edge source="n5" target="n11">
      <data key="e_weight">1</data>
    </edge>
    <edge source="n5" target="n12">
      <data key="e_weight">2</data>
    </edge>
    <edge source="n5" target="n13">
      <data key="e_weight">3</data>
    </edge>
    <edge source="n5" target="n14">
      <data key="e_weight">2</data>
    </edge>
    <edge source="n5" target="n15">
      <data key="e_weight">1</data>
    </edge>
    <edge source="n5" target="n16">
      <data key="e_weight">2</data>
    </edge>
    <edge source="n6" target="n0">
      <data key="e_weight">4</data>
    </edge>
    <edge source="n6" target="n1">
      <data key="e_weight">2</data>
    </edge>
    <edge source="n6" target="n2">
      <data key="e_weight">2</data>
    </edge>
    <edge source="n6" target="n3">
      <data key="e_weight">2</data>
    </edge>
    <edge source="n6" target="n6">
      <data key="e_weight">17</data>
    </edge>
    <edge source="n6" target="n7">
      <data key="e_weight">2</data>
    </edge>
    <edge source="n6" target="n8">
      <data key="e_weight">1</data>
    </edge>
    <edge source="n6" target="n9">
      <data key="e_weight">1</data>
    </edge>
    <edge source="n6" target="n10">
      <data key="e_weight">1</data>
    </edge>
    <edge source="n6" target="n11">
      <data key="e_weight">2</data>
    </edge>
    <edge source="n6" target="n12">
      <data key="e_weight">1</data>
    </edge>
    <edge source="n6" target="n13">
      <data key="e_weight">1</data>
    </edge>
    <edge source="n6" target="n15">
      <data key="e_weight">2</data>
    </edge>
    <edge source="n6" target="n16">
      <data key="e_weight">2</data>
    </edge>
    <edge source="n6" target="n17">
      <data key="e_weight">1</data>
    </edge>
    <edge source="n7" target="n0">
      <data key="e_weight">9</data>
    </edge>
    <edge source="n7" target="n1">
      <data key="e_weight">7</data>
    </edge>
    <edge source="n7" target="n2">
      <data key="e_weight">8</data>
    </edge>
    <edge source="n7" target="n3">
      <data key="e_weight">5</data>
    </edge>
    <edge source="n7" target="n4">
      <data key="e_weight">1</data>
    </edge>
    <edge source="n7" target="n5">
      <data key="e_weight">3</data>
    </edge>
    <edge source="n7" target="n6">
      <data key="e_weight">2</data>
    </edge>
    <edge source="n7" target="n7">
      <data key="e_weight">17</data>
    </edge>
    <edge source="n7" target="n8">
      <data key="e_weight">1</data>
    </edge>
    <edge source="n7" target="n9">
      <data key="e_weight">1</data>
    </edge>
    <edge source="n7" target="n10">
      <data key="e_weight">2</data>
    </edge>
    <edge source="n7" target="n11">
      <data key="e_weight">5</data>
    </edge>
    <edge source="n7" target="n12">
      <data key="e_weight">8</data>
    </edge>
    <edge source="n7" target="n13">
      <data key="e_weight">3</data>
    </edge>
    <edge source="n7" target="n14">
      <data key="e_weight">1</data>
    </edge>
    <edge source="n7" target="n15">
      <data key="e_weight">7</data>
    </edge>
    <edge source="n7" target="n16">
      <data key="e_weight">2</data>
    </edge>
    <edge source="n7" target="n17">
      <data key="e_weight">3</data>
    </edge>
    <edge source="n8" target="n0">
      <data key="e_weight">7</data>
    </edge>
    <edge source="n8" target="n1">
      <data key="e_weight">3</data>
    </edge>
    <edge source="n8" target="n2">
      <data key="e_weight">7</data>
    </edge>
    <edge source="n8" target="n3">
      <data key="e_weight">2</data>
    </edge>
    <edge source="n8" target="n4">
      <data key="e_weight">1</data>
    </edge>
    <edge source="n8" target="n5">
      <data key="e_weight">1</data>
    </edge>
    <edge source="n8" target="n6">
      <data key="e_weight">1</data>
    </edge>
    <edge source="n8" target="n7">
      <data key="e_weight">1</data>
    </edge>
    <edge source="n8" target="n8">
      <data key="e_weight">24</data>
    </edge>
    <edge source="n8" target="n9">
      <data key="e_weight">2</data>
    </edge>
    <edge source="n8" target="n10">
      <data key="e_weight">2</data>
    </edge>
    <edge source="n8" target="n11">
      <data key="e_weight">3</data>
    </edge>
    <edge source="n8" target="n13">
      <data key="e_weight">2</data>
    </edge>
    <edge source="n8" target="n15">
      <data key="e_weight">1</data>
    </edge>
    <edge source="n8" target="n16">
      <data key="e_weight">2</data>
    </edge>
    <edge source="n8" target="n18">
      <data key="e_weight">1</data>
    </edge>
    <edge source="n8" target="n19">
      <data key="e_weight">1</data>
    </edge>
    <edge source="n9" target="n0">
      <data key="e_weight">8</data>
    </edge>
    <edge source="n9" target="n1">
      <data key="e_weight">6</data>
    </edge>
    <edge source="n9" target="n2">
      <data key="e_weight">8</data>
    </edge>
    <edge source="n9" target="n3">
      <data key="e_weight">1</data>
    </edge>
    <edge source="n9" target="n4">
      <data key="e_weight">1</data>
    </edge>
    <edge source="n9" target="n5">
      <data key="e_weight">2</data>
    </edge>
    <edge source="n9" target="n6">
      <data key="e_weight">1</data>
    </edge>
    <edge source="n9" target="n7">
      <data key="e_weight">1</data>
    </edge>
    <edge source="n9" target="n8">
      <data key="e_weight">2</data>
    </edge>
    <edge source="n9" target="n9">
      <data key="e_weight">18</data>
    </edge>
    <edge source="n9" target="n10">
      <data key="e_weight">2</data>
    </edge>
    <edge source="n9" target="n11">
      <data key="e_weight">4</data>
    </edge>
    <edge source="n9" target="n12">
      <data key="e_weight">1</data>
    </edge>
    <edge source="n9" target="n13">
      <data key="e_weight">4</data>
    </edge>
    <edge source="n9" target="n14">
      <data key="e_weight">1</data>
    </edge>
    <edge source="n9" target="n15">
      <data key="e_weight">1</data>
    </edge>
    <edge source="n9" target="n16">
      <data key="e_weight">1</data>
    </edge>
    <edge source="n9" target="n17">
      <data key="e_weight">3</data>
    </edge>
    <edge source="n9" target="n18">
      <data key="e_weight">1</data>
    </edge>
    <edge source="n9" target="n19">
      <data key="e_weight">1</data>
    </edge>
    <edge source="n10" target="n0">
      <data key="e_weight">5</data>
    </edge>
    <edge source="n10" target="n1">
      <data key="e_weight">3</data>
    </edge>
    <edge source="n10" target="n2">
      <data key="e_weight">5</data>
    </edge>
    <edge source="n10" target="n3">
      <data key="e_weight">1</data>
    </edge>
    <edge source="n10" target="n4">
      <data key="e_weight">1</data>
    </edge>
    <edge source="n10" target="n6">
      <data key="e_weight">1</data>
    </edge>
    <edge source="n10" target="n7">
      <data key="e_weight">2</data>
    </edge>
    <edge source="n10" target="n8">
      <data key="e_weight">2</data>
    </edge>
    <edge source="n10" target="n9">
      <data key="e_weight">2</data>
    </edge>
    <edge source="n10" target="n10">
      <data key="e_weight">8</data>
    </edge>
    <edge source="n10" target="n11">
      <data key="e_weight">3</data>
    </edge>
    <edge source="n10" target="n12">
      <data key="e_weight">1</data>
    </edge>
    <edge source="n10" target="n13">
      <data key="e_weight">1</data>
    </edge>
    <edge source="n10" target="n15">
      <data key="e_weight">2</data>
    </edge>
    <edge source="n10" target="n16">
      <data key="e_weight">1</data>
    </edge>
    <edge source="n10" target="n17">
      <data key="e_weight">1</data>
    </edge>
    <edge source="n10" target="n18">
      <data key="e_weight">1</data>
    </edge>
    <edge source="n10" target="n19">
      <data key="e_weight">1</data>
    </edge>
    <edge source="n11" target="n0">
      <data key="e_weight">8</data>
    </edge>
    <edge source="n11" target="n1">
      <data key="e_weight">5</data>
    </edge>
    <edge source="n11" target="n2">
      <data key="e_weight">8</data>
    </edge>
    <edge source="n11" target="n3">
      <data key="e_weight">5</data>
    </edge>
    <edge source="n11" target="n4">
      <data key="e_weight">1</data>
    </edge>
    <edge source="n11" target="n5">
      <data key="e_weight">1</data>
    </edge>
    <edge source="n11" target="n6">
      <data key="e_weight">2</data>
    </edge>
    <edge source="n11" target="n7">
      <data key="e_weight">5</data>
    </edge>
    <edge source="n11" target="n8">
      <data key="e_weight">3</data>
    </edge>
    <edge source="n11" target="n9">
      <data key="e_weight">4</data>
    </edge>
    <edge source="n11" target="n10">
      <data key="e_weight">3</data>
    </edge>
    <edge source="n11" target="n11">
      <data key="e_weight">13</data>
    </edge>
    <edge source="n11" target="n12">
      <data key="e_weight">3</data>
    </edge>
    <edge source="n11" target="n13">
      <data key="e_weight">5</data>
    </edge>
    <edge source="n11" target="n14">
      <data key="e_weight">1</data>
    </edge>
    <edge source="n11" target="n15">
      <data key="e_weight">4</data>
    </edge>
    <edge source="n11" target="n16">
      <data key="e_weight">4</data>
    </edge>
    <edge source="n11" target="n17">
      <data key="e_weight">2</data>
    </edge>
    <edge source="n11" target="n18">
      <data key="e_weight">1</data>
    </edge>
    <edge source="n11" target="n19">
      <data key="e_weight">1</data>
    </edge>
    <edge source="n12" target="n0">
      <data key="e_weight">5</data>
    </edge>
    <edge source="n12" target="n1">
      <data key="e_weight">3</data>
    </edge>
    <edge source="n12" target="n2">
      <data key="e_weight">4</data>
    </edge>
    <edge source="n12" target="n3">
      <data key="e_weight">2</data>
    </edge>
    <edge source="n12" target="n4">
      <data key="e_weight">1</data>
    </edge>
    <edge source="n12" target="n5">
      <data key="e_weight">2</data>
    </edge>
    <edge source="n12" target="n6">
      <data key="e_weight">1</data>
    </edge>
    <edge source="n12" target="n7">
      <data key="e_weight">8</data>
    </edge>
    <edge source="n12" target="n9">
      <data key="e_weight">1</data>
    </edge>
    <edge source="n12" target="n10">
      <data key="e_weight">1</data>
    </edge>
    <edge source="n12" target="n11">
      <data key="e_weight">3</data>
    </edge>
    <edge source="n12" target="n12">
      <data key="e_weight">18</data>
    </edge>
    <edge source="n12" target="n13">
      <data key="e_weight">2</data>
    </edge>
    <edge source="n12" target="n14">
      <data key="e_weight">3</data>
    </edge>
    <edge source="n12" target="n15">
      <data key="e_weight">6</data>
    </edge>
    <edge source="n12" target="n16">
      <data key="e_weight">2</data>
    </edge>
    <edge source="n12" target="n17">
      <data key="e_weight">2</data>
    </edge>
    <edge source="n13" target="n0">
      <data key="e_weight">8</data>
    </edge>
    <edge source="n13" target="n1">
      <data key="e_weight">5</data>
    </edge>
    <edge source="n13" target="n2">
      <data key="e_weight">8</data>
    </edge>
    <edge source="n13" target="n3">
      <data key="e_weight">3</data>
    </edge>
    <edge source="n13" target="n4">
      <data key="e_weight">1</data>
    </edge>
    <edge source="n13" target="n5">
      <data key="e_weight">3</data>
    </edge>
    <edge source="n13" target="n6">
      <data key="e_weight">1</data>
    </edge>
    <edge source="n13" target="n7">
      <data key="e_weight">3</data>
    </edge>
    <edge source="n13" target="n8">
      <data key="e_weight">2</data>
    </edge>
    <edge source="n13" target="n9">
      <data key="e_weight">4</data>
    </edge>
    <edge source="n13" target="n10">
      <data key="e_weight">1</data>
    </edge>
    <edge source="n13" target="n11">
      <data key="e_weight">5</data>
    </edge>
    <edge source="n13" target="n12">
      <data key="e_weight">2</data>
    </edge>
    <edge source="n13" target="n13">
      <data key="e_weight">23</data>
    </edge>
    <edge source="n13" target="n14">
      <data key="e_weight">3</data>
    </edge>
    <edge source="n13" target="n15">
      <data key="e_weight">3</data>
    </edge>
    <edge source="n13" target="n16">
      <data key="e_weight">4</data>
    </edge>
    <edge source="n13" target="n17">
      <data key="e_weight">2</data>
    </edge>
    <edge source="n13" target="n18">
      <data key="e_weight">1</data>
    </edge>
    <edge source="n13" target="n19">
      <data key="e_weight">1</data>
    </edge>
    <edge source="n14" target="n0">
      <data key="e_weight">3</data>
    </edge>
    <edge source="n14" target="n1">
      <data key="e_weight">1</data>
    </edge>
    <edge source="n14" target="n2">
      <data key="e_weight">2</data>
    </edge>
    <edge source="n14" target="n3">
      <data key="e_weight">1</data>
    </edge>
    <edge source="n14" target="n4">
      <data key="e_weight">1</data>
    </edge>
    <edge source="n14" target="n5">
      <data key="e_weight">2</data>
    </edge>
    <edge source="n14" target="n7">
      <data key="e_weight">1</data>
    </edge>
    <edge source="n14" target="n9">
      <data key="e_weight">1</data>
    </edge>
    <edge source="n14" target="n11">
      <data key="e_weight">1</data>
    </edge>
    <edge source="n14" target="n12">
      <data key="e_weight">3</data>
    </edge>
    <edge source="n14" target="n13">
      <data key="e_weight">3</data>
    </edge>
    <edge source="n14" target="n14">
      <data key="e_weight">11</data>
    </edge>
    <edge source="n14" target="n15">
      <data key="e_weight">3</data>
    </edge>
    <edge source="n14" target="n16">
      <data key="e_weight">1</data>
    </edge>
    <edge source="n15" target="n0">
      <data key="e_weight">7</data>
    </edge>
    <edge source="n15" target="n1">
      <data key="e_weight">6</data>
    </edge>
    <edge source="n15" target="n2">
      <data key="e_weight">5</data>
    </edge>
    <edge source="n15" target="n3">
      <data key="e_weight">3</data>
    </edge>
    <edge source="n15" target="n4">
      <data key="e_weight">1</data>
    </edge>
    <edge source="n15" target="n5">
      <data key="e_weight">1</data>
    </edge>
    <edge source="n15" target="n6">
      <data key="e_weight">2</data>
    </edge>
    <edge source="n15" target="n7">
      <data key="e_weight">7</data>
    </edge>
    <edge source="n15" target="n8">
      <data key="e_weight">1</data>
    </edge>
    <edge source="n15" target="n9">
      <data key="e_weight">1</data>
    </edge>
    <edge source="n15" target="n10">
      <data key="e_weight">2</data>
    </edge>
    <edge source="n15" target="n11">
      <data key="e_weight">4</data>
    </edge>
    <edge source="n15" target="n12">
      <data key="e_weight">6</data>
    </edge>
    <edge source="n15" target="n13">
      <data key="e_weight">3</data>
    </edge>
    <edge source="n15" target="n14">
      <data key="e_weight">3</data>
    </edge>
    <edge source="n15" target="n15">
      <data key="e_weight">16</data>
    </edge>
    <edge source="n15" target="n16">
      <data key="e_weight">3</data>
    </edge>
    <edge source="n15" target="n17">
      <data key="e_weight">1</data>
    </edge>
    <edge source="n16" target="n0">
      <data key="e_weight">3</data>
    </edge>
    <edge source="n16" target="n1">
      <data key="e_weight">2</data>
    </edge>
    <edge source="n16" target="n2">
      <data key="e_weight">4</data>
    </edge>
    <edge source="n16" target="n3">
      <data key="e_weight">3</data>
    </edge>
    <edge source="n16" target="n4">
      <data key="e_weight">1</data>
    </edge>
    <edge source="n16" target="n5">
      <data key="e_weight">2</data>
    </edge>
    <edge source="n16" target="n6">
      <data key="e_weight">2</data>
    </edge>
    <edge source="n16" target="n7">
      <data key="e_weight">2</data>
    </edge>
    <edge source="n16" target="n8">
      <data key="e_weight">2</data>
    </edge>
    <edge source="n16" target="n9">
      <data key="e_weight">1</data>
    </edge>
    <edge source="n16" target="n10">
      <data key="e_weight">1</data>
    </edge>
    <edge source="n16" target="n11">
      <data key="e_weight">4</data>
    </edge>
    <edge source="n16" target="n12">
      <data key="e_weight">2</data>
    </edge>
    <edge source="n16" target="n13">
      <data key="e_weight">4</data>
    </edge>
    <edge source="n16" target="n14">
      <data key="e_weight">1</data>
    </edge>
    <edge source="n16" target="n15">
      <data key="e_weight">3</data>
    </edge>
    <edge source="n16" target="n16">
      <data key="e_weight">21</data>
    </edge>
    <edge source="n16" target="n17">
      <data key="e_weight">1</data>
    </edge>
    <edge source="n16" target="n18">
      <data key="e_weight">2</data>
    </edge>
    <edge source="n16" target="n19">
      <data key="e_weight">1</data>
    </edge>
    <edge source="n17" target="n0">
      <data key="e_weight">4</data>
    </edge>
    <edge source="n17" target="n1">
      <data key="e_weight">2</data>
    </edge>
    <edge source="n17" target="n2">
      <data key="e_weight">3</data>
    </edge>
    <edge source="n17" target="n6">
      <data key="e_weight">1</data>
    </edge>
    <edge source="n17" target="n7">
      <data key="e_weight">3</data>
    </edge>
    <edge source="n17" target="n9">
      <data key="e_weight">3</data>
    </edge>
    <edge source="n17" target="n10">
      <data key="e_weight">1</data>
    </edge>
    <edge source="n17" target="n11">
      <data key="e_weight">2</data>
    </edge>
    <edge source="n17" target="n12">
      <data key="e_weight">2</data>
    </edge>
    <edge source="n17" target="n13">
      <data key="e_weight">2</data>
    </edge>
    <edge source="n17" target="n15">
      <data key="e_weight">1</data>
    </edge>
    <edge source="n17" target="n16">
      <data key="e_weight">1</data>
    </edge>
    <edge source="n17" target="n17">
      <data key="e_weight">29</data>
    </edge>
    <edge source="n17" target="n18">
      <data key="e_weight">1</data>
    </edge>
    <edge source="n18" target="n0">
      <data key="e_weight">1</data>
    </edge>
    <edge source="n18" target="n2">
      <data key="e_weight">1</data>
    </edge>
    <edge source="n18" target="n4">
      <data key="e_weight">1</data>
    </edge>
    <edge source="n18" target="n8">
      <data key="e_weight">1</data>
    </edge>
    <edge source="n18" target="n9">
      <data key="e_weight">1</data>
    </edge>
    <edge source="n18" target="n10">
      <data key="e_weight">1</data>
    </edge>
    <edge source="n18" target="n11">
      <data key="e_weight">1</data>
    </edge>
    <edge source="n18" target="n13">
      <data key="e_weight">1</data>
    </edge>
    <edge source="n18" target="n16">
      <data key="e_weight">2</data>
    </edge>
    <edge source="n18" target="n17">
      <data key="e_weight">1</data>
    </edge>
    <edge source="n18" target="n18">
      <data key="e_weight">8</data>
    </edge>
    <edge source="n18" target="n19">
      <data key="e_weight">1</data>
    </edge>
    <edge source="n19" target="n0">
      <data key="e_weight">1</data>
    </edge>
    <edge source="n19" target="n2">
      <data key="e_weight">1</data>
    </edge>
    <edge source="n19" target="n4">
      <data key="e_weight">1</data>
    </edge>
    <edge source="n19" target="n8">
      <data key="e_weight">1</data>
    </edge>
    <edge source="n19" target="n9">
      <data key="e_weight">1</data>
    </edge>
    <edge source="n19" target="n10">
      <data key="e_weight">1</data>
    </edge>
    <edge source="n19" target="n11">
      <data key="e_weight">1</data>
    </edge>
    <edge source="n19" target="n13">
      <data key="e_weight">1</data>
    </edge>
    <edge source="n19" target="n16">
      <data key="e_weight">1</data>
    </edge>
    <edge source="n19" target="n18">
      <data key="e_weight">1</data>
    </edge>
    <edge source="n19" target="n19">
      <data key="e_weight">11</data>
    </edge>
  </graph>
</graphml>
