[
    {
        "client_msg_id": "6f1011db-2721-4274-9a5d-8ed88fa9b75b",
        "type": "message",
        "text": "hi , I'm working on reusable masks, I am currently looking at chamois leather as a washable and reusable part of a 3d printed mask (because we can't order hepa filters at the moment). Chamois leather is a micro filter but I was wondering if anybody has more information about it, or other suggestions for alternative materials.",
        "user": "U010E79BQ2H",
        "ts": "1584699051.031900",
        "team": "TUU48M0T1",
        "user_team": "TUU48M0T1",
        "source_team": "TUU48M0T1",
        "user_profile": {
            "avatar_hash": "1bd20b0542f9",
            "image_72": "https:\/\/avatars.slack-edge.com\/2020-03-20\/1016004848167_1bd20b0542f911651971_72.jpg",
            "first_name": "",
            "real_name": "Koen Samyn",
            "display_name": "Koen Samyn",
            "team": "TUU48M0T1",
            "name": "koen.samyn",
            "is_restricted": false,
            "is_ultra_restricted": false
        },
        "blocks": [
            {
                "type": "rich_text",
                "block_id": "ULx",
                "elements": [
                    {
                        "type": "rich_text_section",
                        "elements": [
                            {
                                "type": "text",
                                "text": "hi , I'm working on reusable masks, I am currently looking at chamois leather as a washable and reusable part of a 3d printed mask (because we can't order hepa filters at the moment). Chamois leather is a micro filter but I was wondering if anybody has more information about it, or other suggestions for alternative materials."
                            }
                        ]
                    }
                ]
            }
        ]
    },
    {
        "client_msg_id": "f859ee68-bf6c-4be8-9e20-06ee982bd7e5",
        "type": "message",
        "text": "<@U010E79BQ2H> please join <#C0104ANKV4L|proj-mask-team>  !",
        "user": "U0106VDVAQ6",
        "ts": "1584699125.032400",
        "team": "TUU48M0T1",
        "user_team": "TUU48M0T1",
        "source_team": "TUU48M0T1",
        "user_profile": {
            "avatar_hash": "gcb646d37b14",
            "image_72": "https:\/\/secure.gravatar.com\/avatar\/cb646d37b14b4cc616c4ac5cf95808ed.jpg?s=72&d=https%3A%2F%2Fa.slack-edge.com%2Fdf10d%2Fimg%2Favatars%2Fava_0009-72.png",
            "first_name": "",
            "real_name": "Evita",
            "display_name": "",
            "team": "TUU48M0T1",
            "name": "evi",
            "is_restricted": false,
            "is_ultra_restricted": false
        },
        "blocks": [
            {
                "type": "rich_text",
                "block_id": "sjZDS",
                "elements": [
                    {
                        "type": "rich_text_section",
                        "elements": [
                            {
                                "type": "user",
                                "user_id": "U010E79BQ2H"
                            },
                            {
                                "type": "text",
                                "text": " please join "
                            },
                            {
                                "type": "channel",
                                "channel_id": "C0104ANKV4L"
                            },
                            {
                                "type": "text",
                                "text": "  !"
                            }
                        ]
                    }
                ]
            }
        ]
    },
    {
        "client_msg_id": "922e844b-ec69-4253-a410-bd9fe1b3a9c6",
        "type": "message",
        "text": "<!channel> - I just posted a bunch of resources on sewing DIY face masks in <#CURQC583E|random>. Seems like the CDC is on fully board with using cloth face masks in emergency situations, so this may be one of the fastest way to relieve hospital shortages right now...",
        "user": "U0102NEMRTR",
        "ts": "1584737192.035300",
        "team": "TUU48M0T1",
        "user_team": "TUU48M0T1",
        "source_team": "TUU48M0T1",
        "user_profile": {
            "avatar_hash": "g6072d132593",
            "image_72": "https:\/\/secure.gravatar.com\/avatar\/6072d132593acb6de99356666ff0ed9e.jpg?s=72&d=https%3A%2F%2Fa.slack-edge.com%2Fdf10d%2Fimg%2Favatars%2Fava_0008-72.png",
            "first_name": "",
            "real_name": "Patrik D'haeseleer",
            "display_name": "Patrik D'haeseleer",
            "team": "TUU48M0T1",
            "name": "patrikd",
            "is_restricted": false,
            "is_ultra_restricted": false
        },
        "blocks": [
            {
                "type": "rich_text",
                "block_id": "FlRTd",
                "elements": [
                    {
                        "type": "rich_text_section",
                        "elements": [
                            {
                                "type": "broadcast",
                                "range": "channel"
                            },
                            {
                                "type": "text",
                                "text": " - I just posted a bunch of resources on sewing DIY face masks in "
                            },
                            {
                                "type": "channel",
                                "channel_id": "CURQC583E"
                            },
                            {
                                "type": "text",
                                "text": ". Seems like the CDC is on fully board with using cloth face masks in emergency situations, so this may be one of the fastest way to relieve hospital shortages right now..."
                            }
                        ]
                    }
                ]
            }
        ],
        "reactions": [
            {
                "name": "+1",
                "users": [
                    "UV8AZ6ABC"
                ],
                "count": 1
            }
        ]
    }
]