[
    {
        "client_msg_id": "121c0ec4-2b42-40b6-b105-ab96b1f647db",
        "type": "message",
        "text": "We have some wild ideas going on in <#C010001FZ6J|proj-humidity-anti-covid19-shield> We're exploring the feasibility of creating a personal protective environment. So far the discussions have been about possible advantages of air enhancement with humidity and salinity. Lotion is  an interesting idea. Please share :)",
        "user": "UV20M5HGQ",
        "ts": "1584912099.005300",
        "team": "TUU48M0T1",
        "user_team": "TUU48M0T1",
        "source_team": "TUU48M0T1",
        "user_profile": {
            "avatar_hash": "de7ea7b7e14e",
            "image_72": "https:\/\/avatars.slack-edge.com\/2020-03-11\/981865374050_de7ea7b7e14e7b4316b9_72.jpg",
            "first_name": "",
            "real_name": "Vesta Korniakova",
            "display_name": "Vesta Korniakova",
            "team": "TUU48M0T1",
            "name": "riboswitchvesta",
            "is_restricted": false,
            "is_ultra_restricted": false
        },
        "blocks": [
            {
                "type": "rich_text",
                "block_id": "WU8Q",
                "elements": [
                    {
                        "type": "rich_text_section",
                        "elements": [
                            {
                                "type": "text",
                                "text": "We have some wild ideas going on in "
                            },
                            {
                                "type": "channel",
                                "channel_id": "C010001FZ6J"
                            },
                            {
                                "type": "text",
                                "text": " We're exploring the feasibility of creating a personal protective environment. So far the discussions have been about possible advantages of air enhancement with humidity and salinity. Lotion is  an interesting idea. Please share :)"
                            }
                        ]
                    }
                ]
            }
        ],
        "thread_ts": "1584780207.001100",
        "parent_user_id": "U01081Y0TBP"
    }
]