[
    {
        "client_msg_id": "a81c9143-08ba-4185-8a01-5a0d667ef6f6",
        "type": "message",
        "text": "I dont know but we can create it",
        "user": "U010PN4GWPK",
        "ts": "1585920859.007600",
        "team": "TUU48M0T1",
        "user_team": "TUU48M0T1",
        "source_team": "TUU48M0T1",
        "user_profile": {
            "avatar_hash": "14d13b9be84d",
            "image_72": "https:\/\/avatars.slack-edge.com\/2020-04-01\/1029918745154_14d13b9be84d654b871f_72.png",
            "first_name": "",
            "real_name": "Intensify World",
            "display_name": "Intensify World",
            "team": "TUU48M0T1",
            "name": "lfad.eeic",
            "is_restricted": false,
            "is_ultra_restricted": false
        },
        "blocks": [
            {
                "type": "rich_text",
                "block_id": "v3LY",
                "elements": [
                    {
                        "type": "rich_text_section",
                        "elements": [
                            {
                                "type": "text",
                                "text": "I dont know but we can create it"
                            }
                        ]
                    }
                ]
            }
        ]
    }
]