[
    {
        "client_msg_id": "521948D2-E3A3-436A-8172-09712AE4865A",
        "type": "message",
        "text": "Interesting, what kind of disabled? I’ll look out for more details. Thx for including me. ",
        "user": "UV8FL0JCA",
        "ts": "1588352283.000900",
        "team": "TUU48M0T1",
        "user_team": "TUU48M0T1",
        "source_team": "TUU48M0T1",
        "user_profile": {
            "avatar_hash": "920c820f5900",
            "image_72": "https:\/\/avatars.slack-edge.com\/2020-03-17\/1009529536646_920c820f5900215fb339_72.jpg",
            "first_name": "Eric",
            "real_name": "Eric Chaves",
            "display_name": "Eric Chaves",
            "team": "TUU48M0T1",
            "name": "eric.chaves.llc",
            "is_restricted": false,
            "is_ultra_restricted": false
        },
        "blocks": [
            {
                "type": "rich_text",
                "block_id": "fBL4",
                "elements": [
                    {
                        "type": "rich_text_section",
                        "elements": [
                            {
                                "type": "text",
                                "text": "Interesting, what kind of disabled? I’ll look out for more details. Thx for including me. "
                            }
                        ]
                    }
                ]
            }
        ]
    }
]