[
    {
        "type": "message",
        "subtype": "channel_join",
        "ts": "1587568900.000200",
        "user": "UV9V03C8Y",
        "text": "<@UV9V03C8Y> has joined the channel"
    },
    {
        "type": "message",
        "subtype": "channel_purpose",
        "ts": "1587568901.000300",
        "user": "UV9V03C8Y",
        "text": "<@UV9V03C8Y> set the channel purpose: Find here all essential documents to navigate this initiative and collaborate efficiently. Point of contact: <@UV9V03C8Y>",
        "purpose": "Find here all essential documents to navigate this initiative and collaborate efficiently. Point of contact: <@UV9V03C8Y>",
        "reactions": [
            {
                "name": "first_place_medal",
                "users": [
                    "UV87UQ37A"
                ],
                "count": 1
            }
        ]
    },
    {
        "type": "message",
        "subtype": "channel_join",
        "ts": "1587568946.000500",
        "user": "UV02WET96",
        "text": "<@UV02WET96> has joined the channel",
        "inviter": "UV9V03C8Y"
    },
    {
        "type": "message",
        "subtype": "channel_join",
        "ts": "1587568946.000700",
        "user": "UV0QTJCMT",
        "text": "<@UV0QTJCMT> has joined the channel",
        "inviter": "UV9V03C8Y"
    },
    {
        "type": "message",
        "subtype": "channel_join",
        "ts": "1587568946.000900",
        "user": "U011B6VLM2A",
        "text": "<@U011B6VLM2A> has joined the channel",
        "inviter": "UV9V03C8Y"
    },
    {
        "type": "message",
        "subtype": "channel_join",
        "ts": "1587568946.001100",
        "user": "U010Q3372P3",
        "text": "<@U010Q3372P3> has joined the channel",
        "inviter": "UV9V03C8Y"
    },
    {
        "type": "message",
        "subtype": "channel_join",
        "ts": "1587568947.001300",
        "user": "UV2SC7ZE3",
        "text": "<@UV2SC7ZE3> has joined the channel",
        "inviter": "UV9V03C8Y"
    },
    {
        "type": "message",
        "subtype": "channel_join",
        "ts": "1587568947.001500",
        "user": "UV87UQ37A",
        "text": "<@UV87UQ37A> has joined the channel",
        "inviter": "UV9V03C8Y"
    },
    {
        "type": "message",
        "subtype": "channel_topic",
        "ts": "1587568963.001600",
        "user": "UV9V03C8Y",
        "text": "<@UV9V03C8Y> set the channel topic: Find here all essential documents to navigate this initiative and collaborate efficiently. Point of contact: <@UV9V03C8Y>",
        "topic": "Find here all essential documents to navigate this initiative and collaborate efficiently. Point of contact: <@UV9V03C8Y>",
        "reactions": [
            {
                "name": "100",
                "users": [
                    "U010QHBTBPY"
                ],
                "count": 1
            }
        ]
    },
    {
        "type": "message",
        "text": ":face_with_monocle:*Are you new, lost? Do you have: an idea, a project, skills and time, resources?* \n\nFollow this step by step process! It's here to guide you!",
        "files": [
            {
                "id": "F012PRK9317",
                "created": 1587569493,
                "timestamp": 1587569493,
                "name": "I WANT TO HELP WITH COVID-19.pdf",
                "title": "I WANT TO HELP WITH COVID-19.pdf",
                "mimetype": "application\/pdf",
                "filetype": "pdf",
                "pretty_type": "PDF",
                "user": "UV9V03C8Y",
                "editable": false,
                "size": 42526,
                "mode": "hosted",
                "is_external": false,
                "external_type": "",
                "is_public": true,
                "public_url_shared": false,
                "display_as_bot": false,
                "username": "",
                "url_private": "https:\/\/files.slack.com\/files-pri\/TUU48M0T1-F012PRK9317\/i_want_to_help_with_covid-19.pdf?t=xoxe-980144714919-1133254701825-1120841107731-daf595b5a7d6c9028b0b02a925032e36",
                "url_private_download": "https:\/\/files.slack.com\/files-pri\/TUU48M0T1-F012PRK9317\/download\/i_want_to_help_with_covid-19.pdf?t=xoxe-980144714919-1133254701825-1120841107731-daf595b5a7d6c9028b0b02a925032e36",
                "thumb_pdf": "https:\/\/files.slack.com\/files-tmb\/TUU48M0T1-F012PRK9317-477f7c35f7\/i_want_to_help_with_covid-19_thumb_pdf.png?t=xoxe-980144714919-1133254701825-1120841107731-daf595b5a7d6c9028b0b02a925032e36",
                "thumb_pdf_w": 1980,
                "thumb_pdf_h": 2640,
                "permalink": "https:\/\/open-covid19.slack.com\/files\/UV9V03C8Y\/F012PRK9317\/i_want_to_help_with_covid-19.pdf",
                "permalink_public": "https:\/\/slack-files.com\/TUU48M0T1-F012PRK9317-9ff646d3f1",
                "is_starred": false,
                "has_rich_preview": false
            }
        ],
        "upload": true,
        "blocks": [
            {
                "type": "rich_text",
                "block_id": "7HVe",
                "elements": [
                    {
                        "type": "rich_text_section",
                        "elements": [
                            {
                                "type": "emoji",
                                "name": "face_with_monocle"
                            },
                            {
                                "type": "text",
                                "text": "Are you new, lost? Do you have: an idea, a project, skills and time, resources? ",
                                "style": {
                                    "bold": true
                                }
                            },
                            {
                                "type": "text",
                                "text": "\n\nFollow this step by step process! It's here to guide you!"
                            }
                        ]
                    }
                ]
            }
        ],
        "user": "UV9V03C8Y",
        "display_as_bot": false,
        "ts": "1587569496.003000",
        "client_msg_id": "e75f8b95-33fe-4166-af6f-68f8a365a1e5",
        "reactions": [
            {
                "name": "pray",
                "users": [
                    "U01113Y1PLP",
                    "UVC9WMA7N"
                ],
                "count": 2
            }
        ]
    },
    {
        "type": "message",
        "text": ":face_with_monocle: *Looking for the list of all Slack channels, a repertoire of the opencovid 19 projects, and links to all the useful documents?* \n\nIt is just one click away! :point_right: Check this <https:\/\/docs.google.com\/spreadsheets\/d\/1gnka4rNOkY5DIgoUx5SkIMlFlKZEBTbj8aAIwvYuLuY\/edit#gid=0|Single source of Truth>!",
        "files": [
            {
                "id": "F012H7SRQG4",
                "created": 1587566757,
                "timestamp": 1587566757,
                "name": "Master-file_Opencovid19",
                "title": "Single Source of Truth -- Opencovid19",
                "mimetype": "application\/vnd.google-apps.spreadsheet",
                "filetype": "gsheet",
                "pretty_type": "GSuite Spreadsheet",
                "user": "UV9V03C8Y",
                "editable": false,
                "size": 515125,
                "mode": "external",
                "is_external": true,
                "external_type": "gdrive",
                "is_public": true,
                "public_url_shared": false,
                "display_as_bot": false,
                "username": "",
                "url_private": "https:\/\/docs.google.com\/spreadsheets\/d\/1gnka4rNOkY5DIgoUx5SkIMlFlKZEBTbj8aAIwvYuLuY\/edit#gid=1655667408",
                "thumb_64": "https:\/\/files.slack.com\/files-tmb\/TUU48M0T1-F012H7SRQG4-36955a1ab6\/master-file_opencovid19_64.png?t=xoxe-980144714919-1133254701825-1120841107731-daf595b5a7d6c9028b0b02a925032e36",
                "thumb_80": "https:\/\/files.slack.com\/files-tmb\/TUU48M0T1-F012H7SRQG4-36955a1ab6\/master-file_opencovid19_80.png?t=xoxe-980144714919-1133254701825-1120841107731-daf595b5a7d6c9028b0b02a925032e36",
                "thumb_360": "https:\/\/files.slack.com\/files-tmb\/TUU48M0T1-F012H7SRQG4-36955a1ab6\/master-file_opencovid19_360.png?t=xoxe-980144714919-1133254701825-1120841107731-daf595b5a7d6c9028b0b02a925032e36",
                "thumb_360_w": 254,
                "thumb_360_h": 360,
                "thumb_480": "https:\/\/files.slack.com\/files-tmb\/TUU48M0T1-F012H7SRQG4-36955a1ab6\/master-file_opencovid19_480.png?t=xoxe-980144714919-1133254701825-1120841107731-daf595b5a7d6c9028b0b02a925032e36",
                "thumb_480_w": 339,
                "thumb_480_h": 480,
                "thumb_160": "https:\/\/files.slack.com\/files-tmb\/TUU48M0T1-F012H7SRQG4-36955a1ab6\/master-file_opencovid19_160.png?t=xoxe-980144714919-1133254701825-1120841107731-daf595b5a7d6c9028b0b02a925032e36",
                "thumb_720": "https:\/\/files.slack.com\/files-tmb\/TUU48M0T1-F012H7SRQG4-36955a1ab6\/master-file_opencovid19_720.png?t=xoxe-980144714919-1133254701825-1120841107731-daf595b5a7d6c9028b0b02a925032e36",
                "thumb_720_w": 509,
                "thumb_720_h": 720,
                "thumb_800": "https:\/\/files.slack.com\/files-tmb\/TUU48M0T1-F012H7SRQG4-36955a1ab6\/master-file_opencovid19_800.png?t=xoxe-980144714919-1133254701825-1120841107731-daf595b5a7d6c9028b0b02a925032e36",
                "thumb_800_w": 800,
                "thumb_800_h": 1132,
                "thumb_960": "https:\/\/files.slack.com\/files-tmb\/TUU48M0T1-F012H7SRQG4-36955a1ab6\/master-file_opencovid19_960.png?t=xoxe-980144714919-1133254701825-1120841107731-daf595b5a7d6c9028b0b02a925032e36",
                "thumb_960_w": 678,
                "thumb_960_h": 960,
                "thumb_1024": "https:\/\/files.slack.com\/files-tmb\/TUU48M0T1-F012H7SRQG4-36955a1ab6\/master-file_opencovid19_1024.png?t=xoxe-980144714919-1133254701825-1120841107731-daf595b5a7d6c9028b0b02a925032e36",
                "thumb_1024_w": 724,
                "thumb_1024_h": 1024,
                "image_exif_rotation": 1,
                "original_w": 1024,
                "original_h": 1449,
                "thumb_tiny": "AwAwACHQcvu+VkA9xTSZezx\/kf8AGnnG6g9KAuMPm\/3o\/wDvk\/40q+buG5kx6Af\/AF6ce1LQO4tFFFAhpxuoPAoIO7\/69B6c0CEPanCm9hThQAtFFFAxDnPX9KQ9P\/rUuOaCKBCelKKMH2oxQAtFFFAz\/9k=",
                "permalink": "https:\/\/open-covid19.slack.com\/files\/UV9V03C8Y\/F012H7SRQG4\/master-file_opencovid19",
                "is_starred": false,
                "external_id": "1gnka4rNOkY5DIgoUx5SkIMlFlKZEBTbj8aAIwvYuLuY",
                "external_url": "https:\/\/docs.google.com\/spreadsheets\/d\/1gnka4rNOkY5DIgoUx5SkIMlFlKZEBTbj8aAIwvYuLuY\/edit#gid=1655667408",
                "has_rich_preview": true
            }
        ],
        "upload": false,
        "blocks": [
            {
                "type": "rich_text",
                "block_id": "XQXzp",
                "elements": [
                    {
                        "type": "rich_text_section",
                        "elements": [
                            {
                                "type": "emoji",
                                "name": "face_with_monocle"
                            },
                            {
                                "type": "text",
                                "text": " "
                            },
                            {
                                "type": "text",
                                "text": "Looking for the list of all Slack channels, a repertoire of the opencovid 19 projects, and links to all the useful documents? ",
                                "style": {
                                    "bold": true
                                }
                            },
                            {
                                "type": "text",
                                "text": "\n\nIt is just one click away! "
                            },
                            {
                                "type": "emoji",
                                "name": "point_right"
                            },
                            {
                                "type": "text",
                                "text": " Check this "
                            },
                            {
                                "type": "link",
                                "url": "https:\/\/docs.google.com\/spreadsheets\/d\/1gnka4rNOkY5DIgoUx5SkIMlFlKZEBTbj8aAIwvYuLuY\/edit#gid=0",
                                "text": "Single source of Truth"
                            },
                            {
                                "type": "text",
                                "text": "!"
                            }
                        ]
                    }
                ]
            }
        ],
        "user": "UV9V03C8Y",
        "display_as_bot": false,
        "x_files": [
            "F012H7SRQG4"
        ],
        "ts": "1587569852.005700",
        "edited": {
            "user": "UV9V03C8Y",
            "ts": "1588593576.000000"
        },
        "client_msg_id": "0768af69-50f7-4000-bd85-96f295307a7f"
    },
    {
        "type": "message",
        "subtype": "channel_join",
        "ts": "1587571194.008700",
        "user": "U012BFUB3CK",
        "text": "<@U012BFUB3CK> has joined the channel"
    },
    {
        "type": "message",
        "subtype": "channel_join",
        "ts": "1587571306.008900",
        "user": "U0101DKUALV",
        "text": "<@U0101DKUALV> has joined the channel"
    },
    {
        "type": "message",
        "subtype": "channel_join",
        "ts": "1587573607.009100",
        "user": "U012Q25C31P",
        "text": "<@U012Q25C31P> has joined the channel"
    },
    {
        "type": "message",
        "subtype": "channel_join",
        "ts": "1587574305.009300",
        "user": "U010GFNDDL4",
        "text": "<@U010GFNDDL4> has joined the channel"
    },
    {
        "type": "message",
        "subtype": "channel_join",
        "ts": "1587574394.009500",
        "user": "U011D8T1Z61",
        "text": "<@U011D8T1Z61> has joined the channel"
    },
    {
        "type": "message",
        "subtype": "channel_join",
        "ts": "1587575885.009700",
        "user": "U010W2Z4MMZ",
        "text": "<@U010W2Z4MMZ> has joined the channel"
    },
    {
        "type": "message",
        "subtype": "channel_join",
        "ts": "1587587789.010000",
        "user": "U012C7ML7MZ",
        "text": "<@U012C7ML7MZ> has joined the channel"
    },
    {
        "type": "message",
        "subtype": "channel_join",
        "ts": "1587594871.010300",
        "user": "U012ASH0XCM",
        "text": "<@U012ASH0XCM> has joined the channel"
    },
    {
        "type": "message",
        "subtype": "channel_join",
        "ts": "1587606039.010500",
        "user": "U0125NWCHTQ",
        "text": "<@U0125NWCHTQ> has joined the channel"
    },
    {
        "type": "message",
        "subtype": "channel_join",
        "ts": "1587616803.010900",
        "user": "U011XU3AH0F",
        "text": "<@U011XU3AH0F> has joined the channel"
    },
    {
        "type": "message",
        "subtype": "channel_join",
        "ts": "1587620911.011200",
        "user": "U012CUFADR9",
        "text": "<@U012CUFADR9> has joined the channel"
    }
]