[
    {
        "client_msg_id": "730b3e50-4663-4869-96cb-0fce4702e337",
        "type": "message",
        "text": "Some of the links in the FAQ document don’t work - im getting a 404 error",
        "user": "U011RGC6KQR",
        "ts": "1588091661.023800",
        "team": "TUU48M0T1",
        "user_team": "TUU48M0T1",
        "source_team": "TUU48M0T1",
        "user_profile": {
            "avatar_hash": "89c8b75f8dbd",
            "image_72": "https:\/\/avatars.slack-edge.com\/2020-04-24\/1081532827509_89c8b75f8dbd1f35ff15_72.png",
            "first_name": "Amish",
            "real_name": "Amish Chadha",
            "display_name": "amish",
            "team": "TUU48M0T1",
            "name": "amish",
            "is_restricted": false,
            "is_ultra_restricted": false
        },
        "blocks": [
            {
                "type": "rich_text",
                "block_id": "Iw6jw",
                "elements": [
                    {
                        "type": "rich_text_section",
                        "elements": [
                            {
                                "type": "text",
                                "text": "Some of the links in the FAQ document don’t work - im getting a 404 error"
                            }
                        ]
                    }
                ]
            }
        ],
        "thread_ts": "1588091661.023800",
        "reply_count": 2,
        "reply_users_count": 2,
        "latest_reply": "1588148210.024900",
        "reply_users": [
            "UV9V03C8Y",
            "U011B6VLM2A"
        ],
        "replies": [
            {
                "user": "UV9V03C8Y",
                "ts": "1588092019.024000"
            },
            {
                "user": "U011B6VLM2A",
                "ts": "1588148210.024900"
            }
        ],
        "subscribed": false
    },
    {
        "client_msg_id": "20764ea5-011d-4cf4-84bb-3654cf3d25c7",
        "type": "message",
        "text": "Thanks for sharing <@U011RGC6KQR>, will work on that.",
        "user": "UV9V03C8Y",
        "ts": "1588092019.024000",
        "team": "TUU48M0T1",
        "user_team": "TUU48M0T1",
        "source_team": "TUU48M0T1",
        "user_profile": {
            "avatar_hash": "177697fb7b8f",
            "image_72": "https:\/\/avatars.slack-edge.com\/2020-03-12\/996126178096_177697fb7b8ffa57649c_72.jpg",
            "first_name": "Camille",
            "real_name": "Camille Masselot - JOGL Program coordinator",
            "display_name": "Camille Masselot - JOGL coordinator",
            "team": "TUU48M0T1",
            "name": "masselot.camille",
            "is_restricted": false,
            "is_ultra_restricted": false
        },
        "blocks": [
            {
                "type": "rich_text",
                "block_id": "3=9",
                "elements": [
                    {
                        "type": "rich_text_section",
                        "elements": [
                            {
                                "type": "text",
                                "text": "Thanks for sharing "
                            },
                            {
                                "type": "user",
                                "user_id": "U011RGC6KQR"
                            },
                            {
                                "type": "text",
                                "text": ", will work on that."
                            }
                        ]
                    }
                ]
            }
        ],
        "thread_ts": "1588091661.023800",
        "parent_user_id": "U011RGC6KQR",
        "reactions": [
            {
                "name": "pray",
                "users": [
                    "U011B6VLM2A"
                ],
                "count": 1
            }
        ]
    }
]