[
    {
        "client_msg_id": "b2eb5b9d-8583-4cf1-8fdf-b3f47583951f",
        "type": "message",
        "text": "Hey guys, how is it going? :slightly_smiling_face:\nWhat would you like to present during the global community call today?",
        "user": "UV02WET96",
        "ts": "1585152012.000700",
        "team": "TUU48M0T1",
        "user_team": "TUU48M0T1",
        "source_team": "TUU48M0T1",
        "user_profile": {
            "avatar_hash": "a99c74a194f8",
            "image_72": "https:\/\/avatars.slack-edge.com\/2020-03-07\/975708504851_a99c74a194f86715ca7d_72.png",
            "first_name": "Thomas",
            "real_name": "Thomas Landrain",
            "display_name": "Thomas Landrain - JOGL CoFounder \/ CEO",
            "team": "TUU48M0T1",
            "name": "thomas",
            "is_restricted": false,
            "is_ultra_restricted": false
        },
        "edited": {
            "user": "UV02WET96",
            "ts": "1585152018.000000"
        },
        "blocks": [
            {
                "type": "rich_text",
                "block_id": "ObEs",
                "elements": [
                    {
                        "type": "rich_text_section",
                        "elements": [
                            {
                                "type": "text",
                                "text": "Hey guys, how is it going? "
                            },
                            {
                                "type": "emoji",
                                "name": "slightly_smiling_face"
                            },
                            {
                                "type": "text",
                                "text": "\nWhat would you like to present during the global community call today?"
                            }
                        ]
                    }
                ]
            }
        ]
    },
    {
        "client_msg_id": "7F319FB6-F57D-4B3B-8073-C31C6E74086D",
        "type": "message",
        "text": "I can give updates on the FreeGenes side of collecting genes for synthesis",
        "user": "UV4Q15S5Q",
        "ts": "1585152817.001400",
        "team": "TUU48M0T1",
        "user_team": "TUU48M0T1",
        "source_team": "TUU48M0T1",
        "user_profile": {
            "avatar_hash": "gdbd3cc24b09",
            "image_72": "https:\/\/secure.gravatar.com\/avatar\/dbd3cc24b092b17d53c09de6bab7969c.jpg?s=72&d=https%3A%2F%2Fa.slack-edge.com%2Fdf10d%2Fimg%2Favatars%2Fava_0012-72.png",
            "first_name": "",
            "real_name": "Keoni Gandall",
            "display_name": "",
            "team": "TUU48M0T1",
            "name": "koeng101",
            "is_restricted": false,
            "is_ultra_restricted": false
        },
        "blocks": [
            {
                "type": "rich_text",
                "block_id": "91El",
                "elements": [
                    {
                        "type": "rich_text_section",
                        "elements": [
                            {
                                "type": "text",
                                "text": "I can give updates on the FreeGenes side of collecting genes for synthesis"
                            }
                        ]
                    }
                ]
            }
        ],
        "reactions": [
            {
                "name": "+1",
                "users": [
                    "UV02WET96"
                ],
                "count": 1
            }
        ]
    },
    {
        "client_msg_id": "0289512e-ed26-4c85-90d2-06887894d6f3",
        "type": "message",
        "text": "Great, I’ll call for you then :slightly_smiling_face:",
        "user": "UV02WET96",
        "ts": "1585154649.001700",
        "team": "TUU48M0T1",
        "user_team": "TUU48M0T1",
        "source_team": "TUU48M0T1",
        "user_profile": {
            "avatar_hash": "a99c74a194f8",
            "image_72": "https:\/\/avatars.slack-edge.com\/2020-03-07\/975708504851_a99c74a194f86715ca7d_72.png",
            "first_name": "Thomas",
            "real_name": "Thomas Landrain",
            "display_name": "Thomas Landrain - JOGL CoFounder \/ CEO",
            "team": "TUU48M0T1",
            "name": "thomas",
            "is_restricted": false,
            "is_ultra_restricted": false
        },
        "blocks": [
            {
                "type": "rich_text",
                "block_id": "i4Oi",
                "elements": [
                    {
                        "type": "rich_text_section",
                        "elements": [
                            {
                                "type": "text",
                                "text": "Great, I’ll call for you then "
                            },
                            {
                                "type": "emoji",
                                "name": "slightly_smiling_face"
                            }
                        ]
                    }
                ]
            }
        ]
    }
]