[
    {
        "client_msg_id": "8DEB16C7-66F0-49D8-9E73-9E36D19FF782",
        "type": "message",
        "text": "well spotted! who is aiming to do this method?",
        "user": "UV1A22N3W",
        "ts": "1585380214.004300",
        "team": "TUU48M0T1",
        "user_team": "TUU48M0T1",
        "source_team": "TUU48M0T1",
        "user_profile": {
            "avatar_hash": "71f827776ad6",
            "image_72": "https:\/\/avatars.slack-edge.com\/2020-03-09\/988125642964_71f827776ad610af05a2_72.jpg",
            "first_name": "",
            "real_name": "RachelA",
            "display_name": "RachelA",
            "team": "TUU48M0T1",
            "name": "raronoff",
            "is_restricted": false,
            "is_ultra_restricted": false
        },
        "blocks": [
            {
                "type": "rich_text",
                "block_id": "wosZb",
                "elements": [
                    {
                        "type": "rich_text_section",
                        "elements": [
                            {
                                "type": "text",
                                "text": "well spotted! who is aiming to do this method?"
                            }
                        ]
                    }
                ]
            }
        ]
    }
]