[
    {
        "client_msg_id": "ac80229c-df3d-4ad4-9b7e-46b7ba2f08b1",
        "type": "message",
        "text": "<https:\/\/twitter.com\/zhangf\/status\/1243647414831140865?s=21>",
        "user": "UUNGFHSV8",
        "ts": "1585348233.002700",
        "team": "TUU48M0T1",
        "user_team": "TUU48M0T1",
        "source_team": "TUU48M0T1",
        "user_profile": {
            "avatar_hash": "1c55ee32397a",
            "image_72": "https:\/\/avatars.slack-edge.com\/2020-03-07\/987349161984_1c55ee32397a85a87ec4_72.png",
            "first_name": "Isaac",
            "real_name": "Isaac Larkin",
            "display_name": "Isaac Larkin",
            "team": "TUU48M0T1",
            "name": "eyesmo",
            "is_restricted": false,
            "is_ultra_restricted": false
        },
        "blocks": [
            {
                "type": "rich_text",
                "block_id": "eCv",
                "elements": [
                    {
                        "type": "rich_text_section",
                        "elements": [
                            {
                                "type": "link",
                                "url": "https:\/\/twitter.com\/zhangf\/status\/1243647414831140865?s=21"
                            }
                        ]
                    }
                ]
            }
        ]
    },
    {
        "client_msg_id": "bee17938-20ec-4360-8dfb-9788ef867631",
        "type": "message",
        "text": "<https:\/\/docs.google.com\/forms\/d\/e\/1FAIpQLSc3crilLDsLaEum-OVhXp_b2tcFso2l0we0w6N6-jre0m-l_g\/viewform>",
        "user": "UUNGFHSV8",
        "ts": "1585348313.003000",
        "team": "TUU48M0T1",
        "user_team": "TUU48M0T1",
        "source_team": "TUU48M0T1",
        "user_profile": {
            "avatar_hash": "1c55ee32397a",
            "image_72": "https:\/\/avatars.slack-edge.com\/2020-03-07\/987349161984_1c55ee32397a85a87ec4_72.png",
            "first_name": "Isaac",
            "real_name": "Isaac Larkin",
            "display_name": "Isaac Larkin",
            "team": "TUU48M0T1",
            "name": "eyesmo",
            "is_restricted": false,
            "is_ultra_restricted": false
        },
        "blocks": [
            {
                "type": "rich_text",
                "block_id": "fV33",
                "elements": [
                    {
                        "type": "rich_text_section",
                        "elements": [
                            {
                                "type": "link",
                                "url": "https:\/\/docs.google.com\/forms\/d\/e\/1FAIpQLSc3crilLDsLaEum-OVhXp_b2tcFso2l0we0w6N6-jre0m-l_g\/viewform"
                            }
                        ]
                    }
                ]
            }
        ]
    }
]