<?xml version="1.0" encoding="UTF-8"?>
<graphml xmlns="http://graphml.graphdrawing.org/xmlns"
         xmlns:xsi="http://www.w3.org/2001/XMLSchema-instance"
         xsi:schemaLocation="http://graphml.graphdrawing.org/xmlns
         http://graphml.graphdrawing.org/xmlns/1.0/graphml.xsd">
<!-- Created by igraph -->
  <key id="v_name" for="node" attr.name="name" attr.type="string"/>
  <key id="v_type" for="node" attr.name="type" attr.type="boolean"/>
  <key id="e_ids" for="edge" attr.name="ids" attr.type="double"/>
  <graph id="G" edgedefault="directed">
    <node id="n0">
      <data key="v_name">Boardgame</data>
      <data key="v_type">false</data>
    </node>
    <node id="n1">
      <data key="v_name">HERApp</data>
      <data key="v_type">false</data>
    </node>
    <node id="n2">
      <data key="v_name">TwitterVac</data>
      <data key="v_type">false</data>
    </node>
    <node id="n3">
      <data key="v_name">VaEsGa</data>
      <data key="v_type">false</data>
    </node>
    <node id="n4">
      <data key="v_name">VaccineDataDump</data>
      <data key="v_type">false</data>
    </node>
    <node id="n5">
      <data key="v_name">vaxtrends</data>
      <data key="v_type">false</data>
    </node>
    <node id="n6">
      <data key="v_name">greg001</data>
      <data key="v_type">false</data>
    </node>
    <node id="n7">
      <data key="v_name">Hulkbooster</data>
      <data key="v_type">false</data>
    </node>
    <node id="n8">
      <data key="v_name">HarmonizeVaccination</data>
      <data key="v_type">false</data>
    </node>
    <node id="n9">
      <data key="v_name">metaimmune</data>
      <data key="v_type">false</data>
    </node>
    <node id="n10">
      <data key="v_name">biloba</data>
      <data key="v_type">false</data>
    </node>
    <node id="n11">
      <data key="v_name">WakuSenshi</data>
      <data key="v_type">false</data>
    </node>
    <node id="n12">
      <data key="v_name">Crawler</data>
      <data key="v_type">false</data>
    </node>
    <node id="n13">
      <data key="v_name">PassItOn</data>
      <data key="v_type">false</data>
    </node>
    <node id="n14">
      <data key="v_name">GoViral</data>
      <data key="v_type">false</data>
    </node>
    <node id="n15">
      <data key="v_name">mva</data>
      <data key="v_type">false</data>
    </node>
    <node id="n16">
      <data key="v_name">VaccRiskAssess</data>
      <data key="v_type">false</data>
    </node>
    <node id="n17">
      <data key="v_name">VaxTopics</data>
      <data key="v_type">false</data>
    </node>
    <node id="n18">
      <data key="v_name">VaxAdministrationOnSocialMedia</data>
      <data key="v_type">false</data>
    </node>
    <node id="n19">
      <data key="v_name">VaxHesitancyOnSocialMedia</data>
      <data key="v_type">false</data>
    </node>
    <node id="n20">
      <data key="v_name">committopromotevaccination</data>
      <data key="v_type">false</data>
    </node>
    <node id="n21">
      <data key="v_name">tb</data>
      <data key="v_type">false</data>
    </node>
    <node id="n22">
      <data key="v_name">Antony Sar</data>
      <data key="v_type">true</data>
    </node>
    <node id="n23">
      <data key="v_name">Yagiz Nizipli</data>
      <data key="v_type">true</data>
    </node>
    <node id="n24">
      <data key="v_name">Liu Bov</data>
      <data key="v_type">true</data>
    </node>
    <node id="n25">
      <data key="v_name">William Kane Olwit</data>
      <data key="v_type">true</data>
    </node>
    <node id="n26">
      <data key="v_name">Aral Sürmeli</data>
      <data key="v_type">true</data>
    </node>
    <node id="n27">
      <data key="v_name">Cyril Mammar</data>
      <data key="v_type">true</data>
    </node>
    <node id="n28">
      <data key="v_name">Enzo MULLER</data>
      <data key="v_type">true</data>
    </node>
    <node id="n29">
      <data key="v_name">Alexandre Frydman</data>
      <data key="v_type">true</data>
    </node>
    <node id="n30">
      <data key="v_name">Tatiana Relic</data>
      <data key="v_type">true</data>
    </node>
    <node id="n31">
      <data key="v_name">Tom Chauveau</data>
      <data key="v_type">true</data>
    </node>
    <node id="n32">
      <data key="v_name">clement ruat</data>
      <data key="v_type">true</data>
    </node>
    <node id="n33">
      <data key="v_name">jooyoung kim</data>
      <data key="v_type">true</data>
    </node>
    <node id="n34">
      <data key="v_name">Pierre Foulquié</data>
      <data key="v_type">true</data>
    </node>
    <node id="n35">
      <data key="v_name">noel ching</data>
      <data key="v_type">true</data>
    </node>
    <node id="n36">
      <data key="v_name">Gregory Labeca</data>
      <data key="v_type">true</data>
    </node>
    <node id="n37">
      <data key="v_name">Antoine Heurtel</data>
      <data key="v_type">true</data>
    </node>
    <node id="n38">
      <data key="v_name">Toufic Khoriaty</data>
      <data key="v_type">true</data>
    </node>
    <node id="n39">
      <data key="v_name">guillaume Fagot</data>
      <data key="v_type">true</data>
    </node>
    <node id="n40">
      <data key="v_name">Marc Santolini</data>
      <data key="v_type">true</data>
    </node>
    <node id="n41">
      <data key="v_name">Yulia Venichenko</data>
      <data key="v_type">true</data>
    </node>
    <node id="n42">
      <data key="v_name">NA NA</data>
      <data key="v_type">true</data>
    </node>
    <node id="n43">
      <data key="v_name">Khallil Doudou</data>
      <data key="v_type">true</data>
    </node>
    <node id="n44">
      <data key="v_name">Robert Tolan</data>
      <data key="v_type">true</data>
    </node>
    <node id="n45">
      <data key="v_name">Bastian Greshake Tzovaras</data>
      <data key="v_type">true</data>
    </node>
    <node id="n46">
      <data key="v_name">ran Liu</data>
      <data key="v_type">true</data>
    </node>
    <node id="n47">
      <data key="v_name">Ruben Cuadra</data>
      <data key="v_type">true</data>
    </node>
    <node id="n48">
      <data key="v_name">Camille MASSELOT</data>
      <data key="v_type">true</data>
    </node>
    <node id="n49">
      <data key="v_name">Shibu Antony</data>
      <data key="v_type">true</data>
    </node>
    <node id="n50">
      <data key="v_name">NIDHIBEN PATEL</data>
      <data key="v_type">true</data>
    </node>
    <node id="n51">
      <data key="v_name">rahel Becker</data>
      <data key="v_type">true</data>
    </node>
    <node id="n52">
      <data key="v_name">Antonin Counillon</data>
      <data key="v_type">true</data>
    </node>
    <node id="n53">
      <data key="v_name">yassine Ait-baha</data>
      <data key="v_type">true</data>
    </node>
    <node id="n54">
      <data key="v_name">Chetan Kumar Velumurugan</data>
      <data key="v_type">true</data>
    </node>
    <node id="n55">
      <data key="v_name">Yang-Min KIM</data>
      <data key="v_type">true</data>
    </node>
    <node id="n56">
      <data key="v_name">tristan alain</data>
      <data key="v_type">true</data>
    </node>
    <node id="n57">
      <data key="v_name">Adrien S</data>
      <data key="v_type">true</data>
    </node>
    <node id="n58">
      <data key="v_name">Dalila Saulebekova</data>
      <data key="v_type">true</data>
    </node>
    <node id="n59">
      <data key="v_name">Victor Counillon</data>
      <data key="v_type">true</data>
    </node>
    <node id="n60">
      <data key="v_name">Alejandra Rodriguez Llerena</data>
      <data key="v_type">true</data>
    </node>
    <node id="n61">
      <data key="v_name">Philippe Mougin</data>
      <data key="v_type">true</data>
    </node>
    <node id="n62">
      <data key="v_name">Thea Chrysostomou</data>
      <data key="v_type">true</data>
    </node>
    <node id="n63">
      <data key="v_name">Mihaela Grigore</data>
      <data key="v_type">true</data>
    </node>
    <node id="n64">
      <data key="v_name">Selim Ben Slama</data>
      <data key="v_type">true</data>
    </node>
    <node id="n65">
      <data key="v_name">Jeanne Bonnel</data>
      <data key="v_type">true</data>
    </node>
    <node id="n66">
      <data key="v_name">Gabriel Halioui</data>
      <data key="v_type">true</data>
    </node>
    <node id="n67">
      <data key="v_name">Florian Briand</data>
      <data key="v_type">true</data>
    </node>
    <node id="n68">
      <data key="v_name">Forum Shah</data>
      <data key="v_type">true</data>
    </node>
    <node id="n69">
      <data key="v_name">Alexis Juif</data>
      <data key="v_type">true</data>
    </node>
    <node id="n70">
      <data key="v_name">Gijs Van den Dool</data>
      <data key="v_type">true</data>
    </node>
    <node id="n71">
      <data key="v_name">Guillaume MESLAGE</data>
      <data key="v_type">true</data>
    </node>
    <node id="n72">
      <data key="v_name">Idir Boufadene</data>
      <data key="v_type">true</data>
    </node>
    <node id="n73">
      <data key="v_name">Brice Henault</data>
      <data key="v_type">true</data>
    </node>
    <node id="n74">
      <data key="v_name">Florian Carbuccia</data>
      <data key="v_type">true</data>
    </node>
    <node id="n75">
      <data key="v_name">adrien mallet</data>
      <data key="v_type">true</data>
    </node>
    <node id="n76">
      <data key="v_name">Anisse JANY</data>
      <data key="v_type">true</data>
    </node>
    <node id="n77">
      <data key="v_name">Mateo Quintero</data>
      <data key="v_type">true</data>
    </node>
    <node id="n78">
      <data key="v_name">Alan Cataldo</data>
      <data key="v_type">true</data>
    </node>
    <node id="n79">
      <data key="v_name">Hugo Gagliardi</data>
      <data key="v_type">true</data>
    </node>
    <node id="n80">
      <data key="v_name">Damien Madroszyk</data>
      <data key="v_type">true</data>
    </node>
    <node id="n81">
      <data key="v_name">Aurélien  Aoustin </data>
      <data key="v_type">true</data>
    </node>
    <node id="n82">
      <data key="v_name">Miles Tonye</data>
      <data key="v_type">true</data>
    </node>
    <node id="n83">
      <data key="v_name">DIVIN BADIABO</data>
      <data key="v_type">true</data>
    </node>
    <node id="n84">
      <data key="v_name">Pot Ato</data>
      <data key="v_type">true</data>
    </node>
    <node id="n85">
      <data key="v_name">Aurelien Boch</data>
      <data key="v_type">true</data>
    </node>
    <node id="n86">
      <data key="v_name">Naina Goel</data>
      <data key="v_type">true</data>
    </node>
    <edge source="n0" target="n22">
      <data key="e_ids">121</data>
    </edge>
    <edge source="n1" target="n23">
      <data key="e_ids">465</data>
    </edge>
    <edge source="n1" target="n24">
      <data key="e_ids">15</data>
    </edge>
    <edge source="n1" target="n25">
      <data key="e_ids">28</data>
    </edge>
    <edge source="n1" target="n26">
      <data key="e_ids">252</data>
    </edge>
    <edge source="n2" target="n27">
      <data key="e_ids">409</data>
    </edge>
    <edge source="n2" target="n28">
      <data key="e_ids">408</data>
    </edge>
    <edge source="n2" target="n29">
      <data key="e_ids">417</data>
    </edge>
    <edge source="n2" target="n30">
      <data key="e_ids">420</data>
    </edge>
    <edge source="n2" target="n31">
      <data key="e_ids">405</data>
    </edge>
    <edge source="n2" target="n32">
      <data key="e_ids">393</data>
    </edge>
    <edge source="n2" target="n33">
      <data key="e_ids">385</data>
    </edge>
    <edge source="n2" target="n34">
      <data key="e_ids">371</data>
    </edge>
    <edge source="n2" target="n35">
      <data key="e_ids">289</data>
    </edge>
    <edge source="n2" target="n36">
      <data key="e_ids">293</data>
    </edge>
    <edge source="n2" target="n25">
      <data key="e_ids">28</data>
    </edge>
    <edge source="n3" target="n37">
      <data key="e_ids">123</data>
    </edge>
    <edge source="n3" target="n38">
      <data key="e_ids">255</data>
    </edge>
    <edge source="n4" target="n39">
      <data key="e_ids">544</data>
    </edge>
    <edge source="n4" target="n40">
      <data key="e_ids">5</data>
    </edge>
    <edge source="n4" target="n24">
      <data key="e_ids">15</data>
    </edge>
    <edge source="n4" target="n41">
      <data key="e_ids">291</data>
    </edge>
    <edge source="n4" target="n42">
      <data key="e_ids">-2147483648</data>
    </edge>
    <edge source="n4" target="n43">
      <data key="e_ids">286</data>
    </edge>
    <edge source="n4" target="n42">
      <data key="e_ids">-2147483648</data>
    </edge>
    <edge source="n5" target="n44">
      <data key="e_ids">488</data>
    </edge>
    <edge source="n5" target="n45">
      <data key="e_ids">108</data>
    </edge>
    <edge source="n5" target="n25">
      <data key="e_ids">28</data>
    </edge>
    <edge source="n5" target="n24">
      <data key="e_ids">15</data>
    </edge>
    <edge source="n5" target="n46">
      <data key="e_ids">295</data>
    </edge>
    <edge source="n5" target="n47">
      <data key="e_ids">332</data>
    </edge>
    <edge source="n5" target="n42">
      <data key="e_ids">-2147483648</data>
    </edge>
    <edge source="n5" target="n40">
      <data key="e_ids">5</data>
    </edge>
    <edge source="n6" target="n48">
      <data key="e_ids">8</data>
    </edge>
    <edge source="n6" target="n35">
      <data key="e_ids">289</data>
    </edge>
    <edge source="n7" target="n49">
      <data key="e_ids">104</data>
    </edge>
    <edge source="n7" target="n50">
      <data key="e_ids">294</data>
    </edge>
    <edge source="n8" target="n51">
      <data key="e_ids">284</data>
    </edge>
    <edge source="n8" target="n52">
      <data key="e_ids">297</data>
    </edge>
    <edge source="n8" target="n53">
      <data key="e_ids">288</data>
    </edge>
    <edge source="n8" target="n24">
      <data key="e_ids">15</data>
    </edge>
    <edge source="n8" target="n54">
      <data key="e_ids">124</data>
    </edge>
    <edge source="n9" target="n55">
      <data key="e_ids">348</data>
    </edge>
    <edge source="n9" target="n56">
      <data key="e_ids">299</data>
    </edge>
    <edge source="n9" target="n57">
      <data key="e_ids">285</data>
    </edge>
    <edge source="n10" target="n50">
      <data key="e_ids">294</data>
    </edge>
    <edge source="n11" target="n58">
      <data key="e_ids">359</data>
    </edge>
    <edge source="n12" target="n59">
      <data key="e_ids">362</data>
    </edge>
    <edge source="n12" target="n60">
      <data key="e_ids">361</data>
    </edge>
    <edge source="n13" target="n61">
      <data key="e_ids">459</data>
    </edge>
    <edge source="n13" target="n62">
      <data key="e_ids">250</data>
    </edge>
    <edge source="n13" target="n63">
      <data key="e_ids">456</data>
    </edge>
    <edge source="n13" target="n64">
      <data key="e_ids">454</data>
    </edge>
    <edge source="n13" target="n65">
      <data key="e_ids">360</data>
    </edge>
    <edge source="n14" target="n66">
      <data key="e_ids">366</data>
    </edge>
    <edge source="n14" target="n67">
      <data key="e_ids">363</data>
    </edge>
    <edge source="n15" target="n68">
      <data key="e_ids">373</data>
    </edge>
    <edge source="n15" target="n69">
      <data key="e_ids">357</data>
    </edge>
    <edge source="n16" target="n70">
      <data key="e_ids">218</data>
    </edge>
    <edge source="n16" target="n49">
      <data key="e_ids">104</data>
    </edge>
    <edge source="n16" target="n42">
      <data key="e_ids">-2147483648</data>
    </edge>
    <edge source="n17" target="n71">
      <data key="e_ids">386</data>
    </edge>
    <edge source="n17" target="n72">
      <data key="e_ids">415</data>
    </edge>
    <edge source="n17" target="n73">
      <data key="e_ids">421</data>
    </edge>
    <edge source="n17" target="n74">
      <data key="e_ids">418</data>
    </edge>
    <edge source="n17" target="n75">
      <data key="e_ids">414</data>
    </edge>
    <edge source="n17" target="n25">
      <data key="e_ids">28</data>
    </edge>
    <edge source="n17" target="n34">
      <data key="e_ids">371</data>
    </edge>
    <edge source="n18" target="n76">
      <data key="e_ids">391</data>
    </edge>
    <edge source="n18" target="n77">
      <data key="e_ids">395</data>
    </edge>
    <edge source="n18" target="n78">
      <data key="e_ids">392</data>
    </edge>
    <edge source="n18" target="n79">
      <data key="e_ids">389</data>
    </edge>
    <edge source="n18" target="n80">
      <data key="e_ids">388</data>
    </edge>
    <edge source="n18" target="n34">
      <data key="e_ids">371</data>
    </edge>
    <edge source="n19" target="n81">
      <data key="e_ids">402</data>
    </edge>
    <edge source="n19" target="n82">
      <data key="e_ids">403</data>
    </edge>
    <edge source="n19" target="n83">
      <data key="e_ids">400</data>
    </edge>
    <edge source="n19" target="n84">
      <data key="e_ids">396</data>
    </edge>
    <edge source="n19" target="n85">
      <data key="e_ids">412</data>
    </edge>
    <edge source="n19" target="n34">
      <data key="e_ids">371</data>
    </edge>
    <edge source="n20" target="n61">
      <data key="e_ids">459</data>
    </edge>
    <edge source="n21" target="n50">
      <data key="e_ids">294</data>
    </edge>
    <edge source="n21" target="n86">
      <data key="e_ids">525</data>
    </edge>
    <edge source="n21" target="n40">
      <data key="e_ids">5</data>
    </edge>
    <edge source="n21" target="n42">
      <data key="e_ids">-2147483648</data>
    </edge>
    <edge source="n21" target="n49">
      <data key="e_ids">104</data>
    </edge>
  </graph>
</graphml>
