[
    {
        "type": "message",
        "subtype": "channel_join",
        "ts": "1586784166.000200",
        "user": "U010DG4358Q",
        "text": "<@U010DG4358Q> has joined the channel"
    },
    {
        "type": "message",
        "subtype": "channel_join",
        "ts": "1586819026.000400",
        "user": "U012DU78Q6L",
        "text": "<@U012DU78Q6L> has joined the channel"
    }
]