[
    {
        "type": "message",
        "subtype": "channel_name",
        "ts": "1586876951.000100",
        "user": "U011XCJJ7KK",
        "text": "<@U011XCJJ7KK> has renamed the channel from \"airlock\" to \"proj-airlock\"",
        "old_name": "airlock",
        "name": "proj-airlock"
    },
    {
        "type": "message",
        "subtype": "channel_purpose",
        "ts": "1586876952.000200",
        "user": "U011XCJJ7KK",
        "text": "<@U011XCJJ7KK> set the channel purpose: A low cost, simple airlock mechanism that have two partition to go in and out of the treatment center installed in every door. <https:\/\/solve.mit.edu\/challenges\/health-security-pandemics\/solutions\/20404>",
        "purpose": "A low cost, simple airlock mechanism that have two partition to go in and out of the treatment center installed in every door. <https:\/\/solve.mit.edu\/challenges\/health-security-pandemics\/solutions\/20404>"
    }
]