[
    {
        "client_msg_id": "532dd72b-ee85-4f13-89fc-220a86a08374",
        "type": "message",
        "text": "these are lovely!",
        "user": "U011DR5B6Q0",
        "ts": "1586092439.084300",
        "team": "TUU48M0T1",
        "user_team": "TUU48M0T1",
        "source_team": "TUU48M0T1",
        "user_profile": {
            "avatar_hash": "ga623607bb89",
            "image_72": "https:\/\/secure.gravatar.com\/avatar\/a623607bb89dd47af6796058f8e215ef.jpg?s=72&d=https%3A%2F%2Fa.slack-edge.com%2Fdf10d%2Fimg%2Favatars%2Fava_0008-72.png",
            "first_name": "",
            "real_name": "Alizarin",
            "display_name": "Alizarin",
            "team": "TUU48M0T1",
            "name": "aw1888",
            "is_restricted": false,
            "is_ultra_restricted": false
        },
        "blocks": [
            {
                "type": "rich_text",
                "block_id": "bk6\/m",
                "elements": [
                    {
                        "type": "rich_text_section",
                        "elements": [
                            {
                                "type": "text",
                                "text": "these are lovely!"
                            }
                        ]
                    }
                ]
            }
        ],
        "thread_ts": "1585928016.080300",
        "parent_user_id": "U010YA82ESJ"
    },
    {
        "type": "message",
        "text": "<!channel> could someone here be willing\/able to make something like this (perhaps cooler looking too)? it’d be a great help and if you’re able to, please reply to this message and i’ll dm you! ",
        "files": [
            {
                "id": "F011M4367GQ",
                "created": 1586133117,
                "timestamp": 1586133117,
                "name": "Image from iOS.jpg",
                "title": "Image from iOS",
                "mimetype": "image\/jpeg",
                "filetype": "jpg",
                "pretty_type": "JPEG",
                "user": "UV0QTJCMT",
                "editable": false,
                "size": 32539,
                "mode": "hosted",
                "is_external": false,
                "external_type": "",
                "is_public": true,
                "public_url_shared": false,
                "display_as_bot": false,
                "username": "",
                "url_private": "https:\/\/files.slack.com\/files-pri\/TUU48M0T1-F011M4367GQ\/image_from_ios.jpg?t=xoxe-980144714919-1133254701825-1120841107731-daf595b5a7d6c9028b0b02a925032e36",
                "url_private_download": "https:\/\/files.slack.com\/files-pri\/TUU48M0T1-F011M4367GQ\/download\/image_from_ios.jpg?t=xoxe-980144714919-1133254701825-1120841107731-daf595b5a7d6c9028b0b02a925032e36",
                "thumb_64": "https:\/\/files.slack.com\/files-tmb\/TUU48M0T1-F011M4367GQ-211b5d58d9\/image_from_ios_64.jpg?t=xoxe-980144714919-1133254701825-1120841107731-daf595b5a7d6c9028b0b02a925032e36",
                "thumb_80": "https:\/\/files.slack.com\/files-tmb\/TUU48M0T1-F011M4367GQ-211b5d58d9\/image_from_ios_80.jpg?t=xoxe-980144714919-1133254701825-1120841107731-daf595b5a7d6c9028b0b02a925032e36",
                "thumb_360": "https:\/\/files.slack.com\/files-tmb\/TUU48M0T1-F011M4367GQ-211b5d58d9\/image_from_ios_360.jpg?t=xoxe-980144714919-1133254701825-1120841107731-daf595b5a7d6c9028b0b02a925032e36",
                "thumb_360_w": 360,
                "thumb_360_h": 160,
                "thumb_480": "https:\/\/files.slack.com\/files-tmb\/TUU48M0T1-F011M4367GQ-211b5d58d9\/image_from_ios_480.jpg?t=xoxe-980144714919-1133254701825-1120841107731-daf595b5a7d6c9028b0b02a925032e36",
                "thumb_480_w": 480,
                "thumb_480_h": 214,
                "thumb_160": "https:\/\/files.slack.com\/files-tmb\/TUU48M0T1-F011M4367GQ-211b5d58d9\/image_from_ios_160.jpg?t=xoxe-980144714919-1133254701825-1120841107731-daf595b5a7d6c9028b0b02a925032e36",
                "thumb_720": "https:\/\/files.slack.com\/files-tmb\/TUU48M0T1-F011M4367GQ-211b5d58d9\/image_from_ios_720.jpg?t=xoxe-980144714919-1133254701825-1120841107731-daf595b5a7d6c9028b0b02a925032e36",
                "thumb_720_w": 720,
                "thumb_720_h": 321,
                "image_exif_rotation": 1,
                "original_w": 750,
                "original_h": 334,
                "thumb_tiny": "AwAVADC3dO6hdhI9cUkEjHfliQOmaknkCAAjO7ikt3WQHCgetA+gxJiZNrMOTgCo2M5lkAZwAfl9KmTYZynl428g0k0hVjhcge55oAguJ3jhibzCpYc1NZyM4bc5YcYzS3GAE\/dow9+1FqxbdmIJ9O9LqBJLEJdpJIKnIpIYFiDBSealNApiIkgCSFwTk9ac6BjT6KAGSRiRdppUQIuBj0p1AoA\/\/9k=",
                "permalink": "https:\/\/open-covid19.slack.com\/files\/UV0QTJCMT\/F011M4367GQ\/image_from_ios.jpg",
                "permalink_public": "https:\/\/slack-files.com\/TUU48M0T1-F011M4367GQ-58daabd957",
                "is_starred": false,
                "has_rich_preview": false
            }
        ],
        "upload": true,
        "blocks": [
            {
                "type": "rich_text",
                "block_id": "d9QGM",
                "elements": [
                    {
                        "type": "rich_text_section",
                        "elements": [
                            {
                                "type": "broadcast",
                                "range": "channel"
                            },
                            {
                                "type": "text",
                                "text": " could someone here be willing\/able to make something like this (perhaps cooler looking too)? it’d be a great help and if you’re able to, please reply to this message and i’ll dm you! "
                            }
                        ]
                    }
                ]
            }
        ],
        "user": "UV0QTJCMT",
        "display_as_bot": false,
        "ts": "1586133139.086000",
        "client_msg_id": "D3419541-BECD-4FC0-B6CE-670156534C21"
    },
    {
        "client_msg_id": "d1f0ab46-bc12-406d-b57a-6ecb99365d80",
        "type": "message",
        "text": "Sure please send files to <mailto:design@wicktrix.com|design@wicktrix.com> and will reply thanks for the effort",
        "user": "U010817B2AY",
        "ts": "1586133296.087200",
        "team": "TUU48M0T1",
        "user_team": "TUU48M0T1",
        "source_team": "TUU48M0T1",
        "user_profile": {
            "avatar_hash": "g6386739b5aa",
            "image_72": "https:\/\/secure.gravatar.com\/avatar\/6386739b5aa2d96bddca8d56bb828141.jpg?s=72&d=https%3A%2F%2Fa.slack-edge.com%2Fdf10d%2Fimg%2Favatars%2Fava_0019-72.png",
            "first_name": "",
            "real_name": "Aron Fischer",
            "display_name": "",
            "team": "TUU48M0T1",
            "name": "design",
            "is_restricted": false,
            "is_ultra_restricted": false
        },
        "blocks": [
            {
                "type": "rich_text",
                "block_id": "+54",
                "elements": [
                    {
                        "type": "rich_text_section",
                        "elements": [
                            {
                                "type": "text",
                                "text": "Sure please send files to "
                            },
                            {
                                "type": "link",
                                "url": "mailto:design@wicktrix.com",
                                "text": "design@wicktrix.com"
                            },
                            {
                                "type": "text",
                                "text": " and will reply thanks for the effort"
                            }
                        ]
                    }
                ]
            }
        ],
        "thread_ts": "1586133296.087200",
        "reply_count": 5,
        "reply_users_count": 3,
        "latest_reply": "1587386601.105100",
        "reply_users": [
            "UV0QTJCMT",
            "U010817B2AY",
            "U010Q3372P3"
        ],
        "replies": [
            {
                "user": "UV0QTJCMT",
                "ts": "1586134355.087600"
            },
            {
                "user": "U010817B2AY",
                "ts": "1586134377.087800"
            },
            {
                "user": "U010817B2AY",
                "ts": "1586140374.088000"
            },
            {
                "user": "UV0QTJCMT",
                "ts": "1586141440.089100"
            },
            {
                "user": "U010Q3372P3",
                "ts": "1587386601.105100"
            }
        ],
        "subscribed": false
    },
    {
        "client_msg_id": "93ce7ffb-5f1a-40e2-833a-a463fb807e4c",
        "type": "message",
        "text": "Sending?",
        "user": "U010817B2AY",
        "ts": "1586133975.087500",
        "team": "TUU48M0T1",
        "user_team": "TUU48M0T1",
        "source_team": "TUU48M0T1",
        "user_profile": {
            "avatar_hash": "g6386739b5aa",
            "image_72": "https:\/\/secure.gravatar.com\/avatar\/6386739b5aa2d96bddca8d56bb828141.jpg?s=72&d=https%3A%2F%2Fa.slack-edge.com%2Fdf10d%2Fimg%2Favatars%2Fava_0019-72.png",
            "first_name": "",
            "real_name": "Aron Fischer",
            "display_name": "",
            "team": "TUU48M0T1",
            "name": "design",
            "is_restricted": false,
            "is_ultra_restricted": false
        },
        "blocks": [
            {
                "type": "rich_text",
                "block_id": "O7CmW",
                "elements": [
                    {
                        "type": "rich_text_section",
                        "elements": [
                            {
                                "type": "text",
                                "text": "Sending?"
                            }
                        ]
                    }
                ]
            }
        ]
    },
    {
        "client_msg_id": "afce330c-0e39-4373-992b-8acd62c7de73",
        "type": "message",
        "text": "<@U010817B2AY> thanks for the quick reply! i'll reach out to you soon, i'm still waiting on a headshot from someone",
        "user": "UV0QTJCMT",
        "ts": "1586134355.087600",
        "team": "TUU48M0T1",
        "user_team": "TUU48M0T1",
        "source_team": "TUU48M0T1",
        "user_profile": {
            "avatar_hash": "06a6ae8f69d1",
            "image_72": "https:\/\/avatars.slack-edge.com\/2020-04-13\/1060635499315_06a6ae8f69d18f1ad464_72.png",
            "first_name": "Katherine",
            "real_name": "Katherine Holo",
            "display_name": "Kat Holo - Co-Organizer of OpenCOVID19",
            "team": "TUU48M0T1",
            "name": "katherineh245",
            "is_restricted": false,
            "is_ultra_restricted": false
        },
        "blocks": [
            {
                "type": "rich_text",
                "block_id": "I17",
                "elements": [
                    {
                        "type": "rich_text_section",
                        "elements": [
                            {
                                "type": "user",
                                "user_id": "U010817B2AY"
                            },
                            {
                                "type": "text",
                                "text": " thanks for the quick reply! i'll reach out to you soon, i'm still waiting on a headshot from someone"
                            }
                        ]
                    }
                ]
            }
        ],
        "thread_ts": "1586133296.087200",
        "parent_user_id": "U010817B2AY"
    },
    {
        "client_msg_id": "65794a8d-16eb-4fbd-93c1-a02b4c5360a1",
        "type": "message",
        "text": "Okay np",
        "user": "U010817B2AY",
        "ts": "1586134377.087800",
        "team": "TUU48M0T1",
        "user_team": "TUU48M0T1",
        "source_team": "TUU48M0T1",
        "user_profile": {
            "avatar_hash": "g6386739b5aa",
            "image_72": "https:\/\/secure.gravatar.com\/avatar\/6386739b5aa2d96bddca8d56bb828141.jpg?s=72&d=https%3A%2F%2Fa.slack-edge.com%2Fdf10d%2Fimg%2Favatars%2Fava_0019-72.png",
            "first_name": "",
            "real_name": "Aron Fischer",
            "display_name": "",
            "team": "TUU48M0T1",
            "name": "design",
            "is_restricted": false,
            "is_ultra_restricted": false
        },
        "blocks": [
            {
                "type": "rich_text",
                "block_id": "I9x",
                "elements": [
                    {
                        "type": "rich_text_section",
                        "elements": [
                            {
                                "type": "text",
                                "text": "Okay np"
                            }
                        ]
                    }
                ]
            }
        ],
        "thread_ts": "1586133296.087200",
        "parent_user_id": "U010817B2AY"
    },
    {
        "client_msg_id": "00f7631d-a234-4dbd-bd34-cafe6f9eafb3",
        "type": "message",
        "text": "Hi did you get it or I'll leave a space for this photo?",
        "user": "U010817B2AY",
        "ts": "1586140374.088000",
        "team": "TUU48M0T1",
        "user_team": "TUU48M0T1",
        "source_team": "TUU48M0T1",
        "user_profile": {
            "avatar_hash": "g6386739b5aa",
            "image_72": "https:\/\/secure.gravatar.com\/avatar\/6386739b5aa2d96bddca8d56bb828141.jpg?s=72&d=https%3A%2F%2Fa.slack-edge.com%2Fdf10d%2Fimg%2Favatars%2Fava_0019-72.png",
            "first_name": "",
            "real_name": "Aron Fischer",
            "display_name": "",
            "team": "TUU48M0T1",
            "name": "design",
            "is_restricted": false,
            "is_ultra_restricted": false
        },
        "blocks": [
            {
                "type": "rich_text",
                "block_id": "4YD",
                "elements": [
                    {
                        "type": "rich_text_section",
                        "elements": [
                            {
                                "type": "text",
                                "text": "Hi did you get it or I'll leave a space for this photo?"
                            }
                        ]
                    }
                ]
            }
        ],
        "thread_ts": "1586133296.087200",
        "parent_user_id": "U010817B2AY"
    },
    {
        "client_msg_id": "B4055FF4-0DA4-47C3-9078-D9279F727223",
        "type": "message",
        "text": "<@U010817B2AY> nope haven’t gotten it yet. i’ll probably reach out to you tomorrow with the files and instructions, need to figure out dimensions and whatnot ",
        "user": "UV0QTJCMT",
        "ts": "1586141440.089100",
        "team": "TUU48M0T1",
        "user_team": "TUU48M0T1",
        "source_team": "TUU48M0T1",
        "user_profile": {
            "avatar_hash": "06a6ae8f69d1",
            "image_72": "https:\/\/avatars.slack-edge.com\/2020-04-13\/1060635499315_06a6ae8f69d18f1ad464_72.png",
            "first_name": "Katherine",
            "real_name": "Katherine Holo",
            "display_name": "Kat Holo - Co-Organizer of OpenCOVID19",
            "team": "TUU48M0T1",
            "name": "katherineh245",
            "is_restricted": false,
            "is_ultra_restricted": false
        },
        "blocks": [
            {
                "type": "rich_text",
                "block_id": "inbKR",
                "elements": [
                    {
                        "type": "rich_text_section",
                        "elements": [
                            {
                                "type": "user",
                                "user_id": "U010817B2AY"
                            },
                            {
                                "type": "text",
                                "text": " nope haven’t gotten it yet. i’ll probably reach out to you tomorrow with the files and instructions, need to figure out dimensions and whatnot "
                            }
                        ]
                    }
                ]
            }
        ],
        "thread_ts": "1586133296.087200",
        "parent_user_id": "U010817B2AY"
    }
]