[
    {
        "client_msg_id": "e9d6e951-2457-43ea-80a4-74c5715b9346",
        "type": "message",
        "text": "yes of course!",
        "user": "UUWPKNE2E",
        "ts": "1584346954.051900",
        "team": "TUU48M0T1",
        "user_team": "TUU48M0T1",
        "source_team": "TUU48M0T1",
        "user_profile": {
            "avatar_hash": "f620efd9688e",
            "image_72": "https:\/\/avatars.slack-edge.com\/2020-03-12\/997456647751_f620efd9688ed753ecfc_72.jpg",
            "first_name": "Luca",
            "real_name": "Luca Haenel",
            "display_name": "Luca Haenel - JOGL Developer",
            "team": "TUU48M0T1",
            "name": "luca.haenel",
            "is_restricted": false,
            "is_ultra_restricted": false
        },
        "blocks": [
            {
                "type": "rich_text",
                "block_id": "ZXM7",
                "elements": [
                    {
                        "type": "rich_text_section",
                        "elements": [
                            {
                                "type": "text",
                                "text": "yes of course!"
                            }
                        ]
                    }
                ]
            }
        ],
        "thread_ts": "1584274079.022900",
        "parent_user_id": "UUWPKNE2E"
    },
    {
        "client_msg_id": "49daaa93-a65d-461a-99d4-bb47a701dff8",
        "type": "message",
        "text": "<@UV0CX49QB> I love the design ! especially with the “Moving effect” of the virus : it really reflects the action taken",
        "user": "U01019BQXM3",
        "ts": "1584358556.052600",
        "team": "TUU48M0T1",
        "user_team": "TUU48M0T1",
        "source_team": "TUU48M0T1",
        "user_profile": {
            "avatar_hash": "7e0f35d8cc55",
            "image_72": "https:\/\/avatars.slack-edge.com\/2020-03-15\/988667349730_7e0f35d8cc556cd89565_72.jpg",
            "first_name": "Marc",
            "real_name": "Marc Bokobza",
            "display_name": "Marc Bokobza",
            "team": "TUU48M0T1",
            "name": "marcbokobza1",
            "is_restricted": false,
            "is_ultra_restricted": false
        },
        "blocks": [
            {
                "type": "rich_text",
                "block_id": "DPFC+",
                "elements": [
                    {
                        "type": "rich_text_section",
                        "elements": [
                            {
                                "type": "user",
                                "user_id": "UV0CX49QB"
                            },
                            {
                                "type": "text",
                                "text": " I love the design ! especially with the “Moving effect” of the virus : it really reflects the action taken"
                            }
                        ]
                    }
                ]
            }
        ],
        "thread_ts": "1584313796.037500",
        "parent_user_id": "UV0QTJCMT"
    },
    {
        "client_msg_id": "253c0ab0-6458-4521-9ebd-3638ded5df51",
        "type": "message",
        "text": "Hey Marc, I like this design the most for the program, could you send me a high res file with the following dimension? (1238*400 pixel)",
        "user": "UV02WET96",
        "ts": "1584374571.052900",
        "team": "TUU48M0T1",
        "user_team": "TUU48M0T1",
        "source_team": "TUU48M0T1",
        "user_profile": {
            "avatar_hash": "a99c74a194f8",
            "image_72": "https:\/\/avatars.slack-edge.com\/2020-03-07\/975708504851_a99c74a194f86715ca7d_72.png",
            "first_name": "Thomas",
            "real_name": "Thomas Landrain",
            "display_name": "Thomas Landrain - JOGL CoFounder \/ CEO",
            "team": "TUU48M0T1",
            "name": "thomas",
            "is_restricted": false,
            "is_ultra_restricted": false
        },
        "blocks": [
            {
                "type": "rich_text",
                "block_id": "IVsm",
                "elements": [
                    {
                        "type": "rich_text_section",
                        "elements": [
                            {
                                "type": "text",
                                "text": "Hey Marc, I like this design the most for the program, could you send me a high res file with the following dimension? (1238*400 pixel)"
                            }
                        ]
                    }
                ]
            }
        ],
        "thread_ts": "1584308446.028000",
        "parent_user_id": "U01019BQXM3"
    },
    {
        "client_msg_id": "c02c44fc-d29a-4c81-8ee7-b41673543937",
        "type": "message",
        "text": "La design team a été dans le même sens en faisant evoluer mon design qui est tres bon :",
        "user": "U01019BQXM3",
        "ts": "1584377254.053200",
        "team": "TUU48M0T1",
        "user_team": "TUU48M0T1",
        "source_team": "TUU48M0T1",
        "user_profile": {
            "avatar_hash": "7e0f35d8cc55",
            "image_72": "https:\/\/avatars.slack-edge.com\/2020-03-15\/988667349730_7e0f35d8cc556cd89565_72.jpg",
            "first_name": "Marc",
            "real_name": "Marc Bokobza",
            "display_name": "Marc Bokobza",
            "team": "TUU48M0T1",
            "name": "marcbokobza1",
            "is_restricted": false,
            "is_ultra_restricted": false
        },
        "blocks": [
            {
                "type": "rich_text",
                "block_id": "5TlLB",
                "elements": [
                    {
                        "type": "rich_text_section",
                        "elements": [
                            {
                                "type": "text",
                                "text": "La design team a été dans le même sens en faisant evoluer mon design qui est tres bon :"
                            }
                        ]
                    }
                ]
            }
        ],
        "thread_ts": "1584308446.028000",
        "parent_user_id": "U01019BQXM3"
    },
    {
        "type": "message",
        "text": "",
        "files": [
            {
                "id": "FV4JLNE5Q",
                "created": 1584377284,
                "timestamp": 1584377284,
                "name": "Sans titre-15.png",
                "title": "Sans titre-15.png",
                "mimetype": "image\/png",
                "filetype": "png",
                "pretty_type": "PNG",
                "user": "U01019BQXM3",
                "editable": false,
                "size": 62112,
                "mode": "hosted",
                "is_external": false,
                "external_type": "",
                "is_public": true,
                "public_url_shared": false,
                "display_as_bot": false,
                "username": "",
                "url_private": "https:\/\/files.slack.com\/files-pri\/TUU48M0T1-FV4JLNE5Q\/sans_titre-15.png?t=xoxe-980144714919-1133254701825-1120841107731-daf595b5a7d6c9028b0b02a925032e36",
                "url_private_download": "https:\/\/files.slack.com\/files-pri\/TUU48M0T1-FV4JLNE5Q\/download\/sans_titre-15.png?t=xoxe-980144714919-1133254701825-1120841107731-daf595b5a7d6c9028b0b02a925032e36",
                "thumb_64": "https:\/\/files.slack.com\/files-tmb\/TUU48M0T1-FV4JLNE5Q-da7df1ff56\/sans_titre-15_64.png?t=xoxe-980144714919-1133254701825-1120841107731-daf595b5a7d6c9028b0b02a925032e36",
                "thumb_80": "https:\/\/files.slack.com\/files-tmb\/TUU48M0T1-FV4JLNE5Q-da7df1ff56\/sans_titre-15_80.png?t=xoxe-980144714919-1133254701825-1120841107731-daf595b5a7d6c9028b0b02a925032e36",
                "thumb_360": "https:\/\/files.slack.com\/files-tmb\/TUU48M0T1-FV4JLNE5Q-da7df1ff56\/sans_titre-15_360.png?t=xoxe-980144714919-1133254701825-1120841107731-daf595b5a7d6c9028b0b02a925032e36",
                "thumb_360_w": 360,
                "thumb_360_h": 137,
                "thumb_480": "https:\/\/files.slack.com\/files-tmb\/TUU48M0T1-FV4JLNE5Q-da7df1ff56\/sans_titre-15_480.png?t=xoxe-980144714919-1133254701825-1120841107731-daf595b5a7d6c9028b0b02a925032e36",
                "thumb_480_w": 480,
                "thumb_480_h": 183,
                "thumb_160": "https:\/\/files.slack.com\/files-tmb\/TUU48M0T1-FV4JLNE5Q-da7df1ff56\/sans_titre-15_160.png?t=xoxe-980144714919-1133254701825-1120841107731-daf595b5a7d6c9028b0b02a925032e36",
                "thumb_720": "https:\/\/files.slack.com\/files-tmb\/TUU48M0T1-FV4JLNE5Q-da7df1ff56\/sans_titre-15_720.png?t=xoxe-980144714919-1133254701825-1120841107731-daf595b5a7d6c9028b0b02a925032e36",
                "thumb_720_w": 720,
                "thumb_720_h": 274,
                "thumb_800": "https:\/\/files.slack.com\/files-tmb\/TUU48M0T1-FV4JLNE5Q-da7df1ff56\/sans_titre-15_800.png?t=xoxe-980144714919-1133254701825-1120841107731-daf595b5a7d6c9028b0b02a925032e36",
                "thumb_800_w": 800,
                "thumb_800_h": 304,
                "thumb_960": "https:\/\/files.slack.com\/files-tmb\/TUU48M0T1-FV4JLNE5Q-da7df1ff56\/sans_titre-15_960.png?t=xoxe-980144714919-1133254701825-1120841107731-daf595b5a7d6c9028b0b02a925032e36",
                "thumb_960_w": 960,
                "thumb_960_h": 365,
                "thumb_1024": "https:\/\/files.slack.com\/files-tmb\/TUU48M0T1-FV4JLNE5Q-da7df1ff56\/sans_titre-15_1024.png?t=xoxe-980144714919-1133254701825-1120841107731-daf595b5a7d6c9028b0b02a925032e36",
                "thumb_1024_w": 1024,
                "thumb_1024_h": 390,
                "image_exif_rotation": 1,
                "original_w": 1230,
                "original_h": 468,
                "thumb_tiny": "AwASADCnTljdhkDIptSLKAuCuecjmqEhqxs2dq5xS+TJ\/dNJu5JIySfWjcv939aBC+TJj7tMozRQAUUUUAFFFFABRRRQB\/\/Z",
                "permalink": "https:\/\/open-covid19.slack.com\/files\/U01019BQXM3\/FV4JLNE5Q\/sans_titre-15.png",
                "permalink_public": "https:\/\/slack-files.com\/TUU48M0T1-FV4JLNE5Q-a48182e545",
                "is_starred": false,
                "has_rich_preview": false
            }
        ],
        "upload": true,
        "user": "U01019BQXM3",
        "display_as_bot": false,
        "ts": "1584377289.053400",
        "client_msg_id": "84cdf21c-0620-4d8f-ab11-20b0cbfd91c0",
        "thread_ts": "1584308446.028000",
        "parent_user_id": "U01019BQXM3"
    },
    {
        "client_msg_id": "cb89b043-c79b-4e7c-8e16-2b9da9b4711b",
        "type": "message",
        "text": "Thank you Marc!",
        "user": "UV0CX49QB",
        "ts": "1584379573.053900",
        "team": "TUU48M0T1",
        "user_team": "TUU48M0T1",
        "source_team": "TUU48M0T1",
        "user_profile": {
            "avatar_hash": "faebd33b1bc9",
            "image_72": "https:\/\/avatars.slack-edge.com\/2020-03-17\/1007182038528_faebd33b1bc9f6356697_72.jpg",
            "first_name": "David",
            "real_name": "David Šmehlík",
            "display_name": "David Šmehlík",
            "team": "TUU48M0T1",
            "name": "akuataja",
            "is_restricted": false,
            "is_ultra_restricted": false
        },
        "blocks": [
            {
                "type": "rich_text",
                "block_id": "dfbhH",
                "elements": [
                    {
                        "type": "rich_text_section",
                        "elements": [
                            {
                                "type": "text",
                                "text": "Thank you Marc!"
                            }
                        ]
                    }
                ]
            }
        ],
        "thread_ts": "1584313796.037500",
        "parent_user_id": "UV0QTJCMT"
    },
    {
        "client_msg_id": "0ae4b139-98ad-48af-992f-3ce43b957408",
        "type": "message",
        "text": "<@UV0QTJCMT> please let me know which of the three versions of the banners on <https:\/\/drive.google.com\/drive\/folders\/1GAXCOEUDiBPwQJmXLNhNFXkDsXLyCxn_|gdrive> is preferred and I will export svg files (better resolution).",
        "user": "UV0CX49QB",
        "ts": "1584380431.056200",
        "team": "TUU48M0T1",
        "user_team": "TUU48M0T1",
        "source_team": "TUU48M0T1",
        "user_profile": {
            "avatar_hash": "faebd33b1bc9",
            "image_72": "https:\/\/avatars.slack-edge.com\/2020-03-17\/1007182038528_faebd33b1bc9f6356697_72.jpg",
            "first_name": "David",
            "real_name": "David Šmehlík",
            "display_name": "David Šmehlík",
            "team": "TUU48M0T1",
            "name": "akuataja",
            "is_restricted": false,
            "is_ultra_restricted": false
        },
        "edited": {
            "user": "UV0CX49QB",
            "ts": "1584380517.000000"
        },
        "blocks": [
            {
                "type": "rich_text",
                "block_id": "obVmn",
                "elements": [
                    {
                        "type": "rich_text_section",
                        "elements": [
                            {
                                "type": "user",
                                "user_id": "UV0QTJCMT"
                            },
                            {
                                "type": "text",
                                "text": " please let me know which of the three versions of the banners on "
                            },
                            {
                                "type": "link",
                                "url": "https:\/\/drive.google.com\/drive\/folders\/1GAXCOEUDiBPwQJmXLNhNFXkDsXLyCxn_",
                                "text": "gdrive"
                            },
                            {
                                "type": "text",
                                "text": " is preferred and I will export svg files (better resolution)."
                            }
                        ]
                    }
                ]
            }
        ],
        "thread_ts": "1584380431.056200",
        "reply_count": 6,
        "reply_users_count": 3,
        "latest_reply": "1584469548.085700",
        "reply_users": [
            "UUP8XJTH8",
            "UV0QTJCMT",
            "UV0CX49QB"
        ],
        "replies": [
            {
                "user": "UUP8XJTH8",
                "ts": "1584436752.057000"
            },
            {
                "user": "UUP8XJTH8",
                "ts": "1584436826.057200"
            },
            {
                "user": "UV0QTJCMT",
                "ts": "1584441122.058200"
            },
            {
                "user": "UV0CX49QB",
                "ts": "1584468929.084800"
            },
            {
                "user": "UV0CX49QB",
                "ts": "1584469188.085100"
            },
            {
                "user": "UV0QTJCMT",
                "ts": "1584469548.085700"
            }
        ],
        "subscribed": false
    }
]