[
    {
        "client_msg_id": "1533fccf-9da5-48fe-b06e-41b84d1904e8",
        "type": "message",
        "text": "This may have been posted already, but this looks like a great resource for Covid19 related icons : <https:\/\/www.iconfinder.com\/p\/coronavirus-awareness-icons>",
        "user": "U010YA82ESJ",
        "ts": "1585927924.080100",
        "team": "TUU48M0T1",
        "user_team": "TUU48M0T1",
        "source_team": "TUU48M0T1",
        "user_profile": {
            "avatar_hash": "g3d19697fad0",
            "image_72": "https:\/\/secure.gravatar.com\/avatar\/3d19697fad09e30bc0dd64bfeb47a28e.jpg?s=72&d=https%3A%2F%2Fa.slack-edge.com%2Fdf10d%2Fimg%2Favatars%2Fava_0012-72.png",
            "first_name": "Brett",
            "real_name": "Brett Marshall",
            "display_name": "Brett",
            "team": "TUU48M0T1",
            "name": "graphfx21",
            "is_restricted": false,
            "is_ultra_restricted": false
        },
        "attachments": [
            {
                "title": "Coronavirus awareness icons",
                "title_link": "https:\/\/www.iconfinder.com\/p\/coronavirus-awareness-icons",
                "text": "Use these free icons for office signs, posters, flyers and other material that helps to fight the virus spread.",
                "fallback": "Coronavirus awareness icons",
                "thumb_url": "https:\/\/assets.website-files.com\/5d9ba0eb5f6edb77992a99d0\/5e661ad168556a632f416750_Coronavirus%20awareness.png",
                "from_url": "https:\/\/www.iconfinder.com\/p\/coronavirus-awareness-icons",
                "thumb_width": 1200,
                "thumb_height": 630,
                "service_icon": "https:\/\/www.iconfinder.com\/favicon.ico",
                "service_name": "iconfinder.com",
                "id": 1,
                "original_url": "https:\/\/www.iconfinder.com\/p\/coronavirus-awareness-icons"
            }
        ],
        "blocks": [
            {
                "type": "rich_text",
                "block_id": "rhgyp",
                "elements": [
                    {
                        "type": "rich_text_section",
                        "elements": [
                            {
                                "type": "text",
                                "text": "This may have been posted already, but this looks like a great resource for Covid19 related icons : "
                            },
                            {
                                "type": "link",
                                "url": "https:\/\/www.iconfinder.com\/p\/coronavirus-awareness-icons"
                            }
                        ]
                    }
                ]
            }
        ]
    },
    {
        "type": "message",
        "text": "Here are a few",
        "files": [
            {
                "id": "F011GTGQFRN",
                "created": 1585928012,
                "timestamp": 1585928012,
                "name": "image.png",
                "title": "image.png",
                "mimetype": "image\/png",
                "filetype": "png",
                "pretty_type": "PNG",
                "user": "U010YA82ESJ",
                "editable": false,
                "size": 91487,
                "mode": "hosted",
                "is_external": false,
                "external_type": "",
                "is_public": true,
                "public_url_shared": false,
                "display_as_bot": false,
                "username": "",
                "url_private": "https:\/\/files.slack.com\/files-pri\/TUU48M0T1-F011GTGQFRN\/image.png?t=xoxe-980144714919-1133254701825-1120841107731-daf595b5a7d6c9028b0b02a925032e36",
                "url_private_download": "https:\/\/files.slack.com\/files-pri\/TUU48M0T1-F011GTGQFRN\/download\/image.png?t=xoxe-980144714919-1133254701825-1120841107731-daf595b5a7d6c9028b0b02a925032e36",
                "thumb_64": "https:\/\/files.slack.com\/files-tmb\/TUU48M0T1-F011GTGQFRN-da741ab187\/image_64.png?t=xoxe-980144714919-1133254701825-1120841107731-daf595b5a7d6c9028b0b02a925032e36",
                "thumb_80": "https:\/\/files.slack.com\/files-tmb\/TUU48M0T1-F011GTGQFRN-da741ab187\/image_80.png?t=xoxe-980144714919-1133254701825-1120841107731-daf595b5a7d6c9028b0b02a925032e36",
                "thumb_360": "https:\/\/files.slack.com\/files-tmb\/TUU48M0T1-F011GTGQFRN-da741ab187\/image_360.png?t=xoxe-980144714919-1133254701825-1120841107731-daf595b5a7d6c9028b0b02a925032e36",
                "thumb_360_w": 360,
                "thumb_360_h": 308,
                "thumb_480": "https:\/\/files.slack.com\/files-tmb\/TUU48M0T1-F011GTGQFRN-da741ab187\/image_480.png?t=xoxe-980144714919-1133254701825-1120841107731-daf595b5a7d6c9028b0b02a925032e36",
                "thumb_480_w": 480,
                "thumb_480_h": 411,
                "thumb_160": "https:\/\/files.slack.com\/files-tmb\/TUU48M0T1-F011GTGQFRN-da741ab187\/image_160.png?t=xoxe-980144714919-1133254701825-1120841107731-daf595b5a7d6c9028b0b02a925032e36",
                "thumb_720": "https:\/\/files.slack.com\/files-tmb\/TUU48M0T1-F011GTGQFRN-da741ab187\/image_720.png?t=xoxe-980144714919-1133254701825-1120841107731-daf595b5a7d6c9028b0b02a925032e36",
                "thumb_720_w": 720,
                "thumb_720_h": 616,
                "thumb_800": "https:\/\/files.slack.com\/files-tmb\/TUU48M0T1-F011GTGQFRN-da741ab187\/image_800.png?t=xoxe-980144714919-1133254701825-1120841107731-daf595b5a7d6c9028b0b02a925032e36",
                "thumb_800_w": 800,
                "thumb_800_h": 684,
                "image_exif_rotation": 1,
                "original_w": 843,
                "original_h": 721,
                "thumb_tiny": "AwApADC+WIdskYwMCgP+5DgFuM47mlc4xwOacOgoAihk35HJIPORjHtTmYq\/tQkgdmXjKnmmzytHsxHvycHnpRqPqSDhfXimxyB+hyKeeBSKwPSgQjKpYE547dqd2prBieAMfXFLyV560ANSMK7MGYluoJpk6Ru6h5CrdgGxTljIlDZ4C4oMIMxkODwAAR0ptsEPOAnJ49ajjaJnYI2WXqMnipSCVI71Xt4ZI5GLBMN1I60BoSvuzgDjFO5C8dcU6ikBXto2RSXJLHrk5qxRRQAUUUUAf\/\/Z",
                "permalink": "https:\/\/open-covid19.slack.com\/files\/U010YA82ESJ\/F011GTGQFRN\/image.png",
                "permalink_public": "https:\/\/slack-files.com\/TUU48M0T1-F011GTGQFRN-4ee0f21303",
                "is_starred": false,
                "has_rich_preview": false
            }
        ],
        "upload": true,
        "blocks": [
            {
                "type": "rich_text",
                "block_id": "qJ4",
                "elements": [
                    {
                        "type": "rich_text_section",
                        "elements": [
                            {
                                "type": "text",
                                "text": "Here are a few"
                            }
                        ]
                    }
                ]
            }
        ],
        "user": "U010YA82ESJ",
        "display_as_bot": false,
        "ts": "1585928016.080300",
        "client_msg_id": "88658f64-bb4a-49a4-94a3-c5ebd47c6b53",
        "thread_ts": "1585928016.080300",
        "reply_count": 1,
        "reply_users_count": 1,
        "latest_reply": "1586092439.084300",
        "reply_users": [
            "U011DR5B6Q0"
        ],
        "replies": [
            {
                "user": "U011DR5B6Q0",
                "ts": "1586092439.084300"
            }
        ],
        "subscribed": false,
        "reactions": [
            {
                "name": "+1",
                "users": [
                    "UV0QTJCMT",
                    "UV2SC7ZE3",
                    "U0103128G4D",
                    "U01155M7M62",
                    "U010ZRNUQ0J"
                ],
                "count": 5
            },
            {
                "name": "heart_eyes",
                "users": [
                    "UV1A22N3W",
                    "UV8AZ6ABC",
                    "U01155M7M62",
                    "U0103128G4D",
                    "U010ZRNUQ0J"
                ],
                "count": 5
            }
        ]
    },
    {
        "client_msg_id": "01b26454-6100-4355-86f9-c1df6503b232",
        "type": "message",
        "text": "&amp; its free…",
        "user": "U010YA82ESJ",
        "ts": "1585928027.080800",
        "team": "TUU48M0T1",
        "user_team": "TUU48M0T1",
        "source_team": "TUU48M0T1",
        "user_profile": {
            "avatar_hash": "g3d19697fad0",
            "image_72": "https:\/\/secure.gravatar.com\/avatar\/3d19697fad09e30bc0dd64bfeb47a28e.jpg?s=72&d=https%3A%2F%2Fa.slack-edge.com%2Fdf10d%2Fimg%2Favatars%2Fava_0012-72.png",
            "first_name": "Brett",
            "real_name": "Brett Marshall",
            "display_name": "Brett",
            "team": "TUU48M0T1",
            "name": "graphfx21",
            "is_restricted": false,
            "is_ultra_restricted": false
        },
        "blocks": [
            {
                "type": "rich_text",
                "block_id": "sKk9J",
                "elements": [
                    {
                        "type": "rich_text_section",
                        "elements": [
                            {
                                "type": "text",
                                "text": "& its free…"
                            }
                        ]
                    }
                ]
            }
        ]
    }
]