[
    {
        "client_msg_id": "9261e68f-161e-4cab-a2a7-9adf8b8b08db",
        "type": "message",
        "text": "<@UV76CQTB4> great initiative! i am a graphic designer and my feild of work is  creating game assests . I can help with game design too.",
        "user": "U010BHAPG3F",
        "ts": "1584867387.137900",
        "team": "TUU48M0T1",
        "user_team": "TUU48M0T1",
        "source_team": "TUU48M0T1",
        "user_profile": {
            "avatar_hash": "ga3e10157782",
            "image_72": "https:\/\/secure.gravatar.com\/avatar\/a3e1015778251ea7f8648407ce22631b.jpg?s=72&d=https%3A%2F%2Fa.slack-edge.com%2Fdf10d%2Fimg%2Favatars%2Fava_0024-72.png",
            "first_name": "",
            "real_name": "radhika_beaumé",
            "display_name": "radhika_beaumé",
            "team": "TUU48M0T1",
            "name": "radhika.beaume",
            "is_restricted": false,
            "is_ultra_restricted": false
        },
        "blocks": [
            {
                "type": "rich_text",
                "block_id": "lXfG",
                "elements": [
                    {
                        "type": "rich_text_section",
                        "elements": [
                            {
                                "type": "user",
                                "user_id": "UV76CQTB4"
                            },
                            {
                                "type": "text",
                                "text": " great initiative! i am a graphic designer and my feild of work is  creating game assests . I can help with game design too."
                            }
                        ]
                    }
                ]
            }
        ],
        "reactions": [
            {
                "name": "heart_eyes",
                "users": [
                    "UV76CQTB4"
                ],
                "count": 1
            },
            {
                "name": "+1",
                "users": [
                    "UV0CX49QB"
                ],
                "count": 1
            }
        ]
    }
]