[
    {
        "client_msg_id": "1a66a842-dd30-432b-8984-a5e56983dd55",
        "type": "message",
        "text": "Hey there :slightly_smiling_face:\nDo you have an update you’d like to share during the global community call?\nIf yes, please put your name in this document: <https:\/\/docs.google.com\/document\/d\/1H0v-5KD1eATfnkD1U_XnoxfCT-BLIKl7sD3-tL1lmMQ\/edit>",
        "user": "UV02WET96",
        "ts": "1585756037.001000",
        "team": "TUU48M0T1",
        "user_team": "TUU48M0T1",
        "source_team": "TUU48M0T1",
        "user_profile": {
            "avatar_hash": "a99c74a194f8",
            "image_72": "https:\/\/avatars.slack-edge.com\/2020-03-07\/975708504851_a99c74a194f86715ca7d_72.png",
            "first_name": "Thomas",
            "real_name": "Thomas Landrain",
            "display_name": "Thomas Landrain - JOGL CoFounder \/ CEO",
            "team": "TUU48M0T1",
            "name": "thomas",
            "is_restricted": false,
            "is_ultra_restricted": false
        },
        "blocks": [
            {
                "type": "rich_text",
                "block_id": "ZRRb",
                "elements": [
                    {
                        "type": "rich_text_section",
                        "elements": [
                            {
                                "type": "text",
                                "text": "Hey there "
                            },
                            {
                                "type": "emoji",
                                "name": "slightly_smiling_face"
                            },
                            {
                                "type": "text",
                                "text": "\nDo you have an update you’d like to share during the global community call?\nIf yes, please put your name in this document: "
                            },
                            {
                                "type": "link",
                                "url": "https:\/\/docs.google.com\/document\/d\/1H0v-5KD1eATfnkD1U_XnoxfCT-BLIKl7sD3-tL1lmMQ\/edit"
                            }
                        ]
                    }
                ]
            }
        ]
    }
]