[
    {
        "client_msg_id": "25d19f89-05d8-48b5-b040-7bec1fd1da05",
        "type": "message",
        "text": "For what it's worth, I still pop in now and then.",
        "user": "UVDCTDP8B",
        "ts": "1585838676.002900",
        "team": "TUU48M0T1",
        "user_team": "TUU48M0T1",
        "source_team": "TUU48M0T1",
        "user_profile": {
            "avatar_hash": "b9681d276810",
            "image_72": "https:\/\/avatars.slack-edge.com\/2020-03-21\/1018866726103_b9681d2768103ad056d7_72.jpg",
            "first_name": "",
            "real_name": "Wesley",
            "display_name": "Wesley",
            "team": "TUU48M0T1",
            "name": "someprogrammerorsomet",
            "is_restricted": false,
            "is_ultra_restricted": false
        },
        "edited": {
            "user": "UVDCTDP8B",
            "ts": "1585838684.000000"
        },
        "blocks": [
            {
                "type": "rich_text",
                "block_id": "ykA",
                "elements": [
                    {
                        "type": "rich_text_section",
                        "elements": [
                            {
                                "type": "text",
                                "text": "For what it's worth, I still pop in now and then."
                            }
                        ]
                    }
                ]
            }
        ],
        "thread_ts": "1585694669.001600",
        "parent_user_id": "UV9V03C8Y"
    },
    {
        "client_msg_id": "85a8a20c-ad12-4d5e-a0c2-10c828364354",
        "type": "message",
        "text": "\"LitCovid is a curated literature hub for tracking up-to-date scientific information about the 2019 novel Coronavirus\":\n<https:\/\/www.ncbi.nlm.nih.gov\/research\/coronavirus\/>",
        "user": "U0115U5P1B6",
        "ts": "1585840182.003700",
        "team": "TUU48M0T1",
        "user_team": "TUU48M0T1",
        "source_team": "TUU48M0T1",
        "user_profile": {
            "avatar_hash": "6874ee7768d4",
            "image_72": "https:\/\/avatars.slack-edge.com\/2020-04-01\/1040583598240_6874ee7768d4233e0047_72.jpg",
            "first_name": "",
            "real_name": "Mika Turkia",
            "display_name": "Mika Turkia",
            "team": "TUU48M0T1",
            "name": "turkia",
            "is_restricted": false,
            "is_ultra_restricted": false
        },
        "attachments": [
            {
                "title": "LitCovid - NCBI - NLM - NIH",
                "title_link": "https:\/\/www.ncbi.nlm.nih.gov\/research\/coronavirus\/",
                "text": "LitCovid is a unique web system for tracking the most recent publications and literature about the 2019 Coronavirus (2019-nCov,SARS-CoV-2, COVID-19) outbreak. LitCovid is the most comprehensive resource on the subject.",
                "fallback": "LitCovid - NCBI - NLM - NIH",
                "from_url": "https:\/\/www.ncbi.nlm.nih.gov\/research\/coronavirus\/",
                "service_icon": "https:\/\/www.ncbi.nlm.nih.gov\/favicon.ico",
                "service_name": "ncbi.nlm.nih.gov",
                "id": 1,
                "original_url": "https:\/\/www.ncbi.nlm.nih.gov\/research\/coronavirus\/"
            }
        ],
        "blocks": [
            {
                "type": "rich_text",
                "block_id": "7EHms",
                "elements": [
                    {
                        "type": "rich_text_section",
                        "elements": [
                            {
                                "type": "text",
                                "text": "\"LitCovid is a curated literature hub for tracking up-to-date scientific information about the 2019 novel Coronavirus\":\n"
                            },
                            {
                                "type": "link",
                                "url": "https:\/\/www.ncbi.nlm.nih.gov\/research\/coronavirus\/"
                            }
                        ]
                    }
                ]
            }
        ],
        "reactions": [
            {
                "name": "+1",
                "users": [
                    "UV1A22N3W",
                    "U010G1TCBN2"
                ],
                "count": 2
            }
        ]
    }
]