Id	Type
294	poster
252	poster
252	poster
191	poster
252	poster
191	poster
252	poster
252	commenter
7	commenter
191	commenter
191	commenter
191	commenter
252	commenter
191	commenter
3	commenter
15	commenter
191	commenter
2	commenter
3	commenter
