[
    {
        "client_msg_id": "57ca0048-2091-46d3-bc6e-6fec2ff5074e",
        "type": "message",
        "text": "Hey! I happen to have a few slides i did to broadly explain Collaborative and Content Based recsys (with emojis and stuff). And some other things that could be relevant. if you it could be useful, i can find and upload the docs somewhere (actually, where? is there a shared google drive?)",
        "user": "U010RE1NDCG",
        "ts": "1585326185.007800",
        "team": "TUU48M0T1",
        "user_team": "TUU48M0T1",
        "source_team": "TUU48M0T1",
        "user_profile": {
            "avatar_hash": "9b536de47814",
            "image_72": "https:\/\/avatars.slack-edge.com\/2020-03-27\/1033593346022_9b536de4781429680ea1_72.jpg",
            "first_name": "",
            "real_name": "Prashant Sinha",
            "display_name": "",
            "team": "TUU48M0T1",
            "name": "prashant",
            "is_restricted": false,
            "is_ultra_restricted": false
        },
        "blocks": [
            {
                "type": "rich_text",
                "block_id": "4Bvy",
                "elements": [
                    {
                        "type": "rich_text_section",
                        "elements": [
                            {
                                "type": "text",
                                "text": "Hey! I happen to have a few slides i did to broadly explain Collaborative and Content Based recsys (with emojis and stuff). And some other things that could be relevant. if you it could be useful, i can find and upload the docs somewhere (actually, where? is there a shared google drive?)"
                            }
                        ]
                    }
                ]
            }
        ]
    },
    {
        "type": "message",
        "subtype": "channel_join",
        "ts": "1585327417.008000",
        "user": "U010AGDDEBZ",
        "text": "<@U010AGDDEBZ> has joined the channel"
    },
    {
        "client_msg_id": "f65a68f5-b9f1-4e14-ae00-a25ab11b8cf0",
        "type": "message",
        "text": "yes <@U010RE1NDCG> let me do that (i just got access to the gdrive of the program)",
        "user": "UV85V64SD",
        "ts": "1585327613.008400",
        "team": "TUU48M0T1",
        "user_team": "TUU48M0T1",
        "source_team": "TUU48M0T1",
        "user_profile": {
            "avatar_hash": "1e73a651bdfe",
            "image_72": "https:\/\/avatars.slack-edge.com\/2020-03-16\/1004297548853_1e73a651bdfef2c41501_72.jpg",
            "first_name": "Marc",
            "real_name": "Marc Santolini",
            "display_name": "Marc Santolini - JOGL CoFounder \/ CSO",
            "team": "TUU48M0T1",
            "name": "marc.santolini",
            "is_restricted": false,
            "is_ultra_restricted": false
        },
        "blocks": [
            {
                "type": "rich_text",
                "block_id": "\/fP",
                "elements": [
                    {
                        "type": "rich_text_section",
                        "elements": [
                            {
                                "type": "text",
                                "text": "yes "
                            },
                            {
                                "type": "user",
                                "user_id": "U010RE1NDCG"
                            },
                            {
                                "type": "text",
                                "text": " let me do that (i just got access to the gdrive of the program)"
                            }
                        ]
                    }
                ]
            }
        ]
    },
    {
        "client_msg_id": "ea633ccd-04ad-4b56-8ee0-4ee35f976002",
        "type": "message",
        "text": "actually i have troubles getting access to the proper gdrive but for now please use this folder: <https:\/\/drive.google.com\/drive\/folders\/1GXgXomNpN1SFYiZTHQ6ElGj-4RNfR6bw?usp=sharing>",
        "user": "UV85V64SD",
        "ts": "1585327867.008800",
        "team": "TUU48M0T1",
        "user_team": "TUU48M0T1",
        "source_team": "TUU48M0T1",
        "user_profile": {
            "avatar_hash": "1e73a651bdfe",
            "image_72": "https:\/\/avatars.slack-edge.com\/2020-03-16\/1004297548853_1e73a651bdfef2c41501_72.jpg",
            "first_name": "Marc",
            "real_name": "Marc Santolini",
            "display_name": "Marc Santolini - JOGL CoFounder \/ CSO",
            "team": "TUU48M0T1",
            "name": "marc.santolini",
            "is_restricted": false,
            "is_ultra_restricted": false
        },
        "blocks": [
            {
                "type": "rich_text",
                "block_id": "S8o",
                "elements": [
                    {
                        "type": "rich_text_section",
                        "elements": [
                            {
                                "type": "text",
                                "text": "actually i have troubles getting access to the proper gdrive but for now please use this folder: "
                            },
                            {
                                "type": "link",
                                "url": "https:\/\/drive.google.com\/drive\/folders\/1GXgXomNpN1SFYiZTHQ6ElGj-4RNfR6bw?usp=sharing"
                            }
                        ]
                    }
                ]
            }
        ]
    },
    {
        "type": "message",
        "subtype": "channel_join",
        "ts": "1585331160.009100",
        "user": "UVCS0865Q",
        "text": "<@UVCS0865Q> has joined the channel"
    },
    {
        "type": "message",
        "subtype": "channel_join",
        "ts": "1585357542.009500",
        "user": "U010GQLQM0V",
        "text": "<@U010GQLQM0V> has joined the channel"
    }
]