[
    {
        "client_msg_id": "298ea6ff-d584-4183-b7cd-6bae6dc8dc31",
        "type": "message",
        "text": "Nice !",
        "user": "U01113Y1PLP",
        "ts": "1585640032.029600",
        "team": "TUU48M0T1",
        "user_team": "TUU48M0T1",
        "source_team": "TUU48M0T1",
        "user_profile": {
            "avatar_hash": "09f91663be3c",
            "image_72": "https:\/\/avatars.slack-edge.com\/2020-03-28\/1033063469301_09f91663be3c4c21e257_72.png",
            "first_name": "Luis",
            "real_name": "Luis Arias",
            "display_name": "Luis Arias",
            "team": "TUU48M0T1",
            "name": "luis603",
            "is_restricted": false,
            "is_ultra_restricted": false
        },
        "blocks": [
            {
                "type": "rich_text",
                "block_id": "Rxm6T",
                "elements": [
                    {
                        "type": "rich_text_section",
                        "elements": [
                            {
                                "type": "text",
                                "text": "Nice !"
                            }
                        ]
                    }
                ]
            }
        ],
        "thread_ts": "1585601918.029100",
        "parent_user_id": "UVC9WMA7N"
    },
    {
        "client_msg_id": "81ee588f-5eb2-49f0-a959-61cd545b58f9",
        "type": "message",
        "text": "This is very interesting. The examples given look less generic in the way that computations can be made and in the way paths can consider. What do you think? Can it produce general scores related to any type of path of types of nodes? If yes, and if fast, this is a good way for moving towards real-time. HINPy’s philosophy is load all on memory, then make computations. An approach of computation made directly on a graph DB is unescapable at some point in the evolution of a site, I guess. This interests me also, because I think that at some point, HINPy code is going to have to be translated to a graph DB, but which one? On which one to invest the effort? Do you have experience with dgraph?",
        "user": "U010734498S",
        "ts": "1585642130.029800",
        "team": "TUU48M0T1",
        "user_team": "TUU48M0T1",
        "source_team": "TUU48M0T1",
        "user_profile": {
            "avatar_hash": "g85cae5734da",
            "image_72": "https:\/\/secure.gravatar.com\/avatar\/85cae5734dae69539dca99aa96ef691f.jpg?s=72&d=https%3A%2F%2Fa.slack-edge.com%2Fdf10d%2Fimg%2Favatars%2Fava_0011-72.png",
            "first_name": "",
            "real_name": "pedro ramaciotti",
            "display_name": "pedro ramaciotti",
            "team": "TUU48M0T1",
            "name": "pedro.ramaciotti",
            "is_restricted": false,
            "is_ultra_restricted": false
        },
        "blocks": [
            {
                "type": "rich_text",
                "block_id": "\/jt",
                "elements": [
                    {
                        "type": "rich_text_section",
                        "elements": [
                            {
                                "type": "text",
                                "text": "This is very interesting. The examples given look less generic in the way that computations can be made and in the way paths can consider. What do you think? Can it produce general scores related to any type of path of types of nodes? If yes, and if fast, this is a good way for moving towards real-time. HINPy’s philosophy is load all on memory, then make computations. An approach of computation made directly on a graph DB is unescapable at some point in the evolution of a site, I guess. This interests me also, because I think that at some point, HINPy code is going to have to be translated to a graph DB, but which one? On which one to invest the effort? Do you have experience with dgraph?"
                            }
                        ]
                    }
                ]
            }
        ],
        "thread_ts": "1585601918.029100",
        "parent_user_id": "UVC9WMA7N"
    },
    {
        "client_msg_id": "a88b56b0-7b37-4a64-847f-f825b8f96cb0",
        "type": "message",
        "text": "No I started delving into graph DBs for our knowledge graph at Outmind but we have been too busy with basic product features and cloud deployment to really take a deep dive.  On the other hand this seems like a good time to do that for Jogl :sunglasses:  Here is an interesting ranking: <https:\/\/db-engines.com\/en\/ranking\/graph+dbms>  Although dgraph looks really nice, I think that ultimately organisational considerations may guide our choice in this area.  So a managed graph db seems like a very good fit for JOGL.  Using this logic if we move to AWS their Neptune offer although not very well known seems like a good choice.  Azure has Cosmos DB which has much more traction but unless we decide to do multi-cloud that might not be an option.  Cosmos is pretty cool since muti-paradigm and the documentation is top notch.  Of course dgraph offers a managed service for their software too. Not an easy choice.",
        "user": "U01113Y1PLP",
        "ts": "1585643364.030000",
        "team": "TUU48M0T1",
        "user_team": "TUU48M0T1",
        "source_team": "TUU48M0T1",
        "user_profile": {
            "avatar_hash": "09f91663be3c",
            "image_72": "https:\/\/avatars.slack-edge.com\/2020-03-28\/1033063469301_09f91663be3c4c21e257_72.png",
            "first_name": "Luis",
            "real_name": "Luis Arias",
            "display_name": "Luis Arias",
            "team": "TUU48M0T1",
            "name": "luis603",
            "is_restricted": false,
            "is_ultra_restricted": false
        },
        "attachments": [
            {
                "service_name": "DB-Engines",
                "title": "DB-Engines Ranking",
                "title_link": "https:\/\/db-engines.com\/en\/ranking\/graph+dbms",
                "text": "Popularity ranking of graph DBMS.",
                "fallback": "DB-Engines: DB-Engines Ranking",
                "thumb_url": "https:\/\/db-engines.com\/pictures\/db-engines_128x128.png",
                "from_url": "https:\/\/db-engines.com\/en\/ranking\/graph+dbms",
                "thumb_width": 128,
                "thumb_height": 128,
                "service_icon": "https:\/\/db-engines.com\/favicon.ico",
                "id": 1,
                "original_url": "https:\/\/db-engines.com\/en\/ranking\/graph+dbms"
            }
        ],
        "blocks": [
            {
                "type": "rich_text",
                "block_id": "qeTbV",
                "elements": [
                    {
                        "type": "rich_text_section",
                        "elements": [
                            {
                                "type": "text",
                                "text": "No I started delving into graph DBs for our knowledge graph at Outmind but we have been too busy with basic product features and cloud deployment to really take a deep dive.  On the other hand this seems like a good time to do that for Jogl "
                            },
                            {
                                "type": "emoji",
                                "name": "sunglasses"
                            },
                            {
                                "type": "text",
                                "text": "  Here is an interesting ranking: "
                            },
                            {
                                "type": "link",
                                "url": "https:\/\/db-engines.com\/en\/ranking\/graph+dbms"
                            },
                            {
                                "type": "text",
                                "text": "  Although dgraph looks really nice, I think that ultimately organisational considerations may guide our choice in this area.  So a managed graph db seems like a very good fit for JOGL.  Using this logic if we move to AWS their Neptune offer although not very well known seems like a good choice.  Azure has Cosmos DB which has much more traction but unless we decide to do multi-cloud that might not be an option.  Cosmos is pretty cool since muti-paradigm and the documentation is top notch.  Of course dgraph offers a managed service for their software too. Not an easy choice."
                            }
                        ]
                    }
                ]
            }
        ],
        "thread_ts": "1585601918.029100",
        "parent_user_id": "UVC9WMA7N"
    },
    {
        "client_msg_id": "662592d0-68e6-4d9b-8dcc-1952d99a7bec",
        "type": "message",
        "text": "On another topic, <@U010734498S>’s code is GPL3 licensed and the JOGL frontend and backend are MIT licensed.  As long as the rs engine is a separate process I suppose it can be licensed GPL3 right ?  Is that a bit too restrictive with respect to the rest of the code base ?",
        "user": "U01113Y1PLP",
        "ts": "1585643538.031900",
        "team": "TUU48M0T1",
        "user_team": "TUU48M0T1",
        "source_team": "TUU48M0T1",
        "user_profile": {
            "avatar_hash": "09f91663be3c",
            "image_72": "https:\/\/avatars.slack-edge.com\/2020-03-28\/1033063469301_09f91663be3c4c21e257_72.png",
            "first_name": "Luis",
            "real_name": "Luis Arias",
            "display_name": "Luis Arias",
            "team": "TUU48M0T1",
            "name": "luis603",
            "is_restricted": false,
            "is_ultra_restricted": false
        },
        "blocks": [
            {
                "type": "rich_text",
                "block_id": "X92L",
                "elements": [
                    {
                        "type": "rich_text_section",
                        "elements": [
                            {
                                "type": "text",
                                "text": "On another topic, "
                            },
                            {
                                "type": "user",
                                "user_id": "U010734498S"
                            },
                            {
                                "type": "text",
                                "text": "’s code is GPL3 licensed and the JOGL frontend and backend are MIT licensed.  As long as the rs engine is a separate process I suppose it can be licensed GPL3 right ?  Is that a bit too restrictive with respect to the rest of the code base ?"
                            }
                        ]
                    }
                ]
            }
        ]
    },
    {
        "client_msg_id": "6b25e5b3-c248-4a27-a300-9310d77a263d",
        "type": "message",
        "text": "<@UVC9WMA7N> is the one to answer this :slightly_smiling_face:",
        "user": "UV85V64SD",
        "ts": "1585646569.032500",
        "team": "TUU48M0T1",
        "user_team": "TUU48M0T1",
        "source_team": "TUU48M0T1",
        "user_profile": {
            "avatar_hash": "1e73a651bdfe",
            "image_72": "https:\/\/avatars.slack-edge.com\/2020-03-16\/1004297548853_1e73a651bdfef2c41501_72.jpg",
            "first_name": "Marc",
            "real_name": "Marc Santolini",
            "display_name": "Marc Santolini - JOGL CoFounder \/ CSO",
            "team": "TUU48M0T1",
            "name": "marc.santolini",
            "is_restricted": false,
            "is_ultra_restricted": false
        },
        "blocks": [
            {
                "type": "rich_text",
                "block_id": "L3T7E",
                "elements": [
                    {
                        "type": "rich_text_section",
                        "elements": [
                            {
                                "type": "user",
                                "user_id": "UVC9WMA7N"
                            },
                            {
                                "type": "text",
                                "text": " is the one to answer this "
                            },
                            {
                                "type": "emoji",
                                "name": "slightly_smiling_face"
                            }
                        ]
                    }
                ]
            }
        ]
    },
    {
        "client_msg_id": "bd7d198c-4c3a-46a4-9fc2-6d6d38cd8c0e",
        "type": "message",
        "text": "also let me make a pinned message for easier onboarding on this channel",
        "user": "UV85V64SD",
        "ts": "1585646584.032800",
        "team": "TUU48M0T1",
        "user_team": "TUU48M0T1",
        "source_team": "TUU48M0T1",
        "user_profile": {
            "avatar_hash": "1e73a651bdfe",
            "image_72": "https:\/\/avatars.slack-edge.com\/2020-03-16\/1004297548853_1e73a651bdfef2c41501_72.jpg",
            "first_name": "Marc",
            "real_name": "Marc Santolini",
            "display_name": "Marc Santolini - JOGL CoFounder \/ CSO",
            "team": "TUU48M0T1",
            "name": "marc.santolini",
            "is_restricted": false,
            "is_ultra_restricted": false
        },
        "blocks": [
            {
                "type": "rich_text",
                "block_id": "A244",
                "elements": [
                    {
                        "type": "rich_text_section",
                        "elements": [
                            {
                                "type": "text",
                                "text": "also let me make a pinned message for easier onboarding on this channel"
                            }
                        ]
                    }
                ]
            }
        ]
    },
    {
        "type": "message",
        "text": "For information related to this channel, please find:\n\n• a *masterfile* with information on meetings and contributing guidelines: <https:\/\/docs.google.com\/document\/d\/15YNWmteB_H77Q30zV1KvuyRv1347XHAx46ebNU3-_Ak\/edit#>\n• our *gitlab* for working on the code: <https:\/\/gitlab.com\/JOGL\/recommender>\nRegular meeting for this subgroup: on Mondays 5pm CET.",
        "files": [
            {
                "id": "F010TNP8N4R",
                "created": 1585646474,
                "timestamp": 1585646474,
                "name": "Metastudy master file",
                "title": "Metastudy master file",
                "mimetype": "application\/vnd.google-apps.document",
                "filetype": "gdoc",
                "pretty_type": "GSuite Document",
                "user": "UV85V64SD",
                "editable": false,
                "size": 4796,
                "mode": "external",
                "is_external": true,
                "external_type": "gdrive",
                "is_public": true,
                "public_url_shared": false,
                "display_as_bot": false,
                "username": "",
                "url_private": "https:\/\/docs.google.com\/document\/d\/15YNWmteB_H77Q30zV1KvuyRv1347XHAx46ebNU3-_Ak\/edit#",
                "thumb_64": "https:\/\/files.slack.com\/files-tmb\/TUU48M0T1-F010TNP8N4R-82738d3857\/metastudy_master_file_64.png?t=xoxe-980144714919-1106606678066-1105227127893-6f722bb664235052954ad46852628b64",
                "thumb_80": "https:\/\/files.slack.com\/files-tmb\/TUU48M0T1-F010TNP8N4R-82738d3857\/metastudy_master_file_80.png?t=xoxe-980144714919-1106606678066-1105227127893-6f722bb664235052954ad46852628b64",
                "thumb_360": "https:\/\/files.slack.com\/files-tmb\/TUU48M0T1-F010TNP8N4R-82738d3857\/metastudy_master_file_360.png?t=xoxe-980144714919-1106606678066-1105227127893-6f722bb664235052954ad46852628b64",
                "thumb_360_w": 278,
                "thumb_360_h": 360,
                "thumb_480": "https:\/\/files.slack.com\/files-tmb\/TUU48M0T1-F010TNP8N4R-82738d3857\/metastudy_master_file_480.png?t=xoxe-980144714919-1106606678066-1105227127893-6f722bb664235052954ad46852628b64",
                "thumb_480_w": 371,
                "thumb_480_h": 480,
                "thumb_160": "https:\/\/files.slack.com\/files-tmb\/TUU48M0T1-F010TNP8N4R-82738d3857\/metastudy_master_file_160.png?t=xoxe-980144714919-1106606678066-1105227127893-6f722bb664235052954ad46852628b64",
                "thumb_720": "https:\/\/files.slack.com\/files-tmb\/TUU48M0T1-F010TNP8N4R-82738d3857\/metastudy_master_file_720.png?t=xoxe-980144714919-1106606678066-1105227127893-6f722bb664235052954ad46852628b64",
                "thumb_720_w": 557,
                "thumb_720_h": 720,
                "thumb_800": "https:\/\/files.slack.com\/files-tmb\/TUU48M0T1-F010TNP8N4R-82738d3857\/metastudy_master_file_800.png?t=xoxe-980144714919-1106606678066-1105227127893-6f722bb664235052954ad46852628b64",
                "thumb_800_w": 800,
                "thumb_800_h": 1035,
                "thumb_960": "https:\/\/files.slack.com\/files-tmb\/TUU48M0T1-F010TNP8N4R-82738d3857\/metastudy_master_file_960.png?t=xoxe-980144714919-1106606678066-1105227127893-6f722bb664235052954ad46852628b64",
                "thumb_960_w": 742,
                "thumb_960_h": 960,
                "thumb_1024": "https:\/\/files.slack.com\/files-tmb\/TUU48M0T1-F010TNP8N4R-82738d3857\/metastudy_master_file_1024.png?t=xoxe-980144714919-1106606678066-1105227127893-6f722bb664235052954ad46852628b64",
                "thumb_1024_w": 791,
                "thumb_1024_h": 1024,
                "image_exif_rotation": 1,
                "original_w": 800,
                "original_h": 1035,
                "thumb_tiny": "AwAwACXTpM0NRj60AICfSnUYoxQAUUUUAI3ShTmg470DHbmgBaKKKACiiigBGpOSODTsUYoAQbqMn0pcUUAFFFFAH\/\/Z",
                "permalink": "https:\/\/open-covid19.slack.com\/files\/UV85V64SD\/F010TNP8N4R\/metastudy_master_file",
                "is_starred": false,
                "external_id": "15YNWmteB_H77Q30zV1KvuyRv1347XHAx46ebNU3-_Ak",
                "external_url": "https:\/\/docs.google.com\/document\/d\/15YNWmteB_H77Q30zV1KvuyRv1347XHAx46ebNU3-_Ak\/edit#",
                "has_rich_preview": true
            }
        ],
        "upload": false,
        "blocks": [
            {
                "type": "rich_text",
                "block_id": "hPL",
                "elements": [
                    {
                        "type": "rich_text_section",
                        "elements": [
                            {
                                "type": "text",
                                "text": "For information related to this channel, please find:\n\n"
                            }
                        ]
                    },
                    {
                        "type": "rich_text_list",
                        "style": "bullet",
                        "indent": 0,
                        "elements": [
                            {
                                "type": "rich_text_section",
                                "elements": [
                                    {
                                        "type": "text",
                                        "text": "a "
                                    },
                                    {
                                        "type": "text",
                                        "text": "masterfile",
                                        "style": {
                                            "bold": true
                                        }
                                    },
                                    {
                                        "type": "text",
                                        "text": " with information on meetings and contributing guidelines: "
                                    },
                                    {
                                        "type": "link",
                                        "url": "https:\/\/docs.google.com\/document\/d\/15YNWmteB_H77Q30zV1KvuyRv1347XHAx46ebNU3-_Ak\/edit#"
                                    }
                                ]
                            },
                            {
                                "type": "rich_text_section",
                                "elements": [
                                    {
                                        "type": "text",
                                        "text": "our "
                                    },
                                    {
                                        "type": "text",
                                        "text": "gitlab ",
                                        "style": {
                                            "bold": true
                                        }
                                    },
                                    {
                                        "type": "text",
                                        "text": "for working on the code: "
                                    },
                                    {
                                        "type": "link",
                                        "url": "https:\/\/gitlab.com\/JOGL\/recommender"
                                    }
                                ]
                            }
                        ]
                    },
                    {
                        "type": "rich_text_section",
                        "elements": [
                            {
                                "type": "text",
                                "text": "\nRegular meeting for this subgroup: on Mondays 5pm CET."
                            }
                        ]
                    }
                ]
            }
        ],
        "user": "UV85V64SD",
        "display_as_bot": false,
        "x_files": [
            "F010TNP8N4R"
        ],
        "ts": "1585646642.033400",
        "client_msg_id": "35b65944-22e0-4cc9-b15c-e56a82f1b6dd",
        "attachments": [
            {
                "service_name": "GitLab",
                "title": "Just One Giant Lab \/ recommender",
                "title_link": "https:\/\/gitlab.com\/JOGL\/recommender",
                "text": "Recommender system for the JOGL platform.",
                "fallback": "GitLab: Just One Giant Lab \/ recommender",
                "thumb_url": "https:\/\/assets.gitlab-static.net\/assets\/gitlab_logo-7ae504fe4f68fdebb3c2034e36621930cd36ea87924c11ff65dbcb8ed50dca58.png",
                "from_url": "https:\/\/gitlab.com\/JOGL\/recommender",
                "thumb_width": 128,
                "thumb_height": 128,
                "service_icon": "https:\/\/assets.gitlab-static.net\/assets\/touch-icon-iphone-5a9cee0e8a51212e70b90c87c12f382c428870c0ff67d1eb034d884b78d2dae7.png",
                "id": 1,
                "original_url": "https:\/\/gitlab.com\/JOGL\/recommender"
            }
        ]
    },
    {
        "type": "message",
        "subtype": "channel_topic",
        "ts": "1585646666.034100",
        "user": "UV85V64SD",
        "text": "<@UV85V64SD> set the channel topic: Working group on  JOGL recommender system, check pinned messages for onboarding",
        "topic": "Working group on  JOGL recommender system, check pinned messages for onboarding"
    },
    {
        "client_msg_id": "bbafee22-9997-4c10-a4fc-e1375a2cad5f",
        "type": "message",
        "text": "<@U010734498S> we can use the gitlab to share codes and papers related to HIN on JOGL network (it’s empty for now :)).\nwe can also use issues to track progress, let me know your gitlab handles and i can invite you.",
        "user": "UV85V64SD",
        "ts": "1585646751.035000",
        "team": "TUU48M0T1",
        "user_team": "TUU48M0T1",
        "source_team": "TUU48M0T1",
        "user_profile": {
            "avatar_hash": "1e73a651bdfe",
            "image_72": "https:\/\/avatars.slack-edge.com\/2020-03-16\/1004297548853_1e73a651bdfef2c41501_72.jpg",
            "first_name": "Marc",
            "real_name": "Marc Santolini",
            "display_name": "Marc Santolini - JOGL CoFounder \/ CSO",
            "team": "TUU48M0T1",
            "name": "marc.santolini",
            "is_restricted": false,
            "is_ultra_restricted": false
        },
        "blocks": [
            {
                "type": "rich_text",
                "block_id": "\/Sz",
                "elements": [
                    {
                        "type": "rich_text_section",
                        "elements": [
                            {
                                "type": "user",
                                "user_id": "U010734498S"
                            },
                            {
                                "type": "text",
                                "text": " we can use the gitlab to share codes and papers related to HIN on JOGL network (it’s empty for now :)).\nwe can also use issues to track progress, let me know your gitlab handles and i can invite you."
                            }
                        ]
                    }
                ]
            }
        ]
    },
    {
        "client_msg_id": "4c1d497d-5961-4c85-9e30-ffd89ec08415",
        "type": "message",
        "text": "<@U010734498S> I don't know yet if it's good enough to do it ^^\nBut I thought I would share this with you in case of, and because if we do implement a graphDB then we will need to craft the queries to do it anyway. The other option is Neo4J which <@UV85V64SD> and I have experience with. \nI don't think those options are necessarily easier to implement for JOGL than a worker loading in memory the graph, but they would scale naturally.",
        "user": "UVC9WMA7N",
        "ts": "1585646848.035100",
        "team": "TUU48M0T1",
        "user_team": "TUU48M0T1",
        "source_team": "TUU48M0T1",
        "user_profile": {
            "avatar_hash": "56d14d58ed53",
            "image_72": "https:\/\/avatars.slack-edge.com\/2020-03-13\/998337892660_56d14d58ed537e6e4654_72.png",
            "first_name": "Leo",
            "real_name": "Leo Blondel",
            "display_name": "Leo Blondel - JOGL CoFounder \/ CTO",
            "team": "TUU48M0T1",
            "name": "leo",
            "is_restricted": false,
            "is_ultra_restricted": false
        },
        "blocks": [
            {
                "type": "rich_text",
                "block_id": "DNpWw",
                "elements": [
                    {
                        "type": "rich_text_section",
                        "elements": [
                            {
                                "type": "user",
                                "user_id": "U010734498S"
                            },
                            {
                                "type": "text",
                                "text": " I don't know yet if it's good enough to do it ^^\nBut I thought I would share this with you in case of, and because if we do implement a graphDB then we will need to craft the queries to do it anyway. The other option is Neo4J which "
                            },
                            {
                                "type": "user",
                                "user_id": "UV85V64SD"
                            },
                            {
                                "type": "text",
                                "text": " and I have experience with. \nI don't think those options are necessarily easier to implement for JOGL than a worker loading in memory the graph, but they would scale naturally."
                            }
                        ]
                    }
                ]
            }
        ],
        "thread_ts": "1585601918.029100",
        "parent_user_id": "UVC9WMA7N",
        "reactions": [
            {
                "name": "+1",
                "users": [
                    "UV85V64SD",
                    "U01113Y1PLP"
                ],
                "count": 2
            }
        ]
    },
    {
        "client_msg_id": "c4c66d56-75d4-463f-b189-683df6ab1dfb",
        "type": "message",
        "text": "My gitlab handle is pedroramaciotti",
        "user": "U010734498S",
        "ts": "1585647028.035600",
        "team": "TUU48M0T1",
        "user_team": "TUU48M0T1",
        "source_team": "TUU48M0T1",
        "user_profile": {
            "avatar_hash": "g85cae5734da",
            "image_72": "https:\/\/secure.gravatar.com\/avatar\/85cae5734dae69539dca99aa96ef691f.jpg?s=72&d=https%3A%2F%2Fa.slack-edge.com%2Fdf10d%2Fimg%2Favatars%2Fava_0011-72.png",
            "first_name": "",
            "real_name": "pedro ramaciotti",
            "display_name": "pedro ramaciotti",
            "team": "TUU48M0T1",
            "name": "pedro.ramaciotti",
            "is_restricted": false,
            "is_ultra_restricted": false
        },
        "blocks": [
            {
                "type": "rich_text",
                "block_id": "QM7E+",
                "elements": [
                    {
                        "type": "rich_text_section",
                        "elements": [
                            {
                                "type": "text",
                                "text": "My gitlab handle is pedroramaciotti"
                            }
                        ]
                    }
                ]
            }
        ]
    },
    {
        "client_msg_id": "25a10d05-b70f-4351-9f17-90e649e645d7",
        "type": "message",
        "text": "<@UVC9WMA7N> following our discussion yesterday, I would like to point out <https:\/\/www.pulumi.com\/> which I have been using to setup and maintain cloud infrastructure on aws (and for instance using GitHub Actions for CD\/CI).  I've been using the TypeScript SDK but there is also a Python SDK which might be more appropriate for us.  I highly recommend encoding our cloud architecture in code as much as possible.",
        "user": "U01113Y1PLP",
        "ts": "1585648517.037600",
        "team": "TUU48M0T1",
        "user_team": "TUU48M0T1",
        "source_team": "TUU48M0T1",
        "user_profile": {
            "avatar_hash": "09f91663be3c",
            "image_72": "https:\/\/avatars.slack-edge.com\/2020-03-28\/1033063469301_09f91663be3c4c21e257_72.png",
            "first_name": "Luis",
            "real_name": "Luis Arias",
            "display_name": "Luis Arias",
            "team": "TUU48M0T1",
            "name": "luis603",
            "is_restricted": false,
            "is_ultra_restricted": false
        },
        "attachments": [
            {
                "service_name": "pulumi",
                "title": "Pulumi - Modern Infrastructure as Code",
                "title_link": "https:\/\/www.pulumi.com\/",
                "text": "Pulumi's open source infrastructure as code SDK enables you to create, deploy, and manage infrastructure on any cloud, using your favorite languages.",
                "fallback": "pulumi: Pulumi - Modern Infrastructure as Code",
                "image_url": "https:\/\/www.pulumi.com\/social\/pulumi.png",
                "from_url": "https:\/\/www.pulumi.com\/",
                "image_width": 440,
                "image_height": 220,
                "image_bytes": 12980,
                "id": 1,
                "original_url": "https:\/\/www.pulumi.com\/"
            }
        ],
        "blocks": [
            {
                "type": "rich_text",
                "block_id": "eYg\/",
                "elements": [
                    {
                        "type": "rich_text_section",
                        "elements": [
                            {
                                "type": "user",
                                "user_id": "UVC9WMA7N"
                            },
                            {
                                "type": "text",
                                "text": " following our discussion yesterday, I would like to point out "
                            },
                            {
                                "type": "link",
                                "url": "https:\/\/www.pulumi.com\/"
                            },
                            {
                                "type": "text",
                                "text": " which I have been using to setup and maintain cloud infrastructure on aws (and for instance using GitHub Actions for CD\/CI).  I've been using the TypeScript SDK but there is also a Python SDK which might be more appropriate for us.  I highly recommend encoding our cloud architecture in code as much as possible."
                            }
                        ]
                    }
                ]
            }
        ]
    }
]