[
    {
        "client_msg_id": "ca77794c-f86e-4ce9-9bd8-8fcb643af6de",
        "type": "message",
        "text": "coming in 2 minutes",
        "user": "UV85V64SD",
        "ts": "1587394834.000400",
        "team": "TUU48M0T1",
        "user_team": "TUU48M0T1",
        "source_team": "TUU48M0T1",
        "user_profile": {
            "avatar_hash": "1e73a651bdfe",
            "image_72": "https:\/\/avatars.slack-edge.com\/2020-03-16\/1004297548853_1e73a651bdfef2c41501_72.jpg",
            "first_name": "Marc",
            "real_name": "Marc Santolini",
            "display_name": "Marc Santolini - JOGL CoFounder \/ CSO",
            "team": "TUU48M0T1",
            "name": "marc.santolini",
            "is_restricted": false,
            "is_ultra_restricted": false
        },
        "blocks": [
            {
                "type": "rich_text",
                "block_id": "mho=+",
                "elements": [
                    {
                        "type": "rich_text_section",
                        "elements": [
                            {
                                "type": "text",
                                "text": "coming in 2 minutes"
                            }
                        ]
                    }
                ]
            }
        ]
    },
    {
        "client_msg_id": "091cf4d9-f09f-4bf2-abd5-07ac2081e6e3",
        "type": "message",
        "text": "<https:\/\/meet.learning-planet.org\/GoodVampiresHexResponsibly>",
        "user": "UV85V64SD",
        "ts": "1587394836.000600",
        "team": "TUU48M0T1",
        "user_team": "TUU48M0T1",
        "source_team": "TUU48M0T1",
        "user_profile": {
            "avatar_hash": "1e73a651bdfe",
            "image_72": "https:\/\/avatars.slack-edge.com\/2020-03-16\/1004297548853_1e73a651bdfef2c41501_72.jpg",
            "first_name": "Marc",
            "real_name": "Marc Santolini",
            "display_name": "Marc Santolini - JOGL CoFounder \/ CSO",
            "team": "TUU48M0T1",
            "name": "marc.santolini",
            "is_restricted": false,
            "is_ultra_restricted": false
        },
        "attachments": [
            {
                "title": "Jitsi Meet",
                "title_link": "https:\/\/meet.learning-planet.org\/GoodVampiresHexResponsibly",
                "text": "Join a WebRTC video conference powered by the Jitsi Videobridge",
                "fallback": "Jitsi Meet",
                "from_url": "https:\/\/meet.learning-planet.org\/GoodVampiresHexResponsibly",
                "service_icon": "https:\/\/meet.learning-planet.org\/images\/apple-touch-icon.png",
                "service_name": "meet.learning-planet.org",
                "id": 1,
                "original_url": "https:\/\/meet.learning-planet.org\/GoodVampiresHexResponsibly"
            }
        ],
        "blocks": [
            {
                "type": "rich_text",
                "block_id": "tf5",
                "elements": [
                    {
                        "type": "rich_text_section",
                        "elements": [
                            {
                                "type": "link",
                                "url": "https:\/\/meet.learning-planet.org\/GoodVampiresHexResponsibly"
                            }
                        ]
                    }
                ]
            }
        ]
    },
    {
        "client_msg_id": "303a8fdc-5b12-4db6-8a78-dbb90ab1d907",
        "type": "message",
        "text": "I lost connection to learning-planet",
        "user": "U010734498S",
        "ts": "1587396292.001100",
        "team": "TUU48M0T1",
        "user_team": "TUU48M0T1",
        "source_team": "TUU48M0T1",
        "user_profile": {
            "avatar_hash": "g85cae5734da",
            "image_72": "https:\/\/secure.gravatar.com\/avatar\/85cae5734dae69539dca99aa96ef691f.jpg?s=72&d=https%3A%2F%2Fa.slack-edge.com%2Fdf10d%2Fimg%2Favatars%2Fava_0011-72.png",
            "first_name": "",
            "real_name": "pedro ramaciotti",
            "display_name": "pedro ramaciotti",
            "team": "TUU48M0T1",
            "name": "pedro.ramaciotti",
            "is_restricted": false,
            "is_ultra_restricted": false
        },
        "blocks": [
            {
                "type": "rich_text",
                "block_id": "1WZa",
                "elements": [
                    {
                        "type": "rich_text_section",
                        "elements": [
                            {
                                "type": "text",
                                "text": "I lost connection to learning-planet"
                            }
                        ]
                    }
                ]
            }
        ]
    },
    {
        "client_msg_id": "20f68f7c-70ef-4683-a4e0-cfa6117555aa",
        "type": "message",
        "text": "everything else about my internet connection is ok",
        "user": "U010734498S",
        "ts": "1587396312.001500",
        "team": "TUU48M0T1",
        "user_team": "TUU48M0T1",
        "source_team": "TUU48M0T1",
        "user_profile": {
            "avatar_hash": "g85cae5734da",
            "image_72": "https:\/\/secure.gravatar.com\/avatar\/85cae5734dae69539dca99aa96ef691f.jpg?s=72&d=https%3A%2F%2Fa.slack-edge.com%2Fdf10d%2Fimg%2Favatars%2Fava_0011-72.png",
            "first_name": "",
            "real_name": "pedro ramaciotti",
            "display_name": "pedro ramaciotti",
            "team": "TUU48M0T1",
            "name": "pedro.ramaciotti",
            "is_restricted": false,
            "is_ultra_restricted": false
        },
        "blocks": [
            {
                "type": "rich_text",
                "block_id": "Xh0",
                "elements": [
                    {
                        "type": "rich_text_section",
                        "elements": [
                            {
                                "type": "text",
                                "text": "everything else about my internet connection is ok"
                            }
                        ]
                    }
                ]
            }
        ]
    },
    {
        "type": "message",
        "subtype": "channel_join",
        "ts": "1587398216.001700",
        "user": "UV0RRGB6H",
        "text": "<@UV0RRGB6H> has joined the channel"
    }
]