[
    {
        "client_msg_id": "98ba0101-7aba-4ee5-a049-604cf359cd7c",
        "type": "message",
        "text": "Hello all!  Sorry I have been busy learning about deep reinforcement learning and finally feel ready to tackle my project in a day or two.  I manged to get in two PRs that need to be reviewed.   Thanks!  <https:\/\/gitlab.com\/JOGL\/jogl-recsys\/-\/merge_requests\/9>",
        "user": "U01113Y1PLP",
        "ts": "1587057959.057000",
        "team": "TUU48M0T1",
        "user_team": "TUU48M0T1",
        "source_team": "TUU48M0T1",
        "user_profile": {
            "avatar_hash": "09f91663be3c",
            "image_72": "https:\/\/avatars.slack-edge.com\/2020-03-28\/1033063469301_09f91663be3c4c21e257_72.png",
            "first_name": "Luis",
            "real_name": "Luis Arias",
            "display_name": "Luis Arias",
            "team": "TUU48M0T1",
            "name": "luis603",
            "is_restricted": false,
            "is_ultra_restricted": false
        },
        "attachments": [
            {
                "service_name": "GitLab",
                "title": "Update to hinpy 0.1.4 and change license to MIT (!9) · Merge Requests · Just One Giant Lab \/ jogl-recsys",
                "title_link": "https:\/\/gitlab.com\/JOGL\/jogl-recsys\/-\/merge_requests\/9",
                "text": "This PR simply updates the hinpy library to 0.1.4 and since it is now Apache licensed, changes the LICENSE file to MIT like the it seems the rest of our...",
                "fallback": "GitLab: Update to hinpy 0.1.4 and change license to MIT (!9) · Merge Requests · Just One Giant Lab \/ jogl-recsys",
                "thumb_url": "https:\/\/assets.gitlab-static.net\/assets\/gitlab_logo-7ae504fe4f68fdebb3c2034e36621930cd36ea87924c11ff65dbcb8ed50dca58.png",
                "fields": [
                    {
                        "title": "Author",
                        "value": "Luis Arias",
                        "short": true
                    },
                    {
                        "title": "Assignee",
                        "value": "Luis Arias",
                        "short": true
                    }
                ],
                "from_url": "https:\/\/gitlab.com\/JOGL\/jogl-recsys\/-\/merge_requests\/9",
                "thumb_width": 128,
                "thumb_height": 128,
                "service_icon": "https:\/\/assets.gitlab-static.net\/assets\/touch-icon-iphone-5a9cee0e8a51212e70b90c87c12f382c428870c0ff67d1eb034d884b78d2dae7.png",
                "id": 1,
                "original_url": "https:\/\/gitlab.com\/JOGL\/jogl-recsys\/-\/merge_requests\/9"
            }
        ],
        "blocks": [
            {
                "type": "rich_text",
                "block_id": "QwU",
                "elements": [
                    {
                        "type": "rich_text_section",
                        "elements": [
                            {
                                "type": "text",
                                "text": "Hello all!  Sorry I have been busy learning about deep reinforcement learning and finally feel ready to tackle my project in a day or two.  I manged to get in two PRs that need to be reviewed.   Thanks!  "
                            },
                            {
                                "type": "link",
                                "url": "https:\/\/gitlab.com\/JOGL\/jogl-recsys\/-\/merge_requests\/9"
                            }
                        ]
                    }
                ]
            }
        ]
    },
    {
        "client_msg_id": "5238dcaf-d4db-4256-81dc-5bcdf196a119",
        "type": "message",
        "text": "and <https:\/\/gitlab.com\/JOGL\/jogl-recsys\/-\/merge_requests\/10>",
        "user": "U01113Y1PLP",
        "ts": "1587057975.057300",
        "team": "TUU48M0T1",
        "user_team": "TUU48M0T1",
        "source_team": "TUU48M0T1",
        "user_profile": {
            "avatar_hash": "09f91663be3c",
            "image_72": "https:\/\/avatars.slack-edge.com\/2020-03-28\/1033063469301_09f91663be3c4c21e257_72.png",
            "first_name": "Luis",
            "real_name": "Luis Arias",
            "display_name": "Luis Arias",
            "team": "TUU48M0T1",
            "name": "luis603",
            "is_restricted": false,
            "is_ultra_restricted": false
        },
        "attachments": [
            {
                "service_name": "GitLab",
                "title": "Safe update of the recsys_results table (!10) · Merge Requests · Just One Giant Lab \/ jogl-recsys",
                "title_link": "https:\/\/gitlab.com\/JOGL\/jogl-recsys\/-\/merge_requests\/10",
                "text": "This PR uses an explicit transaction and deletion or previous results when saving recommendations to the `recsys_results` table. Fixes #18",
                "fallback": "GitLab: Safe update of the recsys_results table (!10) · Merge Requests · Just One Giant Lab \/ jogl-recsys",
                "thumb_url": "https:\/\/assets.gitlab-static.net\/assets\/gitlab_logo-7ae504fe4f68fdebb3c2034e36621930cd36ea87924c11ff65dbcb8ed50dca58.png",
                "fields": [
                    {
                        "title": "Author",
                        "value": "Luis Arias",
                        "short": true
                    },
                    {
                        "title": "Assignee",
                        "value": "Luis Arias",
                        "short": true
                    }
                ],
                "from_url": "https:\/\/gitlab.com\/JOGL\/jogl-recsys\/-\/merge_requests\/10",
                "thumb_width": 128,
                "thumb_height": 128,
                "service_icon": "https:\/\/assets.gitlab-static.net\/assets\/touch-icon-iphone-5a9cee0e8a51212e70b90c87c12f382c428870c0ff67d1eb034d884b78d2dae7.png",
                "id": 1,
                "original_url": "https:\/\/gitlab.com\/JOGL\/jogl-recsys\/-\/merge_requests\/10"
            }
        ],
        "blocks": [
            {
                "type": "rich_text",
                "block_id": "+l0c2",
                "elements": [
                    {
                        "type": "rich_text_section",
                        "elements": [
                            {
                                "type": "text",
                                "text": "and "
                            },
                            {
                                "type": "link",
                                "url": "https:\/\/gitlab.com\/JOGL\/jogl-recsys\/-\/merge_requests\/10"
                            }
                        ]
                    }
                ]
            }
        ]
    }
]