[
    {
        "type": "message",
        "subtype": "channel_join",
        "ts": "1588059470.000200",
        "user": "U0127ERKYTH",
        "text": "<@U0127ERKYTH> has joined the channel"
    },
    {
        "type": "message",
        "subtype": "channel_join",
        "ts": "1588101435.000200",
        "user": "U0132G0EHNV",
        "text": "<@U0132G0EHNV> has joined the channel"
    }
]