[
    {
        "client_msg_id": "67e105f1-512a-4b88-8791-97fae29604f2",
        "type": "message",
        "text": "Does anyone have access to the _E. coli_ laboratory strain B834 (<https:\/\/cgsc.biology.yale.edu\/Strain.php?ID=10089>) or know someone that does? CGSC is shut down due to c19. I requested it a ~week or so before they closed due to c19. B834 is is an old strain from which the standard protein engineering BL21 strain was derived. BL21 comes under MTA constraints, B834, I believe, does not. The Pasteur Institute likely had it and may still have. University of Oxford definitely had it: <https:\/\/www.ncbi.nlm.nih.gov\/pmc\/articles\/PMC306986\/>",
        "user": "U010QHBTBPY",
        "ts": "1588532336.019400",
        "team": "TUU48M0T1",
        "user_team": "TUU48M0T1",
        "source_team": "TUU48M0T1",
        "user_profile": {
            "avatar_hash": "g4e30c4af69a",
            "image_72": "https:\/\/secure.gravatar.com\/avatar\/4e30c4af69a6429e53cd9cce9da9f65c.jpg?s=72&d=https%3A%2F%2Fa.slack-edge.com%2Fdf10d%2Fimg%2Favatars%2Fava_0015-72.png",
            "first_name": "",
            "real_name": "osn_scott",
            "display_name": "osn_scott",
            "team": "TUU48M0T1",
            "name": "scott527",
            "is_restricted": false,
            "is_ultra_restricted": false
        },
        "blocks": [
            {
                "type": "rich_text",
                "block_id": "o\/o2+",
                "elements": [
                    {
                        "type": "rich_text_section",
                        "elements": [
                            {
                                "type": "text",
                                "text": "Does anyone have access to the "
                            },
                            {
                                "type": "text",
                                "text": "E. coli",
                                "style": {
                                    "italic": true
                                }
                            },
                            {
                                "type": "text",
                                "text": " laboratory strain B834 ("
                            },
                            {
                                "type": "link",
                                "url": "https:\/\/cgsc.biology.yale.edu\/Strain.php?ID=10089"
                            },
                            {
                                "type": "text",
                                "text": ") or know someone that does? CGSC is shut down due to c19. I requested it a ~week or so before they closed due to c19. B834 is is an old strain from which the standard protein engineering BL21 strain was derived. BL21 comes under MTA constraints, B834, I believe, does not. The Pasteur Institute likely had it and may still have. University of Oxford definitely had it: "
                            },
                            {
                                "type": "link",
                                "url": "https:\/\/www.ncbi.nlm.nih.gov\/pmc\/articles\/PMC306986\/"
                            }
                        ]
                    }
                ]
            }
        ],
        "thread_ts": "1588532336.019400",
        "reply_count": 2,
        "reply_users_count": 2,
        "latest_reply": "1589306485.022200",
        "reply_users": [
            "U011B6VLM2A",
            "U010QHBTBPY"
        ],
        "replies": [
            {
                "user": "U011B6VLM2A",
                "ts": "1589286015.021700"
            },
            {
                "user": "U010QHBTBPY",
                "ts": "1589306485.022200"
            }
        ],
        "subscribed": false
    }
]