[
    {
        "client_msg_id": "953c502b-d615-4c1c-a777-0378e9d958d3",
        "type": "message",
        "text": "Hey <@U0108UAAUQM>! Just had a look at it! It's great! My first thoughts are that:\n• some of the questions could be integrated the initial form we ask everyone to fill (reasons, wish to be involve as an expert) --&gt; more people would respond\n•   Very useful questions to understand pain points. I understand the question format (choice), and would be happy to discuss its pros\/cons \n• Overall, what was your idea in term on implementation? Who did you want to send it to? When? What would come out of the analysis of results?\nLet's chat about it tonight!\nAlso, I'd like to discuss with you all actions we can do to improve onboarding. Will draft a list and share it with you soon.",
        "user": "UV9V03C8Y",
        "ts": "1586432584.010500",
        "team": "TUU48M0T1",
        "user_team": "TUU48M0T1",
        "source_team": "TUU48M0T1",
        "user_profile": {
            "avatar_hash": "177697fb7b8f",
            "image_72": "https:\/\/avatars.slack-edge.com\/2020-03-12\/996126178096_177697fb7b8ffa57649c_72.jpg",
            "first_name": "Camille",
            "real_name": "Camille Masselot - JOGL Program coordinator",
            "display_name": "Camille Masselot - JOGL coordinator",
            "team": "TUU48M0T1",
            "name": "masselot.camille",
            "is_restricted": false,
            "is_ultra_restricted": false
        },
        "blocks": [
            {
                "type": "rich_text",
                "block_id": "upJ",
                "elements": [
                    {
                        "type": "rich_text_section",
                        "elements": [
                            {
                                "type": "text",
                                "text": "Hey "
                            },
                            {
                                "type": "user",
                                "user_id": "U0108UAAUQM"
                            },
                            {
                                "type": "text",
                                "text": "! Just had a look at it! It's great! My first thoughts are that:\n"
                            }
                        ]
                    },
                    {
                        "type": "rich_text_list",
                        "elements": [
                            {
                                "type": "rich_text_section",
                                "elements": [
                                    {
                                        "type": "text",
                                        "text": "some of the questions could be integrated the initial form we ask everyone to fill (reasons, wish to be involve as an expert) --> more people would respond"
                                    }
                                ]
                            },
                            {
                                "type": "rich_text_section",
                                "elements": [
                                    {
                                        "type": "text",
                                        "text": "  Very useful questions to understand pain points. I understand the question format (choice), and would be happy to discuss its pros\/cons "
                                    }
                                ]
                            },
                            {
                                "type": "rich_text_section",
                                "elements": [
                                    {
                                        "type": "text",
                                        "text": "Overall, what was your idea in term on implementation? Who did you want to send it to? When? What would come out of the analysis of results?"
                                    }
                                ]
                            }
                        ],
                        "style": "bullet",
                        "indent": 0
                    },
                    {
                        "type": "rich_text_section",
                        "elements": [
                            {
                                "type": "text",
                                "text": "Let's chat about it tonight!\nAlso, I'd like to discuss with you all actions we can do to improve onboarding. Will draft a list and share it with you soon."
                            }
                        ]
                    }
                ]
            }
        ],
        "thread_ts": "1586432584.010500",
        "reply_count": 1,
        "reply_users_count": 1,
        "latest_reply": "1586445817.010600",
        "reply_users": [
            "U0108UAAUQM"
        ],
        "replies": [
            {
                "user": "U0108UAAUQM",
                "ts": "1586445817.010600"
            }
        ],
        "subscribed": false
    },
    {
        "client_msg_id": "e7fc6259-6e81-4069-ad8e-a0d5e71eaa40",
        "type": "message",
        "text": "All good points.  Talk to you all tonight!",
        "user": "U0108UAAUQM",
        "ts": "1586445817.010600",
        "team": "TUU48M0T1",
        "user_team": "TUU48M0T1",
        "source_team": "TUU48M0T1",
        "user_profile": {
            "avatar_hash": "8c169aed81a4",
            "image_72": "https:\/\/avatars.slack-edge.com\/2020-03-25\/1026926917366_8c169aed81a4dabd872c_72.jpg",
            "first_name": "Robert",
            "real_name": "Robert Ward",
            "display_name": "Robbie Ward",
            "team": "TUU48M0T1",
            "name": "rward48",
            "is_restricted": false,
            "is_ultra_restricted": false
        },
        "blocks": [
            {
                "type": "rich_text",
                "block_id": "XU2Z+",
                "elements": [
                    {
                        "type": "rich_text_section",
                        "elements": [
                            {
                                "type": "text",
                                "text": "All good points.  Talk to you all tonight!"
                            }
                        ]
                    }
                ]
            }
        ],
        "thread_ts": "1586432584.010500",
        "parent_user_id": "UV9V03C8Y"
    }
]