[
    {
        "type": "message",
        "subtype": "channel_join",
        "ts": "1588123262.000200",
        "user": "UV1V637PU",
        "text": "<@UV1V637PU> has joined the channel"
    },
    {
        "type": "message",
        "subtype": "channel_purpose",
        "ts": "1588123262.000300",
        "user": "UV1V637PU",
        "text": "<@UV1V637PU> set the channel purpose: Crowd-sourcing public domain technologies for COVID-19",
        "purpose": "Crowd-sourcing public domain technologies for COVID-19"
    },
    {
        "type": "message",
        "subtype": "channel_topic",
        "ts": "1588123297.000400",
        "user": "UV1V637PU",
        "text": "<@UV1V637PU> set the channel topic: COVID-19 technologies that belong to everybody",
        "topic": "COVID-19 technologies that belong to everybody"
    },
    {
        "client_msg_id": "cba3ce89-2c50-4071-a81e-3ff9e40c94a5",
        "type": "message",
        "text": "This is a channel to contribute to a collection of public domain technologies relevant to COVID-19 - particularly biotech and diagnostics and hardware\n\n• View the <https:\/\/publicdomaingazette.org\/|Public Domain Gazette>\n• Join the <https:\/\/trello.com\/invite\/b\/iWLocDiT\/c7c9c941e266409e34b9da51ea56fe66\/public-domain-gazette-pipeline|Trello Board> to view items in the pipeline that you could research\n• Read the <https:\/\/trello.com\/c\/HickGG0N\/17-read-me-how-to-get-started|How to Get Started card>",
        "user": "UV1V637PU",
        "ts": "1588123401.001200",
        "team": "TUU48M0T1",
        "user_team": "TUU48M0T1",
        "source_team": "TUU48M0T1",
        "user_profile": {
            "avatar_hash": "ee709c1ddf53",
            "image_72": "https:\/\/avatars.slack-edge.com\/2020-03-16\/990321352259_ee709c1ddf5354d38023_72.png",
            "first_name": "Jenny",
            "real_name": "Jenny Molloy",
            "display_name": "Jenny",
            "team": "TUU48M0T1",
            "name": "jcm80",
            "is_restricted": false,
            "is_ultra_restricted": false
        },
        "edited": {
            "user": "UV1V637PU",
            "ts": "1588125548.000000"
        },
        "blocks": [
            {
                "type": "rich_text",
                "block_id": "OgzW0",
                "elements": [
                    {
                        "type": "rich_text_section",
                        "elements": [
                            {
                                "type": "text",
                                "text": "This is a channel to contribute to a collection of public domain technologies relevant to COVID-19 - particularly biotech and diagnostics and hardware\n\n"
                            }
                        ]
                    },
                    {
                        "type": "rich_text_list",
                        "elements": [
                            {
                                "type": "rich_text_section",
                                "elements": [
                                    {
                                        "type": "text",
                                        "text": "View the "
                                    },
                                    {
                                        "type": "link",
                                        "url": "https:\/\/publicdomaingazette.org\/",
                                        "text": "Public Domain Gazette"
                                    }
                                ]
                            },
                            {
                                "type": "rich_text_section",
                                "elements": [
                                    {
                                        "type": "text",
                                        "text": "Join the "
                                    },
                                    {
                                        "type": "link",
                                        "url": "https:\/\/trello.com\/invite\/b\/iWLocDiT\/c7c9c941e266409e34b9da51ea56fe66\/public-domain-gazette-pipeline",
                                        "text": "Trello Board"
                                    },
                                    {
                                        "type": "text",
                                        "text": " to view items in the pipeline that you could research"
                                    }
                                ]
                            },
                            {
                                "type": "rich_text_section",
                                "elements": [
                                    {
                                        "type": "text",
                                        "text": "Read the "
                                    },
                                    {
                                        "type": "link",
                                        "url": "https:\/\/trello.com\/c\/HickGG0N\/17-read-me-how-to-get-started",
                                        "text": "How to Get Started card"
                                    }
                                ]
                            }
                        ],
                        "style": "bullet",
                        "indent": 0
                    }
                ]
            }
        ]
    }
]