[
    {
        "client_msg_id": "8bd94f6c-959c-4f01-859b-05e31e028dfd",
        "type": "message",
        "text": "Hi everyone,\nWould love to get your feedback on the flow chart before the community call today :blush:.\nIt’s the one on the first page, but there are a few other color variations!\nFeel free to leave notes on the doc or in this thread here.\n<https:\/\/www.canva.com\/design\/DAD52OU9me0\/w5OGvEt38fHLJXdODNrdKw\/edit>",
        "user": "U011D8T1Z61",
        "ts": "1587557108.018300",
        "team": "TUU48M0T1",
        "user_team": "TUU48M0T1",
        "source_team": "TUU48M0T1",
        "user_profile": {
            "avatar_hash": "dfc1c8b48cda",
            "image_72": "https:\/\/avatars.slack-edge.com\/2020-04-04\/1045144130743_dfc1c8b48cda858b777d_72.png",
            "first_name": "",
            "real_name": "Michelle Hao",
            "display_name": "Michelle Hao",
            "team": "TUU48M0T1",
            "name": "mhao",
            "is_restricted": false,
            "is_ultra_restricted": false
        },
        "attachments": [
            {
                "service_name": "Canva",
                "title": "I WANT TO HELP WITH COVID-19",
                "title_link": "https:\/\/www.canva.com\/design\/DAD52OU9me0\/w5OGvEt38fHLJXdODNrdKw\/edit",
                "text": "An awesome poster designed in Canva by Michelle Hao.",
                "fallback": "Canva: I WANT TO HELP WITH COVID-19",
                "image_url": "https:\/\/document-export.canva.com\/DAD52OU9me0\/1174\/preview\/0001-6162557610.png",
                "image_width": 188,
                "image_height": 250,
                "from_url": "https:\/\/www.canva.com\/design\/DAD52OU9me0\/w5OGvEt38fHLJXdODNrdKw\/edit",
                "image_bytes": 89803,
                "service_icon": "https:\/\/static.canva.com\/static\/images\/apple-touch-120x120.png",
                "id": 1,
                "original_url": "https:\/\/www.canva.com\/design\/DAD52OU9me0\/w5OGvEt38fHLJXdODNrdKw\/edit"
            }
        ],
        "blocks": [
            {
                "type": "rich_text",
                "block_id": "l2HR",
                "elements": [
                    {
                        "type": "rich_text_section",
                        "elements": [
                            {
                                "type": "text",
                                "text": "Hi everyone,\nWould love to get your feedback on the flow chart before the community call today "
                            },
                            {
                                "type": "emoji",
                                "name": "blush"
                            },
                            {
                                "type": "text",
                                "text": ".\nIt’s the one on the first page, but there are a few other color variations!\nFeel free to leave notes on the doc or in this thread here.\n"
                            },
                            {
                                "type": "link",
                                "url": "https:\/\/www.canva.com\/design\/DAD52OU9me0\/w5OGvEt38fHLJXdODNrdKw\/edit"
                            }
                        ]
                    }
                ]
            }
        ],
        "thread_ts": "1587557108.018300",
        "reply_count": 3,
        "reply_users_count": 3,
        "latest_reply": "1587588681.029700",
        "reply_users": [
            "UV9V03C8Y",
            "UV2SC7ZE3",
            "U0103LPAWQ4"
        ],
        "replies": [
            {
                "user": "UV9V03C8Y",
                "ts": "1587563746.020700"
            },
            {
                "user": "UV2SC7ZE3",
                "ts": "1587568827.023600"
            },
            {
                "user": "U0103LPAWQ4",
                "ts": "1587588681.029700"
            }
        ],
        "subscribed": false,
        "reactions": [
            {
                "name": "boom",
                "users": [
                    "UV9V03C8Y",
                    "UV2SC7ZE3"
                ],
                "count": 2
            },
            {
                "name": "star-struck",
                "users": [
                    "UV9V03C8Y",
                    "U010Q3372P3",
                    "UV2SC7ZE3"
                ],
                "count": 3
            }
        ]
    },
    {
        "client_msg_id": "6dbaf3b0-af24-4902-95b0-45d3dfcd3ea4",
        "type": "message",
        "text": "OMG this is so good <@U011D8T1Z61>!! minor remarks:\n• i would avoid you’ve for you have (in “double check that you’ve”) \n• submit for review here has no link\n• create a prj channel --&gt; create a #proj channel\n",
        "user": "UV85V64SD",
        "ts": "1587561536.020100",
        "team": "TUU48M0T1",
        "user_team": "TUU48M0T1",
        "source_team": "TUU48M0T1",
        "user_profile": {
            "avatar_hash": "1e73a651bdfe",
            "image_72": "https:\/\/avatars.slack-edge.com\/2020-03-16\/1004297548853_1e73a651bdfef2c41501_72.jpg",
            "first_name": "Marc",
            "real_name": "Marc Santolini",
            "display_name": "Marc Santolini - JOGL CoFounder \/ CSO",
            "team": "TUU48M0T1",
            "name": "marc.santolini",
            "is_restricted": false,
            "is_ultra_restricted": false
        },
        "blocks": [
            {
                "type": "rich_text",
                "block_id": "bIHl",
                "elements": [
                    {
                        "type": "rich_text_section",
                        "elements": [
                            {
                                "type": "text",
                                "text": "OMG this is so good "
                            },
                            {
                                "type": "user",
                                "user_id": "U011D8T1Z61"
                            },
                            {
                                "type": "text",
                                "text": "!! minor remarks:\n"
                            }
                        ]
                    },
                    {
                        "type": "rich_text_list",
                        "elements": [
                            {
                                "type": "rich_text_section",
                                "elements": [
                                    {
                                        "type": "text",
                                        "text": "i would avoid you’ve for you have (in “double check that you’ve”) "
                                    }
                                ]
                            },
                            {
                                "type": "rich_text_section",
                                "elements": [
                                    {
                                        "type": "text",
                                        "text": "submit for review here has no link"
                                    }
                                ]
                            },
                            {
                                "type": "rich_text_section",
                                "elements": [
                                    {
                                        "type": "text",
                                        "text": "create a prj channel --> create a #proj channel"
                                    }
                                ]
                            }
                        ],
                        "style": "bullet",
                        "indent": 0
                    },
                    {
                        "type": "rich_text_section",
                        "elements": []
                    }
                ]
            }
        ],
        "thread_ts": "1587561536.020100",
        "reply_count": 3,
        "reply_users_count": 3,
        "latest_reply": "1587575292.029200",
        "reply_users": [
            "U011D8T1Z61",
            "UV9V03C8Y",
            "UVC9WMA7N"
        ],
        "replies": [
            {
                "user": "U011D8T1Z61",
                "ts": "1587561755.020300"
            },
            {
                "user": "UV9V03C8Y",
                "ts": "1587563713.020500"
            },
            {
                "user": "UVC9WMA7N",
                "ts": "1587575292.029200"
            }
        ],
        "subscribed": false,
        "reactions": [
            {
                "name": "raised_hands",
                "users": [
                    "U011D8T1Z61"
                ],
                "count": 1
            }
        ]
    },
    {
        "client_msg_id": "b8eebe11-1b5d-4649-9163-584dc6e7dd35",
        "type": "message",
        "text": "Thanks Marc! Changes are made :blush:",
        "user": "U011D8T1Z61",
        "ts": "1587561755.020300",
        "team": "TUU48M0T1",
        "user_team": "TUU48M0T1",
        "source_team": "TUU48M0T1",
        "user_profile": {
            "avatar_hash": "dfc1c8b48cda",
            "image_72": "https:\/\/avatars.slack-edge.com\/2020-04-04\/1045144130743_dfc1c8b48cda858b777d_72.png",
            "first_name": "",
            "real_name": "Michelle Hao",
            "display_name": "Michelle Hao",
            "team": "TUU48M0T1",
            "name": "mhao",
            "is_restricted": false,
            "is_ultra_restricted": false
        },
        "blocks": [
            {
                "type": "rich_text",
                "block_id": "ybyn",
                "elements": [
                    {
                        "type": "rich_text_section",
                        "elements": [
                            {
                                "type": "text",
                                "text": "Thanks Marc! Changes are made "
                            },
                            {
                                "type": "emoji",
                                "name": "blush"
                            }
                        ]
                    }
                ]
            }
        ],
        "thread_ts": "1587561536.020100",
        "parent_user_id": "UV85V64SD"
    },
    {
        "client_msg_id": "3d514737-006c-4520-8df5-92a48c73cd34",
        "type": "message",
        "text": "Hey <@UV85V64SD>, <@U011D8T1Z61>, I actually like to reminder :wink:, this will be pinged in a channel with all important documents, so I guess it doesn't cost anything to leave it as it can bring some lost souls back on track!",
        "user": "UV9V03C8Y",
        "ts": "1587563713.020500",
        "team": "TUU48M0T1",
        "user_team": "TUU48M0T1",
        "source_team": "TUU48M0T1",
        "user_profile": {
            "avatar_hash": "177697fb7b8f",
            "image_72": "https:\/\/avatars.slack-edge.com\/2020-03-12\/996126178096_177697fb7b8ffa57649c_72.jpg",
            "first_name": "Camille",
            "real_name": "Camille Masselot - JOGL Program coordinator",
            "display_name": "Camille Masselot - JOGL coordinator",
            "team": "TUU48M0T1",
            "name": "masselot.camille",
            "is_restricted": false,
            "is_ultra_restricted": false
        },
        "blocks": [
            {
                "type": "rich_text",
                "block_id": "LHmW",
                "elements": [
                    {
                        "type": "rich_text_section",
                        "elements": [
                            {
                                "type": "text",
                                "text": "Hey "
                            },
                            {
                                "type": "user",
                                "user_id": "UV85V64SD"
                            },
                            {
                                "type": "text",
                                "text": ", "
                            },
                            {
                                "type": "user",
                                "user_id": "U011D8T1Z61"
                            },
                            {
                                "type": "text",
                                "text": ", I actually like to reminder "
                            },
                            {
                                "type": "emoji",
                                "name": "wink"
                            },
                            {
                                "type": "text",
                                "text": ", this will be pinged in a channel with all important documents, so I guess it doesn't cost anything to leave it as it can bring some lost souls back on track!"
                            }
                        ]
                    }
                ]
            }
        ],
        "thread_ts": "1587561536.020100",
        "parent_user_id": "UV85V64SD"
    },
    {
        "client_msg_id": "b9aaa5c7-234c-43fb-916a-d9ff58e33978",
        "type": "message",
        "text": "WONDERFUL! Thank you so much again <@U011D8T1Z61>!",
        "user": "UV9V03C8Y",
        "ts": "1587563746.020700",
        "team": "TUU48M0T1",
        "user_team": "TUU48M0T1",
        "source_team": "TUU48M0T1",
        "user_profile": {
            "avatar_hash": "177697fb7b8f",
            "image_72": "https:\/\/avatars.slack-edge.com\/2020-03-12\/996126178096_177697fb7b8ffa57649c_72.jpg",
            "first_name": "Camille",
            "real_name": "Camille Masselot - JOGL Program coordinator",
            "display_name": "Camille Masselot - JOGL coordinator",
            "team": "TUU48M0T1",
            "name": "masselot.camille",
            "is_restricted": false,
            "is_ultra_restricted": false
        },
        "blocks": [
            {
                "type": "rich_text",
                "block_id": "9za63",
                "elements": [
                    {
                        "type": "rich_text_section",
                        "elements": [
                            {
                                "type": "text",
                                "text": "WONDERFUL! Thank you so much again "
                            },
                            {
                                "type": "user",
                                "user_id": "U011D8T1Z61"
                            },
                            {
                                "type": "text",
                                "text": "!"
                            }
                        ]
                    }
                ]
            }
        ],
        "thread_ts": "1587557108.018300",
        "parent_user_id": "U011D8T1Z61"
    },
    {
        "client_msg_id": "baa514b2-6f0e-410f-9f4f-d4e5014e7c63",
        "type": "message",
        "text": "Update: I just created this masterfile, will ping it in the new billboard channel!",
        "user": "UV9V03C8Y",
        "ts": "1587566751.021300",
        "team": "TUU48M0T1",
        "user_team": "TUU48M0T1",
        "source_team": "TUU48M0T1",
        "user_profile": {
            "avatar_hash": "177697fb7b8f",
            "image_72": "https:\/\/avatars.slack-edge.com\/2020-03-12\/996126178096_177697fb7b8ffa57649c_72.jpg",
            "first_name": "Camille",
            "real_name": "Camille Masselot - JOGL Program coordinator",
            "display_name": "Camille Masselot - JOGL coordinator",
            "team": "TUU48M0T1",
            "name": "masselot.camille",
            "is_restricted": false,
            "is_ultra_restricted": false
        },
        "blocks": [
            {
                "type": "rich_text",
                "block_id": "+Mg",
                "elements": [
                    {
                        "type": "rich_text_section",
                        "elements": [
                            {
                                "type": "text",
                                "text": "Update: I just created this masterfile, will ping it in the new billboard channel!"
                            }
                        ]
                    }
                ]
            }
        ],
        "reactions": [
            {
                "name": "raised_hands",
                "users": [
                    "U011D8T1Z61"
                ],
                "count": 1
            }
        ]
    },
    {
        "type": "message",
        "text": "<https:\/\/docs.google.com\/spreadsheets\/d\/1gnka4rNOkY5DIgoUx5SkIMlFlKZEBTbj8aAIwvYuLuY\/edit#gid=1655667408>",
        "files": [
            {
                "id": "F012H7SRQG4",
                "created": 1587566757,
                "timestamp": 1587566757,
                "name": "Master-file_Opencovid19",
                "title": "Single Source of Truth -- Opencovid19",
                "mimetype": "application\/vnd.google-apps.spreadsheet",
                "filetype": "gsheet",
                "pretty_type": "GSuite Spreadsheet",
                "user": "UV9V03C8Y",
                "editable": false,
                "size": 515125,
                "mode": "external",
                "is_external": true,
                "external_type": "gdrive",
                "is_public": true,
                "public_url_shared": false,
                "display_as_bot": false,
                "username": "",
                "url_private": "https:\/\/docs.google.com\/spreadsheets\/d\/1gnka4rNOkY5DIgoUx5SkIMlFlKZEBTbj8aAIwvYuLuY\/edit#gid=1655667408",
                "thumb_64": "https:\/\/files.slack.com\/files-tmb\/TUU48M0T1-F012H7SRQG4-36955a1ab6\/master-file_opencovid19_64.png?t=xoxe-980144714919-1133254701825-1120841107731-daf595b5a7d6c9028b0b02a925032e36",
                "thumb_80": "https:\/\/files.slack.com\/files-tmb\/TUU48M0T1-F012H7SRQG4-36955a1ab6\/master-file_opencovid19_80.png?t=xoxe-980144714919-1133254701825-1120841107731-daf595b5a7d6c9028b0b02a925032e36",
                "thumb_360": "https:\/\/files.slack.com\/files-tmb\/TUU48M0T1-F012H7SRQG4-36955a1ab6\/master-file_opencovid19_360.png?t=xoxe-980144714919-1133254701825-1120841107731-daf595b5a7d6c9028b0b02a925032e36",
                "thumb_360_w": 254,
                "thumb_360_h": 360,
                "thumb_480": "https:\/\/files.slack.com\/files-tmb\/TUU48M0T1-F012H7SRQG4-36955a1ab6\/master-file_opencovid19_480.png?t=xoxe-980144714919-1133254701825-1120841107731-daf595b5a7d6c9028b0b02a925032e36",
                "thumb_480_w": 339,
                "thumb_480_h": 480,
                "thumb_160": "https:\/\/files.slack.com\/files-tmb\/TUU48M0T1-F012H7SRQG4-36955a1ab6\/master-file_opencovid19_160.png?t=xoxe-980144714919-1133254701825-1120841107731-daf595b5a7d6c9028b0b02a925032e36",
                "thumb_720": "https:\/\/files.slack.com\/files-tmb\/TUU48M0T1-F012H7SRQG4-36955a1ab6\/master-file_opencovid19_720.png?t=xoxe-980144714919-1133254701825-1120841107731-daf595b5a7d6c9028b0b02a925032e36",
                "thumb_720_w": 509,
                "thumb_720_h": 720,
                "thumb_800": "https:\/\/files.slack.com\/files-tmb\/TUU48M0T1-F012H7SRQG4-36955a1ab6\/master-file_opencovid19_800.png?t=xoxe-980144714919-1133254701825-1120841107731-daf595b5a7d6c9028b0b02a925032e36",
                "thumb_800_w": 800,
                "thumb_800_h": 1132,
                "thumb_960": "https:\/\/files.slack.com\/files-tmb\/TUU48M0T1-F012H7SRQG4-36955a1ab6\/master-file_opencovid19_960.png?t=xoxe-980144714919-1133254701825-1120841107731-daf595b5a7d6c9028b0b02a925032e36",
                "thumb_960_w": 678,
                "thumb_960_h": 960,
                "thumb_1024": "https:\/\/files.slack.com\/files-tmb\/TUU48M0T1-F012H7SRQG4-36955a1ab6\/master-file_opencovid19_1024.png?t=xoxe-980144714919-1133254701825-1120841107731-daf595b5a7d6c9028b0b02a925032e36",
                "thumb_1024_w": 724,
                "thumb_1024_h": 1024,
                "image_exif_rotation": 1,
                "original_w": 1024,
                "original_h": 1449,
                "thumb_tiny": "AwAwACHQcvu+VkA9xTSZezx\/kf8AGnnG6g9KAuMPm\/3o\/wDvk\/40q+buG5kx6Af\/AF6ce1LQO4tFFFAhpxuoPAoIO7\/69B6c0CEPanCm9hThQAtFFFAxDnPX9KQ9P\/rUuOaCKBCelKKMH2oxQAtFFFAz\/9k=",
                "permalink": "https:\/\/open-covid19.slack.com\/files\/UV9V03C8Y\/F012H7SRQG4\/master-file_opencovid19",
                "is_starred": false,
                "external_id": "1gnka4rNOkY5DIgoUx5SkIMlFlKZEBTbj8aAIwvYuLuY",
                "external_url": "https:\/\/docs.google.com\/spreadsheets\/d\/1gnka4rNOkY5DIgoUx5SkIMlFlKZEBTbj8aAIwvYuLuY\/edit#gid=1655667408",
                "has_rich_preview": true
            }
        ],
        "upload": false,
        "blocks": [
            {
                "type": "rich_text",
                "block_id": "jzTZ",
                "elements": [
                    {
                        "type": "rich_text_section",
                        "elements": [
                            {
                                "type": "link",
                                "url": "https:\/\/docs.google.com\/spreadsheets\/d\/1gnka4rNOkY5DIgoUx5SkIMlFlKZEBTbj8aAIwvYuLuY\/edit#gid=1655667408"
                            }
                        ]
                    }
                ]
            }
        ],
        "user": "UV9V03C8Y",
        "display_as_bot": false,
        "x_files": [
            "F012H7SRQG4"
        ],
        "ts": "1587566753.021500",
        "client_msg_id": "b591d23a-e9c1-4da7-aa2c-972b8ce79058"
    },
    {
        "type": "message",
        "text": "<!channel> these are the 2 slides I want to present today at the community call, are you ok with that? <https:\/\/docs.google.com\/presentation\/d\/1Kor2CEijpSHmCJuZCp5rMdY9jX1NMd-1\/edit#slide=id.p9>",
        "files": [
            {
                "id": "F013117RG5N",
                "created": 1587568666,
                "timestamp": 1587568666,
                "name": "Community_call_20200422.pptx",
                "title": "Community_call_20200422.pptx",
                "mimetype": "application\/vnd.openxmlformats-officedocument.presentationml.presentation",
                "filetype": "pptx",
                "pretty_type": "PowerPoint Presentation",
                "user": "UV9V03C8Y",
                "editable": false,
                "size": 532518,
                "mode": "external",
                "is_external": true,
                "external_type": "gdrive",
                "is_public": true,
                "public_url_shared": false,
                "display_as_bot": false,
                "username": "",
                "url_private": "https:\/\/docs.google.com\/presentation\/d\/1Kor2CEijpSHmCJuZCp5rMdY9jX1NMd-1\/edit#slide=id.p9",
                "thumb_64": "https:\/\/files.slack.com\/files-tmb\/TUU48M0T1-F013117RG5N-aa49a5ca75\/community_call_20200422_64.png?t=xoxe-980144714919-1133254701825-1120841107731-daf595b5a7d6c9028b0b02a925032e36",
                "thumb_80": "https:\/\/files.slack.com\/files-tmb\/TUU48M0T1-F013117RG5N-aa49a5ca75\/community_call_20200422_80.png?t=xoxe-980144714919-1133254701825-1120841107731-daf595b5a7d6c9028b0b02a925032e36",
                "thumb_360": "https:\/\/files.slack.com\/files-tmb\/TUU48M0T1-F013117RG5N-aa49a5ca75\/community_call_20200422_360.png?t=xoxe-980144714919-1133254701825-1120841107731-daf595b5a7d6c9028b0b02a925032e36",
                "thumb_360_w": 360,
                "thumb_360_h": 202,
                "thumb_480": "https:\/\/files.slack.com\/files-tmb\/TUU48M0T1-F013117RG5N-aa49a5ca75\/community_call_20200422_480.png?t=xoxe-980144714919-1133254701825-1120841107731-daf595b5a7d6c9028b0b02a925032e36",
                "thumb_480_w": 480,
                "thumb_480_h": 269,
                "thumb_160": "https:\/\/files.slack.com\/files-tmb\/TUU48M0T1-F013117RG5N-aa49a5ca75\/community_call_20200422_160.png?t=xoxe-980144714919-1133254701825-1120841107731-daf595b5a7d6c9028b0b02a925032e36",
                "thumb_720": "https:\/\/files.slack.com\/files-tmb\/TUU48M0T1-F013117RG5N-aa49a5ca75\/community_call_20200422_720.png?t=xoxe-980144714919-1133254701825-1120841107731-daf595b5a7d6c9028b0b02a925032e36",
                "thumb_720_w": 720,
                "thumb_720_h": 404,
                "thumb_800": "https:\/\/files.slack.com\/files-tmb\/TUU48M0T1-F013117RG5N-aa49a5ca75\/community_call_20200422_800.png?t=xoxe-980144714919-1133254701825-1120841107731-daf595b5a7d6c9028b0b02a925032e36",
                "thumb_800_w": 800,
                "thumb_800_h": 449,
                "image_exif_rotation": 1,
                "original_w": 800,
                "original_h": 449,
                "thumb_tiny": "AwAaADDSAwKhjkkMzqyYUdD61IWYdQv50hdvVPzp2ARXlKgtEAfTdmnFnH8PH1pNzeqfnSbm\/vJ+dFgFVyxAKgfjRKcCnfvPRfzprKzdQv50WANxYcDmj5vT9KctOpXAj+b0o+b0\/SpKKAGDfnnNO6Dk0tI3Q0Af\/9k=",
                "permalink": "https:\/\/open-covid19.slack.com\/files\/UV9V03C8Y\/F013117RG5N\/community_call_20200422.pptx",
                "is_starred": false,
                "external_id": "1Kor2CEijpSHmCJuZCp5rMdY9jX1NMd-1",
                "external_url": "https:\/\/docs.google.com\/presentation\/d\/1Kor2CEijpSHmCJuZCp5rMdY9jX1NMd-1\/edit#slide=id.p9",
                "has_rich_preview": true
            }
        ],
        "upload": false,
        "blocks": [
            {
                "type": "rich_text",
                "block_id": "jpzm",
                "elements": [
                    {
                        "type": "rich_text_section",
                        "elements": [
                            {
                                "type": "broadcast",
                                "range": "channel"
                            },
                            {
                                "type": "text",
                                "text": " these are the 2 slides I want to present today at the community call, are you ok with that? "
                            },
                            {
                                "type": "link",
                                "url": "https:\/\/docs.google.com\/presentation\/d\/1Kor2CEijpSHmCJuZCp5rMdY9jX1NMd-1\/edit#slide=id.p9"
                            }
                        ]
                    }
                ]
            }
        ],
        "user": "UV9V03C8Y",
        "display_as_bot": false,
        "x_files": [
            "F013117RG5N"
        ],
        "ts": "1587568662.022900",
        "client_msg_id": "2893ff38-4cb2-426c-84b1-969b951a6cdf",
        "reactions": [
            {
                "name": "+1",
                "users": [
                    "UV2SC7ZE3"
                ],
                "count": 1
            }
        ]
    },
    {
        "client_msg_id": "c9120bc9-725b-435c-bebe-822de4b2f98d",
        "type": "message",
        "text": "Awesome! It looks great <@U011D8T1Z61>",
        "user": "UV2SC7ZE3",
        "ts": "1587568827.023600",
        "team": "TUU48M0T1",
        "user_team": "TUU48M0T1",
        "source_team": "TUU48M0T1",
        "user_profile": {
            "avatar_hash": "d28dd0d076e8",
            "image_72": "https:\/\/avatars.slack-edge.com\/2020-03-14\/987873094258_d28dd0d076e8fa9a8409_72.png",
            "first_name": "David",
            "real_name": "David Lu",
            "display_name": "David Lu",
            "team": "TUU48M0T1",
            "name": "ludavidyi",
            "is_restricted": false,
            "is_ultra_restricted": false
        },
        "blocks": [
            {
                "type": "rich_text",
                "block_id": "Ru70i",
                "elements": [
                    {
                        "type": "rich_text_section",
                        "elements": [
                            {
                                "type": "text",
                                "text": "Awesome! It looks great "
                            },
                            {
                                "type": "user",
                                "user_id": "U011D8T1Z61"
                            }
                        ]
                    }
                ]
            }
        ],
        "thread_ts": "1587557108.018300",
        "parent_user_id": "U011D8T1Z61"
    },
    {
        "client_msg_id": "9d768e66-bd8a-4ff7-ad63-6abb81c2e001",
        "type": "message",
        "text": "<@UV9V03C8Y> Do you know if it's possible to add everybody to <#C0103BDEJQN|prgm-questions-support-feedback> and <#C01311KN2M6|billboard>",
        "user": "UV2SC7ZE3",
        "ts": "1587569097.024500",
        "team": "TUU48M0T1",
        "user_team": "TUU48M0T1",
        "source_team": "TUU48M0T1",
        "user_profile": {
            "avatar_hash": "d28dd0d076e8",
            "image_72": "https:\/\/avatars.slack-edge.com\/2020-03-14\/987873094258_d28dd0d076e8fa9a8409_72.png",
            "first_name": "David",
            "real_name": "David Lu",
            "display_name": "David Lu",
            "team": "TUU48M0T1",
            "name": "ludavidyi",
            "is_restricted": false,
            "is_ultra_restricted": false
        },
        "blocks": [
            {
                "type": "rich_text",
                "block_id": "GUk",
                "elements": [
                    {
                        "type": "rich_text_section",
                        "elements": [
                            {
                                "type": "user",
                                "user_id": "UV9V03C8Y"
                            },
                            {
                                "type": "text",
                                "text": " Do you know if it's possible to add everybody to "
                            },
                            {
                                "type": "channel",
                                "channel_id": "C0103BDEJQN"
                            },
                            {
                                "type": "text",
                                "text": " and "
                            },
                            {
                                "type": "channel",
                                "channel_id": "C01311KN2M6"
                            }
                        ]
                    }
                ]
            }
        ]
    },
    {
        "client_msg_id": "b3b6d0c3-28f7-4061-ab26-fe713b590ff7",
        "type": "message",
        "text": "I couldn't find it !!",
        "user": "UV9V03C8Y",
        "ts": "1587569310.025000",
        "team": "TUU48M0T1",
        "user_team": "TUU48M0T1",
        "source_team": "TUU48M0T1",
        "user_profile": {
            "avatar_hash": "177697fb7b8f",
            "image_72": "https:\/\/avatars.slack-edge.com\/2020-03-12\/996126178096_177697fb7b8ffa57649c_72.jpg",
            "first_name": "Camille",
            "real_name": "Camille Masselot - JOGL Program coordinator",
            "display_name": "Camille Masselot - JOGL coordinator",
            "team": "TUU48M0T1",
            "name": "masselot.camille",
            "is_restricted": false,
            "is_ultra_restricted": false
        },
        "blocks": [
            {
                "type": "rich_text",
                "block_id": "1Gh\/",
                "elements": [
                    {
                        "type": "rich_text_section",
                        "elements": [
                            {
                                "type": "text",
                                "text": "I couldn't find it !!"
                            }
                        ]
                    }
                ]
            }
        ],
        "thread_ts": "1587569310.025000",
        "reply_count": 5,
        "reply_users_count": 1,
        "latest_reply": "1587569969.027700",
        "reply_users": [
            "UV2SC7ZE3"
        ],
        "replies": [
            {
                "user": "UV2SC7ZE3",
                "ts": "1587569667.026000"
            },
            {
                "user": "UV2SC7ZE3",
                "ts": "1587569669.026200"
            },
            {
                "user": "UV2SC7ZE3",
                "ts": "1587569695.026400"
            },
            {
                "user": "UV2SC7ZE3",
                "ts": "1587569959.027500"
            },
            {
                "user": "UV2SC7ZE3",
                "ts": "1587569969.027700"
            }
        ],
        "subscribed": false
    },
    {
        "client_msg_id": "2ef1d4b8-9779-4b97-9c43-61a3441546d9",
        "type": "message",
        "text": "It is possible to sign in new members automatically, but no way that I know to just add everyone. Maybe <@UVC9WMA7N> you have an idea?",
        "user": "UV9V03C8Y",
        "ts": "1587569350.025900",
        "team": "TUU48M0T1",
        "user_team": "TUU48M0T1",
        "source_team": "TUU48M0T1",
        "user_profile": {
            "avatar_hash": "177697fb7b8f",
            "image_72": "https:\/\/avatars.slack-edge.com\/2020-03-12\/996126178096_177697fb7b8ffa57649c_72.jpg",
            "first_name": "Camille",
            "real_name": "Camille Masselot - JOGL Program coordinator",
            "display_name": "Camille Masselot - JOGL coordinator",
            "team": "TUU48M0T1",
            "name": "masselot.camille",
            "is_restricted": false,
            "is_ultra_restricted": false
        },
        "blocks": [
            {
                "type": "rich_text",
                "block_id": "hcWF",
                "elements": [
                    {
                        "type": "rich_text_section",
                        "elements": [
                            {
                                "type": "text",
                                "text": "It is possible to sign in new members automatically, but no way that I know to just add everyone. Maybe "
                            },
                            {
                                "type": "user",
                                "user_id": "UVC9WMA7N"
                            },
                            {
                                "type": "text",
                                "text": " you have an idea?"
                            }
                        ]
                    }
                ]
            }
        ]
    },
    {
        "client_msg_id": "2e5ed55f-6b02-4d55-95cc-0b70c3a3d206",
        "type": "message",
        "text": "I think I found the information",
        "user": "UV2SC7ZE3",
        "ts": "1587569667.026000",
        "team": "TUU48M0T1",
        "user_team": "TUU48M0T1",
        "source_team": "TUU48M0T1",
        "user_profile": {
            "avatar_hash": "d28dd0d076e8",
            "image_72": "https:\/\/avatars.slack-edge.com\/2020-03-14\/987873094258_d28dd0d076e8fa9a8409_72.png",
            "first_name": "David",
            "real_name": "David Lu",
            "display_name": "David Lu",
            "team": "TUU48M0T1",
            "name": "ludavidyi",
            "is_restricted": false,
            "is_ultra_restricted": false
        },
        "blocks": [
            {
                "type": "rich_text",
                "block_id": "w9m",
                "elements": [
                    {
                        "type": "rich_text_section",
                        "elements": [
                            {
                                "type": "text",
                                "text": "I think I found the information"
                            }
                        ]
                    }
                ]
            }
        ],
        "thread_ts": "1587569310.025000",
        "parent_user_id": "UV9V03C8Y"
    },
    {
        "client_msg_id": "a3b4efc9-c31e-4cac-8150-217c72917b55",
        "type": "message",
        "text": "<https:\/\/docs.google.com\/spreadsheets\/d\/1fOK3IXWhB_kgqU0LMIM9mFkwaWcsjz1hod3gcZg7jdU\/edit?usp=sharing>",
        "user": "UV2SC7ZE3",
        "ts": "1587569669.026200",
        "team": "TUU48M0T1",
        "user_team": "TUU48M0T1",
        "source_team": "TUU48M0T1",
        "user_profile": {
            "avatar_hash": "d28dd0d076e8",
            "image_72": "https:\/\/avatars.slack-edge.com\/2020-03-14\/987873094258_d28dd0d076e8fa9a8409_72.png",
            "first_name": "David",
            "real_name": "David Lu",
            "display_name": "David Lu",
            "team": "TUU48M0T1",
            "name": "ludavidyi",
            "is_restricted": false,
            "is_ultra_restricted": false
        },
        "blocks": [
            {
                "type": "rich_text",
                "block_id": "EsI",
                "elements": [
                    {
                        "type": "rich_text_section",
                        "elements": [
                            {
                                "type": "link",
                                "url": "https:\/\/docs.google.com\/spreadsheets\/d\/1fOK3IXWhB_kgqU0LMIM9mFkwaWcsjz1hod3gcZg7jdU\/edit?usp=sharing"
                            }
                        ]
                    }
                ]
            }
        ],
        "thread_ts": "1587569310.025000",
        "parent_user_id": "UV9V03C8Y"
    },
    {
        "client_msg_id": "eafcd91f-0925-4c92-8da2-82dcd02dc59f",
        "type": "message",
        "text": "In the right hand column, maybe you can copy and paste in the invite new members box?",
        "user": "UV2SC7ZE3",
        "ts": "1587569695.026400",
        "team": "TUU48M0T1",
        "user_team": "TUU48M0T1",
        "source_team": "TUU48M0T1",
        "user_profile": {
            "avatar_hash": "d28dd0d076e8",
            "image_72": "https:\/\/avatars.slack-edge.com\/2020-03-14\/987873094258_d28dd0d076e8fa9a8409_72.png",
            "first_name": "David",
            "real_name": "David Lu",
            "display_name": "David Lu",
            "team": "TUU48M0T1",
            "name": "ludavidyi",
            "is_restricted": false,
            "is_ultra_restricted": false
        },
        "blocks": [
            {
                "type": "rich_text",
                "block_id": "OeHN",
                "elements": [
                    {
                        "type": "rich_text_section",
                        "elements": [
                            {
                                "type": "text",
                                "text": "In the right hand column, maybe you can copy and paste in the invite new members box?"
                            }
                        ]
                    }
                ]
            }
        ],
        "thread_ts": "1587569310.025000",
        "parent_user_id": "UV9V03C8Y"
    },
    {
        "type": "message",
        "text": "done",
        "files": [
            {
                "id": "F0124FAGHGE",
                "created": 1587569705,
                "timestamp": 1587569705,
                "name": "Screen Shot 2020-04-22 at 5.34.53 PM.png",
                "title": "Screen Shot 2020-04-22 at 5.34.53 PM.png",
                "mimetype": "image\/png",
                "filetype": "png",
                "pretty_type": "PNG",
                "user": "UV85V64SD",
                "editable": false,
                "size": 80601,
                "mode": "hosted",
                "is_external": false,
                "external_type": "",
                "is_public": true,
                "public_url_shared": false,
                "display_as_bot": false,
                "username": "",
                "url_private": "https:\/\/files.slack.com\/files-pri\/TUU48M0T1-F0124FAGHGE\/screen_shot_2020-04-22_at_5.34.53_pm.png?t=xoxe-980144714919-1133254701825-1120841107731-daf595b5a7d6c9028b0b02a925032e36",
                "url_private_download": "https:\/\/files.slack.com\/files-pri\/TUU48M0T1-F0124FAGHGE\/download\/screen_shot_2020-04-22_at_5.34.53_pm.png?t=xoxe-980144714919-1133254701825-1120841107731-daf595b5a7d6c9028b0b02a925032e36",
                "thumb_64": "https:\/\/files.slack.com\/files-tmb\/TUU48M0T1-F0124FAGHGE-8c751a1733\/screen_shot_2020-04-22_at_5.34.53_pm_64.png?t=xoxe-980144714919-1133254701825-1120841107731-daf595b5a7d6c9028b0b02a925032e36",
                "thumb_80": "https:\/\/files.slack.com\/files-tmb\/TUU48M0T1-F0124FAGHGE-8c751a1733\/screen_shot_2020-04-22_at_5.34.53_pm_80.png?t=xoxe-980144714919-1133254701825-1120841107731-daf595b5a7d6c9028b0b02a925032e36",
                "thumb_360": "https:\/\/files.slack.com\/files-tmb\/TUU48M0T1-F0124FAGHGE-8c751a1733\/screen_shot_2020-04-22_at_5.34.53_pm_360.png?t=xoxe-980144714919-1133254701825-1120841107731-daf595b5a7d6c9028b0b02a925032e36",
                "thumb_360_w": 360,
                "thumb_360_h": 80,
                "thumb_480": "https:\/\/files.slack.com\/files-tmb\/TUU48M0T1-F0124FAGHGE-8c751a1733\/screen_shot_2020-04-22_at_5.34.53_pm_480.png?t=xoxe-980144714919-1133254701825-1120841107731-daf595b5a7d6c9028b0b02a925032e36",
                "thumb_480_w": 480,
                "thumb_480_h": 107,
                "thumb_160": "https:\/\/files.slack.com\/files-tmb\/TUU48M0T1-F0124FAGHGE-8c751a1733\/screen_shot_2020-04-22_at_5.34.53_pm_160.png?t=xoxe-980144714919-1133254701825-1120841107731-daf595b5a7d6c9028b0b02a925032e36",
                "thumb_720": "https:\/\/files.slack.com\/files-tmb\/TUU48M0T1-F0124FAGHGE-8c751a1733\/screen_shot_2020-04-22_at_5.34.53_pm_720.png?t=xoxe-980144714919-1133254701825-1120841107731-daf595b5a7d6c9028b0b02a925032e36",
                "thumb_720_w": 720,
                "thumb_720_h": 161,
                "thumb_800": "https:\/\/files.slack.com\/files-tmb\/TUU48M0T1-F0124FAGHGE-8c751a1733\/screen_shot_2020-04-22_at_5.34.53_pm_800.png?t=xoxe-980144714919-1133254701825-1120841107731-daf595b5a7d6c9028b0b02a925032e36",
                "thumb_800_w": 800,
                "thumb_800_h": 178,
                "thumb_960": "https:\/\/files.slack.com\/files-tmb\/TUU48M0T1-F0124FAGHGE-8c751a1733\/screen_shot_2020-04-22_at_5.34.53_pm_960.png?t=xoxe-980144714919-1133254701825-1120841107731-daf595b5a7d6c9028b0b02a925032e36",
                "thumb_960_w": 960,
                "thumb_960_h": 214,
                "thumb_1024": "https:\/\/files.slack.com\/files-tmb\/TUU48M0T1-F0124FAGHGE-8c751a1733\/screen_shot_2020-04-22_at_5.34.53_pm_1024.png?t=xoxe-980144714919-1133254701825-1120841107731-daf595b5a7d6c9028b0b02a925032e36",
                "thumb_1024_w": 1024,
                "thumb_1024_h": 228,
                "original_w": 1838,
                "original_h": 410,
                "thumb_tiny": "AwAKADC6zEMfkJpRI2QNrAVXiJ+2H\/eNXaYkNBz3P4ilwfWlopDEwfU0uOOaKKAP\/9k=",
                "permalink": "https:\/\/open-covid19.slack.com\/files\/UV85V64SD\/F0124FAGHGE\/screen_shot_2020-04-22_at_5.34.53_pm.png",
                "permalink_public": "https:\/\/slack-files.com\/TUU48M0T1-F0124FAGHGE-caa8c5a762",
                "is_starred": false,
                "has_rich_preview": false
            }
        ],
        "upload": true,
        "blocks": [
            {
                "type": "rich_text",
                "block_id": "W=X",
                "elements": [
                    {
                        "type": "rich_text_section",
                        "elements": [
                            {
                                "type": "text",
                                "text": "done"
                            }
                        ]
                    }
                ]
            }
        ],
        "user": "UV85V64SD",
        "display_as_bot": false,
        "ts": "1587569707.026600",
        "client_msg_id": "20cd8822-c6a2-435c-bddd-4b58b9ef4a07",
        "thread_ts": "1587569707.026600",
        "reply_count": 1,
        "reply_users_count": 1,
        "latest_reply": "1587569935.027300",
        "reply_users": [
            "UV9V03C8Y"
        ],
        "replies": [
            {
                "user": "UV9V03C8Y",
                "ts": "1587569935.027300"
            }
        ],
        "subscribed": false,
        "reactions": [
            {
                "name": "+1",
                "users": [
                    "UV2SC7ZE3"
                ],
                "count": 1
            }
        ]
    },
    {
        "client_msg_id": "ba98fd25-dcad-481e-978a-3585a6ef95d0",
        "type": "message",
        "text": "Cool, but the question is *how to force all existing members to join the channel?* Adding them one by one is a tuff thing...",
        "user": "UV9V03C8Y",
        "ts": "1587569935.027300",
        "team": "TUU48M0T1",
        "user_team": "TUU48M0T1",
        "source_team": "TUU48M0T1",
        "user_profile": {
            "avatar_hash": "177697fb7b8f",
            "image_72": "https:\/\/avatars.slack-edge.com\/2020-03-12\/996126178096_177697fb7b8ffa57649c_72.jpg",
            "first_name": "Camille",
            "real_name": "Camille Masselot - JOGL Program coordinator",
            "display_name": "Camille Masselot - JOGL coordinator",
            "team": "TUU48M0T1",
            "name": "masselot.camille",
            "is_restricted": false,
            "is_ultra_restricted": false
        },
        "blocks": [
            {
                "type": "rich_text",
                "block_id": "TV5h+",
                "elements": [
                    {
                        "type": "rich_text_section",
                        "elements": [
                            {
                                "type": "text",
                                "text": "Cool, but the question is "
                            },
                            {
                                "type": "text",
                                "text": "how to force all existing members to join the channel? ",
                                "style": {
                                    "bold": true
                                }
                            },
                            {
                                "type": "text",
                                "text": "Adding them one by one is a tuff thing..."
                            }
                        ]
                    }
                ]
            }
        ],
        "thread_ts": "1587569707.026600",
        "parent_user_id": "UV85V64SD"
    },
    {
        "client_msg_id": "c5633c8b-de94-418a-ac74-0a710f233563",
        "type": "message",
        "text": "Actually jk",
        "user": "UV2SC7ZE3",
        "ts": "1587569959.027500",
        "team": "TUU48M0T1",
        "user_team": "TUU48M0T1",
        "source_team": "TUU48M0T1",
        "user_profile": {
            "avatar_hash": "d28dd0d076e8",
            "image_72": "https:\/\/avatars.slack-edge.com\/2020-03-14\/987873094258_d28dd0d076e8fa9a8409_72.png",
            "first_name": "David",
            "real_name": "David Lu",
            "display_name": "David Lu",
            "team": "TUU48M0T1",
            "name": "ludavidyi",
            "is_restricted": false,
            "is_ultra_restricted": false
        },
        "blocks": [
            {
                "type": "rich_text",
                "block_id": "6PE",
                "elements": [
                    {
                        "type": "rich_text_section",
                        "elements": [
                            {
                                "type": "text",
                                "text": "Actually jk"
                            }
                        ]
                    }
                ]
            }
        ],
        "thread_ts": "1587569310.025000",
        "parent_user_id": "UV9V03C8Y"
    },
    {
        "client_msg_id": "268f4795-6779-4961-ba8e-104839fd0a64",
        "type": "message",
        "text": "that will not work, loading 1000 + entries will not work",
        "user": "UV2SC7ZE3",
        "ts": "1587569969.027700",
        "team": "TUU48M0T1",
        "user_team": "TUU48M0T1",
        "source_team": "TUU48M0T1",
        "user_profile": {
            "avatar_hash": "d28dd0d076e8",
            "image_72": "https:\/\/avatars.slack-edge.com\/2020-03-14\/987873094258_d28dd0d076e8fa9a8409_72.png",
            "first_name": "David",
            "real_name": "David Lu",
            "display_name": "David Lu",
            "team": "TUU48M0T1",
            "name": "ludavidyi",
            "is_restricted": false,
            "is_ultra_restricted": false
        },
        "blocks": [
            {
                "type": "rich_text",
                "block_id": "yj2tz",
                "elements": [
                    {
                        "type": "rich_text_section",
                        "elements": [
                            {
                                "type": "text",
                                "text": "that will not work, loading 1000 + entries will not work"
                            }
                        ]
                    }
                ]
            }
        ],
        "thread_ts": "1587569310.025000",
        "parent_user_id": "UV9V03C8Y"
    },
    {
        "client_msg_id": "f9893a2d-49f9-4b80-89c4-5e5e343ec628",
        "type": "message",
        "text": "My only concern, the font size is a little Tiny ?",
        "user": "UVC9WMA7N",
        "ts": "1587575292.029200",
        "team": "TUU48M0T1",
        "user_team": "TUU48M0T1",
        "source_team": "TUU48M0T1",
        "user_profile": {
            "avatar_hash": "56d14d58ed53",
            "image_72": "https:\/\/avatars.slack-edge.com\/2020-03-13\/998337892660_56d14d58ed537e6e4654_72.png",
            "first_name": "Leo",
            "real_name": "Leo Blondel",
            "display_name": "Leo Blondel - JOGL CoFounder \/ CTO",
            "team": "TUU48M0T1",
            "name": "leo",
            "is_restricted": false,
            "is_ultra_restricted": false
        },
        "blocks": [
            {
                "type": "rich_text",
                "block_id": "R1vBC",
                "elements": [
                    {
                        "type": "rich_text_section",
                        "elements": [
                            {
                                "type": "text",
                                "text": "My only concern, the font size is a little Tiny ?"
                            }
                        ]
                    }
                ]
            }
        ],
        "thread_ts": "1587561536.020100",
        "parent_user_id": "UV85V64SD"
    },
    {
        "client_msg_id": "5f331bd3-02a4-44df-816d-1b193abdbebe",
        "type": "message",
        "text": "I'm looking for this Camille but I can't find anything on it",
        "user": "UVC9WMA7N",
        "ts": "1587575434.029600",
        "team": "TUU48M0T1",
        "user_team": "TUU48M0T1",
        "source_team": "TUU48M0T1",
        "user_profile": {
            "avatar_hash": "56d14d58ed53",
            "image_72": "https:\/\/avatars.slack-edge.com\/2020-03-13\/998337892660_56d14d58ed537e6e4654_72.png",
            "first_name": "Leo",
            "real_name": "Leo Blondel",
            "display_name": "Leo Blondel - JOGL CoFounder \/ CTO",
            "team": "TUU48M0T1",
            "name": "leo",
            "is_restricted": false,
            "is_ultra_restricted": false
        },
        "blocks": [
            {
                "type": "rich_text",
                "block_id": "g94",
                "elements": [
                    {
                        "type": "rich_text_section",
                        "elements": [
                            {
                                "type": "text",
                                "text": "I'm looking for this Camille but I can't find anything on it"
                            }
                        ]
                    }
                ]
            }
        ]
    },
    {
        "client_msg_id": "802e4e8a-af21-4816-b911-b3a0aa7d6c7b",
        "type": "message",
        "text": "It looks quite clear and easy to understand.",
        "user": "U0103LPAWQ4",
        "ts": "1587588681.029700",
        "team": "TUU48M0T1",
        "user_team": "TUU48M0T1",
        "source_team": "TUU48M0T1",
        "user_profile": {
            "avatar_hash": "7b345029e813",
            "image_72": "https:\/\/avatars.slack-edge.com\/2020-03-17\/1004213082549_7b345029e8137cbdc6b0_72.jpg",
            "first_name": "Bre",
            "real_name": "Bre",
            "display_name": "Bre",
            "team": "TUU48M0T1",
            "name": "info",
            "is_restricted": false,
            "is_ultra_restricted": false
        },
        "blocks": [
            {
                "type": "rich_text",
                "block_id": "O4G",
                "elements": [
                    {
                        "type": "rich_text_section",
                        "elements": [
                            {
                                "type": "text",
                                "text": "It looks quite clear and easy to understand."
                            }
                        ]
                    }
                ]
            }
        ],
        "thread_ts": "1587557108.018300",
        "parent_user_id": "U011D8T1Z61"
    }
]