[
    {
        "client_msg_id": "c015ac1f-b446-46a7-a2b0-8fe97d6808ab",
        "type": "message",
        "text": "Ellen Jorgensen has already validated the NEB colorimetric LAMP protocol.  All of my reagents have now arrived and I plan to test this protocol tomorrow.  See #prgm-neb-lamp-test",
        "user": "UV10KBUQG",
        "ts": "1585702110.004200",
        "team": "TUU48M0T1",
        "user_team": "TUU48M0T1",
        "source_team": "TUU48M0T1",
        "user_profile": {
            "avatar_hash": "2deebbf6be3d",
            "image_72": "https:\/\/avatars.slack-edge.com\/2020-03-06\/976932190641_2deebbf6be3d17141d91_72.jpg",
            "first_name": "Sarah",
            "real_name": "Sarah Blossom Ware",
            "display_name": "Sarah Blossom Ware - BioBlaze Community Bio Lab",
            "team": "TUU48M0T1",
            "name": "ware.sarah",
            "is_restricted": false,
            "is_ultra_restricted": false
        },
        "blocks": [
            {
                "type": "rich_text",
                "block_id": "Ky2W",
                "elements": [
                    {
                        "type": "rich_text_section",
                        "elements": [
                            {
                                "type": "text",
                                "text": "Ellen Jorgensen has already validated the NEB colorimetric LAMP protocol.  All of my reagents have now arrived and I plan to test this protocol tomorrow.  See #prgm-neb-lamp-test"
                            }
                        ]
                    }
                ]
            }
        ],
        "reactions": [
            {
                "name": "+1",
                "users": [
                    "UV1A22N3W",
                    "UV3746ST1",
                    "U01181TG37X",
                    "UVA5NGLMS",
                    "UV3HA9MM4"
                ],
                "count": 5
            }
        ]
    }
]