[
    {
        "client_msg_id": "d73c9220-8062-4389-96f5-b7d036c17ce2",
        "type": "message",
        "text": "A big progress. In my opinion, with those of us facing death, it's a up to now solution",
        "user": "U010Z4GHYGG",
        "ts": "1586856449.000100",
        "team": "TUU48M0T1",
        "user_team": "TUU48M0T1",
        "source_team": "TUU48M0T1",
        "user_profile": {
            "avatar_hash": "g07901c8853b",
            "image_72": "https:\/\/secure.gravatar.com\/avatar\/07901c8853bb936aaf913b30f8af6cbf.jpg?s=72&d=https%3A%2F%2Fa.slack-edge.com%2Fdf10d%2Fimg%2Favatars%2Fava_0009-72.png",
            "first_name": "",
            "real_name": "Juanpe",
            "display_name": "Juanpe",
            "team": "TUU48M0T1",
            "name": "juanperivas",
            "is_restricted": false,
            "is_ultra_restricted": false
        },
        "edited": {
            "user": "U010Z4GHYGG",
            "ts": "1586857304.000000"
        },
        "thread_ts": "1586788159.008100",
        "parent_user_id": "U010Z4GHYGG"
    },
    {
        "type": "message",
        "subtype": "channel_name",
        "ts": "1586860593.000200",
        "user": "U010Z4GHYGG",
        "text": "<@U010Z4GHYGG> has renamed the channel from \"survivorserum\" to \"proj-survivorserum\"",
        "old_name": "survivorserum",
        "name": "proj-survivorserum"
    },
    {
        "type": "message",
        "subtype": "channel_purpose",
        "ts": "1586864477.000100",
        "user": "U010Z4GHYGG",
        "text": "<@U010Z4GHYGG> set the channel purpose: viability of using covid19 survivor antibodies in critical patients as a means of right-now treatment. steps: 1) sharing points and reflecting 2) drafting of deployment",
        "purpose": "viability of using covid19 survivor antibodies in critical patients as a means of right-now treatment. steps: 1) sharing points and reflecting 2) drafting of deployment"
    },
    {
        "type": "message",
        "subtype": "channel_purpose",
        "ts": "1586864518.000200",
        "user": "U010Z4GHYGG",
        "text": "<@U010Z4GHYGG> set the channel purpose: viability of using covid19 survivor antibodies in critical patients as a means of right-now treatment.\n\nsteps:\n1) sharing points and reflecting\n2) drafting of deployment",
        "purpose": "viability of using covid19 survivor antibodies in critical patients as a means of right-now treatment.\n\nsteps:\n1) sharing points and reflecting\n2) drafting of deployment"
    },
    {
        "type": "message",
        "subtype": "channel_purpose",
        "ts": "1586864620.000300",
        "user": "U010Z4GHYGG",
        "text": "<@U010Z4GHYGG> set the channel purpose: viability of transfusions of covid19 survivor antibodies to critical patients as a means of right-now treatment.\n\nsteps:\n1) sharing points and reflecting\n2) drafting of deployment",
        "purpose": "viability of transfusions of covid19 survivor antibodies to critical patients as a means of right-now treatment.\n\nsteps:\n1) sharing points and reflecting\n2) drafting of deployment"
    },
    {
        "type": "message",
        "subtype": "channel_purpose",
        "ts": "1586864733.000400",
        "user": "U010Z4GHYGG",
        "text": "<@U010Z4GHYGG> set the channel purpose: viability of transfusions of covid19 survivor antibodies to critical patients as a means of right-now treatment.\n\nsteps:\n1) sharing points, questioning, reflecting, gathering source knowledge\n2) drafting of deployment",
        "purpose": "viability of transfusions of covid19 survivor antibodies to critical patients as a means of right-now treatment.\n\nsteps:\n1) sharing points, questioning, reflecting, gathering source knowledge\n2) drafting of deployment"
    },
    {
        "type": "message",
        "subtype": "channel_purpose",
        "ts": "1586864753.000500",
        "user": "U010Z4GHYGG",
        "text": "<@U010Z4GHYGG> set the channel purpose: viability of transfusions of covid19 survivor antibodies to critical patients as a means of right-now treatment.\n\nsteps:\n1) sharing points, reflecting, gathering source knowledge\n2) drafting of deployment",
        "purpose": "viability of transfusions of covid19 survivor antibodies to critical patients as a means of right-now treatment.\n\nsteps:\n1) sharing points, reflecting, gathering source knowledge\n2) drafting of deployment"
    },
    {
        "client_msg_id": "7a661a84-afaa-4c14-a7c7-0270ef463578",
        "type": "message",
        "text": "how could we help in this matter to hospitals or stakeholders?",
        "user": "U010Z4GHYGG",
        "ts": "1586865361.002600",
        "team": "TUU48M0T1",
        "user_team": "TUU48M0T1",
        "source_team": "TUU48M0T1",
        "user_profile": {
            "avatar_hash": "g07901c8853b",
            "image_72": "https:\/\/secure.gravatar.com\/avatar\/07901c8853bb936aaf913b30f8af6cbf.jpg?s=72&d=https%3A%2F%2Fa.slack-edge.com%2Fdf10d%2Fimg%2Favatars%2Fava_0009-72.png",
            "first_name": "",
            "real_name": "Juanpe",
            "display_name": "Juanpe",
            "team": "TUU48M0T1",
            "name": "juanperivas",
            "is_restricted": false,
            "is_ultra_restricted": false
        },
        "blocks": [
            {
                "type": "rich_text",
                "block_id": "Etv9",
                "elements": [
                    {
                        "type": "rich_text_section",
                        "elements": [
                            {
                                "type": "text",
                                "text": "how could we help in this matter to hospitals or stakeholders?"
                            }
                        ]
                    }
                ]
            }
        ],
        "thread_ts": "1586865361.002600",
        "reply_count": 3,
        "reply_users_count": 1,
        "latest_reply": "1586892850.000100",
        "reply_users": [
            "U010BA2NL9E"
        ],
        "replies": [
            {
                "user": "U010BA2NL9E",
                "ts": "1586869673.000100"
            },
            {
                "user": "U010BA2NL9E",
                "ts": "1586869700.000400"
            },
            {
                "user": "U010BA2NL9E",
                "ts": "1586892850.000100"
            }
        ],
        "subscribed": false
    },
    {
        "client_msg_id": "10b629af-e1ba-4406-81bc-d41f48715abc",
        "type": "message",
        "text": "A few more articles on the topic\n\n<https:\/\/www.jci.org\/articles\/view\/138745|https:\/\/www.jci.org\/articles\/view\/138745>\n\n<https:\/\/www.jci.org\/articles\/view\/138003\/version\/1|https:\/\/www.jci.org\/articles\/view\/138003\/version\/1>\n\n<https:\/\/www.jwatch.org\/na51267\/2020\/04\/02\/convalescent-plasma-has-potential-utility-managing-covid|https:\/\/www.jwatch.org\/na51267\/2020\/04\/02\/convalescent-plasma-has-potential-utility-managing-covid>\n\n<https:\/\/doi.org\/10.1007\/s00134-020-06022-5|https:\/\/doi.org\/10.1007\/s00134-020-06022-5>\n\n<https:\/\/linkinghub.elsevier.com\/retrieve\/pii\/S1473309920301419|https:\/\/linkinghub.elsevier.com\/retrieve\/pii\/S1473309920301419>\n\n<https:\/\/www.jwatch.org\/fw116497\/2020\/03\/29\/early-results-promising-convalescent-plasma-covid-19|https:\/\/www.jwatch.org\/fw116497\/2020\/03\/29\/early-results-promising-convalescent-plasma-covid-19>",
        "user": "U010BA2NL9E",
        "ts": "1586865807.003900",
        "team": "TUU48M0T1",
        "user_team": "TUU48M0T1",
        "source_team": "TUU48M0T1",
        "user_profile": {
            "avatar_hash": "g3fa100f8f14",
            "image_72": "https:\/\/secure.gravatar.com\/avatar\/3fa100f8f14fc86a0f2f58648b36d29e.jpg?s=72&d=https%3A%2F%2Fa.slack-edge.com%2Fdf10d%2Fimg%2Favatars%2Fava_0008-72.png",
            "first_name": "",
            "real_name": "Eduardo Garcia",
            "display_name": "Eduardo Garcia",
            "team": "TUU48M0T1",
            "name": "eduardo.garcia",
            "is_restricted": false,
            "is_ultra_restricted": false
        },
        "edited": {
            "user": "U010BA2NL9E",
            "ts": "1586969735.000000"
        },
        "blocks": [
            {
                "type": "rich_text",
                "block_id": "fJx",
                "elements": [
                    {
                        "type": "rich_text_section",
                        "elements": [
                            {
                                "type": "text",
                                "text": "A few more articles on the topic\n\n"
                            },
                            {
                                "type": "link",
                                "url": "https:\/\/www.jci.org\/articles\/view\/138745",
                                "text": "https:\/\/www.jci.org\/articles\/view\/138745"
                            },
                            {
                                "type": "text",
                                "text": "\n\n"
                            },
                            {
                                "type": "link",
                                "url": "https:\/\/www.jci.org\/articles\/view\/138003\/version\/1",
                                "text": "https:\/\/www.jci.org\/articles\/view\/138003\/version\/1"
                            },
                            {
                                "type": "text",
                                "text": "\n\n"
                            },
                            {
                                "type": "link",
                                "url": "https:\/\/www.jwatch.org\/na51267\/2020\/04\/02\/convalescent-plasma-has-potential-utility-managing-covid",
                                "text": "https:\/\/www.jwatch.org\/na51267\/2020\/04\/02\/convalescent-plasma-has-potential-utility-managing-covid"
                            },
                            {
                                "type": "text",
                                "text": "\n\n"
                            },
                            {
                                "type": "link",
                                "url": "https:\/\/doi.org\/10.1007\/s00134-020-06022-5",
                                "text": "https:\/\/doi.org\/10.1007\/s00134-020-06022-5"
                            },
                            {
                                "type": "text",
                                "text": "\n\n"
                            },
                            {
                                "type": "link",
                                "url": "https:\/\/linkinghub.elsevier.com\/retrieve\/pii\/S1473309920301419",
                                "text": "https:\/\/linkinghub.elsevier.com\/retrieve\/pii\/S1473309920301419"
                            },
                            {
                                "type": "text",
                                "text": "\n\n"
                            },
                            {
                                "type": "link",
                                "url": "https:\/\/www.jwatch.org\/fw116497\/2020\/03\/29\/early-results-promising-convalescent-plasma-covid-19",
                                "text": "https:\/\/www.jwatch.org\/fw116497\/2020\/03\/29\/early-results-promising-convalescent-plasma-covid-19"
                            }
                        ]
                    }
                ]
            }
        ],
        "thread_ts": "1586540412.003600",
        "parent_user_id": "U010BA2NL9E"
    },
    {
        "client_msg_id": "42951742-19dd-4e5f-9fb5-64e35781b4d1",
        "type": "message",
        "text": "I added this morning a list of academic articles to my previous list of news.\n\nIt seems that emphasis at the moment is on clinical trials. \n\nAlso found the article below of UChicago. So a simple way to help is finding them volunteers to donate plasma.",
        "user": "U010BA2NL9E",
        "ts": "1586869673.000100",
        "team": "TUU48M0T1",
        "user_team": "TUU48M0T1",
        "source_team": "TUU48M0T1",
        "user_profile": {
            "avatar_hash": "g3fa100f8f14",
            "image_72": "https:\/\/secure.gravatar.com\/avatar\/3fa100f8f14fc86a0f2f58648b36d29e.jpg?s=72&d=https%3A%2F%2Fa.slack-edge.com%2Fdf10d%2Fimg%2Favatars%2Fava_0008-72.png",
            "first_name": "",
            "real_name": "Eduardo Garcia",
            "display_name": "Eduardo Garcia",
            "team": "TUU48M0T1",
            "name": "eduardo.garcia",
            "is_restricted": false,
            "is_ultra_restricted": false
        },
        "edited": {
            "user": "U010BA2NL9E",
            "ts": "1586869692.000000"
        },
        "blocks": [
            {
                "type": "rich_text",
                "block_id": "9sF4K",
                "elements": [
                    {
                        "type": "rich_text_section",
                        "elements": [
                            {
                                "type": "text",
                                "text": "I added this morning a list of academic articles to my previous list of news.\n\nIt seems that emphasis at the moment is on clinical trials. \n\nAlso found the article below of UChicago. So a simple way to help is finding them volunteers to donate plasma."
                            }
                        ]
                    }
                ]
            }
        ],
        "thread_ts": "1586865361.002600",
        "parent_user_id": "U010Z4GHYGG"
    },
    {
        "client_msg_id": "8aaa745b-f640-41c0-b80f-d860f4fceba9",
        "type": "message",
        "text": "\"The researchers will recruit adults in Chicago who have tested positive for and recovered from COVID-19 to donate blood and participate in the study. Those interested in participating in the study and donating plasma may visit the COVID-19 convalescent plasma study website at <https:\/\/is.gd\/donateplasma|https:\/\/is.gd\/donateplasma>, email <mailto:plasma@uchospitals.edu|plasma@uchospitals.edu> or call <tel:7737025526|773-702-5526>.\"\n\n<https:\/\/www.eurekalert.org\/pub_releases\/2020-04\/uocm-umt041320.php|https:\/\/www.eurekalert.org\/pub_releases\/2020-04\/uocm-umt041320.php>",
        "user": "U010BA2NL9E",
        "ts": "1586869700.000400",
        "team": "TUU48M0T1",
        "user_team": "TUU48M0T1",
        "source_team": "TUU48M0T1",
        "user_profile": {
            "avatar_hash": "g3fa100f8f14",
            "image_72": "https:\/\/secure.gravatar.com\/avatar\/3fa100f8f14fc86a0f2f58648b36d29e.jpg?s=72&d=https%3A%2F%2Fa.slack-edge.com%2Fdf10d%2Fimg%2Favatars%2Fava_0008-72.png",
            "first_name": "",
            "real_name": "Eduardo Garcia",
            "display_name": "Eduardo Garcia",
            "team": "TUU48M0T1",
            "name": "eduardo.garcia",
            "is_restricted": false,
            "is_ultra_restricted": false
        },
        "attachments": [
            {
                "service_name": "EurekAlert!",
                "title": "UChicago Medicine to explore convalescent plasma transfusions for COVID-19 patients",
                "title_link": "https:\/\/www.eurekalert.org\/pub_releases\/2020-04\/uocm-umt041320.php",
                "text": "The University of Chicago Medicine is launching a clinical trial to study whether blood plasma from people who have recovered from COVID-19 can be used to treat patients who are still in the hospital with severe disease symptoms.",
                "fallback": "EurekAlert!: UChicago Medicine to explore convalescent plasma transfusions for COVID-19 patients",
                "thumb_url": "https:\/\/www.eurekalert.org\/images\/EurekAlert_StackedLogo_RGB.jpg",
                "from_url": "https:\/\/www.eurekalert.org\/pub_releases\/2020-04\/uocm-umt041320.php",
                "thumb_width": 900,
                "thumb_height": 300,
                "service_icon": "https:\/\/www.eurekalert.org\/favicon.ico",
                "id": 1,
                "original_url": "https:\/\/www.eurekalert.org\/pub_releases\/2020-04\/uocm-umt041320.php"
            }
        ],
        "blocks": [
            {
                "type": "rich_text",
                "block_id": "OZeKf",
                "elements": [
                    {
                        "type": "rich_text_section",
                        "elements": [
                            {
                                "type": "text",
                                "text": "\"The researchers will recruit adults in Chicago who have tested positive for and recovered from COVID-19 to donate blood and participate in the study. Those interested in participating in the study and donating plasma may visit the COVID-19 convalescent plasma study website at "
                            },
                            {
                                "type": "link",
                                "url": "https:\/\/is.gd\/donateplasma",
                                "text": "https:\/\/is.gd\/donateplasma"
                            },
                            {
                                "type": "text",
                                "text": ", email "
                            },
                            {
                                "type": "link",
                                "url": "mailto:plasma@uchospitals.edu",
                                "text": "plasma@uchospitals.edu"
                            },
                            {
                                "type": "text",
                                "text": " or call "
                            },
                            {
                                "type": "link",
                                "url": "tel:7737025526",
                                "text": "773-702-5526"
                            },
                            {
                                "type": "text",
                                "text": ".\"\n\n"
                            },
                            {
                                "type": "link",
                                "url": "https:\/\/www.eurekalert.org\/pub_releases\/2020-04\/uocm-umt041320.php",
                                "text": "https:\/\/www.eurekalert.org\/pub_releases\/2020-04\/uocm-umt041320.php"
                            }
                        ]
                    }
                ]
            }
        ],
        "thread_ts": "1586865361.002600",
        "parent_user_id": "U010Z4GHYGG"
    },
    {
        "client_msg_id": "dcb1fbd1-0067-4e83-8c60-5a7f2a098abb",
        "type": "message",
        "text": "<https:\/\/www.medscape.com\/viewarticle\/927716?src=soc_tw_200330_mscpedt_news_mdscp_plasma&amp;faf=1>",
        "user": "U010Z4GHYGG",
        "ts": "1586890794.000200",
        "team": "TUU48M0T1",
        "user_team": "TUU48M0T1",
        "source_team": "TUU48M0T1",
        "user_profile": {
            "avatar_hash": "g07901c8853b",
            "image_72": "https:\/\/secure.gravatar.com\/avatar\/07901c8853bb936aaf913b30f8af6cbf.jpg?s=72&d=https%3A%2F%2Fa.slack-edge.com%2Fdf10d%2Fimg%2Favatars%2Fava_0009-72.png",
            "first_name": "",
            "real_name": "Juanpe",
            "display_name": "Juanpe",
            "team": "TUU48M0T1",
            "name": "juanperivas",
            "is_restricted": false,
            "is_ultra_restricted": false
        },
        "attachments": [
            {
                "service_name": "Medscape",
                "title": "FDA OKs Emergency Use of Convalescent Plasma for COVID-19 Patients",
                "title_link": "https:\/\/www.medscape.com\/viewarticle\/927716?src=soc_tw_200330_mscpedt_news_mdscp_plasma&faf=1",
                "text": "As the number of US patients infected with COVID-19 continues to rise, the FDA is facilitating access to COVID-19 convalescent plasma for use in patients with serious or life-threatening infections.",
                "fallback": "Medscape: FDA OKs Emergency Use of Convalescent Plasma for COVID-19 Patients",
                "thumb_url": "https:\/\/img.medscape.com\/thumbnail_library\/dt_200330_blood_plasma_800x450.jpg",
                "from_url": "https:\/\/www.medscape.com\/viewarticle\/927716?src=soc_tw_200330_mscpedt_news_mdscp_plasma&faf=1",
                "thumb_width": 800,
                "thumb_height": 450,
                "service_icon": "https:\/\/www.medscape.com\/favicon.ico",
                "id": 1,
                "original_url": "https:\/\/www.medscape.com\/viewarticle\/927716?src=soc_tw_200330_mscpedt_news_mdscp_plasma&amp;faf=1"
            }
        ]
    },
    {
        "client_msg_id": "7c4ae837-8791-40bb-b299-cb40f0f7b3c4",
        "type": "message",
        "text": "In the US, it seems they are already using survivor plasma in patients with life-threatening conditions",
        "user": "U010Z4GHYGG",
        "ts": "1586891223.002400",
        "team": "TUU48M0T1",
        "user_team": "TUU48M0T1",
        "source_team": "TUU48M0T1",
        "user_profile": {
            "avatar_hash": "g07901c8853b",
            "image_72": "https:\/\/secure.gravatar.com\/avatar\/07901c8853bb936aaf913b30f8af6cbf.jpg?s=72&d=https%3A%2F%2Fa.slack-edge.com%2Fdf10d%2Fimg%2Favatars%2Fava_0009-72.png",
            "first_name": "",
            "real_name": "Juanpe",
            "display_name": "Juanpe",
            "team": "TUU48M0T1",
            "name": "juanperivas",
            "is_restricted": false,
            "is_ultra_restricted": false
        },
        "edited": {
            "user": "U010Z4GHYGG",
            "ts": "1586891622.000000"
        }
    },
    {
        "type": "message",
        "text": "",
        "files": [
            {
                "id": "F011DG6TCK1",
                "created": 1586891258,
                "timestamp": 1586891258,
                "name": "RecPlasmaConv_CCST_Marzo 2020.pdf",
                "title": "RecPlasmaConv_CCST_Marzo 2020.pdf",
                "mimetype": "application\/pdf",
                "filetype": "pdf",
                "pretty_type": "PDF",
                "user": "U010Z4GHYGG",
                "editable": false,
                "size": 149499,
                "mode": "hosted",
                "is_external": false,
                "external_type": "",
                "is_public": true,
                "public_url_shared": false,
                "display_as_bot": false,
                "username": "",
                "url_private": "https:\/\/files.slack.com\/files-pri\/TUU48M0T1-F011DG6TCK1\/recplasmaconv_ccst_marzo_2020.pdf?t=xoxe-980144714919-1106606678066-1105227127893-6f722bb664235052954ad46852628b64",
                "url_private_download": "https:\/\/files.slack.com\/files-pri\/TUU48M0T1-F011DG6TCK1\/download\/recplasmaconv_ccst_marzo_2020.pdf?t=xoxe-980144714919-1106606678066-1105227127893-6f722bb664235052954ad46852628b64",
                "thumb_pdf": "https:\/\/files.slack.com\/files-tmb\/TUU48M0T1-F011DG6TCK1-f94c221b75\/recplasmaconv_ccst_marzo_2020_thumb_pdf.png?t=xoxe-980144714919-1106606678066-1105227127893-6f722bb664235052954ad46852628b64",
                "thumb_pdf_w": 909,
                "thumb_pdf_h": 1286,
                "permalink": "https:\/\/open-covid19.slack.com\/files\/U010Z4GHYGG\/F011DG6TCK1\/recplasmaconv_ccst_marzo_2020.pdf",
                "permalink_public": "https:\/\/slack-files.com\/TUU48M0T1-F011DG6TCK1-02bef0e219",
                "is_starred": false,
                "has_rich_preview": false
            }
        ],
        "upload": true,
        "user": "U010Z4GHYGG",
        "display_as_bot": false,
        "ts": "1586891259.002500"
    },
    {
        "client_msg_id": "3cb40af4-7384-4f32-b29e-9a292766f1f6",
        "type": "message",
        "text": "These are the guidelines in Spain to get plasma from covid19 survivors",
        "user": "U010Z4GHYGG",
        "ts": "1586891276.003000",
        "team": "TUU48M0T1",
        "user_team": "TUU48M0T1",
        "source_team": "TUU48M0T1",
        "user_profile": {
            "avatar_hash": "g07901c8853b",
            "image_72": "https:\/\/secure.gravatar.com\/avatar\/07901c8853bb936aaf913b30f8af6cbf.jpg?s=72&d=https%3A%2F%2Fa.slack-edge.com%2Fdf10d%2Fimg%2Favatars%2Fava_0009-72.png",
            "first_name": "",
            "real_name": "Juanpe",
            "display_name": "Juanpe",
            "team": "TUU48M0T1",
            "name": "juanperivas",
            "is_restricted": false,
            "is_ultra_restricted": false
        },
        "edited": {
            "user": "U010Z4GHYGG",
            "ts": "1586891646.000000"
        }
    },
    {
        "client_msg_id": "1bfe5737-c4ad-4ea3-9989-337bbf2e071b",
        "type": "message",
        "text": "Looks like something is going on, although I don't read or see anything in the news about life-threatening patients being transfused",
        "user": "U010Z4GHYGG",
        "ts": "1586891745.007400",
        "team": "TUU48M0T1",
        "user_team": "TUU48M0T1",
        "source_team": "TUU48M0T1",
        "user_profile": {
            "avatar_hash": "g07901c8853b",
            "image_72": "https:\/\/secure.gravatar.com\/avatar\/07901c8853bb936aaf913b30f8af6cbf.jpg?s=72&d=https%3A%2F%2Fa.slack-edge.com%2Fdf10d%2Fimg%2Favatars%2Fava_0009-72.png",
            "first_name": "",
            "real_name": "Juanpe",
            "display_name": "Juanpe",
            "team": "TUU48M0T1",
            "name": "juanperivas",
            "is_restricted": false,
            "is_ultra_restricted": false
        },
        "edited": {
            "user": "U010Z4GHYGG",
            "ts": "1586891945.000000"
        }
    },
    {
        "client_msg_id": "8f610a72-b196-4fe5-9933-2b0de32e5165",
        "type": "message",
        "text": "Not every recovered patient will qualify to have convalescent plasma collected, Oh said. \"They have to be 28 days from having symptoms for us to be able to collect.\"\n\nAnyone who belives they may qualify is welcome to email <mailto:Hoxcovid19@uc.edu|Hoxcovid19@uc.edu>, or check out the website at <http:\/\/Hoxworth.org|Hoxworth.org> for more information.\n\n<https:\/\/www.cincinnati.com\/story\/news\/2020\/04\/09\/cincinnati-christ-hospital-hoxworth-study-covid-19-plasma-treatment\/5124249002\/|https:\/\/www.cincinnati.com\/story\/news\/2020\/04\/09\/cincinnati-christ-hospital-hoxworth-study-covid-19-plasma-treatment\/5124249002\/>",
        "user": "U010BA2NL9E",
        "ts": "1586892850.000100",
        "team": "TUU48M0T1",
        "user_team": "TUU48M0T1",
        "source_team": "TUU48M0T1",
        "user_profile": {
            "avatar_hash": "g3fa100f8f14",
            "image_72": "https:\/\/secure.gravatar.com\/avatar\/3fa100f8f14fc86a0f2f58648b36d29e.jpg?s=72&d=https%3A%2F%2Fa.slack-edge.com%2Fdf10d%2Fimg%2Favatars%2Fava_0008-72.png",
            "first_name": "",
            "real_name": "Eduardo Garcia",
            "display_name": "Eduardo Garcia",
            "team": "TUU48M0T1",
            "name": "eduardo.garcia",
            "is_restricted": false,
            "is_ultra_restricted": false
        },
        "edited": {
            "user": "U010BA2NL9E",
            "ts": "1586892890.000000"
        },
        "attachments": [
            {
                "service_name": "Cincinnati.com",
                "title": "MDs at Christ Hospital, Hoxworth study new treatment for sickest COVID-19 patients",
                "title_link": "https:\/\/www.cincinnati.com\/story\/news\/2020\/04\/09\/cincinnati-christ-hospital-hoxworth-study-covid-19-plasma-treatment\/5124249002\/",
                "text": "Two Cincinnati area doctors are working on a plan to provide plasma from recovered COVID-19 patients to help heal others.",
                "fallback": "Cincinnati.com: MDs at Christ Hospital, Hoxworth study new treatment for sickest COVID-19 patients",
                "image_url": "https:\/\/www.gannett-cdn.com\/presto\/2020\/02\/25\/PBRE\/f62b9123-1613-4d6a-b7cd-abf26ea556c0-coronavirus.JPG?crop=804,452,x0,y51&width=1600&height=800&fit=bounds",
                "image_width": 445,
                "image_height": 250,
                "from_url": "https:\/\/www.cincinnati.com\/story\/news\/2020\/04\/09\/cincinnati-christ-hospital-hoxworth-study-covid-19-plasma-treatment\/5124249002\/",
                "image_bytes": 112948,
                "service_icon": "https:\/\/www.gannett-cdn.com\/sites\/cincinnati\/images\/favicon.png",
                "id": 1,
                "original_url": "https:\/\/www.cincinnati.com\/story\/news\/2020\/04\/09\/cincinnati-christ-hospital-hoxworth-study-covid-19-plasma-treatment\/5124249002\/"
            }
        ],
        "blocks": [
            {
                "type": "rich_text",
                "block_id": "D1QiL",
                "elements": [
                    {
                        "type": "rich_text_section",
                        "elements": [
                            {
                                "type": "text",
                                "text": "Not every recovered patient will qualify to have convalescent plasma collected, Oh said. \"They have to be 28 days from having symptoms for us to be able to collect.\"\n\nAnyone who belives they may qualify is welcome to email "
                            },
                            {
                                "type": "link",
                                "url": "mailto:Hoxcovid19@uc.edu",
                                "text": "Hoxcovid19@uc.edu"
                            },
                            {
                                "type": "text",
                                "text": ", or check out the website at "
                            },
                            {
                                "type": "link",
                                "url": "http:\/\/Hoxworth.org",
                                "text": "Hoxworth.org"
                            },
                            {
                                "type": "text",
                                "text": " for more information.\n\n"
                            },
                            {
                                "type": "link",
                                "url": "https:\/\/www.cincinnati.com\/story\/news\/2020\/04\/09\/cincinnati-christ-hospital-hoxworth-study-covid-19-plasma-treatment\/5124249002\/",
                                "text": "https:\/\/www.cincinnati.com\/story\/news\/2020\/04\/09\/cincinnati-christ-hospital-hoxworth-study-covid-19-plasma-treatment\/5124249002\/"
                            }
                        ]
                    }
                ]
            }
        ],
        "thread_ts": "1586865361.002600",
        "parent_user_id": "U010Z4GHYGG"
    },
    {
        "client_msg_id": "00acf499-6fc0-4c2a-b706-f5b33ad3068f",
        "type": "message",
        "text": "List of Convalescent Plasma Clinical Trials\n\n<https:\/\/www.clinicaltrials.gov\/ct2\/results?cond=COVID-19&amp;term=convalescent+plasma&amp;cntry=&amp;state=&amp;city=&amp;dist=|https:\/\/www.clinicaltrials.gov\/ct2\/results?cond=COVID-19&amp;term=convalescent+plasma&amp;cntry=&amp;state=&amp;city=&amp;dist=>",
        "user": "U010BA2NL9E",
        "ts": "1586893469.001000",
        "team": "TUU48M0T1",
        "user_team": "TUU48M0T1",
        "source_team": "TUU48M0T1",
        "user_profile": {
            "avatar_hash": "g3fa100f8f14",
            "image_72": "https:\/\/secure.gravatar.com\/avatar\/3fa100f8f14fc86a0f2f58648b36d29e.jpg?s=72&d=https%3A%2F%2Fa.slack-edge.com%2Fdf10d%2Fimg%2Favatars%2Fava_0008-72.png",
            "first_name": "",
            "real_name": "Eduardo Garcia",
            "display_name": "Eduardo Garcia",
            "team": "TUU48M0T1",
            "name": "eduardo.garcia",
            "is_restricted": false,
            "is_ultra_restricted": false
        },
        "attachments": [
            {
                "title": "Search of: convalescent plasma | COVID-19 - List Results - ClinicalTrials.gov",
                "title_link": "https:\/\/www.clinicaltrials.gov\/ct2\/results?cond=COVID-19&term=convalescent+plasma&cntry=&state=&city=&dist=",
                "fallback": "Search of: convalescent plasma | COVID-19 - List Results - ClinicalTrials.gov",
                "image_url": "https:\/\/clinicaltrials.gov\/ct2\/html\/images\/ct.gov-nlm-nih-logo.png",
                "from_url": "https:\/\/www.clinicaltrials.gov\/ct2\/results?cond=COVID-19&term=convalescent+plasma&cntry=&state=&city=&dist=",
                "image_width": 286,
                "image_height": 73,
                "image_bytes": 11855,
                "service_icon": "https:\/\/www.clinicaltrials.gov\/ct2\/html\/images\/favicon.ico",
                "service_name": "clinicaltrials.gov",
                "id": 1,
                "original_url": "https:\/\/www.clinicaltrials.gov\/ct2\/results?cond=COVID-19&amp;term=convalescent+plasma&amp;cntry=&amp;state=&amp;city=&amp;dist="
            }
        ],
        "blocks": [
            {
                "type": "rich_text",
                "block_id": "jUD",
                "elements": [
                    {
                        "type": "rich_text_section",
                        "elements": [
                            {
                                "type": "text",
                                "text": "List of Convalescent Plasma Clinical Trials\n\n"
                            },
                            {
                                "type": "link",
                                "url": "https:\/\/www.clinicaltrials.gov\/ct2\/results?cond=COVID-19&term=convalescent+plasma&cntry=&state=&city=&dist=",
                                "text": "https:\/\/www.clinicaltrials.gov\/ct2\/results?cond=COVID-19&term=convalescent+plasma&cntry=&state=&city=&dist="
                            }
                        ]
                    }
                ]
            }
        ]
    },
    {
        "client_msg_id": "d16fdb5e-c2b8-4d9c-806d-6da64a898b18",
        "type": "message",
        "text": "ConPlas-19 Estudio Plasma Hiperinmune liderado por Hospital Puerta de Hierro, Spain\n\n----\nEl Sescam invita a los profesionales que han superado el coronavirus a donar sangre para obtener «plasma hiperinmune»\n\nEn los próximos días se iniciará la inclusión y tratamiento de pacientes y para ello se ha lanzado, en primer lugar, una invitación a todos los profesionales y trabajadores de la Gerencia Integrada de Ciudad Real que hayan superado la enfermedad para que colaboren con la posibilidad de ser donantes de plasma. Posteriormente se irá haciendo extensiva la invitación al resto de la ciudadanía.\n\nEl Centro de Transfusión irá seleccionando qué candidatos son los más idóneos para colaborar en este estudio. Los criterios para la selección de donantes de plasma son: varones, con edades comprendidas entre los 18 y los 60 años, con un peso igual o superior a los cincuenta kilos, que lleven catorce días asintomáticos tras el diagnóstico de Covid-19, con buen estado de salud y no tener antecedentes de haber recibido transfusión de sangre.\n\n<https:\/\/diariosanitario.com\/plasma-hiperinmune-coronavirus\/|https:\/\/diariosanitario.com\/plasma-hiperinmune-coronavirus\/>",
        "user": "U010BA2NL9E",
        "ts": "1586894541.003700",
        "team": "TUU48M0T1",
        "user_team": "TUU48M0T1",
        "source_team": "TUU48M0T1",
        "user_profile": {
            "avatar_hash": "g3fa100f8f14",
            "image_72": "https:\/\/secure.gravatar.com\/avatar\/3fa100f8f14fc86a0f2f58648b36d29e.jpg?s=72&d=https%3A%2F%2Fa.slack-edge.com%2Fdf10d%2Fimg%2Favatars%2Fava_0008-72.png",
            "first_name": "",
            "real_name": "Eduardo Garcia",
            "display_name": "Eduardo Garcia",
            "team": "TUU48M0T1",
            "name": "eduardo.garcia",
            "is_restricted": false,
            "is_ultra_restricted": false
        },
        "attachments": [
            {
                "service_name": "Diario Sanitario",
                "title": "Ciudad Real tratará con sangre de pacientes curados",
                "title_link": "https:\/\/diariosanitario.com\/plasma-hiperinmune-coronavirus\/",
                "text": "Ciudad Real se suma al ensayo clínico con plasma hiperinmune para tratar a pacientes hospitalizados en fase aguda de la enfermedad Covid-19.",
                "fallback": "Diario Sanitario: Ciudad Real tratará con sangre de pacientes curados",
                "image_url": "https:\/\/img2-b4d4.kxcdn.com\/wp-content\/uploads\/2020\/04\/mas-enfermeras-sangre.jpg?x68913",
                "image_width": 507,
                "image_height": 250,
                "ts": 1586257380,
                "from_url": "https:\/\/diariosanitario.com\/plasma-hiperinmune-coronavirus\/",
                "image_bytes": 89850,
                "service_icon": "https:\/\/diariosanitario.com\/favicon.ico",
                "id": 1,
                "original_url": "https:\/\/diariosanitario.com\/plasma-hiperinmune-coronavirus\/"
            }
        ],
        "blocks": [
            {
                "type": "rich_text",
                "block_id": "ITJ4",
                "elements": [
                    {
                        "type": "rich_text_section",
                        "elements": [
                            {
                                "type": "text",
                                "text": "ConPlas-19 Estudio Plasma Hiperinmune liderado por Hospital Puerta de Hierro, Spain\n\n----\nEl Sescam invita a los profesionales que han superado el coronavirus a donar sangre para obtener «plasma hiperinmune»\n\nEn los próximos días se iniciará la inclusión y tratamiento de pacientes y para ello se ha lanzado, en primer lugar, una invitación a todos los profesionales y trabajadores de la Gerencia Integrada de Ciudad Real que hayan superado la enfermedad para que colaboren con la posibilidad de ser donantes de plasma. Posteriormente se irá haciendo extensiva la invitación al resto de la ciudadanía.\n\nEl Centro de Transfusión irá seleccionando qué candidatos son los más idóneos para colaborar en este estudio. Los criterios para la selección de donantes de plasma son: varones, con edades comprendidas entre los 18 y los 60 años, con un peso igual o superior a los cincuenta kilos, que lleven catorce días asintomáticos tras el diagnóstico de Covid-19, con buen estado de salud y no tener antecedentes de haber recibido transfusión de sangre.\n\n"
                            },
                            {
                                "type": "link",
                                "url": "https:\/\/diariosanitario.com\/plasma-hiperinmune-coronavirus\/",
                                "text": "https:\/\/diariosanitario.com\/plasma-hiperinmune-coronavirus\/"
                            }
                        ]
                    }
                ]
            }
        ],
        "thread_ts": "1586894541.003700",
        "reply_count": 1,
        "reply_users_count": 1,
        "latest_reply": "1587755202.000100",
        "reply_users": [
            "U010BA2NL9E"
        ],
        "replies": [
            {
                "user": "U010BA2NL9E",
                "ts": "1587755202.000100"
            }
        ],
        "subscribed": false
    },
    {
        "client_msg_id": "e694a026-9c2e-4328-b2d9-247d9af7f99a",
        "type": "message",
        "text": "---\nSanidad CLM. ConPlas19\n\n<https:\/\/twitter.com\/SanidadCLM\/status\/1247600957036417025|https:\/\/twitter.com\/SanidadCLM\/status\/1247600957036417025>",
        "user": "U010BA2NL9E",
        "ts": "1586894779.004600",
        "team": "TUU48M0T1",
        "user_team": "TUU48M0T1",
        "source_team": "TUU48M0T1",
        "user_profile": {
            "avatar_hash": "g3fa100f8f14",
            "image_72": "https:\/\/secure.gravatar.com\/avatar\/3fa100f8f14fc86a0f2f58648b36d29e.jpg?s=72&d=https%3A%2F%2Fa.slack-edge.com%2Fdf10d%2Fimg%2Favatars%2Fava_0008-72.png",
            "first_name": "",
            "real_name": "Eduardo Garcia",
            "display_name": "Eduardo Garcia",
            "team": "TUU48M0T1",
            "name": "eduardo.garcia",
            "is_restricted": false,
            "is_ultra_restricted": false
        },
        "blocks": [
            {
                "type": "rich_text",
                "block_id": "JoR7",
                "elements": [
                    {
                        "type": "rich_text_section",
                        "elements": [
                            {
                                "type": "text",
                                "text": "---\nSanidad CLM. ConPlas19\n\n"
                            },
                            {
                                "type": "link",
                                "url": "https:\/\/twitter.com\/SanidadCLM\/status\/1247600957036417025",
                                "text": "https:\/\/twitter.com\/SanidadCLM\/status\/1247600957036417025"
                            }
                        ]
                    }
                ]
            }
        ]
    },
    {
        "client_msg_id": "2ae65670-65c7-4a02-bd2f-00f8ae138227",
        "type": "message",
        "text": "<https:\/\/www.cmmedia.es\/noticias\/castilla-la-mancha\/covid-19-el-hospital-de-ciudad-real-busca-donantes-de-plasma-entre-pacientes-curados-para-un-ensayo-clinico\/|https:\/\/www.cmmedia.es\/noticias\/castilla-la-mancha\/covid-19-el-hospital-de-ciudad-real-busca-donantes-de-plasma-entre-pacientes-curados-para-un-ensayo-clinico\/>",
        "user": "U010BA2NL9E",
        "ts": "1586894918.004900",
        "team": "TUU48M0T1",
        "user_team": "TUU48M0T1",
        "source_team": "TUU48M0T1",
        "user_profile": {
            "avatar_hash": "g3fa100f8f14",
            "image_72": "https:\/\/secure.gravatar.com\/avatar\/3fa100f8f14fc86a0f2f58648b36d29e.jpg?s=72&d=https%3A%2F%2Fa.slack-edge.com%2Fdf10d%2Fimg%2Favatars%2Fava_0008-72.png",
            "first_name": "",
            "real_name": "Eduardo Garcia",
            "display_name": "Eduardo Garcia",
            "team": "TUU48M0T1",
            "name": "eduardo.garcia",
            "is_restricted": false,
            "is_ultra_restricted": false
        },
        "attachments": [
            {
                "service_name": "CMMedia",
                "title": "Covid-19: El hospital de Ciudad Real busca donantes de plasma entre pacientes curados para un ensayo clínico - CMMedia",
                "title_link": "https:\/\/www.cmmedia.es\/noticias\/castilla-la-mancha\/covid-19-el-hospital-de-ciudad-real-busca-donantes-de-plasma-entre-pacientes-curados-para-un-ensayo-clinico\/",
                "text": "El Hospital de Ciudad Real busca donantes de plasma entre pacientes curados para sumarse a un ensayo clínico para un tratamiento de cura frente a Covid-19.",
                "fallback": "CMMedia: Covid-19: El hospital de Ciudad Real busca donantes de plasma entre pacientes curados para un ensayo clínico - CMMedia",
                "image_url": "https:\/\/www.cmmedia.es\/wp-content\/uploads\/2020\/04\/transfusion-e1586251181205.jpg",
                "from_url": "https:\/\/www.cmmedia.es\/noticias\/castilla-la-mancha\/covid-19-el-hospital-de-ciudad-real-busca-donantes-de-plasma-entre-pacientes-curados-para-un-ensayo-clinico\/",
                "image_width": 445,
                "image_height": 250,
                "image_bytes": 51731,
                "service_icon": "https:\/\/www.cmmedia.es\/favicon.ico",
                "id": 1,
                "original_url": "https:\/\/www.cmmedia.es\/noticias\/castilla-la-mancha\/covid-19-el-hospital-de-ciudad-real-busca-donantes-de-plasma-entre-pacientes-curados-para-un-ensayo-clinico\/"
            }
        ],
        "blocks": [
            {
                "type": "rich_text",
                "block_id": "GbVD",
                "elements": [
                    {
                        "type": "rich_text_section",
                        "elements": [
                            {
                                "type": "link",
                                "url": "https:\/\/www.cmmedia.es\/noticias\/castilla-la-mancha\/covid-19-el-hospital-de-ciudad-real-busca-donantes-de-plasma-entre-pacientes-curados-para-un-ensayo-clinico\/",
                                "text": "https:\/\/www.cmmedia.es\/noticias\/castilla-la-mancha\/covid-19-el-hospital-de-ciudad-real-busca-donantes-de-plasma-entre-pacientes-curados-para-un-ensayo-clinico\/"
                            }
                        ]
                    }
                ]
            }
        ]
    },
    {
        "client_msg_id": "70dfce3d-5c6b-402c-bdfc-dadb138c7a4e",
        "type": "message",
        "text": "Great!",
        "user": "U010Z4GHYGG",
        "ts": "1586899476.000200",
        "team": "TUU48M0T1",
        "user_team": "TUU48M0T1",
        "source_team": "TUU48M0T1",
        "user_profile": {
            "avatar_hash": "g07901c8853b",
            "image_72": "https:\/\/secure.gravatar.com\/avatar\/07901c8853bb936aaf913b30f8af6cbf.jpg?s=72&d=https%3A%2F%2Fa.slack-edge.com%2Fdf10d%2Fimg%2Favatars%2Fava_0009-72.png",
            "first_name": "",
            "real_name": "Juanpe",
            "display_name": "Juanpe",
            "team": "TUU48M0T1",
            "name": "juanperivas",
            "is_restricted": false,
            "is_ultra_restricted": false
        }
    }
]