[
    {
        "client_msg_id": "c173aa81-f279-44b8-a724-9d770c253f16",
        "type": "message",
        "text": "Great articles and news. Thanks",
        "user": "U010Z4GHYGG",
        "ts": "1587507811.000100",
        "team": "TUU48M0T1",
        "user_team": "TUU48M0T1",
        "source_team": "TUU48M0T1",
        "user_profile": {
            "avatar_hash": "g07901c8853b",
            "image_72": "https:\/\/secure.gravatar.com\/avatar\/07901c8853bb936aaf913b30f8af6cbf.jpg?s=72&d=https%3A%2F%2Fa.slack-edge.com%2Fdf10d%2Fimg%2Favatars%2Fava_0009-72.png",
            "first_name": "",
            "real_name": "Juanpe",
            "display_name": "Juanpe",
            "team": "TUU48M0T1",
            "name": "juanperivas",
            "is_restricted": false,
            "is_ultra_restricted": false
        },
        "edited": {
            "user": "U010Z4GHYGG",
            "ts": "1587507846.000000"
        },
        "thread_ts": "1587283533.000600",
        "parent_user_id": "U010BA2NL9E"
    }
]