[
    {
        "client_msg_id": "7c6cd4f9-74c6-4a84-ac38-62646b4f3819",
        "type": "message",
        "text": "<@UVC9WMA7N> Sorry for my delays! I've finally returned to working on this, and I have a few questions about the API (#1 and #2 are the only important questions right now):\n1. In order to fetch a list of people with access to biolabs from the JOGL API, should I filter down this OpenCovid19 Initiative members list (<https:\/\/jogl-backend.herokuapp.com\/api\/programs\/2\/members>) to only the people with access to a biolab resource by checking each of their user profiles (<https:\/\/jogl-backend.herokuapp.com\/api\/users\/3159>) for the string `\"Biolab\"` in their `.ressources[]` field? This requires 957 (1 + 956) calls to the JOGL API, but I've just tested this and it does work after about 10 seconds. This seems too slow. *Is there a better way, such as asking a more complex query like \"Who are the members of program 2 with Biolab in their ressources?\" to the JOGL API?*\n2. What resources should this map currently display? There seems to be only one person who listed the exact string `\"Biolab\"` in their resources (see list below for other strings), so what should our rule be for whether the person shows up on the biolab map?\n3. Is there any pagination in the JOGL API, or will all requested data always come in one response body?\n4. Do you want to rename the `.ressources[]` field to `.resources[]` to match the English spelling of the word \"resources\"?\n5. Are your API docs (<https:\/\/documenter.getpostman.com\/view\/8688524\/SWE84xMg?version=latest>) for internal developers or external users? If they're for external users, do you want to update your docs' base domain from `<http:\/\/localhost:3001>` to `<https:\/\/jogl-backend.herokuapp.com>`?\n6. Here's a list of all the unique resources I found in OpenCovid19 Initiative member data (does this look complete?):\n```[\n  \" 3D Print\",\n  \" CNC\",\n  \" Development\",\n  \" Laser Cutter\",\n  \" Matlab\",\n  \" Medical devices\",\n  \" Pattern Recognition\",\n  \" Sensors\",\n  \" hosting\",\n  \" outils\",\n  \" pc\",\n  \" software\",\n  \"3D printer\",\n  \"3D printers\",\n  \"3d printers\",\n  \"Analytical Testing\",\n  \"Atelier Métal et Bois YWC\",\n  \"AutoCAD\",\n  \"BSL 2\",\n  \"BioLab (Non-S1)\",\n  \"Bioimage analysis\",\n  \"Bioinformatics\",\n  \"Biolab\",\n  \"Brain\",\n  \"CAD\",\n  \"CNC Router\",\n  \"CPU\",\n  \"Calculation\",\n  \"Chemical Engineering\",\n  \"Chemical Formulation\",\n  \"Components\",\n  \"Composites Lab\",\n  \"Consilience\",\n  \"Creo\",\n  \"Expertise\",\n  \"Genomics\",\n  \"HMIs\",\n  \"Hardware\",\n  \"Influence\",\n  \"MMT\",\n  \"Machine shop\",\n  \"Meeting room\",\n  \"Molecular Biology devices\",\n  \"Networking\",\n  \"P&amp;ID\",\n  \"PCB\",\n  \"PLCs\",\n  \"Photo\",\n  \"Pilot scale setup\",\n  \"Product Design\",\n  \"Prototyping\",\n  \"Pymol\",\n  \"Quantum Theory\",\n  \"R\",\n  \"Research \",\n  \"Robots\",\n  \"Sewing machine\",\n  \"Shell\",\n  \"SolidWorks\",\n  \"Temps\",\n  \"University literature\",\n  \"User Markets\",\n  \"algorithms\",\n  \"altium designer\",\n  \"any means of fabrication\",\n  \"c\",\n  \"clinical experience\",\n  \"cnc\",\n  \"electronics manufacturing\",\n  \"fraisage CNC 5 axes continus\",\n  \"github\",\n  \"information systems design methods\",\n  \"institutional access to papers\",\n  \"javascript\",\n  \"laser cutter\",\n  \"linux\",\n  \"logistics\",\n  \"mechanical parts\",\n  \"mechanisms\",\n  \"mentoring\",\n  \"mobile health studies\",\n  \"non-linear analysis\",\n  \"none\",\n  \"product design\",\n  \"react native\",\n  \"sewing machine\",\n  \"software\",\n  \"soldering\",\n  \"synthetic biology\",\n  \"tournage CNC 4 axes continus \"\n]```",
        "user": "UVABQCS3G",
        "ts": "1585621920.011500",
        "team": "TUU48M0T1",
        "user_team": "TUU48M0T1",
        "source_team": "TUU48M0T1",
        "user_profile": {
            "avatar_hash": "8fc52900576a",
            "image_72": "https:\/\/avatars.slack-edge.com\/2020-03-11\/994194688704_8fc52900576a30ffbbce_72.jpg",
            "first_name": "Jan",
            "real_name": "Jan Van Bruggen",
            "display_name": "",
            "team": "TUU48M0T1",
            "name": "jancvanbruggen",
            "is_restricted": false,
            "is_ultra_restricted": false
        },
        "edited": {
            "user": "UVABQCS3G",
            "ts": "1585622205.000000"
        },
        "blocks": [
            {
                "type": "rich_text",
                "block_id": "BG7",
                "elements": [
                    {
                        "type": "rich_text_section",
                        "elements": [
                            {
                                "type": "user",
                                "user_id": "UVC9WMA7N"
                            },
                            {
                                "type": "text",
                                "text": " Sorry for my delays! I've finally returned to working on this, and I have a few questions about the API (#1 and #2 are the only important questions right now):\n"
                            }
                        ]
                    },
                    {
                        "type": "rich_text_list",
                        "elements": [
                            {
                                "type": "rich_text_section",
                                "elements": [
                                    {
                                        "type": "text",
                                        "text": "In order to fetch a list of people with access to biolabs from the JOGL API, should I filter down this OpenCovid19 Initiative members list ("
                                    },
                                    {
                                        "type": "link",
                                        "url": "https:\/\/jogl-backend.herokuapp.com\/api\/programs\/2\/members"
                                    },
                                    {
                                        "type": "text",
                                        "text": ") to only the people with access to a biolab resource by checking each of their user profiles ("
                                    },
                                    {
                                        "type": "link",
                                        "url": "https:\/\/jogl-backend.herokuapp.com\/api\/users\/3159"
                                    },
                                    {
                                        "type": "text",
                                        "text": ") for the string "
                                    },
                                    {
                                        "type": "text",
                                        "text": "\"Biolab\"",
                                        "style": {
                                            "code": true
                                        }
                                    },
                                    {
                                        "type": "text",
                                        "text": " in their "
                                    },
                                    {
                                        "type": "text",
                                        "text": ".ressources[]",
                                        "style": {
                                            "code": true
                                        }
                                    },
                                    {
                                        "type": "text",
                                        "text": " field? This requires 957 (1 + 956) calls to the JOGL API, but I've just tested this and it does work after about 10 seconds. This seems too slow. "
                                    },
                                    {
                                        "type": "text",
                                        "text": "Is there a better way, such as asking a more complex query like \"Who are the members of program 2 with Biolab in their ressources?\" to the JOGL API?",
                                        "style": {
                                            "bold": true
                                        }
                                    }
                                ]
                            },
                            {
                                "type": "rich_text_section",
                                "elements": [
                                    {
                                        "type": "text",
                                        "text": "What resources should this map currently display? There seems to be only one person who listed the exact string "
                                    },
                                    {
                                        "type": "text",
                                        "text": "\"Biolab\"",
                                        "style": {
                                            "code": true
                                        }
                                    },
                                    {
                                        "type": "text",
                                        "text": " in their resources (see list below for other strings), so what should our rule be for whether the person shows up on the biolab map?"
                                    }
                                ]
                            },
                            {
                                "type": "rich_text_section",
                                "elements": [
                                    {
                                        "type": "text",
                                        "text": "Is there any pagination in the JOGL API, or will all requested data always come in one response body?"
                                    }
                                ]
                            },
                            {
                                "type": "rich_text_section",
                                "elements": [
                                    {
                                        "type": "text",
                                        "text": "Do you want to rename the "
                                    },
                                    {
                                        "type": "text",
                                        "text": ".ressources[]",
                                        "style": {
                                            "code": true
                                        }
                                    },
                                    {
                                        "type": "text",
                                        "text": " field to "
                                    },
                                    {
                                        "type": "text",
                                        "text": ".resources[]",
                                        "style": {
                                            "code": true
                                        }
                                    },
                                    {
                                        "type": "text",
                                        "text": " to match the English spelling of the word \"resources\"?"
                                    }
                                ]
                            },
                            {
                                "type": "rich_text_section",
                                "elements": [
                                    {
                                        "type": "text",
                                        "text": "Are your API docs ("
                                    },
                                    {
                                        "type": "link",
                                        "url": "https:\/\/documenter.getpostman.com\/view\/8688524\/SWE84xMg?version=latest"
                                    },
                                    {
                                        "type": "text",
                                        "text": ") for internal developers or external users? If they're for external users, do you want to update your docs' base domain from "
                                    },
                                    {
                                        "type": "link",
                                        "url": "http:\/\/localhost:3001",
                                        "style": {
                                            "code": true
                                        }
                                    },
                                    {
                                        "type": "text",
                                        "text": " to "
                                    },
                                    {
                                        "type": "link",
                                        "url": "https:\/\/jogl-backend.herokuapp.com",
                                        "style": {
                                            "code": true
                                        }
                                    },
                                    {
                                        "type": "text",
                                        "text": "?"
                                    }
                                ]
                            },
                            {
                                "type": "rich_text_section",
                                "elements": [
                                    {
                                        "type": "text",
                                        "text": "Here's a list of all the unique resources I found in OpenCovid19 Initiative member data (does this look complete?):"
                                    }
                                ]
                            }
                        ],
                        "style": "ordered",
                        "indent": 0
                    },
                    {
                        "type": "rich_text_preformatted",
                        "elements": [
                            {
                                "type": "text",
                                "text": "[\n  \" 3D Print\",\n  \" CNC\",\n  \" Development\",\n  \" Laser Cutter\",\n  \" Matlab\",\n  \" Medical devices\",\n  \" Pattern Recognition\",\n  \" Sensors\",\n  \" hosting\",\n  \" outils\",\n  \" pc\",\n  \" software\",\n  \"3D printer\",\n  \"3D printers\",\n  \"3d printers\",\n  \"Analytical Testing\",\n  \"Atelier Métal et Bois YWC\",\n  \"AutoCAD\",\n  \"BSL 2\",\n  \"BioLab (Non-S1)\",\n  \"Bioimage analysis\",\n  \"Bioinformatics\",\n  \"Biolab\",\n  \"Brain\",\n  \"CAD\",\n  \"CNC Router\",\n  \"CPU\",\n  \"Calculation\",\n  \"Chemical Engineering\",\n  \"Chemical Formulation\",\n  \"Components\",\n  \"Composites Lab\",\n  \"Consilience\",\n  \"Creo\",\n  \"Expertise\",\n  \"Genomics\",\n  \"HMIs\",\n  \"Hardware\",\n  \"Influence\",\n  \"MMT\",\n  \"Machine shop\",\n  \"Meeting room\",\n  \"Molecular Biology devices\",\n  \"Networking\",\n  \"P&ID\",\n  \"PCB\",\n  \"PLCs\",\n  \"Photo\",\n  \"Pilot scale setup\",\n  \"Product Design\",\n  \"Prototyping\",\n  \"Pymol\",\n  \"Quantum Theory\",\n  \"R\",\n  \"Research \",\n  \"Robots\",\n  \"Sewing machine\",\n  \"Shell\",\n  \"SolidWorks\",\n  \"Temps\",\n  \"University literature\",\n  \"User Markets\",\n  \"algorithms\",\n  \"altium designer\",\n  \"any means of fabrication\",\n  \"c\",\n  \"clinical experience\",\n  \"cnc\",\n  \"electronics manufacturing\",\n  \"fraisage CNC 5 axes continus\",\n  \"github\",\n  \"information systems design methods\",\n  \"institutional access to papers\",\n  \"javascript\",\n  \"laser cutter\",\n  \"linux\",\n  \"logistics\",\n  \"mechanical parts\",\n  \"mechanisms\",\n  \"mentoring\",\n  \"mobile health studies\",\n  \"non-linear analysis\",\n  \"none\",\n  \"product design\",\n  \"react native\",\n  \"sewing machine\",\n  \"software\",\n  \"soldering\",\n  \"synthetic biology\",\n  \"tournage CNC 4 axes continus \"\n]"
                            }
                        ]
                    }
                ]
            }
        ],
        "thread_ts": "1585621920.011500",
        "reply_count": 2,
        "reply_users_count": 2,
        "latest_reply": "1585633765.014900",
        "reply_users": [
            "U0101DKUALV",
            "UVABQCS3G"
        ],
        "replies": [
            {
                "user": "U0101DKUALV",
                "ts": "1585624177.014700"
            },
            {
                "user": "UVABQCS3G",
                "ts": "1585633765.014900"
            }
        ],
        "subscribed": false
    },
    {
        "client_msg_id": "dadd3418-3a71-4459-a8c5-347701ce0b94",
        "type": "message",
        "text": "Does anyone in this channel have an opinion on #2?",
        "user": "UVABQCS3G",
        "ts": "1585622277.012500",
        "team": "TUU48M0T1",
        "user_team": "TUU48M0T1",
        "source_team": "TUU48M0T1",
        "user_profile": {
            "avatar_hash": "8fc52900576a",
            "image_72": "https:\/\/avatars.slack-edge.com\/2020-03-11\/994194688704_8fc52900576a30ffbbce_72.jpg",
            "first_name": "Jan",
            "real_name": "Jan Van Bruggen",
            "display_name": "",
            "team": "TUU48M0T1",
            "name": "jancvanbruggen",
            "is_restricted": false,
            "is_ultra_restricted": false
        },
        "blocks": [
            {
                "type": "rich_text",
                "block_id": "DzxLS",
                "elements": [
                    {
                        "type": "rich_text_section",
                        "elements": [
                            {
                                "type": "text",
                                "text": "Does anyone in this channel have an opinion on #2?"
                            }
                        ]
                    }
                ]
            }
        ]
    },
    {
        "client_msg_id": "792a477b-a788-46d5-8498-6adffb05eddd",
        "type": "message",
        "text": "(btw, for any non-tech people in here, a \"string\" is an exact sequence of text characters: `\"Biolab\"` is a different string than `\"biolab\"` or `\"Bio lab\"` or `\" Biolab \"` or `\"BioLab (Non-S1)\"` )",
        "user": "UVABQCS3G",
        "ts": "1585622446.014400",
        "team": "TUU48M0T1",
        "user_team": "TUU48M0T1",
        "source_team": "TUU48M0T1",
        "user_profile": {
            "avatar_hash": "8fc52900576a",
            "image_72": "https:\/\/avatars.slack-edge.com\/2020-03-11\/994194688704_8fc52900576a30ffbbce_72.jpg",
            "first_name": "Jan",
            "real_name": "Jan Van Bruggen",
            "display_name": "",
            "team": "TUU48M0T1",
            "name": "jancvanbruggen",
            "is_restricted": false,
            "is_ultra_restricted": false
        },
        "blocks": [
            {
                "type": "rich_text",
                "block_id": "twj10",
                "elements": [
                    {
                        "type": "rich_text_section",
                        "elements": [
                            {
                                "type": "text",
                                "text": "(btw, for any non-tech people in here, a \"string\" is an exact sequence of text characters: "
                            },
                            {
                                "type": "text",
                                "text": "\"Biolab\"",
                                "style": {
                                    "code": true
                                }
                            },
                            {
                                "type": "text",
                                "text": " is a different string than "
                            },
                            {
                                "type": "text",
                                "text": "\"biolab\"",
                                "style": {
                                    "code": true
                                }
                            },
                            {
                                "type": "text",
                                "text": " or "
                            },
                            {
                                "type": "text",
                                "text": "\"Bio lab\"",
                                "style": {
                                    "code": true
                                }
                            },
                            {
                                "type": "text",
                                "text": " or "
                            },
                            {
                                "type": "text",
                                "text": "\" Biolab \"",
                                "style": {
                                    "code": true
                                }
                            },
                            {
                                "type": "text",
                                "text": " or "
                            },
                            {
                                "type": "text",
                                "text": "\"BioLab (Non-S1)\"",
                                "style": {
                                    "code": true
                                }
                            },
                            {
                                "type": "text",
                                "text": " )"
                            }
                        ]
                    }
                ]
            }
        ]
    },
    {
        "client_msg_id": "53856d26-74c0-43bf-97ab-e08131944ec8",
        "type": "message",
        "text": "Hello, Jan! Thanks for the update. For #2, I wonder if there's a way to store some object or collection of bio lab related words. Or maybe a fuzzy match?",
        "user": "U0101DKUALV",
        "ts": "1585624177.014700",
        "team": "TUU48M0T1",
        "user_team": "TUU48M0T1",
        "source_team": "TUU48M0T1",
        "user_profile": {
            "avatar_hash": "b0aee06ed3e5",
            "image_72": "https:\/\/avatars.slack-edge.com\/2020-04-22\/1072886325190_b0aee06ed3e501ebdf56_72.png",
            "first_name": "",
            "real_name": "Pauline Chane",
            "display_name": "Pauline Chane",
            "team": "TUU48M0T1",
            "name": "pauline.chane",
            "is_restricted": false,
            "is_ultra_restricted": false
        },
        "blocks": [
            {
                "type": "rich_text",
                "block_id": "M\/D2J",
                "elements": [
                    {
                        "type": "rich_text_section",
                        "elements": [
                            {
                                "type": "text",
                                "text": "Hello, Jan! Thanks for the update. For #2, I wonder if there's a way to store some object or collection of bio lab related words. Or maybe a fuzzy match?"
                            }
                        ]
                    }
                ]
            }
        ],
        "thread_ts": "1585621920.011500",
        "parent_user_id": "UVABQCS3G"
    },
    {
        "client_msg_id": "a6421926-7f30-4174-84c0-16f154657233",
        "type": "message",
        "text": "Both are options!",
        "user": "UVABQCS3G",
        "ts": "1585633765.014900",
        "team": "TUU48M0T1",
        "user_team": "TUU48M0T1",
        "source_team": "TUU48M0T1",
        "user_profile": {
            "avatar_hash": "8fc52900576a",
            "image_72": "https:\/\/avatars.slack-edge.com\/2020-03-11\/994194688704_8fc52900576a30ffbbce_72.jpg",
            "first_name": "Jan",
            "real_name": "Jan Van Bruggen",
            "display_name": "",
            "team": "TUU48M0T1",
            "name": "jancvanbruggen",
            "is_restricted": false,
            "is_ultra_restricted": false
        },
        "blocks": [
            {
                "type": "rich_text",
                "block_id": "dkrI",
                "elements": [
                    {
                        "type": "rich_text_section",
                        "elements": [
                            {
                                "type": "text",
                                "text": "Both are options!"
                            }
                        ]
                    }
                ]
            }
        ],
        "thread_ts": "1585621920.011500",
        "parent_user_id": "UVABQCS3G"
    }
]