[
    {
        "client_msg_id": "9FE7BA11-FCC0-4EEA-BF3A-843D9E4E1D8C",
        "type": "message",
        "text": "Great!",
        "user": "UV02WET96",
        "ts": "1588147876.319300",
        "team": "TUU48M0T1",
        "user_team": "TUU48M0T1",
        "source_team": "TUU48M0T1",
        "user_profile": {
            "avatar_hash": "a99c74a194f8",
            "image_72": "https:\/\/avatars.slack-edge.com\/2020-03-07\/975708504851_a99c74a194f86715ca7d_72.png",
            "first_name": "Thomas",
            "real_name": "Thomas Landrain",
            "display_name": "Thomas Landrain - JOGL CoFounder \/ CEO",
            "team": "TUU48M0T1",
            "name": "thomas",
            "is_restricted": false,
            "is_ultra_restricted": false
        },
        "blocks": [
            {
                "type": "rich_text",
                "block_id": "DY99",
                "elements": [
                    {
                        "type": "rich_text_section",
                        "elements": [
                            {
                                "type": "text",
                                "text": "Great!"
                            }
                        ]
                    }
                ]
            }
        ]
    },
    {
        "client_msg_id": "d95bd5b5-b6de-4cfe-9831-fc9796f76eab",
        "type": "message",
        "text": "<@U0119U5N3T3> <@U0126EXGWQY> I should mail you smoothieboards, please email me your shipping adresses at <mailto:wolf.arthur@gmail.com|wolf.arthur@gmail.com>",
        "user": "U01188XCK19",
        "ts": "1588185183.320000",
        "team": "TUU48M0T1",
        "user_team": "TUU48M0T1",
        "source_team": "TUU48M0T1",
        "user_profile": {
            "avatar_hash": "gd85edfb45fa",
            "image_72": "https:\/\/secure.gravatar.com\/avatar\/d85edfb45fa87b47ea33da26228d07dd.jpg?s=72&d=https%3A%2F%2Fa.slack-edge.com%2Fdf10d%2Fimg%2Favatars%2Fava_0011-72.png",
            "first_name": "",
            "real_name": "wolf arthur",
            "display_name": "wolf arthur",
            "team": "TUU48M0T1",
            "name": "wolf.arthur",
            "is_restricted": false,
            "is_ultra_restricted": false
        },
        "blocks": [
            {
                "type": "rich_text",
                "block_id": "Cg6",
                "elements": [
                    {
                        "type": "rich_text_section",
                        "elements": [
                            {
                                "type": "user",
                                "user_id": "U0119U5N3T3"
                            },
                            {
                                "type": "text",
                                "text": " "
                            },
                            {
                                "type": "user",
                                "user_id": "U0126EXGWQY"
                            },
                            {
                                "type": "text",
                                "text": " I should mail you smoothieboards, please email me your shipping adresses at "
                            },
                            {
                                "type": "link",
                                "url": "mailto:wolf.arthur@gmail.com",
                                "text": "wolf.arthur@gmail.com"
                            }
                        ]
                    }
                ]
            }
        ]
    },
    {
        "client_msg_id": "33F608FD-B0F2-4B42-BCD6-EC9F101C5EBB",
        "type": "message",
        "text": "Hey guys, call today or tomorrow? Could you share some updates on what’s needed for the next step? ",
        "user": "UV02WET96",
        "ts": "1588186966.322000",
        "team": "TUU48M0T1",
        "user_team": "TUU48M0T1",
        "source_team": "TUU48M0T1",
        "user_profile": {
            "avatar_hash": "a99c74a194f8",
            "image_72": "https:\/\/avatars.slack-edge.com\/2020-03-07\/975708504851_a99c74a194f86715ca7d_72.png",
            "first_name": "Thomas",
            "real_name": "Thomas Landrain",
            "display_name": "Thomas Landrain - JOGL CoFounder \/ CEO",
            "team": "TUU48M0T1",
            "name": "thomas",
            "is_restricted": false,
            "is_ultra_restricted": false
        },
        "blocks": [
            {
                "type": "rich_text",
                "block_id": "bz=",
                "elements": [
                    {
                        "type": "rich_text_section",
                        "elements": [
                            {
                                "type": "text",
                                "text": "Hey guys, call today or tomorrow? Could you share some updates on what’s needed for the next step? "
                            }
                        ]
                    }
                ]
            }
        ]
    },
    {
        "client_msg_id": "9909A503-1B70-4F18-8151-D6BC921656AE",
        "type": "message",
        "text": "I’m afraid it will be tomorrow ! ",
        "user": "U010U9EHR7T",
        "ts": "1588188083.322900",
        "team": "TUU48M0T1",
        "user_team": "TUU48M0T1",
        "source_team": "TUU48M0T1",
        "user_profile": {
            "avatar_hash": "g36ea42e25d9",
            "image_72": "https:\/\/secure.gravatar.com\/avatar\/ad392afd49098e1505b10c168f27050d.jpg?s=72&d=https%3A%2F%2Fa.slack-edge.com%2Fdf10d%2Fimg%2Favatars%2Fava_0004-72.png",
            "first_name": "Jean-Loup",
            "real_name": "Jean-Loup DUBREUCQ",
            "display_name": "jldubreucq",
            "team": "TUU48M0T1",
            "name": "jlmd.jogl",
            "is_restricted": false,
            "is_ultra_restricted": false
        },
        "blocks": [
            {
                "type": "rich_text",
                "block_id": "y2nnH",
                "elements": [
                    {
                        "type": "rich_text_section",
                        "elements": [
                            {
                                "type": "text",
                                "text": "I’m afraid it will be tomorrow ! "
                            }
                        ]
                    }
                ]
            }
        ]
    },
    {
        "client_msg_id": "86669DC9-4148-429A-B892-38507AFFF7F5",
        "type": "message",
        "text": "Tomorrow",
        "user": "U0119U5N3T3",
        "ts": "1588190151.323100",
        "team": "TUU48M0T1",
        "user_team": "TUU48M0T1",
        "source_team": "TUU48M0T1",
        "user_profile": {
            "avatar_hash": "b3b38b63650e",
            "image_72": "https:\/\/avatars.slack-edge.com\/2020-04-04\/1047354985190_b3b38b63650e809885b3_72.jpg",
            "first_name": "",
            "real_name": "Sina Booeshaghi",
            "display_name": "Sina Booeshaghi",
            "team": "TUU48M0T1",
            "name": "abooesha",
            "is_restricted": false,
            "is_ultra_restricted": false
        }
    }
]