[
    {
        "client_msg_id": "6FFB6543-159C-4089-8C51-BC9A876EAC67",
        "type": "message",
        "text": "Hey team, regarding the board, there is a fondamental question to be answered. Do we choose to go with the Smoothieboard (we have Arthur with us which is amazing) or go with a custom board? I’m not qualified to answer this question but we should answer it as a group ASAP because we can’t really ask Arthur to work with us if we don’t use the smoothieboard. \nWhat would be an enlightened choice? \n\nPlease answer in the thread :pray:",
        "user": "UV02WET96",
        "ts": "1588409598.343700",
        "team": "TUU48M0T1",
        "user_team": "TUU48M0T1",
        "source_team": "TUU48M0T1",
        "user_profile": {
            "avatar_hash": "a99c74a194f8",
            "image_72": "https:\/\/avatars.slack-edge.com\/2020-03-07\/975708504851_a99c74a194f86715ca7d_72.png",
            "first_name": "Thomas",
            "real_name": "Thomas Landrain",
            "display_name": "Thomas Landrain - JOGL CoFounder \/ CEO",
            "team": "TUU48M0T1",
            "name": "thomas",
            "is_restricted": false,
            "is_ultra_restricted": false
        },
        "blocks": [
            {
                "type": "rich_text",
                "block_id": "dRZ",
                "elements": [
                    {
                        "type": "rich_text_section",
                        "elements": [
                            {
                                "type": "text",
                                "text": "Hey team, regarding the board, there is a fondamental question to be answered. Do we choose to go with the Smoothieboard (we have Arthur with us which is amazing) or go with a custom board? I’m not qualified to answer this question but we should answer it as a group ASAP because we can’t really ask Arthur to work with us if we don’t use the smoothieboard. \n"
                            },
                            {
                                "type": "text",
                                "text": "What would be an enlightened choice? \n"
                            },
                            {
                                "type": "text",
                                "text": "\n"
                            },
                            {
                                "type": "text",
                                "text": "Please answer in the thread "
                            },
                            {
                                "type": "emoji",
                                "name": "pray"
                            }
                        ]
                    }
                ]
            }
        ],
        "thread_ts": "1588409598.343700",
        "reply_count": 7,
        "reply_users_count": 4,
        "latest_reply": "1588708109.351700",
        "reply_users": [
            "UV02WET96",
            "U010B4EJG2C",
            "UVC9WMA7N",
            "U011R2UV0VA"
        ],
        "replies": [
            {
                "user": "UV02WET96",
                "ts": "1588410179.347300"
            },
            {
                "user": "U010B4EJG2C",
                "ts": "1588411351.347700"
            },
            {
                "user": "UVC9WMA7N",
                "ts": "1588448034.347900"
            },
            {
                "user": "U010B4EJG2C",
                "ts": "1588488355.348100"
            },
            {
                "user": "U011R2UV0VA",
                "ts": "1588579348.348800"
            },
            {
                "user": "U010B4EJG2C",
                "ts": "1588584731.349100"
            },
            {
                "user": "UVC9WMA7N",
                "ts": "1588708109.351700"
            }
        ],
        "subscribed": false
    },
    {
        "client_msg_id": "C2CE020E-4A34-4CF3-8BA2-5F0C724D7C58",
        "type": "message",
        "text": "My understandings that we want a board which is easy to obtain, which is open and modular for future adaptations and evolutions of the Poseidon. In my ears, it sounds like the smoothieboard is a legitimate choice here. But again, I’m not qualified and I’m not actually contributing on the design of the device. So it’s up to you guys! :) ",
        "user": "UV02WET96",
        "ts": "1588410179.347300",
        "team": "TUU48M0T1",
        "user_team": "TUU48M0T1",
        "source_team": "TUU48M0T1",
        "user_profile": {
            "avatar_hash": "a99c74a194f8",
            "image_72": "https:\/\/avatars.slack-edge.com\/2020-03-07\/975708504851_a99c74a194f86715ca7d_72.png",
            "first_name": "Thomas",
            "real_name": "Thomas Landrain",
            "display_name": "Thomas Landrain - JOGL CoFounder \/ CEO",
            "team": "TUU48M0T1",
            "name": "thomas",
            "is_restricted": false,
            "is_ultra_restricted": false
        },
        "blocks": [
            {
                "type": "rich_text",
                "block_id": "0DC",
                "elements": [
                    {
                        "type": "rich_text_section",
                        "elements": [
                            {
                                "type": "text",
                                "text": "My understandings that we want a board which is easy to obtain, which is open and modular for future adaptations and evolutions of the Poseidon. In my ears, it sounds like the smoothieboard is a legitimate choice here. But again, I’m not qualified and I’m not actually contributing on the design of the device. So it’s up to you guys! :) "
                            }
                        ]
                    }
                ]
            }
        ],
        "thread_ts": "1588409598.343700",
        "parent_user_id": "UV02WET96"
    },
    {
        "client_msg_id": "3cdb31d6-3901-43b4-9326-ff4a1411469f",
        "type": "message",
        "text": "it's packed\/stamped, I just haven't passed near a post office box yet. will go out soon",
        "user": "U01188XCK19",
        "ts": "1588410438.347500",
        "team": "TUU48M0T1",
        "user_team": "TUU48M0T1",
        "source_team": "TUU48M0T1",
        "user_profile": {
            "avatar_hash": "gd85edfb45fa",
            "image_72": "https:\/\/secure.gravatar.com\/avatar\/d85edfb45fa87b47ea33da26228d07dd.jpg?s=72&d=https%3A%2F%2Fa.slack-edge.com%2Fdf10d%2Fimg%2Favatars%2Fava_0011-72.png",
            "first_name": "",
            "real_name": "wolf arthur",
            "display_name": "wolf arthur",
            "team": "TUU48M0T1",
            "name": "wolf.arthur",
            "is_restricted": false,
            "is_ultra_restricted": false
        },
        "blocks": [
            {
                "type": "rich_text",
                "block_id": "QMH",
                "elements": [
                    {
                        "type": "rich_text_section",
                        "elements": [
                            {
                                "type": "text",
                                "text": "it's packed\/stamped, I just haven't passed near a post office box yet. will go out soon"
                            }
                        ]
                    }
                ]
            }
        ],
        "thread_ts": "1588362114.337600",
        "parent_user_id": "U01188XCK19"
    },
    {
        "client_msg_id": "e1d03746-9042-4501-9f50-d6af9833df1b",
        "type": "message",
        "text": "I think the two options can co-exist. The smoothieboard is ready and most of it's software too, so there's not much work to be done, according to Arthur. The smoothieboard is the best option for\n• fast deployment\n• multiple syringe - one board solution\nWe have started the custom board design to be optional. I don't see any reason why we need to make a choice of only one board.\nA modular design means you can replace the modules. Let's consider the board a module.",
        "user": "U010B4EJG2C",
        "ts": "1588411351.347700",
        "team": "TUU48M0T1",
        "user_team": "TUU48M0T1",
        "source_team": "TUU48M0T1",
        "user_profile": {
            "avatar_hash": "5c9626d7b328",
            "image_72": "https:\/\/avatars.slack-edge.com\/2020-03-19\/1011171782821_5c9626d7b328e5dc84ea_72.jpg",
            "first_name": "Adam",
            "real_name": "Adam Krovina",
            "display_name": "Adam Krovina",
            "team": "TUU48M0T1",
            "name": "adam",
            "is_restricted": false,
            "is_ultra_restricted": false
        },
        "blocks": [
            {
                "type": "rich_text",
                "block_id": "lERb",
                "elements": [
                    {
                        "type": "rich_text_section",
                        "elements": [
                            {
                                "type": "text",
                                "text": "I think the two options can co-exist. The smoothieboard is ready and most of it's software too, so there's not much work to be done, according to Arthur. The smoothieboard is the best option for\n"
                            }
                        ]
                    },
                    {
                        "type": "rich_text_list",
                        "elements": [
                            {
                                "type": "rich_text_section",
                                "elements": [
                                    {
                                        "type": "text",
                                        "text": "fast deployment"
                                    }
                                ]
                            },
                            {
                                "type": "rich_text_section",
                                "elements": [
                                    {
                                        "type": "text",
                                        "text": "multiple syringe - one board solution"
                                    }
                                ]
                            }
                        ],
                        "style": "bullet",
                        "indent": 0
                    },
                    {
                        "type": "rich_text_section",
                        "elements": [
                            {
                                "type": "text",
                                "text": "We have started the custom board design to be optional. I don't see any reason why we need to make a choice of only one board.\nA modular design means you can replace the modules. Let's consider the board a module."
                            }
                        ]
                    }
                ]
            }
        ],
        "thread_ts": "1588409598.343700",
        "parent_user_id": "UV02WET96"
    },
    {
        "client_msg_id": "40b0f537-f8bd-4bee-b3b4-a300ae9b132c",
        "type": "message",
        "text": "Smoothie board allows for much faster development and correction of firmware is easily sourced bought and it's cheap \n\nAs much as I don't have too much proof of work or stake here it would be a cocky mistake IMO to go with a custom board. It's just a show of Craftsman ship but the world is moving towards programable microcontrollers for a reason. You don't need to know electronics to actually do devices with it. \n\nSo my two cents is if you want this design to be built and reused accross the globe you will go smoothie. Because if it's smoothie, it means that it's gonna be compatible with so many other similar boards and so it'll be trivial to remix and make anywhere",
        "user": "UVC9WMA7N",
        "ts": "1588448034.347900",
        "team": "TUU48M0T1",
        "user_team": "TUU48M0T1",
        "source_team": "TUU48M0T1",
        "user_profile": {
            "avatar_hash": "56d14d58ed53",
            "image_72": "https:\/\/avatars.slack-edge.com\/2020-03-13\/998337892660_56d14d58ed537e6e4654_72.png",
            "first_name": "Leo",
            "real_name": "Leo Blondel",
            "display_name": "Leo Blondel - JOGL CoFounder \/ CTO",
            "team": "TUU48M0T1",
            "name": "leo",
            "is_restricted": false,
            "is_ultra_restricted": false
        },
        "blocks": [
            {
                "type": "rich_text",
                "block_id": "RPBEp",
                "elements": [
                    {
                        "type": "rich_text_section",
                        "elements": [
                            {
                                "type": "text",
                                "text": "Smoothie board allows for much faster development and correction of firmware is easily sourced bought and it's cheap \n\nAs much as I don't have too much proof of work or stake here it would be a cocky mistake IMO to go with a custom board. It's just a show of Craftsman ship but the world is moving towards programable microcontrollers for a reason. You don't need to know electronics to actually do devices with it. \n\nSo my two cents is if you want this design to be built and reused accross the globe you will go smoothie. Because if it's smoothie, it means that it's gonna be compatible with so many other similar boards and so it'll be trivial to remix and make anywhere"
                            }
                        ]
                    }
                ]
            }
        ],
        "thread_ts": "1588409598.343700",
        "parent_user_id": "UV02WET96"
    },
    {
        "client_msg_id": "b63685bc-1bba-4eee-a2e9-dbed23f32a76",
        "type": "message",
        "text": "Leo, ineed the new board relies on a microcontroller too.\nIn the question of price -&gt; if you want to make a standalone syringe pump for 1 syringe, the new board will be cheaper. It is smaller, simpler, has only what we need and exactly what we need.\nThe new board includes an LCD, buttons and battery chager. It has only 1 motor driver.\nAnd again - I believe in 2 parallel ways. If 2 options exist, some people will choose one, some the other. I think it is not that clear, what the ratio would be in the future.",
        "user": "U010B4EJG2C",
        "ts": "1588488355.348100",
        "team": "TUU48M0T1",
        "user_team": "TUU48M0T1",
        "source_team": "TUU48M0T1",
        "user_profile": {
            "avatar_hash": "5c9626d7b328",
            "image_72": "https:\/\/avatars.slack-edge.com\/2020-03-19\/1011171782821_5c9626d7b328e5dc84ea_72.jpg",
            "first_name": "Adam",
            "real_name": "Adam Krovina",
            "display_name": "Adam Krovina",
            "team": "TUU48M0T1",
            "name": "adam",
            "is_restricted": false,
            "is_ultra_restricted": false
        },
        "edited": {
            "user": "U010B4EJG2C",
            "ts": "1588488511.000000"
        },
        "blocks": [
            {
                "type": "rich_text",
                "block_id": "OHjj",
                "elements": [
                    {
                        "type": "rich_text_section",
                        "elements": [
                            {
                                "type": "text",
                                "text": "Leo, ineed the new board relies on a microcontroller too.\nIn the question of price -> if you want to make a standalone syringe pump for 1 syringe, the new board will be cheaper. It is smaller, simpler, has only what we need and exactly what we need.\nThe new board includes an LCD, buttons and battery chager. It has only 1 motor driver.\nAnd again - I believe in 2 parallel ways. If 2 options exist, some people will choose one, some the other. I think it is not that clear, what the ratio would be in the future."
                            }
                        ]
                    }
                ]
            }
        ],
        "thread_ts": "1588409598.343700",
        "parent_user_id": "UV02WET96"
    }
]