[
    {
        "client_msg_id": "8cb392e1-86ee-4078-80ac-4a84f4f17407",
        "type": "message",
        "text": "<!channel> please anyone who is planning on building a prototype syringe pusher in the immediate future ( ie as soon as sina and gauthier have parts they can share and they want you to test ), email me your adress at <mailto:wolf.arthur@gmail.com|wolf.arthur@gmail.com> so I can send you free smoothieboards to test it with. firmware is close to where we can actually use it for syringe pushing right now, so it's time to send boards out",
        "user": "U01188XCK19",
        "ts": "1587995568.303900",
        "team": "TUU48M0T1",
        "user_team": "TUU48M0T1",
        "source_team": "TUU48M0T1",
        "user_profile": {
            "avatar_hash": "gd85edfb45fa",
            "image_72": "https:\/\/secure.gravatar.com\/avatar\/d85edfb45fa87b47ea33da26228d07dd.jpg?s=72&d=https%3A%2F%2Fa.slack-edge.com%2Fdf10d%2Fimg%2Favatars%2Fava_0011-72.png",
            "first_name": "",
            "real_name": "wolf arthur",
            "display_name": "wolf arthur",
            "team": "TUU48M0T1",
            "name": "wolf.arthur",
            "is_restricted": false,
            "is_ultra_restricted": false
        },
        "blocks": [
            {
                "type": "rich_text",
                "block_id": "d7Co",
                "elements": [
                    {
                        "type": "rich_text_section",
                        "elements": [
                            {
                                "type": "broadcast",
                                "range": "channel"
                            },
                            {
                                "type": "text",
                                "text": " please anyone who is planning on building a prototype syringe pusher in the immediate future ( ie as soon as sina and gauthier have parts they can share and they want you to test ), email me your adress at "
                            },
                            {
                                "type": "link",
                                "url": "mailto:wolf.arthur@gmail.com",
                                "text": "wolf.arthur@gmail.com"
                            },
                            {
                                "type": "text",
                                "text": " so I can send you free smoothieboards to test it with. firmware is close to where we can actually use it for syringe pushing right now, so it's time to send boards out"
                            }
                        ]
                    }
                ]
            }
        ],
        "thread_ts": "1587995568.303900",
        "reply_count": 2,
        "reply_users_count": 2,
        "latest_reply": "1588068196.306600",
        "reply_users": [
            "UVC9WMA7N",
            "U01188XCK19"
        ],
        "replies": [
            {
                "user": "UVC9WMA7N",
                "ts": "1588068132.306400"
            },
            {
                "user": "U01188XCK19",
                "ts": "1588068196.306600"
            }
        ],
        "subscribed": false,
        "reactions": [
            {
                "name": "+1",
                "users": [
                    "UV02WET96",
                    "U010B4EJG2C",
                    "U0119U5N3T3",
                    "U0106NJNM17",
                    "U010F2PUXRS"
                ],
                "count": 5
            }
        ]
    },
    {
        "client_msg_id": "88f12181-7ecf-4876-8768-6559c2a7d446",
        "type": "message",
        "text": "<!channel> should we plan our next meeting tomorrow?",
        "user": "UV02WET96",
        "ts": "1588012060.305100",
        "team": "TUU48M0T1",
        "user_team": "TUU48M0T1",
        "source_team": "TUU48M0T1",
        "user_profile": {
            "avatar_hash": "a99c74a194f8",
            "image_72": "https:\/\/avatars.slack-edge.com\/2020-03-07\/975708504851_a99c74a194f86715ca7d_72.png",
            "first_name": "Thomas",
            "real_name": "Thomas Landrain",
            "display_name": "Thomas Landrain - JOGL CoFounder \/ CEO",
            "team": "TUU48M0T1",
            "name": "thomas",
            "is_restricted": false,
            "is_ultra_restricted": false
        },
        "blocks": [
            {
                "type": "rich_text",
                "block_id": "0GI",
                "elements": [
                    {
                        "type": "rich_text_section",
                        "elements": [
                            {
                                "type": "broadcast",
                                "range": "channel"
                            },
                            {
                                "type": "text",
                                "text": " should we plan our next meeting tomorrow?"
                            }
                        ]
                    }
                ]
            }
        ]
    },
    {
        "client_msg_id": "304fbe85-8d6a-42c1-bb9a-ba606ebc59a2",
        "type": "message",
        "text": "OK",
        "user": "U011R2UV0VA",
        "ts": "1588014223.305700",
        "team": "TUU48M0T1",
        "user_team": "TUU48M0T1",
        "source_team": "TUU48M0T1",
        "user_profile": {
            "avatar_hash": "g99085ac5441",
            "image_72": "https:\/\/secure.gravatar.com\/avatar\/99085ac5441e5d82378e596693e3d9e6.jpg?s=72&d=https%3A%2F%2Fa.slack-edge.com%2Fdf10d%2Fimg%2Favatars%2Fava_0011-72.png",
            "first_name": "",
            "real_name": "Christian Chabrerie",
            "display_name": "Christian Chabrerie",
            "team": "TUU48M0T1",
            "name": "christian.chabrerie",
            "is_restricted": false,
            "is_ultra_restricted": false
        },
        "blocks": [
            {
                "type": "rich_text",
                "block_id": "9Zqh",
                "elements": [
                    {
                        "type": "rich_text_section",
                        "elements": [
                            {
                                "type": "text",
                                "text": "OK"
                            }
                        ]
                    }
                ]
            }
        ]
    },
    {
        "client_msg_id": "C15F17E4-3398-4603-8191-769BD635D68F",
        "type": "message",
        "text": "OK !",
        "user": "U010U9EHR7T",
        "ts": "1588014418.306000",
        "team": "TUU48M0T1",
        "user_team": "TUU48M0T1",
        "source_team": "TUU48M0T1",
        "user_profile": {
            "avatar_hash": "g36ea42e25d9",
            "image_72": "https:\/\/secure.gravatar.com\/avatar\/ad392afd49098e1505b10c168f27050d.jpg?s=72&d=https%3A%2F%2Fa.slack-edge.com%2Fdf10d%2Fimg%2Favatars%2Fava_0004-72.png",
            "first_name": "Jean-Loup",
            "real_name": "Jean-Loup DUBREUCQ",
            "display_name": "jldubreucq",
            "team": "TUU48M0T1",
            "name": "jlmd.jogl",
            "is_restricted": false,
            "is_ultra_restricted": false
        },
        "blocks": [
            {
                "type": "rich_text",
                "block_id": "e+xe",
                "elements": [
                    {
                        "type": "rich_text_section",
                        "elements": [
                            {
                                "type": "text",
                                "text": "OK !"
                            }
                        ]
                    }
                ]
            }
        ]
    }
]