[
    {
        "client_msg_id": "C41BA3AF-C701-43C2-A831-CB715B7787F0",
        "type": "message",
        "text": "Is that you Izzy?",
        "user": "UV02WET96",
        "ts": "1588233879.036300",
        "team": "TUU48M0T1",
        "user_team": "TUU48M0T1",
        "source_team": "TUU48M0T1",
        "user_profile": {
            "avatar_hash": "a99c74a194f8",
            "image_72": "https:\/\/avatars.slack-edge.com\/2020-03-07\/975708504851_a99c74a194f86715ca7d_72.png",
            "first_name": "Thomas",
            "real_name": "Thomas Landrain",
            "display_name": "Thomas Landrain - JOGL CoFounder \/ CEO",
            "team": "TUU48M0T1",
            "name": "thomas",
            "is_restricted": false,
            "is_ultra_restricted": false
        },
        "blocks": [
            {
                "type": "rich_text",
                "block_id": "=vIx",
                "elements": [
                    {
                        "type": "rich_text_section",
                        "elements": [
                            {
                                "type": "text",
                                "text": "Is that you Izzy?"
                            }
                        ]
                    }
                ]
            }
        ],
        "thread_ts": "1588208477.033600",
        "parent_user_id": "U010W2Z4MMZ"
    },
    {
        "client_msg_id": "97e4e82f-5536-4b37-875b-1b01dda2b5cf",
        "type": "message",
        "text": "Yes it is! From many years ago <@UV02WET96>",
        "user": "U010W2Z4MMZ",
        "ts": "1588256276.037300",
        "team": "TUU48M0T1",
        "user_team": "TUU48M0T1",
        "source_team": "TUU48M0T1",
        "user_profile": {
            "avatar_hash": "f45399db1932",
            "image_72": "https:\/\/avatars.slack-edge.com\/2020-04-01\/1030367017170_f45399db193262631758_72.png",
            "first_name": "Isabella",
            "real_name": "Isabella Zorra",
            "display_name": "Izzi",
            "team": "TUU48M0T1",
            "name": "miss.zorra",
            "is_restricted": false,
            "is_ultra_restricted": false
        },
        "edited": {
            "user": "U010W2Z4MMZ",
            "ts": "1588274342.000000"
        },
        "blocks": [
            {
                "type": "rich_text",
                "block_id": "siIb",
                "elements": [
                    {
                        "type": "rich_text_section",
                        "elements": [
                            {
                                "type": "text",
                                "text": "Yes it is! From many years ago "
                            },
                            {
                                "type": "user",
                                "user_id": "UV02WET96"
                            }
                        ]
                    }
                ]
            }
        ],
        "thread_ts": "1588208477.033600",
        "parent_user_id": "U010W2Z4MMZ"
    },
    {
        "client_msg_id": "62AB11C7-A404-4F16-A83C-466AF199D648",
        "type": "message",
        "text": "Wow!",
        "user": "UV02WET96",
        "ts": "1588262655.037700",
        "team": "TUU48M0T1",
        "user_team": "TUU48M0T1",
        "source_team": "TUU48M0T1",
        "user_profile": {
            "avatar_hash": "a99c74a194f8",
            "image_72": "https:\/\/avatars.slack-edge.com\/2020-03-07\/975708504851_a99c74a194f86715ca7d_72.png",
            "first_name": "Thomas",
            "real_name": "Thomas Landrain",
            "display_name": "Thomas Landrain - JOGL CoFounder \/ CEO",
            "team": "TUU48M0T1",
            "name": "thomas",
            "is_restricted": false,
            "is_ultra_restricted": false
        },
        "blocks": [
            {
                "type": "rich_text",
                "block_id": "tO5y",
                "elements": [
                    {
                        "type": "rich_text_section",
                        "elements": [
                            {
                                "type": "text",
                                "text": "Wow!"
                            }
                        ]
                    }
                ]
            }
        ],
        "thread_ts": "1588208477.033600",
        "parent_user_id": "U010W2Z4MMZ",
        "reactions": [
            {
                "name": "heart_eyes",
                "users": [
                    "U010W2Z4MMZ"
                ],
                "count": 1
            }
        ]
    }
]