[
    {
        "client_msg_id": "93edac30-b790-44c6-ae90-6e2e1fca44cf",
        "type": "message",
        "text": "Hey everyone, has anyone attempted to extract <https:\/\/nextstrain.org\/ncov\/global> data in table format-- i.e. mutation positions and frequencies? I know they have a tutorial on how to build your own alignment but am wondering if anyone has already played around with it and has a simple way to do this directly from the build represented on the website?",
        "user": "UV20M5HGQ",
        "ts": "1586615574.307800",
        "team": "TUU48M0T1",
        "user_team": "TUU48M0T1",
        "source_team": "TUU48M0T1",
        "user_profile": {
            "avatar_hash": "de7ea7b7e14e",
            "image_72": "https:\/\/avatars.slack-edge.com\/2020-03-11\/981865374050_de7ea7b7e14e7b4316b9_72.jpg",
            "first_name": "",
            "real_name": "Vesta Korniakova",
            "display_name": "Vesta Korniakova",
            "team": "TUU48M0T1",
            "name": "riboswitchvesta",
            "is_restricted": false,
            "is_ultra_restricted": false
        },
        "blocks": [
            {
                "type": "rich_text",
                "block_id": "wt8",
                "elements": [
                    {
                        "type": "rich_text_section",
                        "elements": [
                            {
                                "type": "text",
                                "text": "Hey everyone, has anyone attempted to extract "
                            },
                            {
                                "type": "link",
                                "url": "https:\/\/nextstrain.org\/ncov\/global"
                            },
                            {
                                "type": "text",
                                "text": " data in table format-- i.e. mutation positions and frequencies? I know they have a tutorial on how to build your own alignment but am wondering if anyone has already played around with it and has a simple way to do this directly from the build represented on the website?"
                            }
                        ]
                    }
                ]
            }
        ],
        "thread_ts": "1586615574.307800",
        "reply_count": 3,
        "reply_users_count": 3,
        "latest_reply": "1586673215.312200",
        "reply_users": [
            "UV5CCJ9RC",
            "UV20M5HGQ",
            "UV1A22N3W"
        ],
        "replies": [
            {
                "user": "UV5CCJ9RC",
                "ts": "1586621233.310100"
            },
            {
                "user": "UV20M5HGQ",
                "ts": "1586621904.310300"
            },
            {
                "user": "UV1A22N3W",
                "ts": "1586673215.312200"
            }
        ],
        "subscribed": false
    },
    {
        "client_msg_id": "3D9B13F4-EDF8-4044-BF7A-B01DDB12C2DB",
        "type": "message",
        "text": "I’d be interested if you figure something out. I’ve been mostly using the diversity chart to qualitatively assess genomic diversity but I would love to have the actual data. ",
        "user": "UV5CCJ9RC",
        "ts": "1586621233.310100",
        "team": "TUU48M0T1",
        "user_team": "TUU48M0T1",
        "source_team": "TUU48M0T1",
        "user_profile": {
            "avatar_hash": "2c79fe05f7e7",
            "image_72": "https:\/\/avatars.slack-edge.com\/2020-03-10\/992653932501_2c79fe05f7e75be19699_72.png",
            "first_name": "Chris",
            "real_name": "Chris Monaco",
            "display_name": "",
            "team": "TUU48M0T1",
            "name": "cmonaco.hr",
            "is_restricted": false,
            "is_ultra_restricted": false
        },
        "blocks": [
            {
                "type": "rich_text",
                "block_id": "QC29c",
                "elements": [
                    {
                        "type": "rich_text_section",
                        "elements": [
                            {
                                "type": "text",
                                "text": "I’d be interested if you figure something out. I’ve been mostly using the diversity chart to qualitatively assess genomic diversity but I would love to have the actual data. "
                            }
                        ]
                    }
                ]
            }
        ],
        "thread_ts": "1586615574.307800",
        "parent_user_id": "UV20M5HGQ"
    },
    {
        "client_msg_id": "dc39b945-eca4-46c7-8f52-362e5b1150b7",
        "type": "message",
        "text": "I sent an e-mail directly to nextstrain to ask whether it was possible to extract data directly from the website, and although I did not get a personal reply as they are overloaded with e-mails right now, they did include this in their automated reply: ''The data for our hCoV-19\/SARS-CoV-2\/COVID-19 analysis is generously provided by GISAID, a platform that collects, curates, and maintains sequence data for the current outbreak. We **cannot** redistribute this data. Please visit <https:\/\/www.gisaid.org\/> for more information about how the data are collected and made available.''",
        "user": "UV20M5HGQ",
        "ts": "1586621904.310300",
        "team": "TUU48M0T1",
        "user_team": "TUU48M0T1",
        "source_team": "TUU48M0T1",
        "user_profile": {
            "avatar_hash": "de7ea7b7e14e",
            "image_72": "https:\/\/avatars.slack-edge.com\/2020-03-11\/981865374050_de7ea7b7e14e7b4316b9_72.jpg",
            "first_name": "",
            "real_name": "Vesta Korniakova",
            "display_name": "Vesta Korniakova",
            "team": "TUU48M0T1",
            "name": "riboswitchvesta",
            "is_restricted": false,
            "is_ultra_restricted": false
        },
        "blocks": [
            {
                "type": "rich_text",
                "block_id": "a41Qw",
                "elements": [
                    {
                        "type": "rich_text_section",
                        "elements": [
                            {
                                "type": "text",
                                "text": "I sent an e-mail directly to nextstrain to ask whether it was possible to extract data directly from the website, and although I did not get a personal reply as they are overloaded with e-mails right now, they did include this in their automated reply: ''The data for our hCoV-19\/SARS-CoV-2\/COVID-19 analysis is generously provided by GISAID, a platform that collects, curates, and maintains sequence data for the current outbreak. We **cannot** redistribute this data. Please visit "
                            },
                            {
                                "type": "link",
                                "url": "https:\/\/www.gisaid.org\/"
                            },
                            {
                                "type": "text",
                                "text": " for more information about how the data are collected and made available.''"
                            }
                        ]
                    }
                ]
            }
        ],
        "thread_ts": "1586615574.307800",
        "parent_user_id": "UV20M5HGQ",
        "reactions": [
            {
                "name": "+1",
                "users": [
                    "UV1A22N3W"
                ],
                "count": 1
            }
        ]
    },
    {
        "client_msg_id": "e229222c-2cf4-47f0-8b0e-9911ee5d2c5a",
        "type": "message",
        "text": "_Here is a MEMS silicon PCR chip for detecting c19:_ <https:\/\/www.semiconductor-digest.com\/2020\/04\/08\/mems-at-the-forefront-of-sars-cov-2-testing\/>",
        "user": "U010QHBTBPY",
        "ts": "1586630079.311100",
        "team": "TUU48M0T1",
        "user_team": "TUU48M0T1",
        "source_team": "TUU48M0T1",
        "user_profile": {
            "avatar_hash": "g4e30c4af69a",
            "image_72": "https:\/\/secure.gravatar.com\/avatar\/4e30c4af69a6429e53cd9cce9da9f65c.jpg?s=72&d=https%3A%2F%2Fa.slack-edge.com%2Fdf10d%2Fimg%2Favatars%2Fava_0015-72.png",
            "first_name": "",
            "real_name": "osn_scott",
            "display_name": "osn_scott",
            "team": "TUU48M0T1",
            "name": "scott527",
            "is_restricted": false,
            "is_ultra_restricted": false
        },
        "attachments": [
            {
                "service_name": "Semiconductor Digest",
                "title": "MEMS at the Forefront of SARS-CoV-2 Testing - Semiconductor Digest",
                "title_link": "https:\/\/www.semiconductor-digest.com\/2020\/04\/08\/mems-at-the-forefront-of-sars-cov-2-testing\/",
                "text": "On Saturday, March, 21, 2020 the U.S. Food and Drug Administration (FDA) gave emergency authorization to Cepheid, a California company, to sell a new test for rapid detection of the pandemic coronavirus SARS-CoV-2, which causes COVID-19. Cepheid’s Xpert® Xpress SARS-CoV-2 test gives healthcare workers results in just 45 minutes, with less than a minute of hands-on time for sample preparation.",
                "fallback": "Semiconductor Digest: MEMS at the Forefront of SARS-CoV-2 Testing - Semiconductor Digest",
                "image_url": "https:\/\/www.semiconductor-digest.com\/wp-content\/uploads\/2020\/04\/MEMS-COVID-Testing-1024x683.jpg",
                "image_width": 375,
                "image_height": 250,
                "ts": 1586364700,
                "from_url": "https:\/\/www.semiconductor-digest.com\/2020\/04\/08\/mems-at-the-forefront-of-sars-cov-2-testing\/",
                "image_bytes": 44403,
                "service_icon": "https:\/\/www.semiconductor-digest.com\/wp-content\/uploads\/2019\/06\/Favicon.ico",
                "id": 1,
                "original_url": "https:\/\/www.semiconductor-digest.com\/2020\/04\/08\/mems-at-the-forefront-of-sars-cov-2-testing\/"
            }
        ],
        "blocks": [
            {
                "type": "rich_text",
                "block_id": "lJCVZ",
                "elements": [
                    {
                        "type": "rich_text_section",
                        "elements": [
                            {
                                "type": "text",
                                "text": "Here is a MEMS silicon PCR chip for detecting c19:",
                                "style": {
                                    "italic": true
                                }
                            },
                            {
                                "type": "text",
                                "text": " "
                            },
                            {
                                "type": "link",
                                "url": "https:\/\/www.semiconductor-digest.com\/2020\/04\/08\/mems-at-the-forefront-of-sars-cov-2-testing\/"
                            }
                        ]
                    }
                ]
            }
        ],
        "thread_ts": "1586630079.311100",
        "reply_count": 1,
        "reply_users_count": 1,
        "latest_reply": "1586632769.311400",
        "reply_users": [
            "UV3URUKK5"
        ],
        "replies": [
            {
                "user": "UV3URUKK5",
                "ts": "1586632769.311400"
            }
        ],
        "subscribed": false,
        "reactions": [
            {
                "name": "party-dino",
                "users": [
                    "UV3URUKK5"
                ],
                "count": 1
            },
            {
                "name": "star-struck",
                "users": [
                    "U011B5424FR",
                    "UV10KBUQG"
                ],
                "count": 2
            }
        ]
    },
    {
        "client_msg_id": "9fca82c5-87b5-4aa4-a733-3a9789e5ccff",
        "type": "message",
        "text": "Crazy",
        "user": "UV3URUKK5",
        "ts": "1586632769.311400",
        "team": "TUU48M0T1",
        "user_team": "TUU48M0T1",
        "source_team": "TUU48M0T1",
        "user_profile": {
            "avatar_hash": "64c99c2ed974",
            "image_72": "https:\/\/avatars.slack-edge.com\/2020-03-15\/1000999702004_64c99c2ed97497e08ca9_72.jpg",
            "first_name": "",
            "real_name": "Francisco Javier Quero",
            "display_name": "Francisco Javier Quero",
            "team": "TUU48M0T1",
            "name": "franxi2953",
            "is_restricted": false,
            "is_ultra_restricted": false
        },
        "blocks": [
            {
                "type": "rich_text",
                "block_id": "o7Tj5",
                "elements": [
                    {
                        "type": "rich_text_section",
                        "elements": [
                            {
                                "type": "text",
                                "text": "Crazy"
                            }
                        ]
                    }
                ]
            }
        ],
        "thread_ts": "1586630079.311100",
        "parent_user_id": "U010QHBTBPY"
    },
    {
        "client_msg_id": "4C9BC29E-1CDA-4B49-BC8B-8662DDB2B464",
        "type": "message",
        "text": "<https:\/\/www.gisaid.org\/help\/tutorials-and-videos\/|https:\/\/www.gisaid.org\/help\/tutorials-and-videos\/>",
        "user": "UV1A22N3W",
        "ts": "1586673215.312200",
        "team": "TUU48M0T1",
        "user_team": "TUU48M0T1",
        "source_team": "TUU48M0T1",
        "user_profile": {
            "avatar_hash": "71f827776ad6",
            "image_72": "https:\/\/avatars.slack-edge.com\/2020-03-09\/988125642964_71f827776ad610af05a2_72.jpg",
            "first_name": "",
            "real_name": "RachelA",
            "display_name": "RachelA",
            "team": "TUU48M0T1",
            "name": "raronoff",
            "is_restricted": false,
            "is_ultra_restricted": false
        },
        "blocks": [
            {
                "type": "rich_text",
                "block_id": "bEuc",
                "elements": [
                    {
                        "type": "rich_text_section",
                        "elements": [
                            {
                                "type": "link",
                                "url": "https:\/\/www.gisaid.org\/help\/tutorials-and-videos\/",
                                "text": "https:\/\/www.gisaid.org\/help\/tutorials-and-videos\/"
                            }
                        ]
                    }
                ]
            }
        ],
        "thread_ts": "1586615574.307800",
        "parent_user_id": "UV20M5HGQ"
    }
]