[
    {
        "client_msg_id": "5f20ede5-ef7d-45aa-9e3f-b6e5feb670bc",
        "type": "message",
        "text": "*<!channel>* Please use this document to indicate any updates you’d like to share during our Global Community call happening in 15min\n:point_right: <https:\/\/docs.google.com\/document\/d\/1uDgv8H0iIgGaIqNPtx52ssi0DTF6nhAWFQ-DBnmcTjY\/edit>",
        "user": "UV02WET96",
        "ts": "1587570114.347400",
        "team": "TUU48M0T1",
        "user_team": "TUU48M0T1",
        "source_team": "TUU48M0T1",
        "user_profile": {
            "avatar_hash": "a99c74a194f8",
            "image_72": "https:\/\/avatars.slack-edge.com\/2020-03-07\/975708504851_a99c74a194f86715ca7d_72.png",
            "first_name": "Thomas",
            "real_name": "Thomas Landrain",
            "display_name": "Thomas Landrain - JOGL CoFounder \/ CEO",
            "team": "TUU48M0T1",
            "name": "thomas",
            "is_restricted": false,
            "is_ultra_restricted": false
        },
        "blocks": [
            {
                "type": "rich_text",
                "block_id": "Bu5=c",
                "elements": [
                    {
                        "type": "rich_text_section",
                        "elements": [
                            {
                                "type": "broadcast",
                                "range": "channel",
                                "style": {
                                    "bold": true
                                }
                            },
                            {
                                "type": "text",
                                "text": " Please use this document to indicate any updates you’d like to share during our Global Community call happening in 15min\n"
                            },
                            {
                                "type": "emoji",
                                "name": "point_right"
                            },
                            {
                                "type": "text",
                                "text": " "
                            },
                            {
                                "type": "link",
                                "url": "https:\/\/docs.google.com\/document\/d\/1uDgv8H0iIgGaIqNPtx52ssi0DTF6nhAWFQ-DBnmcTjY\/edit"
                            }
                        ]
                    }
                ]
            }
        ]
    },
    {
        "client_msg_id": "8e6c6a54-8c91-4733-b3e3-8fbb720145e1",
        "type": "message",
        "text": "now at 6",
        "user": "UV1A22N3W",
        "ts": "1587573165.347500",
        "team": "TUU48M0T1",
        "user_team": "TUU48M0T1",
        "source_team": "TUU48M0T1",
        "user_profile": {
            "avatar_hash": "71f827776ad6",
            "image_72": "https:\/\/avatars.slack-edge.com\/2020-03-09\/988125642964_71f827776ad610af05a2_72.jpg",
            "first_name": "",
            "real_name": "RachelA",
            "display_name": "RachelA",
            "team": "TUU48M0T1",
            "name": "raronoff",
            "is_restricted": false,
            "is_ultra_restricted": false
        },
        "blocks": [
            {
                "type": "rich_text",
                "block_id": "VwdW",
                "elements": [
                    {
                        "type": "rich_text_section",
                        "elements": [
                            {
                                "type": "text",
                                "text": "now at 6"
                            }
                        ]
                    }
                ]
            }
        ],
        "thread_ts": "1587017586.344600",
        "parent_user_id": "U010X9FPMS8"
    },
    {
        "client_msg_id": "83e5101b-c93a-4733-a2e5-ed8bea804e6e",
        "type": "message",
        "text": "<@U010X9FPMS8> Our detection Zoom is tomorrow at 10 am CST (Chicago time).",
        "user": "UV10KBUQG",
        "ts": "1587606723.348000",
        "team": "TUU48M0T1",
        "user_team": "TUU48M0T1",
        "source_team": "TUU48M0T1",
        "user_profile": {
            "avatar_hash": "2deebbf6be3d",
            "image_72": "https:\/\/avatars.slack-edge.com\/2020-03-06\/976932190641_2deebbf6be3d17141d91_72.jpg",
            "first_name": "Sarah",
            "real_name": "Sarah Blossom Ware",
            "display_name": "Sarah Blossom Ware - BioBlaze Community Bio Lab",
            "team": "TUU48M0T1",
            "name": "ware.sarah",
            "is_restricted": false,
            "is_ultra_restricted": false
        },
        "blocks": [
            {
                "type": "rich_text",
                "block_id": "p6HW",
                "elements": [
                    {
                        "type": "rich_text_section",
                        "elements": [
                            {
                                "type": "user",
                                "user_id": "U010X9FPMS8"
                            },
                            {
                                "type": "text",
                                "text": " Our detection Zoom is tomorrow at 10 am CST (Chicago time)."
                            }
                        ]
                    }
                ]
            }
        ],
        "thread_ts": "1587017586.344600",
        "parent_user_id": "U010X9FPMS8"
    }
]