[
    {
        "client_msg_id": "ccf97e49-6efb-46ab-bcb2-473e97352c03",
        "type": "message",
        "text": "<https:\/\/www.thenewsminute.com\/article\/kerala-s-rajiv-gandhi-centre-biotechnology-develops-rapid-antibody-test-kit-121835>",
        "user": "U011B5424FR",
        "ts": "1586686081.312500",
        "team": "TUU48M0T1",
        "user_team": "TUU48M0T1",
        "source_team": "TUU48M0T1",
        "user_profile": {
            "avatar_hash": "eb7c0d044867",
            "image_72": "https:\/\/avatars.slack-edge.com\/2020-04-05\/1054431511504_eb7c0d044867df386504_72.jpg",
            "first_name": "Aravinth",
            "real_name": "Aravinth Panch",
            "display_name": "Ara - DreamSpace Academy - SLINTEC - Sri Lanka",
            "team": "TUU48M0T1",
            "name": "me1435",
            "is_restricted": false,
            "is_ultra_restricted": false
        },
        "attachments": [
            {
                "service_name": "The News Minute",
                "title": "Kerala’s Rajiv Gandhi Centre for Biotechnology develops rapid antibody test kit",
                "title_link": "https:\/\/www.thenewsminute.com\/article\/kerala-s-rajiv-gandhi-centre-biotechnology-develops-rapid-antibody-test-kit-121835",
                "text": "The Kerala government had only a few days ago spoken about rapid antibody testing to check for community transmission of COVID-19. Now, the Rajiv Gandhi Centre for Biotechnology (RGCB) in Thiruvananthapuram has developed a rapid test kit, which is to be validated by the National Institute of Virology (NIV) in Pune. “The preliminary testing has been done. It is incubated by a company called ubio in Kochi. It is in our campus in Kochi,” says Dr Radhakrishnan of the RGCB, whose team has developed the kit.",
                "fallback": "The News Minute: Kerala’s Rajiv Gandhi Centre for Biotechnology develops rapid antibody test kit",
                "image_url": "https:\/\/www.thenewsminute.com\/sites\/default\/files\/covid_testing_750_picxy.jpg",
                "ts": 1585984803,
                "from_url": "https:\/\/www.thenewsminute.com\/article\/kerala-s-rajiv-gandhi-centre-biotechnology-develops-rapid-antibody-test-kit-121835",
                "image_width": 375,
                "image_height": 250,
                "image_bytes": 101235,
                "service_icon": "https:\/\/www.thenewsminute.com\/sites\/default\/files\/fevicon_1_0.png",
                "id": 1,
                "original_url": "https:\/\/www.thenewsminute.com\/article\/kerala-s-rajiv-gandhi-centre-biotechnology-develops-rapid-antibody-test-kit-121835"
            }
        ],
        "blocks": [
            {
                "type": "rich_text",
                "block_id": "g1L",
                "elements": [
                    {
                        "type": "rich_text_section",
                        "elements": [
                            {
                                "type": "link",
                                "url": "https:\/\/www.thenewsminute.com\/article\/kerala-s-rajiv-gandhi-centre-biotechnology-develops-rapid-antibody-test-kit-121835"
                            }
                        ]
                    }
                ]
            }
        ],
        "thread_ts": "1586686081.312500",
        "reply_count": 2,
        "reply_users_count": 2,
        "latest_reply": "1586720013.327700",
        "reply_users": [
            "U010WKVUFFY",
            "U011B5424FR"
        ],
        "replies": [
            {
                "user": "U010WKVUFFY",
                "ts": "1586710574.319500"
            },
            {
                "user": "U011B5424FR",
                "ts": "1586720013.327700"
            }
        ],
        "subscribed": false
    },
    {
        "client_msg_id": "69d19102-e67a-47ab-be6f-ac6333f70e4f",
        "type": "message",
        "text": "<!channel>, we are working on a JOGL grant application (due tomorrow) in <#C010WAVTJ90|proj-enzyme-production>. _Anyone with interested can join in._ The goal is to created protocols and produce enzymes used in the c19 diagnostic assays being developed in <#C010S1VPLQM|proj-neb-lamp-test>, <#C0103J8NF46|chlg-detection-diagnostic> <#C010CVB35DE|proj-nucleic-acid-amplification>, and <#C010D0K1FE1|proj-rna-extraction>.",
        "user": "U010QHBTBPY",
        "ts": "1586710225.317000",
        "team": "TUU48M0T1",
        "user_team": "TUU48M0T1",
        "source_team": "TUU48M0T1",
        "user_profile": {
            "avatar_hash": "g4e30c4af69a",
            "image_72": "https:\/\/secure.gravatar.com\/avatar\/4e30c4af69a6429e53cd9cce9da9f65c.jpg?s=72&d=https%3A%2F%2Fa.slack-edge.com%2Fdf10d%2Fimg%2Favatars%2Fava_0015-72.png",
            "first_name": "",
            "real_name": "osn_scott",
            "display_name": "osn_scott",
            "team": "TUU48M0T1",
            "name": "scott527",
            "is_restricted": false,
            "is_ultra_restricted": false
        },
        "blocks": [
            {
                "type": "rich_text",
                "block_id": "a3H",
                "elements": [
                    {
                        "type": "rich_text_section",
                        "elements": [
                            {
                                "type": "broadcast",
                                "range": "channel"
                            },
                            {
                                "type": "text",
                                "text": ", we are working on a JOGL grant application (due tomorrow) in "
                            },
                            {
                                "type": "channel",
                                "channel_id": "C010WAVTJ90"
                            },
                            {
                                "type": "text",
                                "text": ". "
                            },
                            {
                                "type": "text",
                                "text": "Anyone with interested can join in. ",
                                "style": {
                                    "italic": true
                                }
                            },
                            {
                                "type": "text",
                                "text": "The goal is to created protocols and produce enzymes used in the c19 diagnostic assays being developed in "
                            },
                            {
                                "type": "channel",
                                "channel_id": "C010S1VPLQM"
                            },
                            {
                                "type": "text",
                                "text": ", "
                            },
                            {
                                "type": "channel",
                                "channel_id": "C0103J8NF46"
                            },
                            {
                                "type": "text",
                                "text": " "
                            },
                            {
                                "type": "channel",
                                "channel_id": "C010CVB35DE"
                            },
                            {
                                "type": "text",
                                "text": ", and "
                            },
                            {
                                "type": "channel",
                                "channel_id": "C010D0K1FE1"
                            },
                            {
                                "type": "text",
                                "text": "."
                            }
                        ]
                    }
                ]
            }
        ],
        "thread_ts": "1586710225.317000",
        "reply_count": 1,
        "reply_users_count": 1,
        "latest_reply": "1586720019.327900",
        "reply_users": [
            "U010X9FPMS8"
        ],
        "replies": [
            {
                "user": "U010X9FPMS8",
                "ts": "1586720019.327900"
            }
        ],
        "subscribed": false,
        "reactions": [
            {
                "name": "+1",
                "users": [
                    "U011B5424FR",
                    "UV10KBUQG",
                    "U010LNECEHE",
                    "U010UF6AXMF",
                    "UUNGFHSV8"
                ],
                "count": 5
            }
        ]
    },
    {
        "client_msg_id": "b7683f4e-07c6-4df8-9403-ce6d85c1b753",
        "type": "message",
        "text": "<@UV02WET96>  <@U010QHBTBPY>  above says the deadline for the grant proposal is tomorrow. Is that correct or is the deadline next Sunday?",
        "user": "UV10KBUQG",
        "ts": "1586710548.319300",
        "team": "TUU48M0T1",
        "user_team": "TUU48M0T1",
        "source_team": "TUU48M0T1",
        "user_profile": {
            "avatar_hash": "2deebbf6be3d",
            "image_72": "https:\/\/avatars.slack-edge.com\/2020-03-06\/976932190641_2deebbf6be3d17141d91_72.jpg",
            "first_name": "Sarah",
            "real_name": "Sarah Blossom Ware",
            "display_name": "Sarah Blossom Ware - BioBlaze Community Bio Lab",
            "team": "TUU48M0T1",
            "name": "ware.sarah",
            "is_restricted": false,
            "is_ultra_restricted": false
        },
        "blocks": [
            {
                "type": "rich_text",
                "block_id": "AI0",
                "elements": [
                    {
                        "type": "rich_text_section",
                        "elements": [
                            {
                                "type": "user",
                                "user_id": "UV02WET96"
                            },
                            {
                                "type": "text",
                                "text": "  "
                            },
                            {
                                "type": "user",
                                "user_id": "U010QHBTBPY"
                            },
                            {
                                "type": "text",
                                "text": "  above says the deadline for the grant proposal is tomorrow. Is that correct or is the deadline next Sunday?"
                            }
                        ]
                    }
                ]
            }
        ]
    },
    {
        "client_msg_id": "b4438e48-900a-4c75-9b9f-d3f24364753e",
        "type": "message",
        "text": "Since it's difficult to get reagents from across national borders, a small scale bioreactor that could be used in different countries for enzyme production would be super useful!",
        "user": "U010WKVUFFY",
        "ts": "1586710574.319500",
        "team": "TUU48M0T1",
        "user_team": "TUU48M0T1",
        "source_team": "TUU48M0T1",
        "user_profile": {
            "avatar_hash": "gf0c9e06eebd",
            "image_72": "https:\/\/secure.gravatar.com\/avatar\/f0c9e06eebd0184ffae109da36b04f9d.jpg?s=72&d=https%3A%2F%2Fa.slack-edge.com%2Fdf10d%2Fimg%2Favatars%2Fava_0024-72.png",
            "first_name": "",
            "real_name": "Nicholas Crudele",
            "display_name": "Nicholas Crudele",
            "team": "TUU48M0T1",
            "name": "nicoharacrudele4",
            "is_restricted": false,
            "is_ultra_restricted": false
        },
        "blocks": [
            {
                "type": "rich_text",
                "block_id": "y0SN",
                "elements": [
                    {
                        "type": "rich_text_section",
                        "elements": [
                            {
                                "type": "text",
                                "text": "Since it's difficult to get reagents from across national borders, a small scale bioreactor that could be used in different countries for enzyme production would be super useful!"
                            }
                        ]
                    }
                ]
            }
        ],
        "thread_ts": "1586686081.312500",
        "parent_user_id": "U011B5424FR",
        "reactions": [
            {
                "name": "+1",
                "users": [
                    "U011B5424FR"
                ],
                "count": 1
            }
        ]
    },
    {
        "client_msg_id": "e30e3d24-91e7-49f3-aa58-10184ac84339",
        "type": "message",
        "text": "It is tomorrow for the second round. I don’t know when the 3rd round is.",
        "user": "U010QHBTBPY",
        "ts": "1586710621.320400",
        "team": "TUU48M0T1",
        "user_team": "TUU48M0T1",
        "source_team": "TUU48M0T1",
        "user_profile": {
            "avatar_hash": "g4e30c4af69a",
            "image_72": "https:\/\/secure.gravatar.com\/avatar\/4e30c4af69a6429e53cd9cce9da9f65c.jpg?s=72&d=https%3A%2F%2Fa.slack-edge.com%2Fdf10d%2Fimg%2Favatars%2Fava_0015-72.png",
            "first_name": "",
            "real_name": "osn_scott",
            "display_name": "osn_scott",
            "team": "TUU48M0T1",
            "name": "scott527",
            "is_restricted": false,
            "is_ultra_restricted": false
        },
        "blocks": [
            {
                "type": "rich_text",
                "block_id": "IbbJ2",
                "elements": [
                    {
                        "type": "rich_text_section",
                        "elements": [
                            {
                                "type": "text",
                                "text": "It is tomorrow for the second round. I don’t know when the 3rd round is."
                            }
                        ]
                    }
                ]
            }
        ]
    },
    {
        "client_msg_id": "c8af50ba-796c-4d24-85db-9c27eb657089",
        "type": "message",
        "text": "Hey <@U010QHBTBPY> where did you see that the second round was finishing tomorrow? We haven’t made the annoucement yet…",
        "user": "UV02WET96",
        "ts": "1586710738.321300",
        "team": "TUU48M0T1",
        "user_team": "TUU48M0T1",
        "source_team": "TUU48M0T1",
        "user_profile": {
            "avatar_hash": "a99c74a194f8",
            "image_72": "https:\/\/avatars.slack-edge.com\/2020-03-07\/975708504851_a99c74a194f86715ca7d_72.png",
            "first_name": "Thomas",
            "real_name": "Thomas Landrain",
            "display_name": "Thomas Landrain - JOGL CoFounder \/ CEO",
            "team": "TUU48M0T1",
            "name": "thomas",
            "is_restricted": false,
            "is_ultra_restricted": false
        },
        "blocks": [
            {
                "type": "rich_text",
                "block_id": "PSVy",
                "elements": [
                    {
                        "type": "rich_text_section",
                        "elements": [
                            {
                                "type": "text",
                                "text": "Hey "
                            },
                            {
                                "type": "user",
                                "user_id": "U010QHBTBPY"
                            },
                            {
                                "type": "text",
                                "text": " where did you see that the second round was finishing tomorrow? We haven’t made the annoucement yet…"
                            }
                        ]
                    }
                ]
            }
        ]
    },
    {
        "client_msg_id": "793B7D31-F4A2-40CB-B0FF-2F1788A4418F",
        "type": "message",
        "text": "I was just wondering about that and nearly got a heart attack for missing out on that :joy:",
        "user": "UVDJ0PAQK",
        "ts": "1586710764.322300",
        "team": "TUU48M0T1",
        "user_team": "TUU48M0T1",
        "source_team": "TUU48M0T1",
        "user_profile": {
            "avatar_hash": "0fab15eaefc9",
            "image_72": "https:\/\/avatars.slack-edge.com\/2020-03-19\/998337427074_0fab15eaefc9bfa8d59c_72.jpg",
            "first_name": "Bastian",
            "real_name": "Bastian Greshake Tzovaras",
            "display_name": "Bastian Greshake Tzovaras",
            "team": "TUU48M0T1",
            "name": "bastian.greshake-tzov",
            "is_restricted": false,
            "is_ultra_restricted": false
        },
        "blocks": [
            {
                "type": "rich_text",
                "block_id": "zye\/",
                "elements": [
                    {
                        "type": "rich_text_section",
                        "elements": [
                            {
                                "type": "text",
                                "text": "I was just wondering about that and nearly got a heart attack for missing out on that "
                            },
                            {
                                "type": "emoji",
                                "name": "joy"
                            }
                        ]
                    }
                ]
            }
        ],
        "reactions": [
            {
                "name": "joy",
                "users": [
                    "UV02WET96",
                    "UV10KBUQG"
                ],
                "count": 2
            }
        ]
    },
    {
        "client_msg_id": "5ff8803b-647e-4f3d-8af4-10e34bc85e2d",
        "type": "message",
        "text": "we haven’t announced the second round yet, we plan to do it tomorrow for a deadline next sunday",
        "user": "UV02WET96",
        "ts": "1586710791.323200",
        "team": "TUU48M0T1",
        "user_team": "TUU48M0T1",
        "source_team": "TUU48M0T1",
        "user_profile": {
            "avatar_hash": "a99c74a194f8",
            "image_72": "https:\/\/avatars.slack-edge.com\/2020-03-07\/975708504851_a99c74a194f86715ca7d_72.png",
            "first_name": "Thomas",
            "real_name": "Thomas Landrain",
            "display_name": "Thomas Landrain - JOGL CoFounder \/ CEO",
            "team": "TUU48M0T1",
            "name": "thomas",
            "is_restricted": false,
            "is_ultra_restricted": false
        },
        "blocks": [
            {
                "type": "rich_text",
                "block_id": "Dmsk",
                "elements": [
                    {
                        "type": "rich_text_section",
                        "elements": [
                            {
                                "type": "text",
                                "text": "we haven’t announced the second round yet, we plan to do it tomorrow for a deadline next sunday"
                            }
                        ]
                    }
                ]
            }
        ],
        "reactions": [
            {
                "name": "+1",
                "users": [
                    "UVDJ0PAQK",
                    "UV10KBUQG"
                ],
                "count": 2
            }
        ]
    },
    {
        "client_msg_id": "5f63a37f-d58f-43ae-8223-c1cabe39cb3d",
        "type": "message",
        "text": "Someone gave me a JOGO c19 template that has the date of 13th April 2020 which I thought was the deadline!",
        "user": "U010QHBTBPY",
        "ts": "1586710845.324200",
        "team": "TUU48M0T1",
        "user_team": "TUU48M0T1",
        "source_team": "TUU48M0T1",
        "user_profile": {
            "avatar_hash": "g4e30c4af69a",
            "image_72": "https:\/\/secure.gravatar.com\/avatar\/4e30c4af69a6429e53cd9cce9da9f65c.jpg?s=72&d=https%3A%2F%2Fa.slack-edge.com%2Fdf10d%2Fimg%2Favatars%2Fava_0015-72.png",
            "first_name": "",
            "real_name": "osn_scott",
            "display_name": "osn_scott",
            "team": "TUU48M0T1",
            "name": "scott527",
            "is_restricted": false,
            "is_ultra_restricted": false
        },
        "blocks": [
            {
                "type": "rich_text",
                "block_id": "dOeAI",
                "elements": [
                    {
                        "type": "rich_text_section",
                        "elements": [
                            {
                                "type": "text",
                                "text": "Someone gave me a JOGO c19 template that has the date of 13th April 2020 which I thought was the deadline!"
                            }
                        ]
                    }
                ]
            }
        ]
    },
    {
        "client_msg_id": "abc1b0f1-626c-4599-b92d-b5647e3507ca",
        "type": "message",
        "text": "oh! I dont’ know who put that date but it’s definitely not an official one. I will correct it. Is it in the application template document?",
        "user": "UV02WET96",
        "ts": "1586710892.325300",
        "team": "TUU48M0T1",
        "user_team": "TUU48M0T1",
        "source_team": "TUU48M0T1",
        "user_profile": {
            "avatar_hash": "a99c74a194f8",
            "image_72": "https:\/\/avatars.slack-edge.com\/2020-03-07\/975708504851_a99c74a194f86715ca7d_72.png",
            "first_name": "Thomas",
            "real_name": "Thomas Landrain",
            "display_name": "Thomas Landrain - JOGL CoFounder \/ CEO",
            "team": "TUU48M0T1",
            "name": "thomas",
            "is_restricted": false,
            "is_ultra_restricted": false
        },
        "blocks": [
            {
                "type": "rich_text",
                "block_id": "y=f",
                "elements": [
                    {
                        "type": "rich_text_section",
                        "elements": [
                            {
                                "type": "text",
                                "text": "oh! I dont’ know who put that date but it’s definitely not an official one. I will correct it. Is it in the application template document?"
                            }
                        ]
                    }
                ]
            }
        ]
    },
    {
        "client_msg_id": "b6ad7b2d-db1b-4d0d-a2a4-f91c162ba9e3",
        "type": "message",
        "text": "Corrected the doc, sorry for that <@U010QHBTBPY>!",
        "user": "UV02WET96",
        "ts": "1586710982.325600",
        "team": "TUU48M0T1",
        "user_team": "TUU48M0T1",
        "source_team": "TUU48M0T1",
        "user_profile": {
            "avatar_hash": "a99c74a194f8",
            "image_72": "https:\/\/avatars.slack-edge.com\/2020-03-07\/975708504851_a99c74a194f86715ca7d_72.png",
            "first_name": "Thomas",
            "real_name": "Thomas Landrain",
            "display_name": "Thomas Landrain - JOGL CoFounder \/ CEO",
            "team": "TUU48M0T1",
            "name": "thomas",
            "is_restricted": false,
            "is_ultra_restricted": false
        },
        "blocks": [
            {
                "type": "rich_text",
                "block_id": "1HDiH",
                "elements": [
                    {
                        "type": "rich_text_section",
                        "elements": [
                            {
                                "type": "text",
                                "text": "Corrected the doc, sorry for that "
                            },
                            {
                                "type": "user",
                                "user_id": "U010QHBTBPY"
                            },
                            {
                                "type": "text",
                                "text": "!"
                            }
                        ]
                    }
                ]
            }
        ]
    },
    {
        "client_msg_id": "b7f76e46-cecb-416c-88d3-dbff885f49a6",
        "type": "message",
        "text": "You’ll be ready in advance :slightly_smiling_face:",
        "user": "UV02WET96",
        "ts": "1586710999.325900",
        "team": "TUU48M0T1",
        "user_team": "TUU48M0T1",
        "source_team": "TUU48M0T1",
        "user_profile": {
            "avatar_hash": "a99c74a194f8",
            "image_72": "https:\/\/avatars.slack-edge.com\/2020-03-07\/975708504851_a99c74a194f86715ca7d_72.png",
            "first_name": "Thomas",
            "real_name": "Thomas Landrain",
            "display_name": "Thomas Landrain - JOGL CoFounder \/ CEO",
            "team": "TUU48M0T1",
            "name": "thomas",
            "is_restricted": false,
            "is_ultra_restricted": false
        },
        "edited": {
            "user": "UV02WET96",
            "ts": "1586711004.000000"
        },
        "blocks": [
            {
                "type": "rich_text",
                "block_id": "eXbG",
                "elements": [
                    {
                        "type": "rich_text_section",
                        "elements": [
                            {
                                "type": "text",
                                "text": "You’ll be ready in advance "
                            },
                            {
                                "type": "emoji",
                                "name": "slightly_smiling_face"
                            }
                        ]
                    }
                ]
            }
        ]
    },
    {
        "client_msg_id": "d3189956-5e8c-4747-af8e-ca379d72a3e4",
        "type": "message",
        "text": "Ha ha, the pressure is off! Thanks for clarifying and correcting!",
        "user": "U010QHBTBPY",
        "ts": "1586711042.326600",
        "team": "TUU48M0T1",
        "user_team": "TUU48M0T1",
        "source_team": "TUU48M0T1",
        "user_profile": {
            "avatar_hash": "g4e30c4af69a",
            "image_72": "https:\/\/secure.gravatar.com\/avatar\/4e30c4af69a6429e53cd9cce9da9f65c.jpg?s=72&d=https%3A%2F%2Fa.slack-edge.com%2Fdf10d%2Fimg%2Favatars%2Fava_0015-72.png",
            "first_name": "",
            "real_name": "osn_scott",
            "display_name": "osn_scott",
            "team": "TUU48M0T1",
            "name": "scott527",
            "is_restricted": false,
            "is_ultra_restricted": false
        },
        "blocks": [
            {
                "type": "rich_text",
                "block_id": "\/85",
                "elements": [
                    {
                        "type": "rich_text_section",
                        "elements": [
                            {
                                "type": "text",
                                "text": "Ha ha, the pressure is off! Thanks for clarifying and correcting!"
                            }
                        ]
                    }
                ]
            }
        ],
        "reactions": [
            {
                "name": "+1",
                "users": [
                    "UV02WET96",
                    "UV10KBUQG",
                    "UVDJ0PAQK"
                ],
                "count": 3
            },
            {
                "name": "party-dino",
                "users": [
                    "UV3URUKK5"
                ],
                "count": 1
            }
        ]
    },
    {
        "client_msg_id": "1e2fed26-e9e5-4ce1-bbd5-47c4ddfb0cb8",
        "type": "message",
        "text": "Yes. It would be great, if underdeveloped countries in Global South can produce it locally.\n\n<@U01136GDY5V>: Is it possible to use Open Enzyme project to do that?",
        "user": "U011B5424FR",
        "ts": "1586720013.327700",
        "team": "TUU48M0T1",
        "user_team": "TUU48M0T1",
        "source_team": "TUU48M0T1",
        "user_profile": {
            "avatar_hash": "eb7c0d044867",
            "image_72": "https:\/\/avatars.slack-edge.com\/2020-04-05\/1054431511504_eb7c0d044867df386504_72.jpg",
            "first_name": "Aravinth",
            "real_name": "Aravinth Panch",
            "display_name": "Ara - DreamSpace Academy - SLINTEC - Sri Lanka",
            "team": "TUU48M0T1",
            "name": "me1435",
            "is_restricted": false,
            "is_ultra_restricted": false
        },
        "blocks": [
            {
                "type": "rich_text",
                "block_id": "iKE",
                "elements": [
                    {
                        "type": "rich_text_section",
                        "elements": [
                            {
                                "type": "text",
                                "text": "Yes. It would be great, if underdeveloped countries in Global South can produce it locally.\n\n"
                            },
                            {
                                "type": "user",
                                "user_id": "U01136GDY5V"
                            },
                            {
                                "type": "text",
                                "text": ": Is it possible to use Open Enzyme project to do that?"
                            }
                        ]
                    }
                ]
            }
        ],
        "thread_ts": "1586686081.312500",
        "parent_user_id": "U011B5424FR"
    },
    {
        "client_msg_id": "60d4ba6b-8871-4465-9d58-60750dbf6d6f",
        "type": "message",
        "text": "I thought about starting a fundraiser - how can I join?",
        "user": "U010X9FPMS8",
        "ts": "1586720019.327900",
        "team": "TUU48M0T1",
        "user_team": "TUU48M0T1",
        "source_team": "TUU48M0T1",
        "user_profile": {
            "avatar_hash": "faff4edf8af2",
            "image_72": "https:\/\/avatars.slack-edge.com\/2020-03-27\/1031471711236_faff4edf8af2cc7b11dd_72.jpg",
            "first_name": "Florian",
            "real_name": "Florian Schulte",
            "display_name": "Florian Schulte",
            "team": "TUU48M0T1",
            "name": "schulte.florian",
            "is_restricted": false,
            "is_ultra_restricted": false
        },
        "blocks": [
            {
                "type": "rich_text",
                "block_id": "qW=",
                "elements": [
                    {
                        "type": "rich_text_section",
                        "elements": [
                            {
                                "type": "text",
                                "text": "I thought about starting a fundraiser - how can I join?"
                            }
                        ]
                    }
                ]
            }
        ],
        "thread_ts": "1586710225.317000",
        "parent_user_id": "U010QHBTBPY"
    }
]