[
    {
        "type": "message",
        "text": "*<!channel>*  Dear all, *if you have a project on JOGL*, please use this document to *indicate any updates* you’d like to share during our *Global Community call happening in 1 hour! <https:\/\/us02web.zoom.us\/j\/7804345815>*\nThanks a lot and take care :raised_hands:\n\n :point_right: <https:\/\/docs.google.com\/document\/d\/14wSi_AG7mduWY3IrkUGpUdFJAB-Dnxrh5RmFuxTt2D0\/edit>",
        "files": [
            {
                "id": "F01357PU350",
                "created": 1588774560,
                "timestamp": 1588774560,
                "name": "2020-05-06 Tenth Global Community Call - OpenCovid19",
                "title": "2020-05-06 Tenth Global Community Call - OpenCovid19",
                "mimetype": "application\/vnd.google-apps.document",
                "filetype": "gdoc",
                "pretty_type": "GSuite Document",
                "user": "U011B6VLM2A",
                "editable": false,
                "size": 2240,
                "mode": "external",
                "is_external": true,
                "external_type": "gdrive",
                "is_public": true,
                "public_url_shared": false,
                "display_as_bot": false,
                "username": "",
                "url_private": "https:\/\/docs.google.com\/document\/d\/14wSi_AG7mduWY3IrkUGpUdFJAB-Dnxrh5RmFuxTt2D0\/edit",
                "thumb_64": "https:\/\/files.slack.com\/files-tmb\/TUU48M0T1-F01357PU350-fc46c9690c\/2020-05-06_tenth_global_community_call_-_opencovid19_64.png?t=xoxe-980144714919-1133254701825-1120841107731-daf595b5a7d6c9028b0b02a925032e36",
                "thumb_80": "https:\/\/files.slack.com\/files-tmb\/TUU48M0T1-F01357PU350-fc46c9690c\/2020-05-06_tenth_global_community_call_-_opencovid19_80.png?t=xoxe-980144714919-1133254701825-1120841107731-daf595b5a7d6c9028b0b02a925032e36",
                "thumb_360": "https:\/\/files.slack.com\/files-tmb\/TUU48M0T1-F01357PU350-fc46c9690c\/2020-05-06_tenth_global_community_call_-_opencovid19_360.png?t=xoxe-980144714919-1133254701825-1120841107731-daf595b5a7d6c9028b0b02a925032e36",
                "thumb_360_w": 278,
                "thumb_360_h": 360,
                "thumb_480": "https:\/\/files.slack.com\/files-tmb\/TUU48M0T1-F01357PU350-fc46c9690c\/2020-05-06_tenth_global_community_call_-_opencovid19_480.png?t=xoxe-980144714919-1133254701825-1120841107731-daf595b5a7d6c9028b0b02a925032e36",
                "thumb_480_w": 371,
                "thumb_480_h": 480,
                "thumb_160": "https:\/\/files.slack.com\/files-tmb\/TUU48M0T1-F01357PU350-fc46c9690c\/2020-05-06_tenth_global_community_call_-_opencovid19_160.png?t=xoxe-980144714919-1133254701825-1120841107731-daf595b5a7d6c9028b0b02a925032e36",
                "thumb_720": "https:\/\/files.slack.com\/files-tmb\/TUU48M0T1-F01357PU350-fc46c9690c\/2020-05-06_tenth_global_community_call_-_opencovid19_720.png?t=xoxe-980144714919-1133254701825-1120841107731-daf595b5a7d6c9028b0b02a925032e36",
                "thumb_720_w": 557,
                "thumb_720_h": 720,
                "thumb_800": "https:\/\/files.slack.com\/files-tmb\/TUU48M0T1-F01357PU350-fc46c9690c\/2020-05-06_tenth_global_community_call_-_opencovid19_800.png?t=xoxe-980144714919-1133254701825-1120841107731-daf595b5a7d6c9028b0b02a925032e36",
                "thumb_800_w": 800,
                "thumb_800_h": 1035,
                "thumb_960": "https:\/\/files.slack.com\/files-tmb\/TUU48M0T1-F01357PU350-fc46c9690c\/2020-05-06_tenth_global_community_call_-_opencovid19_960.png?t=xoxe-980144714919-1133254701825-1120841107731-daf595b5a7d6c9028b0b02a925032e36",
                "thumb_960_w": 742,
                "thumb_960_h": 960,
                "thumb_1024": "https:\/\/files.slack.com\/files-tmb\/TUU48M0T1-F01357PU350-fc46c9690c\/2020-05-06_tenth_global_community_call_-_opencovid19_1024.png?t=xoxe-980144714919-1133254701825-1120841107731-daf595b5a7d6c9028b0b02a925032e36",
                "thumb_1024_w": 791,
                "thumb_1024_h": 1024,
                "image_exif_rotation": 1,
                "original_w": 800,
                "original_h": 1035,
                "thumb_tiny": "AwAwACXTppkQEgsAR156Upz2xUZxuJ2rnuaAJNy\/3h+dKCD0NRbv9lacpOPlC\/nQA+iiigBCQOtNOD0z+VObkdcUzb70AG0+p\/Kngcd6QYxySaUY7UALRRRQAjdKjxnoKlpNooARV5\/+tTuKTaKMCgBaKKKAP\/\/Z",
                "permalink": "https:\/\/open-covid19.slack.com\/files\/U011B6VLM2A\/F01357PU350\/2020-05-06_tenth_global_community_call_-_opencovid19",
                "is_starred": false,
                "external_id": "14wSi_AG7mduWY3IrkUGpUdFJAB-Dnxrh5RmFuxTt2D0",
                "external_url": "https:\/\/docs.google.com\/document\/d\/14wSi_AG7mduWY3IrkUGpUdFJAB-Dnxrh5RmFuxTt2D0\/edit",
                "has_rich_preview": true
            }
        ],
        "upload": false,
        "blocks": [
            {
                "type": "rich_text",
                "block_id": "b1x",
                "elements": [
                    {
                        "type": "rich_text_section",
                        "elements": [
                            {
                                "type": "broadcast",
                                "range": "channel",
                                "style": {
                                    "bold": true
                                }
                            },
                            {
                                "type": "text",
                                "text": " ",
                                "style": {
                                    "bold": true
                                }
                            },
                            {
                                "type": "text",
                                "text": " Dear all, "
                            },
                            {
                                "type": "text",
                                "text": "if you have a project on JOGL",
                                "style": {
                                    "bold": true
                                }
                            },
                            {
                                "type": "text",
                                "text": ", please use this document to "
                            },
                            {
                                "type": "text",
                                "text": "indicate any updates",
                                "style": {
                                    "bold": true
                                }
                            },
                            {
                                "type": "text",
                                "text": " you’d like to share during our "
                            },
                            {
                                "type": "text",
                                "text": "Global Community call happening in 1 hour! ",
                                "style": {
                                    "bold": true
                                }
                            },
                            {
                                "type": "link",
                                "url": "https:\/\/us02web.zoom.us\/j\/7804345815",
                                "style": {
                                    "bold": true
                                }
                            },
                            {
                                "type": "text",
                                "text": "\nThanks a lot and take care "
                            },
                            {
                                "type": "emoji",
                                "name": "raised_hands"
                            },
                            {
                                "type": "text",
                                "text": "\n\n "
                            },
                            {
                                "type": "emoji",
                                "name": "point_right"
                            },
                            {
                                "type": "text",
                                "text": " "
                            },
                            {
                                "type": "link",
                                "url": "https:\/\/docs.google.com\/document\/d\/14wSi_AG7mduWY3IrkUGpUdFJAB-Dnxrh5RmFuxTt2D0\/edit"
                            }
                        ]
                    }
                ]
            }
        ],
        "user": "UV9V03C8Y",
        "display_as_bot": false,
        "x_files": [
            "F01357PU350"
        ],
        "ts": "1588776769.379100",
        "edited": {
            "user": "UV9V03C8Y",
            "ts": "1588776864.000000"
        },
        "client_msg_id": "b6610aca-abb6-4896-ad5d-310198a7acb2"
    },
    {
        "type": "message",
        "subtype": "channel_join",
        "ts": "1588777092.381700",
        "user": "U01359A5LCA",
        "text": "<@U01359A5LCA> has joined the channel",
        "inviter": "UV9V03C8Y"
    },
    {
        "type": "message",
        "subtype": "channel_join",
        "ts": "1588777093.382000",
        "user": "U0133SXG9M3",
        "text": "<@U0133SXG9M3> has joined the channel",
        "inviter": "UV9V03C8Y"
    },
    {
        "client_msg_id": "d520c6be-db9f-46ce-9e06-40b5badfdcd8",
        "type": "message",
        "text": "is anyone here experienced\/working with paper based microfluidics for diagnostic device design?",
        "user": "U010WKVUFFY",
        "ts": "1588781524.383100",
        "team": "TUU48M0T1",
        "user_team": "TUU48M0T1",
        "source_team": "TUU48M0T1",
        "user_profile": {
            "avatar_hash": "gf0c9e06eebd",
            "image_72": "https:\/\/secure.gravatar.com\/avatar\/f0c9e06eebd0184ffae109da36b04f9d.jpg?s=72&d=https%3A%2F%2Fa.slack-edge.com%2Fdf10d%2Fimg%2Favatars%2Fava_0024-72.png",
            "first_name": "",
            "real_name": "Nicholas Crudele",
            "display_name": "Nicholas Crudele",
            "team": "TUU48M0T1",
            "name": "nicoharacrudele4",
            "is_restricted": false,
            "is_ultra_restricted": false
        },
        "blocks": [
            {
                "type": "rich_text",
                "block_id": "ifoaW",
                "elements": [
                    {
                        "type": "rich_text_section",
                        "elements": [
                            {
                                "type": "text",
                                "text": "is anyone here experienced\/working with paper based microfluidics for diagnostic device design?"
                            }
                        ]
                    }
                ]
            }
        ],
        "thread_ts": "1588781524.383100",
        "reply_count": 2,
        "reply_users_count": 2,
        "latest_reply": "1588790507.384100",
        "reply_users": [
            "UV9V03C8Y",
            "U012XSSRE82"
        ],
        "replies": [
            {
                "user": "UV9V03C8Y",
                "ts": "1588781669.383200"
            },
            {
                "user": "U012XSSRE82",
                "ts": "1588790507.384100"
            }
        ],
        "subscribed": false
    },
    {
        "client_msg_id": "2c0cff2b-a34f-461e-b200-13f4e2f782db",
        "type": "message",
        "text": "<@U012XSSRE82>?",
        "user": "UV9V03C8Y",
        "ts": "1588781669.383200",
        "team": "TUU48M0T1",
        "user_team": "TUU48M0T1",
        "source_team": "TUU48M0T1",
        "user_profile": {
            "avatar_hash": "177697fb7b8f",
            "image_72": "https:\/\/avatars.slack-edge.com\/2020-03-12\/996126178096_177697fb7b8ffa57649c_72.jpg",
            "first_name": "Camille",
            "real_name": "Camille Masselot - JOGL Program coordinator",
            "display_name": "Camille Masselot - JOGL coordinator",
            "team": "TUU48M0T1",
            "name": "masselot.camille",
            "is_restricted": false,
            "is_ultra_restricted": false
        },
        "blocks": [
            {
                "type": "rich_text",
                "block_id": "D8b6",
                "elements": [
                    {
                        "type": "rich_text_section",
                        "elements": [
                            {
                                "type": "user",
                                "user_id": "U012XSSRE82"
                            },
                            {
                                "type": "text",
                                "text": "?"
                            }
                        ]
                    }
                ]
            }
        ],
        "thread_ts": "1588781524.383100",
        "parent_user_id": "U010WKVUFFY"
    },
    {
        "client_msg_id": "02b39054-b9a5-407b-ba17-4bc839a02efa",
        "type": "message",
        "text": "<https:\/\/www.masslifesciences.com\/programs\/massachusetts-achievement-program\/|https:\/\/www.masslifesciences.com\/programs\/massachusetts-achievement-program\/>",
        "user": "U0133SXG9M3",
        "ts": "1588789896.383900",
        "team": "TUU48M0T1",
        "user_team": "TUU48M0T1",
        "source_team": "TUU48M0T1",
        "user_profile": {
            "avatar_hash": "def3bdacc609",
            "image_72": "https:\/\/avatars.slack-edge.com\/2020-05-06\/1131136446112_def3bdacc609ea5f4773_72.png",
            "first_name": "Adelaide",
            "real_name": "Adelaide Rhodes",
            "display_name": "Adelaide",
            "team": "TUU48M0T1",
            "name": "adelaide.rhodes",
            "is_restricted": false,
            "is_ultra_restricted": false
        },
        "attachments": [
            {
                "service_name": "MLSC",
                "title": "Milestone Achievement Program - MLSC",
                "title_link": "https:\/\/www.masslifesciences.com\/programs\/massachusetts-achievement-program\/",
                "text": "Program Overview The Milestone Achievement Program (MAP) was designed to address the needs of early-stage life sciences companies by providing grant funding to execute critical, value-creating technical milestones. This program...",
                "fallback": "MLSC: Milestone Achievement Program - MLSC",
                "image_url": "https:\/\/www.masslifesciences.com\/wp-content\/uploads\/2018\/12\/Catalyzing-Success-and-Growth1.png",
                "image_width": 743,
                "image_height": 250,
                "from_url": "https:\/\/www.masslifesciences.com\/programs\/massachusetts-achievement-program\/",
                "image_bytes": 202608,
                "service_icon": "https:\/\/www.masslifesciences.com\/favicon.ico",
                "id": 1,
                "original_url": "https:\/\/www.masslifesciences.com\/programs\/massachusetts-achievement-program\/"
            }
        ],
        "blocks": [
            {
                "type": "rich_text",
                "block_id": "W8lco",
                "elements": [
                    {
                        "type": "rich_text_section",
                        "elements": [
                            {
                                "type": "link",
                                "url": "https:\/\/www.masslifesciences.com\/programs\/massachusetts-achievement-program\/",
                                "text": "https:\/\/www.masslifesciences.com\/programs\/massachusetts-achievement-program\/"
                            }
                        ]
                    }
                ]
            }
        ]
    },
    {
        "client_msg_id": "cdfc0033-4ad3-4d60-a3fe-b5a72564d50a",
        "type": "message",
        "text": "I have primarily worked with channel-based microfluidics made out of thermoplastics, though I am a little familiar with the literature about paper-based approaches.  <@U01359A5LCA> might also have some more experience with paper diagnostics.",
        "user": "U012XSSRE82",
        "ts": "1588790507.384100",
        "team": "TUU48M0T1",
        "user_team": "TUU48M0T1",
        "source_team": "TUU48M0T1",
        "user_profile": {
            "avatar_hash": "1226917d7ee4",
            "image_72": "https:\/\/avatars.slack-edge.com\/2020-05-04\/1102977587586_1226917d7ee4551426ba_72.jpg",
            "first_name": "Aaron",
            "real_name": "Aaron Glieberman",
            "display_name": "Aaron Glieberman",
            "team": "TUU48M0T1",
            "name": "aaron.glieberman",
            "is_restricted": false,
            "is_ultra_restricted": false
        },
        "blocks": [
            {
                "type": "rich_text",
                "block_id": "9MJ",
                "elements": [
                    {
                        "type": "rich_text_section",
                        "elements": [
                            {
                                "type": "text",
                                "text": "I have primarily worked with channel-based microfluidics made out of thermoplastics, though I am a little familiar with the literature about paper-based approaches.  "
                            },
                            {
                                "type": "user",
                                "user_id": "U01359A5LCA"
                            },
                            {
                                "type": "text",
                                "text": " might also have some more experience with paper diagnostics."
                            }
                        ]
                    }
                ]
            }
        ],
        "thread_ts": "1588781524.383100",
        "parent_user_id": "U010WKVUFFY"
    }
]