[
    {
        "client_msg_id": "5d42015e-b958-455c-aeb4-ce8fa72947ed",
        "type": "message",
        "text": "<https:\/\/www.statnews.com\/2020\/04\/07\/new-research-wastewater-community-spread-covid-19\/>",
        "user": "U011B5424FR",
        "ts": "1588259772.369800",
        "team": "TUU48M0T1",
        "user_team": "TUU48M0T1",
        "source_team": "TUU48M0T1",
        "user_profile": {
            "avatar_hash": "eb7c0d044867",
            "image_72": "https:\/\/avatars.slack-edge.com\/2020-04-05\/1054431511504_eb7c0d044867df386504_72.jpg",
            "first_name": "Aravinth",
            "real_name": "Aravinth Panch",
            "display_name": "Ara - DreamSpace Academy - SLINTEC - Sri Lanka",
            "team": "TUU48M0T1",
            "name": "me1435",
            "is_restricted": false,
            "is_ultra_restricted": false
        },
        "attachments": [
            {
                "service_name": "STAT",
                "title": "New research looks at wastewater to detect community spread of Covid-19",
                "title_link": "https:\/\/www.statnews.com\/2020\/04\/07\/new-research-wastewater-community-spread-covid-19\/",
                "text": "The idea to begin testing wastewater for SARS-CoV-2 emerged after recent research revealed that virus particles could be shed through stool.",
                "fallback": "STAT: New research looks at wastewater to detect community spread of Covid-19",
                "image_url": "https:\/\/www.statnews.com\/wp-content\/uploads\/2020\/04\/AdobeStock_274905875-1024x576.jpeg",
                "image_width": 444,
                "image_height": 250,
                "ts": 1586286917,
                "from_url": "https:\/\/www.statnews.com\/2020\/04\/07\/new-research-wastewater-community-spread-covid-19\/",
                "image_bytes": 186046,
                "service_icon": "https:\/\/www.statnews.com\/wp-content\/uploads\/2015\/10\/cropped-stat-logo-teal-328x328.png",
                "id": 1,
                "original_url": "https:\/\/www.statnews.com\/2020\/04\/07\/new-research-wastewater-community-spread-covid-19\/"
            }
        ],
        "blocks": [
            {
                "type": "rich_text",
                "block_id": "baTW",
                "elements": [
                    {
                        "type": "rich_text_section",
                        "elements": [
                            {
                                "type": "link",
                                "url": "https:\/\/www.statnews.com\/2020\/04\/07\/new-research-wastewater-community-spread-covid-19\/"
                            }
                        ]
                    }
                ]
            }
        ]
    },
    {
        "client_msg_id": "21445f20-463d-4890-a457-ac59d348efea",
        "type": "message",
        "text": "Receptors for SARS-CoV-2 Present in Wide Variety of Human Cells: <https:\/\/www.the-scientist.com\/news-opinion\/receptors-for-sars-cov-2-present-in-wide-variety-of-human-cells-67496>",
        "user": "U010QHBTBPY",
        "ts": "1588266016.370500",
        "team": "TUU48M0T1",
        "user_team": "TUU48M0T1",
        "source_team": "TUU48M0T1",
        "user_profile": {
            "avatar_hash": "g4e30c4af69a",
            "image_72": "https:\/\/secure.gravatar.com\/avatar\/4e30c4af69a6429e53cd9cce9da9f65c.jpg?s=72&d=https%3A%2F%2Fa.slack-edge.com%2Fdf10d%2Fimg%2Favatars%2Fava_0015-72.png",
            "first_name": "",
            "real_name": "osn_scott",
            "display_name": "osn_scott",
            "team": "TUU48M0T1",
            "name": "scott527",
            "is_restricted": false,
            "is_ultra_restricted": false
        },
        "attachments": [
            {
                "service_name": "The Scientist Magazine®",
                "title": "Receptors for SARS-CoV-2 Present in Wide Variety of Human Cells",
                "title_link": "https:\/\/www.the-scientist.com\/news-opinion\/receptors-for-sars-cov-2-present-in-wide-variety-of-human-cells-67496",
                "text": "Analyses from single-cell sequencing datasets support the idea that COVID-19 is not just a respiratory disease but an illness that can affect multiple organs.",
                "fallback": "The Scientist Magazine®: Receptors for SARS-CoV-2 Present in Wide Variety of Human Cells",
                "image_url": "https:\/\/cdn.the-scientist.com\/assets\/articleNo\/67496\/aImg\/37591\/ace2-thumb-m.png",
                "from_url": "https:\/\/www.the-scientist.com\/news-opinion\/receptors-for-sars-cov-2-present-in-wide-variety-of-human-cells-67496",
                "image_width": 358,
                "image_height": 250,
                "image_bytes": 272385,
                "service_icon": "https:\/\/www.the-scientist.com\/favicon.png",
                "id": 1,
                "original_url": "https:\/\/www.the-scientist.com\/news-opinion\/receptors-for-sars-cov-2-present-in-wide-variety-of-human-cells-67496"
            }
        ],
        "blocks": [
            {
                "type": "rich_text",
                "block_id": "qKK",
                "elements": [
                    {
                        "type": "rich_text_section",
                        "elements": [
                            {
                                "type": "text",
                                "text": "Receptors for SARS-CoV-2 Present in Wide Variety of Human Cells: "
                            },
                            {
                                "type": "link",
                                "url": "https:\/\/www.the-scientist.com\/news-opinion\/receptors-for-sars-cov-2-present-in-wide-variety-of-human-cells-67496"
                            }
                        ]
                    }
                ]
            }
        ],
        "reactions": [
            {
                "name": "+1",
                "users": [
                    "U010W2Z4MMZ"
                ],
                "count": 1
            }
        ]
    },
    {
        "client_msg_id": "963588ff-1a45-470b-bee0-c470f15c72b3",
        "type": "message",
        "text": "The Ginkgo Bioworks plasmids are now available on <http:\/\/Addgene.org|Addgene.org> under the OpenMTA. This might be a quicker way to get specific plasmids (at a price) then waiting for FreeGenes to ramp up distribution. <http:\/\/www.addgene.org\/depositor-collections\/ginkgobioworks-covid-19\/>",
        "user": "U010QHBTBPY",
        "ts": "1588269302.372300",
        "team": "TUU48M0T1",
        "user_team": "TUU48M0T1",
        "source_team": "TUU48M0T1",
        "user_profile": {
            "avatar_hash": "g4e30c4af69a",
            "image_72": "https:\/\/secure.gravatar.com\/avatar\/4e30c4af69a6429e53cd9cce9da9f65c.jpg?s=72&d=https%3A%2F%2Fa.slack-edge.com%2Fdf10d%2Fimg%2Favatars%2Fava_0015-72.png",
            "first_name": "",
            "real_name": "osn_scott",
            "display_name": "osn_scott",
            "team": "TUU48M0T1",
            "name": "scott527",
            "is_restricted": false,
            "is_ultra_restricted": false
        },
        "blocks": [
            {
                "type": "rich_text",
                "block_id": "ov\/OE",
                "elements": [
                    {
                        "type": "rich_text_section",
                        "elements": [
                            {
                                "type": "text",
                                "text": "The Ginkgo Bioworks plasmids are now available on "
                            },
                            {
                                "type": "link",
                                "url": "http:\/\/Addgene.org",
                                "text": "Addgene.org"
                            },
                            {
                                "type": "text",
                                "text": " under the OpenMTA. This might be a quicker way to get specific plasmids (at a price) then waiting for FreeGenes to ramp up distribution. "
                            },
                            {
                                "type": "link",
                                "url": "http:\/\/www.addgene.org\/depositor-collections\/ginkgobioworks-covid-19\/"
                            }
                        ]
                    }
                ]
            }
        ],
        "thread_ts": "1588269302.372300",
        "reply_count": 2,
        "reply_users_count": 2,
        "latest_reply": "1589161453.389400",
        "reply_users": [
            "UV10KBUQG",
            "U010QHBTBPY"
        ],
        "replies": [
            {
                "user": "UV10KBUQG",
                "ts": "1589150253.389100"
            },
            {
                "user": "U010QHBTBPY",
                "ts": "1589161453.389400"
            }
        ],
        "subscribed": false,
        "reactions": [
            {
                "name": "+1",
                "users": [
                    "UV02WET96",
                    "U012JRY6Q4A",
                    "UV3URUKK5",
                    "UV1A22N3W"
                ],
                "count": 4
            }
        ]
    },
    {
        "client_msg_id": "43da5749-77f4-4114-a05c-7df16bf415e6",
        "type": "message",
        "text": "Since it is under the OpenMTA you can share with others so people could crowdfund and distribute if there are specific plasmids people collectively want.",
        "user": "U010QHBTBPY",
        "ts": "1588269363.373500",
        "team": "TUU48M0T1",
        "user_team": "TUU48M0T1",
        "source_team": "TUU48M0T1",
        "user_profile": {
            "avatar_hash": "g4e30c4af69a",
            "image_72": "https:\/\/secure.gravatar.com\/avatar\/4e30c4af69a6429e53cd9cce9da9f65c.jpg?s=72&d=https%3A%2F%2Fa.slack-edge.com%2Fdf10d%2Fimg%2Favatars%2Fava_0015-72.png",
            "first_name": "",
            "real_name": "osn_scott",
            "display_name": "osn_scott",
            "team": "TUU48M0T1",
            "name": "scott527",
            "is_restricted": false,
            "is_ultra_restricted": false
        },
        "blocks": [
            {
                "type": "rich_text",
                "block_id": "y0Wp",
                "elements": [
                    {
                        "type": "rich_text_section",
                        "elements": [
                            {
                                "type": "text",
                                "text": "Since it is under the OpenMTA you can share with others so people could crowdfund and distribute if there are specific plasmids people collectively want."
                            }
                        ]
                    }
                ]
            }
        ],
        "reactions": [
            {
                "name": "+1",
                "users": [
                    "U010W2Z4MMZ",
                    "UV1A22N3W"
                ],
                "count": 2
            }
        ]
    }
]