[
    {
        "client_msg_id": "22bec7e1-ade6-4679-8f60-0d380e9b9c06",
        "type": "message",
        "text": "Hi, I just found this on twitter, I wondered if it might be any use? <https:\/\/www.opencell.bio\/coronavirus> Sorry if it's already been posted elsewhere.",
        "user": "U01016B7KPY",
        "ts": "1584611486.077200",
        "team": "TUU48M0T1",
        "user_team": "TUU48M0T1",
        "source_team": "TUU48M0T1",
        "user_profile": {
            "avatar_hash": "9a7d8bed69ad",
            "image_72": "https:\/\/avatars.slack-edge.com\/2020-03-13\/1001221150774_9a7d8bed69ad082201d0_72.jpg",
            "first_name": "",
            "real_name": "Jennifer Deegan",
            "display_name": "Jennifer Deegan",
            "team": "TUU48M0T1",
            "name": "jendeegan",
            "is_restricted": false,
            "is_ultra_restricted": false
        },
        "attachments": [
            {
                "title": "Coronavirus",
                "title_link": "https:\/\/www.opencell.bio\/coronavirus",
                "text": "CoVid-19 testing rate of &gt;10K tests\/day using lab automation infrastructure. Coronavirus testing support for London and United Kingdom",
                "fallback": "Coronavirus",
                "thumb_url": "https:\/\/uploads-ssl.webflow.com\/5beda5244920652be0723efa\/5e6907cb883db4b365e200d6_seocorona.jpg",
                "from_url": "https:\/\/www.opencell.bio\/coronavirus",
                "thumb_width": 793,
                "thumb_height": 370,
                "service_name": "opencell.bio",
                "id": 1,
                "original_url": "https:\/\/www.opencell.bio\/coronavirus"
            }
        ],
        "blocks": [
            {
                "type": "rich_text",
                "block_id": "7f15\/",
                "elements": [
                    {
                        "type": "rich_text_section",
                        "elements": [
                            {
                                "type": "text",
                                "text": "Hi, I just found this on twitter, I wondered if it might be any use? "
                            },
                            {
                                "type": "link",
                                "url": "https:\/\/www.opencell.bio\/coronavirus"
                            },
                            {
                                "type": "text",
                                "text": " Sorry if it's already been posted elsewhere."
                            }
                        ]
                    }
                ]
            }
        ],
        "reactions": [
            {
                "name": "+1",
                "users": [
                    "U010BM4M81M",
                    "U0103128G4D"
                ],
                "count": 2
            }
        ]
    },
    {
        "client_msg_id": "57c18414-e36b-4b48-82b0-5b2da676b63f",
        "type": "message",
        "text": "Hi, I have started a separate channel on mass spectrometry based detection, please feel free to join, I will update it more in the next few days. If you have any questions about mass spectrometry and if it can help you in quicker analysis, please ask, would be happy to help out. The channel is prgm massspecdetection",
        "user": "UVA46RKLY",
        "ts": "1584613935.082000",
        "team": "TUU48M0T1",
        "user_team": "TUU48M0T1",
        "source_team": "TUU48M0T1",
        "user_profile": {
            "avatar_hash": "8d10ec5a9437",
            "image_72": "https:\/\/avatars.slack-edge.com\/2020-03-12\/996164491840_8d10ec5a943740f34518_72.jpg",
            "first_name": "Nivedita",
            "real_name": "Nivedita Bhattacharya",
            "display_name": "Nivi",
            "team": "TUU48M0T1",
            "name": "evaladybrave",
            "is_restricted": false,
            "is_ultra_restricted": false
        },
        "blocks": [
            {
                "type": "rich_text",
                "block_id": "yCFd",
                "elements": [
                    {
                        "type": "rich_text_section",
                        "elements": [
                            {
                                "type": "text",
                                "text": "Hi, I have started a separate channel on mass spectrometry based detection, please feel free to join, I will update it more in the next few days. If you have any questions about mass spectrometry and if it can help you in quicker analysis, please ask, would be happy to help out. The channel is prgm massspecdetection"
                            }
                        ]
                    }
                ]
            }
        ]
    },
    {
        "client_msg_id": "87992521-c8a0-460e-8c74-866d853bd58e",
        "type": "message",
        "text": "and big Pharma is back <https:\/\/fortune.com\/2020\/03\/13\/coronavirus-test-roche-covid-19\/>",
        "user": "UV18Y0Q1Y",
        "ts": "1584627150.083300",
        "team": "TUU48M0T1",
        "user_team": "TUU48M0T1",
        "source_team": "TUU48M0T1",
        "user_profile": {
            "avatar_hash": "ab7e379b5648",
            "image_72": "https:\/\/avatars.slack-edge.com\/2020-03-16\/991446609699_ab7e379b5648a9ac0566_72.jpg",
            "first_name": "",
            "real_name": "Alecrimi",
            "display_name": "Alecrimi",
            "team": "TUU48M0T1",
            "name": "alecrimi",
            "is_restricted": false,
            "is_ultra_restricted": false
        },
        "attachments": [
            {
                "service_name": "Fortune",
                "title": "How Roche's new coronavirus test sped its way to FDA authorization",
                "title_link": "https:\/\/fortune.com\/2020\/03\/13\/coronavirus-test-roche-covid-19\/",
                "text": "Roche has the first commercially available diagnostic test to treat coronavirus and COVID-19. Here's how that happened.",
                "fallback": "Fortune: How Roche's new coronavirus test sped its way to FDA authorization",
                "image_url": "https:\/\/content.fortune.com\/wp-content\/uploads\/2020\/03\/GettyImages-1206570416-e1584132437538.jpg?resize=1200,600",
                "from_url": "https:\/\/fortune.com\/2020\/03\/13\/coronavirus-test-roche-covid-19\/",
                "image_width": 500,
                "image_height": 250,
                "image_bytes": 60712,
                "id": 1,
                "original_url": "https:\/\/fortune.com\/2020\/03\/13\/coronavirus-test-roche-covid-19\/"
            }
        ],
        "blocks": [
            {
                "type": "rich_text",
                "block_id": "d0I",
                "elements": [
                    {
                        "type": "rich_text_section",
                        "elements": [
                            {
                                "type": "text",
                                "text": "and big Pharma is back "
                            },
                            {
                                "type": "link",
                                "url": "https:\/\/fortune.com\/2020\/03\/13\/coronavirus-test-roche-covid-19\/"
                            }
                        ]
                    }
                ]
            }
        ]
    },
    {
        "client_msg_id": "cfe1fbbd-1555-40c9-b812-44b9c6805fc0",
        "type": "message",
        "text": "thoug they say \"PCR chain\", I don't think it is CRISPR, LAMP or similar stuff",
        "user": "UV18Y0Q1Y",
        "ts": "1584627209.084000",
        "team": "TUU48M0T1",
        "user_team": "TUU48M0T1",
        "source_team": "TUU48M0T1",
        "user_profile": {
            "avatar_hash": "ab7e379b5648",
            "image_72": "https:\/\/avatars.slack-edge.com\/2020-03-16\/991446609699_ab7e379b5648a9ac0566_72.jpg",
            "first_name": "",
            "real_name": "Alecrimi",
            "display_name": "Alecrimi",
            "team": "TUU48M0T1",
            "name": "alecrimi",
            "is_restricted": false,
            "is_ultra_restricted": false
        },
        "blocks": [
            {
                "type": "rich_text",
                "block_id": "jQui",
                "elements": [
                    {
                        "type": "rich_text_section",
                        "elements": [
                            {
                                "type": "text",
                                "text": "thoug they say \"PCR chain\", I don't think it is CRISPR, LAMP or similar stuff"
                            }
                        ]
                    }
                ]
            }
        ]
    },
    {
        "client_msg_id": "1a444691-961b-4569-bd0f-4cb1ef6d20d3",
        "type": "message",
        "text": "There's been some discussion in <#CUNGN9LAE|research> about trying simpler RNA extraction. Who's working on that? Has anyone tried just adding sample-resuspended VTM directly to the RT-PCR?",
        "user": "UVBQDE7R8",
        "ts": "1584635755.086300",
        "team": "TUU48M0T1",
        "user_team": "TUU48M0T1",
        "source_team": "TUU48M0T1",
        "user_profile": {
            "avatar_hash": "gb77d2e5c821",
            "image_72": "https:\/\/secure.gravatar.com\/avatar\/b77d2e5c8214c9643410000e998ef9f4.jpg?s=72&d=https%3A%2F%2Fa.slack-edge.com%2Fdf10d%2Fimg%2Favatars%2Fava_0018-72.png",
            "first_name": "",
            "real_name": "Darach",
            "display_name": "Darach",
            "team": "TUU48M0T1",
            "name": "dchmiller",
            "is_restricted": false,
            "is_ultra_restricted": false
        },
        "blocks": [
            {
                "type": "rich_text",
                "block_id": "DZD",
                "elements": [
                    {
                        "type": "rich_text_section",
                        "elements": [
                            {
                                "type": "text",
                                "text": "There's been some discussion in "
                            },
                            {
                                "type": "channel",
                                "channel_id": "CUNGN9LAE"
                            },
                            {
                                "type": "text",
                                "text": " about trying simpler RNA extraction. Who's working on that? Has anyone tried just adding sample-resuspended VTM directly to the RT-PCR?"
                            }
                        ]
                    }
                ]
            }
        ],
        "thread_ts": "1584635755.086300",
        "reply_count": 25,
        "reply_users_count": 6,
        "latest_reply": "1584651323.096500",
        "reply_users": [
            "UVBQDE7R8",
            "UVALZTQ58",
            "U0103128G4D",
            "U0103U82Q2K",
            "U010D9EGSTH",
            "UV7LUJG1Y"
        ],
        "replies": [
            {
                "user": "UVBQDE7R8",
                "ts": "1584635856.086400"
            },
            {
                "user": "UVBQDE7R8",
                "ts": "1584635863.086600"
            },
            {
                "user": "UVBQDE7R8",
                "ts": "1584635888.086800"
            },
            {
                "user": "UVBQDE7R8",
                "ts": "1584636241.087000"
            },
            {
                "user": "UVALZTQ58",
                "ts": "1584640511.087600"
            },
            {
                "user": "U0103128G4D",
                "ts": "1584642646.090400"
            },
            {
                "user": "U0103128G4D",
                "ts": "1584642662.090700"
            },
            {
                "user": "U0103128G4D",
                "ts": "1584642670.090900"
            },
            {
                "user": "UVBQDE7R8",
                "ts": "1584642891.091200"
            },
            {
                "user": "UVBQDE7R8",
                "ts": "1584642946.091400"
            },
            {
                "user": "UVALZTQ58",
                "ts": "1584645619.092400"
            },
            {
                "user": "UVBQDE7R8",
                "ts": "1584645766.092700"
            },
            {
                "user": "U0103U82Q2K",
                "ts": "1584646149.093000"
            },
            {
                "user": "UVALZTQ58",
                "ts": "1584646459.093200"
            },
            {
                "user": "U010D9EGSTH",
                "ts": "1584646738.093700"
            },
            {
                "user": "U010D9EGSTH",
                "ts": "1584646852.093900"
            },
            {
                "user": "U010D9EGSTH",
                "ts": "1584646881.094100"
            },
            {
                "user": "U010D9EGSTH",
                "ts": "1584647080.094300"
            },
            {
                "user": "UVBQDE7R8",
                "ts": "1584647436.094500"
            },
            {
                "user": "U010D9EGSTH",
                "ts": "1584647473.094700"
            },
            {
                "user": "U010D9EGSTH",
                "ts": "1584647529.094900"
            },
            {
                "user": "U010D9EGSTH",
                "ts": "1584647595.095100"
            },
            {
                "user": "U010D9EGSTH",
                "ts": "1584647671.095300"
            },
            {
                "user": "UVBQDE7R8",
                "ts": "1584648251.096000"
            },
            {
                "user": "UV7LUJG1Y",
                "ts": "1584651323.096500"
            }
        ],
        "subscribed": false
    },
    {
        "client_msg_id": "8bfe2491-f19c-4901-9fdc-b047b734a646",
        "type": "message",
        "text": "A protocol from China reports doing inactivation at 56C for 30min, which may very well lyse this bug. Does it lyse the positive control target from human cells?",
        "user": "UVBQDE7R8",
        "ts": "1584635856.086400",
        "team": "TUU48M0T1",
        "user_team": "TUU48M0T1",
        "source_team": "TUU48M0T1",
        "user_profile": {
            "avatar_hash": "gb77d2e5c821",
            "image_72": "https:\/\/secure.gravatar.com\/avatar\/b77d2e5c8214c9643410000e998ef9f4.jpg?s=72&d=https%3A%2F%2Fa.slack-edge.com%2Fdf10d%2Fimg%2Favatars%2Fava_0018-72.png",
            "first_name": "",
            "real_name": "Darach",
            "display_name": "Darach",
            "team": "TUU48M0T1",
            "name": "dchmiller",
            "is_restricted": false,
            "is_ultra_restricted": false
        },
        "blocks": [
            {
                "type": "rich_text",
                "block_id": "Oce",
                "elements": [
                    {
                        "type": "rich_text_section",
                        "elements": [
                            {
                                "type": "text",
                                "text": "A protocol from China reports doing inactivation at 56C for 30min, which may very well lyse this bug. Does it lyse the positive control target from human cells?"
                            }
                        ]
                    }
                ]
            }
        ],
        "thread_ts": "1584635755.086300",
        "parent_user_id": "UVBQDE7R8"
    },
    {
        "client_msg_id": "c3504e08-ca08-4391-9060-ee36e95fd67d",
        "type": "message",
        "text": "Also, cellulose\/filter-paper dipsticks were posted as one way of purifying RNA from lysate, and I'd like to know if cellulose beads would work with an automated setup.",
        "user": "UVBQDE7R8",
        "ts": "1584635863.086600",
        "team": "TUU48M0T1",
        "user_team": "TUU48M0T1",
        "source_team": "TUU48M0T1",
        "user_profile": {
            "avatar_hash": "gb77d2e5c821",
            "image_72": "https:\/\/secure.gravatar.com\/avatar\/b77d2e5c8214c9643410000e998ef9f4.jpg?s=72&d=https%3A%2F%2Fa.slack-edge.com%2Fdf10d%2Fimg%2Favatars%2Fava_0018-72.png",
            "first_name": "",
            "real_name": "Darach",
            "display_name": "Darach",
            "team": "TUU48M0T1",
            "name": "dchmiller",
            "is_restricted": false,
            "is_ultra_restricted": false
        },
        "blocks": [
            {
                "type": "rich_text",
                "block_id": "itIqK",
                "elements": [
                    {
                        "type": "rich_text_section",
                        "elements": [
                            {
                                "type": "text",
                                "text": "Also, cellulose\/filter-paper dipsticks were posted as one way of purifying RNA from lysate, and I'd like to know if cellulose beads would work with an automated setup."
                            }
                        ]
                    }
                ]
            }
        ],
        "thread_ts": "1584635755.086300",
        "parent_user_id": "UVBQDE7R8"
    },
    {
        "client_msg_id": "882daa5c-fd2c-4589-ad00-d39b959f872d",
        "type": "message",
        "text": "RNA extraction is likely upstream of many detection schemes, who's interested in that?",
        "user": "UVBQDE7R8",
        "ts": "1584635888.086800",
        "team": "TUU48M0T1",
        "user_team": "TUU48M0T1",
        "source_team": "TUU48M0T1",
        "user_profile": {
            "avatar_hash": "gb77d2e5c821",
            "image_72": "https:\/\/secure.gravatar.com\/avatar\/b77d2e5c8214c9643410000e998ef9f4.jpg?s=72&d=https%3A%2F%2Fa.slack-edge.com%2Fdf10d%2Fimg%2Favatars%2Fava_0018-72.png",
            "first_name": "",
            "real_name": "Darach",
            "display_name": "Darach",
            "team": "TUU48M0T1",
            "name": "dchmiller",
            "is_restricted": false,
            "is_ultra_restricted": false
        },
        "blocks": [
            {
                "type": "rich_text",
                "block_id": "uuMvE",
                "elements": [
                    {
                        "type": "rich_text_section",
                        "elements": [
                            {
                                "type": "text",
                                "text": "RNA extraction is likely upstream of many detection schemes, who's interested in that?"
                            }
                        ]
                    }
                ]
            }
        ],
        "thread_ts": "1584635755.086300",
        "parent_user_id": "UVBQDE7R8",
        "reactions": [
            {
                "name": "eyes",
                "users": [
                    "U0100GM9S83"
                ],
                "count": 1
            }
        ]
    },
    {
        "client_msg_id": "f43e3463-7141-47bc-8d74-1c7be0b0c502",
        "type": "message",
        "text": "<@U010D9EGSTH> <@U0100LKUPSR> <@UVALZTQ58> <@UV1A22N3W>",
        "user": "UVBQDE7R8",
        "ts": "1584636241.087000",
        "team": "TUU48M0T1",
        "user_team": "TUU48M0T1",
        "source_team": "TUU48M0T1",
        "user_profile": {
            "avatar_hash": "gb77d2e5c821",
            "image_72": "https:\/\/secure.gravatar.com\/avatar\/b77d2e5c8214c9643410000e998ef9f4.jpg?s=72&d=https%3A%2F%2Fa.slack-edge.com%2Fdf10d%2Fimg%2Favatars%2Fava_0018-72.png",
            "first_name": "",
            "real_name": "Darach",
            "display_name": "Darach",
            "team": "TUU48M0T1",
            "name": "dchmiller",
            "is_restricted": false,
            "is_ultra_restricted": false
        },
        "blocks": [
            {
                "type": "rich_text",
                "block_id": "Q0B",
                "elements": [
                    {
                        "type": "rich_text_section",
                        "elements": [
                            {
                                "type": "user",
                                "user_id": "U010D9EGSTH"
                            },
                            {
                                "type": "text",
                                "text": " "
                            },
                            {
                                "type": "user",
                                "user_id": "U0100LKUPSR"
                            },
                            {
                                "type": "text",
                                "text": " "
                            },
                            {
                                "type": "user",
                                "user_id": "UVALZTQ58"
                            },
                            {
                                "type": "text",
                                "text": " "
                            },
                            {
                                "type": "user",
                                "user_id": "UV1A22N3W"
                            }
                        ]
                    }
                ]
            }
        ],
        "thread_ts": "1584635755.086300",
        "parent_user_id": "UVBQDE7R8"
    },
    {
        "client_msg_id": "cf464866-a68a-40b1-8301-8b90c4eaf95d",
        "type": "message",
        "text": "Hey <@UV0QTJCMT>!  Follow up on this, I’m planning to create a spreadsheet <https:\/\/docs.google.com\/spreadsheets\/d\/1nMlvcGhoVZBj21TEdui_LqanY9l2CsWRrIrVtP2n6q0\/edit#gid=649316981|like this> (just not with bike locks lol which was part of my human-centered design class) linking to several of the other protocols\/methods that were in <https:\/\/docs.google.com\/spreadsheets\/d\/1iUrtiRLAXbJEzl1sxpJkNs5Z89pYgPFiidvYrKQ9Ta4\/edit#gid=0|this spreadsheet>. I think currently the detection team is very large with lots of great ideas, but we kind of are all over the place with different methods, some more organized than others\/clear of the science than others. Would you be able to give me access to the Detection team folder, specifically? I really want to help out with this part as I’m familiar with most of the detection methods to some level but not in detail and this will allow me to explore more of them as well.",
        "user": "U0103128G4D",
        "ts": "1584637517.087300",
        "team": "TUU48M0T1",
        "user_team": "TUU48M0T1",
        "source_team": "TUU48M0T1",
        "user_profile": {
            "avatar_hash": "g76b7a7fcf75",
            "image_72": "https:\/\/secure.gravatar.com\/avatar\/76b7a7fcf754c895c0bf9763dfdebde4.jpg?s=72&d=https%3A%2F%2Fa.slack-edge.com%2Fdf10d%2Fimg%2Favatars%2Fava_0005-72.png",
            "first_name": "",
            "real_name": "Melody Wu",
            "display_name": "Melody Wu",
            "team": "TUU48M0T1",
            "name": "melody_w",
            "is_restricted": false,
            "is_ultra_restricted": false
        },
        "blocks": [
            {
                "type": "rich_text",
                "block_id": "XpBk3",
                "elements": [
                    {
                        "type": "rich_text_section",
                        "elements": [
                            {
                                "type": "text",
                                "text": "Hey "
                            },
                            {
                                "type": "user",
                                "user_id": "UV0QTJCMT"
                            },
                            {
                                "type": "text",
                                "text": "!  Follow up on this, I’m planning to create a spreadsheet "
                            },
                            {
                                "type": "link",
                                "url": "https:\/\/docs.google.com\/spreadsheets\/d\/1nMlvcGhoVZBj21TEdui_LqanY9l2CsWRrIrVtP2n6q0\/edit#gid=649316981",
                                "text": "like this"
                            },
                            {
                                "type": "text",
                                "text": " (just not with bike locks lol which was part of my human-centered design class) linking to several of the other protocols\/methods that were in "
                            },
                            {
                                "type": "link",
                                "url": "https:\/\/docs.google.com\/spreadsheets\/d\/1iUrtiRLAXbJEzl1sxpJkNs5Z89pYgPFiidvYrKQ9Ta4\/edit#gid=0",
                                "text": "this spreadsheet"
                            },
                            {
                                "type": "text",
                                "text": ". I think currently the detection team is very large with lots of great ideas, but we kind of are all over the place with different methods, some more organized than others\/clear of the science than others. Would you be able to give me access to the Detection team folder, specifically? I really want to help out with this part as I’m familiar with most of the detection methods to some level but not in detail and this will allow me to explore more of them as well."
                            }
                        ]
                    }
                ]
            }
        ],
        "thread_ts": "1584564352.067100",
        "parent_user_id": "U0103128G4D"
    },
    {
        "client_msg_id": "efa97d25-43b8-44f0-93fa-b752f6b76e77",
        "type": "message",
        "text": "Definitely interested in exploring and setting up protocols but no lab access :(",
        "user": "UVALZTQ58",
        "ts": "1584640511.087600",
        "team": "TUU48M0T1",
        "user_team": "TUU48M0T1",
        "source_team": "TUU48M0T1",
        "user_profile": {
            "avatar_hash": "68ae03dc29bc",
            "image_72": "https:\/\/avatars.slack-edge.com\/2020-03-19\/1000158389970_68ae03dc29bc6cbe2e2c_72.png",
            "first_name": "",
            "real_name": "Larissa de Clauser",
            "display_name": "Larissa de Clauser",
            "team": "TUU48M0T1",
            "name": "larissa.declauser",
            "is_restricted": false,
            "is_ultra_restricted": false
        },
        "blocks": [
            {
                "type": "rich_text",
                "block_id": "jMF\/",
                "elements": [
                    {
                        "type": "rich_text_section",
                        "elements": [
                            {
                                "type": "text",
                                "text": "Definitely interested in exploring and setting up protocols but no lab access :("
                            }
                        ]
                    }
                ]
            }
        ],
        "thread_ts": "1584635755.086300",
        "parent_user_id": "UVBQDE7R8"
    },
    {
        "client_msg_id": "154ef5e2-740a-4578-8de7-849516664c0b",
        "type": "message",
        "text": "Hey there! Where can we share some new articles on the latest advances on Covid-19 detection and sampling?\nI've been through the detection google doc shared document and not much discussion on sample use, so far...\nCheers,\nPedro",
        "user": "UVCRP3QR0",
        "ts": "1584641626.090300",
        "team": "TUU48M0T1",
        "user_team": "TUU48M0T1",
        "source_team": "TUU48M0T1",
        "user_profile": {
            "avatar_hash": "g1866286bc30",
            "image_72": "https:\/\/secure.gravatar.com\/avatar\/1866286bc3019531aa3b43c6a2bc0a02.jpg?s=72&d=https%3A%2F%2Fa.slack-edge.com%2Fdf10d%2Fimg%2Favatars%2Fava_0004-72.png",
            "first_name": "",
            "real_name": "Pedro Ramos",
            "display_name": "Pedro Ramos",
            "team": "TUU48M0T1",
            "name": "pedroramos9204",
            "is_restricted": false,
            "is_ultra_restricted": false
        },
        "blocks": [
            {
                "type": "rich_text",
                "block_id": "ytAY",
                "elements": [
                    {
                        "type": "rich_text_section",
                        "elements": [
                            {
                                "type": "text",
                                "text": "Hey there! Where can we share some new articles on the latest advances on Covid-19 detection and sampling?\nI've been through the detection google doc shared document and not much discussion on sample use, so far...\nCheers,\nPedro"
                            }
                        ]
                    }
                ]
            }
        ],
        "thread_ts": "1584641626.090300",
        "reply_count": 4,
        "reply_users_count": 3,
        "latest_reply": "1584651654.096900",
        "reply_users": [
            "UVBQDE7R8",
            "UV7LUJG1Y",
            "UVCRP3QR0"
        ],
        "replies": [
            {
                "user": "UVBQDE7R8",
                "ts": "1584642997.091600"
            },
            {
                "user": "UV7LUJG1Y",
                "ts": "1584644821.092200"
            },
            {
                "user": "UVCRP3QR0",
                "ts": "1584651637.096700"
            },
            {
                "user": "UVCRP3QR0",
                "ts": "1584651654.096900"
            }
        ],
        "subscribed": false
    },
    {
        "client_msg_id": "f9409ad7-1a29-4a23-adee-ba6f035c4fd1",
        "type": "message",
        "text": "• <https:\/\/journals.plos.org\/plosbiology\/article?id=10.1371\/journal.pbio.2003916>\n",
        "user": "U0103128G4D",
        "ts": "1584642646.090400",
        "team": "TUU48M0T1",
        "user_team": "TUU48M0T1",
        "source_team": "TUU48M0T1",
        "user_profile": {
            "avatar_hash": "g76b7a7fcf75",
            "image_72": "https:\/\/secure.gravatar.com\/avatar\/76b7a7fcf754c895c0bf9763dfdebde4.jpg?s=72&d=https%3A%2F%2Fa.slack-edge.com%2Fdf10d%2Fimg%2Favatars%2Fava_0005-72.png",
            "first_name": "",
            "real_name": "Melody Wu",
            "display_name": "Melody Wu",
            "team": "TUU48M0T1",
            "name": "melody_w",
            "is_restricted": false,
            "is_ultra_restricted": false
        },
        "attachments": [
            {
                "title": "Nucleic acid purification from plants, animals and microbes in under 30 seconds",
                "title_link": "https:\/\/journals.plos.org\/plosbiology\/article?id=10.1371\/journal.pbio.2003916",
                "text": "Author summary Nucleic acid amplification has proven to be indispensable in laboratories around the world for a myriad of applications from diagnostics to genotyping. The first step in any application aiming to amplify DNA or RNA is the extraction of nucleic acids from a complex biological sample; a task traditionally requiring specialised equipment, trained technicians, and multiple liquid handling steps. It is this complexity of current nucleic acid isolation methods that limit the use of many DNA amplification technologies outside of the modern laboratory environment. Therefore, in this study, we investigated new materials and approaches to simplify nucleic acid extraction. We found that cellulose-based filter paper can be used to rapidly bind nucleic acids, retain them during a short washing step to remove contaminants, and then elute them directly into the amplification reaction. We then adapted the cellulose filter to create a dipstick that can be used to purify nucleic acids from a wide range of plant, animal, and microbe samples in less than 30 seconds without the need for any specialised equipment. The speed and simplicity of our method makes it ideally suited for nucleic acid amplification-based applications both within and outside the laboratory, including limited resource settings such as remote field sites, developing countries, and teaching institutions.",
                "fallback": "Nucleic acid purification from plants, animals and microbes in under 30 seconds",
                "thumb_url": "https:\/\/journals.plos.org\/plosbiology\/article\/figure\/image?id=10.1371\/journal.pbio.2003916.g007&size=inline",
                "from_url": "https:\/\/journals.plos.org\/plosbiology\/article?id=10.1371\/journal.pbio.2003916",
                "thumb_width": 320,
                "thumb_height": 406,
                "service_icon": "https:\/\/journals.plos.org\/plosbiology\/resource\/img\/favicon.ico",
                "service_name": "journals.plos.org",
                "id": 1,
                "original_url": "https:\/\/journals.plos.org\/plosbiology\/article?id=10.1371\/journal.pbio.2003916"
            }
        ],
        "blocks": [
            {
                "type": "rich_text",
                "block_id": "Q8IrX",
                "elements": [
                    {
                        "type": "rich_text_list",
                        "elements": [
                            {
                                "type": "rich_text_section",
                                "elements": [
                                    {
                                        "type": "link",
                                        "url": "https:\/\/journals.plos.org\/plosbiology\/article?id=10.1371\/journal.pbio.2003916"
                                    }
                                ]
                            }
                        ],
                        "style": "bullet",
                        "indent": 0
                    },
                    {
                        "type": "rich_text_section",
                        "elements": []
                    }
                ]
            }
        ],
        "thread_ts": "1584635755.086300",
        "parent_user_id": "UVBQDE7R8"
    },
    {
        "client_msg_id": "7200a474-af07-4194-9437-14f463eb2864",
        "type": "message",
        "text": "this one someone else sent that can do it under 30 seconds?",
        "user": "U0103128G4D",
        "ts": "1584642662.090700",
        "team": "TUU48M0T1",
        "user_team": "TUU48M0T1",
        "source_team": "TUU48M0T1",
        "user_profile": {
            "avatar_hash": "g76b7a7fcf75",
            "image_72": "https:\/\/secure.gravatar.com\/avatar\/76b7a7fcf754c895c0bf9763dfdebde4.jpg?s=72&d=https%3A%2F%2Fa.slack-edge.com%2Fdf10d%2Fimg%2Favatars%2Fava_0005-72.png",
            "first_name": "",
            "real_name": "Melody Wu",
            "display_name": "Melody Wu",
            "team": "TUU48M0T1",
            "name": "melody_w",
            "is_restricted": false,
            "is_ultra_restricted": false
        },
        "blocks": [
            {
                "type": "rich_text",
                "block_id": "BWt",
                "elements": [
                    {
                        "type": "rich_text_section",
                        "elements": [
                            {
                                "type": "text",
                                "text": "this one someone else sent that can do it under 30 seconds?"
                            }
                        ]
                    }
                ]
            }
        ],
        "thread_ts": "1584635755.086300",
        "parent_user_id": "UVBQDE7R8"
    },
    {
        "client_msg_id": "b764b0d2-b66f-4a64-a32f-25e0910c3633",
        "type": "message",
        "text": "my concern is that there’s a detection limit",
        "user": "U0103128G4D",
        "ts": "1584642670.090900",
        "team": "TUU48M0T1",
        "user_team": "TUU48M0T1",
        "source_team": "TUU48M0T1",
        "user_profile": {
            "avatar_hash": "g76b7a7fcf75",
            "image_72": "https:\/\/secure.gravatar.com\/avatar\/76b7a7fcf754c895c0bf9763dfdebde4.jpg?s=72&d=https%3A%2F%2Fa.slack-edge.com%2Fdf10d%2Fimg%2Favatars%2Fava_0005-72.png",
            "first_name": "",
            "real_name": "Melody Wu",
            "display_name": "Melody Wu",
            "team": "TUU48M0T1",
            "name": "melody_w",
            "is_restricted": false,
            "is_ultra_restricted": false
        },
        "blocks": [
            {
                "type": "rich_text",
                "block_id": "Hckna",
                "elements": [
                    {
                        "type": "rich_text_section",
                        "elements": [
                            {
                                "type": "text",
                                "text": "my concern is that there’s a detection limit"
                            }
                        ]
                    }
                ]
            }
        ],
        "thread_ts": "1584635755.086300",
        "parent_user_id": "UVBQDE7R8"
    },
    {
        "client_msg_id": "4387caca-e379-4404-9554-5650753a10f4",
        "type": "message",
        "text": "Yep, I believe Ilya had been excited about that. They've got an idea to affix filter paper onto the end of a set of tips so you can dip that into the extract and washes.\nI'd like to see if you can do the inverse (leave filter in the well, change the buffer), but both could be tried.",
        "user": "UVBQDE7R8",
        "ts": "1584642891.091200",
        "team": "TUU48M0T1",
        "user_team": "TUU48M0T1",
        "source_team": "TUU48M0T1",
        "user_profile": {
            "avatar_hash": "gb77d2e5c821",
            "image_72": "https:\/\/secure.gravatar.com\/avatar\/b77d2e5c8214c9643410000e998ef9f4.jpg?s=72&d=https%3A%2F%2Fa.slack-edge.com%2Fdf10d%2Fimg%2Favatars%2Fava_0018-72.png",
            "first_name": "",
            "real_name": "Darach",
            "display_name": "Darach",
            "team": "TUU48M0T1",
            "name": "dchmiller",
            "is_restricted": false,
            "is_ultra_restricted": false
        },
        "blocks": [
            {
                "type": "rich_text",
                "block_id": "YiO",
                "elements": [
                    {
                        "type": "rich_text_section",
                        "elements": [
                            {
                                "type": "text",
                                "text": "Yep, I believe Ilya had been excited about that. They've got an idea to affix filter paper onto the end of a set of tips so you can dip that into the extract and washes.\nI'd like to see if you can do the inverse (leave filter in the well, change the buffer), but both could be tried."
                            }
                        ]
                    }
                ]
            }
        ],
        "thread_ts": "1584635755.086300",
        "parent_user_id": "UVBQDE7R8"
    },
    {
        "client_msg_id": "3a0d6570-77ff-497c-ab7f-26c958070f02",
        "type": "message",
        "text": "It seems hard to do this on real Covid19 samples. I wonder if there's a model system for RNA virus extraction\/purification that could be used to benchmark\/test the fiddly bits of the protocol before trying it on precious samples?",
        "user": "UVBQDE7R8",
        "ts": "1584642946.091400",
        "team": "TUU48M0T1",
        "user_team": "TUU48M0T1",
        "source_team": "TUU48M0T1",
        "user_profile": {
            "avatar_hash": "gb77d2e5c821",
            "image_72": "https:\/\/secure.gravatar.com\/avatar\/b77d2e5c8214c9643410000e998ef9f4.jpg?s=72&d=https%3A%2F%2Fa.slack-edge.com%2Fdf10d%2Fimg%2Favatars%2Fava_0018-72.png",
            "first_name": "",
            "real_name": "Darach",
            "display_name": "Darach",
            "team": "TUU48M0T1",
            "name": "dchmiller",
            "is_restricted": false,
            "is_ultra_restricted": false
        },
        "blocks": [
            {
                "type": "rich_text",
                "block_id": "AZ8Nw",
                "elements": [
                    {
                        "type": "rich_text_section",
                        "elements": [
                            {
                                "type": "text",
                                "text": "It seems hard to do this on real Covid19 samples. I wonder if there's a model system for RNA virus extraction\/purification that could be used to benchmark\/test the fiddly bits of the protocol before trying it on precious samples?"
                            }
                        ]
                    }
                ]
            }
        ],
        "thread_ts": "1584635755.086300",
        "parent_user_id": "UVBQDE7R8"
    },
    {
        "client_msg_id": "c2108514-fbba-4676-814f-5808415de929",
        "type": "message",
        "text": "I see this going to <#CUNGN9LAE|research> , but I believe focused discussion would be good to have here as well.",
        "user": "UVBQDE7R8",
        "ts": "1584642997.091600",
        "team": "TUU48M0T1",
        "user_team": "TUU48M0T1",
        "source_team": "TUU48M0T1",
        "user_profile": {
            "avatar_hash": "gb77d2e5c821",
            "image_72": "https:\/\/secure.gravatar.com\/avatar\/b77d2e5c8214c9643410000e998ef9f4.jpg?s=72&d=https%3A%2F%2Fa.slack-edge.com%2Fdf10d%2Fimg%2Favatars%2Fava_0018-72.png",
            "first_name": "",
            "real_name": "Darach",
            "display_name": "Darach",
            "team": "TUU48M0T1",
            "name": "dchmiller",
            "is_restricted": false,
            "is_ultra_restricted": false
        },
        "blocks": [
            {
                "type": "rich_text",
                "block_id": "8w=",
                "elements": [
                    {
                        "type": "rich_text_section",
                        "elements": [
                            {
                                "type": "text",
                                "text": "I see this going to "
                            },
                            {
                                "type": "channel",
                                "channel_id": "CUNGN9LAE"
                            },
                            {
                                "type": "text",
                                "text": " , but I believe focused discussion would be good to have here as well."
                            }
                        ]
                    }
                ]
            }
        ],
        "thread_ts": "1584641626.090300",
        "parent_user_id": "UVCRP3QR0"
    },
    {
        "client_msg_id": "6b5a21aa-d1f3-4184-9565-faa8ba4ccabd",
        "type": "message",
        "text": "Do you mean sample prep\/RNA extraction?",
        "user": "UV7LUJG1Y",
        "ts": "1584644821.092200",
        "team": "TUU48M0T1",
        "user_team": "TUU48M0T1",
        "source_team": "TUU48M0T1",
        "user_profile": {
            "avatar_hash": "048307b17644",
            "image_72": "https:\/\/avatars.slack-edge.com\/2020-04-04\/1043242365313_048307b17644844abd87_72.jpg",
            "first_name": "",
            "real_name": "Guy Aidelberg",
            "display_name": "Guy Aidelberg",
            "team": "TUU48M0T1",
            "name": "guyaidelberg",
            "is_restricted": false,
            "is_ultra_restricted": false
        },
        "blocks": [
            {
                "type": "rich_text",
                "block_id": "wZD0",
                "elements": [
                    {
                        "type": "rich_text_section",
                        "elements": [
                            {
                                "type": "text",
                                "text": "Do you mean sample prep\/RNA extraction?"
                            }
                        ]
                    }
                ]
            }
        ],
        "thread_ts": "1584641626.090300",
        "parent_user_id": "UVCRP3QR0"
    },
    {
        "client_msg_id": "ed8aa97e-9dfb-454d-8afb-f08d1ca70682",
        "type": "message",
        "text": "To do it on other coronaviruses a BL-2 is still needed. But maybe we could first test a protocol on a ssRNA+ enveloped plant virus? And as a start we could write up a few basic protocols to test on this?",
        "user": "UVALZTQ58",
        "ts": "1584645619.092400",
        "team": "TUU48M0T1",
        "user_team": "TUU48M0T1",
        "source_team": "TUU48M0T1",
        "user_profile": {
            "avatar_hash": "68ae03dc29bc",
            "image_72": "https:\/\/avatars.slack-edge.com\/2020-03-19\/1000158389970_68ae03dc29bc6cbe2e2c_72.png",
            "first_name": "",
            "real_name": "Larissa de Clauser",
            "display_name": "Larissa de Clauser",
            "team": "TUU48M0T1",
            "name": "larissa.declauser",
            "is_restricted": false,
            "is_ultra_restricted": false
        },
        "blocks": [
            {
                "type": "rich_text",
                "block_id": "xqlBc",
                "elements": [
                    {
                        "type": "rich_text_section",
                        "elements": [
                            {
                                "type": "text",
                                "text": "To do it on other coronaviruses a BL-2 is still needed. But maybe we could first test a protocol on a ssRNA+ enveloped plant virus? And as a start we could write up a few basic protocols to test on this?"
                            }
                        ]
                    }
                ]
            }
        ],
        "thread_ts": "1584635755.086300",
        "parent_user_id": "UVBQDE7R8",
        "reactions": [
            {
                "name": "+1",
                "users": [
                    "UVBQDE7R8",
                    "U0103U82Q2K"
                ],
                "count": 2
            }
        ]
    },
    {
        "client_msg_id": "b1ee7011-16ce-497f-b19b-ca5ba3ebe622",
        "type": "message",
        "text": "Yep, then validate on something on nasal swabs so we can test amplification of human cell RNA positive controls (those are in the assay right?), then get someone to try it on the real samples.",
        "user": "UVBQDE7R8",
        "ts": "1584645766.092700",
        "team": "TUU48M0T1",
        "user_team": "TUU48M0T1",
        "source_team": "TUU48M0T1",
        "user_profile": {
            "avatar_hash": "gb77d2e5c821",
            "image_72": "https:\/\/secure.gravatar.com\/avatar\/b77d2e5c8214c9643410000e998ef9f4.jpg?s=72&d=https%3A%2F%2Fa.slack-edge.com%2Fdf10d%2Fimg%2Favatars%2Fava_0018-72.png",
            "first_name": "",
            "real_name": "Darach",
            "display_name": "Darach",
            "team": "TUU48M0T1",
            "name": "dchmiller",
            "is_restricted": false,
            "is_ultra_restricted": false
        },
        "blocks": [
            {
                "type": "rich_text",
                "block_id": "oqAT",
                "elements": [
                    {
                        "type": "rich_text_section",
                        "elements": [
                            {
                                "type": "text",
                                "text": "Yep, then validate on something on nasal swabs so we can test amplification of human cell RNA positive controls (those are in the assay right?), then get someone to try it on the real samples."
                            }
                        ]
                    }
                ]
            }
        ],
        "thread_ts": "1584635755.086300",
        "parent_user_id": "UVBQDE7R8"
    },
    {
        "client_msg_id": "8da6cb7f-ace4-4782-b1f6-544d530dcd35",
        "type": "message",
        "text": "Very interested in this too",
        "user": "U0103U82Q2K",
        "ts": "1584646149.093000",
        "team": "TUU48M0T1",
        "user_team": "TUU48M0T1",
        "source_team": "TUU48M0T1",
        "user_profile": {
            "avatar_hash": "d8d7c371563d",
            "image_72": "https:\/\/avatars.slack-edge.com\/2020-03-16\/1001674070548_d8d7c371563d80265d01_72.jpg",
            "first_name": "",
            "real_name": "AndrewG",
            "display_name": "AndrewG",
            "team": "TUU48M0T1",
            "name": "andrewg",
            "is_restricted": false,
            "is_ultra_restricted": false
        },
        "blocks": [
            {
                "type": "rich_text",
                "block_id": "yti",
                "elements": [
                    {
                        "type": "rich_text_section",
                        "elements": [
                            {
                                "type": "text",
                                "text": "Very interested in this too"
                            }
                        ]
                    }
                ]
            }
        ],
        "thread_ts": "1584635755.086300",
        "parent_user_id": "UVBQDE7R8",
        "reactions": [
            {
                "name": "+1",
                "users": [
                    "UVBQDE7R8"
                ],
                "count": 1
            }
        ]
    },
    {
        "client_msg_id": "6238ca3a-6d55-4f38-ac78-5c27964af352",
        "type": "message",
        "text": "Yes human cells will be in the swab - so your primers will be specific for the virus but it might be a problem in terms of detection if you have to much contamination from human nucleic acids (for DNA we can simply add a DNAse digestion step, but RNA might be a problem)",
        "user": "UVALZTQ58",
        "ts": "1584646459.093200",
        "team": "TUU48M0T1",
        "user_team": "TUU48M0T1",
        "source_team": "TUU48M0T1",
        "user_profile": {
            "avatar_hash": "68ae03dc29bc",
            "image_72": "https:\/\/avatars.slack-edge.com\/2020-03-19\/1000158389970_68ae03dc29bc6cbe2e2c_72.png",
            "first_name": "",
            "real_name": "Larissa de Clauser",
            "display_name": "Larissa de Clauser",
            "team": "TUU48M0T1",
            "name": "larissa.declauser",
            "is_restricted": false,
            "is_ultra_restricted": false
        },
        "blocks": [
            {
                "type": "rich_text",
                "block_id": "5Gl+",
                "elements": [
                    {
                        "type": "rich_text_section",
                        "elements": [
                            {
                                "type": "text",
                                "text": "Yes human cells will be in the swab - so your primers will be specific for the virus but it might be a problem in terms of detection if you have to much contamination from human nucleic acids (for DNA we can simply add a DNAse digestion step, but RNA might be a problem)"
                            }
                        ]
                    }
                ]
            }
        ],
        "thread_ts": "1584635755.086300",
        "parent_user_id": "UVBQDE7R8",
        "reactions": [
            {
                "name": "thinking_face",
                "users": [
                    "UVBQDE7R8"
                ],
                "count": 1
            },
            {
                "name": "+1",
                "users": [
                    "UVBQDE7R8"
                ],
                "count": 1
            }
        ]
    },
    {
        "client_msg_id": "7346bcef-1f0e-4ad4-8881-6ad958064e3e",
        "type": "message",
        "text": "I think the primers are very gsensitive and specific though so no issue from human nucleic acids in the sample",
        "user": "U010D9EGSTH",
        "ts": "1584646738.093700",
        "team": "TUU48M0T1",
        "user_team": "TUU48M0T1",
        "source_team": "TUU48M0T1",
        "user_profile": {
            "avatar_hash": "gc4df71cbae9",
            "image_72": "https:\/\/secure.gravatar.com\/avatar\/c4df71cbae90ff8819eff196c6ed3edf.jpg?s=72&d=https%3A%2F%2Fa.slack-edge.com%2Fdf10d%2Fimg%2Favatars%2Fava_0020-72.png",
            "first_name": "",
            "real_name": "Ilya Levantis",
            "display_name": "Ilya Levantis",
            "team": "TUU48M0T1",
            "name": "il79663",
            "is_restricted": false,
            "is_ultra_restricted": false
        },
        "blocks": [
            {
                "type": "rich_text",
                "block_id": "q5vW0",
                "elements": [
                    {
                        "type": "rich_text_section",
                        "elements": [
                            {
                                "type": "text",
                                "text": "I think the primers are very gsensitive and specific though so no issue from human nucleic acids in the sample"
                            }
                        ]
                    }
                ]
            }
        ],
        "thread_ts": "1584635755.086300",
        "parent_user_id": "UVBQDE7R8"
    },
    {
        "client_msg_id": "94d89a34-4df5-406f-a029-87a8400e62fa",
        "type": "message",
        "text": "also I believe some DNA synthesis companies are offering positive control RNA for COVID19",
        "user": "U010D9EGSTH",
        "ts": "1584646852.093900",
        "team": "TUU48M0T1",
        "user_team": "TUU48M0T1",
        "source_team": "TUU48M0T1",
        "user_profile": {
            "avatar_hash": "gc4df71cbae9",
            "image_72": "https:\/\/secure.gravatar.com\/avatar\/c4df71cbae90ff8819eff196c6ed3edf.jpg?s=72&d=https%3A%2F%2Fa.slack-edge.com%2Fdf10d%2Fimg%2Favatars%2Fava_0020-72.png",
            "first_name": "",
            "real_name": "Ilya Levantis",
            "display_name": "Ilya Levantis",
            "team": "TUU48M0T1",
            "name": "il79663",
            "is_restricted": false,
            "is_ultra_restricted": false
        },
        "blocks": [
            {
                "type": "rich_text",
                "block_id": "xKo3",
                "elements": [
                    {
                        "type": "rich_text_section",
                        "elements": [
                            {
                                "type": "text",
                                "text": "also I believe some DNA synthesis companies are offering positive control RNA for COVID19"
                            }
                        ]
                    }
                ]
            }
        ],
        "thread_ts": "1584635755.086300",
        "parent_user_id": "UVBQDE7R8"
    },
    {
        "client_msg_id": "153d16b4-8f87-40f1-af1f-25a568f1175b",
        "type": "message",
        "text": "so order some of that and mix with a human sample",
        "user": "U010D9EGSTH",
        "ts": "1584646881.094100",
        "team": "TUU48M0T1",
        "user_team": "TUU48M0T1",
        "source_team": "TUU48M0T1",
        "user_profile": {
            "avatar_hash": "gc4df71cbae9",
            "image_72": "https:\/\/secure.gravatar.com\/avatar\/c4df71cbae90ff8819eff196c6ed3edf.jpg?s=72&d=https%3A%2F%2Fa.slack-edge.com%2Fdf10d%2Fimg%2Favatars%2Fava_0020-72.png",
            "first_name": "",
            "real_name": "Ilya Levantis",
            "display_name": "Ilya Levantis",
            "team": "TUU48M0T1",
            "name": "il79663",
            "is_restricted": false,
            "is_ultra_restricted": false
        },
        "blocks": [
            {
                "type": "rich_text",
                "block_id": "V+0e",
                "elements": [
                    {
                        "type": "rich_text_section",
                        "elements": [
                            {
                                "type": "text",
                                "text": "so order some of that and mix with a human sample"
                            }
                        ]
                    }
                ]
            }
        ],
        "thread_ts": "1584635755.086300",
        "parent_user_id": "UVBQDE7R8"
    },
    {
        "client_msg_id": "8957de3c-8a4f-4ff5-b726-cf20de530445",
        "type": "message",
        "text": "obviously this doesn't show if it works for getting RNA out of the virions but my guess is that an infected individual will have lots of viral mRNA floating around in their cells so ordinary cell lysis should work",
        "user": "U010D9EGSTH",
        "ts": "1584647080.094300",
        "team": "TUU48M0T1",
        "user_team": "TUU48M0T1",
        "source_team": "TUU48M0T1",
        "user_profile": {
            "avatar_hash": "gc4df71cbae9",
            "image_72": "https:\/\/secure.gravatar.com\/avatar\/c4df71cbae90ff8819eff196c6ed3edf.jpg?s=72&d=https%3A%2F%2Fa.slack-edge.com%2Fdf10d%2Fimg%2Favatars%2Fava_0020-72.png",
            "first_name": "",
            "real_name": "Ilya Levantis",
            "display_name": "Ilya Levantis",
            "team": "TUU48M0T1",
            "name": "il79663",
            "is_restricted": false,
            "is_ultra_restricted": false
        },
        "blocks": [
            {
                "type": "rich_text",
                "block_id": "h=mX\/",
                "elements": [
                    {
                        "type": "rich_text_section",
                        "elements": [
                            {
                                "type": "text",
                                "text": "obviously this doesn't show if it works for getting RNA out of the virions but my guess is that an infected individual will have lots of viral mRNA floating around in their cells so ordinary cell lysis should work"
                            }
                        ]
                    }
                ]
            }
        ],
        "thread_ts": "1584635755.086300",
        "parent_user_id": "UVBQDE7R8"
    },
    {
        "client_msg_id": "77e772f6-c0eb-401b-8d4f-4256650a1d2e",
        "type": "message",
        "text": "human RNA will definitely be in there, and should be in there as a nice positive control. Want to make sure errors in extraction didn't screw up the PCR reaction - false negatives are bad !",
        "user": "UVBQDE7R8",
        "ts": "1584647436.094500",
        "team": "TUU48M0T1",
        "user_team": "TUU48M0T1",
        "source_team": "TUU48M0T1",
        "user_profile": {
            "avatar_hash": "gb77d2e5c821",
            "image_72": "https:\/\/secure.gravatar.com\/avatar\/b77d2e5c8214c9643410000e998ef9f4.jpg?s=72&d=https%3A%2F%2Fa.slack-edge.com%2Fdf10d%2Fimg%2Favatars%2Fava_0018-72.png",
            "first_name": "",
            "real_name": "Darach",
            "display_name": "Darach",
            "team": "TUU48M0T1",
            "name": "dchmiller",
            "is_restricted": false,
            "is_ultra_restricted": false
        },
        "blocks": [
            {
                "type": "rich_text",
                "block_id": "KSY",
                "elements": [
                    {
                        "type": "rich_text_section",
                        "elements": [
                            {
                                "type": "text",
                                "text": "human RNA will definitely be in there, and should be in there as a nice positive control. Want to make sure errors in extraction didn't screw up the PCR reaction - false negatives are bad !"
                            }
                        ]
                    }
                ]
            }
        ],
        "thread_ts": "1584635755.086300",
        "parent_user_id": "UVBQDE7R8"
    },
    {
        "client_msg_id": "89ea8711-05f7-430d-a179-4153ed735736",
        "type": "message",
        "text": "right but human RNA isnn't a problem because the primers are specific to the virus",
        "user": "U010D9EGSTH",
        "ts": "1584647473.094700",
        "team": "TUU48M0T1",
        "user_team": "TUU48M0T1",
        "source_team": "TUU48M0T1",
        "user_profile": {
            "avatar_hash": "gc4df71cbae9",
            "image_72": "https:\/\/secure.gravatar.com\/avatar\/c4df71cbae90ff8819eff196c6ed3edf.jpg?s=72&d=https%3A%2F%2Fa.slack-edge.com%2Fdf10d%2Fimg%2Favatars%2Fava_0020-72.png",
            "first_name": "",
            "real_name": "Ilya Levantis",
            "display_name": "Ilya Levantis",
            "team": "TUU48M0T1",
            "name": "il79663",
            "is_restricted": false,
            "is_ultra_restricted": false
        },
        "blocks": [
            {
                "type": "rich_text",
                "block_id": "Dnq",
                "elements": [
                    {
                        "type": "rich_text_section",
                        "elements": [
                            {
                                "type": "text",
                                "text": "right but human RNA isnn't a problem because the primers are specific to the virus"
                            }
                        ]
                    }
                ]
            }
        ],
        "thread_ts": "1584635755.086300",
        "parent_user_id": "UVBQDE7R8"
    },
    {
        "client_msg_id": "167d700b-4e51-41a9-b006-fd396387a57a",
        "type": "message",
        "text": "but could certainly try a test with human mRNA specific primers",
        "user": "U010D9EGSTH",
        "ts": "1584647529.094900",
        "team": "TUU48M0T1",
        "user_team": "TUU48M0T1",
        "source_team": "TUU48M0T1",
        "user_profile": {
            "avatar_hash": "gc4df71cbae9",
            "image_72": "https:\/\/secure.gravatar.com\/avatar\/c4df71cbae90ff8819eff196c6ed3edf.jpg?s=72&d=https%3A%2F%2Fa.slack-edge.com%2Fdf10d%2Fimg%2Favatars%2Fava_0020-72.png",
            "first_name": "",
            "real_name": "Ilya Levantis",
            "display_name": "Ilya Levantis",
            "team": "TUU48M0T1",
            "name": "il79663",
            "is_restricted": false,
            "is_ultra_restricted": false
        },
        "blocks": [
            {
                "type": "rich_text",
                "block_id": "rZEaK",
                "elements": [
                    {
                        "type": "rich_text_section",
                        "elements": [
                            {
                                "type": "text",
                                "text": "but could certainly try a test with human mRNA specific primers"
                            }
                        ]
                    }
                ]
            }
        ],
        "thread_ts": "1584635755.086300",
        "parent_user_id": "UVBQDE7R8"
    },
    {
        "client_msg_id": "74b39b5c-8888-4c97-98fb-84d18867a52e",
        "type": "message",
        "text": "could design some primers that span an intron so you could tell from the product whether you are detecting any processed mRNA or only genomic DNA",
        "user": "U010D9EGSTH",
        "ts": "1584647595.095100",
        "team": "TUU48M0T1",
        "user_team": "TUU48M0T1",
        "source_team": "TUU48M0T1",
        "user_profile": {
            "avatar_hash": "gc4df71cbae9",
            "image_72": "https:\/\/secure.gravatar.com\/avatar\/c4df71cbae90ff8819eff196c6ed3edf.jpg?s=72&d=https%3A%2F%2Fa.slack-edge.com%2Fdf10d%2Fimg%2Favatars%2Fava_0020-72.png",
            "first_name": "",
            "real_name": "Ilya Levantis",
            "display_name": "Ilya Levantis",
            "team": "TUU48M0T1",
            "name": "il79663",
            "is_restricted": false,
            "is_ultra_restricted": false
        },
        "blocks": [
            {
                "type": "rich_text",
                "block_id": "WPe7d",
                "elements": [
                    {
                        "type": "rich_text_section",
                        "elements": [
                            {
                                "type": "text",
                                "text": "could design some primers that span an intron so you could tell from the product whether you are detecting any processed mRNA or only genomic DNA"
                            }
                        ]
                    }
                ]
            }
        ],
        "thread_ts": "1584635755.086300",
        "parent_user_id": "UVBQDE7R8"
    },
    {
        "client_msg_id": "d2cf139b-eeba-4d47-b849-91f3e82d4f2e",
        "type": "message",
        "text": "looks like the positive controls for coronavirus are shipped as a plasmid, I'm not sure if it contains a transcription start site for expression in transformed bacteria",
        "user": "U010D9EGSTH",
        "ts": "1584647671.095300",
        "team": "TUU48M0T1",
        "user_team": "TUU48M0T1",
        "source_team": "TUU48M0T1",
        "user_profile": {
            "avatar_hash": "gc4df71cbae9",
            "image_72": "https:\/\/secure.gravatar.com\/avatar\/c4df71cbae90ff8819eff196c6ed3edf.jpg?s=72&d=https%3A%2F%2Fa.slack-edge.com%2Fdf10d%2Fimg%2Favatars%2Fava_0020-72.png",
            "first_name": "",
            "real_name": "Ilya Levantis",
            "display_name": "Ilya Levantis",
            "team": "TUU48M0T1",
            "name": "il79663",
            "is_restricted": false,
            "is_ultra_restricted": false
        },
        "blocks": [
            {
                "type": "rich_text",
                "block_id": "cRK2z",
                "elements": [
                    {
                        "type": "rich_text_section",
                        "elements": [
                            {
                                "type": "text",
                                "text": "looks like the positive controls for coronavirus are shipped as a plasmid, I'm not sure if it contains a transcription start site for expression in transformed bacteria"
                            }
                        ]
                    }
                ]
            }
        ],
        "thread_ts": "1584635755.086300",
        "parent_user_id": "UVBQDE7R8"
    },
    {
        "client_msg_id": "c4107d6e-6f54-42b3-8f8b-8189a58d83a8",
        "type": "message",
        "text": "\"About cobas SARS-CoV-2 Assay\nThe cobas SARS-CoV-2 Test is a single-well dual target assay, which includes both specific detection of SARS-CoV-2 and pan-sarbecovirus detection for the sarbecovirus subgenus family that includes SARS-CoV-2. The test is a real-time RT-PCR test intended for the qualitative detection of nucleic acids from SARS-CoV-2 in nasopharyngeal and oropharyngeal swab samples from patients who meet the CDC SARS-CoV-2 clinical criteria.The test runs on the cobas 6800\/8800 Systems and has a full-process negative control, positive control and internal control.\" <https:\/\/www.roche.com\/media\/releases\/med-cor-2020-03-13.htm|Ref>",
        "user": "U01081Y0TBP",
        "ts": "1584647742.095900",
        "team": "TUU48M0T1",
        "user_team": "TUU48M0T1",
        "source_team": "TUU48M0T1",
        "user_profile": {
            "avatar_hash": "60ec5b47107a",
            "image_72": "https:\/\/avatars.slack-edge.com\/2020-03-18\/995274181218_60ec5b47107a3bd2ca7d_72.jpg",
            "first_name": "Peter",
            "real_name": "Peter Kooren",
            "display_name": "Peter Kooren",
            "team": "TUU48M0T1",
            "name": "peterkooren",
            "is_restricted": false,
            "is_ultra_restricted": false
        },
        "blocks": [
            {
                "type": "rich_text",
                "block_id": "BaoI",
                "elements": [
                    {
                        "type": "rich_text_section",
                        "elements": [
                            {
                                "type": "text",
                                "text": "\"About cobas SARS-CoV-2 Assay\nThe cobas SARS-CoV-2 Test is a single-well dual target assay, which includes both specific detection of SARS-CoV-2 and pan-sarbecovirus detection for the sarbecovirus subgenus family that includes SARS-CoV-2. The test is a real-time RT-PCR test intended for the qualitative detection of nucleic acids from SARS-CoV-2 in nasopharyngeal and oropharyngeal swab samples from patients who meet the CDC SARS-CoV-2 clinical criteria.The test runs on the cobas 6800\/8800 Systems and has a full-process negative control, positive control and internal control.\" "
                            },
                            {
                                "type": "link",
                                "url": "https:\/\/www.roche.com\/media\/releases\/med-cor-2020-03-13.htm",
                                "text": "Ref"
                            }
                        ]
                    }
                ]
            }
        ],
        "thread_ts": "1584647742.095900",
        "reply_count": 2,
        "reply_users_count": 2,
        "latest_reply": "1584779970.000500",
        "reply_users": [
            "UV18Y0Q1Y",
            "U01081Y0TBP"
        ],
        "replies": [
            {
                "user": "UV18Y0Q1Y",
                "ts": "1584650294.096300"
            },
            {
                "user": "U01081Y0TBP",
                "ts": "1584779970.000500"
            }
        ],
        "subscribed": false
    },
    {
        "client_msg_id": "99defa63-6c58-41ad-86c6-5343e70b5e60",
        "type": "message",
        "text": "Wait a second there's no extraction control??? Lots of extra RNA could be a problem, but it should be low ammounts and not an issue.\nWould make a lot of sense, like you say, to do junction-spanning probes for human GAPDH mRNA, as extraction psuedo-control. So that way you know the extraction of that particular sample went okay",
        "user": "UVBQDE7R8",
        "ts": "1584648251.096000",
        "team": "TUU48M0T1",
        "user_team": "TUU48M0T1",
        "source_team": "TUU48M0T1",
        "user_profile": {
            "avatar_hash": "gb77d2e5c821",
            "image_72": "https:\/\/secure.gravatar.com\/avatar\/b77d2e5c8214c9643410000e998ef9f4.jpg?s=72&d=https%3A%2F%2Fa.slack-edge.com%2Fdf10d%2Fimg%2Favatars%2Fava_0018-72.png",
            "first_name": "",
            "real_name": "Darach",
            "display_name": "Darach",
            "team": "TUU48M0T1",
            "name": "dchmiller",
            "is_restricted": false,
            "is_ultra_restricted": false
        },
        "blocks": [
            {
                "type": "rich_text",
                "block_id": "IRw",
                "elements": [
                    {
                        "type": "rich_text_section",
                        "elements": [
                            {
                                "type": "text",
                                "text": "Wait a second there's no extraction control??? Lots of extra RNA could be a problem, but it should be low ammounts and not an issue.\nWould make a lot of sense, like you say, to do junction-spanning probes for human GAPDH mRNA, as extraction psuedo-control. So that way you know the extraction of that particular sample went okay"
                            }
                        ]
                    }
                ]
            }
        ],
        "thread_ts": "1584635755.086300",
        "parent_user_id": "UVBQDE7R8",
        "reactions": [
            {
                "name": "+1",
                "users": [
                    "U010D9EGSTH"
                ],
                "count": 1
            }
        ]
    },
    {
        "client_msg_id": "a9da5849-9598-479d-a831-f59d292ab11c",
        "type": "message",
        "text": "but do I read it properly, it is still just a RTPCR, which requires 2 hours?",
        "user": "UV18Y0Q1Y",
        "ts": "1584650294.096300",
        "team": "TUU48M0T1",
        "user_team": "TUU48M0T1",
        "source_team": "TUU48M0T1",
        "user_profile": {
            "avatar_hash": "ab7e379b5648",
            "image_72": "https:\/\/avatars.slack-edge.com\/2020-03-16\/991446609699_ab7e379b5648a9ac0566_72.jpg",
            "first_name": "",
            "real_name": "Alecrimi",
            "display_name": "Alecrimi",
            "team": "TUU48M0T1",
            "name": "alecrimi",
            "is_restricted": false,
            "is_ultra_restricted": false
        },
        "blocks": [
            {
                "type": "rich_text",
                "block_id": "M5s",
                "elements": [
                    {
                        "type": "rich_text_section",
                        "elements": [
                            {
                                "type": "text",
                                "text": "but do I read it properly, it is still just a RTPCR, which requires 2 hours?"
                            }
                        ]
                    }
                ]
            }
        ],
        "thread_ts": "1584647742.095900",
        "parent_user_id": "U01081Y0TBP"
    },
    {
        "client_msg_id": "311e50cb-0f2d-4f8a-9dc1-9b1dee392ba5",
        "type": "message",
        "text": "Come to <#C010D0K1FE1|proj-rna-extraction> maybe?",
        "user": "UV7LUJG1Y",
        "ts": "1584651323.096500",
        "team": "TUU48M0T1",
        "user_team": "TUU48M0T1",
        "source_team": "TUU48M0T1",
        "user_profile": {
            "avatar_hash": "048307b17644",
            "image_72": "https:\/\/avatars.slack-edge.com\/2020-04-04\/1043242365313_048307b17644844abd87_72.jpg",
            "first_name": "",
            "real_name": "Guy Aidelberg",
            "display_name": "Guy Aidelberg",
            "team": "TUU48M0T1",
            "name": "guyaidelberg",
            "is_restricted": false,
            "is_ultra_restricted": false
        },
        "blocks": [
            {
                "type": "rich_text",
                "block_id": "5dGL",
                "elements": [
                    {
                        "type": "rich_text_section",
                        "elements": [
                            {
                                "type": "text",
                                "text": "Come to "
                            },
                            {
                                "type": "channel",
                                "channel_id": "C010D0K1FE1"
                            },
                            {
                                "type": "text",
                                "text": " maybe?"
                            }
                        ]
                    }
                ]
            }
        ],
        "thread_ts": "1584635755.086300",
        "parent_user_id": "UVBQDE7R8"
    },
    {
        "client_msg_id": "8fcb8ca6-78bf-450b-a488-e39f5b85ca77",
        "type": "message",
        "text": "<@UV7LUJG1Y> Nope, I meant type of sample to be used. There is evidence for the use of stool as better predictor of positive testing rather than blood",
        "user": "UVCRP3QR0",
        "ts": "1584651637.096700",
        "team": "TUU48M0T1",
        "user_team": "TUU48M0T1",
        "source_team": "TUU48M0T1",
        "user_profile": {
            "avatar_hash": "g1866286bc30",
            "image_72": "https:\/\/secure.gravatar.com\/avatar\/1866286bc3019531aa3b43c6a2bc0a02.jpg?s=72&d=https%3A%2F%2Fa.slack-edge.com%2Fdf10d%2Fimg%2Favatars%2Fava_0004-72.png",
            "first_name": "",
            "real_name": "Pedro Ramos",
            "display_name": "Pedro Ramos",
            "team": "TUU48M0T1",
            "name": "pedroramos9204",
            "is_restricted": false,
            "is_ultra_restricted": false
        },
        "blocks": [
            {
                "type": "rich_text",
                "block_id": "wtDT",
                "elements": [
                    {
                        "type": "rich_text_section",
                        "elements": [
                            {
                                "type": "user",
                                "user_id": "UV7LUJG1Y"
                            },
                            {
                                "type": "text",
                                "text": " Nope, I meant type of sample to be used. There is evidence for the use of stool as better predictor of positive testing rather than blood"
                            }
                        ]
                    }
                ]
            }
        ],
        "thread_ts": "1584641626.090300",
        "parent_user_id": "UVCRP3QR0"
    },
    {
        "client_msg_id": "ceb055d1-6100-4041-b3ed-5e5a66015b8a",
        "type": "message",
        "text": "<@UVBQDE7R8> agreed! I'll share it here",
        "user": "UVCRP3QR0",
        "ts": "1584651654.096900",
        "team": "TUU48M0T1",
        "user_team": "TUU48M0T1",
        "source_team": "TUU48M0T1",
        "user_profile": {
            "avatar_hash": "g1866286bc30",
            "image_72": "https:\/\/secure.gravatar.com\/avatar\/1866286bc3019531aa3b43c6a2bc0a02.jpg?s=72&d=https%3A%2F%2Fa.slack-edge.com%2Fdf10d%2Fimg%2Favatars%2Fava_0004-72.png",
            "first_name": "",
            "real_name": "Pedro Ramos",
            "display_name": "Pedro Ramos",
            "team": "TUU48M0T1",
            "name": "pedroramos9204",
            "is_restricted": false,
            "is_ultra_restricted": false
        },
        "blocks": [
            {
                "type": "rich_text",
                "block_id": "nnW",
                "elements": [
                    {
                        "type": "rich_text_section",
                        "elements": [
                            {
                                "type": "user",
                                "user_id": "UVBQDE7R8"
                            },
                            {
                                "type": "text",
                                "text": " agreed! I'll share it here"
                            }
                        ]
                    }
                ]
            }
        ],
        "thread_ts": "1584641626.090300",
        "parent_user_id": "UVCRP3QR0"
    },
    {
        "client_msg_id": "b9e9b61e-60f0-4090-956d-e36c6f72e61a",
        "type": "message",
        "text": "<https:\/\/www.nature.com\/articles\/s41591-020-0817-4>\n<https:\/\/wwwnc.cdc.gov\/eid\/article\/26\/6\/20-0301_article>",
        "user": "UVCRP3QR0",
        "ts": "1584651721.098000",
        "team": "TUU48M0T1",
        "user_team": "TUU48M0T1",
        "source_team": "TUU48M0T1",
        "user_profile": {
            "avatar_hash": "g1866286bc30",
            "image_72": "https:\/\/secure.gravatar.com\/avatar\/1866286bc3019531aa3b43c6a2bc0a02.jpg?s=72&d=https%3A%2F%2Fa.slack-edge.com%2Fdf10d%2Fimg%2Favatars%2Fava_0004-72.png",
            "first_name": "",
            "real_name": "Pedro Ramos",
            "display_name": "Pedro Ramos",
            "team": "TUU48M0T1",
            "name": "pedroramos9204",
            "is_restricted": false,
            "is_ultra_restricted": false
        },
        "attachments": [
            {
                "service_name": "Nature Medicine",
                "title": "Characteristics of pediatric SARS-CoV-2 infection and potential eviden",
                "title_link": "https:\/\/www.nature.com\/articles\/s41591-020-0817-4",
                "text": "Children infected with the COVID-19 outbreak coronavirus, SARS-CoV-2, show mild symptoms but prolonged shedding of viral RNA in feces, suggesting that the fecal&amp;#8211;oral route might play a role in virus transmission.",
                "fallback": "Nature Medicine: Characteristics of pediatric SARS-CoV-2 infection and potential eviden",
                "thumb_url": "https:\/\/media.springernature.com\/full\/springer-static\/image\/art%3A10.1038%2Fs41591-020-0817-4\/MediaObjects\/41591_2020_817_Fig1_HTML.png",
                "from_url": "https:\/\/www.nature.com\/articles\/s41591-020-0817-4",
                "thumb_width": 2120,
                "thumb_height": 2221,
                "id": 1,
                "original_url": "https:\/\/www.nature.com\/articles\/s41591-020-0817-4"
            },
            {
                "service_name": "Emerging Infectious Diseases journal",
                "title": "Detection of Novel Coronavirus by RT-PCR in Stool Specimen from Asymptomatic Child, China",
                "title_link": "https:\/\/wwwnc.cdc.gov\/eid\/article\/26\/6\/20-0301_article",
                "text": "We report an asymptomatic child who was positive for a 2019 novel coronavirus by reverse transcription PCR in a stool specimen 17 days after the last ...",
                "fallback": "Emerging Infectious Diseases journal: Detection of Novel Coronavirus by RT-PCR in Stool Specimen from Asymptomatic Child, China",
                "image_url": "https:\/\/wwwnc.cdc.gov\/eid\/images\/og-eid-logo-2.jpg",
                "image_width": 476,
                "image_height": 250,
                "from_url": "https:\/\/wwwnc.cdc.gov\/eid\/article\/26\/6\/20-0301_article",
                "image_bytes": 131900,
                "service_icon": "https:\/\/wwwnc.cdc.gov\/eid\/content\/images\/app-icon\/app-icon-touch-144x144.png",
                "id": 2,
                "original_url": "https:\/\/wwwnc.cdc.gov\/eid\/article\/26\/6\/20-0301_article"
            }
        ],
        "blocks": [
            {
                "type": "rich_text",
                "block_id": "2jYEU",
                "elements": [
                    {
                        "type": "rich_text_section",
                        "elements": [
                            {
                                "type": "link",
                                "url": "https:\/\/www.nature.com\/articles\/s41591-020-0817-4"
                            },
                            {
                                "type": "text",
                                "text": "\n"
                            },
                            {
                                "type": "link",
                                "url": "https:\/\/wwwnc.cdc.gov\/eid\/article\/26\/6\/20-0301_article"
                            }
                        ]
                    }
                ]
            }
        ],
        "thread_ts": "1584651721.098000",
        "reply_count": 1,
        "reply_users_count": 1,
        "latest_reply": "1584652999.098400",
        "reply_users": [
            "UV18Y0Q1Y"
        ],
        "replies": [
            {
                "user": "UV18Y0Q1Y",
                "ts": "1584652999.098400"
            }
        ],
        "subscribed": false,
        "reactions": [
            {
                "name": "astonished",
                "users": [
                    "UV18Y0Q1Y"
                ],
                "count": 1
            }
        ]
    },
    {
        "client_msg_id": "05fbff37-b1f2-416b-9ee3-4232851126aa",
        "type": "message",
        "text": "WTF, not sure how much this is dangerous though",
        "user": "UV18Y0Q1Y",
        "ts": "1584652999.098400",
        "team": "TUU48M0T1",
        "user_team": "TUU48M0T1",
        "source_team": "TUU48M0T1",
        "user_profile": {
            "avatar_hash": "ab7e379b5648",
            "image_72": "https:\/\/avatars.slack-edge.com\/2020-03-16\/991446609699_ab7e379b5648a9ac0566_72.jpg",
            "first_name": "",
            "real_name": "Alecrimi",
            "display_name": "Alecrimi",
            "team": "TUU48M0T1",
            "name": "alecrimi",
            "is_restricted": false,
            "is_ultra_restricted": false
        },
        "blocks": [
            {
                "type": "rich_text",
                "block_id": "AVItK",
                "elements": [
                    {
                        "type": "rich_text_section",
                        "elements": [
                            {
                                "type": "text",
                                "text": "WTF, not sure how much this is dangerous though"
                            }
                        ]
                    }
                ]
            }
        ],
        "thread_ts": "1584651721.098000",
        "parent_user_id": "UVCRP3QR0"
    },
    {
        "client_msg_id": "6d95bd1c-8479-4dae-b019-3601a4bc1501",
        "type": "message",
        "text": "<https:\/\/time.com\/5805953\/home-covid-19-test-everlywell\/>",
        "user": "U0103128G4D",
        "ts": "1584667629.099100",
        "team": "TUU48M0T1",
        "user_team": "TUU48M0T1",
        "source_team": "TUU48M0T1",
        "user_profile": {
            "avatar_hash": "g76b7a7fcf75",
            "image_72": "https:\/\/secure.gravatar.com\/avatar\/76b7a7fcf754c895c0bf9763dfdebde4.jpg?s=72&d=https%3A%2F%2Fa.slack-edge.com%2Fdf10d%2Fimg%2Favatars%2Fava_0005-72.png",
            "first_name": "",
            "real_name": "Melody Wu",
            "display_name": "Melody Wu",
            "team": "TUU48M0T1",
            "name": "melody_w",
            "is_restricted": false,
            "is_ultra_restricted": false
        },
        "attachments": [
            {
                "service_name": "Time",
                "title": "The First U.S. Company Has Announced an Upcoming Home COVID-19 Test",
                "title_link": "https:\/\/time.com\/5805953\/home-covid-19-test-everlywell\/",
                "text": "Direct-to-consumer testing company Everlywell will make its COVID-19 test available on Mar 23",
                "fallback": "Time: The First U.S. Company Has Announced an Upcoming Home COVID-19 Test",
                "image_url": "https:\/\/api.time.com\/wp-content\/uploads\/2020\/03\/Everlywell-COVID-19-coronavirus-test.png?w=1024&h=512&crop=1",
                "image_width": 500,
                "image_height": 250,
                "from_url": "https:\/\/time.com\/5805953\/home-covid-19-test-everlywell\/",
                "image_bytes": 479956,
                "service_icon": "https:\/\/time.com\/img\/favicons\/favicon-57.png",
                "id": 1,
                "original_url": "https:\/\/time.com\/5805953\/home-covid-19-test-everlywell\/"
            }
        ],
        "blocks": [
            {
                "type": "rich_text",
                "block_id": "CUDGC",
                "elements": [
                    {
                        "type": "rich_text_section",
                        "elements": [
                            {
                                "type": "link",
                                "url": "https:\/\/time.com\/5805953\/home-covid-19-test-everlywell\/"
                            }
                        ]
                    }
                ]
            }
        ],
        "reactions": [
            {
                "name": "+1",
                "users": [
                    "UV18Y0Q1Y",
                    "UV10KBUQG"
                ],
                "count": 2
            }
        ]
    }
]