[
    {
        "client_msg_id": "14dbbae7-9061-4f10-8b7b-64e5bdf75112",
        "type": "message",
        "text": "Hi all,\n\nHere are a couple of documents for consideration:  A list of tasks, and the beginnings of a system scope document.\n\nThe system scope document is meant as a first step toward developing use cases.  Speaking for myself, it would be extremely useful if we could develop some concrete use cases for the system, and start thinking about which ones to prioritize.  This helps move from a high-level vision to a specific proposal that describes a realizable system.\n\n<https:\/\/github.com\/zathras\/museum\/blob\/master\/tasks.md|Task List>\n<https:\/\/github.com\/zathras\/museum\/blob\/master\/boundary.md|System Scope>",
        "user": "U010GFNDDL4",
        "ts": "1588652372.022400",
        "team": "TUU48M0T1",
        "user_team": "TUU48M0T1",
        "source_team": "TUU48M0T1",
        "user_profile": {
            "avatar_hash": "b056393f8b03",
            "image_72": "https:\/\/avatars.slack-edge.com\/2020-03-21\/1017096790757_b056393f8b03bb5aef51_72.jpg",
            "first_name": "",
            "real_name": "Bill Foote",
            "display_name": "Bill Foote",
            "team": "TUU48M0T1",
            "name": "billf",
            "is_restricted": false,
            "is_ultra_restricted": false
        },
        "attachments": [
            {
                "fallback": "[zathras\/museum] tasks.md",
                "title": "tasks.md",
                "footer": "<https:\/\/github.com\/zathras\/museum|zathras\/museum>",
                "id": 1,
                "title_link": "https:\/\/github.com\/zathras\/museum\/blob\/master\/tasks.md",
                "footer_icon": "https:\/\/github.githubassets.com\/favicon.ico",
                "color": "24292f",
                "mrkdwn_in": [
                    "text"
                ],
                "bot_id": "BUW789DM0",
                "app_unfurl_url": "https:\/\/github.com\/zathras\/museum\/blob\/master\/tasks.md",
                "is_app_unfurl": true
            },
            {
                "fallback": "[zathras\/museum] boundary.md",
                "title": "boundary.md",
                "footer": "<https:\/\/github.com\/zathras\/museum|zathras\/museum>",
                "id": 2,
                "title_link": "https:\/\/github.com\/zathras\/museum\/blob\/master\/boundary.md",
                "footer_icon": "https:\/\/github.githubassets.com\/favicon.ico",
                "color": "24292f",
                "mrkdwn_in": [
                    "text"
                ],
                "bot_id": "BUW789DM0",
                "app_unfurl_url": "https:\/\/github.com\/zathras\/museum\/blob\/master\/boundary.md",
                "is_app_unfurl": true
            }
        ],
        "blocks": [
            {
                "type": "rich_text",
                "block_id": "M4KV",
                "elements": [
                    {
                        "type": "rich_text_section",
                        "elements": [
                            {
                                "type": "text",
                                "text": "Hi all,\n\nHere are a couple of documents for consideration:  A list of tasks, and the beginnings of a system scope document.\n\nThe system scope document is meant as a first step toward developing use cases.  Speaking for myself, it would be extremely useful if we could develop some concrete use cases for the system, and start thinking about which ones to prioritize.  This helps move from a high-level vision to a specific proposal that describes a realizable system.\n\n"
                            },
                            {
                                "type": "link",
                                "url": "https:\/\/github.com\/zathras\/museum\/blob\/master\/tasks.md",
                                "text": "Task List"
                            },
                            {
                                "type": "text",
                                "text": "\n"
                            },
                            {
                                "type": "link",
                                "url": "https:\/\/github.com\/zathras\/museum\/blob\/master\/boundary.md",
                                "text": "System Scope"
                            }
                        ]
                    }
                ]
            }
        ]
    }
]