[
    {
        "type": "message",
        "text": "",
        "files": [
            {
                "id": "F012K4VRTSM",
                "created": 1587414173,
                "timestamp": 1587414173,
                "name": "Slides-Covid-19-Museum-small-EN.pdf",
                "title": "Slides-Covid-19-Museum-small-EN.pdf",
                "mimetype": "application\/pdf",
                "filetype": "pdf",
                "pretty_type": "PDF",
                "user": "U011BAD8A5V",
                "editable": false,
                "size": 2220182,
                "mode": "hosted",
                "is_external": false,
                "external_type": "",
                "is_public": true,
                "public_url_shared": false,
                "display_as_bot": false,
                "username": "",
                "url_private": "https:\/\/files.slack.com\/files-pri\/TUU48M0T1-F012K4VRTSM\/slides-covid-19-museum-small-en.pdf?t=xoxe-980144714919-1106606678066-1105227127893-6f722bb664235052954ad46852628b64",
                "url_private_download": "https:\/\/files.slack.com\/files-pri\/TUU48M0T1-F012K4VRTSM\/download\/slides-covid-19-museum-small-en.pdf?t=xoxe-980144714919-1106606678066-1105227127893-6f722bb664235052954ad46852628b64",
                "thumb_pdf": "https:\/\/files.slack.com\/files-tmb\/TUU48M0T1-F012K4VRTSM-4ed60e659d\/slides-covid-19-museum-small-en_thumb_pdf.png?t=xoxe-980144714919-1106606678066-1105227127893-6f722bb664235052954ad46852628b64",
                "thumb_pdf_w": 1286,
                "thumb_pdf_h": 909,
                "permalink": "https:\/\/open-covid19.slack.com\/files\/U011BAD8A5V\/F012K4VRTSM\/slides-covid-19-museum-small-en.pdf",
                "permalink_public": "https:\/\/slack-files.com\/TUU48M0T1-F012K4VRTSM-f5b9db3984",
                "is_starred": false,
                "has_rich_preview": false
            },
            {
                "id": "F012WB7DD7A",
                "created": 1587414173,
                "timestamp": 1587414173,
                "name": "Slides-Covid-19-Museum-small.pdf",
                "title": "Slides-Covid-19-Museum-small.pdf",
                "mimetype": "application\/pdf",
                "filetype": "pdf",
                "pretty_type": "PDF",
                "user": "U011BAD8A5V",
                "editable": false,
                "size": 2223649,
                "mode": "hosted",
                "is_external": false,
                "external_type": "",
                "is_public": true,
                "public_url_shared": false,
                "display_as_bot": false,
                "username": "",
                "url_private": "https:\/\/files.slack.com\/files-pri\/TUU48M0T1-F012WB7DD7A\/slides-covid-19-museum-small.pdf?t=xoxe-980144714919-1106606678066-1105227127893-6f722bb664235052954ad46852628b64",
                "url_private_download": "https:\/\/files.slack.com\/files-pri\/TUU48M0T1-F012WB7DD7A\/download\/slides-covid-19-museum-small.pdf?t=xoxe-980144714919-1106606678066-1105227127893-6f722bb664235052954ad46852628b64",
                "thumb_pdf": "https:\/\/files.slack.com\/files-tmb\/TUU48M0T1-F012WB7DD7A-349e57bb1f\/slides-covid-19-museum-small_thumb_pdf.png?t=xoxe-980144714919-1106606678066-1105227127893-6f722bb664235052954ad46852628b64",
                "thumb_pdf_w": 1286,
                "thumb_pdf_h": 909,
                "permalink": "https:\/\/open-covid19.slack.com\/files\/U011BAD8A5V\/F012WB7DD7A\/slides-covid-19-museum-small.pdf",
                "permalink_public": "https:\/\/slack-files.com\/TUU48M0T1-F012WB7DD7A-b63a47534e",
                "is_starred": false,
                "has_rich_preview": false
            }
        ],
        "upload": true,
        "user": "U011BAD8A5V",
        "ts": "1587414180.004700",
        "client_msg_id": "7073162a-734b-45fa-99e1-2fe62cf62852"
    },
    {
        "type": "message",
        "subtype": "channel_join",
        "ts": "1587414236.005300",
        "user": "U010K47QZHC",
        "text": "<@U010K47QZHC> has joined the channel",
        "inviter": "U011BAD8A5V"
    }
]