[
    {
        "client_msg_id": "228763b0-9d1c-4491-ab34-48482e248e47",
        "type": "message",
        "text": "Bonjour Célia",
        "user": "U011BAD8A5V",
        "ts": "1586430071.000600",
        "team": "TUU48M0T1",
        "user_team": "TUU48M0T1",
        "source_team": "TUU48M0T1",
        "user_profile": {
            "avatar_hash": "cc2342c6b5e4",
            "image_72": "https:\/\/avatars.slack-edge.com\/2020-04-15\/1050435442151_cc2342c6b5e4ed35a60a_72.png",
            "first_name": "Yves",
            "real_name": "Yves Rozenholc",
            "display_name": "Yves - Covid19 Museum",
            "team": "TUU48M0T1",
            "name": "contact",
            "is_restricted": false,
            "is_ultra_restricted": false
        },
        "blocks": [
            {
                "type": "rich_text",
                "block_id": "ZdEd",
                "elements": [
                    {
                        "type": "rich_text_section",
                        "elements": [
                            {
                                "type": "text",
                                "text": "Bonjour Célia"
                            }
                        ]
                    }
                ]
            }
        ]
    },
    {
        "client_msg_id": "7d2491c3-1375-4c4d-89b6-383c7c1b6cc2",
        "type": "message",
        "text": "Désolé, mais le projet s'accélère et j'ai été pendu quasiment en continu au téléphone",
        "user": "U011BAD8A5V",
        "ts": "1586430125.001700",
        "team": "TUU48M0T1",
        "user_team": "TUU48M0T1",
        "source_team": "TUU48M0T1",
        "user_profile": {
            "avatar_hash": "cc2342c6b5e4",
            "image_72": "https:\/\/avatars.slack-edge.com\/2020-04-15\/1050435442151_cc2342c6b5e4ed35a60a_72.png",
            "first_name": "Yves",
            "real_name": "Yves Rozenholc",
            "display_name": "Yves - Covid19 Museum",
            "team": "TUU48M0T1",
            "name": "contact",
            "is_restricted": false,
            "is_ultra_restricted": false
        },
        "blocks": [
            {
                "type": "rich_text",
                "block_id": "IMM",
                "elements": [
                    {
                        "type": "rich_text_section",
                        "elements": [
                            {
                                "type": "text",
                                "text": "Désolé, mais le projet s'accélère et j'ai été pendu quasiment en continu au téléphone"
                            }
                        ]
                    }
                ]
            }
        ]
    }
]