<?xml version="1.0" encoding="UTF-8"?>
<graphml xmlns="http://graphml.graphdrawing.org/xmlns"
         xmlns:xsi="http://www.w3.org/2001/XMLSchema-instance"
         xsi:schemaLocation="http://graphml.graphdrawing.org/xmlns
         http://graphml.graphdrawing.org/xmlns/1.0/graphml.xsd">
<!-- Created by igraph -->
  <key id="v_name" for="node" attr.name="name" attr.type="string"/>
  <key id="e_weight" for="edge" attr.name="weight" attr.type="double"/>
  <graph id="G" edgedefault="undirected">
    <node id="n0">
      <data key="v_name">JOGL</data>
    </node>
    <node id="n1">
      <data key="v_name">AWisdomJourney</data>
    </node>
    <node id="n2">
      <data key="v_name">Containerlab</data>
    </node>
    <node id="n3">
      <data key="v_name">robotmissions</data>
    </node>
    <node id="n4">
      <data key="v_name">Ikigai</data>
    </node>
    <node id="n5">
      <data key="v_name">PO</data>
    </node>
    <node id="n6">
      <data key="v_name">dawatrack</data>
    </node>
    <node id="n7">
      <data key="v_name">WebScout</data>
    </node>
    <node id="n8">
      <data key="v_name">Boardgame</data>
    </node>
    <node id="n9">
      <data key="v_name">Opscidia</data>
    </node>
    <node id="n10">
      <data key="v_name">JOGP</data>
    </node>
    <node id="n11">
      <data key="v_name">EduKey</data>
    </node>
    <node id="n12">
      <data key="v_name">Ocean</data>
    </node>
    <node id="n13">
      <data key="v_name">openwatertest</data>
    </node>
    <node id="n14">
      <data key="v_name">FABSDGs</data>
    </node>
    <node id="n15">
      <data key="v_name">PIOGE</data>
    </node>
    <node id="n16">
      <data key="v_name">HERApp</data>
    </node>
    <node id="n17">
      <data key="v_name">bhc</data>
    </node>
    <node id="n18">
      <data key="v_name">TwitterVac</data>
    </node>
    <node id="n19">
      <data key="v_name">VaEsGa</data>
    </node>
    <node id="n20">
      <data key="v_name">TravailPair</data>
    </node>
    <node id="n21">
      <data key="v_name">EPathways</data>
    </node>
    <node id="n22">
      <data key="v_name">VaccineDataDump</data>
    </node>
    <node id="n23">
      <data key="v_name">vaxtrends</data>
    </node>
    <node id="n24">
      <data key="v_name">greg001</data>
    </node>
    <node id="n25">
      <data key="v_name">Hulkbooster</data>
    </node>
    <node id="n26">
      <data key="v_name">HarmonizeVaccination</data>
    </node>
    <node id="n27">
      <data key="v_name">metaimmune</data>
    </node>
    <node id="n28">
      <data key="v_name">UnderstandingTwitterAds</data>
    </node>
    <node id="n29">
      <data key="v_name">biopunkchallenge</data>
    </node>
    <node id="n30">
      <data key="v_name">Sapelli</data>
    </node>
    <node id="n31">
      <data key="v_name">biloba</data>
    </node>
    <node id="n32">
      <data key="v_name">WakuSenshi</data>
    </node>
    <node id="n33">
      <data key="v_name">Crawler</data>
    </node>
    <node id="n34">
      <data key="v_name">PassItOn</data>
    </node>
    <node id="n35">
      <data key="v_name">GoViral</data>
    </node>
    <node id="n36">
      <data key="v_name">mva</data>
    </node>
    <node id="n37">
      <data key="v_name">VaccRiskAssess</data>
    </node>
    <node id="n38">
      <data key="v_name">VaxTopics</data>
    </node>
    <node id="n39">
      <data key="v_name">ESIDM</data>
    </node>
    <node id="n40">
      <data key="v_name">VaxAdministrationOnSocialMedia</data>
    </node>
    <node id="n41">
      <data key="v_name">VaxHesitancyOnSocialMedia</data>
    </node>
    <node id="n42">
      <data key="v_name">3duf</data>
    </node>
    <node id="n43">
      <data key="v_name">FOCHrwanda</data>
    </node>
    <node id="n44">
      <data key="v_name">committopromotevaccination</data>
    </node>
    <node id="n45">
      <data key="v_name">metafluidics</data>
    </node>
    <node id="n46">
      <data key="v_name">tb</data>
    </node>
    <node id="n47">
      <data key="v_name">OpenCovid19Initiative</data>
    </node>
    <node id="n48">
      <data key="v_name">fungar</data>
    </node>
    <node id="n49">
      <data key="v_name">TheWorldSim</data>
    </node>
    <node id="n50">
      <data key="v_name">HE</data>
    </node>
    <node id="n51">
      <data key="v_name">Coronavirusawareness</data>
    </node>
    <node id="n52">
      <data key="v_name">PandemicAlert</data>
    </node>
    <node id="n53">
      <data key="v_name">Covid19cures</data>
    </node>
    <node id="n54">
      <data key="v_name">STEAMforChange</data>
    </node>
    <edge source="n0" target="n1">
      <data key="e_weight">19</data>
    </edge>
    <edge source="n0" target="n2">
      <data key="e_weight">9</data>
    </edge>
    <edge source="n0" target="n3">
      <data key="e_weight">8</data>
    </edge>
    <edge source="n0" target="n5">
      <data key="e_weight">17</data>
    </edge>
    <edge source="n0" target="n6">
      <data key="e_weight">32</data>
    </edge>
    <edge source="n0" target="n9">
      <data key="e_weight">8</data>
    </edge>
    <edge source="n0" target="n10">
      <data key="e_weight">32</data>
    </edge>
    <edge source="n0" target="n11">
      <data key="e_weight">8</data>
    </edge>
    <edge source="n0" target="n16">
      <data key="e_weight">24</data>
    </edge>
    <edge source="n0" target="n18">
      <data key="e_weight">8</data>
    </edge>
    <edge source="n0" target="n20">
      <data key="e_weight">8</data>
    </edge>
    <edge source="n0" target="n21">
      <data key="e_weight">16</data>
    </edge>
    <edge source="n0" target="n22">
      <data key="e_weight">25</data>
    </edge>
    <edge source="n0" target="n23">
      <data key="e_weight">34</data>
    </edge>
    <edge source="n0" target="n24">
      <data key="e_weight">8</data>
    </edge>
    <edge source="n0" target="n26">
      <data key="e_weight">16</data>
    </edge>
    <edge source="n0" target="n27">
      <data key="e_weight">16</data>
    </edge>
    <edge source="n0" target="n28">
      <data key="e_weight">9</data>
    </edge>
    <edge source="n0" target="n29">
      <data key="e_weight">8</data>
    </edge>
    <edge source="n0" target="n33">
      <data key="e_weight">8</data>
    </edge>
    <edge source="n0" target="n34">
      <data key="e_weight">16</data>
    </edge>
    <edge source="n0" target="n35">
      <data key="e_weight">8</data>
    </edge>
    <edge source="n0" target="n37">
      <data key="e_weight">17</data>
    </edge>
    <edge source="n0" target="n38">
      <data key="e_weight">8</data>
    </edge>
    <edge source="n0" target="n44">
      <data key="e_weight">8</data>
    </edge>
    <edge source="n0" target="n46">
      <data key="e_weight">18</data>
    </edge>
    <edge source="n0" target="n47">
      <data key="e_weight">817</data>
    </edge>
    <edge source="n0" target="n50">
      <data key="e_weight">1024</data>
    </edge>
    <edge source="n0" target="n51">
      <data key="e_weight">88</data>
    </edge>
    <edge source="n0" target="n52">
      <data key="e_weight">56</data>
    </edge>
    <edge source="n0" target="n53">
      <data key="e_weight">24</data>
    </edge>
    <edge source="n0" target="n54">
      <data key="e_weight">8</data>
    </edge>
    <edge source="n0" target="n25">
      <data key="e_weight">1</data>
    </edge>
    <edge source="n0" target="n19">
      <data key="e_weight">1</data>
    </edge>
    <edge source="n0" target="n8">
      <data key="e_weight">1</data>
    </edge>
    <edge source="n0" target="n45">
      <data key="e_weight">1</data>
    </edge>
    <edge source="n0" target="n48">
      <data key="e_weight">1</data>
    </edge>
    <edge source="n1" target="n2">
      <data key="e_weight">2</data>
    </edge>
    <edge source="n1" target="n3">
      <data key="e_weight">2</data>
    </edge>
    <edge source="n1" target="n5">
      <data key="e_weight">4</data>
    </edge>
    <edge source="n1" target="n6">
      <data key="e_weight">8</data>
    </edge>
    <edge source="n1" target="n9">
      <data key="e_weight">2</data>
    </edge>
    <edge source="n1" target="n10">
      <data key="e_weight">8</data>
    </edge>
    <edge source="n1" target="n11">
      <data key="e_weight">2</data>
    </edge>
    <edge source="n1" target="n16">
      <data key="e_weight">6</data>
    </edge>
    <edge source="n1" target="n18">
      <data key="e_weight">2</data>
    </edge>
    <edge source="n1" target="n20">
      <data key="e_weight">2</data>
    </edge>
    <edge source="n1" target="n21">
      <data key="e_weight">4</data>
    </edge>
    <edge source="n1" target="n22">
      <data key="e_weight">6</data>
    </edge>
    <edge source="n1" target="n23">
      <data key="e_weight">8</data>
    </edge>
    <edge source="n1" target="n24">
      <data key="e_weight">2</data>
    </edge>
    <edge source="n1" target="n26">
      <data key="e_weight">4</data>
    </edge>
    <edge source="n1" target="n27">
      <data key="e_weight">4</data>
    </edge>
    <edge source="n1" target="n28">
      <data key="e_weight">2</data>
    </edge>
    <edge source="n1" target="n29">
      <data key="e_weight">2</data>
    </edge>
    <edge source="n1" target="n33">
      <data key="e_weight">2</data>
    </edge>
    <edge source="n1" target="n34">
      <data key="e_weight">4</data>
    </edge>
    <edge source="n1" target="n35">
      <data key="e_weight">2</data>
    </edge>
    <edge source="n1" target="n37">
      <data key="e_weight">4</data>
    </edge>
    <edge source="n1" target="n38">
      <data key="e_weight">2</data>
    </edge>
    <edge source="n1" target="n44">
      <data key="e_weight">2</data>
    </edge>
    <edge source="n1" target="n46">
      <data key="e_weight">4</data>
    </edge>
    <edge source="n1" target="n47">
      <data key="e_weight">204</data>
    </edge>
    <edge source="n1" target="n50">
      <data key="e_weight">256</data>
    </edge>
    <edge source="n1" target="n51">
      <data key="e_weight">22</data>
    </edge>
    <edge source="n1" target="n52">
      <data key="e_weight">14</data>
    </edge>
    <edge source="n1" target="n53">
      <data key="e_weight">6</data>
    </edge>
    <edge source="n1" target="n54">
      <data key="e_weight">2</data>
    </edge>
    <edge source="n1" target="n4">
      <data key="e_weight">1</data>
    </edge>
    <edge source="n2" target="n3">
      <data key="e_weight">1</data>
    </edge>
    <edge source="n2" target="n5">
      <data key="e_weight">2</data>
    </edge>
    <edge source="n2" target="n6">
      <data key="e_weight">4</data>
    </edge>
    <edge source="n2" target="n9">
      <data key="e_weight">1</data>
    </edge>
    <edge source="n2" target="n10">
      <data key="e_weight">4</data>
    </edge>
    <edge source="n2" target="n11">
      <data key="e_weight">1</data>
    </edge>
    <edge source="n2" target="n16">
      <data key="e_weight">3</data>
    </edge>
    <edge source="n2" target="n18">
      <data key="e_weight">1</data>
    </edge>
    <edge source="n2" target="n20">
      <data key="e_weight">1</data>
    </edge>
    <edge source="n2" target="n21">
      <data key="e_weight">2</data>
    </edge>
    <edge source="n2" target="n22">
      <data key="e_weight">3</data>
    </edge>
    <edge source="n2" target="n23">
      <data key="e_weight">4</data>
    </edge>
    <edge source="n2" target="n24">
      <data key="e_weight">1</data>
    </edge>
    <edge source="n2" target="n26">
      <data key="e_weight">2</data>
    </edge>
    <edge source="n2" target="n27">
      <data key="e_weight">2</data>
    </edge>
    <edge source="n2" target="n28">
      <data key="e_weight">1</data>
    </edge>
    <edge source="n2" target="n29">
      <data key="e_weight">1</data>
    </edge>
    <edge source="n2" target="n33">
      <data key="e_weight">1</data>
    </edge>
    <edge source="n2" target="n34">
      <data key="e_weight">2</data>
    </edge>
    <edge source="n2" target="n35">
      <data key="e_weight">1</data>
    </edge>
    <edge source="n2" target="n37">
      <data key="e_weight">2</data>
    </edge>
    <edge source="n2" target="n38">
      <data key="e_weight">1</data>
    </edge>
    <edge source="n2" target="n44">
      <data key="e_weight">1</data>
    </edge>
    <edge source="n2" target="n46">
      <data key="e_weight">2</data>
    </edge>
    <edge source="n2" target="n47">
      <data key="e_weight">103</data>
    </edge>
    <edge source="n2" target="n50">
      <data key="e_weight">128</data>
    </edge>
    <edge source="n2" target="n51">
      <data key="e_weight">11</data>
    </edge>
    <edge source="n2" target="n52">
      <data key="e_weight">7</data>
    </edge>
    <edge source="n2" target="n53">
      <data key="e_weight">3</data>
    </edge>
    <edge source="n2" target="n54">
      <data key="e_weight">1</data>
    </edge>
    <edge source="n3" target="n5">
      <data key="e_weight">2</data>
    </edge>
    <edge source="n3" target="n6">
      <data key="e_weight">4</data>
    </edge>
    <edge source="n3" target="n9">
      <data key="e_weight">1</data>
    </edge>
    <edge source="n3" target="n10">
      <data key="e_weight">4</data>
    </edge>
    <edge source="n3" target="n11">
      <data key="e_weight">1</data>
    </edge>
    <edge source="n3" target="n16">
      <data key="e_weight">3</data>
    </edge>
    <edge source="n3" target="n18">
      <data key="e_weight">1</data>
    </edge>
    <edge source="n3" target="n20">
      <data key="e_weight">1</data>
    </edge>
    <edge source="n3" target="n21">
      <data key="e_weight">2</data>
    </edge>
    <edge source="n3" target="n22">
      <data key="e_weight">3</data>
    </edge>
    <edge source="n3" target="n23">
      <data key="e_weight">4</data>
    </edge>
    <edge source="n3" target="n24">
      <data key="e_weight">1</data>
    </edge>
    <edge source="n3" target="n26">
      <data key="e_weight">2</data>
    </edge>
    <edge source="n3" target="n27">
      <data key="e_weight">2</data>
    </edge>
    <edge source="n3" target="n28">
      <data key="e_weight">1</data>
    </edge>
    <edge source="n3" target="n29">
      <data key="e_weight">1</data>
    </edge>
    <edge source="n3" target="n33">
      <data key="e_weight">1</data>
    </edge>
    <edge source="n3" target="n34">
      <data key="e_weight">2</data>
    </edge>
    <edge source="n3" target="n35">
      <data key="e_weight">1</data>
    </edge>
    <edge source="n3" target="n37">
      <data key="e_weight">2</data>
    </edge>
    <edge source="n3" target="n38">
      <data key="e_weight">1</data>
    </edge>
    <edge source="n3" target="n44">
      <data key="e_weight">1</data>
    </edge>
    <edge source="n3" target="n46">
      <data key="e_weight">2</data>
    </edge>
    <edge source="n3" target="n47">
      <data key="e_weight">102</data>
    </edge>
    <edge source="n3" target="n50">
      <data key="e_weight">128</data>
    </edge>
    <edge source="n3" target="n51">
      <data key="e_weight">11</data>
    </edge>
    <edge source="n3" target="n52">
      <data key="e_weight">7</data>
    </edge>
    <edge source="n3" target="n53">
      <data key="e_weight">3</data>
    </edge>
    <edge source="n3" target="n54">
      <data key="e_weight">1</data>
    </edge>
    <edge source="n5" target="n6">
      <data key="e_weight">8</data>
    </edge>
    <edge source="n5" target="n9">
      <data key="e_weight">2</data>
    </edge>
    <edge source="n5" target="n10">
      <data key="e_weight">8</data>
    </edge>
    <edge source="n5" target="n11">
      <data key="e_weight">2</data>
    </edge>
    <edge source="n5" target="n16">
      <data key="e_weight">6</data>
    </edge>
    <edge source="n5" target="n18">
      <data key="e_weight">2</data>
    </edge>
    <edge source="n5" target="n20">
      <data key="e_weight">2</data>
    </edge>
    <edge source="n5" target="n21">
      <data key="e_weight">4</data>
    </edge>
    <edge source="n5" target="n22">
      <data key="e_weight">6</data>
    </edge>
    <edge source="n5" target="n23">
      <data key="e_weight">8</data>
    </edge>
    <edge source="n5" target="n24">
      <data key="e_weight">2</data>
    </edge>
    <edge source="n5" target="n26">
      <data key="e_weight">4</data>
    </edge>
    <edge source="n5" target="n27">
      <data key="e_weight">4</data>
    </edge>
    <edge source="n5" target="n28">
      <data key="e_weight">2</data>
    </edge>
    <edge source="n5" target="n29">
      <data key="e_weight">2</data>
    </edge>
    <edge source="n5" target="n33">
      <data key="e_weight">2</data>
    </edge>
    <edge source="n5" target="n34">
      <data key="e_weight">4</data>
    </edge>
    <edge source="n5" target="n35">
      <data key="e_weight">2</data>
    </edge>
    <edge source="n5" target="n37">
      <data key="e_weight">4</data>
    </edge>
    <edge source="n5" target="n38">
      <data key="e_weight">2</data>
    </edge>
    <edge source="n5" target="n44">
      <data key="e_weight">2</data>
    </edge>
    <edge source="n5" target="n46">
      <data key="e_weight">4</data>
    </edge>
    <edge source="n5" target="n47">
      <data key="e_weight">205</data>
    </edge>
    <edge source="n5" target="n50">
      <data key="e_weight">256</data>
    </edge>
    <edge source="n5" target="n51">
      <data key="e_weight">22</data>
    </edge>
    <edge source="n5" target="n52">
      <data key="e_weight">14</data>
    </edge>
    <edge source="n5" target="n53">
      <data key="e_weight">6</data>
    </edge>
    <edge source="n5" target="n54">
      <data key="e_weight">2</data>
    </edge>
    <edge source="n5" target="n45">
      <data key="e_weight">1</data>
    </edge>
    <edge source="n5" target="n48">
      <data key="e_weight">1</data>
    </edge>
    <edge source="n5" target="n12">
      <data key="e_weight">2</data>
    </edge>
    <edge source="n6" target="n9">
      <data key="e_weight">4</data>
    </edge>
    <edge source="n6" target="n10">
      <data key="e_weight">16</data>
    </edge>
    <edge source="n6" target="n11">
      <data key="e_weight">4</data>
    </edge>
    <edge source="n6" target="n16">
      <data key="e_weight">12</data>
    </edge>
    <edge source="n6" target="n18">
      <data key="e_weight">4</data>
    </edge>
    <edge source="n6" target="n20">
      <data key="e_weight">4</data>
    </edge>
    <edge source="n6" target="n21">
      <data key="e_weight">8</data>
    </edge>
    <edge source="n6" target="n22">
      <data key="e_weight">12</data>
    </edge>
    <edge source="n6" target="n23">
      <data key="e_weight">16</data>
    </edge>
    <edge source="n6" target="n24">
      <data key="e_weight">4</data>
    </edge>
    <edge source="n6" target="n26">
      <data key="e_weight">8</data>
    </edge>
    <edge source="n6" target="n27">
      <data key="e_weight">8</data>
    </edge>
    <edge source="n6" target="n28">
      <data key="e_weight">4</data>
    </edge>
    <edge source="n6" target="n29">
      <data key="e_weight">4</data>
    </edge>
    <edge source="n6" target="n33">
      <data key="e_weight">4</data>
    </edge>
    <edge source="n6" target="n34">
      <data key="e_weight">8</data>
    </edge>
    <edge source="n6" target="n35">
      <data key="e_weight">4</data>
    </edge>
    <edge source="n6" target="n37">
      <data key="e_weight">8</data>
    </edge>
    <edge source="n6" target="n38">
      <data key="e_weight">4</data>
    </edge>
    <edge source="n6" target="n44">
      <data key="e_weight">4</data>
    </edge>
    <edge source="n6" target="n46">
      <data key="e_weight">8</data>
    </edge>
    <edge source="n6" target="n47">
      <data key="e_weight">408</data>
    </edge>
    <edge source="n6" target="n50">
      <data key="e_weight">512</data>
    </edge>
    <edge source="n6" target="n51">
      <data key="e_weight">44</data>
    </edge>
    <edge source="n6" target="n52">
      <data key="e_weight">28</data>
    </edge>
    <edge source="n6" target="n53">
      <data key="e_weight">12</data>
    </edge>
    <edge source="n6" target="n54">
      <data key="e_weight">4</data>
    </edge>
    <edge source="n9" target="n10">
      <data key="e_weight">4</data>
    </edge>
    <edge source="n9" target="n11">
      <data key="e_weight">1</data>
    </edge>
    <edge source="n9" target="n16">
      <data key="e_weight">3</data>
    </edge>
    <edge source="n9" target="n18">
      <data key="e_weight">1</data>
    </edge>
    <edge source="n9" target="n20">
      <data key="e_weight">1</data>
    </edge>
    <edge source="n9" target="n21">
      <data key="e_weight">2</data>
    </edge>
    <edge source="n9" target="n22">
      <data key="e_weight">3</data>
    </edge>
    <edge source="n9" target="n23">
      <data key="e_weight">4</data>
    </edge>
    <edge source="n9" target="n24">
      <data key="e_weight">1</data>
    </edge>
    <edge source="n9" target="n26">
      <data key="e_weight">2</data>
    </edge>
    <edge source="n9" target="n27">
      <data key="e_weight">2</data>
    </edge>
    <edge source="n9" target="n28">
      <data key="e_weight">1</data>
    </edge>
    <edge source="n9" target="n29">
      <data key="e_weight">1</data>
    </edge>
    <edge source="n9" target="n33">
      <data key="e_weight">1</data>
    </edge>
    <edge source="n9" target="n34">
      <data key="e_weight">2</data>
    </edge>
    <edge source="n9" target="n35">
      <data key="e_weight">1</data>
    </edge>
    <edge source="n9" target="n37">
      <data key="e_weight">2</data>
    </edge>
    <edge source="n9" target="n38">
      <data key="e_weight">1</data>
    </edge>
    <edge source="n9" target="n44">
      <data key="e_weight">1</data>
    </edge>
    <edge source="n9" target="n46">
      <data key="e_weight">2</data>
    </edge>
    <edge source="n9" target="n47">
      <data key="e_weight">102</data>
    </edge>
    <edge source="n9" target="n50">
      <data key="e_weight">128</data>
    </edge>
    <edge source="n9" target="n51">
      <data key="e_weight">11</data>
    </edge>
    <edge source="n9" target="n52">
      <data key="e_weight">7</data>
    </edge>
    <edge source="n9" target="n53">
      <data key="e_weight">3</data>
    </edge>
    <edge source="n9" target="n54">
      <data key="e_weight">1</data>
    </edge>
    <edge source="n10" target="n11">
      <data key="e_weight">4</data>
    </edge>
    <edge source="n10" target="n16">
      <data key="e_weight">12</data>
    </edge>
    <edge source="n10" target="n18">
      <data key="e_weight">4</data>
    </edge>
    <edge source="n10" target="n20">
      <data key="e_weight">4</data>
    </edge>
    <edge source="n10" target="n21">
      <data key="e_weight">8</data>
    </edge>
    <edge source="n10" target="n22">
      <data key="e_weight">12</data>
    </edge>
    <edge source="n10" target="n23">
      <data key="e_weight">16</data>
    </edge>
    <edge source="n10" target="n24">
      <data key="e_weight">4</data>
    </edge>
    <edge source="n10" target="n26">
      <data key="e_weight">8</data>
    </edge>
    <edge source="n10" target="n27">
      <data key="e_weight">8</data>
    </edge>
    <edge source="n10" target="n28">
      <data key="e_weight">4</data>
    </edge>
    <edge source="n10" target="n29">
      <data key="e_weight">4</data>
    </edge>
    <edge source="n10" target="n33">
      <data key="e_weight">4</data>
    </edge>
    <edge source="n10" target="n34">
      <data key="e_weight">8</data>
    </edge>
    <edge source="n10" target="n35">
      <data key="e_weight">4</data>
    </edge>
    <edge source="n10" target="n37">
      <data key="e_weight">8</data>
    </edge>
    <edge source="n10" target="n38">
      <data key="e_weight">4</data>
    </edge>
    <edge source="n10" target="n44">
      <data key="e_weight">4</data>
    </edge>
    <edge source="n10" target="n46">
      <data key="e_weight">8</data>
    </edge>
    <edge source="n10" target="n47">
      <data key="e_weight">408</data>
    </edge>
    <edge source="n10" target="n50">
      <data key="e_weight">512</data>
    </edge>
    <edge source="n10" target="n51">
      <data key="e_weight">44</data>
    </edge>
    <edge source="n10" target="n52">
      <data key="e_weight">28</data>
    </edge>
    <edge source="n10" target="n53">
      <data key="e_weight">12</data>
    </edge>
    <edge source="n10" target="n54">
      <data key="e_weight">4</data>
    </edge>
    <edge source="n11" target="n16">
      <data key="e_weight">3</data>
    </edge>
    <edge source="n11" target="n18">
      <data key="e_weight">1</data>
    </edge>
    <edge source="n11" target="n20">
      <data key="e_weight">1</data>
    </edge>
    <edge source="n11" target="n21">
      <data key="e_weight">2</data>
    </edge>
    <edge source="n11" target="n22">
      <data key="e_weight">3</data>
    </edge>
    <edge source="n11" target="n23">
      <data key="e_weight">4</data>
    </edge>
    <edge source="n11" target="n24">
      <data key="e_weight">1</data>
    </edge>
    <edge source="n11" target="n26">
      <data key="e_weight">2</data>
    </edge>
    <edge source="n11" target="n27">
      <data key="e_weight">2</data>
    </edge>
    <edge source="n11" target="n28">
      <data key="e_weight">1</data>
    </edge>
    <edge source="n11" target="n29">
      <data key="e_weight">1</data>
    </edge>
    <edge source="n11" target="n33">
      <data key="e_weight">1</data>
    </edge>
    <edge source="n11" target="n34">
      <data key="e_weight">2</data>
    </edge>
    <edge source="n11" target="n35">
      <data key="e_weight">1</data>
    </edge>
    <edge source="n11" target="n37">
      <data key="e_weight">2</data>
    </edge>
    <edge source="n11" target="n38">
      <data key="e_weight">1</data>
    </edge>
    <edge source="n11" target="n44">
      <data key="e_weight">1</data>
    </edge>
    <edge source="n11" target="n46">
      <data key="e_weight">2</data>
    </edge>
    <edge source="n11" target="n47">
      <data key="e_weight">102</data>
    </edge>
    <edge source="n11" target="n50">
      <data key="e_weight">128</data>
    </edge>
    <edge source="n11" target="n51">
      <data key="e_weight">11</data>
    </edge>
    <edge source="n11" target="n52">
      <data key="e_weight">7</data>
    </edge>
    <edge source="n11" target="n53">
      <data key="e_weight">3</data>
    </edge>
    <edge source="n11" target="n54">
      <data key="e_weight">1</data>
    </edge>
    <edge source="n16" target="n18">
      <data key="e_weight">3</data>
    </edge>
    <edge source="n16" target="n20">
      <data key="e_weight">3</data>
    </edge>
    <edge source="n16" target="n21">
      <data key="e_weight">6</data>
    </edge>
    <edge source="n16" target="n22">
      <data key="e_weight">9</data>
    </edge>
    <edge source="n16" target="n23">
      <data key="e_weight">12</data>
    </edge>
    <edge source="n16" target="n24">
      <data key="e_weight">3</data>
    </edge>
    <edge source="n16" target="n26">
      <data key="e_weight">6</data>
    </edge>
    <edge source="n16" target="n27">
      <data key="e_weight">6</data>
    </edge>
    <edge source="n16" target="n28">
      <data key="e_weight">3</data>
    </edge>
    <edge source="n16" target="n29">
      <data key="e_weight">3</data>
    </edge>
    <edge source="n16" target="n33">
      <data key="e_weight">3</data>
    </edge>
    <edge source="n16" target="n34">
      <data key="e_weight">6</data>
    </edge>
    <edge source="n16" target="n35">
      <data key="e_weight">3</data>
    </edge>
    <edge source="n16" target="n37">
      <data key="e_weight">6</data>
    </edge>
    <edge source="n16" target="n38">
      <data key="e_weight">3</data>
    </edge>
    <edge source="n16" target="n44">
      <data key="e_weight">3</data>
    </edge>
    <edge source="n16" target="n46">
      <data key="e_weight">6</data>
    </edge>
    <edge source="n16" target="n47">
      <data key="e_weight">306</data>
    </edge>
    <edge source="n16" target="n50">
      <data key="e_weight">384</data>
    </edge>
    <edge source="n16" target="n51">
      <data key="e_weight">33</data>
    </edge>
    <edge source="n16" target="n52">
      <data key="e_weight">21</data>
    </edge>
    <edge source="n16" target="n53">
      <data key="e_weight">9</data>
    </edge>
    <edge source="n16" target="n54">
      <data key="e_weight">3</data>
    </edge>
    <edge source="n18" target="n20">
      <data key="e_weight">1</data>
    </edge>
    <edge source="n18" target="n21">
      <data key="e_weight">2</data>
    </edge>
    <edge source="n18" target="n22">
      <data key="e_weight">3</data>
    </edge>
    <edge source="n18" target="n23">
      <data key="e_weight">4</data>
    </edge>
    <edge source="n18" target="n24">
      <data key="e_weight">2</data>
    </edge>
    <edge source="n18" target="n26">
      <data key="e_weight">2</data>
    </edge>
    <edge source="n18" target="n27">
      <data key="e_weight">2</data>
    </edge>
    <edge source="n18" target="n28">
      <data key="e_weight">1</data>
    </edge>
    <edge source="n18" target="n29">
      <data key="e_weight">1</data>
    </edge>
    <edge source="n18" target="n33">
      <data key="e_weight">1</data>
    </edge>
    <edge source="n18" target="n34">
      <data key="e_weight">2</data>
    </edge>
    <edge source="n18" target="n35">
      <data key="e_weight">1</data>
    </edge>
    <edge source="n18" target="n37">
      <data key="e_weight">2</data>
    </edge>
    <edge source="n18" target="n38">
      <data key="e_weight">2</data>
    </edge>
    <edge source="n18" target="n44">
      <data key="e_weight">1</data>
    </edge>
    <edge source="n18" target="n46">
      <data key="e_weight">2</data>
    </edge>
    <edge source="n18" target="n47">
      <data key="e_weight">102</data>
    </edge>
    <edge source="n18" target="n50">
      <data key="e_weight">128</data>
    </edge>
    <edge source="n18" target="n51">
      <data key="e_weight">11</data>
    </edge>
    <edge source="n18" target="n52">
      <data key="e_weight">7</data>
    </edge>
    <edge source="n18" target="n53">
      <data key="e_weight">3</data>
    </edge>
    <edge source="n18" target="n54">
      <data key="e_weight">1</data>
    </edge>
    <edge source="n18" target="n40">
      <data key="e_weight">1</data>
    </edge>
    <edge source="n18" target="n41">
      <data key="e_weight">1</data>
    </edge>
    <edge source="n20" target="n21">
      <data key="e_weight">2</data>
    </edge>
    <edge source="n20" target="n22">
      <data key="e_weight">3</data>
    </edge>
    <edge source="n20" target="n23">
      <data key="e_weight">4</data>
    </edge>
    <edge source="n20" target="n24">
      <data key="e_weight">1</data>
    </edge>
    <edge source="n20" target="n26">
      <data key="e_weight">2</data>
    </edge>
    <edge source="n20" target="n27">
      <data key="e_weight">2</data>
    </edge>
    <edge source="n20" target="n28">
      <data key="e_weight">1</data>
    </edge>
    <edge source="n20" target="n29">
      <data key="e_weight">1</data>
    </edge>
    <edge source="n20" target="n33">
      <data key="e_weight">1</data>
    </edge>
    <edge source="n20" target="n34">
      <data key="e_weight">2</data>
    </edge>
    <edge source="n20" target="n35">
      <data key="e_weight">1</data>
    </edge>
    <edge source="n20" target="n37">
      <data key="e_weight">2</data>
    </edge>
    <edge source="n20" target="n38">
      <data key="e_weight">1</data>
    </edge>
    <edge source="n20" target="n44">
      <data key="e_weight">1</data>
    </edge>
    <edge source="n20" target="n46">
      <data key="e_weight">2</data>
    </edge>
    <edge source="n20" target="n47">
      <data key="e_weight">102</data>
    </edge>
    <edge source="n20" target="n50">
      <data key="e_weight">128</data>
    </edge>
    <edge source="n20" target="n51">
      <data key="e_weight">11</data>
    </edge>
    <edge source="n20" target="n52">
      <data key="e_weight">7</data>
    </edge>
    <edge source="n20" target="n53">
      <data key="e_weight">3</data>
    </edge>
    <edge source="n20" target="n54">
      <data key="e_weight">1</data>
    </edge>
    <edge source="n21" target="n22">
      <data key="e_weight">6</data>
    </edge>
    <edge source="n21" target="n23">
      <data key="e_weight">8</data>
    </edge>
    <edge source="n21" target="n24">
      <data key="e_weight">2</data>
    </edge>
    <edge source="n21" target="n26">
      <data key="e_weight">4</data>
    </edge>
    <edge source="n21" target="n27">
      <data key="e_weight">4</data>
    </edge>
    <edge source="n21" target="n28">
      <data key="e_weight">2</data>
    </edge>
    <edge source="n21" target="n29">
      <data key="e_weight">2</data>
    </edge>
    <edge source="n21" target="n33">
      <data key="e_weight">2</data>
    </edge>
    <edge source="n21" target="n34">
      <data key="e_weight">4</data>
    </edge>
    <edge source="n21" target="n35">
      <data key="e_weight">2</data>
    </edge>
    <edge source="n21" target="n37">
      <data key="e_weight">4</data>
    </edge>
    <edge source="n21" target="n38">
      <data key="e_weight">2</data>
    </edge>
    <edge source="n21" target="n44">
      <data key="e_weight">2</data>
    </edge>
    <edge source="n21" target="n46">
      <data key="e_weight">4</data>
    </edge>
    <edge source="n21" target="n47">
      <data key="e_weight">204</data>
    </edge>
    <edge source="n21" target="n50">
      <data key="e_weight">256</data>
    </edge>
    <edge source="n21" target="n51">
      <data key="e_weight">22</data>
    </edge>
    <edge source="n21" target="n52">
      <data key="e_weight">14</data>
    </edge>
    <edge source="n21" target="n53">
      <data key="e_weight">6</data>
    </edge>
    <edge source="n21" target="n54">
      <data key="e_weight">2</data>
    </edge>
    <edge source="n22" target="n23">
      <data key="e_weight">13</data>
    </edge>
    <edge source="n22" target="n24">
      <data key="e_weight">3</data>
    </edge>
    <edge source="n22" target="n26">
      <data key="e_weight">6</data>
    </edge>
    <edge source="n22" target="n27">
      <data key="e_weight">6</data>
    </edge>
    <edge source="n22" target="n28">
      <data key="e_weight">3</data>
    </edge>
    <edge source="n22" target="n29">
      <data key="e_weight">3</data>
    </edge>
    <edge source="n22" target="n33">
      <data key="e_weight">3</data>
    </edge>
    <edge source="n22" target="n34">
      <data key="e_weight">6</data>
    </edge>
    <edge source="n22" target="n35">
      <data key="e_weight">3</data>
    </edge>
    <edge source="n22" target="n37">
      <data key="e_weight">6</data>
    </edge>
    <edge source="n22" target="n38">
      <data key="e_weight">3</data>
    </edge>
    <edge source="n22" target="n44">
      <data key="e_weight">3</data>
    </edge>
    <edge source="n22" target="n46">
      <data key="e_weight">7</data>
    </edge>
    <edge source="n22" target="n47">
      <data key="e_weight">306</data>
    </edge>
    <edge source="n22" target="n50">
      <data key="e_weight">384</data>
    </edge>
    <edge source="n22" target="n51">
      <data key="e_weight">33</data>
    </edge>
    <edge source="n22" target="n52">
      <data key="e_weight">21</data>
    </edge>
    <edge source="n22" target="n53">
      <data key="e_weight">9</data>
    </edge>
    <edge source="n22" target="n54">
      <data key="e_weight">3</data>
    </edge>
    <edge source="n23" target="n24">
      <data key="e_weight">4</data>
    </edge>
    <edge source="n23" target="n26">
      <data key="e_weight">8</data>
    </edge>
    <edge source="n23" target="n27">
      <data key="e_weight">8</data>
    </edge>
    <edge source="n23" target="n28">
      <data key="e_weight">5</data>
    </edge>
    <edge source="n23" target="n29">
      <data key="e_weight">4</data>
    </edge>
    <edge source="n23" target="n33">
      <data key="e_weight">4</data>
    </edge>
    <edge source="n23" target="n34">
      <data key="e_weight">8</data>
    </edge>
    <edge source="n23" target="n35">
      <data key="e_weight">4</data>
    </edge>
    <edge source="n23" target="n37">
      <data key="e_weight">8</data>
    </edge>
    <edge source="n23" target="n38">
      <data key="e_weight">4</data>
    </edge>
    <edge source="n23" target="n44">
      <data key="e_weight">4</data>
    </edge>
    <edge source="n23" target="n46">
      <data key="e_weight">9</data>
    </edge>
    <edge source="n23" target="n47">
      <data key="e_weight">408</data>
    </edge>
    <edge source="n23" target="n50">
      <data key="e_weight">512</data>
    </edge>
    <edge source="n23" target="n51">
      <data key="e_weight">44</data>
    </edge>
    <edge source="n23" target="n52">
      <data key="e_weight">28</data>
    </edge>
    <edge source="n23" target="n53">
      <data key="e_weight">12</data>
    </edge>
    <edge source="n23" target="n54">
      <data key="e_weight">4</data>
    </edge>
    <edge source="n24" target="n26">
      <data key="e_weight">2</data>
    </edge>
    <edge source="n24" target="n27">
      <data key="e_weight">2</data>
    </edge>
    <edge source="n24" target="n28">
      <data key="e_weight">1</data>
    </edge>
    <edge source="n24" target="n29">
      <data key="e_weight">1</data>
    </edge>
    <edge source="n24" target="n33">
      <data key="e_weight">1</data>
    </edge>
    <edge source="n24" target="n34">
      <data key="e_weight">2</data>
    </edge>
    <edge source="n24" target="n35">
      <data key="e_weight">1</data>
    </edge>
    <edge source="n24" target="n37">
      <data key="e_weight">2</data>
    </edge>
    <edge source="n24" target="n38">
      <data key="e_weight">1</data>
    </edge>
    <edge source="n24" target="n44">
      <data key="e_weight">1</data>
    </edge>
    <edge source="n24" target="n46">
      <data key="e_weight">2</data>
    </edge>
    <edge source="n24" target="n47">
      <data key="e_weight">102</data>
    </edge>
    <edge source="n24" target="n50">
      <data key="e_weight">128</data>
    </edge>
    <edge source="n24" target="n51">
      <data key="e_weight">11</data>
    </edge>
    <edge source="n24" target="n52">
      <data key="e_weight">7</data>
    </edge>
    <edge source="n24" target="n53">
      <data key="e_weight">3</data>
    </edge>
    <edge source="n24" target="n54">
      <data key="e_weight">1</data>
    </edge>
    <edge source="n25" target="n37">
      <data key="e_weight">1</data>
    </edge>
    <edge source="n25" target="n46">
      <data key="e_weight">2</data>
    </edge>
    <edge source="n25" target="n31">
      <data key="e_weight">1</data>
    </edge>
    <edge source="n25" target="n43">
      <data key="e_weight">1</data>
    </edge>
    <edge source="n26" target="n27">
      <data key="e_weight">4</data>
    </edge>
    <edge source="n26" target="n28">
      <data key="e_weight">2</data>
    </edge>
    <edge source="n26" target="n29">
      <data key="e_weight">2</data>
    </edge>
    <edge source="n26" target="n33">
      <data key="e_weight">2</data>
    </edge>
    <edge source="n26" target="n34">
      <data key="e_weight">4</data>
    </edge>
    <edge source="n26" target="n35">
      <data key="e_weight">2</data>
    </edge>
    <edge source="n26" target="n37">
      <data key="e_weight">4</data>
    </edge>
    <edge source="n26" target="n38">
      <data key="e_weight">2</data>
    </edge>
    <edge source="n26" target="n44">
      <data key="e_weight">2</data>
    </edge>
    <edge source="n26" target="n46">
      <data key="e_weight">4</data>
    </edge>
    <edge source="n26" target="n47">
      <data key="e_weight">204</data>
    </edge>
    <edge source="n26" target="n50">
      <data key="e_weight">256</data>
    </edge>
    <edge source="n26" target="n51">
      <data key="e_weight">22</data>
    </edge>
    <edge source="n26" target="n52">
      <data key="e_weight">14</data>
    </edge>
    <edge source="n26" target="n53">
      <data key="e_weight">6</data>
    </edge>
    <edge source="n26" target="n54">
      <data key="e_weight">2</data>
    </edge>
    <edge source="n27" target="n28">
      <data key="e_weight">2</data>
    </edge>
    <edge source="n27" target="n29">
      <data key="e_weight">2</data>
    </edge>
    <edge source="n27" target="n33">
      <data key="e_weight">2</data>
    </edge>
    <edge source="n27" target="n34">
      <data key="e_weight">4</data>
    </edge>
    <edge source="n27" target="n35">
      <data key="e_weight">2</data>
    </edge>
    <edge source="n27" target="n37">
      <data key="e_weight">4</data>
    </edge>
    <edge source="n27" target="n38">
      <data key="e_weight">2</data>
    </edge>
    <edge source="n27" target="n44">
      <data key="e_weight">2</data>
    </edge>
    <edge source="n27" target="n46">
      <data key="e_weight">4</data>
    </edge>
    <edge source="n27" target="n47">
      <data key="e_weight">204</data>
    </edge>
    <edge source="n27" target="n50">
      <data key="e_weight">256</data>
    </edge>
    <edge source="n27" target="n51">
      <data key="e_weight">22</data>
    </edge>
    <edge source="n27" target="n52">
      <data key="e_weight">14</data>
    </edge>
    <edge source="n27" target="n53">
      <data key="e_weight">6</data>
    </edge>
    <edge source="n27" target="n54">
      <data key="e_weight">2</data>
    </edge>
    <edge source="n28" target="n29">
      <data key="e_weight">1</data>
    </edge>
    <edge source="n28" target="n33">
      <data key="e_weight">1</data>
    </edge>
    <edge source="n28" target="n34">
      <data key="e_weight">2</data>
    </edge>
    <edge source="n28" target="n35">
      <data key="e_weight">1</data>
    </edge>
    <edge source="n28" target="n37">
      <data key="e_weight">2</data>
    </edge>
    <edge source="n28" target="n38">
      <data key="e_weight">1</data>
    </edge>
    <edge source="n28" target="n44">
      <data key="e_weight">1</data>
    </edge>
    <edge source="n28" target="n46">
      <data key="e_weight">2</data>
    </edge>
    <edge source="n28" target="n47">
      <data key="e_weight">102</data>
    </edge>
    <edge source="n28" target="n50">
      <data key="e_weight">128</data>
    </edge>
    <edge source="n28" target="n51">
      <data key="e_weight">11</data>
    </edge>
    <edge source="n28" target="n52">
      <data key="e_weight">7</data>
    </edge>
    <edge source="n28" target="n53">
      <data key="e_weight">3</data>
    </edge>
    <edge source="n28" target="n54">
      <data key="e_weight">1</data>
    </edge>
    <edge source="n29" target="n33">
      <data key="e_weight">1</data>
    </edge>
    <edge source="n29" target="n34">
      <data key="e_weight">2</data>
    </edge>
    <edge source="n29" target="n35">
      <data key="e_weight">1</data>
    </edge>
    <edge source="n29" target="n37">
      <data key="e_weight">2</data>
    </edge>
    <edge source="n29" target="n38">
      <data key="e_weight">1</data>
    </edge>
    <edge source="n29" target="n44">
      <data key="e_weight">1</data>
    </edge>
    <edge source="n29" target="n46">
      <data key="e_weight">2</data>
    </edge>
    <edge source="n29" target="n47">
      <data key="e_weight">102</data>
    </edge>
    <edge source="n29" target="n50">
      <data key="e_weight">128</data>
    </edge>
    <edge source="n29" target="n51">
      <data key="e_weight">11</data>
    </edge>
    <edge source="n29" target="n52">
      <data key="e_weight">7</data>
    </edge>
    <edge source="n29" target="n53">
      <data key="e_weight">3</data>
    </edge>
    <edge source="n29" target="n54">
      <data key="e_weight">1</data>
    </edge>
    <edge source="n31" target="n43">
      <data key="e_weight">1</data>
    </edge>
    <edge source="n31" target="n46">
      <data key="e_weight">1</data>
    </edge>
    <edge source="n33" target="n34">
      <data key="e_weight">2</data>
    </edge>
    <edge source="n33" target="n35">
      <data key="e_weight">1</data>
    </edge>
    <edge source="n33" target="n37">
      <data key="e_weight">2</data>
    </edge>
    <edge source="n33" target="n38">
      <data key="e_weight">1</data>
    </edge>
    <edge source="n33" target="n44">
      <data key="e_weight">1</data>
    </edge>
    <edge source="n33" target="n46">
      <data key="e_weight">2</data>
    </edge>
    <edge source="n33" target="n47">
      <data key="e_weight">102</data>
    </edge>
    <edge source="n33" target="n50">
      <data key="e_weight">128</data>
    </edge>
    <edge source="n33" target="n51">
      <data key="e_weight">11</data>
    </edge>
    <edge source="n33" target="n52">
      <data key="e_weight">7</data>
    </edge>
    <edge source="n33" target="n53">
      <data key="e_weight">3</data>
    </edge>
    <edge source="n33" target="n54">
      <data key="e_weight">1</data>
    </edge>
    <edge source="n34" target="n35">
      <data key="e_weight">2</data>
    </edge>
    <edge source="n34" target="n37">
      <data key="e_weight">4</data>
    </edge>
    <edge source="n34" target="n38">
      <data key="e_weight">2</data>
    </edge>
    <edge source="n34" target="n44">
      <data key="e_weight">2</data>
    </edge>
    <edge source="n34" target="n46">
      <data key="e_weight">4</data>
    </edge>
    <edge source="n34" target="n47">
      <data key="e_weight">204</data>
    </edge>
    <edge source="n34" target="n50">
      <data key="e_weight">256</data>
    </edge>
    <edge source="n34" target="n51">
      <data key="e_weight">22</data>
    </edge>
    <edge source="n34" target="n52">
      <data key="e_weight">14</data>
    </edge>
    <edge source="n34" target="n53">
      <data key="e_weight">6</data>
    </edge>
    <edge source="n34" target="n54">
      <data key="e_weight">2</data>
    </edge>
    <edge source="n35" target="n37">
      <data key="e_weight">2</data>
    </edge>
    <edge source="n35" target="n38">
      <data key="e_weight">1</data>
    </edge>
    <edge source="n35" target="n44">
      <data key="e_weight">1</data>
    </edge>
    <edge source="n35" target="n46">
      <data key="e_weight">2</data>
    </edge>
    <edge source="n35" target="n47">
      <data key="e_weight">102</data>
    </edge>
    <edge source="n35" target="n50">
      <data key="e_weight">128</data>
    </edge>
    <edge source="n35" target="n51">
      <data key="e_weight">11</data>
    </edge>
    <edge source="n35" target="n52">
      <data key="e_weight">7</data>
    </edge>
    <edge source="n35" target="n53">
      <data key="e_weight">3</data>
    </edge>
    <edge source="n35" target="n54">
      <data key="e_weight">1</data>
    </edge>
    <edge source="n37" target="n38">
      <data key="e_weight">2</data>
    </edge>
    <edge source="n37" target="n44">
      <data key="e_weight">2</data>
    </edge>
    <edge source="n37" target="n46">
      <data key="e_weight">5</data>
    </edge>
    <edge source="n37" target="n47">
      <data key="e_weight">204</data>
    </edge>
    <edge source="n37" target="n50">
      <data key="e_weight">256</data>
    </edge>
    <edge source="n37" target="n51">
      <data key="e_weight">22</data>
    </edge>
    <edge source="n37" target="n52">
      <data key="e_weight">14</data>
    </edge>
    <edge source="n37" target="n53">
      <data key="e_weight">6</data>
    </edge>
    <edge source="n37" target="n54">
      <data key="e_weight">2</data>
    </edge>
    <edge source="n38" target="n44">
      <data key="e_weight">1</data>
    </edge>
    <edge source="n38" target="n46">
      <data key="e_weight">2</data>
    </edge>
    <edge source="n38" target="n47">
      <data key="e_weight">102</data>
    </edge>
    <edge source="n38" target="n50">
      <data key="e_weight">128</data>
    </edge>
    <edge source="n38" target="n51">
      <data key="e_weight">11</data>
    </edge>
    <edge source="n38" target="n52">
      <data key="e_weight">7</data>
    </edge>
    <edge source="n38" target="n53">
      <data key="e_weight">3</data>
    </edge>
    <edge source="n38" target="n54">
      <data key="e_weight">1</data>
    </edge>
    <edge source="n38" target="n40">
      <data key="e_weight">1</data>
    </edge>
    <edge source="n38" target="n41">
      <data key="e_weight">1</data>
    </edge>
    <edge source="n40" target="n41">
      <data key="e_weight">1</data>
    </edge>
    <edge source="n43" target="n46">
      <data key="e_weight">1</data>
    </edge>
    <edge source="n44" target="n46">
      <data key="e_weight">2</data>
    </edge>
    <edge source="n44" target="n47">
      <data key="e_weight">102</data>
    </edge>
    <edge source="n44" target="n50">
      <data key="e_weight">128</data>
    </edge>
    <edge source="n44" target="n51">
      <data key="e_weight">11</data>
    </edge>
    <edge source="n44" target="n52">
      <data key="e_weight">7</data>
    </edge>
    <edge source="n44" target="n53">
      <data key="e_weight">3</data>
    </edge>
    <edge source="n44" target="n54">
      <data key="e_weight">1</data>
    </edge>
    <edge source="n45" target="n47">
      <data key="e_weight">2</data>
    </edge>
    <edge source="n45" target="n48">
      <data key="e_weight">1</data>
    </edge>
    <edge source="n46" target="n47">
      <data key="e_weight">204</data>
    </edge>
    <edge source="n46" target="n50">
      <data key="e_weight">256</data>
    </edge>
    <edge source="n46" target="n51">
      <data key="e_weight">22</data>
    </edge>
    <edge source="n46" target="n52">
      <data key="e_weight">14</data>
    </edge>
    <edge source="n46" target="n53">
      <data key="e_weight">6</data>
    </edge>
    <edge source="n46" target="n54">
      <data key="e_weight">2</data>
    </edge>
    <edge source="n47" target="n50">
      <data key="e_weight">13061</data>
    </edge>
    <edge source="n47" target="n51">
      <data key="e_weight">1122</data>
    </edge>
    <edge source="n47" target="n52">
      <data key="e_weight">714</data>
    </edge>
    <edge source="n47" target="n53">
      <data key="e_weight">306</data>
    </edge>
    <edge source="n47" target="n54">
      <data key="e_weight">102</data>
    </edge>
    <edge source="n47" target="n48">
      <data key="e_weight">2</data>
    </edge>
    <edge source="n47" target="n49">
      <data key="e_weight">1</data>
    </edge>
    <edge source="n48" target="n49">
      <data key="e_weight">1</data>
    </edge>
    <edge source="n48" target="n50">
      <data key="e_weight">1</data>
    </edge>
    <edge source="n49" target="n50">
      <data key="e_weight">1</data>
    </edge>
    <edge source="n50" target="n51">
      <data key="e_weight">1408</data>
    </edge>
    <edge source="n50" target="n52">
      <data key="e_weight">896</data>
    </edge>
    <edge source="n50" target="n53">
      <data key="e_weight">384</data>
    </edge>
    <edge source="n50" target="n54">
      <data key="e_weight">128</data>
    </edge>
    <edge source="n51" target="n52">
      <data key="e_weight">77</data>
    </edge>
    <edge source="n51" target="n53">
      <data key="e_weight">33</data>
    </edge>
    <edge source="n51" target="n54">
      <data key="e_weight">11</data>
    </edge>
    <edge source="n52" target="n53">
      <data key="e_weight">21</data>
    </edge>
    <edge source="n52" target="n54">
      <data key="e_weight">7</data>
    </edge>
    <edge source="n53" target="n54">
      <data key="e_weight">3</data>
    </edge>
  </graph>
</graphml>
