[
    {
        "client_msg_id": "ad2d797c-4cf9-4008-aeb4-1452564bf603",
        "type": "message",
        "text": "<@U010KAJ3SLW> <@U010JLSQ2LW> <@UV5EETE1Z>  <@UV8T52QJ3>  <!channel>\nHello, we have scheduled a meeting today at 4PM UTC to just go over some more of the differential privacy analysis techniques.\nI'd like to push back to the 4PM UTC on *Thursday.* However, if people prefer to meet today still, then I'll see you all later today.",
        "user": "UVDCTDP8B",
        "ts": "1587994557.097000",
        "team": "TUU48M0T1",
        "user_team": "TUU48M0T1",
        "source_team": "TUU48M0T1",
        "user_profile": {
            "avatar_hash": "b9681d276810",
            "image_72": "https:\/\/avatars.slack-edge.com\/2020-03-21\/1018866726103_b9681d2768103ad056d7_72.jpg",
            "first_name": "",
            "real_name": "Wesley",
            "display_name": "Wesley",
            "team": "TUU48M0T1",
            "name": "someprogrammerorsomet",
            "is_restricted": false,
            "is_ultra_restricted": false
        },
        "blocks": [
            {
                "type": "rich_text",
                "block_id": "Vh\/1t",
                "elements": [
                    {
                        "type": "rich_text_section",
                        "elements": [
                            {
                                "type": "user",
                                "user_id": "U010KAJ3SLW"
                            },
                            {
                                "type": "text",
                                "text": " "
                            },
                            {
                                "type": "user",
                                "user_id": "U010JLSQ2LW"
                            },
                            {
                                "type": "text",
                                "text": " "
                            },
                            {
                                "type": "user",
                                "user_id": "UV5EETE1Z"
                            },
                            {
                                "type": "text",
                                "text": "  "
                            },
                            {
                                "type": "user",
                                "user_id": "UV8T52QJ3"
                            },
                            {
                                "type": "text",
                                "text": "  "
                            },
                            {
                                "type": "broadcast",
                                "range": "channel"
                            },
                            {
                                "type": "text",
                                "text": "\nHello, we have scheduled a meeting today at 4PM UTC to just go over some more of the differential privacy analysis techniques.\nI'd like to push back to the 4PM UTC on "
                            },
                            {
                                "type": "text",
                                "text": "Thursday. ",
                                "style": {
                                    "bold": true
                                }
                            },
                            {
                                "type": "text",
                                "text": "However, if people prefer to meet today still, then I'll see you all later today."
                            }
                        ]
                    }
                ]
            }
        ],
        "thread_ts": "1587994557.097000",
        "reply_count": 1,
        "reply_users_count": 1,
        "latest_reply": "1588262801.097600",
        "reply_users": [
            "UVDCTDP8B"
        ],
        "replies": [
            {
                "user": "UVDCTDP8B",
                "ts": "1588262801.097600"
            }
        ],
        "subscribed": false
    },
    {
        "client_msg_id": "39a78ad3-3d19-44b0-a75d-9af65c9e446c",
        "type": "message",
        "text": "Thursday is fine for me",
        "user": "UV5EETE1Z",
        "ts": "1587994706.097200",
        "team": "TUU48M0T1",
        "user_team": "TUU48M0T1",
        "source_team": "TUU48M0T1",
        "user_profile": {
            "avatar_hash": "g97226b3e8e4",
            "image_72": "https:\/\/secure.gravatar.com\/avatar\/97226b3e8e4c11aaac4beff59b9be431.jpg?s=72&d=https%3A%2F%2Fa.slack-edge.com%2Fdf10d%2Fimg%2Favatars%2Fava_0000-72.png",
            "first_name": "Dave",
            "real_name": "Dave Moffat",
            "display_name": "Dave Moffat",
            "team": "TUU48M0T1",
            "name": "david.moffat",
            "is_restricted": false,
            "is_ultra_restricted": false
        },
        "blocks": [
            {
                "type": "rich_text",
                "block_id": "q3X",
                "elements": [
                    {
                        "type": "rich_text_section",
                        "elements": [
                            {
                                "type": "text",
                                "text": "Thursday is fine for me"
                            }
                        ]
                    }
                ]
            }
        ]
    },
    {
        "client_msg_id": "185e3789-cebd-4a06-b014-42a82a3a1d80",
        "type": "message",
        "text": ":thumbsup:",
        "user": "UVDCTDP8B",
        "ts": "1587994992.097400",
        "team": "TUU48M0T1",
        "user_team": "TUU48M0T1",
        "source_team": "TUU48M0T1",
        "user_profile": {
            "avatar_hash": "b9681d276810",
            "image_72": "https:\/\/avatars.slack-edge.com\/2020-03-21\/1018866726103_b9681d2768103ad056d7_72.jpg",
            "first_name": "",
            "real_name": "Wesley",
            "display_name": "Wesley",
            "team": "TUU48M0T1",
            "name": "someprogrammerorsomet",
            "is_restricted": false,
            "is_ultra_restricted": false
        },
        "blocks": [
            {
                "type": "rich_text",
                "block_id": "1uB",
                "elements": [
                    {
                        "type": "rich_text_section",
                        "elements": [
                            {
                                "type": "emoji",
                                "name": "thumbsup"
                            }
                        ]
                    }
                ]
            }
        ]
    }
]