[
    {
        "client_msg_id": "dfa07707-1dac-4a45-9223-d7ac90e1d717",
        "type": "message",
        "text": "Matt's Lab's Technique:\n\n<https:\/\/ubicomplab.cs.washington.edu\/pdfs\/accurate-and.pdf>",
        "user": "UVDCTDP8B",
        "ts": "1587065484.083400",
        "team": "TUU48M0T1",
        "user_team": "TUU48M0T1",
        "source_team": "TUU48M0T1",
        "user_profile": {
            "avatar_hash": "b9681d276810",
            "image_72": "https:\/\/avatars.slack-edge.com\/2020-03-21\/1018866726103_b9681d2768103ad056d7_72.jpg",
            "first_name": "",
            "real_name": "Wesley",
            "display_name": "Wesley",
            "team": "TUU48M0T1",
            "name": "someprogrammerorsomet",
            "is_restricted": false,
            "is_ultra_restricted": false
        },
        "edited": {
            "user": "UVDCTDP8B",
            "ts": "1587065499.000000"
        },
        "blocks": [
            {
                "type": "rich_text",
                "block_id": "nHXN",
                "elements": [
                    {
                        "type": "rich_text_section",
                        "elements": [
                            {
                                "type": "text",
                                "text": "Matt's Lab's Technique:\n\n"
                            },
                            {
                                "type": "link",
                                "url": "https:\/\/ubicomplab.cs.washington.edu\/pdfs\/accurate-and.pdf"
                            }
                        ]
                    }
                ]
            }
        ],
        "thread_ts": "1587065484.083400",
        "reply_count": 1,
        "reply_users_count": 1,
        "latest_reply": "1587066114.084700",
        "reply_users": [
            "UV5EETE1Z"
        ],
        "replies": [
            {
                "user": "UV5EETE1Z",
                "ts": "1587066114.084700"
            }
        ],
        "subscribed": false
    },
    {
        "client_msg_id": "abf55f48-c70c-4f16-a025-133e3d6c6bea",
        "type": "message",
        "text": "Differential Privacy on Publicized Datasets:\n\n<http:\/\/en.cnki.com.cn\/Article_en\/CJFDTotal-JSJX201404018.htm>",
        "user": "UVDCTDP8B",
        "ts": "1587065558.083800",
        "team": "TUU48M0T1",
        "user_team": "TUU48M0T1",
        "source_team": "TUU48M0T1",
        "user_profile": {
            "avatar_hash": "b9681d276810",
            "image_72": "https:\/\/avatars.slack-edge.com\/2020-03-21\/1018866726103_b9681d2768103ad056d7_72.jpg",
            "first_name": "",
            "real_name": "Wesley",
            "display_name": "Wesley",
            "team": "TUU48M0T1",
            "name": "someprogrammerorsomet",
            "is_restricted": false,
            "is_ultra_restricted": false
        },
        "edited": {
            "user": "UVDCTDP8B",
            "ts": "1587065589.000000"
        },
        "blocks": [
            {
                "type": "rich_text",
                "block_id": "+t7s",
                "elements": [
                    {
                        "type": "rich_text_section",
                        "elements": [
                            {
                                "type": "text",
                                "text": "Differential Privacy on Publicized Datasets:\n\n"
                            },
                            {
                                "type": "link",
                                "url": "http:\/\/en.cnki.com.cn\/Article_en\/CJFDTotal-JSJX201404018.htm"
                            }
                        ]
                    }
                ]
            }
        ]
    },
    {
        "client_msg_id": "29cd8767-3c18-44b7-8aa2-d996fa2ad143",
        "type": "message",
        "text": "Enhancing Usability &amp; Privacy on Datasets:\n<http:\/\/150.162.46.34:8080\/icassp2017\/pdfs\/0006389.pdf>",
        "user": "UVDCTDP8B",
        "ts": "1587065613.084400",
        "team": "TUU48M0T1",
        "user_team": "TUU48M0T1",
        "source_team": "TUU48M0T1",
        "user_profile": {
            "avatar_hash": "b9681d276810",
            "image_72": "https:\/\/avatars.slack-edge.com\/2020-03-21\/1018866726103_b9681d2768103ad056d7_72.jpg",
            "first_name": "",
            "real_name": "Wesley",
            "display_name": "Wesley",
            "team": "TUU48M0T1",
            "name": "someprogrammerorsomet",
            "is_restricted": false,
            "is_ultra_restricted": false
        },
        "blocks": [
            {
                "type": "rich_text",
                "block_id": "wFoo",
                "elements": [
                    {
                        "type": "rich_text_section",
                        "elements": [
                            {
                                "type": "text",
                                "text": "Enhancing Usability & Privacy on Datasets:\n"
                            },
                            {
                                "type": "link",
                                "url": "http:\/\/150.162.46.34:8080\/icassp2017\/pdfs\/0006389.pdf"
                            }
                        ]
                    }
                ]
            }
        ]
    },
    {
        "client_msg_id": "55e32306-4d8d-4f4a-b0a7-6c0a75b83c1e",
        "type": "message",
        "text": "These papers are very helpful, and have immediately identified that my approach is inappropriate. - So we need to explore more a way to transform the audio into an anonymous format, that is useful for audio classification.",
        "user": "UV5EETE1Z",
        "ts": "1587066114.084700",
        "team": "TUU48M0T1",
        "user_team": "TUU48M0T1",
        "source_team": "TUU48M0T1",
        "user_profile": {
            "avatar_hash": "g97226b3e8e4",
            "image_72": "https:\/\/secure.gravatar.com\/avatar\/97226b3e8e4c11aaac4beff59b9be431.jpg?s=72&d=https%3A%2F%2Fa.slack-edge.com%2Fdf10d%2Fimg%2Favatars%2Fava_0000-72.png",
            "first_name": "Dave",
            "real_name": "Dave Moffat",
            "display_name": "Dave Moffat",
            "team": "TUU48M0T1",
            "name": "david.moffat",
            "is_restricted": false,
            "is_ultra_restricted": false
        },
        "blocks": [
            {
                "type": "rich_text",
                "block_id": "avUZ",
                "elements": [
                    {
                        "type": "rich_text_section",
                        "elements": [
                            {
                                "type": "text",
                                "text": "These papers are very helpful, and have immediately identified that my approach is inappropriate. - So we need to explore more a way to transform the audio into an anonymous format, that is useful for audio classification."
                            }
                        ]
                    }
                ]
            }
        ],
        "thread_ts": "1587065484.083400",
        "parent_user_id": "UVDCTDP8B"
    },
    {
        "client_msg_id": "8d2d3860-1682-4ff0-ba45-5ceea46bd253",
        "type": "message",
        "text": "Randomized Response:\n<https:\/\/en.wikipedia.org\/wiki\/Randomized_response>",
        "user": "UVDCTDP8B",
        "ts": "1587066421.085200",
        "team": "TUU48M0T1",
        "user_team": "TUU48M0T1",
        "source_team": "TUU48M0T1",
        "user_profile": {
            "avatar_hash": "b9681d276810",
            "image_72": "https:\/\/avatars.slack-edge.com\/2020-03-21\/1018866726103_b9681d2768103ad056d7_72.jpg",
            "first_name": "",
            "real_name": "Wesley",
            "display_name": "Wesley",
            "team": "TUU48M0T1",
            "name": "someprogrammerorsomet",
            "is_restricted": false,
            "is_ultra_restricted": false
        },
        "edited": {
            "user": "UVDCTDP8B",
            "ts": "1587066427.000000"
        },
        "blocks": [
            {
                "type": "rich_text",
                "block_id": "j+a",
                "elements": [
                    {
                        "type": "rich_text_section",
                        "elements": [
                            {
                                "type": "text",
                                "text": "Randomized Response:\n"
                            },
                            {
                                "type": "link",
                                "url": "https:\/\/en.wikipedia.org\/wiki\/Randomized_response"
                            }
                        ]
                    }
                ]
            }
        ]
    },
    {
        "client_msg_id": "4f654c87-3ae8-43ad-9d9a-48e664b15f40",
        "type": "message",
        "text": "On-going Lit Review Document ( please feel free to edit structure ) :\n\n<https:\/\/docs.google.com\/spreadsheets\/d\/1fSN4oAkswZUp12fJB2NrwRjEGuFrqls_0oiTM_AP66k\/edit?usp=sharing>",
        "user": "UVDCTDP8B",
        "ts": "1587066905.087700",
        "team": "TUU48M0T1",
        "user_team": "TUU48M0T1",
        "source_team": "TUU48M0T1",
        "user_profile": {
            "avatar_hash": "b9681d276810",
            "image_72": "https:\/\/avatars.slack-edge.com\/2020-03-21\/1018866726103_b9681d2768103ad056d7_72.jpg",
            "first_name": "",
            "real_name": "Wesley",
            "display_name": "Wesley",
            "team": "TUU48M0T1",
            "name": "someprogrammerorsomet",
            "is_restricted": false,
            "is_ultra_restricted": false
        },
        "blocks": [
            {
                "type": "rich_text",
                "block_id": "gHgN7",
                "elements": [
                    {
                        "type": "rich_text_section",
                        "elements": [
                            {
                                "type": "text",
                                "text": "On-going Lit Review Document ( please feel free to edit structure ) :\n\n"
                            },
                            {
                                "type": "link",
                                "url": "https:\/\/docs.google.com\/spreadsheets\/d\/1fSN4oAkswZUp12fJB2NrwRjEGuFrqls_0oiTM_AP66k\/edit?usp=sharing"
                            }
                        ]
                    }
                ]
            }
        ]
    },
    {
        "client_msg_id": "37E14CD4-3A7C-4EC9-A42B-12B4EC336B3B",
        "type": "message",
        "text": "Sorry could not make call.  Quick question and I’m probably coming in way late but if we're turning it into waves that create measures for intonation, staccato then deleting it almost immediately is that still an issue. ",
        "user": "U01072UT127",
        "ts": "1587066940.088200",
        "team": "TUU48M0T1",
        "user_team": "TUU48M0T1",
        "source_team": "TUU48M0T1",
        "user_profile": {
            "avatar_hash": "65a47b12fd55",
            "image_72": "https:\/\/avatars.slack-edge.com\/2020-03-23\/1018603039072_65a47b12fd55dde2b3ca_72.jpg",
            "first_name": "David",
            "real_name": "David Suter",
            "display_name": "David Suter",
            "team": "TUU48M0T1",
            "name": "davidsuter01",
            "is_restricted": false,
            "is_ultra_restricted": false
        }
    },
    {
        "type": "message",
        "subtype": "channel_topic",
        "ts": "1587066970.088300",
        "user": "UV5EETE1Z",
        "text": "<@UV5EETE1Z> set the channel topic: AI and ML for cough detection - We are performing a lit review: <https:\/\/docs.google.com\/spreadsheets\/d\/1fSN4oAkswZUp12fJB2NrwRjEGuFrqls_0oiTM_AP66k\/edit?usp=sharing>",
        "topic": "AI and ML for cough detection - We are performing a lit review: <https:\/\/docs.google.com\/spreadsheets\/d\/1fSN4oAkswZUp12fJB2NrwRjEGuFrqls_0oiTM_AP66k\/edit?usp=sharing>",
        "reactions": [
            {
                "name": "+1",
                "users": [
                    "UV8T52QJ3",
                    "UVDCTDP8B"
                ],
                "count": 2
            }
        ]
    }
]