[
    {
        "client_msg_id": "9bffc49c-c4c9-45a4-8104-788c003a2dac",
        "type": "message",
        "text": "Tiina's taking a step back.\nHaven't heard from main organizer Hernan in about 2 weeks.",
        "user": "UVDCTDP8B",
        "ts": "1588262801.097600",
        "team": "TUU48M0T1",
        "user_team": "TUU48M0T1",
        "source_team": "TUU48M0T1",
        "user_profile": {
            "avatar_hash": "b9681d276810",
            "image_72": "https:\/\/avatars.slack-edge.com\/2020-03-21\/1018866726103_b9681d2768103ad056d7_72.jpg",
            "first_name": "",
            "real_name": "Wesley",
            "display_name": "Wesley",
            "team": "TUU48M0T1",
            "name": "someprogrammerorsomet",
            "is_restricted": false,
            "is_ultra_restricted": false
        },
        "edited": {
            "user": "UVDCTDP8B",
            "ts": "1588262820.000000"
        },
        "blocks": [
            {
                "type": "rich_text",
                "block_id": "MnM",
                "elements": [
                    {
                        "type": "rich_text_section",
                        "elements": [
                            {
                                "type": "text",
                                "text": "Tiina's taking a step back.\nHaven't heard from main organizer Hernan in about 2 weeks."
                            }
                        ]
                    }
                ]
            }
        ],
        "thread_ts": "1587994557.097000",
        "parent_user_id": "UVDCTDP8B"
    }
]