[
    {
        "client_msg_id": "6ccef62f-77b7-41ba-852e-fbe0b6d4ed0d",
        "type": "message",
        "text": "<@U0137HD742Y>",
        "user": "U011D6K9RH6",
        "ts": "1588631653.020900",
        "team": "TUU48M0T1",
        "user_team": "TUU48M0T1",
        "source_team": "TUU48M0T1",
        "user_profile": {
            "avatar_hash": "85c5155708e4",
            "image_72": "https:\/\/avatars.slack-edge.com\/2020-04-02\/1033600589794_85c5155708e4e6cfa61f_72.jpg",
            "first_name": "George",
            "real_name": "George Elerick",
            "display_name": "George Elerick",
            "team": "TUU48M0T1",
            "name": "george",
            "is_restricted": false,
            "is_ultra_restricted": false
        },
        "blocks": [
            {
                "type": "rich_text",
                "block_id": "dEjJM",
                "elements": [
                    {
                        "type": "rich_text_section",
                        "elements": [
                            {
                                "type": "user",
                                "user_id": "U0137HD742Y"
                            }
                        ]
                    }
                ]
            }
        ]
    }
]