[
    {
        "type": "message",
        "subtype": "channel_join",
        "ts": "1586589306.000200",
        "user": "U011XCJJ7KK",
        "text": "<@U011XCJJ7KK> has joined the channel"
    },
    {
        "type": "message",
        "subtype": "channel_purpose",
        "ts": "1586589306.000300",
        "user": "U011XCJJ7KK",
        "text": "<@U011XCJJ7KK> set the channel purpose: A visual tagging system for recovered\/immune peoples to prevent Coronavirus spread while making the recovered\/immune peoples productive. <https:\/\/solve.mit.edu\/challenges\/health-security-pandemics\/solutions\/19875>",
        "purpose": "A visual tagging system for recovered\/immune peoples to prevent Coronavirus spread while making the recovered\/immune peoples productive. <https:\/\/solve.mit.edu\/challenges\/health-security-pandemics\/solutions\/19875>"
    },
    {
        "client_msg_id": "4eb502bc-b9cb-4b9a-b014-46fb55a530f6",
        "type": "message",
        "text": "Currently many cities of the world like in Italy, US and other have declared 100% social isolation in home quarantine. Despite these measures taken by the authorities, many experts and authorities in different part of the world like the US have said that at least 80% of the population will be exposed or will be positive for the Coronavirus in coming months if not weeks but that does not mean most will pass away: most people will be infected but only few will pass away. This Coronavirs will not go away in very short period of time and it is likely to stay at least from 7 months to a year. So it is a matter of time that the social isolation and home quarantine will become impractical because every city will need money circulation to boost its economy. There will become a time that people will risk their health to go to work. The main question is how do we create a way that there will not be an new infections on health or untested people when the immune and recovered people decide to go to work because for immune and recovered people, there will not be any risk.\nThis project is about developing simple separation method to differ healthy and untested peoples from recovered and immune peoples to end partial social isolation\/social distancing. Meaning, visual tagging system for recovered and immune peoples to prevent Coronavirus spread while making the recovered and immune peoples productive by ending their social isolation while separating their movement by tagging the city they can only use to work, transport, recreation and do other tasks boosting the economy of the country and return to partial normal life style of a certain city. This is very critical because, you are immune or recovered does not mean you cannot transmit the virus. Since the main struggle of authorities is buying more time by slowing the infection rate of the population to provide health care when people get infected, this tagging and city separation will provide big input in giving the authorities more time by decreasing infection rate while returning the city on partial normal in economical, social, political and cultural aspects. The tagging mechanism will be simple like all immune and recovered people needs to wear same hat or scarf that will be used to differ them from the healthy and untested peoples to prevent spread.\nFor more information please visit <https:\/\/solve.mit.edu\/challenges\/health-security-pandemics\/solutions\/19875|https:\/\/solve.mit.edu\/challenges\/health-security-pandemics\/solutions\/19875>",
        "user": "U011XCJJ7KK",
        "ts": "1586589417.000700",
        "team": "TUU48M0T1",
        "user_team": "TUU48M0T1",
        "source_team": "TUU48M0T1",
        "user_profile": {
            "avatar_hash": "a14335872167",
            "image_72": "https:\/\/avatars.slack-edge.com\/2020-04-10\/1052948616998_a1433587216787500a0e_72.jpg",
            "first_name": "Anteneh",
            "real_name": "Anteneh Gashaw",
            "display_name": "",
            "team": "TUU48M0T1",
            "name": "antenh.g",
            "is_restricted": false,
            "is_ultra_restricted": false
        },
        "blocks": [
            {
                "type": "rich_text",
                "block_id": "yGl",
                "elements": [
                    {
                        "type": "rich_text_section",
                        "elements": [
                            {
                                "type": "text",
                                "text": "Currently many cities of the world like in Italy, US and other have declared 100% social isolation in home quarantine. Despite these measures taken by the authorities, many experts and authorities in different part of the world like the US have said that at least 80% of the population will be exposed or will be positive for the Coronavirus in coming months if not weeks but that does not mean most will pass away: most people will be infected but only few will pass away. This Coronavirs will not go away in very short period of time and it is likely to stay at least from 7 months to a year. So it is a matter of time that the social isolation and home quarantine will become impractical because every city will need money circulation to boost its economy. There will become a time that people will risk their health to go to work. The main question is how do we create a way that there will not be an new infections on health or untested people when the immune and recovered people decide to go to work because for immune and recovered people, there will not be any risk.\nThis project is about developing simple separation method to differ healthy and untested peoples from recovered and immune peoples to end partial social isolation\/social distancing. Meaning, visual tagging system for recovered and immune peoples to prevent Coronavirus spread while making the recovered and immune peoples productive by ending their social isolation while separating their movement by tagging the city they can only use to work, transport, recreation and do other tasks boosting the economy of the country and return to partial normal life style of a certain city. This is very critical because, you are immune or recovered does not mean you cannot transmit the virus. Since the main struggle of authorities is buying more time by slowing the infection rate of the population to provide health care when people get infected, this tagging and city separation will provide big input in giving the authorities more time by decreasing infection rate while returning the city on partial normal in economical, social, political and cultural aspects. The tagging mechanism will be simple like all immune and recovered people needs to wear same hat or scarf that will be used to differ them from the healthy and untested peoples to prevent spread.\nFor more information please visit "
                            },
                            {
                                "type": "link",
                                "url": "https:\/\/solve.mit.edu\/challenges\/health-security-pandemics\/solutions\/19875",
                                "text": "https:\/\/solve.mit.edu\/challenges\/health-security-pandemics\/solutions\/19875"
                            }
                        ]
                    }
                ]
            }
        ]
    }
]