[
    {
        "client_msg_id": "d4274a73-a7d1-477c-b712-7105138a204c",
        "type": "message",
        "text": "PacBio is having a webinar that might be interesting: \"Understanding SARS-CoV-2 and Host Immune Response to COVID-19 with PacBio Sequencing\".  7May @10am PDT.",
        "user": "UV1A22N3W",
        "ts": "1587798550.386900",
        "team": "TUU48M0T1",
        "user_team": "TUU48M0T1",
        "source_team": "TUU48M0T1",
        "user_profile": {
            "avatar_hash": "71f827776ad6",
            "image_72": "https:\/\/avatars.slack-edge.com\/2020-03-09\/988125642964_71f827776ad610af05a2_72.jpg",
            "first_name": "",
            "real_name": "RachelA",
            "display_name": "RachelA",
            "team": "TUU48M0T1",
            "name": "raronoff",
            "is_restricted": false,
            "is_ultra_restricted": false
        },
        "blocks": [
            {
                "type": "rich_text",
                "block_id": "uye",
                "elements": [
                    {
                        "type": "rich_text_section",
                        "elements": [
                            {
                                "type": "text",
                                "text": "PacBio is having a webinar that might be interesting: \"Understanding SARS-CoV-2 and Host Immune Response to COVID-19 with PacBio Sequencing\".  7May @10am PDT."
                            }
                        ]
                    }
                ]
            }
        ]
    },
    {
        "client_msg_id": "c4644946-c27e-4bd8-b630-b3cd5bf375fa",
        "type": "message",
        "text": "(you need to register)",
        "user": "UV1A22N3W",
        "ts": "1587798561.387200",
        "team": "TUU48M0T1",
        "user_team": "TUU48M0T1",
        "source_team": "TUU48M0T1",
        "user_profile": {
            "avatar_hash": "71f827776ad6",
            "image_72": "https:\/\/avatars.slack-edge.com\/2020-03-09\/988125642964_71f827776ad610af05a2_72.jpg",
            "first_name": "",
            "real_name": "RachelA",
            "display_name": "RachelA",
            "team": "TUU48M0T1",
            "name": "raronoff",
            "is_restricted": false,
            "is_ultra_restricted": false
        },
        "blocks": [
            {
                "type": "rich_text",
                "block_id": "wFZ",
                "elements": [
                    {
                        "type": "rich_text_section",
                        "elements": [
                            {
                                "type": "text",
                                "text": "(you need to register)"
                            }
                        ]
                    }
                ]
            }
        ]
    },
    {
        "client_msg_id": "f6f5cb1e-d0ad-4767-937a-388915c5b35d",
        "type": "message",
        "text": "Hello, dear community! :wave:\n\n*Join us the 29th of April from 7pm CET for discussions and Q&amp;As on how we’re all impacted by COVID-19 and how are we facing the challenges at an unprecedented pace.*\n\n*<https:\/\/slackcommunity.com\/events\/details\/slack-berlin-presents-european-covid-19-special\/#\/|RSVP NOW>* to reserve your seat! :rocket:\n\nDuring the first panel discussion, we’ll host organizers and founders from various European initiatives tackling COVID19. We have panelists from *EU VS Virus (organised by the European Commission*:flag-eu:*)*, *The Global Hack (Global initiative), and Hacking COVID-19 (biggest French initiative)*.\n\nThe second-panel discussion will involve people from the *Slack Platform team* discussing the transition to remote work within Slack, what role do communication platforms play in times like these in pandemics.\n\n*We look forward to welcoming you to the first joint Paneuropean* :flag-eu: *virtual Slack Platform Community event!*:slack:",
        "user": "U010R28M89Y",
        "ts": "1587812126.387400",
        "team": "TUU48M0T1",
        "user_team": "TUU48M0T1",
        "source_team": "TUU48M0T1",
        "user_profile": {
            "avatar_hash": "d337412d1dd6",
            "image_72": "https:\/\/avatars.slack-edge.com\/2020-04-28\/1090354401635_d337412d1dd6258687ed_72.png",
            "first_name": "Elie",
            "real_name": "Elie Goldfarb",
            "display_name": "Elie Goldfarb",
            "team": "TUU48M0T1",
            "name": "elie",
            "is_restricted": false,
            "is_ultra_restricted": false
        },
        "attachments": [
            {
                "title": "European COVID-19 Special | Slack Platform Community",
                "title_link": "https:\/\/slackcommunity.com\/events\/details\/slack-berlin-presents-european-covid-19-special\/#\/",
                "text": "I'm attending Slack Platform Community Berlin w\/ European COVID-19 Special on Apr 29, 2020",
                "fallback": "European COVID-19 Special | Slack Platform Community",
                "image_url": "https:\/\/res.cloudinary.com\/startup-grind\/image\/upload\/c_fill,dpr_2.0,f_auto,g_center,h_1080,q_100,w_1080\/v1\/gcs\/platform-data-slack\/events\/covid-19-01.jpg",
                "image_width": 250,
                "image_height": 250,
                "from_url": "https:\/\/slackcommunity.com\/events\/details\/slack-berlin-presents-european-covid-19-special\/#\/",
                "image_bytes": 1978733,
                "service_icon": "https:\/\/res.cloudinary.com\/startup-grind\/image\/upload\/c_fill,f_auto,g_center,h_180,q_auto:good,w_180\/v1\/gcs\/platform-data-slack\/contentbuilder\/Slack_Mark_9BIvOE5.png",
                "service_name": "slackcommunity.com",
                "id": 1,
                "original_url": "https:\/\/slackcommunity.com\/events\/details\/slack-berlin-presents-european-covid-19-special\/#\/"
            }
        ],
        "blocks": [
            {
                "type": "rich_text",
                "block_id": "AUo",
                "elements": [
                    {
                        "type": "rich_text_section",
                        "elements": [
                            {
                                "type": "text",
                                "text": "Hello, dear community! "
                            },
                            {
                                "type": "emoji",
                                "name": "wave"
                            },
                            {
                                "type": "text",
                                "text": "\n\n"
                            },
                            {
                                "type": "text",
                                "text": "Join us the 29th of April from 7pm CET for discussions and Q&As on how we’re all impacted by COVID-19 and how are we facing the challenges at an unprecedented pace.",
                                "style": {
                                    "bold": true
                                }
                            },
                            {
                                "type": "text",
                                "text": "\n\n"
                            },
                            {
                                "type": "link",
                                "url": "https:\/\/slackcommunity.com\/events\/details\/slack-berlin-presents-european-covid-19-special\/#\/",
                                "text": "RSVP NOW",
                                "style": {
                                    "bold": true
                                }
                            },
                            {
                                "type": "text",
                                "text": " to reserve your seat! "
                            },
                            {
                                "type": "emoji",
                                "name": "rocket"
                            },
                            {
                                "type": "text",
                                "text": "\n\nDuring the first panel discussion, we’ll host organizers and founders from various European initiatives tackling COVID19. We have panelists from "
                            },
                            {
                                "type": "text",
                                "text": "EU VS Virus (organised by the European Commission",
                                "style": {
                                    "bold": true
                                }
                            },
                            {
                                "type": "emoji",
                                "name": "flag-eu",
                                "style": {
                                    "bold": true
                                }
                            },
                            {
                                "type": "text",
                                "text": ")",
                                "style": {
                                    "bold": true
                                }
                            },
                            {
                                "type": "text",
                                "text": ", "
                            },
                            {
                                "type": "text",
                                "text": "The Global Hack (Global initiative), and Hacking COVID-19 (biggest French initiative)",
                                "style": {
                                    "bold": true
                                }
                            },
                            {
                                "type": "text",
                                "text": ".\n\nThe second-panel discussion will involve people from the "
                            },
                            {
                                "type": "text",
                                "text": "Slack Platform team",
                                "style": {
                                    "bold": true
                                }
                            },
                            {
                                "type": "text",
                                "text": " discussing the transition to remote work within Slack, what role do communication platforms play in times like these in pandemics.\n\n"
                            },
                            {
                                "type": "text",
                                "text": "We look forward to welcoming you to the first joint Paneuropean ",
                                "style": {
                                    "bold": true
                                }
                            },
                            {
                                "type": "emoji",
                                "name": "flag-eu",
                                "style": {
                                    "bold": true
                                }
                            },
                            {
                                "type": "text",
                                "text": " virtual Slack Platform Community event!",
                                "style": {
                                    "bold": true
                                }
                            },
                            {
                                "type": "emoji",
                                "name": "slack",
                                "style": {
                                    "bold": true
                                }
                            }
                        ]
                    }
                ]
            }
        ],
        "thread_ts": "1587812126.387400",
        "reply_count": 2,
        "reply_users_count": 2,
        "latest_reply": "1587843199.389600",
        "reply_users": [
            "UV02WET96",
            "U010R28M89Y"
        ],
        "replies": [
            {
                "user": "UV02WET96",
                "ts": "1587823776.389100"
            },
            {
                "user": "U010R28M89Y",
                "ts": "1587843199.389600"
            }
        ],
        "subscribed": false
    },
    {
        "client_msg_id": "DDFB6670-0006-4415-BF07-67E788DF3FFF",
        "type": "message",
        "text": "Hi <@U010R28M89Y>, sounds great. Would there be a way for the JOGL\/OpenCovid19 to be represented during the first panel too?",
        "user": "UV02WET96",
        "ts": "1587823776.389100",
        "team": "TUU48M0T1",
        "user_team": "TUU48M0T1",
        "source_team": "TUU48M0T1",
        "user_profile": {
            "avatar_hash": "a99c74a194f8",
            "image_72": "https:\/\/avatars.slack-edge.com\/2020-03-07\/975708504851_a99c74a194f86715ca7d_72.png",
            "first_name": "Thomas",
            "real_name": "Thomas Landrain",
            "display_name": "Thomas Landrain - JOGL CoFounder \/ CEO",
            "team": "TUU48M0T1",
            "name": "thomas",
            "is_restricted": false,
            "is_ultra_restricted": false
        },
        "blocks": [
            {
                "type": "rich_text",
                "block_id": "C6E+f",
                "elements": [
                    {
                        "type": "rich_text_section",
                        "elements": [
                            {
                                "type": "text",
                                "text": "Hi "
                            },
                            {
                                "type": "user",
                                "user_id": "U010R28M89Y"
                            },
                            {
                                "type": "text",
                                "text": ", sounds great. Would there be a way for the JOGL\/OpenCovid19 to be represented during the first panel too?"
                            }
                        ]
                    }
                ]
            }
        ],
        "thread_ts": "1587812126.387400",
        "parent_user_id": "U010R28M89Y"
    },
    {
        "client_msg_id": "cd40b614-8ebe-43c6-8388-d5829fb6f157",
        "type": "message",
        "text": "Hey <@UV02WET96>, certainly :slightly_smiling_face:",
        "user": "U010R28M89Y",
        "ts": "1587843199.389600",
        "team": "TUU48M0T1",
        "user_team": "TUU48M0T1",
        "source_team": "TUU48M0T1",
        "user_profile": {
            "avatar_hash": "d337412d1dd6",
            "image_72": "https:\/\/avatars.slack-edge.com\/2020-04-28\/1090354401635_d337412d1dd6258687ed_72.png",
            "first_name": "Elie",
            "real_name": "Elie Goldfarb",
            "display_name": "Elie Goldfarb",
            "team": "TUU48M0T1",
            "name": "elie",
            "is_restricted": false,
            "is_ultra_restricted": false
        },
        "blocks": [
            {
                "type": "rich_text",
                "block_id": "8iL",
                "elements": [
                    {
                        "type": "rich_text_section",
                        "elements": [
                            {
                                "type": "text",
                                "text": "Hey "
                            },
                            {
                                "type": "user",
                                "user_id": "UV02WET96"
                            },
                            {
                                "type": "text",
                                "text": ", certainly "
                            },
                            {
                                "type": "emoji",
                                "name": "slightly_smiling_face"
                            }
                        ]
                    }
                ]
            }
        ],
        "thread_ts": "1587812126.387400",
        "parent_user_id": "U010R28M89Y"
    },
    {
        "client_msg_id": "a6894a43-3e5c-4d40-9f47-63fa85f8608a",
        "type": "message",
        "text": "FYI:\n\n*MIT is hosting a series of challenges to empower YOU to take action on the COVID-19 crisis.*\n<https:\/\/covid19challenge.mit.edu\/> \/\/ May 1-3\n\n*Protecting Vulnerable Populations*\n_42% of people in sub-Saharan Africa live on less than $1.90 per day. How can vulnerable populations protect themselves from the effects of COVID-19?_\n\n*Strengthening the Health System*\n_How can you strengthen the health systems and health facilities that may face staff, supply, and resource shortages?_\n\n_submission deadline_\n_*April 28 by 11:59pm ET*_\n\n*<https:\/\/covid19challenge.mit.edu\/clkn\/https\/docs.google.com\/forms\/d\/e\/1FAIpQLSd80SJHxDyaQB_Y8CD0qih-qKPsBb30za5l9prBILjO36lFwQ\/viewform?usp=sf_link|Apply to participate>*",
        "user": "U0116HWM0UX",
        "ts": "1587884210.390100",
        "team": "TUU48M0T1",
        "user_team": "TUU48M0T1",
        "source_team": "TUU48M0T1",
        "user_profile": {
            "avatar_hash": "0ba6883eb3d3",
            "image_72": "https:\/\/avatars.slack-edge.com\/2020-04-03\/1050250600736_0ba6883eb3d3a9f2b765_72.jpg",
            "first_name": "Jo",
            "real_name": "Jo Havemann",
            "display_name": "Jo Havemann",
            "team": "TUU48M0T1",
            "name": "info112",
            "is_restricted": false,
            "is_ultra_restricted": false
        },
        "attachments": [
            {
                "title": "MIT COVID-19 Challenge",
                "title_link": "https:\/\/covid19challenge.mit.edu\/",
                "text": "MIT COVID-19 Challenge: a series of virtual hackathons focused on the most pressing issues of the COVID-19 crisis.",
                "fallback": "MIT COVID-19 Challenge",
                "from_url": "https:\/\/covid19challenge.mit.edu\/",
                "service_icon": "https:\/\/web.mit.edu\/favicon.ico",
                "service_name": "covid19challenge.mit.edu",
                "id": 1,
                "original_url": "https:\/\/covid19challenge.mit.edu\/"
            },
            {
                "service_name": "Google Docs",
                "title": "Africa Takes on COVID-19 Challenge Application",
                "title_link": "https:\/\/covid19challenge.mit.edu\/clkn\/https\/docs.google.com\/forms\/d\/e\/1FAIpQLSd80SJHxDyaQB_Y8CD0qih-qKPsBb30za5l9prBILjO36lFwQ\/viewform?usp=sf_link",
                "text": "What is the Africa Takes on COVID-19 Challenge? A 48-hour virtual hackathon with the goal to develop solutions that address the most pressing technical, social, and financial issues caused by the COVID-19 outbreak. What problem areas will this event be focused on? 1. Flattening the Curve: How to prevent disease transmission and protect vulnerable populations from effects of COVID-19? 2. Strengthening our Health Systems: How to strengthen the health systems and health facilities that may face staff, supplies, and resource shortages? Event Dates: Friday, May 1 to Sunday, May 3. Location: Virtual Teams will be formed at the beginning of the event. Team size limit is 7. Collaboration will be facilitated via tools such as Zoom, Slack, WhatsApp and Google Drive. Important Dates: Application Deadline - Monday, April 28 Acceptance Email Communicated to selected applicants - Wednesday, April 29 Selected applicants RSVP to the event - Thursday, April 30",
                "fallback": "Google Docs: Africa Takes on COVID-19 Challenge Application",
                "image_url": "https:\/\/lh4.googleusercontent.com\/DAhzJnZ64Er2QUwNlccg7r-c1YEySbZqEf3gUQ6HRHvJ6yUilYjzZhQzXT80rhlrMSv-nxI",
                "image_width": 333,
                "image_height": 250,
                "from_url": "https:\/\/covid19challenge.mit.edu\/clkn\/https\/docs.google.com\/forms\/d\/e\/1FAIpQLSd80SJHxDyaQB_Y8CD0qih-qKPsBb30za5l9prBILjO36lFwQ\/viewform?usp=sf_link",
                "image_bytes": 160780,
                "service_icon": "http:\/\/ssl.gstatic.com\/docs\/forms\/device_home\/ios_120.png",
                "id": 2,
                "original_url": "https:\/\/covid19challenge.mit.edu\/clkn\/https\/docs.google.com\/forms\/d\/e\/1FAIpQLSd80SJHxDyaQB_Y8CD0qih-qKPsBb30za5l9prBILjO36lFwQ\/viewform?usp=sf_link"
            }
        ],
        "blocks": [
            {
                "type": "rich_text",
                "block_id": "5j7Lx",
                "elements": [
                    {
                        "type": "rich_text_section",
                        "elements": [
                            {
                                "type": "text",
                                "text": "FYI:\n\n"
                            },
                            {
                                "type": "text",
                                "text": "MIT is hosting a series of challenges to empower YOU to take action on the COVID-19 crisis.",
                                "style": {
                                    "bold": true
                                }
                            },
                            {
                                "type": "text",
                                "text": "\n"
                            },
                            {
                                "type": "link",
                                "url": "https:\/\/covid19challenge.mit.edu\/"
                            },
                            {
                                "type": "text",
                                "text": " \/\/ May 1-3\n\n"
                            },
                            {
                                "type": "text",
                                "text": "Protecting Vulnerable Populations",
                                "style": {
                                    "bold": true
                                }
                            },
                            {
                                "type": "text",
                                "text": "\n"
                            },
                            {
                                "type": "text",
                                "text": "42% of people in sub-Saharan Africa live on less than $1.90 per day. How can vulnerable populations protect themselves from the effects of COVID-19?",
                                "style": {
                                    "italic": true
                                }
                            },
                            {
                                "type": "text",
                                "text": "\n\n"
                            },
                            {
                                "type": "text",
                                "text": "Strengthening the Health System",
                                "style": {
                                    "bold": true
                                }
                            },
                            {
                                "type": "text",
                                "text": "\n"
                            },
                            {
                                "type": "text",
                                "text": "How can you strengthen the health systems and health facilities that may face staff, supply, and resource shortages?",
                                "style": {
                                    "italic": true
                                }
                            },
                            {
                                "type": "text",
                                "text": "\n\n"
                            },
                            {
                                "type": "text",
                                "text": "submission deadline",
                                "style": {
                                    "italic": true
                                }
                            },
                            {
                                "type": "text",
                                "text": "\n"
                            },
                            {
                                "type": "text",
                                "text": "April 28 by 11:59pm ET",
                                "style": {
                                    "bold": true,
                                    "italic": true
                                }
                            },
                            {
                                "type": "text",
                                "text": "\n\n"
                            },
                            {
                                "type": "link",
                                "url": "https:\/\/covid19challenge.mit.edu\/clkn\/https\/docs.google.com\/forms\/d\/e\/1FAIpQLSd80SJHxDyaQB_Y8CD0qih-qKPsBb30za5l9prBILjO36lFwQ\/viewform?usp=sf_link",
                                "text": "Apply to participate",
                                "style": {
                                    "bold": true
                                }
                            }
                        ]
                    }
                ]
            }
        ],
        "reactions": [
            {
                "name": "+1",
                "users": [
                    "UV9V03C8Y"
                ],
                "count": 1
            }
        ]
    }
]