[
    {
        "client_msg_id": "51637133-00bd-4fd5-9e2a-210e8ca38b2f",
        "type": "message",
        "text": "<http:\/\/global.chinadaily.com.cn\/a\/202003\/31\/WS5e8296f2a3101282172832bd.html|http:\/\/global.chinadaily.com.cn\/a\/202003\/31\/WS5e8296f2a3101282172832bd.html>",
        "user": "U010BA2NL9E",
        "ts": "1585855481.129000",
        "team": "TUU48M0T1",
        "user_team": "TUU48M0T1",
        "source_team": "TUU48M0T1",
        "user_profile": {
            "avatar_hash": "g3fa100f8f14",
            "image_72": "https:\/\/secure.gravatar.com\/avatar\/3fa100f8f14fc86a0f2f58648b36d29e.jpg?s=72&d=https%3A%2F%2Fa.slack-edge.com%2Fdf10d%2Fimg%2Favatars%2Fava_0008-72.png",
            "first_name": "",
            "real_name": "Eduardo Garcia",
            "display_name": "Eduardo Garcia",
            "team": "TUU48M0T1",
            "name": "eduardo.garcia",
            "is_restricted": false,
            "is_ultra_restricted": false
        },
        "attachments": [
            {
                "title": "Chinese trial vaccine may be tested abroad - Chinadaily.com.cn",
                "title_link": "http:\/\/global.chinadaily.com.cn\/a\/202003\/31\/WS5e8296f2a3101282172832bd.html",
                "text": "China's first candidate vaccine for the novel coronavirus may be put into additional trials in other countries seriously hit by the pandemic if the ongoing initial trial proves it is safe and effective, the top researcher for the vaccine said.",
                "fallback": "Chinese trial vaccine may be tested abroad - Chinadaily.com.cn",
                "image_url": "http:\/\/img2.chinadaily.com.cn\/images\/202003\/31\/5e829b4ba31012820664cfce.jpeg",
                "from_url": "http:\/\/global.chinadaily.com.cn\/a\/202003\/31\/WS5e8296f2a3101282172832bd.html",
                "image_width": 375,
                "image_height": 250,
                "image_bytes": 69024,
                "service_icon": "http:\/\/img3.chinadaily.com.cn\/static\/common\/img\/sharelogo.png",
                "service_name": "global.chinadaily.com.cn",
                "id": 1,
                "original_url": "http:\/\/global.chinadaily.com.cn\/a\/202003\/31\/WS5e8296f2a3101282172832bd.html"
            }
        ],
        "blocks": [
            {
                "type": "rich_text",
                "block_id": "dhmBp",
                "elements": [
                    {
                        "type": "rich_text_section",
                        "elements": [
                            {
                                "type": "link",
                                "url": "http:\/\/global.chinadaily.com.cn\/a\/202003\/31\/WS5e8296f2a3101282172832bd.html",
                                "text": "http:\/\/global.chinadaily.com.cn\/a\/202003\/31\/WS5e8296f2a3101282172832bd.html"
                            }
                        ]
                    }
                ]
            }
        ]
    },
    {
        "client_msg_id": "1b921b01-6635-4844-88a1-d4ada1bbb200",
        "type": "message",
        "text": "<https:\/\/www.medtronic.com\/us-en\/e\/open-files.html|https:\/\/www.medtronic.com\/us-en\/e\/open-files.html>\n\nFinally!!!",
        "user": "UV3JDFX17",
        "ts": "1585855994.129400",
        "team": "TUU48M0T1",
        "user_team": "TUU48M0T1",
        "source_team": "TUU48M0T1",
        "user_profile": {
            "avatar_hash": "0064b8878782",
            "image_72": "https:\/\/avatars.slack-edge.com\/2020-03-13\/1001625363255_0064b8878782a2e9f22b_72.jpg",
            "first_name": "Sebastian",
            "real_name": "Sebastian S. Cocioba",
            "display_name": "Sebastian S. Cocioba",
            "team": "TUU48M0T1",
            "name": "sebastian",
            "is_restricted": false,
            "is_ultra_restricted": false
        },
        "attachments": [
            {
                "title": "Register to Download Ventilator Files",
                "title_link": "https:\/\/www.medtronic.com\/us-en\/e\/open-files.html",
                "text": "Register to download the design specification for the PB560 ventilator system from Medtronic. Manufacturers and innovators may consult these files as part of the larger effort to confront and overcome the impact of COVID-19.",
                "fallback": "Register to Download Ventilator Files",
                "from_url": "https:\/\/www.medtronic.com\/us-en\/e\/open-files.html",
                "service_icon": "https:\/\/www.medtronic.com\/content\/dam\/medtronic-com\/apple-touch-icon-precomposed.png",
                "service_name": "medtronic.com",
                "id": 1,
                "original_url": "https:\/\/www.medtronic.com\/us-en\/e\/open-files.html"
            }
        ],
        "blocks": [
            {
                "type": "rich_text",
                "block_id": "1O8g",
                "elements": [
                    {
                        "type": "rich_text_section",
                        "elements": [
                            {
                                "type": "link",
                                "url": "https:\/\/www.medtronic.com\/us-en\/e\/open-files.html",
                                "text": "https:\/\/www.medtronic.com\/us-en\/e\/open-files.html"
                            },
                            {
                                "type": "text",
                                "text": "\n\nFinally!!!"
                            }
                        ]
                    }
                ]
            }
        ],
        "reactions": [
            {
                "name": "raised_hands",
                "users": [
                    "UV02WET96",
                    "UV10KBUQG",
                    "UV3URUKK5"
                ],
                "count": 3
            },
            {
                "name": "pray",
                "users": [
                    "U01113Y1PLP"
                ],
                "count": 1
            },
            {
                "name": "+1",
                "users": [
                    "UV1A22N3W"
                ],
                "count": 1
            }
        ]
    },
    {
        "client_msg_id": "37626427-5122-4007-b9e8-3a5ce78d886b",
        "type": "message",
        "text": "All files open",
        "user": "UV3JDFX17",
        "ts": "1585855998.129700",
        "team": "TUU48M0T1",
        "user_team": "TUU48M0T1",
        "source_team": "TUU48M0T1",
        "user_profile": {
            "avatar_hash": "0064b8878782",
            "image_72": "https:\/\/avatars.slack-edge.com\/2020-03-13\/1001625363255_0064b8878782a2e9f22b_72.jpg",
            "first_name": "Sebastian",
            "real_name": "Sebastian S. Cocioba",
            "display_name": "Sebastian S. Cocioba",
            "team": "TUU48M0T1",
            "name": "sebastian",
            "is_restricted": false,
            "is_ultra_restricted": false
        },
        "blocks": [
            {
                "type": "rich_text",
                "block_id": "J8xY",
                "elements": [
                    {
                        "type": "rich_text_section",
                        "elements": [
                            {
                                "type": "text",
                                "text": "All files open"
                            }
                        ]
                    }
                ]
            }
        ]
    },
    {
        "client_msg_id": "5c99b551-f0da-41ba-a074-f88a396d0159",
        "type": "message",
        "text": "Hi <@UV3JDFX17>! Glad to see you on here :)",
        "user": "UV10KBUQG",
        "ts": "1585857755.130900",
        "team": "TUU48M0T1",
        "user_team": "TUU48M0T1",
        "source_team": "TUU48M0T1",
        "user_profile": {
            "avatar_hash": "2deebbf6be3d",
            "image_72": "https:\/\/avatars.slack-edge.com\/2020-03-06\/976932190641_2deebbf6be3d17141d91_72.jpg",
            "first_name": "Sarah",
            "real_name": "Sarah Blossom Ware",
            "display_name": "Sarah Blossom Ware - BioBlaze Community Bio Lab",
            "team": "TUU48M0T1",
            "name": "ware.sarah",
            "is_restricted": false,
            "is_ultra_restricted": false
        },
        "blocks": [
            {
                "type": "rich_text",
                "block_id": "iDW",
                "elements": [
                    {
                        "type": "rich_text_section",
                        "elements": [
                            {
                                "type": "text",
                                "text": "Hi "
                            },
                            {
                                "type": "user",
                                "user_id": "UV3JDFX17"
                            },
                            {
                                "type": "text",
                                "text": "! Glad to see you on here :)"
                            }
                        ]
                    }
                ]
            }
        ]
    },
    {
        "client_msg_id": "6629d0a6-f57e-4e67-9b16-6ed10d8976f8",
        "type": "message",
        "text": "World Health Org. course on the setup of a severe acute respiratory infection (SARI) treatment unit: <https:\/\/openwho.org\/courses\/SARI-facilities>",
        "user": "UUWR0FJ7M",
        "ts": "1585866906.133100",
        "team": "TUU48M0T1",
        "user_team": "TUU48M0T1",
        "source_team": "TUU48M0T1",
        "user_profile": {
            "avatar_hash": "g0851a85aef5",
            "image_72": "https:\/\/secure.gravatar.com\/avatar\/0851a85aef59ee4069c5669edd21a593.jpg?s=72&d=https%3A%2F%2Fa.slack-edge.com%2Fdf10d%2Fimg%2Favatars%2Fava_0004-72.png",
            "first_name": "manuel",
            "real_name": "manuel lannaud",
            "display_name": "manu lannaud",
            "team": "TUU48M0T1",
            "name": "slack1260",
            "is_restricted": false,
            "is_ultra_restricted": false
        },
        "attachments": [
            {
                "service_name": "OpenWHO",
                "title": "Severe Acute Respiratory Infection (SARI) Treatment Facility Design",
                "title_link": "https:\/\/openwho.org\/courses\/SARI-facilities",
                "text": "Screening areas, treatment centres and community facilities are part of the strategic priorities for Severe Acute Respiratory Infection (SARI) outbreak preparedness, readiness and response. The SARI Facilities training package has been developed to meet the operational needs emerging with the COVID-19 pandemic. It provides a thorough understanding of the principles driving the design process of COVID-19 screening areas for health care facilities, community facilities and SARI treatment centres, including how to repurpose an existing building into a SARI treatment centre.",
                "fallback": "OpenWHO: Severe Acute Respiratory Infection (SARI) Treatment Facility Design",
                "image_url": "https:\/\/s3.xopic.de\/openwho-public\/courses\/1Skt9mby9PjPpp93bI005U\/visual_v3.png",
                "from_url": "https:\/\/openwho.org\/courses\/SARI-facilities",
                "image_width": 412,
                "image_height": 250,
                "image_bytes": 742188,
                "id": 1,
                "original_url": "https:\/\/openwho.org\/courses\/SARI-facilities"
            }
        ],
        "blocks": [
            {
                "type": "rich_text",
                "block_id": "1N2xC",
                "elements": [
                    {
                        "type": "rich_text_section",
                        "elements": [
                            {
                                "type": "text",
                                "text": "World Health Org. course on the setup of a severe acute respiratory infection (SARI) treatment unit: "
                            },
                            {
                                "type": "link",
                                "url": "https:\/\/openwho.org\/courses\/SARI-facilities"
                            }
                        ]
                    }
                ]
            }
        ],
        "reactions": [
            {
                "name": "+1",
                "users": [
                    "UV9V03C8Y",
                    "U010BMYLX36",
                    "UV87UQ37A",
                    "U01181TG37X"
                ],
                "count": 4
            }
        ]
    },
    {
        "client_msg_id": "82afb696-5f58-4006-86db-faebdb53dea9",
        "type": "message",
        "text": "Doctors Without Borders\/Medicos Sin Fronteras COVID-19 website in Spanish: <https:\/\/cov-19.msf.es\/>",
        "user": "UUWR0FJ7M",
        "ts": "1585867150.134000",
        "team": "TUU48M0T1",
        "user_team": "TUU48M0T1",
        "source_team": "TUU48M0T1",
        "user_profile": {
            "avatar_hash": "g0851a85aef5",
            "image_72": "https:\/\/secure.gravatar.com\/avatar\/0851a85aef59ee4069c5669edd21a593.jpg?s=72&d=https%3A%2F%2Fa.slack-edge.com%2Fdf10d%2Fimg%2Favatars%2Fava_0004-72.png",
            "first_name": "manuel",
            "real_name": "manuel lannaud",
            "display_name": "manu lannaud",
            "team": "TUU48M0T1",
            "name": "slack1260",
            "is_restricted": false,
            "is_ultra_restricted": false
        },
        "blocks": [
            {
                "type": "rich_text",
                "block_id": "5g7z",
                "elements": [
                    {
                        "type": "rich_text_section",
                        "elements": [
                            {
                                "type": "text",
                                "text": "Doctors Without Borders\/Medicos Sin Fronteras COVID-19 website in Spanish: "
                            },
                            {
                                "type": "link",
                                "url": "https:\/\/cov-19.msf.es\/"
                            }
                        ]
                    }
                ]
            }
        ]
    }
]