[
    {
        "client_msg_id": "ff51bf13-c43b-4898-9ba8-6f6217eb95af",
        "type": "message",
        "text": "Another description of what it feels like, in this case by an ICU doctor in Wales\n\n<https:\/\/youtu.be\/ejlbCmRJMW4|https:\/\/youtu.be\/ejlbCmRJMW4>",
        "user": "U010BA2NL9E",
        "ts": "1586265274.193400",
        "team": "TUU48M0T1",
        "user_team": "TUU48M0T1",
        "source_team": "TUU48M0T1",
        "user_profile": {
            "avatar_hash": "g3fa100f8f14",
            "image_72": "https:\/\/secure.gravatar.com\/avatar\/3fa100f8f14fc86a0f2f58648b36d29e.jpg?s=72&d=https%3A%2F%2Fa.slack-edge.com%2Fdf10d%2Fimg%2Favatars%2Fava_0008-72.png",
            "first_name": "",
            "real_name": "Eduardo Garcia",
            "display_name": "Eduardo Garcia",
            "team": "TUU48M0T1",
            "name": "eduardo.garcia",
            "is_restricted": false,
            "is_ultra_restricted": false
        },
        "attachments": [
            {
                "service_name": "YouTube",
                "service_url": "https:\/\/www.youtube.com\/",
                "title": "'All our ICU patients are in their 50s or younger' - frontline Welsh doctor recovered from virus",
                "title_link": "https:\/\/youtu.be\/ejlbCmRJMW4",
                "author_name": "Channel 4 News",
                "author_link": "https:\/\/www.youtube.com\/user\/Channel4News",
                "thumb_url": "https:\/\/i.ytimg.com\/vi\/ejlbCmRJMW4\/hqdefault.jpg",
                "thumb_width": 480,
                "thumb_height": 360,
                "fallback": "YouTube Video: 'All our ICU patients are in their 50s or younger' - frontline Welsh doctor recovered from virus",
                "video_html": "<iframe width=\"400\" height=\"225\" src=\"https:\/\/www.youtube.com\/embed\/ejlbCmRJMW4?feature=oembed&autoplay=1&iv_load_policy=3\" frameborder=\"0\" allow=\"accelerometer; autoplay; encrypted-media; gyroscope; picture-in-picture\" allowfullscreen><\/iframe>",
                "video_html_width": 400,
                "video_html_height": 225,
                "from_url": "https:\/\/youtu.be\/ejlbCmRJMW4",
                "service_icon": "https:\/\/a.slack-edge.com\/80588\/img\/unfurl_icons\/youtube.png",
                "id": 1,
                "original_url": "https:\/\/youtu.be\/ejlbCmRJMW4"
            }
        ],
        "blocks": [
            {
                "type": "rich_text",
                "block_id": "f8HP",
                "elements": [
                    {
                        "type": "rich_text_section",
                        "elements": [
                            {
                                "type": "text",
                                "text": "Another description of what it feels like, in this case by an ICU doctor in Wales\n\n"
                            },
                            {
                                "type": "link",
                                "url": "https:\/\/youtu.be\/ejlbCmRJMW4",
                                "text": "https:\/\/youtu.be\/ejlbCmRJMW4"
                            }
                        ]
                    }
                ]
            }
        ],
        "thread_ts": "1586074453.164800",
        "parent_user_id": "U01016B7KPY"
    },
    {
        "type": "message",
        "text": "",
        "files": [
            {
                "id": "F011BJ4A11D",
                "created": 1586267402,
                "timestamp": 1586267402,
                "name": "52738983_7.png",
                "title": "52738983_7.png",
                "mimetype": "image\/png",
                "filetype": "png",
                "pretty_type": "PNG",
                "user": "U010BA2NL9E",
                "editable": false,
                "size": 56203,
                "mode": "hosted",
                "is_external": false,
                "external_type": "",
                "is_public": true,
                "public_url_shared": false,
                "display_as_bot": false,
                "username": "",
                "url_private": "https:\/\/files.slack.com\/files-pri\/TUU48M0T1-F011BJ4A11D\/52738983_7.png?t=xoxe-980144714919-1106606678066-1105227127893-6f722bb664235052954ad46852628b64",
                "url_private_download": "https:\/\/files.slack.com\/files-pri\/TUU48M0T1-F011BJ4A11D\/download\/52738983_7.png?t=xoxe-980144714919-1106606678066-1105227127893-6f722bb664235052954ad46852628b64",
                "thumb_64": "https:\/\/files.slack.com\/files-tmb\/TUU48M0T1-F011BJ4A11D-cdce2d9801\/52738983_7_64.png?t=xoxe-980144714919-1106606678066-1105227127893-6f722bb664235052954ad46852628b64",
                "thumb_80": "https:\/\/files.slack.com\/files-tmb\/TUU48M0T1-F011BJ4A11D-cdce2d9801\/52738983_7_80.png?t=xoxe-980144714919-1106606678066-1105227127893-6f722bb664235052954ad46852628b64",
                "thumb_360": "https:\/\/files.slack.com\/files-tmb\/TUU48M0T1-F011BJ4A11D-cdce2d9801\/52738983_7_360.png?t=xoxe-980144714919-1106606678066-1105227127893-6f722bb664235052954ad46852628b64",
                "thumb_360_w": 360,
                "thumb_360_h": 360,
                "thumb_480": "https:\/\/files.slack.com\/files-tmb\/TUU48M0T1-F011BJ4A11D-cdce2d9801\/52738983_7_480.png?t=xoxe-980144714919-1106606678066-1105227127893-6f722bb664235052954ad46852628b64",
                "thumb_480_w": 480,
                "thumb_480_h": 480,
                "thumb_160": "https:\/\/files.slack.com\/files-tmb\/TUU48M0T1-F011BJ4A11D-cdce2d9801\/52738983_7_160.png?t=xoxe-980144714919-1106606678066-1105227127893-6f722bb664235052954ad46852628b64",
                "thumb_720": "https:\/\/files.slack.com\/files-tmb\/TUU48M0T1-F011BJ4A11D-cdce2d9801\/52738983_7_720.png?t=xoxe-980144714919-1106606678066-1105227127893-6f722bb664235052954ad46852628b64",
                "thumb_720_w": 720,
                "thumb_720_h": 720,
                "thumb_800": "https:\/\/files.slack.com\/files-tmb\/TUU48M0T1-F011BJ4A11D-cdce2d9801\/52738983_7_800.png?t=xoxe-980144714919-1106606678066-1105227127893-6f722bb664235052954ad46852628b64",
                "thumb_800_w": 800,
                "thumb_800_h": 800,
                "thumb_960": "https:\/\/files.slack.com\/files-tmb\/TUU48M0T1-F011BJ4A11D-cdce2d9801\/52738983_7_960.png?t=xoxe-980144714919-1106606678066-1105227127893-6f722bb664235052954ad46852628b64",
                "thumb_960_w": 960,
                "thumb_960_h": 960,
                "thumb_1024": "https:\/\/files.slack.com\/files-tmb\/TUU48M0T1-F011BJ4A11D-cdce2d9801\/52738983_7_1024.png?t=xoxe-980144714919-1106606678066-1105227127893-6f722bb664235052954ad46852628b64",
                "thumb_1024_w": 1024,
                "thumb_1024_h": 1024,
                "image_exif_rotation": 1,
                "original_w": 1440,
                "original_h": 1440,
                "thumb_tiny": "AwAwADDQO7PBGPcUnz+q\/lSuCcYJH0poRv7x\/E0ALh\/7w\/KjD+o\/KmPlSOWOfQ0OGUZ3MfoaAsPw\/qv5Uo3dyPwpgUlQdx596eoIHJzQAN0oB96G6UDpQAMqtjcAfrQwDDBAP1pabIGK\/LnOexxQAkgYKAmfwxTx0GetMZzGi5xn3NPByAaBsRjgd\/wpA3HRvypcndjacY60v4UCE3D0P5U1iGGPmH04p9FADdwAAw35UoOaWigD\/9k=",
                "permalink": "https:\/\/open-covid19.slack.com\/files\/U010BA2NL9E\/F011BJ4A11D\/52738983_7.png",
                "permalink_public": "https:\/\/slack-files.com\/TUU48M0T1-F011BJ4A11D-b9b369748c",
                "is_starred": false,
                "has_rich_preview": false
            }
        ],
        "upload": true,
        "user": "U010BA2NL9E",
        "display_as_bot": false,
        "ts": "1586267425.194100",
        "client_msg_id": "782eb796-5022-4605-94fe-80a86261ecca",
        "thread_ts": "1586074453.164800",
        "parent_user_id": "U01016B7KPY"
    },
    {
        "client_msg_id": "e5d7a5c9-59f1-4f09-8aae-db8f933b4b32",
        "type": "message",
        "text": "<https:\/\/www.washingtonpost.com\/world\/asia_pacific\/new-zealand-isnt-just-flattening-the-curve-its-squashing-it\/2020\/04\/07\/6cab3a4a-7822-11ea-a311-adb1344719a9_story.html?utm_campaign=wp_post_most&amp;utm_medium=email&amp;utm_source=newsletter&amp;wpisrc=nl_most>",
        "user": "UV1A22N3W",
        "ts": "1586295884.196600",
        "team": "TUU48M0T1",
        "user_team": "TUU48M0T1",
        "source_team": "TUU48M0T1",
        "user_profile": {
            "avatar_hash": "71f827776ad6",
            "image_72": "https:\/\/avatars.slack-edge.com\/2020-03-09\/988125642964_71f827776ad610af05a2_72.jpg",
            "first_name": "",
            "real_name": "RachelA",
            "display_name": "RachelA",
            "team": "TUU48M0T1",
            "name": "raronoff",
            "is_restricted": false,
            "is_ultra_restricted": false
        },
        "attachments": [
            {
                "service_name": "Washington Post",
                "title": "New Zealand isn’t just flattening the curve. It’s squashing it.",
                "title_link": "https:\/\/www.washingtonpost.com\/world\/asia_pacific\/new-zealand-isnt-just-flattening-the-curve-its-squashing-it\/2020\/04\/07\/6cab3a4a-7822-11ea-a311-adb1344719a9_story.html?utm_campaign=wp_post_most&utm_medium=email&utm_source=newsletter&wpisrc=nl_most",
                "text": "The number of new coronavirus cases is starting to decline as the country pursues a policy of elimination rather than containment.",
                "fallback": "Washington Post: New Zealand isn’t just flattening the curve. It’s squashing it.",
                "image_url": "https:\/\/www.washingtonpost.com\/resizer\/T6yMrkYF4pjB66xeNNjjQ-KrpTA=\/1440x0\/smart\/arc-anglerfish-washpost-prod-washpost.s3.amazonaws.com\/public\/UJZAM5DYXMI6VIJQ35LTI2PQSQ.jpg",
                "from_url": "https:\/\/www.washingtonpost.com\/world\/asia_pacific\/new-zealand-isnt-just-flattening-the-curve-its-squashing-it\/2020\/04\/07\/6cab3a4a-7822-11ea-a311-adb1344719a9_story.html?utm_campaign=wp_post_most&utm_medium=email&utm_source=newsletter&wpisrc=nl_most",
                "image_width": 375,
                "image_height": 250,
                "image_bytes": 254800,
                "service_icon": "https:\/\/www.washingtonpost.com\/pf\/resources\/images\/touch-icon-iphone.png?d=231",
                "id": 1,
                "original_url": "https:\/\/www.washingtonpost.com\/world\/asia_pacific\/new-zealand-isnt-just-flattening-the-curve-its-squashing-it\/2020\/04\/07\/6cab3a4a-7822-11ea-a311-adb1344719a9_story.html?utm_campaign=wp_post_most&amp;utm_medium=email&amp;utm_source=newsletter&amp;wpisrc=nl_most"
            }
        ],
        "blocks": [
            {
                "type": "rich_text",
                "block_id": "pcSmD",
                "elements": [
                    {
                        "type": "rich_text_section",
                        "elements": [
                            {
                                "type": "link",
                                "url": "https:\/\/www.washingtonpost.com\/world\/asia_pacific\/new-zealand-isnt-just-flattening-the-curve-its-squashing-it\/2020\/04\/07\/6cab3a4a-7822-11ea-a311-adb1344719a9_story.html?utm_campaign=wp_post_most&utm_medium=email&utm_source=newsletter&wpisrc=nl_most"
                            }
                        ]
                    }
                ]
            }
        ],
        "reactions": [
            {
                "name": "heart",
                "users": [
                    "U0119SR5LMT"
                ],
                "count": 1
            },
            {
                "name": "clap",
                "users": [
                    "U011D8T1Z61"
                ],
                "count": 1
            }
        ]
    },
    {
        "client_msg_id": "d9cf1e8d-73bb-4faa-869e-a81df865c2e2",
        "type": "message",
        "text": "<https:\/\/www.bostonherald.com\/2020\/04\/06\/massachusetts-general-hospital-among-first-to-test-nitric-oxide-on-pandemic-patients\/|https:\/\/www.bostonherald.com\/2020\/04\/06\/massachusetts-general-hospital-among-first-to-test-nitric-oxide-on-pandemic-patients\/>",
        "user": "U010BA2NL9E",
        "ts": "1586325135.197300",
        "team": "TUU48M0T1",
        "user_team": "TUU48M0T1",
        "source_team": "TUU48M0T1",
        "user_profile": {
            "avatar_hash": "g3fa100f8f14",
            "image_72": "https:\/\/secure.gravatar.com\/avatar\/3fa100f8f14fc86a0f2f58648b36d29e.jpg?s=72&d=https%3A%2F%2Fa.slack-edge.com%2Fdf10d%2Fimg%2Favatars%2Fava_0008-72.png",
            "first_name": "",
            "real_name": "Eduardo Garcia",
            "display_name": "Eduardo Garcia",
            "team": "TUU48M0T1",
            "name": "eduardo.garcia",
            "is_restricted": false,
            "is_ultra_restricted": false
        },
        "attachments": [
            {
                "service_name": "Boston Herald",
                "title": "Massachusetts General Hospital the first to test nitric oxide on pandemic patients",
                "title_link": "https:\/\/www.bostonherald.com\/2020\/04\/06\/massachusetts-general-hospital-among-first-to-test-nitric-oxide-on-pandemic-patients\/",
                "text": "A “remarkable” drug known to relax blood vessels could help coronavirus patients with severely damaged lungs and will be tested at Massachusetts General Hospital, making it the first ce…",
                "fallback": "Boston Herald: Massachusetts General Hospital the first to test nitric oxide on pandemic patients",
                "image_url": "https:\/\/www.bostonherald.com\/wp-content\/uploads\/2020\/03\/031920MGHfn01.jpg?w=1024&h=682",
                "image_width": 375,
                "image_height": 250,
                "ts": 1586218577,
                "from_url": "https:\/\/www.bostonherald.com\/2020\/04\/06\/massachusetts-general-hospital-among-first-to-test-nitric-oxide-on-pandemic-patients\/",
                "image_bytes": 232228,
                "service_icon": "https:\/\/www.bostonherald.com\/wp-content\/uploads\/2019\/03\/HeraldIcon.jpg?w=180",
                "id": 1,
                "original_url": "https:\/\/www.bostonherald.com\/2020\/04\/06\/massachusetts-general-hospital-among-first-to-test-nitric-oxide-on-pandemic-patients\/"
            }
        ],
        "blocks": [
            {
                "type": "rich_text",
                "block_id": "OLVF",
                "elements": [
                    {
                        "type": "rich_text_section",
                        "elements": [
                            {
                                "type": "link",
                                "url": "https:\/\/www.bostonherald.com\/2020\/04\/06\/massachusetts-general-hospital-among-first-to-test-nitric-oxide-on-pandemic-patients\/",
                                "text": "https:\/\/www.bostonherald.com\/2020\/04\/06\/massachusetts-general-hospital-among-first-to-test-nitric-oxide-on-pandemic-patients\/"
                            }
                        ]
                    }
                ]
            }
        ]
    },
    {
        "client_msg_id": "8cc0aa7f-49a0-4179-9e49-6a75e60869a0",
        "type": "message",
        "text": "Ten Weeks to Crush the CurveList of authors.Harvey V. Fineberg, M.D., Ph.D.\n\n<https:\/\/www.nejm.org\/doi\/full\/10.1056\/NEJMe2007263|https:\/\/www.nejm.org\/doi\/full\/10.1056\/NEJMe2007263>",
        "user": "U010BA2NL9E",
        "ts": "1586326432.198000",
        "team": "TUU48M0T1",
        "user_team": "TUU48M0T1",
        "source_team": "TUU48M0T1",
        "user_profile": {
            "avatar_hash": "g3fa100f8f14",
            "image_72": "https:\/\/secure.gravatar.com\/avatar\/3fa100f8f14fc86a0f2f58648b36d29e.jpg?s=72&d=https%3A%2F%2Fa.slack-edge.com%2Fdf10d%2Fimg%2Favatars%2Fava_0008-72.png",
            "first_name": "",
            "real_name": "Eduardo Garcia",
            "display_name": "Eduardo Garcia",
            "team": "TUU48M0T1",
            "name": "eduardo.garcia",
            "is_restricted": false,
            "is_ultra_restricted": false
        },
        "edited": {
            "user": "U010BA2NL9E",
            "ts": "1586326460.000000"
        },
        "blocks": [
            {
                "type": "rich_text",
                "block_id": "5cD",
                "elements": [
                    {
                        "type": "rich_text_section",
                        "elements": [
                            {
                                "type": "text",
                                "text": "Ten Weeks to Crush the CurveList of authors.Harvey V. Fineberg, M.D., Ph.D.\n\n"
                            },
                            {
                                "type": "link",
                                "url": "https:\/\/www.nejm.org\/doi\/full\/10.1056\/NEJMe2007263",
                                "text": "https:\/\/www.nejm.org\/doi\/full\/10.1056\/NEJMe2007263"
                            }
                        ]
                    }
                ]
            }
        ]
    },
    {
        "client_msg_id": "7b32c60a-26fe-4d9f-bcb6-3593d5ab664a",
        "type": "message",
        "text": "Hackuarium has a Board meeting (virtually, of course) this evening, so I will miss the general call most likely <@UV02WET96> and All!!  Thanks for all the inspiration and efforts here and everywhere!  Take care!!",
        "user": "UV1A22N3W",
        "ts": "1586328449.199500",
        "team": "TUU48M0T1",
        "user_team": "TUU48M0T1",
        "source_team": "TUU48M0T1",
        "user_profile": {
            "avatar_hash": "71f827776ad6",
            "image_72": "https:\/\/avatars.slack-edge.com\/2020-03-09\/988125642964_71f827776ad610af05a2_72.jpg",
            "first_name": "",
            "real_name": "RachelA",
            "display_name": "RachelA",
            "team": "TUU48M0T1",
            "name": "raronoff",
            "is_restricted": false,
            "is_ultra_restricted": false
        },
        "blocks": [
            {
                "type": "rich_text",
                "block_id": "h3F",
                "elements": [
                    {
                        "type": "rich_text_section",
                        "elements": [
                            {
                                "type": "text",
                                "text": "Hackuarium has a Board meeting (virtually, of course) this evening, so I will miss the general call most likely "
                            },
                            {
                                "type": "user",
                                "user_id": "UV02WET96"
                            },
                            {
                                "type": "text",
                                "text": " and All!!  Thanks for all the inspiration and efforts here and everywhere!  Take care!!"
                            }
                        ]
                    }
                ]
            }
        ],
        "reactions": [
            {
                "name": "+1",
                "users": [
                    "UV0QTJCMT",
                    "UV02WET96"
                ],
                "count": 2
            }
        ]
    }
]