[
    {
        "type": "message",
        "subtype": "channel_join",
        "ts": "1583535779.000200",
        "user": "UV0ASBY3E",
        "text": "<@UV0ASBY3E> has joined the channel"
    },
    {
        "type": "message",
        "subtype": "channel_join",
        "ts": "1583535967.000400",
        "user": "UV0QTJCMT",
        "text": "<@UV0QTJCMT> has joined the channel"
    },
    {
        "type": "message",
        "subtype": "channel_join",
        "ts": "1583536792.000600",
        "user": "UV0BB32QL",
        "text": "<@UV0BB32QL> has joined the channel"
    },
    {
        "type": "message",
        "subtype": "channel_join",
        "ts": "1583537794.000800",
        "user": "UV0RRGB6H",
        "text": "<@UV0RRGB6H> has joined the channel"
    },
    {
        "type": "message",
        "subtype": "channel_join",
        "ts": "1583542572.001000",
        "user": "UV2P7ML3Z",
        "text": "<@UV2P7ML3Z> has joined the channel"
    },
    {
        "type": "message",
        "subtype": "channel_join",
        "ts": "1583547766.000200",
        "user": "UUPF597H9",
        "text": "<@UUPF597H9> has joined the channel"
    },
    {
        "type": "message",
        "subtype": "channel_join",
        "ts": "1583548547.000400",
        "user": "UV0FQT2QL",
        "text": "<@UV0FQT2QL> has joined the channel"
    },
    {
        "type": "message",
        "subtype": "channel_join",
        "ts": "1583548881.000600",
        "user": "UUPFF4TC3",
        "text": "<@UUPFF4TC3> has joined the channel"
    },
    {
        "type": "message",
        "subtype": "channel_join",
        "ts": "1583552392.000200",
        "user": "UV10KBUQG",
        "text": "<@UV10KBUQG> has joined the channel"
    },
    {
        "type": "message",
        "subtype": "channel_join",
        "ts": "1583553884.000400",
        "user": "UV372RJMC",
        "text": "<@UV372RJMC> has joined the channel"
    },
    {
        "type": "message",
        "subtype": "channel_join",
        "ts": "1583554253.000600",
        "user": "UV2SC7ZE3",
        "text": "<@UV2SC7ZE3> has joined the channel"
    },
    {
        "type": "message",
        "subtype": "channel_join",
        "ts": "1583556940.000800",
        "user": "UV120B2P7",
        "text": "<@UV120B2P7> has joined the channel"
    }
]