[
    {
        "client_msg_id": "B74FBF39-2D8B-4E26-831C-27DCFE1EF205",
        "type": "message",
        "text": "saw this today re: testing - most people receive at least two tests -- swabs for the nose and the throat. (I thought sputum should be most impt.) do we have any real med practitioners here??",
        "user": "UV1A22N3W",
        "ts": "1583740966.011400",
        "team": "TUU48M0T1",
        "user_team": "TUU48M0T1",
        "source_team": "TUU48M0T1",
        "user_profile": {
            "avatar_hash": "71f827776ad6",
            "image_72": "https:\/\/avatars.slack-edge.com\/2020-03-09\/988125642964_71f827776ad610af05a2_72.jpg",
            "first_name": "",
            "real_name": "RachelA",
            "display_name": "RachelA",
            "team": "TUU48M0T1",
            "name": "raronoff",
            "is_restricted": false,
            "is_ultra_restricted": false
        },
        "blocks": [
            {
                "type": "rich_text",
                "block_id": "odal",
                "elements": [
                    {
                        "type": "rich_text_section",
                        "elements": [
                            {
                                "type": "text",
                                "text": "saw this today re: testing - most people receive at least two tests -- swabs for the nose and the throat. (I thought sputum should be most impt.) do we have any real med practitioners here??"
                            }
                        ]
                    }
                ]
            }
        ],
        "thread_ts": "1583740966.011400",
        "reply_count": 5,
        "reply_users_count": 2,
        "latest_reply": "1583784360.015600",
        "reply_users": [
            "UUUEFQW8N",
            "UV0QTJCMT"
        ],
        "replies": [
            {
                "user": "UUUEFQW8N",
                "ts": "1583758952.011500"
            },
            {
                "user": "UV0QTJCMT",
                "ts": "1583772181.013800"
            },
            {
                "user": "UUUEFQW8N",
                "ts": "1583784247.014200"
            },
            {
                "user": "UV0QTJCMT",
                "ts": "1583784292.015400"
            },
            {
                "user": "UUUEFQW8N",
                "ts": "1583784360.015600"
            }
        ],
        "subscribed": true,
        "last_read": "1583784360.015600"
    },
    {
        "client_msg_id": "5f0c5dde-47ca-420a-becc-79b7b00acca1",
        "type": "message",
        "text": "I've heard nose &amp; throat are what they focus on as well. What questions do you have for medical practitioners? We can gather those questions somewhere (<@UV0QTJCMT> for input on where best to store these on the Google drive) and seek out expert input if we don't have that expertise within the active participants of the project",
        "user": "UUUEFQW8N",
        "ts": "1583758952.011500",
        "team": "TUU48M0T1",
        "user_team": "TUU48M0T1",
        "source_team": "TUU48M0T1",
        "user_profile": {
            "avatar_hash": "5660f4d7fe91",
            "image_72": "https:\/\/avatars.slack-edge.com\/2020-03-06\/974037299378_5660f4d7fe9118b28c09_72.jpg",
            "first_name": "zachmueller",
            "real_name": "zachmueller",
            "display_name": "zachmueller",
            "team": "TUU48M0T1",
            "name": "zach",
            "is_restricted": false,
            "is_ultra_restricted": false
        },
        "blocks": [
            {
                "type": "rich_text",
                "block_id": "kqd",
                "elements": [
                    {
                        "type": "rich_text_section",
                        "elements": [
                            {
                                "type": "text",
                                "text": "I've heard nose & throat are what they focus on as well. What questions do you have for medical practitioners? We can gather those questions somewhere ("
                            },
                            {
                                "type": "user",
                                "user_id": "UV0QTJCMT"
                            },
                            {
                                "type": "text",
                                "text": " for input on where best to store these on the Google drive) and seek out expert input if we don't have that expertise within the active participants of the project"
                            }
                        ]
                    }
                ]
            }
        ],
        "thread_ts": "1583740966.011400",
        "parent_user_id": "UV1A22N3W"
    },
    {
        "client_msg_id": "bac20c52-727d-4f82-a92e-f4794fa4def6",
        "type": "message",
        "text": "I’ve actually replied to him already but he refused to help a citizen science Initiative  :flushed:",
        "user": "UV02WET96",
        "ts": "1583760781.011700",
        "team": "TUU48M0T1",
        "user_team": "TUU48M0T1",
        "source_team": "TUU48M0T1",
        "user_profile": {
            "avatar_hash": "a99c74a194f8",
            "image_72": "https:\/\/avatars.slack-edge.com\/2020-03-07\/975708504851_a99c74a194f86715ca7d_72.png",
            "first_name": "Thomas",
            "real_name": "Thomas Landrain",
            "display_name": "Thomas Landrain - JOGL CoFounder \/ CEO",
            "team": "TUU48M0T1",
            "name": "thomas",
            "is_restricted": false,
            "is_ultra_restricted": false
        },
        "blocks": [
            {
                "type": "rich_text",
                "block_id": "MubAh",
                "elements": [
                    {
                        "type": "rich_text_section",
                        "elements": [
                            {
                                "type": "text",
                                "text": "I’ve actually replied to him already but he refused to help a citizen science Initiative  "
                            },
                            {
                                "type": "emoji",
                                "name": "flushed"
                            }
                        ]
                    }
                ]
            }
        ],
        "thread_ts": "1583716719.008500",
        "parent_user_id": "UUNGFHSV8"
    },
    {
        "client_msg_id": "fadb36e3-1685-45c5-be2f-b1992d1361eb",
        "type": "message",
        "text": "I tried to argue back. We’ll see",
        "user": "UV02WET96",
        "ts": "1583760798.011900",
        "team": "TUU48M0T1",
        "user_team": "TUU48M0T1",
        "source_team": "TUU48M0T1",
        "user_profile": {
            "avatar_hash": "a99c74a194f8",
            "image_72": "https:\/\/avatars.slack-edge.com\/2020-03-07\/975708504851_a99c74a194f86715ca7d_72.png",
            "first_name": "Thomas",
            "real_name": "Thomas Landrain",
            "display_name": "Thomas Landrain - JOGL CoFounder \/ CEO",
            "team": "TUU48M0T1",
            "name": "thomas",
            "is_restricted": false,
            "is_ultra_restricted": false
        },
        "blocks": [
            {
                "type": "rich_text",
                "block_id": "zU2x",
                "elements": [
                    {
                        "type": "rich_text_section",
                        "elements": [
                            {
                                "type": "text",
                                "text": "I tried to argue back. We’ll see"
                            }
                        ]
                    }
                ]
            }
        ],
        "thread_ts": "1583716719.008500",
        "parent_user_id": "UUNGFHSV8",
        "reactions": [
            {
                "name": "+1",
                "users": [
                    "UV1A22N3W"
                ],
                "count": 1
            }
        ]
    },
    {
        "client_msg_id": "FF14CFD3-C3F3-446E-BF13-BF915AE828F4",
        "type": "message",
        "text": "<@UUUEFQW8N> we should probably get the organization system rolling in the google drive and then i’d say we can create a master doc of questions in the “collaborations” folder so it’s in the same spot as the expert survey form",
        "user": "UV0QTJCMT",
        "ts": "1583772181.013800",
        "team": "TUU48M0T1",
        "user_team": "TUU48M0T1",
        "source_team": "TUU48M0T1",
        "user_profile": {
            "avatar_hash": "06a6ae8f69d1",
            "image_72": "https:\/\/avatars.slack-edge.com\/2020-04-13\/1060635499315_06a6ae8f69d18f1ad464_72.png",
            "first_name": "Katherine",
            "real_name": "Katherine Holo",
            "display_name": "Kat Holo - Co-Organizer of OpenCOVID19",
            "team": "TUU48M0T1",
            "name": "katherineh245",
            "is_restricted": false,
            "is_ultra_restricted": false
        },
        "blocks": [
            {
                "type": "rich_text",
                "block_id": "HZR6",
                "elements": [
                    {
                        "type": "rich_text_section",
                        "elements": [
                            {
                                "type": "user",
                                "user_id": "UUUEFQW8N"
                            },
                            {
                                "type": "text",
                                "text": " we should probably get the organization system rolling in the google drive and then i’d say we can create a master doc of questions in the “collaborations” folder so it’s in the same spot as the expert survey form"
                            }
                        ]
                    }
                ]
            }
        ],
        "thread_ts": "1583740966.011400",
        "parent_user_id": "UV1A22N3W"
    },
    {
        "client_msg_id": "fc6582ec-95a6-40a7-8be6-5fbfc1c0d5b1",
        "type": "message",
        "text": "Cool, when do you think we can push out the new organization stuff? Are there parts we can start rolling out now that won't at least slow people down or disrupt their work while we wait on any needed responses to other pieces of it",
        "user": "UUUEFQW8N",
        "ts": "1583784247.014200",
        "team": "TUU48M0T1",
        "user_team": "TUU48M0T1",
        "source_team": "TUU48M0T1",
        "user_profile": {
            "avatar_hash": "5660f4d7fe91",
            "image_72": "https:\/\/avatars.slack-edge.com\/2020-03-06\/974037299378_5660f4d7fe9118b28c09_72.jpg",
            "first_name": "zachmueller",
            "real_name": "zachmueller",
            "display_name": "zachmueller",
            "team": "TUU48M0T1",
            "name": "zach",
            "is_restricted": false,
            "is_ultra_restricted": false
        },
        "blocks": [
            {
                "type": "rich_text",
                "block_id": "\/9IKS",
                "elements": [
                    {
                        "type": "rich_text_section",
                        "elements": [
                            {
                                "type": "text",
                                "text": "Cool, when do you think we can push out the new organization stuff? Are there parts we can start rolling out now that won't at least slow people down or disrupt their work while we wait on any needed responses to other pieces of it"
                            }
                        ]
                    }
                ]
            }
        ],
        "thread_ts": "1583740966.011400",
        "parent_user_id": "UV1A22N3W"
    },
    {
        "client_msg_id": "43E42831-7874-40D4-84FE-68406B4ECDC2",
        "type": "message",
        "text": "<@UUUEFQW8N> yea i mean we can definitely start creating some of the non-research folders—i posted the message in the open lab notebook channel to see if people had thoughts on it",
        "user": "UV0QTJCMT",
        "ts": "1583784292.015400",
        "team": "TUU48M0T1",
        "user_team": "TUU48M0T1",
        "source_team": "TUU48M0T1",
        "user_profile": {
            "avatar_hash": "06a6ae8f69d1",
            "image_72": "https:\/\/avatars.slack-edge.com\/2020-04-13\/1060635499315_06a6ae8f69d18f1ad464_72.png",
            "first_name": "Katherine",
            "real_name": "Katherine Holo",
            "display_name": "Kat Holo - Co-Organizer of OpenCOVID19",
            "team": "TUU48M0T1",
            "name": "katherineh245",
            "is_restricted": false,
            "is_ultra_restricted": false
        },
        "blocks": [
            {
                "type": "rich_text",
                "block_id": "sIVvw",
                "elements": [
                    {
                        "type": "rich_text_section",
                        "elements": [
                            {
                                "type": "user",
                                "user_id": "UUUEFQW8N"
                            },
                            {
                                "type": "text",
                                "text": " yea i mean we can definitely start creating some of the non-research folders—i posted the message in the open lab notebook channel to see if people had thoughts on it"
                            }
                        ]
                    }
                ]
            }
        ],
        "thread_ts": "1583740966.011400",
        "parent_user_id": "UV1A22N3W"
    },
    {
        "client_msg_id": "8ac92726-75e4-475c-b1de-a544f581a2dd",
        "type": "message",
        "text": "Yeah let's as least start with that. Then maybe also start pinging the <#CUDEHLGHY|general> channel that we want to start migrating content out of the main doc into subfolders to better organize everything around the different methods and by research vs protocols",
        "user": "UUUEFQW8N",
        "ts": "1583784360.015600",
        "team": "TUU48M0T1",
        "user_team": "TUU48M0T1",
        "source_team": "TUU48M0T1",
        "user_profile": {
            "avatar_hash": "5660f4d7fe91",
            "image_72": "https:\/\/avatars.slack-edge.com\/2020-03-06\/974037299378_5660f4d7fe9118b28c09_72.jpg",
            "first_name": "zachmueller",
            "real_name": "zachmueller",
            "display_name": "zachmueller",
            "team": "TUU48M0T1",
            "name": "zach",
            "is_restricted": false,
            "is_ultra_restricted": false
        },
        "blocks": [
            {
                "type": "rich_text",
                "block_id": "=HjhU",
                "elements": [
                    {
                        "type": "rich_text_section",
                        "elements": [
                            {
                                "type": "text",
                                "text": "Yeah let's as least start with that. Then maybe also start pinging the "
                            },
                            {
                                "type": "channel",
                                "channel_id": "CUDEHLGHY"
                            },
                            {
                                "type": "text",
                                "text": " channel that we want to start migrating content out of the main doc into subfolders to better organize everything around the different methods and by research vs protocols"
                            }
                        ]
                    }
                ]
            }
        ],
        "thread_ts": "1583740966.011400",
        "parent_user_id": "UV1A22N3W",
        "reactions": [
            {
                "name": "+1",
                "users": [
                    "UV0QTJCMT",
                    "UV1A22N3W"
                ],
                "count": 2
            }
        ]
    }
]