[
    {
        "client_msg_id": "550d4f38-faa3-420f-8dcc-df90e59308d4",
        "type": "message",
        "text": "<@U010B412MF1> — you can feel free to tag the Communications Team user group “@ communications - team” in your channel or in the <#CURG6ALTC|prgm-communications-team> channel with questions about the external communications process and how to get your news shared on the OpenCovid19 channels!",
        "user": "U011B6VLM2A",
        "ts": "1588333576.036800",
        "team": "TUU48M0T1",
        "user_team": "TUU48M0T1",
        "source_team": "TUU48M0T1",
        "user_profile": {
            "avatar_hash": "4231dc598cfc",
            "image_72": "https:\/\/avatars.slack-edge.com\/2020-04-02\/1044784558839_4231dc598cfc2e59c4c4_72.jpg",
            "first_name": "Alix",
            "real_name": "Alix Mains",
            "display_name": "Alix Mains - JOGL Coordinator",
            "team": "TUU48M0T1",
            "name": "alixhmains",
            "is_restricted": false,
            "is_ultra_restricted": false
        },
        "blocks": [
            {
                "type": "rich_text",
                "block_id": "VULHM",
                "elements": [
                    {
                        "type": "rich_text_section",
                        "elements": [
                            {
                                "type": "user",
                                "user_id": "U010B412MF1"
                            },
                            {
                                "type": "text",
                                "text": " — you can feel free to tag the Communications Team user group “@ communications - team” in your channel or in the "
                            },
                            {
                                "type": "channel",
                                "channel_id": "CURG6ALTC"
                            },
                            {
                                "type": "text",
                                "text": " channel with questions about the external communications process and how to get your news shared on the OpenCovid19 channels!"
                            }
                        ]
                    }
                ]
            }
        ],
        "thread_ts": "1588157706.032100",
        "parent_user_id": "U012G0X589F"
    },
    {
        "client_msg_id": "40cbcdaa-bb33-426b-8d3c-85aa9ad5920a",
        "type": "message",
        "text": "Ok great. Tnx @Alix. We already pinged one person from communication team and will get in touch with him",
        "user": "U010B412MF1",
        "ts": "1588336232.037000",
        "team": "TUU48M0T1",
        "user_team": "TUU48M0T1",
        "source_team": "TUU48M0T1",
        "user_profile": {
            "avatar_hash": "218d963a797f",
            "image_72": "https:\/\/avatars.slack-edge.com\/2020-03-19\/1013072792629_218d963a797fbf4410c0_72.png",
            "first_name": "",
            "real_name": "liu",
            "display_name": "liu",
            "team": "TUU48M0T1",
            "name": "liubov.tupikina",
            "is_restricted": false,
            "is_ultra_restricted": false
        },
        "thread_ts": "1588157706.032100",
        "parent_user_id": "U012G0X589F"
    }
]