[
    {
        "client_msg_id": "d0666104-ec75-4f44-bc5e-3a1ce8a715ea",
        "type": "message",
        "text": "that’s great. I think we can submit this project into the Covid19 prevention challenge (at <https:\/\/app.jogl.io\/challenge\/opencovid19-prevention>, through “Participate -&gt; Submit a project)",
        "user": "UVDJ0PAQK",
        "ts": "1587288677.006400",
        "team": "TUU48M0T1",
        "user_team": "TUU48M0T1",
        "source_team": "TUU48M0T1",
        "user_profile": {
            "avatar_hash": "0fab15eaefc9",
            "image_72": "https:\/\/avatars.slack-edge.com\/2020-03-19\/998337427074_0fab15eaefc9bfa8d59c_72.jpg",
            "first_name": "Bastian",
            "real_name": "Bastian Greshake Tzovaras",
            "display_name": "Bastian Greshake Tzovaras",
            "team": "TUU48M0T1",
            "name": "bastian.greshake-tzov",
            "is_restricted": false,
            "is_ultra_restricted": false
        },
        "attachments": [
            {
                "title": "JOGL - Just One Giant Lab",
                "title_link": "https:\/\/app.jogl.io\/challenge\/opencovid19-prevention",
                "text": "JOGL helps sync humanity onto solving our most important social &amp; environmental problems using open science, responsible innovation &amp; continuous learning.",
                "fallback": "JOGL - Just One Giant Lab",
                "thumb_url": "https:\/\/app.jogl.io\/planet.jpg",
                "from_url": "https:\/\/app.jogl.io\/challenge\/opencovid19-prevention",
                "thumb_width": 2049,
                "thumb_height": 1011,
                "service_icon": "https:\/\/app.jogl.io\/favicon.ico",
                "service_name": "app.jogl.io",
                "id": 1,
                "original_url": "https:\/\/app.jogl.io\/challenge\/opencovid19-prevention"
            }
        ],
        "blocks": [
            {
                "type": "rich_text",
                "block_id": "Ia\/b",
                "elements": [
                    {
                        "type": "rich_text_section",
                        "elements": [
                            {
                                "type": "text",
                                "text": "that’s great. I think we can submit this project into the Covid19 prevention challenge (at "
                            },
                            {
                                "type": "link",
                                "url": "https:\/\/app.jogl.io\/challenge\/opencovid19-prevention"
                            },
                            {
                                "type": "text",
                                "text": ", through “Participate -> Submit a project)"
                            }
                        ]
                    }
                ]
            }
        ],
        "thread_ts": "1587240325.004100",
        "parent_user_id": "U010B412MF1"
    },
    {
        "client_msg_id": "5c077ba0-8615-4215-a11e-75fcb15ef2ab",
        "type": "message",
        "text": "Hi, <@U012G0X589F> ! Could you possibly share this project on the <#C011FGGNCP8|prgm-student-engagement> channel? I'd also love to meet with you to chat over details, as Student Engagement was originally planning on some sort of student webinar or module to teach students COVID-19, or even get college students presenting summaries of current COVID-19 research. Thank you so much!!!\n\nEDIT: Shared with the channel, but will keep DMs open if you would like to chat about this further :smile:",
        "user": "U0101DKUALV",
        "ts": "1587289100.006700",
        "team": "TUU48M0T1",
        "user_team": "TUU48M0T1",
        "source_team": "TUU48M0T1",
        "user_profile": {
            "avatar_hash": "b0aee06ed3e5",
            "image_72": "https:\/\/avatars.slack-edge.com\/2020-04-22\/1072886325190_b0aee06ed3e501ebdf56_72.png",
            "first_name": "",
            "real_name": "Pauline Chane",
            "display_name": "Pauline Chane",
            "team": "TUU48M0T1",
            "name": "pauline.chane",
            "is_restricted": false,
            "is_ultra_restricted": false
        },
        "edited": {
            "user": "U0101DKUALV",
            "ts": "1587289269.000000"
        },
        "blocks": [
            {
                "type": "rich_text",
                "block_id": "uv+H",
                "elements": [
                    {
                        "type": "rich_text_section",
                        "elements": [
                            {
                                "type": "text",
                                "text": "Hi, "
                            },
                            {
                                "type": "user",
                                "user_id": "U012G0X589F"
                            },
                            {
                                "type": "text",
                                "text": " ! Could you possibly share this project on the "
                            },
                            {
                                "type": "channel",
                                "channel_id": "C011FGGNCP8"
                            },
                            {
                                "type": "text",
                                "text": " channel? I'd also love to meet with you to chat over details, as Student Engagement was originally planning on some sort of student webinar or module to teach students COVID-19, or even get college students presenting summaries of current COVID-19 research. Thank you so much!!!\n\nEDIT: Shared with the channel, but will keep DMs open if you would like to chat about this further "
                            },
                            {
                                "type": "emoji",
                                "name": "smile"
                            }
                        ]
                    }
                ]
            }
        ],
        "thread_ts": "1587240325.004100",
        "parent_user_id": "U010B412MF1"
    },
    {
        "client_msg_id": "46bf9a2d-4ab1-4ea8-aa69-dacd61f43da6",
        "type": "message",
        "text": "Thanks John. Will check that.",
        "user": "U010B412MF1",
        "ts": "1587289544.007200",
        "team": "TUU48M0T1",
        "user_team": "TUU48M0T1",
        "source_team": "TUU48M0T1",
        "user_profile": {
            "avatar_hash": "218d963a797f",
            "image_72": "https:\/\/avatars.slack-edge.com\/2020-03-19\/1013072792629_218d963a797fbf4410c0_72.png",
            "first_name": "",
            "real_name": "liu",
            "display_name": "liu",
            "team": "TUU48M0T1",
            "name": "liubov.tupikina",
            "is_restricted": false,
            "is_ultra_restricted": false
        },
        "blocks": [
            {
                "type": "rich_text",
                "block_id": "697RO",
                "elements": [
                    {
                        "type": "rich_text_section",
                        "elements": [
                            {
                                "type": "text",
                                "text": "Thanks John. Will check that."
                            }
                        ]
                    }
                ]
            }
        ],
        "thread_ts": "1587246931.006100",
        "parent_user_id": "U0104M5CWV9"
    },
    {
        "type": "message",
        "subtype": "channel_join",
        "ts": "1587357514.000200",
        "user": "U0103LPAWQ4",
        "text": "<@U0103LPAWQ4> has joined the channel"
    }
]