[
    {
        "client_msg_id": "FED75B6E-74D9-480D-B2A4-60C410E8BC4F",
        "type": "message",
        "text": "Please note that those are for non-sanitary use",
        "user": "U0106NJNM17",
        "ts": "1586542805.175700",
        "team": "TUU48M0T1",
        "user_team": "TUU48M0T1",
        "source_team": "TUU48M0T1",
        "user_profile": {
            "avatar_hash": "gc09b413a2fb",
            "image_72": "https:\/\/secure.gravatar.com\/avatar\/c09b413a2fb05b3c1097e14a64b9092c.jpg?s=72&d=https%3A%2F%2Fa.slack-edge.com%2Fdf10d%2Fimg%2Favatars%2Fava_0000-72.png",
            "first_name": "",
            "real_name": "Guillaume Tassin",
            "display_name": "",
            "team": "TUU48M0T1",
            "name": "guillaume.tassin",
            "is_restricted": false,
            "is_ultra_restricted": false
        },
        "blocks": [
            {
                "type": "rich_text",
                "block_id": "rja",
                "elements": [
                    {
                        "type": "rich_text_section",
                        "elements": [
                            {
                                "type": "text",
                                "text": "Please note that those are for non-sanitary use"
                            }
                        ]
                    }
                ]
            }
        ],
        "thread_ts": "1586297047.160200",
        "parent_user_id": "U0106NJNM17"
    }
]