[
    {
        "client_msg_id": "dce499f7-860d-4458-9631-2969ff712807",
        "type": "message",
        "text": "<https:\/\/www.theguardian.com\/world\/2020\/may\/04\/scientists-disagree-over-face-masks-effect-on-covid-19|https:\/\/www.theguardian.com\/world\/2020\/may\/04\/scientists-disagree-over-face-masks-effect-on-covid-19>",
        "user": "U010BA2NL9E",
        "ts": "1588624448.191900",
        "team": "TUU48M0T1",
        "user_team": "TUU48M0T1",
        "source_team": "TUU48M0T1",
        "user_profile": {
            "avatar_hash": "g3fa100f8f14",
            "image_72": "https:\/\/secure.gravatar.com\/avatar\/3fa100f8f14fc86a0f2f58648b36d29e.jpg?s=72&d=https%3A%2F%2Fa.slack-edge.com%2Fdf10d%2Fimg%2Favatars%2Fava_0008-72.png",
            "first_name": "",
            "real_name": "Eduardo Garcia",
            "display_name": "Eduardo Garcia",
            "team": "TUU48M0T1",
            "name": "eduardo.garcia",
            "is_restricted": false,
            "is_ultra_restricted": false
        },
        "attachments": [
            {
                "service_name": "the Guardian",
                "title": "Report on face masks' effectiveness for Covid-19 divides scientists",
                "title_link": "https:\/\/www.theguardian.com\/world\/2020\/may\/04\/scientists-disagree-over-face-masks-effect-on-covid-19",
                "text": "Experts clash over fresh research into efficacy of public wearing even homemade face coverings",
                "fallback": "the Guardian: Report on face masks' effectiveness for Covid-19 divides scientists",
                "image_url": "https:\/\/i.guim.co.uk\/img\/media\/b46504dd5c365186fd3f3b935689ef8f24701fe4\/0_186_5568_3341\/master\/5568.jpg?width=1200&height=630&quality=85&auto=format&fit=crop&overlay-align=bottom%2Cleft&overlay-width=100p&overlay-base64=L2ltZy9zdGF0aWMvb3ZlcmxheXMvdGctZGVmYXVsdC5wbmc&enable=upscale&s=11c936e6bcb35242a74aa00346d2a9eb",
                "image_width": 476,
                "image_height": 250,
                "ts": 1588621587,
                "from_url": "https:\/\/www.theguardian.com\/world\/2020\/may\/04\/scientists-disagree-over-face-masks-effect-on-covid-19",
                "image_bytes": 69442,
                "service_icon": "https:\/\/assets.guim.co.uk\/images\/favicons\/fee5e2d638d1c35f6d501fa397e53329\/152x152.png",
                "id": 1,
                "original_url": "https:\/\/www.theguardian.com\/world\/2020\/may\/04\/scientists-disagree-over-face-masks-effect-on-covid-19"
            }
        ],
        "blocks": [
            {
                "type": "rich_text",
                "block_id": "2lP",
                "elements": [
                    {
                        "type": "rich_text_section",
                        "elements": [
                            {
                                "type": "link",
                                "url": "https:\/\/www.theguardian.com\/world\/2020\/may\/04\/scientists-disagree-over-face-masks-effect-on-covid-19",
                                "text": "https:\/\/www.theguardian.com\/world\/2020\/may\/04\/scientists-disagree-over-face-masks-effect-on-covid-19"
                            }
                        ]
                    }
                ]
            }
        ]
    },
    {
        "client_msg_id": "71d5566c-fbc9-4614-84a8-0c2afccd5066",
        "type": "message",
        "text": "<https:\/\/rs-delve.github.io\/reports\/2020\/05\/04\/face-masks-for-the-general-public.html|https:\/\/rs-delve.github.io\/reports\/2020\/05\/04\/face-masks-for-the-general-public.html>",
        "user": "U010BA2NL9E",
        "ts": "1588624459.192200",
        "team": "TUU48M0T1",
        "user_team": "TUU48M0T1",
        "source_team": "TUU48M0T1",
        "user_profile": {
            "avatar_hash": "g3fa100f8f14",
            "image_72": "https:\/\/secure.gravatar.com\/avatar\/3fa100f8f14fc86a0f2f58648b36d29e.jpg?s=72&d=https%3A%2F%2Fa.slack-edge.com%2Fdf10d%2Fimg%2Favatars%2Fava_0008-72.png",
            "first_name": "",
            "real_name": "Eduardo Garcia",
            "display_name": "Eduardo Garcia",
            "team": "TUU48M0T1",
            "name": "eduardo.garcia",
            "is_restricted": false,
            "is_ultra_restricted": false
        },
        "attachments": [
            {
                "service_name": "Royal Society DELVE Initiative",
                "title": "Face Masks for the General Public",
                "title_link": "https:\/\/rs-delve.github.io\/reports\/2020\/05\/04\/face-masks-for-the-general-public.html",
                "text": "An earlier version of this document was communicated to SAGE in April 2020.",
                "fallback": "Royal Society DELVE Initiative: Face Masks for the General Public",
                "ts": 1588550400,
                "from_url": "https:\/\/rs-delve.github.io\/reports\/2020\/05\/04\/face-masks-for-the-general-public.html",
                "id": 1,
                "original_url": "https:\/\/rs-delve.github.io\/reports\/2020\/05\/04\/face-masks-for-the-general-public.html"
            }
        ],
        "blocks": [
            {
                "type": "rich_text",
                "block_id": "qPJco",
                "elements": [
                    {
                        "type": "rich_text_section",
                        "elements": [
                            {
                                "type": "link",
                                "url": "https:\/\/rs-delve.github.io\/reports\/2020\/05\/04\/face-masks-for-the-general-public.html",
                                "text": "https:\/\/rs-delve.github.io\/reports\/2020\/05\/04\/face-masks-for-the-general-public.html"
                            }
                        ]
                    }
                ]
            }
        ]
    }
]