[
    {
        "type": "message",
        "text": "I have made a project action list, to streamline activities: <https:\/\/docs.google.com\/spreadsheets\/d\/1PV8PCHl_IGbIXdJiEqHuJ6yyzTVSTSX6LDRlZXabEIY\/edit?usp=sharing>  Please put your activities here to get an overview of what everybody is doing and where are the gaps",
        "files": [
            {
                "id": "F0111K186RL",
                "created": 1585479232,
                "timestamp": 1585479232,
                "name": "To-do list",
                "title": "To-do list: OS Face Mask Project",
                "mimetype": "application\/vnd.google-apps.spreadsheet",
                "filetype": "gsheet",
                "pretty_type": "GSuite Spreadsheet",
                "user": "U01081Y0TBP",
                "editable": false,
                "size": 67812,
                "mode": "external",
                "is_external": true,
                "external_type": "gdrive",
                "is_public": true,
                "public_url_shared": false,
                "display_as_bot": false,
                "username": "",
                "url_private": "https:\/\/docs.google.com\/spreadsheets\/d\/1PV8PCHl_IGbIXdJiEqHuJ6yyzTVSTSX6LDRlZXabEIY\/edit?usp=sharing",
                "thumb_64": "https:\/\/a.slack-edge.com\/80588\/img\/files\/gsheet_64.png",
                "thumb_360": "https:\/\/a.slack-edge.com\/80588\/img\/files\/gsheet_360.png",
                "thumb_360_w": 360,
                "thumb_360_h": 167,
                "permalink": "https:\/\/open-covid19.slack.com\/files\/U01081Y0TBP\/F0111K186RL\/to-do_list",
                "is_starred": false,
                "external_id": "1PV8PCHl_IGbIXdJiEqHuJ6yyzTVSTSX6LDRlZXabEIY",
                "external_url": "https:\/\/docs.google.com\/spreadsheets\/d\/1PV8PCHl_IGbIXdJiEqHuJ6yyzTVSTSX6LDRlZXabEIY\/edit?usp=sharing",
                "has_rich_preview": true
            }
        ],
        "upload": false,
        "blocks": [
            {
                "type": "rich_text",
                "block_id": "HnSD",
                "elements": [
                    {
                        "type": "rich_text_section",
                        "elements": [
                            {
                                "type": "text",
                                "text": "I have made a project action list, to streamline activities: "
                            },
                            {
                                "type": "link",
                                "url": "https:\/\/docs.google.com\/spreadsheets\/d\/1PV8PCHl_IGbIXdJiEqHuJ6yyzTVSTSX6LDRlZXabEIY\/edit?usp=sharing"
                            },
                            {
                                "type": "text",
                                "text": "  Please put your activities here to get an overview of what everybody is doing and where are the gaps"
                            }
                        ]
                    }
                ]
            }
        ],
        "user": "U01081Y0TBP",
        "display_as_bot": false,
        "x_files": [
            "F0111K186RL"
        ],
        "ts": "1585479229.078500",
        "edited": {
            "user": "U01081Y0TBP",
            "ts": "1585566155.000000"
        },
        "client_msg_id": "25289236-f5fe-4937-ad72-547f13e50793",
        "reactions": [
            {
                "name": "+1",
                "users": [
                    "UV02WET96"
                ],
                "count": 1
            }
        ]
    },
    {
        "client_msg_id": "1CF59391-65E3-4BC1-823D-0CE9D779D3E6",
        "type": "message",
        "text": "Great news! We are going to partner with APHP (Paris hospitals association) to bring the best mask designs to them so that they can test them. ",
        "user": "UV02WET96",
        "ts": "1585488077.081000",
        "team": "TUU48M0T1",
        "user_team": "TUU48M0T1",
        "source_team": "TUU48M0T1",
        "user_profile": {
            "avatar_hash": "a99c74a194f8",
            "image_72": "https:\/\/avatars.slack-edge.com\/2020-03-07\/975708504851_a99c74a194f86715ca7d_72.png",
            "first_name": "Thomas",
            "real_name": "Thomas Landrain",
            "display_name": "Thomas Landrain - JOGL CoFounder \/ CEO",
            "team": "TUU48M0T1",
            "name": "thomas",
            "is_restricted": false,
            "is_ultra_restricted": false
        },
        "blocks": [
            {
                "type": "rich_text",
                "block_id": "xDk",
                "elements": [
                    {
                        "type": "rich_text_section",
                        "elements": [
                            {
                                "type": "text",
                                "text": "Great news! We are going to partner with APHP (Paris hospitals association) to bring the best mask designs to them so that they can test them. "
                            }
                        ]
                    }
                ]
            }
        ],
        "thread_ts": "1585488077.081000",
        "reply_count": 1,
        "reply_users_count": 1,
        "latest_reply": "1585493365.082300",
        "reply_users": [
            "U01081Y0TBP"
        ],
        "replies": [
            {
                "user": "U01081Y0TBP",
                "ts": "1585493365.082300"
            }
        ],
        "subscribed": false,
        "reactions": [
            {
                "name": "+1",
                "users": [
                    "U01081Y0TBP"
                ],
                "count": 1
            }
        ]
    },
    {
        "client_msg_id": "e5144433-e1e2-48a5-929a-d1146018c02e",
        "type": "message",
        "text": "Hi, the permissions to view the spreadsheet has been changed this morning. Since then lot of people are requesting access to the \"Open Source Face Mask Challenge!\" spreadsheet. What should I do with that?",
        "user": "U0103BSMXT2",
        "ts": "1585493185.082200",
        "team": "TUU48M0T1",
        "user_team": "TUU48M0T1",
        "source_team": "TUU48M0T1",
        "user_profile": {
            "avatar_hash": "g5e00654aa20",
            "image_72": "https:\/\/secure.gravatar.com\/avatar\/5e00654aa2064ae08b074bcbc49bfe77.jpg?s=72&d=https%3A%2F%2Fa.slack-edge.com%2Fdf10d%2Fimg%2Favatars%2Fava_0018-72.png",
            "first_name": "",
            "real_name": "Yann Uzel",
            "display_name": "Yann Uzel",
            "team": "TUU48M0T1",
            "name": "yann.uzel",
            "is_restricted": false,
            "is_ultra_restricted": false
        },
        "edited": {
            "user": "U0103BSMXT2",
            "ts": "1585493599.000000"
        },
        "blocks": [
            {
                "type": "rich_text",
                "block_id": "SbU+",
                "elements": [
                    {
                        "type": "rich_text_section",
                        "elements": [
                            {
                                "type": "text",
                                "text": "Hi, the permissions to view the spreadsheet has been changed this morning. Since then lot of people are requesting access to the \"Open Source Face Mask Challenge!\" spreadsheet. What should I do with that?"
                            }
                        ]
                    }
                ]
            }
        ],
        "thread_ts": "1585493185.082200",
        "reply_count": 6,
        "reply_users_count": 3,
        "latest_reply": "1585494432.086100",
        "reply_users": [
            "UV02WET96",
            "U0103BSMXT2",
            "U01081Y0TBP"
        ],
        "replies": [
            {
                "user": "UV02WET96",
                "ts": "1585493644.084400"
            },
            {
                "user": "U0103BSMXT2",
                "ts": "1585493675.084700"
            },
            {
                "user": "UV02WET96",
                "ts": "1585493828.085300"
            },
            {
                "user": "U01081Y0TBP",
                "ts": "1585494050.085600"
            },
            {
                "user": "UV02WET96",
                "ts": "1585494062.085900"
            },
            {
                "user": "U01081Y0TBP",
                "ts": "1585494432.086100"
            }
        ],
        "subscribed": false
    },
    {
        "client_msg_id": "bf958aee-f255-41c5-a4ac-25d9f1603741",
        "type": "message",
        "text": "Will they use test, or also technically test them (filter efficiency, pressure difference etc)?",
        "user": "U01081Y0TBP",
        "ts": "1585493365.082300",
        "team": "TUU48M0T1",
        "user_team": "TUU48M0T1",
        "source_team": "TUU48M0T1",
        "user_profile": {
            "avatar_hash": "60ec5b47107a",
            "image_72": "https:\/\/avatars.slack-edge.com\/2020-03-18\/995274181218_60ec5b47107a3bd2ca7d_72.jpg",
            "first_name": "Peter",
            "real_name": "Peter Kooren",
            "display_name": "Peter Kooren",
            "team": "TUU48M0T1",
            "name": "peterkooren",
            "is_restricted": false,
            "is_ultra_restricted": false
        },
        "blocks": [
            {
                "type": "rich_text",
                "block_id": "Z0vS",
                "elements": [
                    {
                        "type": "rich_text_section",
                        "elements": [
                            {
                                "type": "text",
                                "text": "Will they use test, or also technically test them (filter efficiency, pressure difference etc)?"
                            }
                        ]
                    }
                ]
            }
        ],
        "thread_ts": "1585488077.081000",
        "parent_user_id": "UV02WET96"
    },
    {
        "client_msg_id": "5934E6AE-BC1E-44EC-9C5F-7696241CC2D8",
        "type": "message",
        "text": "Hi Yann! The submission tab is open normally. Only the review one is fixed \nBut yes please share everywhere :)",
        "user": "UV02WET96",
        "ts": "1585493644.084400",
        "team": "TUU48M0T1",
        "user_team": "TUU48M0T1",
        "source_team": "TUU48M0T1",
        "user_profile": {
            "avatar_hash": "a99c74a194f8",
            "image_72": "https:\/\/avatars.slack-edge.com\/2020-03-07\/975708504851_a99c74a194f86715ca7d_72.png",
            "first_name": "Thomas",
            "real_name": "Thomas Landrain",
            "display_name": "Thomas Landrain - JOGL CoFounder \/ CEO",
            "team": "TUU48M0T1",
            "name": "thomas",
            "is_restricted": false,
            "is_ultra_restricted": false
        },
        "blocks": [
            {
                "type": "rich_text",
                "block_id": "W7iL",
                "elements": [
                    {
                        "type": "rich_text_section",
                        "elements": [
                            {
                                "type": "text",
                                "text": "Hi Yann! The submission tab is open normally. Only the review one is fixed \nBut yes please share everywhere :)"
                            }
                        ]
                    }
                ]
            }
        ],
        "thread_ts": "1585493185.082200",
        "parent_user_id": "U0103BSMXT2"
    },
    {
        "client_msg_id": "a6a1d8b4-6e04-43d8-8de5-cf0aa5df410a",
        "type": "message",
        "text": "I don't know, if I'm the only one receiving the request, it's maybe better to change the owner since I'm not really active on this project :slightly_smiling_face:",
        "user": "U0103BSMXT2",
        "ts": "1585493645.084600",
        "team": "TUU48M0T1",
        "user_team": "TUU48M0T1",
        "source_team": "TUU48M0T1",
        "user_profile": {
            "avatar_hash": "g5e00654aa20",
            "image_72": "https:\/\/secure.gravatar.com\/avatar\/5e00654aa2064ae08b074bcbc49bfe77.jpg?s=72&d=https%3A%2F%2Fa.slack-edge.com%2Fdf10d%2Fimg%2Favatars%2Fava_0018-72.png",
            "first_name": "",
            "real_name": "Yann Uzel",
            "display_name": "Yann Uzel",
            "team": "TUU48M0T1",
            "name": "yann.uzel",
            "is_restricted": false,
            "is_ultra_restricted": false
        },
        "blocks": [
            {
                "type": "rich_text",
                "block_id": "==fVs",
                "elements": [
                    {
                        "type": "rich_text_section",
                        "elements": [
                            {
                                "type": "text",
                                "text": "I don't know, if I'm the only one receiving the request, it's maybe better to change the owner since I'm not really active on this project "
                            },
                            {
                                "type": "emoji",
                                "name": "slightly_smiling_face"
                            }
                        ]
                    }
                ]
            }
        ],
        "thread_ts": "1585493645.084600",
        "reply_count": 2,
        "reply_users_count": 2,
        "latest_reply": "1585573493.097600",
        "reply_users": [
            "U01081Y0TBP",
            "U0103BSMXT2"
        ],
        "replies": [
            {
                "user": "U01081Y0TBP",
                "ts": "1585495216.086400"
            },
            {
                "user": "U0103BSMXT2",
                "ts": "1585573493.097600"
            }
        ],
        "subscribed": false
    },
    {
        "client_msg_id": "9fe364b8-a9a1-4a2f-9fbb-93414c56b6bf",
        "type": "message",
        "text": "Ok I change the permissions to allow everybody to view it :)",
        "user": "U0103BSMXT2",
        "ts": "1585493675.084700",
        "team": "TUU48M0T1",
        "user_team": "TUU48M0T1",
        "source_team": "TUU48M0T1",
        "user_profile": {
            "avatar_hash": "g5e00654aa20",
            "image_72": "https:\/\/secure.gravatar.com\/avatar\/5e00654aa2064ae08b074bcbc49bfe77.jpg?s=72&d=https%3A%2F%2Fa.slack-edge.com%2Fdf10d%2Fimg%2Favatars%2Fava_0018-72.png",
            "first_name": "",
            "real_name": "Yann Uzel",
            "display_name": "Yann Uzel",
            "team": "TUU48M0T1",
            "name": "yann.uzel",
            "is_restricted": false,
            "is_ultra_restricted": false
        },
        "blocks": [
            {
                "type": "rich_text",
                "block_id": "1ou",
                "elements": [
                    {
                        "type": "rich_text_section",
                        "elements": [
                            {
                                "type": "text",
                                "text": "Ok I change the permissions to allow everybody to view it :)"
                            }
                        ]
                    }
                ]
            }
        ],
        "thread_ts": "1585493185.082200",
        "parent_user_id": "U0103BSMXT2"
    },
    {
        "client_msg_id": "0741822A-8ACB-40AD-92AD-0B6B99E037FB",
        "type": "message",
        "text": "Were you the admin of this page? ",
        "user": "UV02WET96",
        "ts": "1585493828.085300",
        "team": "TUU48M0T1",
        "user_team": "TUU48M0T1",
        "source_team": "TUU48M0T1",
        "user_profile": {
            "avatar_hash": "a99c74a194f8",
            "image_72": "https:\/\/avatars.slack-edge.com\/2020-03-07\/975708504851_a99c74a194f86715ca7d_72.png",
            "first_name": "Thomas",
            "real_name": "Thomas Landrain",
            "display_name": "Thomas Landrain - JOGL CoFounder \/ CEO",
            "team": "TUU48M0T1",
            "name": "thomas",
            "is_restricted": false,
            "is_ultra_restricted": false
        },
        "edited": {
            "user": "UV02WET96",
            "ts": "1585493835.000000"
        },
        "blocks": [
            {
                "type": "rich_text",
                "block_id": "7kno",
                "elements": [
                    {
                        "type": "rich_text_section",
                        "elements": [
                            {
                                "type": "text",
                                "text": "Were you the admin of this page? "
                            }
                        ]
                    }
                ]
            }
        ],
        "thread_ts": "1585493185.082200",
        "parent_user_id": "U0103BSMXT2"
    },
    {
        "client_msg_id": "ddd8ddef-ddaa-48e8-8d0e-52b89c240564",
        "type": "message",
        "text": "In my opinion the \"idea submission\" sheet should even be open for editing",
        "user": "U01081Y0TBP",
        "ts": "1585494050.085600",
        "team": "TUU48M0T1",
        "user_team": "TUU48M0T1",
        "source_team": "TUU48M0T1",
        "user_profile": {
            "avatar_hash": "60ec5b47107a",
            "image_72": "https:\/\/avatars.slack-edge.com\/2020-03-18\/995274181218_60ec5b47107a3bd2ca7d_72.jpg",
            "first_name": "Peter",
            "real_name": "Peter Kooren",
            "display_name": "Peter Kooren",
            "team": "TUU48M0T1",
            "name": "peterkooren",
            "is_restricted": false,
            "is_ultra_restricted": false
        },
        "blocks": [
            {
                "type": "rich_text",
                "block_id": "DyMdw",
                "elements": [
                    {
                        "type": "rich_text_section",
                        "elements": [
                            {
                                "type": "text",
                                "text": "In my opinion the \"idea submission\" sheet should even be open for editing"
                            }
                        ]
                    }
                ]
            }
        ],
        "thread_ts": "1585493185.082200",
        "parent_user_id": "U0103BSMXT2"
    },
    {
        "client_msg_id": "AE5CC337-05AA-44ED-B387-A7F5E72B68E1",
        "type": "message",
        "text": "Yes!",
        "user": "UV02WET96",
        "ts": "1585494062.085900",
        "team": "TUU48M0T1",
        "user_team": "TUU48M0T1",
        "source_team": "TUU48M0T1",
        "user_profile": {
            "avatar_hash": "a99c74a194f8",
            "image_72": "https:\/\/avatars.slack-edge.com\/2020-03-07\/975708504851_a99c74a194f86715ca7d_72.png",
            "first_name": "Thomas",
            "real_name": "Thomas Landrain",
            "display_name": "Thomas Landrain - JOGL CoFounder \/ CEO",
            "team": "TUU48M0T1",
            "name": "thomas",
            "is_restricted": false,
            "is_ultra_restricted": false
        },
        "blocks": [
            {
                "type": "rich_text",
                "block_id": "bW8Iy",
                "elements": [
                    {
                        "type": "rich_text_section",
                        "elements": [
                            {
                                "type": "text",
                                "text": "Yes!"
                            }
                        ]
                    }
                ]
            }
        ],
        "thread_ts": "1585493185.082200",
        "parent_user_id": "U0103BSMXT2"
    },
    {
        "client_msg_id": "cd31cd88-5f9f-4668-890d-1de652055982",
        "type": "message",
        "text": "Seemed like it was not really protected but only a warning came up before editing. I have now opened it again for editing",
        "user": "U01081Y0TBP",
        "ts": "1585494432.086100",
        "team": "TUU48M0T1",
        "user_team": "TUU48M0T1",
        "source_team": "TUU48M0T1",
        "user_profile": {
            "avatar_hash": "60ec5b47107a",
            "image_72": "https:\/\/avatars.slack-edge.com\/2020-03-18\/995274181218_60ec5b47107a3bd2ca7d_72.jpg",
            "first_name": "Peter",
            "real_name": "Peter Kooren",
            "display_name": "Peter Kooren",
            "team": "TUU48M0T1",
            "name": "peterkooren",
            "is_restricted": false,
            "is_ultra_restricted": false
        },
        "blocks": [
            {
                "type": "rich_text",
                "block_id": "Xa7",
                "elements": [
                    {
                        "type": "rich_text_section",
                        "elements": [
                            {
                                "type": "text",
                                "text": "Seemed like it was not really protected but only a warning came up before editing. I have now opened it again for editing"
                            }
                        ]
                    }
                ]
            }
        ],
        "thread_ts": "1585493185.082200",
        "parent_user_id": "U0103BSMXT2"
    },
    {
        "type": "message",
        "subtype": "channel_purpose",
        "ts": "1585495128.086300",
        "user": "U01081Y0TBP",
        "text": "<@U01081Y0TBP> set the channel purpose: We are developing open source protective face equipment to be used by the public and by healthcare professionals",
        "purpose": "We are developing open source protective face equipment to be used by the public and by healthcare professionals"
    },
    {
        "client_msg_id": "d3b70d04-b3b3-4c1d-9a9d-d3d240becc23",
        "type": "message",
        "text": "why are you not active anymore?",
        "user": "U01081Y0TBP",
        "ts": "1585495216.086400",
        "team": "TUU48M0T1",
        "user_team": "TUU48M0T1",
        "source_team": "TUU48M0T1",
        "user_profile": {
            "avatar_hash": "60ec5b47107a",
            "image_72": "https:\/\/avatars.slack-edge.com\/2020-03-18\/995274181218_60ec5b47107a3bd2ca7d_72.jpg",
            "first_name": "Peter",
            "real_name": "Peter Kooren",
            "display_name": "Peter Kooren",
            "team": "TUU48M0T1",
            "name": "peterkooren",
            "is_restricted": false,
            "is_ultra_restricted": false
        },
        "blocks": [
            {
                "type": "rich_text",
                "block_id": "CH=J",
                "elements": [
                    {
                        "type": "rich_text_section",
                        "elements": [
                            {
                                "type": "text",
                                "text": "why are you not active anymore?"
                            }
                        ]
                    }
                ]
            }
        ],
        "thread_ts": "1585493645.084600",
        "parent_user_id": "U0103BSMXT2"
    },
    {
        "type": "message",
        "text": "shared for pinning the evaluation form",
        "user": "U01081Y0TBP",
        "ts": "1585495508.086600",
        "team": "TUU48M0T1",
        "user_team": "TUU48M0T1",
        "source_team": "TUU48M0T1",
        "user_profile": {
            "avatar_hash": "60ec5b47107a",
            "image_72": "https:\/\/avatars.slack-edge.com\/2020-03-18\/995274181218_60ec5b47107a3bd2ca7d_72.jpg",
            "first_name": "Peter",
            "real_name": "Peter Kooren",
            "display_name": "Peter Kooren",
            "team": "TUU48M0T1",
            "name": "peterkooren",
            "is_restricted": false,
            "is_ultra_restricted": false
        },
        "edited": {
            "user": "U01081Y0TBP",
            "ts": "1585566816.000000"
        },
        "attachments": [
            {
                "fallback": "[March 26th, 2020 5:22 PM] thomas: Dear all! <!everyone>\nThanks to you we have now gathered more than 50 open source designs for Face Masks and Face Shields!! :raised_hands::heart:\n\nNow it is time to review these designs together!\nPlease use this survey link and follow the instructions: \n:point_right: <https:\/\/docs.google.com\/forms\/d\/e\/1FAIpQLSfZc1hxgx2-ObcqODuML4OEQNrw2TEtxdbOu75x_upr5fUeVw\/viewform>\n\nDon’t hesitate to share the form around you, especially to experts. We need as much reviews as possible. Deadline: this Saturday! \n\nWe’ll share the results openly on Sunday with everyone \n\nLet’s go!!",
                "ts": "1585239765.015200",
                "author_id": "UV02WET96",
                "author_subname": "Thomas Landrain",
                "channel_id": "CUDEHLGHY",
                "channel_name": "announcements",
                "is_msg_unfurl": true,
                "is_thread_root_unfurl": true,
                "text": "Dear all! <!everyone>\nThanks to you we have now gathered more than 50 open source designs for Face Masks and Face Shields!! :raised_hands::heart:\n\nNow it is time to review these designs together!\nPlease use this survey link and follow the instructions: \n:point_right: <https:\/\/docs.google.com\/forms\/d\/e\/1FAIpQLSfZc1hxgx2-ObcqODuML4OEQNrw2TEtxdbOu75x_upr5fUeVw\/viewform>\n\nDon’t hesitate to share the form around you, especially to experts. We need as much reviews as possible. Deadline: this Saturday! \n\nWe’ll share the results openly on Sunday with everyone \n\nLet’s go!!",
                "author_name": "Thomas Landrain",
                "author_link": "https:\/\/open-covid19.slack.com\/team\/UV02WET96",
                "author_icon": "https:\/\/avatars.slack-edge.com\/2020-03-07\/975708504851_a99c74a194f86715ca7d_48.png",
                "mrkdwn_in": [
                    "text"
                ],
                "color": "D0D0D0",
                "from_url": "https:\/\/open-covid19.slack.com\/archives\/CUDEHLGHY\/p1585239765015200?thread_ts=1585239765015200&cid=CUDEHLGHY",
                "is_share": true,
                "footer": "Thread in #announcements"
            }
        ],
        "blocks": [
            {
                "type": "rich_text",
                "block_id": "jS+a",
                "elements": [
                    {
                        "type": "rich_text_section",
                        "elements": [
                            {
                                "type": "text",
                                "text": "shared for pinning the evaluation form"
                            }
                        ]
                    }
                ]
            }
        ],
        "reactions": [
            {
                "name": "+1",
                "users": [
                    "UV02WET96"
                ],
                "count": 1
            }
        ]
    },
    {
        "client_msg_id": "9fea2374-5acb-4fa5-82e6-3789756bd7cd",
        "type": "message",
        "text": "Reminder:\nDear all! *@everyone*\nNow it is time to review the face protection designs together!\nWe need as much reviews as possible. Deadline: tonight 20:00 CET (1,5hr left)! Please use this\nsurvey link and follow the instructions: \n<https:\/\/docs.google.com\/forms\/d\/e\/1FAIpQLSfZc1hxgx2-ObcqODuML4OEQNrw2TEtxdbOu75x_upr5fUeVw\/viewform| https:\/\/docs.google.com\/forms\/d\/e\/1FAIpQLSfZc1hxgx2ObcqODuML4OEQNrw2TEtxdbOu75x_upr5fUeVw\/viewform>\nDon’t hesitate to share the form around you,\nespecially to experts. \nThanks to you we have gathered more than 50\nopen source designs for Face Masks and Face Shields!!  :raised_hands:\nWe’ll share the results openly in upcoming days with everyone. Let’s go!!",
        "user": "U01081Y0TBP",
        "ts": "1585499662.087700",
        "team": "TUU48M0T1",
        "user_team": "TUU48M0T1",
        "source_team": "TUU48M0T1",
        "user_profile": {
            "avatar_hash": "60ec5b47107a",
            "image_72": "https:\/\/avatars.slack-edge.com\/2020-03-18\/995274181218_60ec5b47107a3bd2ca7d_72.jpg",
            "first_name": "Peter",
            "real_name": "Peter Kooren",
            "display_name": "Peter Kooren",
            "team": "TUU48M0T1",
            "name": "peterkooren",
            "is_restricted": false,
            "is_ultra_restricted": false
        },
        "edited": {
            "user": "U01081Y0TBP",
            "ts": "1585499710.000000"
        },
        "blocks": [
            {
                "type": "rich_text",
                "block_id": "ek0qk",
                "elements": [
                    {
                        "type": "rich_text_section",
                        "elements": [
                            {
                                "type": "text",
                                "text": "Reminder:\nDear all! "
                            },
                            {
                                "type": "text",
                                "text": "@everyone",
                                "style": {
                                    "bold": true
                                }
                            },
                            {
                                "type": "text",
                                "text": "\nNow it is time to review the face protection designs together!\nWe need as much reviews as possible. Deadline: tonight 20:00 CET (1,5hr left)! Please use this\nsurvey link and follow the instructions: \n"
                            },
                            {
                                "type": "link",
                                "url": "https:\/\/docs.google.com\/forms\/d\/e\/1FAIpQLSfZc1hxgx2-ObcqODuML4OEQNrw2TEtxdbOu75x_upr5fUeVw\/viewform",
                                "text": " https:\/\/docs.google.com\/forms\/d\/e\/1FAIpQLSfZc1hxgx2ObcqODuML4OEQNrw2TEtxdbOu75x_upr5fUeVw\/viewform"
                            },
                            {
                                "type": "text",
                                "text": "\nDon’t hesitate to share the form around you,\nespecially to experts. \nThanks to you we have gathered more than 50\nopen source designs for Face Masks and Face Shields!!  "
                            },
                            {
                                "type": "emoji",
                                "name": "raised_hands"
                            },
                            {
                                "type": "text",
                                "text": "\nWe’ll share the results openly in upcoming days with everyone. Let’s go!!"
                            }
                        ]
                    }
                ]
            }
        ],
        "thread_ts": "1585499662.087700",
        "reply_count": 3,
        "reply_users_count": 2,
        "latest_reply": "1585513459.088600",
        "reply_users": [
            "U010G3HSC9X",
            "U01081Y0TBP"
        ],
        "replies": [
            {
                "user": "U010G3HSC9X",
                "ts": "1585508277.088000"
            },
            {
                "user": "U010G3HSC9X",
                "ts": "1585512824.088400"
            },
            {
                "user": "U01081Y0TBP",
                "ts": "1585513459.088600"
            }
        ],
        "subscribed": false
    },
    {
        "client_msg_id": "c49a9400-3bef-4879-bc3a-31ea4f33e857",
        "type": "message",
        "text": "The ordering of the options in the form is randomized which makes it quite difficult to vote - I have to keep scrolling up and down! Also, if we have only tested one mask design or are only familiar with a smaller number of designs, is it ok to leave out judgement of the other designs?",
        "user": "U010G3HSC9X",
        "ts": "1585508277.088000",
        "team": "TUU48M0T1",
        "user_team": "TUU48M0T1",
        "source_team": "TUU48M0T1",
        "user_profile": {
            "avatar_hash": "g7fe4fdef88a",
            "image_72": "https:\/\/secure.gravatar.com\/avatar\/7fe4fdef88aa31512885e90bd6a547ed.jpg?s=72&d=https%3A%2F%2Fa.slack-edge.com%2Fdf10d%2Fimg%2Favatars%2Fava_0018-72.png",
            "first_name": "",
            "real_name": "Artur",
            "display_name": "Artur",
            "team": "TUU48M0T1",
            "name": "arthurdo",
            "is_restricted": false,
            "is_ultra_restricted": false
        },
        "blocks": [
            {
                "type": "rich_text",
                "block_id": "mZ6",
                "elements": [
                    {
                        "type": "rich_text_section",
                        "elements": [
                            {
                                "type": "text",
                                "text": "The ordering of the options in the form is randomized which makes it quite difficult to vote - I have to keep scrolling up and down! Also, if we have only tested one mask design or are only familiar with a smaller number of designs, is it ok to leave out judgement of the other designs?"
                            }
                        ]
                    }
                ]
            }
        ],
        "thread_ts": "1585499662.087700",
        "parent_user_id": "U01081Y0TBP"
    },
    {
        "client_msg_id": "a21f09f5-d6a5-4fc4-8b19-6953d226f599",
        "type": "message",
        "text": "Good work on organizing this resource btw! THis is the most comprehensive list and Slack channel I have found",
        "user": "U010G3HSC9X",
        "ts": "1585512824.088400",
        "team": "TUU48M0T1",
        "user_team": "TUU48M0T1",
        "source_team": "TUU48M0T1",
        "user_profile": {
            "avatar_hash": "g7fe4fdef88a",
            "image_72": "https:\/\/secure.gravatar.com\/avatar\/7fe4fdef88aa31512885e90bd6a547ed.jpg?s=72&d=https%3A%2F%2Fa.slack-edge.com%2Fdf10d%2Fimg%2Favatars%2Fava_0018-72.png",
            "first_name": "",
            "real_name": "Artur",
            "display_name": "Artur",
            "team": "TUU48M0T1",
            "name": "arthurdo",
            "is_restricted": false,
            "is_ultra_restricted": false
        },
        "blocks": [
            {
                "type": "rich_text",
                "block_id": "VqWb",
                "elements": [
                    {
                        "type": "rich_text_section",
                        "elements": [
                            {
                                "type": "text",
                                "text": "Good work on organizing this resource btw! THis is the most comprehensive list and Slack channel I have found"
                            }
                        ]
                    }
                ]
            }
        ],
        "thread_ts": "1585499662.087700",
        "parent_user_id": "U01081Y0TBP",
        "reactions": [
            {
                "name": "+1",
                "users": [
                    "U01081Y0TBP"
                ],
                "count": 1
            }
        ]
    },
    {
        "client_msg_id": "fdb8abc4-8444-4461-a866-5ecc32b29666",
        "type": "message",
        "text": "It is ok to leave out judgements. Preferably do at least 10",
        "user": "U01081Y0TBP",
        "ts": "1585513459.088600",
        "team": "TUU48M0T1",
        "user_team": "TUU48M0T1",
        "source_team": "TUU48M0T1",
        "user_profile": {
            "avatar_hash": "60ec5b47107a",
            "image_72": "https:\/\/avatars.slack-edge.com\/2020-03-18\/995274181218_60ec5b47107a3bd2ca7d_72.jpg",
            "first_name": "Peter",
            "real_name": "Peter Kooren",
            "display_name": "Peter Kooren",
            "team": "TUU48M0T1",
            "name": "peterkooren",
            "is_restricted": false,
            "is_ultra_restricted": false
        },
        "blocks": [
            {
                "type": "rich_text",
                "block_id": "KnY9I",
                "elements": [
                    {
                        "type": "rich_text_section",
                        "elements": [
                            {
                                "type": "text",
                                "text": "It is ok to leave out judgements. Preferably do at least 10"
                            }
                        ]
                    }
                ]
            }
        ],
        "thread_ts": "1585499662.087700",
        "parent_user_id": "U01081Y0TBP"
    },
    {
        "client_msg_id": "873cafe0-c0a7-4ec9-96f6-553e3e5736a4",
        "type": "message",
        "text": "Hi All, I submit a mask to your google doc (id 65). If you have any question about this project. Im here to answer.",
        "user": "U0111TMRPF0",
        "ts": "1585516503.090200",
        "team": "TUU48M0T1",
        "user_team": "TUU48M0T1",
        "source_team": "TUU48M0T1",
        "user_profile": {
            "avatar_hash": "ge0c28c41723",
            "image_72": "https:\/\/secure.gravatar.com\/avatar\/e0c28c417237f3fc3e728afc06a16a9c.jpg?s=72&d=https%3A%2F%2Fa.slack-edge.com%2Fdf10d%2Fimg%2Favatars%2Fava_0006-72.png",
            "first_name": "",
            "real_name": "petitmanu",
            "display_name": "petitmanu",
            "team": "TUU48M0T1",
            "name": "pelegrinma",
            "is_restricted": false,
            "is_ultra_restricted": false
        },
        "blocks": [
            {
                "type": "rich_text",
                "block_id": "YYZvH",
                "elements": [
                    {
                        "type": "rich_text_section",
                        "elements": [
                            {
                                "type": "text",
                                "text": "Hi All, I submit a mask to your google doc (id 65). If you have any question about this project. Im here to answer."
                            }
                        ]
                    }
                ]
            }
        ],
        "reactions": [
            {
                "name": "+1",
                "users": [
                    "U010HTBUHS9",
                    "UV3T7JS4A"
                ],
                "count": 2
            }
        ]
    },
    {
        "client_msg_id": "EEA48E32-B5D4-427E-8C30-3920EDE9094B",
        "type": "message",
        "text": "@everyone is anyone working on a project to teach citizens to make their own masks or tools?",
        "user": "UVA5NGLMS",
        "ts": "1585529553.090600",
        "team": "TUU48M0T1",
        "user_team": "TUU48M0T1",
        "source_team": "TUU48M0T1",
        "user_profile": {
            "avatar_hash": "746bd9c6967b",
            "image_72": "https:\/\/avatars.slack-edge.com\/2020-03-14\/1000626975765_746bd9c6967ba8f03cb7_72.png",
            "first_name": "Justice",
            "real_name": "Justice T Walker",
            "display_name": "Just Ice",
            "team": "TUU48M0T1",
            "name": "justicew",
            "is_restricted": false,
            "is_ultra_restricted": false
        },
        "blocks": [
            {
                "type": "rich_text",
                "block_id": "avX9\/",
                "elements": [
                    {
                        "type": "rich_text_section",
                        "elements": [
                            {
                                "type": "text",
                                "text": "@everyone is anyone working on a project to teach citizens to make their own masks or tools?"
                            }
                        ]
                    }
                ]
            }
        ]
    },
    {
        "client_msg_id": "f82f391a-c07f-4674-ac7c-60c72da33ad6",
        "type": "message",
        "text": "Tons of great DIY mask sewing resources and tutorials online:",
        "user": "U0102NEMRTR",
        "ts": "1585543464.091200",
        "team": "TUU48M0T1",
        "user_team": "TUU48M0T1",
        "source_team": "TUU48M0T1",
        "user_profile": {
            "avatar_hash": "g6072d132593",
            "image_72": "https:\/\/secure.gravatar.com\/avatar\/6072d132593acb6de99356666ff0ed9e.jpg?s=72&d=https%3A%2F%2Fa.slack-edge.com%2Fdf10d%2Fimg%2Favatars%2Fava_0008-72.png",
            "first_name": "",
            "real_name": "Patrik D'haeseleer",
            "display_name": "Patrik D'haeseleer",
            "team": "TUU48M0T1",
            "name": "patrikd",
            "is_restricted": false,
            "is_ultra_restricted": false
        },
        "blocks": [
            {
                "type": "rich_text",
                "block_id": "H9mJc",
                "elements": [
                    {
                        "type": "rich_text_section",
                        "elements": [
                            {
                                "type": "text",
                                "text": "Tons of great DIY mask sewing resources and tutorials online:"
                            }
                        ]
                    }
                ]
            }
        ]
    },
    {
        "client_msg_id": "9e09b2b6-148e-429a-853a-ce71a19d9a4d",
        "type": "message",
        "text": "<https:\/\/makezine.com\/2020\/03\/20\/your-sewing-skills-are-needed-in-the-fight-against-covid-19\/>",
        "user": "U0102NEMRTR",
        "ts": "1585543484.091400",
        "team": "TUU48M0T1",
        "user_team": "TUU48M0T1",
        "source_team": "TUU48M0T1",
        "user_profile": {
            "avatar_hash": "g6072d132593",
            "image_72": "https:\/\/secure.gravatar.com\/avatar\/6072d132593acb6de99356666ff0ed9e.jpg?s=72&d=https%3A%2F%2Fa.slack-edge.com%2Fdf10d%2Fimg%2Favatars%2Fava_0008-72.png",
            "first_name": "",
            "real_name": "Patrik D'haeseleer",
            "display_name": "Patrik D'haeseleer",
            "team": "TUU48M0T1",
            "name": "patrikd",
            "is_restricted": false,
            "is_ultra_restricted": false
        },
        "attachments": [
            {
                "service_name": "Make: DIY Projects and Ideas for Makers",
                "title": "Your Sewing Skills Are Needed In The Fight Against Covid-19 | Make:",
                "title_link": "https:\/\/makezine.com\/2020\/03\/20\/your-sewing-skills-are-needed-in-the-fight-against-covid-19\/",
                "text": "update: march 23, 2020 - OSCMS has put out a document addressing how you can help by sewing. Please look at this doc to get involved.  For the masses of",
                "fallback": "Make: DIY Projects and Ideas for Makers: Your Sewing Skills Are Needed In The Fight Against Covid-19 | Make:",
                "image_url": "https:\/\/i2.wp.com\/makezine.com\/wp-content\/uploads\/2020\/03\/diana.jpg?fit=1532%2C1123&ssl=1",
                "image_width": 341,
                "image_height": 250,
                "ts": 1584719054,
                "from_url": "https:\/\/makezine.com\/2020\/03\/20\/your-sewing-skills-are-needed-in-the-fight-against-covid-19\/",
                "image_bytes": 108337,
                "service_icon": "https:\/\/1abxf1rh6g01lhm2riyrt55k-wpengine.netdna-ssl.com\/apple-touch-icon.png",
                "id": 1,
                "original_url": "https:\/\/makezine.com\/2020\/03\/20\/your-sewing-skills-are-needed-in-the-fight-against-covid-19\/"
            }
        ],
        "blocks": [
            {
                "type": "rich_text",
                "block_id": "\/oz\/\/",
                "elements": [
                    {
                        "type": "rich_text_section",
                        "elements": [
                            {
                                "type": "link",
                                "url": "https:\/\/makezine.com\/2020\/03\/20\/your-sewing-skills-are-needed-in-the-fight-against-covid-19\/"
                            }
                        ]
                    }
                ]
            }
        ]
    },
    {
        "client_msg_id": "ef93e75f-4958-4c4c-9511-43a2ee59a3ae",
        "type": "message",
        "text": "<https:\/\/docs.google.com\/document\/d\/e\/2PACX-1vQVnocKNgEPNSC4DRp0QV-kKfSrPmVMsczMuq1kcIUxNA8DmvG5PS5S0e8zuPRFNe0VnlGzd6segMsl\/pub?fbclid=IwAR291s1Don-8l60We8s9nHcUxpxH-Yb3Aaj3DYYWWad9urQRNwJsTv5Xjks|“I want to make masks! How can I help?” - A guide for home sewists>",
        "user": "U0102NEMRTR",
        "ts": "1585543511.091700",
        "team": "TUU48M0T1",
        "user_team": "TUU48M0T1",
        "source_team": "TUU48M0T1",
        "user_profile": {
            "avatar_hash": "g6072d132593",
            "image_72": "https:\/\/secure.gravatar.com\/avatar\/6072d132593acb6de99356666ff0ed9e.jpg?s=72&d=https%3A%2F%2Fa.slack-edge.com%2Fdf10d%2Fimg%2Favatars%2Fava_0008-72.png",
            "first_name": "",
            "real_name": "Patrik D'haeseleer",
            "display_name": "Patrik D'haeseleer",
            "team": "TUU48M0T1",
            "name": "patrikd",
            "is_restricted": false,
            "is_ultra_restricted": false
        },
        "blocks": [
            {
                "type": "rich_text",
                "block_id": "u81M",
                "elements": [
                    {
                        "type": "rich_text_section",
                        "elements": [
                            {
                                "type": "link",
                                "url": "https:\/\/docs.google.com\/document\/d\/e\/2PACX-1vQVnocKNgEPNSC4DRp0QV-kKfSrPmVMsczMuq1kcIUxNA8DmvG5PS5S0e8zuPRFNe0VnlGzd6segMsl\/pub?fbclid=IwAR291s1Don-8l60We8s9nHcUxpxH-Yb3Aaj3DYYWWad9urQRNwJsTv5Xjks",
                                "text": "“I want to make masks! How can I help?” - A guide for home sewists"
                            }
                        ]
                    }
                ]
            }
        ]
    },
    {
        "client_msg_id": "5f12393f-2423-400f-906a-2375b4b7bb49",
        "type": "message",
        "text": "<https:\/\/getusppe.org\/makers\/|Getting Protective Equipment (PPE) to Our Healthcare Heroes - Resources for Makers>",
        "user": "U0102NEMRTR",
        "ts": "1585543541.091900",
        "team": "TUU48M0T1",
        "user_team": "TUU48M0T1",
        "source_team": "TUU48M0T1",
        "user_profile": {
            "avatar_hash": "g6072d132593",
            "image_72": "https:\/\/secure.gravatar.com\/avatar\/6072d132593acb6de99356666ff0ed9e.jpg?s=72&d=https%3A%2F%2Fa.slack-edge.com%2Fdf10d%2Fimg%2Favatars%2Fava_0008-72.png",
            "first_name": "",
            "real_name": "Patrik D'haeseleer",
            "display_name": "Patrik D'haeseleer",
            "team": "TUU48M0T1",
            "name": "patrikd",
            "is_restricted": false,
            "is_ultra_restricted": false
        },
        "blocks": [
            {
                "type": "rich_text",
                "block_id": "x0L",
                "elements": [
                    {
                        "type": "rich_text_section",
                        "elements": [
                            {
                                "type": "link",
                                "url": "https:\/\/getusppe.org\/makers\/",
                                "text": "Getting Protective Equipment (PPE) to Our Healthcare Heroes - Resources for Makers"
                            }
                        ]
                    }
                ]
            }
        ]
    },
    {
        "client_msg_id": "8739ed54-1275-4648-a07c-2fb99d50402a",
        "type": "message",
        "text": "Note that the last link says \"all projects listed on <http:\/\/www.GetUsPPE.org|www.GetUsPPE.org> have been r*eviewed and approved by medical professionals,* including the <https:\/\/opensourcemedicalsupplies.org\/|Open Source COVID19 Medical Supplies (OSCMS) Review Team (more info)>, and medical professionals from hospitals across the U.S.\" - it might be good to team up and avoid duplicating effort with them...",
        "user": "U0102NEMRTR",
        "ts": "1585543749.093000",
        "team": "TUU48M0T1",
        "user_team": "TUU48M0T1",
        "source_team": "TUU48M0T1",
        "user_profile": {
            "avatar_hash": "g6072d132593",
            "image_72": "https:\/\/secure.gravatar.com\/avatar\/6072d132593acb6de99356666ff0ed9e.jpg?s=72&d=https%3A%2F%2Fa.slack-edge.com%2Fdf10d%2Fimg%2Favatars%2Fava_0008-72.png",
            "first_name": "",
            "real_name": "Patrik D'haeseleer",
            "display_name": "Patrik D'haeseleer",
            "team": "TUU48M0T1",
            "name": "patrikd",
            "is_restricted": false,
            "is_ultra_restricted": false
        },
        "blocks": [
            {
                "type": "rich_text",
                "block_id": "afN",
                "elements": [
                    {
                        "type": "rich_text_section",
                        "elements": [
                            {
                                "type": "text",
                                "text": "Note that the last link says \"all projects listed on "
                            },
                            {
                                "type": "link",
                                "url": "http:\/\/www.GetUsPPE.org",
                                "text": "www.GetUsPPE.org"
                            },
                            {
                                "type": "text",
                                "text": " have been r"
                            },
                            {
                                "type": "text",
                                "text": "eviewed and approved by medical professionals,",
                                "style": {
                                    "bold": true
                                }
                            },
                            {
                                "type": "text",
                                "text": " including the "
                            },
                            {
                                "type": "link",
                                "url": "https:\/\/opensourcemedicalsupplies.org\/",
                                "text": "Open Source COVID19 Medical Supplies (OSCMS) Review Team (more info)"
                            },
                            {
                                "type": "text",
                                "text": ", and medical professionals from hospitals across the U.S.\" - it might be good to team up and avoid duplicating effort with them..."
                            }
                        ]
                    }
                ]
            }
        ]
    },
    {
        "client_msg_id": "1bd91f4b-7e6a-47c5-9cc2-6f0b6ff3c75b",
        "type": "message",
        "text": "Hi i was able to get through all designs but few things were pain - lack of ability to put extra comment. Some project linking externally to living projects or being ideas instead at the same being science papers or other mature ideas  which caused it was hard to reject as incomplete. Some things didn’t fit into mask category as those  were quality projects but only part of solution - like very good projet focusing on proper sealing <https:\/\/hackaday.io\/project\/170487-3d-printable-sealing-face-mask-experimental> or those adapters to filters <https:\/\/www.thingiverse.com\/thing:4241787> . I thing we shouldn’t thros those away as incomplete as those are good base for extending other mask type",
        "user": "U010FUU89B9",
        "ts": "1585547922.097000",
        "team": "TUU48M0T1",
        "user_team": "TUU48M0T1",
        "source_team": "TUU48M0T1",
        "user_profile": {
            "avatar_hash": "g8013a6b45b4",
            "image_72": "https:\/\/secure.gravatar.com\/avatar\/8013a6b45b4ae359e124abba6495cd14.jpg?s=72&d=https%3A%2F%2Fa.slack-edge.com%2Fdf10d%2Fimg%2Favatars%2Fava_0016-72.png",
            "first_name": "Bartłomiej",
            "real_name": "Bartłomiej Żogała",
            "display_name": "nusch",
            "team": "TUU48M0T1",
            "name": "slack1370",
            "is_restricted": false,
            "is_ultra_restricted": false
        },
        "attachments": [
            {
                "title": "3D Printable Sealing Face Mask (Experimental)",
                "title_link": "https:\/\/hackaday.io\/project\/170487-3d-printable-sealing-face-mask-experimental",
                "text": "A proof of concept mask design for a air tight fitting mask that&amp;apos;s based from existing respirator designs. My initial quick test showed that it is possible to creating an air tight sealing face mask using 3D printing (may vary from person to person). Main issues to solve: - Limited face masks or respirators available - Limited filter material available Key design intentions: - Reusable face mask with replaceable filter material - Air tight face fitting design - Easy to print with flat surfaces for PLA and TPU parts - No supports required - Uses a 70x70mm suitable filter sheet cutout - Low additional material requirement - Easy to string with any cord that you can get. Even Ninjaflex Filament will do - Curved design for helping with reducing small crevices with cleaning and washing",
                "fallback": "3D Printable Sealing Face Mask (Experimental)",
                "image_url": "https:\/\/cdn.hackaday.io\/images\/resize\/600x600\/3430631584915336604.jpeg",
                "from_url": "https:\/\/hackaday.io\/project\/170487-3d-printable-sealing-face-mask-experimental",
                "image_width": 250,
                "image_height": 250,
                "image_bytes": 43152,
                "service_icon": "https:\/\/hackaday.io\/apple-touch-icon.png",
                "service_name": "hackaday.io",
                "id": 1,
                "original_url": "https:\/\/hackaday.io\/project\/170487-3d-printable-sealing-face-mask-experimental"
            },
            {
                "title": "Y Breather Mark 3.14 by TheWorcShop",
                "title_link": "https:\/\/www.thingiverse.com\/thing:4241787",
                "text": "This adapter fits 2 types of widely available CPR masks: -- American Red Cross (Laerdal) CPR Pocket Mask (0.59 exterior diameter) -- Generic CPR mask with hard plastic nozzle (0.875 interior diameter) Our Y breather adapter is designed to connect to: Honeywell North N Series Filter, P100 filter, (part # 7580P100, thread size 1.0625 0.375-16 UNS 2 A) becoming a breathing device that will lower the risk of contracting diseases when used in the medical field. (Slimline adapters, compatible with other filter attachments, forthcoming) additional parts: -- 2, O-rings (A115 - 11\/16\" x 7\/8\" x 3\/32\") to fit inside wide mouth CPR mask (0.875\" ID) -- 2, 1.3125\" Flat Gaskets for breathing valves. (we used 3m Easi-Air inhalation valve ID # 70-0700-9197-3 -- ~18-24\" elastic band or other strapping",
                "fallback": "Y Breather Mark 3.14 by TheWorcShop",
                "thumb_url": "https:\/\/cdn.thingiverse.com\/assets\/ce\/d6\/46\/84\/ab\/featured_preview_Mark_3.14.png",
                "from_url": "https:\/\/www.thingiverse.com\/thing:4241787",
                "thumb_width": 628,
                "thumb_height": 472,
                "service_icon": "https:\/\/cdn.thingiverse.com\/site\/img\/favicons\/apple-touch-icon-57x57.png",
                "service_name": "thingiverse.com",
                "id": 2,
                "original_url": "https:\/\/www.thingiverse.com\/thing:4241787"
            }
        ],
        "blocks": [
            {
                "type": "rich_text",
                "block_id": "iH9K",
                "elements": [
                    {
                        "type": "rich_text_section",
                        "elements": [
                            {
                                "type": "text",
                                "text": "Hi i was able to get through all designs but few things were pain - lack of ability to put extra comment. Some project linking externally to living projects or being ideas instead at the same being science papers or other mature ideas  which caused it was hard to reject as incomplete. Some things didn’t fit into mask category as those  were quality projects but only part of solution - like very good projet focusing on proper sealing "
                            },
                            {
                                "type": "link",
                                "url": "https:\/\/hackaday.io\/project\/170487-3d-printable-sealing-face-mask-experimental"
                            },
                            {
                                "type": "text",
                                "text": " or those adapters to filters "
                            },
                            {
                                "type": "link",
                                "url": "https:\/\/www.thingiverse.com\/thing:4241787"
                            },
                            {
                                "type": "text",
                                "text": " . I thing we shouldn’t thros those away as incomplete as those are good base for extending other mask type"
                            }
                        ]
                    }
                ]
            }
        ],
        "thread_ts": "1585547922.097000",
        "reply_count": 1,
        "reply_users_count": 1,
        "latest_reply": "1585582035.099000",
        "reply_users": [
            "U010HTBUHS9"
        ],
        "replies": [
            {
                "user": "U010HTBUHS9",
                "ts": "1585582035.099000"
            }
        ],
        "subscribed": false
    }
]