[
    {
        "client_msg_id": "bb232516-4a87-4bea-ae9e-6e10e788071c",
        "type": "message",
        "text": "Interesting info via the NEB rep:  We have lyophilized the colorimetric LAMP mix, but do not have it available as a glycerol-free product at the moment (it's in development). Drying it is trickier than standard LAMP reagents or mix, as the special low-buffer formulation makes it more sensitive to pH fluctuations that occur during drying and any buffer effects from the excipients. We agree it could be a very useful form of the product, better for field-friendly simple diagnostics without cold-chain storage, but it's a work in progress. For glycerol-free enzymes we do have our other LAMP mix with Bst 2.0 and RTx, as well as the individual enzymes including Bst 3.0. Bst 3.0 is a good RT on its own and can do RT-LAMP all by itself, although it has more target-to-target variability than the 2.0+RTx combination in our master mix. All of the LAMP enzymes are stable at ambient temperatures for some time, but we recommend lyophilization for long-term storage without refrigeration. If there is interest in any of the glycerol-free LAMP enzymes our NEB OEM team would be happy to get quotes for you, and we can help with any LAMP questions.",
        "user": "UV1A22N3W",
        "ts": "1586935936.174100",
        "team": "TUU48M0T1",
        "user_team": "TUU48M0T1",
        "source_team": "TUU48M0T1",
        "user_profile": {
            "avatar_hash": "71f827776ad6",
            "image_72": "https:\/\/avatars.slack-edge.com\/2020-03-09\/988125642964_71f827776ad610af05a2_72.jpg",
            "first_name": "",
            "real_name": "RachelA",
            "display_name": "RachelA",
            "team": "TUU48M0T1",
            "name": "raronoff",
            "is_restricted": false,
            "is_ultra_restricted": false
        },
        "blocks": [
            {
                "type": "rich_text",
                "block_id": "g5\/",
                "elements": [
                    {
                        "type": "rich_text_section",
                        "elements": [
                            {
                                "type": "text",
                                "text": "Interesting info via the NEB rep:  We have lyophilized the colorimetric LAMP mix, but do not have it available as a glycerol-free product at the moment (it's in development). Drying it is trickier than standard LAMP reagents or mix, as the special low-buffer formulation makes it more sensitive to pH fluctuations that occur during drying and any buffer effects from the excipients. We agree it could be a very useful form of the product, better for field-friendly simple diagnostics without cold-chain storage, but it's a work in progress. For glycerol-free enzymes we do have our other LAMP mix with Bst 2.0 and RTx, as well as the individual enzymes including Bst 3.0. Bst 3.0 is a good RT on its own and can do RT-LAMP all by itself, although it has more target-to-target variability than the 2.0+RTx combination in our master mix. All of the LAMP enzymes are stable at ambient temperatures for some time, but we recommend lyophilization for long-term storage without refrigeration. If there is interest in any of the glycerol-free LAMP enzymes our NEB OEM team would be happy to get quotes for you, and we can help with any LAMP questions."
                            }
                        ]
                    }
                ]
            }
        ],
        "thread_ts": "1586935936.174100",
        "reply_count": 1,
        "reply_users_count": 1,
        "latest_reply": "1586936512.177100",
        "reply_users": [
            "UV1A22N3W"
        ],
        "replies": [
            {
                "user": "UV1A22N3W",
                "ts": "1586936512.177100"
            }
        ],
        "subscribed": false
    },
    {
        "client_msg_id": "d3019ed3-6e94-4e9e-be04-1cf6bd42cd91",
        "type": "message",
        "text": "<@UV7LUJG1Y> and <@UV3URUKK5> so maybe our best plan will be to use the Bst2.0 and RTx for the CoronaDetective initial tests?!  I told him I would confirm the order from Hackuarium this afternoon, so input very welcome from everyone!  DIT :slightly_smiling_face:",
        "user": "UV1A22N3W",
        "ts": "1586936053.176100",
        "team": "TUU48M0T1",
        "user_team": "TUU48M0T1",
        "source_team": "TUU48M0T1",
        "user_profile": {
            "avatar_hash": "71f827776ad6",
            "image_72": "https:\/\/avatars.slack-edge.com\/2020-03-09\/988125642964_71f827776ad610af05a2_72.jpg",
            "first_name": "",
            "real_name": "RachelA",
            "display_name": "RachelA",
            "team": "TUU48M0T1",
            "name": "raronoff",
            "is_restricted": false,
            "is_ultra_restricted": false
        },
        "blocks": [
            {
                "type": "rich_text",
                "block_id": "l3X9",
                "elements": [
                    {
                        "type": "rich_text_section",
                        "elements": [
                            {
                                "type": "user",
                                "user_id": "UV7LUJG1Y"
                            },
                            {
                                "type": "text",
                                "text": " and "
                            },
                            {
                                "type": "user",
                                "user_id": "UV3URUKK5"
                            },
                            {
                                "type": "text",
                                "text": " so maybe our best plan will be to use the Bst2.0 and RTx for the CoronaDetective initial tests?!  I told him I would confirm the order from Hackuarium this afternoon, so input very welcome from everyone!  DIT "
                            },
                            {
                                "type": "emoji",
                                "name": "slightly_smiling_face"
                            }
                        ]
                    }
                ]
            }
        ]
    },
    {
        "client_msg_id": "634cce3e-858d-413b-8873-c1e9dcd18111",
        "type": "message",
        "text": "Also, sounds like optigene has its own test - a friend just passed on news that it is being piloted in New Hampshire.",
        "user": "UV1A22N3W",
        "ts": "1586936329.176800",
        "team": "TUU48M0T1",
        "user_team": "TUU48M0T1",
        "source_team": "TUU48M0T1",
        "user_profile": {
            "avatar_hash": "71f827776ad6",
            "image_72": "https:\/\/avatars.slack-edge.com\/2020-03-09\/988125642964_71f827776ad610af05a2_72.jpg",
            "first_name": "",
            "real_name": "RachelA",
            "display_name": "RachelA",
            "team": "TUU48M0T1",
            "name": "raronoff",
            "is_restricted": false,
            "is_ultra_restricted": false
        },
        "blocks": [
            {
                "type": "rich_text",
                "block_id": "sSQzc",
                "elements": [
                    {
                        "type": "rich_text_section",
                        "elements": [
                            {
                                "type": "text",
                                "text": "Also, sounds like optigene has its own test - a friend just passed on news that it is being piloted in New Hampshire."
                            }
                        ]
                    }
                ]
            }
        ],
        "reactions": [
            {
                "name": "heart_eyes",
                "users": [
                    "UV3URUKK5"
                ],
                "count": 1
            }
        ]
    },
    {
        "client_msg_id": "4c1d26f4-d1ef-47d2-93d6-7ad53602ffa2",
        "type": "message",
        "text": "just in case: an excipient is an inactive substance that serves as the vehicle or medium for a drug or other active substance.  (guess the trehalose counts as one for this case...)",
        "user": "UV1A22N3W",
        "ts": "1586936512.177100",
        "team": "TUU48M0T1",
        "user_team": "TUU48M0T1",
        "source_team": "TUU48M0T1",
        "user_profile": {
            "avatar_hash": "71f827776ad6",
            "image_72": "https:\/\/avatars.slack-edge.com\/2020-03-09\/988125642964_71f827776ad610af05a2_72.jpg",
            "first_name": "",
            "real_name": "RachelA",
            "display_name": "RachelA",
            "team": "TUU48M0T1",
            "name": "raronoff",
            "is_restricted": false,
            "is_ultra_restricted": false
        },
        "blocks": [
            {
                "type": "rich_text",
                "block_id": "=pPdb",
                "elements": [
                    {
                        "type": "rich_text_section",
                        "elements": [
                            {
                                "type": "text",
                                "text": "just in case: an excipient is an inactive substance that serves as the vehicle or medium for a drug or other active substance.  (guess the trehalose counts as one for this case...)"
                            }
                        ]
                    }
                ]
            }
        ],
        "thread_ts": "1586935936.174100",
        "parent_user_id": "UV1A22N3W"
    },
    {
        "client_msg_id": "693AB8D8-99BA-4B61-AA4B-E66AF774E241",
        "type": "message",
        "text": "pricy!! and only for research <https:\/\/www.chaibio.com\/covid-19-test-kit|https:\/\/www.chaibio.com\/covid-19-test-kit>",
        "user": "UV1A22N3W",
        "ts": "1586937699.177900",
        "team": "TUU48M0T1",
        "user_team": "TUU48M0T1",
        "source_team": "TUU48M0T1",
        "user_profile": {
            "avatar_hash": "71f827776ad6",
            "image_72": "https:\/\/avatars.slack-edge.com\/2020-03-09\/988125642964_71f827776ad610af05a2_72.jpg",
            "first_name": "",
            "real_name": "RachelA",
            "display_name": "RachelA",
            "team": "TUU48M0T1",
            "name": "raronoff",
            "is_restricted": false,
            "is_ultra_restricted": false
        },
        "blocks": [
            {
                "type": "rich_text",
                "block_id": "txG5D",
                "elements": [
                    {
                        "type": "rich_text_section",
                        "elements": [
                            {
                                "type": "text",
                                "text": "pricy!! and only for research "
                            },
                            {
                                "type": "link",
                                "url": "https:\/\/www.chaibio.com\/covid-19-test-kit",
                                "text": "https:\/\/www.chaibio.com\/covid-19-test-kit"
                            }
                        ]
                    }
                ]
            }
        ],
        "thread_ts": "1586937699.177900",
        "reply_count": 1,
        "reply_users_count": 1,
        "latest_reply": "1586992604.196200",
        "reply_users": [
            "U010QHBTBPY"
        ],
        "replies": [
            {
                "user": "U010QHBTBPY",
                "ts": "1586992604.196200"
            }
        ],
        "subscribed": false
    },
    {
        "client_msg_id": "D9706BFC-868D-4BA3-A82D-64D75508980B",
        "type": "message",
        "text": "not diagnosis !",
        "user": "UV1A22N3W",
        "ts": "1586937714.178300",
        "team": "TUU48M0T1",
        "user_team": "TUU48M0T1",
        "source_team": "TUU48M0T1",
        "user_profile": {
            "avatar_hash": "71f827776ad6",
            "image_72": "https:\/\/avatars.slack-edge.com\/2020-03-09\/988125642964_71f827776ad610af05a2_72.jpg",
            "first_name": "",
            "real_name": "RachelA",
            "display_name": "RachelA",
            "team": "TUU48M0T1",
            "name": "raronoff",
            "is_restricted": false,
            "is_ultra_restricted": false
        },
        "blocks": [
            {
                "type": "rich_text",
                "block_id": "aMN",
                "elements": [
                    {
                        "type": "rich_text_section",
                        "elements": [
                            {
                                "type": "text",
                                "text": "not diagnosis !"
                            }
                        ]
                    }
                ]
            }
        ]
    },
    {
        "client_msg_id": "e00e742d-718a-4634-93f4-56e979c2c314",
        "type": "message",
        "text": "We are trying the same. Can you share the plasmid sequences?",
        "user": "U011CLVJMQX",
        "ts": "1586961990.179000",
        "team": "TUU48M0T1",
        "user_team": "TUU48M0T1",
        "source_team": "TUU48M0T1",
        "user_profile": {
            "avatar_hash": "g4aba3616047",
            "image_72": "https:\/\/secure.gravatar.com\/avatar\/4aba3616047410f5bf6118588d544768.jpg?s=72&d=https%3A%2F%2Fa.slack-edge.com%2Fdf10d%2Fimg%2Favatars%2Fava_0022-72.png",
            "first_name": "",
            "real_name": "Kathrin Hadasch",
            "display_name": "Kathrin Hadasch",
            "team": "TUU48M0T1",
            "name": "khada",
            "is_restricted": false,
            "is_ultra_restricted": false
        },
        "blocks": [
            {
                "type": "rich_text",
                "block_id": "Ynq",
                "elements": [
                    {
                        "type": "rich_text_section",
                        "elements": [
                            {
                                "type": "text",
                                "text": "We are trying the same. Can you share the plasmid sequences?"
                            }
                        ]
                    }
                ]
            }
        ],
        "thread_ts": "1585106447.000200",
        "parent_user_id": "U0103U82Q2K"
    },
    {
        "client_msg_id": "e3d6bbc2-9401-4474-b06d-44a6740c84d9",
        "type": "message",
        "text": "WTF!",
        "user": "UV3URUKK5",
        "ts": "1586962083.179500",
        "team": "TUU48M0T1",
        "user_team": "TUU48M0T1",
        "source_team": "TUU48M0T1",
        "user_profile": {
            "avatar_hash": "64c99c2ed974",
            "image_72": "https:\/\/avatars.slack-edge.com\/2020-03-15\/1000999702004_64c99c2ed97497e08ca9_72.jpg",
            "first_name": "",
            "real_name": "Francisco Javier Quero",
            "display_name": "Francisco Javier Quero",
            "team": "TUU48M0T1",
            "name": "franxi2953",
            "is_restricted": false,
            "is_ultra_restricted": false
        },
        "blocks": [
            {
                "type": "rich_text",
                "block_id": "6wF=c",
                "elements": [
                    {
                        "type": "rich_text_section",
                        "elements": [
                            {
                                "type": "text",
                                "text": "WTF!"
                            }
                        ]
                    }
                ]
            }
        ]
    },
    {
        "client_msg_id": "f2a8f26f-bfc7-4b6e-9b3d-c0f46d7fc064",
        "type": "message",
        "text": "So expensive!",
        "user": "UV3URUKK5",
        "ts": "1586962086.179700",
        "team": "TUU48M0T1",
        "user_team": "TUU48M0T1",
        "source_team": "TUU48M0T1",
        "user_profile": {
            "avatar_hash": "64c99c2ed974",
            "image_72": "https:\/\/avatars.slack-edge.com\/2020-03-15\/1000999702004_64c99c2ed97497e08ca9_72.jpg",
            "first_name": "",
            "real_name": "Francisco Javier Quero",
            "display_name": "Francisco Javier Quero",
            "team": "TUU48M0T1",
            "name": "franxi2953",
            "is_restricted": false,
            "is_ultra_restricted": false
        },
        "edited": {
            "user": "UV3URUKK5",
            "ts": "1586966553.000000"
        },
        "blocks": [
            {
                "type": "rich_text",
                "block_id": "xJP4g",
                "elements": [
                    {
                        "type": "rich_text_section",
                        "elements": [
                            {
                                "type": "text",
                                "text": "So expensive!"
                            }
                        ]
                    }
                ]
            }
        ]
    },
    {
        "client_msg_id": "fede0124-5c0f-495a-8118-4ce039647bdc",
        "type": "message",
        "text": "i'm going to work also emailing to the NEBs' spain distributor this afternoon",
        "user": "UV3URUKK5",
        "ts": "1586962120.180400",
        "team": "TUU48M0T1",
        "user_team": "TUU48M0T1",
        "source_team": "TUU48M0T1",
        "user_profile": {
            "avatar_hash": "64c99c2ed974",
            "image_72": "https:\/\/avatars.slack-edge.com\/2020-03-15\/1000999702004_64c99c2ed97497e08ca9_72.jpg",
            "first_name": "",
            "real_name": "Francisco Javier Quero",
            "display_name": "Francisco Javier Quero",
            "team": "TUU48M0T1",
            "name": "franxi2953",
            "is_restricted": false,
            "is_ultra_restricted": false
        },
        "edited": {
            "user": "UV3URUKK5",
            "ts": "1586966561.000000"
        },
        "blocks": [
            {
                "type": "rich_text",
                "block_id": "QHGP4",
                "elements": [
                    {
                        "type": "rich_text_section",
                        "elements": [
                            {
                                "type": "text",
                                "text": "i'm going to work also emailing to the NEBs' spain distributor this afternoon"
                            }
                        ]
                    }
                ]
            }
        ]
    },
    {
        "client_msg_id": "8746ec55-6df2-499d-9263-e36652317c43",
        "type": "message",
        "text": "Does it say anywhere how many tests are in a kit?",
        "user": "UV5CCJ9RC",
        "ts": "1586962204.180800",
        "team": "TUU48M0T1",
        "user_team": "TUU48M0T1",
        "source_team": "TUU48M0T1",
        "user_profile": {
            "avatar_hash": "2c79fe05f7e7",
            "image_72": "https:\/\/avatars.slack-edge.com\/2020-03-10\/992653932501_2c79fe05f7e75be19699_72.png",
            "first_name": "Chris",
            "real_name": "Chris Monaco",
            "display_name": "",
            "team": "TUU48M0T1",
            "name": "cmonaco.hr",
            "is_restricted": false,
            "is_ultra_restricted": false
        },
        "blocks": [
            {
                "type": "rich_text",
                "block_id": "oaB0u",
                "elements": [
                    {
                        "type": "rich_text_section",
                        "elements": [
                            {
                                "type": "text",
                                "text": "Does it say anywhere how many tests are in a kit?"
                            }
                        ]
                    }
                ]
            }
        ],
        "thread_ts": "1586962204.180800",
        "reply_count": 1,
        "reply_users_count": 1,
        "latest_reply": "1586992648.196400",
        "reply_users": [
            "U010QHBTBPY"
        ],
        "replies": [
            {
                "user": "U010QHBTBPY",
                "ts": "1586992648.196400"
            }
        ],
        "subscribed": false
    },
    {
        "type": "message",
        "text": "I expressed and purified the Bst-LF the other day to see if I could recreate the colometric RT-LAMP but in the end the first experiment didn't work. I haven't had time to really validate the enzyme because I am studying for my comprehensive exams, but I think it would still work with the right expression protocol and LAMP master mix preparation.",
        "files": [
            {
                "id": "F011FG5JC95",
                "created": 1586962510,
                "timestamp": 1586962510,
                "name": "pET-19b_MMLV-RT.dna",
                "title": "pET-19b_MMLV-RT.dna",
                "mimetype": "application\/octet-stream",
                "filetype": "binary",
                "pretty_type": "Binary",
                "user": "U010D014546",
                "editable": false,
                "size": 630893,
                "mode": "hosted",
                "is_external": false,
                "external_type": "",
                "is_public": true,
                "public_url_shared": false,
                "display_as_bot": false,
                "username": "",
                "url_private": "https:\/\/files.slack.com\/files-pri\/TUU48M0T1-F011FG5JC95\/pet-19b_mmlv-rt.dna?t=xoxe-980144714919-1133254701825-1120841107731-daf595b5a7d6c9028b0b02a925032e36",
                "url_private_download": "https:\/\/files.slack.com\/files-pri\/TUU48M0T1-F011FG5JC95\/download\/pet-19b_mmlv-rt.dna?t=xoxe-980144714919-1133254701825-1120841107731-daf595b5a7d6c9028b0b02a925032e36",
                "permalink": "https:\/\/open-covid19.slack.com\/files\/U010D014546\/F011FG5JC95\/pet-19b_mmlv-rt.dna",
                "permalink_public": "https:\/\/slack-files.com\/TUU48M0T1-F011FG5JC95-ac596c8a5b",
                "is_starred": false,
                "has_rich_preview": false
            },
            {
                "id": "F011USJLY0M",
                "created": 1586962510,
                "timestamp": 1586962510,
                "name": "pET15b_Bst-LF.dna",
                "title": "pET15b_Bst-LF.dna",
                "mimetype": "application\/octet-stream",
                "filetype": "binary",
                "pretty_type": "Binary",
                "user": "U010D014546",
                "editable": false,
                "size": 122816,
                "mode": "hosted",
                "is_external": false,
                "external_type": "",
                "is_public": true,
                "public_url_shared": false,
                "display_as_bot": false,
                "username": "",
                "url_private": "https:\/\/files.slack.com\/files-pri\/TUU48M0T1-F011USJLY0M\/pet15b_bst-lf.dna?t=xoxe-980144714919-1133254701825-1120841107731-daf595b5a7d6c9028b0b02a925032e36",
                "url_private_download": "https:\/\/files.slack.com\/files-pri\/TUU48M0T1-F011USJLY0M\/download\/pet15b_bst-lf.dna?t=xoxe-980144714919-1133254701825-1120841107731-daf595b5a7d6c9028b0b02a925032e36",
                "permalink": "https:\/\/open-covid19.slack.com\/files\/U010D014546\/F011USJLY0M\/pet15b_bst-lf.dna",
                "permalink_public": "https:\/\/slack-files.com\/TUU48M0T1-F011USJLY0M-2106305cad",
                "is_starred": false,
                "has_rich_preview": false
            }
        ],
        "upload": true,
        "blocks": [
            {
                "type": "rich_text",
                "block_id": "f=\/7",
                "elements": [
                    {
                        "type": "rich_text_section",
                        "elements": [
                            {
                                "type": "text",
                                "text": "I expressed and purified the Bst-LF the other day to see if I could recreate the colometric RT-LAMP but in the end the first experiment didn't work. I haven't had time to really validate the enzyme because I am studying for my comprehensive exams, but I think it would still work with the right expression protocol and LAMP master mix preparation."
                            }
                        ]
                    }
                ]
            }
        ],
        "user": "U010D014546",
        "ts": "1586962513.180900",
        "client_msg_id": "c4b42fa5-7e28-468a-abe0-395d3c72f377",
        "thread_ts": "1585106447.000200",
        "parent_user_id": "U0103U82Q2K"
    },
    {
        "client_msg_id": "17f1b3df-e1cf-42d7-aa50-ef8c6c1531c1",
        "type": "message",
        "text": "I should add that the MMLV-RT, Phusion, RNAse inhibitor I made work great, and the I have confirmed that the stocks I have for both plasmids are correct in sequence. My guess is that the Bst I made needs to be concentrated.",
        "user": "U010D014546",
        "ts": "1586962751.181500",
        "team": "TUU48M0T1",
        "user_team": "TUU48M0T1",
        "source_team": "TUU48M0T1",
        "user_profile": {
            "avatar_hash": "gf60ced8560b",
            "image_72": "https:\/\/secure.gravatar.com\/avatar\/f60ced8560b19f702db2ea35c88e3b39.jpg?s=72&d=https%3A%2F%2Fa.slack-edge.com%2Fdf10d%2Fimg%2Favatars%2Fava_0013-72.png",
            "first_name": "Alex",
            "real_name": "Alex Brown",
            "display_name": "Alex Brown",
            "team": "TUU48M0T1",
            "name": "abrown",
            "is_restricted": false,
            "is_ultra_restricted": false
        },
        "blocks": [
            {
                "type": "rich_text",
                "block_id": "=9Am",
                "elements": [
                    {
                        "type": "rich_text_section",
                        "elements": [
                            {
                                "type": "text",
                                "text": "I should add that the MMLV-RT, Phusion, RNAse inhibitor I made work great, and the I have confirmed that the stocks I have for both plasmids are correct in sequence. My guess is that the Bst I made needs to be concentrated."
                            }
                        ]
                    }
                ]
            }
        ],
        "thread_ts": "1585106447.000200",
        "parent_user_id": "U0103U82Q2K"
    },
    {
        "client_msg_id": "EB626EAA-C51B-4146-B346-6DC5E83EA5A9",
        "type": "message",
        "text": "not that I saw, but guess it won’t be more than 100, if that - plus Chaibio is supposed to be the open pcr co???",
        "user": "UV1A22N3W",
        "ts": "1586962868.183300",
        "team": "TUU48M0T1",
        "user_team": "TUU48M0T1",
        "source_team": "TUU48M0T1",
        "user_profile": {
            "avatar_hash": "71f827776ad6",
            "image_72": "https:\/\/avatars.slack-edge.com\/2020-03-09\/988125642964_71f827776ad610af05a2_72.jpg",
            "first_name": "",
            "real_name": "RachelA",
            "display_name": "RachelA",
            "team": "TUU48M0T1",
            "name": "raronoff",
            "is_restricted": false,
            "is_ultra_restricted": false
        },
        "blocks": [
            {
                "type": "rich_text",
                "block_id": "sV=",
                "elements": [
                    {
                        "type": "rich_text_section",
                        "elements": [
                            {
                                "type": "text",
                                "text": "not that I saw, but guess it won’t be more than 100, if that - plus Chaibio is supposed to be the open pcr co???"
                            }
                        ]
                    }
                ]
            }
        ]
    },
    {
        "client_msg_id": "96B32538-C334-4286-B07F-C90114002378",
        "type": "message",
        "text": "I’ve been comparing bst 3.0 to 2.0+rt and it is not nearly as sensitive using the Zhang N Gene primers and twist synthetic control ",
        "user": "U010LNECEHE",
        "ts": "1586967290.185400",
        "team": "TUU48M0T1",
        "user_team": "TUU48M0T1",
        "source_team": "TUU48M0T1",
        "user_profile": {
            "avatar_hash": "58bda3258fcd",
            "image_72": "https:\/\/avatars.slack-edge.com\/2020-03-30\/1036110784064_58bda3258fcd726472e4_72.png",
            "first_name": "Ali",
            "real_name": "Ali Bektaş",
            "display_name": "Ali",
            "team": "TUU48M0T1",
            "name": "cinalibektas",
            "is_restricted": false,
            "is_ultra_restricted": false
        },
        "blocks": [
            {
                "type": "rich_text",
                "block_id": "wRRr",
                "elements": [
                    {
                        "type": "rich_text_section",
                        "elements": [
                            {
                                "type": "text",
                                "text": "I’ve been comparing bst 3.0 to 2.0+rt and it is not nearly as sensitive using the Zhang N Gene primers and twist synthetic control "
                            }
                        ]
                    }
                ]
            }
        ]
    },
    {
        "client_msg_id": "472dc3d6-c82c-41a9-bdc5-51ca06f511e7",
        "type": "message",
        "text": "Which is less sensitive, 3.0 or 2.0+rt?",
        "user": "UUNGFHSV8",
        "ts": "1586970828.185700",
        "team": "TUU48M0T1",
        "user_team": "TUU48M0T1",
        "source_team": "TUU48M0T1",
        "user_profile": {
            "avatar_hash": "1c55ee32397a",
            "image_72": "https:\/\/avatars.slack-edge.com\/2020-03-07\/987349161984_1c55ee32397a85a87ec4_72.png",
            "first_name": "Isaac",
            "real_name": "Isaac Larkin",
            "display_name": "Isaac Larkin",
            "team": "TUU48M0T1",
            "name": "eyesmo",
            "is_restricted": false,
            "is_ultra_restricted": false
        },
        "blocks": [
            {
                "type": "rich_text",
                "block_id": "Sc7a",
                "elements": [
                    {
                        "type": "rich_text_section",
                        "elements": [
                            {
                                "type": "text",
                                "text": "Which is less sensitive, 3.0 or 2.0+rt?"
                            }
                        ]
                    }
                ]
            }
        ]
    },
    {
        "client_msg_id": "a48b78a2-3ce8-4cc8-9a6c-68d4b2276d01",
        "type": "message",
        "text": "Bummer it is just as expensive, but good to know.",
        "user": "U010DG4358Q",
        "ts": "1586972242.186100",
        "team": "TUU48M0T1",
        "user_team": "TUU48M0T1",
        "source_team": "TUU48M0T1",
        "user_profile": {
            "avatar_hash": "80e278cd989c",
            "image_72": "https:\/\/avatars.slack-edge.com\/2020-04-13\/1057906664754_80e278cd989cdea6fcc7_72.png",
            "first_name": "swedishmadscientist",
            "real_name": "swedishmadscientist",
            "display_name": "swedishmadscientist",
            "team": "TUU48M0T1",
            "name": "antoniolamb",
            "is_restricted": false,
            "is_ultra_restricted": false
        },
        "blocks": [
            {
                "type": "rich_text",
                "block_id": "aY0\/4",
                "elements": [
                    {
                        "type": "rich_text_section",
                        "elements": [
                            {
                                "type": "text",
                                "text": "Bummer it is just as expensive, but good to know."
                            }
                        ]
                    }
                ]
            }
        ],
        "thread_ts": "1586788852.149200",
        "parent_user_id": "U010DG4358Q"
    },
    {
        "client_msg_id": "2353f8ef-e200-425a-8e4c-3f6ca7e79c75",
        "type": "message",
        "text": "yes, <@U010LNECEHE> are you saying the 2.0 + rt is not good?  did you do serial dilutions and replicates already?  I think everyone could learn if you could share your expts (I was so impressed by the mg++ titrations you mentioned), please. :smiley:",
        "user": "UV1A22N3W",
        "ts": "1586973784.188500",
        "team": "TUU48M0T1",
        "user_team": "TUU48M0T1",
        "source_team": "TUU48M0T1",
        "user_profile": {
            "avatar_hash": "71f827776ad6",
            "image_72": "https:\/\/avatars.slack-edge.com\/2020-03-09\/988125642964_71f827776ad610af05a2_72.jpg",
            "first_name": "",
            "real_name": "RachelA",
            "display_name": "RachelA",
            "team": "TUU48M0T1",
            "name": "raronoff",
            "is_restricted": false,
            "is_ultra_restricted": false
        },
        "blocks": [
            {
                "type": "rich_text",
                "block_id": "11owl",
                "elements": [
                    {
                        "type": "rich_text_section",
                        "elements": [
                            {
                                "type": "text",
                                "text": "yes, "
                            },
                            {
                                "type": "user",
                                "user_id": "U010LNECEHE"
                            },
                            {
                                "type": "text",
                                "text": " are you saying the 2.0 + rt is not good?  did you do serial dilutions and replicates already?  I think everyone could learn if you could share your expts (I was so impressed by the mg++ titrations you mentioned), please. "
                            },
                            {
                                "type": "emoji",
                                "name": "smiley"
                            }
                        ]
                    }
                ]
            }
        ]
    },
    {
        "client_msg_id": "751d6e43-d401-4ce7-ba58-72deae936d0f",
        "type": "message",
        "text": "also, what did you think of my last points in 'research' (from just before the call.",
        "user": "UV1A22N3W",
        "ts": "1586973832.188900",
        "team": "TUU48M0T1",
        "user_team": "TUU48M0T1",
        "source_team": "TUU48M0T1",
        "user_profile": {
            "avatar_hash": "71f827776ad6",
            "image_72": "https:\/\/avatars.slack-edge.com\/2020-03-09\/988125642964_71f827776ad610af05a2_72.jpg",
            "first_name": "",
            "real_name": "RachelA",
            "display_name": "RachelA",
            "team": "TUU48M0T1",
            "name": "raronoff",
            "is_restricted": false,
            "is_ultra_restricted": false
        },
        "blocks": [
            {
                "type": "rich_text",
                "block_id": "6gUI",
                "elements": [
                    {
                        "type": "rich_text_section",
                        "elements": [
                            {
                                "type": "text",
                                "text": "also, what did you think of my last points in 'research' (from just before the call."
                            }
                        ]
                    }
                ]
            }
        ]
    },
    {
        "client_msg_id": "b67ff277-3786-4077-8d88-0a65afeaf9b1",
        "type": "message",
        "text": "?",
        "user": "UV1A22N3W",
        "ts": "1586973835.189100",
        "team": "TUU48M0T1",
        "user_team": "TUU48M0T1",
        "source_team": "TUU48M0T1",
        "user_profile": {
            "avatar_hash": "71f827776ad6",
            "image_72": "https:\/\/avatars.slack-edge.com\/2020-03-09\/988125642964_71f827776ad610af05a2_72.jpg",
            "first_name": "",
            "real_name": "RachelA",
            "display_name": "RachelA",
            "team": "TUU48M0T1",
            "name": "raronoff",
            "is_restricted": false,
            "is_ultra_restricted": false
        },
        "blocks": [
            {
                "type": "rich_text",
                "block_id": "AIo",
                "elements": [
                    {
                        "type": "rich_text_section",
                        "elements": [
                            {
                                "type": "text",
                                "text": "?"
                            }
                        ]
                    }
                ]
            }
        ]
    },
    {
        "client_msg_id": "753780f6-2aed-41e1-8ea4-ef6519991bc6",
        "type": "message",
        "text": "still might be worth a side by side test - the neb enzymes are also expensive to Switzerland... :slightly_smiling_face:",
        "user": "UV1A22N3W",
        "ts": "1586974005.189200",
        "team": "TUU48M0T1",
        "user_team": "TUU48M0T1",
        "source_team": "TUU48M0T1",
        "user_profile": {
            "avatar_hash": "71f827776ad6",
            "image_72": "https:\/\/avatars.slack-edge.com\/2020-03-09\/988125642964_71f827776ad610af05a2_72.jpg",
            "first_name": "",
            "real_name": "RachelA",
            "display_name": "RachelA",
            "team": "TUU48M0T1",
            "name": "raronoff",
            "is_restricted": false,
            "is_ultra_restricted": false
        },
        "blocks": [
            {
                "type": "rich_text",
                "block_id": "+1U",
                "elements": [
                    {
                        "type": "rich_text_section",
                        "elements": [
                            {
                                "type": "text",
                                "text": "still might be worth a side by side test - the neb enzymes are also expensive to Switzerland... "
                            },
                            {
                                "type": "emoji",
                                "name": "slightly_smiling_face"
                            }
                        ]
                    }
                ]
            }
        ],
        "thread_ts": "1586788852.149200",
        "parent_user_id": "U010DG4358Q"
    },
    {
        "client_msg_id": "4280BEA0-7B80-4878-8E93-F7CB6332D10F",
        "type": "message",
        "text": "Sorry i wasn’t clear! 3.0 on its own is less sensitive than 2.0+rt ",
        "user": "U010LNECEHE",
        "ts": "1586975256.190300",
        "team": "TUU48M0T1",
        "user_team": "TUU48M0T1",
        "source_team": "TUU48M0T1",
        "user_profile": {
            "avatar_hash": "58bda3258fcd",
            "image_72": "https:\/\/avatars.slack-edge.com\/2020-03-30\/1036110784064_58bda3258fcd726472e4_72.png",
            "first_name": "Ali",
            "real_name": "Ali Bektaş",
            "display_name": "Ali",
            "team": "TUU48M0T1",
            "name": "cinalibektas",
            "is_restricted": false,
            "is_ultra_restricted": false
        },
        "blocks": [
            {
                "type": "rich_text",
                "block_id": "9+r",
                "elements": [
                    {
                        "type": "rich_text_section",
                        "elements": [
                            {
                                "type": "text",
                                "text": "Sorry i wasn’t clear! 3.0 on its own is less sensitive than 2.0+rt "
                            }
                        ]
                    }
                ]
            }
        ],
        "thread_ts": "1586975256.190300",
        "reply_count": 2,
        "reply_users_count": 2,
        "latest_reply": "1587053501.242000",
        "reply_users": [
            "UV10KBUQG",
            "U010LNECEHE"
        ],
        "replies": [
            {
                "user": "UV10KBUQG",
                "ts": "1587045633.235600"
            },
            {
                "user": "U010LNECEHE",
                "ts": "1587053501.242000"
            }
        ],
        "subscribed": false,
        "reactions": [
            {
                "name": "heart_eyes",
                "users": [
                    "UV1A22N3W",
                    "UV10KBUQG"
                ],
                "count": 2
            }
        ]
    },
    {
        "client_msg_id": "1DD85F52-6C44-4C7D-83AB-CE5E5E980AAE",
        "type": "message",
        "text": "I’ll share data at the end of the day. I’ll be comparing 3.0+rt to 2.0+rt",
        "user": "U010LNECEHE",
        "ts": "1586975289.191300",
        "team": "TUU48M0T1",
        "user_team": "TUU48M0T1",
        "source_team": "TUU48M0T1",
        "user_profile": {
            "avatar_hash": "58bda3258fcd",
            "image_72": "https:\/\/avatars.slack-edge.com\/2020-03-30\/1036110784064_58bda3258fcd726472e4_72.png",
            "first_name": "Ali",
            "real_name": "Ali Bektaş",
            "display_name": "Ali",
            "team": "TUU48M0T1",
            "name": "cinalibektas",
            "is_restricted": false,
            "is_ultra_restricted": false
        },
        "blocks": [
            {
                "type": "rich_text",
                "block_id": "w77nF",
                "elements": [
                    {
                        "type": "rich_text_section",
                        "elements": [
                            {
                                "type": "text",
                                "text": "I’ll share data at the end of the day. I’ll be comparing 3.0+rt to 2.0+rt"
                            }
                        ]
                    }
                ]
            }
        ],
        "thread_ts": "1586975289.191300",
        "reply_count": 2,
        "reply_users_count": 2,
        "latest_reply": "1587011470.197300",
        "reply_users": [
            "U010QHBTBPY",
            "U010LNECEHE"
        ],
        "replies": [
            {
                "user": "U010QHBTBPY",
                "ts": "1586992751.196600"
            },
            {
                "user": "U010LNECEHE",
                "ts": "1587011470.197300"
            }
        ],
        "subscribed": false,
        "reactions": [
            {
                "name": "+1",
                "users": [
                    "UV1A22N3W",
                    "UV10KBUQG"
                ],
                "count": 2
            }
        ]
    },
    {
        "client_msg_id": "70462366-a851-41a1-ad32-2e3e89e24b45",
        "type": "message",
        "text": "Any idea how primer purification might affect LAMP performance? I've read that HPLC purification of at least the FIP and BIP is recommended. Not many publications seem to address if their primers are purified or not.",
        "user": "UV5CCJ9RC",
        "ts": "1586975914.193100",
        "team": "TUU48M0T1",
        "user_team": "TUU48M0T1",
        "source_team": "TUU48M0T1",
        "user_profile": {
            "avatar_hash": "2c79fe05f7e7",
            "image_72": "https:\/\/avatars.slack-edge.com\/2020-03-10\/992653932501_2c79fe05f7e75be19699_72.png",
            "first_name": "Chris",
            "real_name": "Chris Monaco",
            "display_name": "",
            "team": "TUU48M0T1",
            "name": "cmonaco.hr",
            "is_restricted": false,
            "is_ultra_restricted": false
        },
        "blocks": [
            {
                "type": "rich_text",
                "block_id": "gQ7fw",
                "elements": [
                    {
                        "type": "rich_text_section",
                        "elements": [
                            {
                                "type": "text",
                                "text": "Any idea how primer purification might affect LAMP performance? I've read that HPLC purification of at least the FIP and BIP is recommended. Not many publications seem to address if their primers are purified or not."
                            }
                        ]
                    }
                ]
            }
        ],
        "thread_ts": "1586975914.193100",
        "reply_count": 1,
        "reply_users_count": 1,
        "latest_reply": "1587023943.202900",
        "reply_users": [
            "UV7LUJG1Y"
        ],
        "replies": [
            {
                "user": "UV7LUJG1Y",
                "ts": "1587023943.202900"
            }
        ],
        "subscribed": false
    },
    {
        "client_msg_id": "2b0af230-6ef5-471a-86d6-574557fe90c1",
        "type": "message",
        "text": "<@U010LNECEHE> so glad I won't have to change my order of today!!  yes <@UV5CCJ9RC> this is also a parameter of interest - maybe <@UV7LUJG1Y> will be able to tell us more?",
        "user": "UV1A22N3W",
        "ts": "1586982829.195600",
        "team": "TUU48M0T1",
        "user_team": "TUU48M0T1",
        "source_team": "TUU48M0T1",
        "user_profile": {
            "avatar_hash": "71f827776ad6",
            "image_72": "https:\/\/avatars.slack-edge.com\/2020-03-09\/988125642964_71f827776ad610af05a2_72.jpg",
            "first_name": "",
            "real_name": "RachelA",
            "display_name": "RachelA",
            "team": "TUU48M0T1",
            "name": "raronoff",
            "is_restricted": false,
            "is_ultra_restricted": false
        },
        "blocks": [
            {
                "type": "rich_text",
                "block_id": "x2i",
                "elements": [
                    {
                        "type": "rich_text_section",
                        "elements": [
                            {
                                "type": "user",
                                "user_id": "U010LNECEHE"
                            },
                            {
                                "type": "text",
                                "text": " so glad I won't have to change my order of today!!  yes "
                            },
                            {
                                "type": "user",
                                "user_id": "UV5CCJ9RC"
                            },
                            {
                                "type": "text",
                                "text": " this is also a parameter of interest - maybe "
                            },
                            {
                                "type": "user",
                                "user_id": "UV7LUJG1Y"
                            },
                            {
                                "type": "text",
                                "text": " will be able to tell us more?"
                            }
                        ]
                    }
                ]
            }
        ]
    },
    {
        "client_msg_id": "ba06adb5-2748-46fc-a751-a115a18046fb",
        "type": "message",
        "text": "That is crazy! ~USD$15 per sample\/control!!!",
        "user": "U010QHBTBPY",
        "ts": "1586992604.196200",
        "team": "TUU48M0T1",
        "user_team": "TUU48M0T1",
        "source_team": "TUU48M0T1",
        "user_profile": {
            "avatar_hash": "g4e30c4af69a",
            "image_72": "https:\/\/secure.gravatar.com\/avatar\/4e30c4af69a6429e53cd9cce9da9f65c.jpg?s=72&d=https%3A%2F%2Fa.slack-edge.com%2Fdf10d%2Fimg%2Favatars%2Fava_0015-72.png",
            "first_name": "",
            "real_name": "osn_scott",
            "display_name": "osn_scott",
            "team": "TUU48M0T1",
            "name": "scott527",
            "is_restricted": false,
            "is_ultra_restricted": false
        },
        "blocks": [
            {
                "type": "rich_text",
                "block_id": "282f3",
                "elements": [
                    {
                        "type": "rich_text_section",
                        "elements": [
                            {
                                "type": "text",
                                "text": "That is crazy! ~USD$15 per sample\/control!!!"
                            }
                        ]
                    }
                ]
            }
        ],
        "thread_ts": "1586937699.177900",
        "parent_user_id": "UV1A22N3W"
    },
    {
        "client_msg_id": "79202a8f-8b5e-4a82-8477-10073865e5c5",
        "type": "message",
        "text": "If you look closely at the image it says 96.",
        "user": "U010QHBTBPY",
        "ts": "1586992648.196400",
        "team": "TUU48M0T1",
        "user_team": "TUU48M0T1",
        "source_team": "TUU48M0T1",
        "user_profile": {
            "avatar_hash": "g4e30c4af69a",
            "image_72": "https:\/\/secure.gravatar.com\/avatar\/4e30c4af69a6429e53cd9cce9da9f65c.jpg?s=72&d=https%3A%2F%2Fa.slack-edge.com%2Fdf10d%2Fimg%2Favatars%2Fava_0015-72.png",
            "first_name": "",
            "real_name": "osn_scott",
            "display_name": "osn_scott",
            "team": "TUU48M0T1",
            "name": "scott527",
            "is_restricted": false,
            "is_ultra_restricted": false
        },
        "blocks": [
            {
                "type": "rich_text",
                "block_id": "Simtr",
                "elements": [
                    {
                        "type": "rich_text_section",
                        "elements": [
                            {
                                "type": "text",
                                "text": "If you look closely at the image it says 96."
                            }
                        ]
                    }
                ]
            }
        ],
        "thread_ts": "1586962204.180800",
        "parent_user_id": "UV5CCJ9RC"
    },
    {
        "client_msg_id": "03c3b43f-2a24-4a1c-b8a3-d3262d87c138",
        "type": "message",
        "text": "What version of RT?",
        "user": "U010QHBTBPY",
        "ts": "1586992751.196600",
        "team": "TUU48M0T1",
        "user_team": "TUU48M0T1",
        "source_team": "TUU48M0T1",
        "user_profile": {
            "avatar_hash": "g4e30c4af69a",
            "image_72": "https:\/\/secure.gravatar.com\/avatar\/4e30c4af69a6429e53cd9cce9da9f65c.jpg?s=72&d=https%3A%2F%2Fa.slack-edge.com%2Fdf10d%2Fimg%2Favatars%2Fava_0015-72.png",
            "first_name": "",
            "real_name": "osn_scott",
            "display_name": "osn_scott",
            "team": "TUU48M0T1",
            "name": "scott527",
            "is_restricted": false,
            "is_ultra_restricted": false
        },
        "blocks": [
            {
                "type": "rich_text",
                "block_id": "HiYr",
                "elements": [
                    {
                        "type": "rich_text_section",
                        "elements": [
                            {
                                "type": "text",
                                "text": "What version of RT?"
                            }
                        ]
                    }
                ]
            }
        ],
        "thread_ts": "1586975289.191300",
        "parent_user_id": "U010LNECEHE"
    },
    {
        "client_msg_id": "07226E19-791E-4E74-881E-D96F82443DB4",
        "type": "message",
        "text": "WarmStart from NEB",
        "user": "U010LNECEHE",
        "ts": "1587011470.197300",
        "team": "TUU48M0T1",
        "user_team": "TUU48M0T1",
        "source_team": "TUU48M0T1",
        "user_profile": {
            "avatar_hash": "58bda3258fcd",
            "image_72": "https:\/\/avatars.slack-edge.com\/2020-03-30\/1036110784064_58bda3258fcd726472e4_72.png",
            "first_name": "Ali",
            "real_name": "Ali Bektaş",
            "display_name": "Ali",
            "team": "TUU48M0T1",
            "name": "cinalibektas",
            "is_restricted": false,
            "is_ultra_restricted": false
        },
        "blocks": [
            {
                "type": "rich_text",
                "block_id": "3+S6z",
                "elements": [
                    {
                        "type": "rich_text_section",
                        "elements": [
                            {
                                "type": "text",
                                "text": "WarmStart from NEB"
                            }
                        ]
                    }
                ]
            }
        ],
        "thread_ts": "1586975289.191300",
        "parent_user_id": "U010LNECEHE"
    }
]