[
    {
        "client_msg_id": "d41665cb-123d-4967-a5f1-5127fbd9d7cd",
        "type": "message",
        "text": "that is really great news!  I think with the sensitivity of the method, it is really necessary, too... super!",
        "user": "UV1A22N3W",
        "ts": "1589015989.438900",
        "team": "TUU48M0T1",
        "user_team": "TUU48M0T1",
        "source_team": "TUU48M0T1",
        "user_profile": {
            "avatar_hash": "71f827776ad6",
            "image_72": "https:\/\/avatars.slack-edge.com\/2020-03-09\/988125642964_71f827776ad610af05a2_72.jpg",
            "first_name": "",
            "real_name": "RachelA",
            "display_name": "RachelA",
            "team": "TUU48M0T1",
            "name": "raronoff",
            "is_restricted": false,
            "is_ultra_restricted": false
        },
        "blocks": [
            {
                "type": "rich_text",
                "block_id": "50ga",
                "elements": [
                    {
                        "type": "rich_text_section",
                        "elements": [
                            {
                                "type": "text",
                                "text": "that is really great news!  I think with the sensitivity of the method, it is really necessary, too... super!"
                            }
                        ]
                    }
                ]
            }
        ],
        "thread_ts": "1588870999.430500",
        "parent_user_id": "U010LNECEHE"
    },
    {
        "client_msg_id": "7F3CAB51-ADD9-4A2D-9918-20E8FBB6FC96",
        "type": "message",
        "text": "Nice! I was thinking about screening for silica and chitin tags. ",
        "user": "U011CLVJMQX",
        "ts": "1589024918.440800",
        "team": "TUU48M0T1",
        "user_team": "TUU48M0T1",
        "source_team": "TUU48M0T1",
        "user_profile": {
            "avatar_hash": "g4aba3616047",
            "image_72": "https:\/\/secure.gravatar.com\/avatar\/4aba3616047410f5bf6118588d544768.jpg?s=72&d=https%3A%2F%2Fa.slack-edge.com%2Fdf10d%2Fimg%2Favatars%2Fava_0022-72.png",
            "first_name": "",
            "real_name": "Kathrin Hadasch",
            "display_name": "Kathrin Hadasch",
            "team": "TUU48M0T1",
            "name": "khada",
            "is_restricted": false,
            "is_ultra_restricted": false
        },
        "blocks": [
            {
                "type": "rich_text",
                "block_id": "Kvg",
                "elements": [
                    {
                        "type": "rich_text_section",
                        "elements": [
                            {
                                "type": "text",
                                "text": "Nice! I was thinking about screening for silica and chitin tags. "
                            }
                        ]
                    }
                ]
            }
        ],
        "thread_ts": "1588619939.404200",
        "parent_user_id": "UUPQGNNTV"
    },
    {
        "client_msg_id": "a5551126-9475-4bcd-8315-cb4da04479d5",
        "type": "message",
        "text": "Thanks for the fun read Chris.  Another paper claiming single copy detection!",
        "user": "UUWSJTQ67",
        "ts": "1589042064.441500",
        "team": "TUU48M0T1",
        "user_team": "TUU48M0T1",
        "source_team": "TUU48M0T1",
        "user_profile": {
            "avatar_hash": "gde149e5dcc8",
            "image_72": "https:\/\/secure.gravatar.com\/avatar\/de149e5dcc80dc75132c77f4b3981257.jpg?s=72&d=https%3A%2F%2Fa.slack-edge.com%2Fdf10d%2Fimg%2Favatars%2Fava_0019-72.png",
            "first_name": "",
            "real_name": "Michael Valipour",
            "display_name": "Michael Valipour",
            "team": "TUU48M0T1",
            "name": "michael.valipour",
            "is_restricted": false,
            "is_ultra_restricted": false
        },
        "blocks": [
            {
                "type": "rich_text",
                "block_id": "E0xC",
                "elements": [
                    {
                        "type": "rich_text_section",
                        "elements": [
                            {
                                "type": "text",
                                "text": "Thanks for the fun read Chris.  Another paper claiming single copy detection!"
                            }
                        ]
                    }
                ]
            }
        ],
        "thread_ts": "1588869370.429600",
        "parent_user_id": "UV5CCJ9RC"
    },
    {
        "client_msg_id": "F5CCBCD5-5B79-44D2-8BD5-850162667D0D",
        "type": "message",
        "text": "Haha their also pretty cagey about how they design everything. ",
        "user": "UV5CCJ9RC",
        "ts": "1589042504.442200",
        "team": "TUU48M0T1",
        "user_team": "TUU48M0T1",
        "source_team": "TUU48M0T1",
        "user_profile": {
            "avatar_hash": "2c79fe05f7e7",
            "image_72": "https:\/\/avatars.slack-edge.com\/2020-03-10\/992653932501_2c79fe05f7e75be19699_72.png",
            "first_name": "Chris",
            "real_name": "Chris Monaco",
            "display_name": "",
            "team": "TUU48M0T1",
            "name": "cmonaco.hr",
            "is_restricted": false,
            "is_ultra_restricted": false
        },
        "blocks": [
            {
                "type": "rich_text",
                "block_id": "XCA6A",
                "elements": [
                    {
                        "type": "rich_text_section",
                        "elements": [
                            {
                                "type": "text",
                                "text": "Haha their also pretty cagey about how they design everything. "
                            }
                        ]
                    }
                ]
            }
        ],
        "thread_ts": "1588869370.429600",
        "parent_user_id": "UV5CCJ9RC"
    },
    {
        "client_msg_id": "6cf5ec8e-5780-4526-a9c0-516a98c8904f",
        "type": "message",
        "text": "Well, we added 3 volumes of DNA\/RNA shield to saliva spiked with the virus, added 4 ul of the modified lysis buffer (proteinase K + water) to 1 ul sample, 15 minutes at RT or 37 degrees, 5 minutes at 95.  Samples immediately turned yellow so this doesn't work for the colorimetric LAMP.",
        "user": "UV10KBUQG",
        "ts": "1589057752.442400",
        "team": "TUU48M0T1",
        "user_team": "TUU48M0T1",
        "source_team": "TUU48M0T1",
        "user_profile": {
            "avatar_hash": "2deebbf6be3d",
            "image_72": "https:\/\/avatars.slack-edge.com\/2020-03-06\/976932190641_2deebbf6be3d17141d91_72.jpg",
            "first_name": "Sarah",
            "real_name": "Sarah Blossom Ware",
            "display_name": "Sarah Blossom Ware - BioBlaze Community Bio Lab",
            "team": "TUU48M0T1",
            "name": "ware.sarah",
            "is_restricted": false,
            "is_ultra_restricted": false
        },
        "blocks": [
            {
                "type": "rich_text",
                "block_id": "4pY",
                "elements": [
                    {
                        "type": "rich_text_section",
                        "elements": [
                            {
                                "type": "text",
                                "text": "Well, we added 3 volumes of DNA\/RNA shield to saliva spiked with the virus, added 4 ul of the modified lysis buffer (proteinase K + water) to 1 ul sample, 15 minutes at RT or 37 degrees, 5 minutes at 95.  Samples immediately turned yellow so this doesn't work for the colorimetric LAMP."
                            }
                        ]
                    }
                ]
            }
        ],
        "thread_ts": "1588610030.384700",
        "parent_user_id": "U010LNECEHE"
    },
    {
        "client_msg_id": "3CB12964-F5B1-4A03-BC27-B044164407C5",
        "type": "message",
        "text": "Ugh sorry that happened.\nYeah this is a problem using the whole pH indicator method.\nWe’ve been using colorimetric for first pass screening of primers before switching to QUASR ",
        "user": "U010LNECEHE",
        "ts": "1589059699.444500",
        "team": "TUU48M0T1",
        "user_team": "TUU48M0T1",
        "source_team": "TUU48M0T1",
        "user_profile": {
            "avatar_hash": "58bda3258fcd",
            "image_72": "https:\/\/avatars.slack-edge.com\/2020-03-30\/1036110784064_58bda3258fcd726472e4_72.png",
            "first_name": "Ali",
            "real_name": "Ali Bektaş",
            "display_name": "Ali",
            "team": "TUU48M0T1",
            "name": "cinalibektas",
            "is_restricted": false,
            "is_ultra_restricted": false
        },
        "blocks": [
            {
                "type": "rich_text",
                "block_id": "yiD6r",
                "elements": [
                    {
                        "type": "rich_text_section",
                        "elements": [
                            {
                                "type": "text",
                                "text": "Ugh sorry that happened.\nYeah this is a problem using the whole pH indicator method.\n"
                            },
                            {
                                "type": "text",
                                "text": "We’ve been using colorimetric for first pass screening of primers before switching to QUASR "
                            }
                        ]
                    }
                ]
            }
        ],
        "thread_ts": "1588610030.384700",
        "parent_user_id": "U010LNECEHE"
    },
    {
        "type": "message",
        "subtype": "thread_broadcast",
        "text": "The RNA shield was just to be able to transport the viruses from a bsl3 lab to a bsl2 lab. ProteinaseK in water alone should just work fine. ",
        "user": "U010WPEJMFU",
        "ts": "1589059835.445400",
        "thread_ts": "1588610030.384700",
        "root": {
            "client_msg_id": "5b2f1f98-bf5a-487e-8a6d-8a6d1ff700c2",
            "type": "message",
            "text": "here’s the Proteinase K treatment from <@U010WPEJMFU>\nLysis Buffer: 1ul of Proteinase K (20mg\/mL, &gt;600mAU\/m, qiagen) +4ul water+ 1-2ul virus",
            "user": "U010LNECEHE",
            "ts": "1588610030.384700",
            "team": "TUU48M0T1",
            "blocks": [
                {
                    "type": "rich_text",
                    "block_id": "MP6n",
                    "elements": [
                        {
                            "type": "rich_text_section",
                            "elements": [
                                {
                                    "type": "text",
                                    "text": "here’s the Proteinase K treatment from "
                                },
                                {
                                    "type": "user",
                                    "user_id": "U010WPEJMFU"
                                },
                                {
                                    "type": "text",
                                    "text": "\nLysis Buffer: 1ul of Proteinase K (20mg\/mL, >600mAU\/m, qiagen) +4ul water+ 1-2ul virus"
                                }
                            ]
                        }
                    ]
                }
            ],
            "thread_ts": "1588610030.384700",
            "reply_count": 26,
            "reply_users_count": 4,
            "latest_reply": "1589104413.447100",
            "reply_users": [
                "UV1A22N3W",
                "U010LNECEHE",
                "UV10KBUQG",
                "U010WPEJMFU"
            ],
            "subscribed": false
        },
        "blocks": [
            {
                "type": "rich_text",
                "block_id": "C3WHl",
                "elements": [
                    {
                        "type": "rich_text_section",
                        "elements": [
                            {
                                "type": "text",
                                "text": "The RNA shield was just to be able to transport the viruses from a bsl3 lab to a bsl2 lab. ProteinaseK in water alone should just work fine. "
                            }
                        ]
                    }
                ]
            }
        ],
        "client_msg_id": "D2C5D168-1975-4CB0-91DE-04359A4F04E3",
        "reactions": [
            {
                "name": "+1",
                "users": [
                    "UV1A22N3W"
                ],
                "count": 1
            }
        ]
    },
    {
        "client_msg_id": "c077ff38-0578-4ba8-8f93-4f78304907c0",
        "type": "message",
        "text": "Ok, thanks.  We will need to do a purification step to use the colorimetric test.",
        "user": "UV10KBUQG",
        "ts": "1589060148.445700",
        "team": "TUU48M0T1",
        "user_team": "TUU48M0T1",
        "source_team": "TUU48M0T1",
        "user_profile": {
            "avatar_hash": "2deebbf6be3d",
            "image_72": "https:\/\/avatars.slack-edge.com\/2020-03-06\/976932190641_2deebbf6be3d17141d91_72.jpg",
            "first_name": "Sarah",
            "real_name": "Sarah Blossom Ware",
            "display_name": "Sarah Blossom Ware - BioBlaze Community Bio Lab",
            "team": "TUU48M0T1",
            "name": "ware.sarah",
            "is_restricted": false,
            "is_ultra_restricted": false
        },
        "blocks": [
            {
                "type": "rich_text",
                "block_id": "B9\/",
                "elements": [
                    {
                        "type": "rich_text_section",
                        "elements": [
                            {
                                "type": "text",
                                "text": "Ok, thanks.  We will need to do a purification step to use the colorimetric test."
                            }
                        ]
                    }
                ]
            }
        ],
        "thread_ts": "1588610030.384700",
        "parent_user_id": "U010LNECEHE"
    }
]