[
    {
        "type": "message",
        "subtype": "channel_join",
        "ts": "1586133520.042700",
        "user": "U010YT4BM34",
        "text": "<@U010YT4BM34> has joined the channel",
        "inviter": "U01136GDY5V"
    },
    {
        "type": "message",
        "subtype": "channel_join",
        "ts": "1586133520.042900",
        "user": "U0110449PRR",
        "text": "<@U0110449PRR> has joined the channel",
        "inviter": "U01136GDY5V"
    }
]