[
    {
        "client_msg_id": "daf04165-7d4f-4d59-bbb0-925ce84aaea5",
        "type": "message",
        "text": "On second thought, finding a positive envtally just means more cleaning should be done (bleach etc) - do you agree?",
        "user": "UV1A22N3W",
        "ts": "1588333228.330200",
        "team": "TUU48M0T1",
        "user_team": "TUU48M0T1",
        "source_team": "TUU48M0T1",
        "user_profile": {
            "avatar_hash": "71f827776ad6",
            "image_72": "https:\/\/avatars.slack-edge.com\/2020-03-09\/988125642964_71f827776ad610af05a2_72.jpg",
            "first_name": "",
            "real_name": "RachelA",
            "display_name": "RachelA",
            "team": "TUU48M0T1",
            "name": "raronoff",
            "is_restricted": false,
            "is_ultra_restricted": false
        },
        "blocks": [
            {
                "type": "rich_text",
                "block_id": "Z+cR",
                "elements": [
                    {
                        "type": "rich_text_section",
                        "elements": [
                            {
                                "type": "text",
                                "text": "On second thought, finding a positive envtally just means more cleaning should be done (bleach etc) - do you agree?"
                            }
                        ]
                    }
                ]
            }
        ]
    },
    {
        "client_msg_id": "9b5d90ed-4e2f-4cba-a717-e3ede6be7891",
        "type": "message",
        "text": "About to try again with the old school Bst vs the Bst2.0!",
        "user": "UV1A22N3W",
        "ts": "1588333253.330600",
        "team": "TUU48M0T1",
        "user_team": "TUU48M0T1",
        "source_team": "TUU48M0T1",
        "user_profile": {
            "avatar_hash": "71f827776ad6",
            "image_72": "https:\/\/avatars.slack-edge.com\/2020-03-09\/988125642964_71f827776ad610af05a2_72.jpg",
            "first_name": "",
            "real_name": "RachelA",
            "display_name": "RachelA",
            "team": "TUU48M0T1",
            "name": "raronoff",
            "is_restricted": false,
            "is_ultra_restricted": false
        },
        "blocks": [
            {
                "type": "rich_text",
                "block_id": "7HgS",
                "elements": [
                    {
                        "type": "rich_text_section",
                        "elements": [
                            {
                                "type": "text",
                                "text": "About to try again with the old school Bst vs the Bst2.0!"
                            }
                        ]
                    }
                ]
            }
        ]
    },
    {
        "client_msg_id": "1ee9575c-4798-490d-8a18-4ac72ba2ea8f",
        "type": "message",
        "text": "Also wondering about the budget info in the drive. Permissions are changed again for some folders...",
        "user": "UV1A22N3W",
        "ts": "1588333287.331300",
        "team": "TUU48M0T1",
        "user_team": "TUU48M0T1",
        "source_team": "TUU48M0T1",
        "user_profile": {
            "avatar_hash": "71f827776ad6",
            "image_72": "https:\/\/avatars.slack-edge.com\/2020-03-09\/988125642964_71f827776ad610af05a2_72.jpg",
            "first_name": "",
            "real_name": "RachelA",
            "display_name": "RachelA",
            "team": "TUU48M0T1",
            "name": "raronoff",
            "is_restricted": false,
            "is_ultra_restricted": false
        },
        "blocks": [
            {
                "type": "rich_text",
                "block_id": "Wl\/2",
                "elements": [
                    {
                        "type": "rich_text_section",
                        "elements": [
                            {
                                "type": "text",
                                "text": "Also wondering about the budget info in the drive. Permissions are changed again for some folders..."
                            }
                        ]
                    }
                ]
            }
        ]
    },
    {
        "client_msg_id": "6ffe6f8c-dd66-4dac-a8fb-1c06ff02b135",
        "type": "message",
        "text": "Hackuarium has already spent: \t1456chf\t(enzymes and reagents from BioConcept, our NEB distributor, but I got a bunch of freebies too)\n\t253 euros (primers from Eurofins)\n\t110chf\t(N control from IDT)\nStill have the BIG QUESTION about the cost of calibration plates for the ABI Prism7000 (aka the big beast)\n-will likely need more funds for labelled primers and strip tubes, etc, but luckily got ok from Hackuarium board for 500chf minigrant too.  :wink:   Happy May Day!",
        "user": "UV1A22N3W",
        "ts": "1588333416.333400",
        "team": "TUU48M0T1",
        "user_team": "TUU48M0T1",
        "source_team": "TUU48M0T1",
        "user_profile": {
            "avatar_hash": "71f827776ad6",
            "image_72": "https:\/\/avatars.slack-edge.com\/2020-03-09\/988125642964_71f827776ad610af05a2_72.jpg",
            "first_name": "",
            "real_name": "RachelA",
            "display_name": "RachelA",
            "team": "TUU48M0T1",
            "name": "raronoff",
            "is_restricted": false,
            "is_ultra_restricted": false
        },
        "blocks": [
            {
                "type": "rich_text",
                "block_id": "kW4",
                "elements": [
                    {
                        "type": "rich_text_section",
                        "elements": [
                            {
                                "type": "text",
                                "text": "Hackuarium has already spent: \t1456chf\t(enzymes and reagents from BioConcept, our NEB distributor, but I got a bunch of freebies too)\n\t253 euros (primers from Eurofins)\n\t110chf\t(N control from IDT)\nStill have the BIG QUESTION about the cost of calibration plates for the ABI Prism7000 (aka the big beast)\n-will likely need more funds for labelled primers and strip tubes, etc, but luckily got ok from Hackuarium board for 500chf minigrant too.  "
                            },
                            {
                                "type": "emoji",
                                "name": "wink"
                            },
                            {
                                "type": "text",
                                "text": "   Happy May Day!"
                            }
                        ]
                    }
                ]
            }
        ]
    },
    {
        "client_msg_id": "daa1afd4-d4fb-4b48-adb7-7069f59ab4f3",
        "type": "message",
        "text": "These 3 companies have the waiver in Illinois, but each state will have a different list.",
        "user": "UV10KBUQG",
        "ts": "1588337038.333600",
        "team": "TUU48M0T1",
        "user_team": "TUU48M0T1",
        "source_team": "TUU48M0T1",
        "user_profile": {
            "avatar_hash": "2deebbf6be3d",
            "image_72": "https:\/\/avatars.slack-edge.com\/2020-03-06\/976932190641_2deebbf6be3d17141d91_72.jpg",
            "first_name": "Sarah",
            "real_name": "Sarah Blossom Ware",
            "display_name": "Sarah Blossom Ware - BioBlaze Community Bio Lab",
            "team": "TUU48M0T1",
            "name": "ware.sarah",
            "is_restricted": false,
            "is_ultra_restricted": false
        },
        "blocks": [
            {
                "type": "rich_text",
                "block_id": "7Yxqz",
                "elements": [
                    {
                        "type": "rich_text_section",
                        "elements": [
                            {
                                "type": "text",
                                "text": "These 3 companies have the waiver in Illinois, but each state will have a different list."
                            }
                        ]
                    }
                ]
            }
        ],
        "thread_ts": "1588283363.312200",
        "parent_user_id": "UV10KBUQG"
    },
    {
        "client_msg_id": "c690f23a-4616-4d46-9e32-0ef7720edeb8",
        "type": "message",
        "text": "Hackuarium has to be EMEA registered to get an offer for the calibration kit for the beast!  :slightly_smiling_face:",
        "user": "UV1A22N3W",
        "ts": "1588352403.334400",
        "team": "TUU48M0T1",
        "user_team": "TUU48M0T1",
        "source_team": "TUU48M0T1",
        "user_profile": {
            "avatar_hash": "71f827776ad6",
            "image_72": "https:\/\/avatars.slack-edge.com\/2020-03-09\/988125642964_71f827776ad610af05a2_72.jpg",
            "first_name": "",
            "real_name": "RachelA",
            "display_name": "RachelA",
            "team": "TUU48M0T1",
            "name": "raronoff",
            "is_restricted": false,
            "is_ultra_restricted": false
        },
        "edited": {
            "user": "UV1A22N3W",
            "ts": "1588356278.000000"
        },
        "blocks": [
            {
                "type": "rich_text",
                "block_id": "J2zW",
                "elements": [
                    {
                        "type": "rich_text_section",
                        "elements": [
                            {
                                "type": "text",
                                "text": "Hackuarium has to be EMEA registered to get an offer for the calibration kit for the beast!  "
                            },
                            {
                                "type": "emoji",
                                "name": "slightly_smiling_face"
                            }
                        ]
                    }
                ]
            }
        ]
    },
    {
        "client_msg_id": "76204f62-27c5-46ad-8e09-9de3731774cc",
        "type": "message",
        "text": "might be useful. Wonder what people think:",
        "user": "U012RP2DPB7",
        "ts": "1588365083.337600",
        "team": "TUU48M0T1",
        "user_team": "TUU48M0T1",
        "source_team": "TUU48M0T1",
        "user_profile": {
            "avatar_hash": "g314a5cc30ec",
            "image_72": "https:\/\/secure.gravatar.com\/avatar\/314a5cc30ecc8157e7b4a1099750f0bc.jpg?s=72&d=https%3A%2F%2Fa.slack-edge.com%2Fdf10d%2Fimg%2Favatars%2Fava_0009-72.png",
            "first_name": "",
            "real_name": "Evgueni Ivakine",
            "display_name": "Evgueni Ivakine",
            "team": "TUU48M0T1",
            "name": "zhenya.ivakine",
            "is_restricted": false,
            "is_ultra_restricted": false
        },
        "blocks": [
            {
                "type": "rich_text",
                "block_id": "juTls",
                "elements": [
                    {
                        "type": "rich_text_section",
                        "elements": [
                            {
                                "type": "text",
                                "text": "might be useful. Wonder what people think:"
                            }
                        ]
                    }
                ]
            }
        ],
        "thread_ts": "1588365083.337600",
        "reply_count": 7,
        "reply_users_count": 3,
        "latest_reply": "1588605928.383100",
        "reply_users": [
            "UV1A22N3W",
            "UV7LUJG1Y",
            "U010LNECEHE"
        ],
        "replies": [
            {
                "user": "UV1A22N3W",
                "ts": "1588426437.345900"
            },
            {
                "user": "UV1A22N3W",
                "ts": "1588426586.346100"
            },
            {
                "user": "UV7LUJG1Y",
                "ts": "1588428656.350200"
            },
            {
                "user": "UV7LUJG1Y",
                "ts": "1588428748.353000"
            },
            {
                "user": "UV1A22N3W",
                "ts": "1588429743.354200"
            },
            {
                "user": "U010LNECEHE",
                "ts": "1588603478.382500"
            },
            {
                "user": "UV1A22N3W",
                "ts": "1588605928.383100"
            }
        ],
        "subscribed": false,
        "reactions": [
            {
                "name": "heavy_check_mark",
                "users": [
                    "UV10KBUQG",
                    "UV7LUJG1Y"
                ],
                "count": 2
            },
            {
                "name": "heart_eyes",
                "users": [
                    "UV1A22N3W"
                ],
                "count": 1
            }
        ]
    },
    {
        "client_msg_id": "149abfef-3b70-46b7-9d7e-d6d0c4c1cd28",
        "type": "message",
        "text": "<https:\/\/www.medrxiv.org\/content\/10.1101\/2020.04.23.20076877v1.full.pdf>",
        "user": "U012RP2DPB7",
        "ts": "1588365089.337800",
        "team": "TUU48M0T1",
        "user_team": "TUU48M0T1",
        "source_team": "TUU48M0T1",
        "user_profile": {
            "avatar_hash": "g314a5cc30ec",
            "image_72": "https:\/\/secure.gravatar.com\/avatar\/314a5cc30ecc8157e7b4a1099750f0bc.jpg?s=72&d=https%3A%2F%2Fa.slack-edge.com%2Fdf10d%2Fimg%2Favatars%2Fava_0009-72.png",
            "first_name": "",
            "real_name": "Evgueni Ivakine",
            "display_name": "Evgueni Ivakine",
            "team": "TUU48M0T1",
            "name": "zhenya.ivakine",
            "is_restricted": false,
            "is_ultra_restricted": false
        },
        "blocks": [
            {
                "type": "rich_text",
                "block_id": "zwy5",
                "elements": [
                    {
                        "type": "rich_text_section",
                        "elements": [
                            {
                                "type": "link",
                                "url": "https:\/\/www.medrxiv.org\/content\/10.1101\/2020.04.23.20076877v1.full.pdf"
                            }
                        ]
                    }
                ]
            }
        ]
    },
    {
        "type": "message",
        "text": "Sent in registration paperwork for BEI Resources yesterday and already got approval today.  Thinking of ordering this (all of these are listed as safe with BSL1):",
        "files": [
            {
                "id": "F013AEUK94H",
                "created": 1588383858,
                "timestamp": 1588383858,
                "name": "image.png",
                "title": "image.png",
                "mimetype": "image\/png",
                "filetype": "png",
                "pretty_type": "PNG",
                "user": "UV10KBUQG",
                "editable": false,
                "size": 206688,
                "mode": "hosted",
                "is_external": false,
                "external_type": "",
                "is_public": true,
                "public_url_shared": false,
                "display_as_bot": false,
                "username": "",
                "url_private": "https:\/\/files.slack.com\/files-pri\/TUU48M0T1-F013AEUK94H\/image.png?t=xoxe-980144714919-1133254701825-1120841107731-daf595b5a7d6c9028b0b02a925032e36",
                "url_private_download": "https:\/\/files.slack.com\/files-pri\/TUU48M0T1-F013AEUK94H\/download\/image.png?t=xoxe-980144714919-1133254701825-1120841107731-daf595b5a7d6c9028b0b02a925032e36",
                "thumb_64": "https:\/\/files.slack.com\/files-tmb\/TUU48M0T1-F013AEUK94H-4ad433fa86\/image_64.png?t=xoxe-980144714919-1133254701825-1120841107731-daf595b5a7d6c9028b0b02a925032e36",
                "thumb_80": "https:\/\/files.slack.com\/files-tmb\/TUU48M0T1-F013AEUK94H-4ad433fa86\/image_80.png?t=xoxe-980144714919-1133254701825-1120841107731-daf595b5a7d6c9028b0b02a925032e36",
                "thumb_360": "https:\/\/files.slack.com\/files-tmb\/TUU48M0T1-F013AEUK94H-4ad433fa86\/image_360.png?t=xoxe-980144714919-1133254701825-1120841107731-daf595b5a7d6c9028b0b02a925032e36",
                "thumb_360_w": 360,
                "thumb_360_h": 104,
                "thumb_480": "https:\/\/files.slack.com\/files-tmb\/TUU48M0T1-F013AEUK94H-4ad433fa86\/image_480.png?t=xoxe-980144714919-1133254701825-1120841107731-daf595b5a7d6c9028b0b02a925032e36",
                "thumb_480_w": 480,
                "thumb_480_h": 139,
                "thumb_160": "https:\/\/files.slack.com\/files-tmb\/TUU48M0T1-F013AEUK94H-4ad433fa86\/image_160.png?t=xoxe-980144714919-1133254701825-1120841107731-daf595b5a7d6c9028b0b02a925032e36",
                "thumb_720": "https:\/\/files.slack.com\/files-tmb\/TUU48M0T1-F013AEUK94H-4ad433fa86\/image_720.png?t=xoxe-980144714919-1133254701825-1120841107731-daf595b5a7d6c9028b0b02a925032e36",
                "thumb_720_w": 720,
                "thumb_720_h": 209,
                "thumb_800": "https:\/\/files.slack.com\/files-tmb\/TUU48M0T1-F013AEUK94H-4ad433fa86\/image_800.png?t=xoxe-980144714919-1133254701825-1120841107731-daf595b5a7d6c9028b0b02a925032e36",
                "thumb_800_w": 800,
                "thumb_800_h": 232,
                "thumb_960": "https:\/\/files.slack.com\/files-tmb\/TUU48M0T1-F013AEUK94H-4ad433fa86\/image_960.png?t=xoxe-980144714919-1133254701825-1120841107731-daf595b5a7d6c9028b0b02a925032e36",
                "thumb_960_w": 960,
                "thumb_960_h": 279,
                "thumb_1024": "https:\/\/files.slack.com\/files-tmb\/TUU48M0T1-F013AEUK94H-4ad433fa86\/image_1024.png?t=xoxe-980144714919-1133254701825-1120841107731-daf595b5a7d6c9028b0b02a925032e36",
                "thumb_1024_w": 1024,
                "thumb_1024_h": 297,
                "original_w": 1120,
                "original_h": 325,
                "thumb_tiny": "AwANADDQUk0hJDHmlXrTtooAbk+tGT607aKNooAbgUoApcCg8UAf\/9k=",
                "permalink": "https:\/\/open-covid19.slack.com\/files\/UV10KBUQG\/F013AEUK94H\/image.png",
                "permalink_public": "https:\/\/slack-files.com\/TUU48M0T1-F013AEUK94H-6690a7e41d",
                "is_starred": false,
                "has_rich_preview": false
            }
        ],
        "upload": true,
        "blocks": [
            {
                "type": "rich_text",
                "block_id": "C0c",
                "elements": [
                    {
                        "type": "rich_text_section",
                        "elements": [
                            {
                                "type": "text",
                                "text": "Sent in registration paperwork for BEI Resources yesterday and already got approval today.  Thinking of ordering this (all of these are listed as safe with BSL1):"
                            }
                        ]
                    }
                ]
            }
        ],
        "user": "UV10KBUQG",
        "display_as_bot": false,
        "ts": "1588383861.338800",
        "edited": {
            "user": "UV10KBUQG",
            "ts": "1588384063.000000"
        },
        "client_msg_id": "73b95a83-78c1-4e17-8044-5a49bff8aeb6",
        "thread_ts": "1588383861.338800",
        "reply_count": 33,
        "reply_users_count": 4,
        "latest_reply": "1588438342.363400",
        "reply_users": [
            "UV7LUJG1Y",
            "UV1A22N3W",
            "UV3URUKK5",
            "UV10KBUQG"
        ],
        "replies": [
            {
                "user": "UV7LUJG1Y",
                "ts": "1588415506.342200"
            },
            {
                "user": "UV7LUJG1Y",
                "ts": "1588415531.342400"
            },
            {
                "user": "UV7LUJG1Y",
                "ts": "1588415690.342800"
            },
            {
                "user": "UV1A22N3W",
                "ts": "1588421839.343500"
            },
            {
                "user": "UV3URUKK5",
                "ts": "1588427008.347700"
            },
            {
                "user": "UV10KBUQG",
                "ts": "1588427653.347900"
            },
            {
                "user": "UV3URUKK5",
                "ts": "1588427736.348200"
            },
            {
                "user": "UV7LUJG1Y",
                "ts": "1588428505.348500"
            },
            {
                "user": "UV10KBUQG",
                "ts": "1588428702.351600"
            },
            {
                "user": "UV7LUJG1Y",
                "ts": "1588428991.353700"
            },
            {
                "user": "UV10KBUQG",
                "ts": "1588429189.353900"
            },
            {
                "user": "UV3URUKK5",
                "ts": "1588432723.356800"
            },
            {
                "user": "UV7LUJG1Y",
                "ts": "1588433530.357200"
            },
            {
                "user": "UV3URUKK5",
                "ts": "1588433592.357500"
            },
            {
                "user": "UV3URUKK5",
                "ts": "1588433614.357700"
            },
            {
                "user": "UV7LUJG1Y",
                "ts": "1588433839.358200"
            },
            {
                "user": "UV3URUKK5",
                "ts": "1588433921.358400"
            },
            {
                "user": "UV7LUJG1Y",
                "ts": "1588434043.358600"
            },
            {
                "user": "UV10KBUQG",
                "ts": "1588436517.358800"
            },
            {
                "user": "UV7LUJG1Y",
                "ts": "1588436714.359100"
            },
            {
                "user": "UV10KBUQG",
                "ts": "1588436714.359300"
            },
            {
                "user": "UV7LUJG1Y",
                "ts": "1588436753.359600"
            },
            {
                "user": "UV10KBUQG",
                "ts": "1588436784.359900"
            },
            {
                "user": "UV7LUJG1Y",
                "ts": "1588436800.360100"
            },
            {
                "user": "UV7LUJG1Y",
                "ts": "1588436924.360300"
            },
            {
                "user": "UV10KBUQG",
                "ts": "1588436976.360800"
            },
            {
                "user": "UV10KBUQG",
                "ts": "1588437108.361000"
            },
            {
                "user": "UV7LUJG1Y",
                "ts": "1588437640.361400"
            },
            {
                "user": "UV10KBUQG",
                "ts": "1588437802.361600"
            },
            {
                "user": "UV10KBUQG",
                "ts": "1588437897.361800"
            },
            {
                "user": "UV7LUJG1Y",
                "ts": "1588438054.362100"
            },
            {
                "user": "UV7LUJG1Y",
                "ts": "1588438102.362300"
            },
            {
                "user": "UV10KBUQG",
                "ts": "1588438342.363400"
            }
        ],
        "subscribed": false,
        "reactions": [
            {
                "name": "+1",
                "users": [
                    "U010W2Z4MMZ",
                    "U012JRY6Q4A"
                ],
                "count": 2
            }
        ]
    },
    {
        "client_msg_id": "DE54263C-3A7E-4E3F-8C12-64DE30C67388",
        "type": "message",
        "text": "I guess the quantitative synth RNA is most useful for our expts. what would you want with spike protein from baculoviruses or mAb made in tobacco - though v. interesting for other work!!",
        "user": "UV1A22N3W",
        "ts": "1588400022.342100",
        "team": "TUU48M0T1",
        "user_team": "TUU48M0T1",
        "source_team": "TUU48M0T1",
        "user_profile": {
            "avatar_hash": "71f827776ad6",
            "image_72": "https:\/\/avatars.slack-edge.com\/2020-03-09\/988125642964_71f827776ad610af05a2_72.jpg",
            "first_name": "",
            "real_name": "RachelA",
            "display_name": "RachelA",
            "team": "TUU48M0T1",
            "name": "raronoff",
            "is_restricted": false,
            "is_ultra_restricted": false
        },
        "blocks": [
            {
                "type": "rich_text",
                "block_id": "0QM8O",
                "elements": [
                    {
                        "type": "rich_text_section",
                        "elements": [
                            {
                                "type": "text",
                                "text": "I guess the quantitative synth RNA is most useful for our expts. what would you want with spike protein from baculoviruses or mAb made in tobacco - though v. interesting for other work!!"
                            }
                        ]
                    }
                ]
            }
        ]
    }
]