[
    {
        "client_msg_id": "2ab68297-4af4-40f1-aee1-501f17f6e60b",
        "type": "message",
        "text": "sounds like you can try saliva + virus and PK (forget the RNA shield), before giving up...",
        "user": "UV1A22N3W",
        "ts": "1589104413.447100",
        "team": "TUU48M0T1",
        "user_team": "TUU48M0T1",
        "source_team": "TUU48M0T1",
        "user_profile": {
            "avatar_hash": "71f827776ad6",
            "image_72": "https:\/\/avatars.slack-edge.com\/2020-03-09\/988125642964_71f827776ad610af05a2_72.jpg",
            "first_name": "",
            "real_name": "RachelA",
            "display_name": "RachelA",
            "team": "TUU48M0T1",
            "name": "raronoff",
            "is_restricted": false,
            "is_ultra_restricted": false
        },
        "blocks": [
            {
                "type": "rich_text",
                "block_id": "VDz",
                "elements": [
                    {
                        "type": "rich_text_section",
                        "elements": [
                            {
                                "type": "text",
                                "text": "sounds like you can try saliva + virus and PK (forget the RNA shield), before giving up..."
                            }
                        ]
                    }
                ]
            }
        ],
        "thread_ts": "1588610030.384700",
        "parent_user_id": "U010LNECEHE"
    }
]