[
    {
        "client_msg_id": "3d904f91-ceb9-4801-9838-2e38abd4b815",
        "type": "message",
        "text": "there's a biohacker guy, Nur, who seems to have results that had no problems with the VTM... (must be high titer samples! &amp; already confirmed positive - I think he is in Turkey...)",
        "user": "UV1A22N3W",
        "ts": "1587628918.002900",
        "team": "TUU48M0T1",
        "user_team": "TUU48M0T1",
        "source_team": "TUU48M0T1",
        "user_profile": {
            "avatar_hash": "71f827776ad6",
            "image_72": "https:\/\/avatars.slack-edge.com\/2020-03-09\/988125642964_71f827776ad610af05a2_72.jpg",
            "first_name": "",
            "real_name": "RachelA",
            "display_name": "RachelA",
            "team": "TUU48M0T1",
            "name": "raronoff",
            "is_restricted": false,
            "is_ultra_restricted": false
        },
        "blocks": [
            {
                "type": "rich_text",
                "block_id": "HAR36",
                "elements": [
                    {
                        "type": "rich_text_section",
                        "elements": [
                            {
                                "type": "text",
                                "text": "there's a biohacker guy, Nur, who seems to have results that had no problems with the VTM... (must be high titer samples! & already confirmed positive - I think he is in Turkey...)"
                            }
                        ]
                    }
                ]
            }
        ]
    },
    {
        "client_msg_id": "f7007a22-3eb8-46c3-80b7-0e6e1962bd82",
        "type": "message",
        "text": "I accepted the people who wanted to join in the project, and added the link to the on-boarding info doc to the front end page...",
        "user": "UV1A22N3W",
        "ts": "1587628952.003600",
        "team": "TUU48M0T1",
        "user_team": "TUU48M0T1",
        "source_team": "TUU48M0T1",
        "user_profile": {
            "avatar_hash": "71f827776ad6",
            "image_72": "https:\/\/avatars.slack-edge.com\/2020-03-09\/988125642964_71f827776ad610af05a2_72.jpg",
            "first_name": "",
            "real_name": "RachelA",
            "display_name": "RachelA",
            "team": "TUU48M0T1",
            "name": "raronoff",
            "is_restricted": false,
            "is_ultra_restricted": false
        },
        "blocks": [
            {
                "type": "rich_text",
                "block_id": "Akw",
                "elements": [
                    {
                        "type": "rich_text_section",
                        "elements": [
                            {
                                "type": "text",
                                "text": "I accepted the people who wanted to join in the project, and added the link to the on-boarding info doc to the front end page..."
                            }
                        ]
                    }
                ]
            }
        ]
    },
    {
        "type": "message",
        "subtype": "channel_join",
        "ts": "1587640571.003900",
        "user": "U012CUFADR9",
        "text": "<@U012CUFADR9> has joined the channel",
        "inviter": "U011B5424FR"
    },
    {
        "type": "message",
        "text": "orders coming in, with cool freebies too!",
        "files": [
            {
                "id": "F012DN70C6P",
                "created": 1587646348,
                "timestamp": 1587646348,
                "name": "Image from iOS.jpg",
                "title": "Image from iOS",
                "mimetype": "image\/jpeg",
                "filetype": "jpg",
                "pretty_type": "JPEG",
                "user": "UV1A22N3W",
                "editable": false,
                "size": 1050244,
                "mode": "hosted",
                "is_external": false,
                "external_type": "",
                "is_public": true,
                "public_url_shared": false,
                "display_as_bot": false,
                "username": "",
                "url_private": "https:\/\/files.slack.com\/files-pri\/TUU48M0T1-F012DN70C6P\/image_from_ios.jpg?t=xoxe-980144714919-1133254701825-1120841107731-daf595b5a7d6c9028b0b02a925032e36",
                "url_private_download": "https:\/\/files.slack.com\/files-pri\/TUU48M0T1-F012DN70C6P\/download\/image_from_ios.jpg?t=xoxe-980144714919-1133254701825-1120841107731-daf595b5a7d6c9028b0b02a925032e36",
                "thumb_64": "https:\/\/files.slack.com\/files-tmb\/TUU48M0T1-F012DN70C6P-9d45c99ec6\/image_from_ios_64.jpg?t=xoxe-980144714919-1133254701825-1120841107731-daf595b5a7d6c9028b0b02a925032e36",
                "thumb_80": "https:\/\/files.slack.com\/files-tmb\/TUU48M0T1-F012DN70C6P-9d45c99ec6\/image_from_ios_80.jpg?t=xoxe-980144714919-1133254701825-1120841107731-daf595b5a7d6c9028b0b02a925032e36",
                "thumb_360": "https:\/\/files.slack.com\/files-tmb\/TUU48M0T1-F012DN70C6P-9d45c99ec6\/image_from_ios_360.jpg?t=xoxe-980144714919-1133254701825-1120841107731-daf595b5a7d6c9028b0b02a925032e36",
                "thumb_360_w": 270,
                "thumb_360_h": 360,
                "thumb_480": "https:\/\/files.slack.com\/files-tmb\/TUU48M0T1-F012DN70C6P-9d45c99ec6\/image_from_ios_480.jpg?t=xoxe-980144714919-1133254701825-1120841107731-daf595b5a7d6c9028b0b02a925032e36",
                "thumb_480_w": 360,
                "thumb_480_h": 480,
                "thumb_160": "https:\/\/files.slack.com\/files-tmb\/TUU48M0T1-F012DN70C6P-9d45c99ec6\/image_from_ios_160.jpg?t=xoxe-980144714919-1133254701825-1120841107731-daf595b5a7d6c9028b0b02a925032e36",
                "thumb_720": "https:\/\/files.slack.com\/files-tmb\/TUU48M0T1-F012DN70C6P-9d45c99ec6\/image_from_ios_720.jpg?t=xoxe-980144714919-1133254701825-1120841107731-daf595b5a7d6c9028b0b02a925032e36",
                "thumb_720_w": 540,
                "thumb_720_h": 720,
                "thumb_800": "https:\/\/files.slack.com\/files-tmb\/TUU48M0T1-F012DN70C6P-9d45c99ec6\/image_from_ios_800.jpg?t=xoxe-980144714919-1133254701825-1120841107731-daf595b5a7d6c9028b0b02a925032e36",
                "thumb_800_w": 800,
                "thumb_800_h": 1067,
                "thumb_960": "https:\/\/files.slack.com\/files-tmb\/TUU48M0T1-F012DN70C6P-9d45c99ec6\/image_from_ios_960.jpg?t=xoxe-980144714919-1133254701825-1120841107731-daf595b5a7d6c9028b0b02a925032e36",
                "thumb_960_w": 720,
                "thumb_960_h": 960,
                "thumb_1024": "https:\/\/files.slack.com\/files-tmb\/TUU48M0T1-F012DN70C6P-9d45c99ec6\/image_from_ios_1024.jpg?t=xoxe-980144714919-1133254701825-1120841107731-daf595b5a7d6c9028b0b02a925032e36",
                "thumb_1024_w": 768,
                "thumb_1024_h": 1024,
                "original_w": 3024,
                "original_h": 4032,
                "thumb_tiny": "AwAwACSLT18ybJ6Lya1ao2IENvvbq5z+FWROh9fypASUVGJlMmznP0pfOQNtOQfpTuA+jFKCCMilouBUfAwg4CjApoUVCJCwBI59c05ZMdv1qC+Vj5MfKf4ugpQvGXcY7ccmmM4Ye46HNKG9RTvoLk1GeeYSynuc0v2z2pkpi3DcWzjnApmYfV\/yqroNUSFgUwBnA9KlRcp83pUCgZwcjPJzUuRtxn8aCmQSKoPA\/KlC\/uyM89aXikA5HHFAk+g5YMqCe\/rS\/Zx7UjO+7j+VJvk\/yKZV0j\/\/2Q==",
                "permalink": "https:\/\/open-covid19.slack.com\/files\/UV1A22N3W\/F012DN70C6P\/image_from_ios.jpg",
                "permalink_public": "https:\/\/slack-files.com\/TUU48M0T1-F012DN70C6P-9f0f2f0458",
                "is_starred": false,
                "has_rich_preview": false
            },
            {
                "id": "F012C4V5TEZ",
                "created": 1587646348,
                "timestamp": 1587646348,
                "name": "Image from iOS.jpg",
                "title": "Image from iOS",
                "mimetype": "image\/jpeg",
                "filetype": "jpg",
                "pretty_type": "JPEG",
                "user": "UV1A22N3W",
                "editable": false,
                "size": 752364,
                "mode": "hosted",
                "is_external": false,
                "external_type": "",
                "is_public": true,
                "public_url_shared": false,
                "display_as_bot": false,
                "username": "",
                "url_private": "https:\/\/files.slack.com\/files-pri\/TUU48M0T1-F012C4V5TEZ\/image_from_ios.jpg?t=xoxe-980144714919-1133254701825-1120841107731-daf595b5a7d6c9028b0b02a925032e36",
                "url_private_download": "https:\/\/files.slack.com\/files-pri\/TUU48M0T1-F012C4V5TEZ\/download\/image_from_ios.jpg?t=xoxe-980144714919-1133254701825-1120841107731-daf595b5a7d6c9028b0b02a925032e36",
                "thumb_64": "https:\/\/files.slack.com\/files-tmb\/TUU48M0T1-F012C4V5TEZ-d81ed8cd4c\/image_from_ios_64.jpg?t=xoxe-980144714919-1133254701825-1120841107731-daf595b5a7d6c9028b0b02a925032e36",
                "thumb_80": "https:\/\/files.slack.com\/files-tmb\/TUU48M0T1-F012C4V5TEZ-d81ed8cd4c\/image_from_ios_80.jpg?t=xoxe-980144714919-1133254701825-1120841107731-daf595b5a7d6c9028b0b02a925032e36",
                "thumb_360": "https:\/\/files.slack.com\/files-tmb\/TUU48M0T1-F012C4V5TEZ-d81ed8cd4c\/image_from_ios_360.jpg?t=xoxe-980144714919-1133254701825-1120841107731-daf595b5a7d6c9028b0b02a925032e36",
                "thumb_360_w": 270,
                "thumb_360_h": 360,
                "thumb_480": "https:\/\/files.slack.com\/files-tmb\/TUU48M0T1-F012C4V5TEZ-d81ed8cd4c\/image_from_ios_480.jpg?t=xoxe-980144714919-1133254701825-1120841107731-daf595b5a7d6c9028b0b02a925032e36",
                "thumb_480_w": 360,
                "thumb_480_h": 480,
                "thumb_160": "https:\/\/files.slack.com\/files-tmb\/TUU48M0T1-F012C4V5TEZ-d81ed8cd4c\/image_from_ios_160.jpg?t=xoxe-980144714919-1133254701825-1120841107731-daf595b5a7d6c9028b0b02a925032e36",
                "thumb_720": "https:\/\/files.slack.com\/files-tmb\/TUU48M0T1-F012C4V5TEZ-d81ed8cd4c\/image_from_ios_720.jpg?t=xoxe-980144714919-1133254701825-1120841107731-daf595b5a7d6c9028b0b02a925032e36",
                "thumb_720_w": 540,
                "thumb_720_h": 720,
                "thumb_800": "https:\/\/files.slack.com\/files-tmb\/TUU48M0T1-F012C4V5TEZ-d81ed8cd4c\/image_from_ios_800.jpg?t=xoxe-980144714919-1133254701825-1120841107731-daf595b5a7d6c9028b0b02a925032e36",
                "thumb_800_w": 800,
                "thumb_800_h": 1067,
                "thumb_960": "https:\/\/files.slack.com\/files-tmb\/TUU48M0T1-F012C4V5TEZ-d81ed8cd4c\/image_from_ios_960.jpg?t=xoxe-980144714919-1133254701825-1120841107731-daf595b5a7d6c9028b0b02a925032e36",
                "thumb_960_w": 720,
                "thumb_960_h": 960,
                "thumb_1024": "https:\/\/files.slack.com\/files-tmb\/TUU48M0T1-F012C4V5TEZ-d81ed8cd4c\/image_from_ios_1024.jpg?t=xoxe-980144714919-1133254701825-1120841107731-daf595b5a7d6c9028b0b02a925032e36",
                "thumb_1024_w": 768,
                "thumb_1024_h": 1024,
                "original_w": 3024,
                "original_h": 4032,
                "thumb_tiny": "AwAwACRZwCnJx3FRIjySMqEMAOpqJcHqeelWLchJjnByPvf0oAlSF4\/mcggCpEO\/lenrTmIZdufvcU5VCjaowAKBEbNtOCDTfMHo1TYB64o2r6CmBjjqDkCrlvCphVnzkjtVEAuQqj2AFa0cTJCiZ5XrikMAoAAC1IuSOetADHqcfhQTg\/U0ALRRmkzQBXsrbyl3uPnPQegqwSNxB+tOoIB6jNAANopg5Kn8adtHoKT+L6CgAINGDRmjPvTA\/9k=",
                "permalink": "https:\/\/open-covid19.slack.com\/files\/UV1A22N3W\/F012C4V5TEZ\/image_from_ios.jpg",
                "permalink_public": "https:\/\/slack-files.com\/TUU48M0T1-F012C4V5TEZ-8d44cd0366",
                "is_starred": false,
                "has_rich_preview": false
            },
            {
                "id": "F0133BCHZ5W",
                "created": 1587646349,
                "timestamp": 1587646349,
                "name": "Image from iOS.jpg",
                "title": "Image from iOS",
                "mimetype": "image\/jpeg",
                "filetype": "jpg",
                "pretty_type": "JPEG",
                "user": "UV1A22N3W",
                "editable": false,
                "size": 1094545,
                "mode": "hosted",
                "is_external": false,
                "external_type": "",
                "is_public": true,
                "public_url_shared": false,
                "display_as_bot": false,
                "username": "",
                "url_private": "https:\/\/files.slack.com\/files-pri\/TUU48M0T1-F0133BCHZ5W\/image_from_ios.jpg?t=xoxe-980144714919-1133254701825-1120841107731-daf595b5a7d6c9028b0b02a925032e36",
                "url_private_download": "https:\/\/files.slack.com\/files-pri\/TUU48M0T1-F0133BCHZ5W\/download\/image_from_ios.jpg?t=xoxe-980144714919-1133254701825-1120841107731-daf595b5a7d6c9028b0b02a925032e36",
                "thumb_64": "https:\/\/files.slack.com\/files-tmb\/TUU48M0T1-F0133BCHZ5W-e212fe1d00\/image_from_ios_64.jpg?t=xoxe-980144714919-1133254701825-1120841107731-daf595b5a7d6c9028b0b02a925032e36",
                "thumb_80": "https:\/\/files.slack.com\/files-tmb\/TUU48M0T1-F0133BCHZ5W-e212fe1d00\/image_from_ios_80.jpg?t=xoxe-980144714919-1133254701825-1120841107731-daf595b5a7d6c9028b0b02a925032e36",
                "thumb_360": "https:\/\/files.slack.com\/files-tmb\/TUU48M0T1-F0133BCHZ5W-e212fe1d00\/image_from_ios_360.jpg?t=xoxe-980144714919-1133254701825-1120841107731-daf595b5a7d6c9028b0b02a925032e36",
                "thumb_360_w": 270,
                "thumb_360_h": 360,
                "thumb_480": "https:\/\/files.slack.com\/files-tmb\/TUU48M0T1-F0133BCHZ5W-e212fe1d00\/image_from_ios_480.jpg?t=xoxe-980144714919-1133254701825-1120841107731-daf595b5a7d6c9028b0b02a925032e36",
                "thumb_480_w": 360,
                "thumb_480_h": 480,
                "thumb_160": "https:\/\/files.slack.com\/files-tmb\/TUU48M0T1-F0133BCHZ5W-e212fe1d00\/image_from_ios_160.jpg?t=xoxe-980144714919-1133254701825-1120841107731-daf595b5a7d6c9028b0b02a925032e36",
                "thumb_720": "https:\/\/files.slack.com\/files-tmb\/TUU48M0T1-F0133BCHZ5W-e212fe1d00\/image_from_ios_720.jpg?t=xoxe-980144714919-1133254701825-1120841107731-daf595b5a7d6c9028b0b02a925032e36",
                "thumb_720_w": 540,
                "thumb_720_h": 720,
                "thumb_800": "https:\/\/files.slack.com\/files-tmb\/TUU48M0T1-F0133BCHZ5W-e212fe1d00\/image_from_ios_800.jpg?t=xoxe-980144714919-1133254701825-1120841107731-daf595b5a7d6c9028b0b02a925032e36",
                "thumb_800_w": 800,
                "thumb_800_h": 1067,
                "thumb_960": "https:\/\/files.slack.com\/files-tmb\/TUU48M0T1-F0133BCHZ5W-e212fe1d00\/image_from_ios_960.jpg?t=xoxe-980144714919-1133254701825-1120841107731-daf595b5a7d6c9028b0b02a925032e36",
                "thumb_960_w": 720,
                "thumb_960_h": 960,
                "thumb_1024": "https:\/\/files.slack.com\/files-tmb\/TUU48M0T1-F0133BCHZ5W-e212fe1d00\/image_from_ios_1024.jpg?t=xoxe-980144714919-1133254701825-1120841107731-daf595b5a7d6c9028b0b02a925032e36",
                "thumb_1024_w": 768,
                "thumb_1024_h": 1024,
                "original_w": 3024,
                "original_h": 4032,
                "thumb_tiny": "AwAwACS7ISE+XrxUa78neSB2wakk6D\/eFN\/GgBCD2dqRCSWBJOD3p1In32+goAmFFA6UtAEUn8P+8KQih+qf739KCKAEOB2oX\/WN9B\/Wg5xSL\/rP+A\/1oAnHSikHQUtAEEh+ZPxpD06Ukp+dfoaM8c0ABGB0oHEq\/Q\/0pGYY5NIrAyrgg8GgCyvSlpqnilzQB\/\/Z",
                "permalink": "https:\/\/open-covid19.slack.com\/files\/UV1A22N3W\/F0133BCHZ5W\/image_from_ios.jpg",
                "permalink_public": "https:\/\/slack-files.com\/TUU48M0T1-F0133BCHZ5W-023a1ddbc2",
                "is_starred": false,
                "has_rich_preview": false
            },
            {
                "id": "F011YPW946T",
                "created": 1587646362,
                "timestamp": 1587646362,
                "name": "Image from iOS.jpg",
                "title": "Image from iOS",
                "mimetype": "image\/jpeg",
                "filetype": "jpg",
                "pretty_type": "JPEG",
                "user": "UV1A22N3W",
                "editable": false,
                "size": 999271,
                "mode": "hosted",
                "is_external": false,
                "external_type": "",
                "is_public": true,
                "public_url_shared": false,
                "display_as_bot": false,
                "username": "",
                "url_private": "https:\/\/files.slack.com\/files-pri\/TUU48M0T1-F011YPW946T\/image_from_ios.jpg?t=xoxe-980144714919-1133254701825-1120841107731-daf595b5a7d6c9028b0b02a925032e36",
                "url_private_download": "https:\/\/files.slack.com\/files-pri\/TUU48M0T1-F011YPW946T\/download\/image_from_ios.jpg?t=xoxe-980144714919-1133254701825-1120841107731-daf595b5a7d6c9028b0b02a925032e36",
                "thumb_64": "https:\/\/files.slack.com\/files-tmb\/TUU48M0T1-F011YPW946T-d13cec3392\/image_from_ios_64.jpg?t=xoxe-980144714919-1133254701825-1120841107731-daf595b5a7d6c9028b0b02a925032e36",
                "thumb_80": "https:\/\/files.slack.com\/files-tmb\/TUU48M0T1-F011YPW946T-d13cec3392\/image_from_ios_80.jpg?t=xoxe-980144714919-1133254701825-1120841107731-daf595b5a7d6c9028b0b02a925032e36",
                "thumb_360": "https:\/\/files.slack.com\/files-tmb\/TUU48M0T1-F011YPW946T-d13cec3392\/image_from_ios_360.jpg?t=xoxe-980144714919-1133254701825-1120841107731-daf595b5a7d6c9028b0b02a925032e36",
                "thumb_360_w": 360,
                "thumb_360_h": 270,
                "thumb_480": "https:\/\/files.slack.com\/files-tmb\/TUU48M0T1-F011YPW946T-d13cec3392\/image_from_ios_480.jpg?t=xoxe-980144714919-1133254701825-1120841107731-daf595b5a7d6c9028b0b02a925032e36",
                "thumb_480_w": 480,
                "thumb_480_h": 360,
                "thumb_160": "https:\/\/files.slack.com\/files-tmb\/TUU48M0T1-F011YPW946T-d13cec3392\/image_from_ios_160.jpg?t=xoxe-980144714919-1133254701825-1120841107731-daf595b5a7d6c9028b0b02a925032e36",
                "thumb_720": "https:\/\/files.slack.com\/files-tmb\/TUU48M0T1-F011YPW946T-d13cec3392\/image_from_ios_720.jpg?t=xoxe-980144714919-1133254701825-1120841107731-daf595b5a7d6c9028b0b02a925032e36",
                "thumb_720_w": 720,
                "thumb_720_h": 540,
                "thumb_800": "https:\/\/files.slack.com\/files-tmb\/TUU48M0T1-F011YPW946T-d13cec3392\/image_from_ios_800.jpg?t=xoxe-980144714919-1133254701825-1120841107731-daf595b5a7d6c9028b0b02a925032e36",
                "thumb_800_w": 800,
                "thumb_800_h": 600,
                "thumb_960": "https:\/\/files.slack.com\/files-tmb\/TUU48M0T1-F011YPW946T-d13cec3392\/image_from_ios_960.jpg?t=xoxe-980144714919-1133254701825-1120841107731-daf595b5a7d6c9028b0b02a925032e36",
                "thumb_960_w": 960,
                "thumb_960_h": 720,
                "thumb_1024": "https:\/\/files.slack.com\/files-tmb\/TUU48M0T1-F011YPW946T-d13cec3392\/image_from_ios_1024.jpg?t=xoxe-980144714919-1133254701825-1120841107731-daf595b5a7d6c9028b0b02a925032e36",
                "thumb_1024_w": 1024,
                "thumb_1024_h": 768,
                "original_w": 4032,
                "original_h": 3024,
                "thumb_tiny": "AwAkADC4WAAOeD0PrVSfAuC27HA4qy54OADgcCopbQykSF9p2jIAzSsMrmQ87SB\/+qnxh1CZII4NJLGsUZBKlj0NJbq5lUfMVHr0pDuSOVEo3EZPelVVJyMcVM0EbffQZqPbEH\/i6880xEmRn5s49qlK\/uiBjkYzVSWeNOrZPoOaie6eGc7B8oPIPegRdjClMhQD3+tMkZycKD78f1ppuYfJ875gCcEe9U5L5mb5EAHvyaLFJlwvtA3tg\/zqP7QrZKJ+J71VMgkJx196WOUjPHOcCiwrkeOKdPzJn2H8qb2p0\/3\/AMB\/KmIX\/lwb\/rp\/Sq\/erB\/48W\/66f0qv3oAfEfnx61IeGXvzUUf3xUrfeX60hn\/2Q==",
                "permalink": "https:\/\/open-covid19.slack.com\/files\/UV1A22N3W\/F011YPW946T\/image_from_ios.jpg",
                "permalink_public": "https:\/\/slack-files.com\/TUU48M0T1-F011YPW946T-a9499e2d4f",
                "is_starred": false,
                "has_rich_preview": false
            }
        ],
        "upload": true,
        "blocks": [
            {
                "type": "rich_text",
                "block_id": "Xcr2",
                "elements": [
                    {
                        "type": "rich_text_section",
                        "elements": [
                            {
                                "type": "text",
                                "text": "orders coming in, with cool freebies too!"
                            }
                        ]
                    }
                ]
            }
        ],
        "user": "UV1A22N3W",
        "ts": "1587646405.004900",
        "client_msg_id": "E2B60B7E-180F-40FC-B488-D4A8EBB2CCBA"
    },
    {
        "client_msg_id": "5f613de1-eae2-4f7b-8781-5e67181b6ed1",
        "type": "message",
        "text": "<@UUPQGNNTV> and <@UV10KBUQG> I got some new info from NEB to pass along regarding Colorimetric LAMP performance. See below:\n\n&gt; Hi Chris-\n&gt; \n&gt; I thought I'd share a bit more info on the SARS-CoV-2 LAMP testing, we've seen a few things really improve performance and I'm passing this information along to anyone who is considering LAMP here. \n&gt; \n&gt; First, we see addition of 40 mM guanidine hydrochloride to our colorimetric LAMP mix improves speed and sensitivity. And second we have newer primer sets that give more sensitive detection vs. the ones in our preprint, there's a new Gene N set matching the N2 amplicon region and a set for Gene E (sequences below). And our best performance seems to be with using both sets together in 1 reaction in the presence of the 40 mM guanidine. Might not be useful information for you at this point but thought I'd share.\n&gt; \n&gt; Best regards,\n&gt; Nathan\n&gt; \n&gt;   N2-F3       ACCAGGAACTAATCAGACAAG\n&gt;   N2-B3      GACTTGATCTTTGAAATTTGGATCT\n&gt;   N2-FIP     TTCCGAAGAACGCTGAAGCGGAACTGATTACAAACATTGGCC\n&gt;   N2-BIP     CGCATTGGCATGGAAGTCACAATTTGATGGCACCTGTGTA\n&gt;   N2-LF      GGGGGCAAATTGTGCAATTTG\n&gt;   N2-LB      CTTCGGGAACGTGGTTGACC\n&gt;   \n&gt;   E1-F3      TGAGTACGAACTTATGTACTCAT\n&gt;   E1-B3      TTCAGATTTTTAACACGAGAGT\n&gt;   E1-FIP     ACCACGAAAGCAAGAAAAAGAAGTTCGTTTCGGAAGAGACAG\n&gt;   E1-BIP    TTGCTAGTTACACTAGCCATCCTTAGGTTTTACAAGACTCACGT\n&gt;   E1-LB      GCGCTTCGATTGTGTGCGT\n&gt;   E1-LF      CGCTATTAACTATTAACG\n&gt;   \n&gt; ----------------------------------\n&gt; Nathan Tanner, Ph.D.\n&gt; Senior Scientist, Nucleic Acid Replication\n&gt; New England Biolabs\n&gt; 240 County Road\n&gt; Ipswich MA 01938\n&gt; <tel:+19789987974|+1 (978) 998-7974>",
        "user": "UV5CCJ9RC",
        "ts": "1587651275.008500",
        "team": "TUU48M0T1",
        "user_team": "TUU48M0T1",
        "source_team": "TUU48M0T1",
        "user_profile": {
            "avatar_hash": "2c79fe05f7e7",
            "image_72": "https:\/\/avatars.slack-edge.com\/2020-03-10\/992653932501_2c79fe05f7e75be19699_72.png",
            "first_name": "Chris",
            "real_name": "Chris Monaco",
            "display_name": "",
            "team": "TUU48M0T1",
            "name": "cmonaco.hr",
            "is_restricted": false,
            "is_ultra_restricted": false
        },
        "edited": {
            "user": "UV5CCJ9RC",
            "ts": "1587651430.000000"
        },
        "blocks": [
            {
                "type": "rich_text",
                "block_id": "HI2p",
                "elements": [
                    {
                        "type": "rich_text_section",
                        "elements": [
                            {
                                "type": "user",
                                "user_id": "UUPQGNNTV"
                            },
                            {
                                "type": "text",
                                "text": " and "
                            },
                            {
                                "type": "user",
                                "user_id": "UV10KBUQG"
                            },
                            {
                                "type": "text",
                                "text": " I got some new info from NEB to pass along regarding Colorimetric LAMP performance. See below:\n\n"
                            }
                        ]
                    },
                    {
                        "type": "rich_text_quote",
                        "elements": [
                            {
                                "type": "text",
                                "text": "Hi Chris-\n\nI thought I'd share a bit more info on the SARS-CoV-2 LAMP testing, we've seen a few things really improve performance and I'm passing this information along to anyone who is considering LAMP here. \n\nFirst, we see addition of 40 mM guanidine hydrochloride to our colorimetric LAMP mix improves speed and sensitivity. And second we have newer primer sets that give more sensitive detection vs. the ones in our preprint, there's a new Gene N set matching the N2 amplicon region and a set for Gene E (sequences below). And our best performance seems to be with using both sets together in 1 reaction in the presence of the 40 mM guanidine. Might not be useful information for you at this point but thought I'd share.\n\nBest regards,\nNathan\n\n  N2-F3       ACCAGGAACTAATCAGACAAG\n  N2-B3      GACTTGATCTTTGAAATTTGGATCT\n  N2-FIP     TTCCGAAGAACGCTGAAGCGGAACTGATTACAAACATTGGCC\n  N2-BIP     CGCATTGGCATGGAAGTCACAATTTGATGGCACCTGTGTA\n  N2-LF      GGGGGCAAATTGTGCAATTTG\n  N2-LB      CTTCGGGAACGTGGTTGACC\n  \n  E1-F3      TGAGTACGAACTTATGTACTCAT\n  E1-B3      TTCAGATTTTTAACACGAGAGT\n  E1-FIP     ACCACGAAAGCAAGAAAAAGAAGTTCGTTTCGGAAGAGACAG\n  E1-BIP    TTGCTAGTTACACTAGCCATCCTTAGGTTTTACAAGACTCACGT\n  E1-LB      GCGCTTCGATTGTGTGCGT\n  E1-LF      CGCTATTAACTATTAACG\n  \n----------------------------------\nNathan Tanner, Ph.D.\nSenior Scientist, Nucleic Acid Replication\nNew England Biolabs\n240 County Road\nIpswich MA 01938\n"
                            },
                            {
                                "type": "link",
                                "url": "tel:+19789987974",
                                "text": "+1 (978) 998-7974"
                            }
                        ]
                    }
                ]
            }
        ],
        "thread_ts": "1587651275.008500",
        "reply_count": 1,
        "reply_users_count": 1,
        "latest_reply": "1587842432.083300",
        "reply_users": [
            "UV10KBUQG"
        ],
        "replies": [
            {
                "user": "UV10KBUQG",
                "ts": "1587842432.083300"
            }
        ],
        "subscribed": false,
        "reactions": [
            {
                "name": "wave",
                "users": [
                    "UV10KBUQG",
                    "U0123D6FZ41",
                    "UV3URUKK5"
                ],
                "count": 3
            }
        ]
    },
    {
        "client_msg_id": "bd8dd999-1292-4eab-b2dc-6b093eefc0a3",
        "type": "message",
        "text": "Oh geez! Good information - thanks <@UV5CCJ9RC>! But does this mean we need to order 2 new primer sets and some guanidine hydrochloride? Looking forward to our meeting in a bit :slightly_smiling_face:",
        "user": "UV10KBUQG",
        "ts": "1587651572.010100",
        "team": "TUU48M0T1",
        "user_team": "TUU48M0T1",
        "source_team": "TUU48M0T1",
        "user_profile": {
            "avatar_hash": "2deebbf6be3d",
            "image_72": "https:\/\/avatars.slack-edge.com\/2020-03-06\/976932190641_2deebbf6be3d17141d91_72.jpg",
            "first_name": "Sarah",
            "real_name": "Sarah Blossom Ware",
            "display_name": "Sarah Blossom Ware - BioBlaze Community Bio Lab",
            "team": "TUU48M0T1",
            "name": "ware.sarah",
            "is_restricted": false,
            "is_ultra_restricted": false
        },
        "blocks": [
            {
                "type": "rich_text",
                "block_id": "OTPV",
                "elements": [
                    {
                        "type": "rich_text_section",
                        "elements": [
                            {
                                "type": "text",
                                "text": "Oh geez! Good information - thanks "
                            },
                            {
                                "type": "user",
                                "user_id": "UV5CCJ9RC"
                            },
                            {
                                "type": "text",
                                "text": "! But does this mean we need to order 2 new primer sets and some guanidine hydrochloride? Looking forward to our meeting in a bit "
                            },
                            {
                                "type": "emoji",
                                "name": "slightly_smiling_face"
                            }
                        ]
                    }
                ]
            }
        ]
    },
    {
        "client_msg_id": "e64f7830-f47b-4122-b889-331a890d094b",
        "type": "message",
        "text": "<@UV5CCJ9RC> Did Nathan share what sensitivity and time they have achieved with these primer sets?",
        "user": "UV10KBUQG",
        "ts": "1587652070.012600",
        "team": "TUU48M0T1",
        "user_team": "TUU48M0T1",
        "source_team": "TUU48M0T1",
        "user_profile": {
            "avatar_hash": "2deebbf6be3d",
            "image_72": "https:\/\/avatars.slack-edge.com\/2020-03-06\/976932190641_2deebbf6be3d17141d91_72.jpg",
            "first_name": "Sarah",
            "real_name": "Sarah Blossom Ware",
            "display_name": "Sarah Blossom Ware - BioBlaze Community Bio Lab",
            "team": "TUU48M0T1",
            "name": "ware.sarah",
            "is_restricted": false,
            "is_ultra_restricted": false
        },
        "blocks": [
            {
                "type": "rich_text",
                "block_id": "phv",
                "elements": [
                    {
                        "type": "rich_text_section",
                        "elements": [
                            {
                                "type": "user",
                                "user_id": "UV5CCJ9RC"
                            },
                            {
                                "type": "text",
                                "text": " Did Nathan share what sensitivity and time they have achieved with these primer sets?"
                            }
                        ]
                    }
                ]
            }
        ]
    },
    {
        "client_msg_id": "497828D1-9130-4A83-A2C4-F2876DDB774D",
        "type": "message",
        "text": "No, I need to ask about more specifics. He didn’t mention LOD and I’m curious if they tried the guanidine with the original primer sets.",
        "user": "UV5CCJ9RC",
        "ts": "1587652106.012900",
        "team": "TUU48M0T1",
        "user_team": "TUU48M0T1",
        "source_team": "TUU48M0T1",
        "user_profile": {
            "avatar_hash": "2c79fe05f7e7",
            "image_72": "https:\/\/avatars.slack-edge.com\/2020-03-10\/992653932501_2c79fe05f7e75be19699_72.png",
            "first_name": "Chris",
            "real_name": "Chris Monaco",
            "display_name": "",
            "team": "TUU48M0T1",
            "name": "cmonaco.hr",
            "is_restricted": false,
            "is_ultra_restricted": false
        },
        "blocks": [
            {
                "type": "rich_text",
                "block_id": "QiFTU",
                "elements": [
                    {
                        "type": "rich_text_section",
                        "elements": [
                            {
                                "type": "text",
                                "text": "No, I need to ask about more specifics. He didn’t mention LOD and I’m curious if they tried the guanidine with the original primer sets."
                            }
                        ]
                    }
                ]
            }
        ],
        "thread_ts": "1587652106.012900",
        "reply_count": 2,
        "reply_users_count": 2,
        "latest_reply": "1587657378.016300",
        "reply_users": [
            "UV10KBUQG",
            "U011NSDDEKV"
        ],
        "replies": [
            {
                "user": "UV10KBUQG",
                "ts": "1587652671.015400"
            },
            {
                "user": "U011NSDDEKV",
                "ts": "1587657378.016300"
            }
        ],
        "subscribed": false,
        "reactions": [
            {
                "name": "heavy_check_mark",
                "users": [
                    "UV10KBUQG"
                ],
                "count": 1
            }
        ]
    },
    {
        "client_msg_id": "61682f0f-b93a-4f3b-834e-432cab0756f9",
        "type": "message",
        "text": "I have guanidine hydrochlloride in the lab. No idea why. After we get results from your temperature test, I could try it adding guanidine.",
        "user": "UV10KBUQG",
        "ts": "1587652344.015300",
        "team": "TUU48M0T1",
        "user_team": "TUU48M0T1",
        "source_team": "TUU48M0T1",
        "user_profile": {
            "avatar_hash": "2deebbf6be3d",
            "image_72": "https:\/\/avatars.slack-edge.com\/2020-03-06\/976932190641_2deebbf6be3d17141d91_72.jpg",
            "first_name": "Sarah",
            "real_name": "Sarah Blossom Ware",
            "display_name": "Sarah Blossom Ware - BioBlaze Community Bio Lab",
            "team": "TUU48M0T1",
            "name": "ware.sarah",
            "is_restricted": false,
            "is_ultra_restricted": false
        },
        "blocks": [
            {
                "type": "rich_text",
                "block_id": "6ts",
                "elements": [
                    {
                        "type": "rich_text_section",
                        "elements": [
                            {
                                "type": "text",
                                "text": "I have guanidine hydrochlloride in the lab. No idea why. After we get results from your temperature test, I could try it adding guanidine."
                            }
                        ]
                    }
                ]
            }
        ]
    },
    {
        "client_msg_id": "436565f2-39e6-4d05-9660-6b8b14a798ce",
        "type": "message",
        "text": "I wonder if we could get him to jump into our meeting :slightly_smiling_face:",
        "user": "UV10KBUQG",
        "ts": "1587652671.015400",
        "team": "TUU48M0T1",
        "user_team": "TUU48M0T1",
        "source_team": "TUU48M0T1",
        "user_profile": {
            "avatar_hash": "2deebbf6be3d",
            "image_72": "https:\/\/avatars.slack-edge.com\/2020-03-06\/976932190641_2deebbf6be3d17141d91_72.jpg",
            "first_name": "Sarah",
            "real_name": "Sarah Blossom Ware",
            "display_name": "Sarah Blossom Ware - BioBlaze Community Bio Lab",
            "team": "TUU48M0T1",
            "name": "ware.sarah",
            "is_restricted": false,
            "is_ultra_restricted": false
        },
        "blocks": [
            {
                "type": "rich_text",
                "block_id": "MIR",
                "elements": [
                    {
                        "type": "rich_text_section",
                        "elements": [
                            {
                                "type": "text",
                                "text": "I wonder if we could get him to jump into our meeting "
                            },
                            {
                                "type": "emoji",
                                "name": "slightly_smiling_face"
                            }
                        ]
                    }
                ]
            }
        ],
        "thread_ts": "1587652106.012900",
        "parent_user_id": "UV5CCJ9RC"
    },
    {
        "client_msg_id": "6017774f-1f62-4167-af1d-edd3293b87de",
        "type": "message",
        "text": "call happening now at <https:\/\/zoom.us\/j\/7804345815>",
        "user": "UV5CCJ9RC",
        "ts": "1587654545.015800",
        "team": "TUU48M0T1",
        "user_team": "TUU48M0T1",
        "source_team": "TUU48M0T1",
        "user_profile": {
            "avatar_hash": "2c79fe05f7e7",
            "image_72": "https:\/\/avatars.slack-edge.com\/2020-03-10\/992653932501_2c79fe05f7e75be19699_72.png",
            "first_name": "Chris",
            "real_name": "Chris Monaco",
            "display_name": "",
            "team": "TUU48M0T1",
            "name": "cmonaco.hr",
            "is_restricted": false,
            "is_ultra_restricted": false
        },
        "blocks": [
            {
                "type": "rich_text",
                "block_id": "i4f",
                "elements": [
                    {
                        "type": "rich_text_section",
                        "elements": [
                            {
                                "type": "text",
                                "text": "call happening now at "
                            },
                            {
                                "type": "link",
                                "url": "https:\/\/zoom.us\/j\/7804345815"
                            }
                        ]
                    }
                ]
            }
        ]
    },
    {
        "client_msg_id": "114d018a-7525-4339-80fe-b18423fedb03",
        "type": "message",
        "text": "Update from NEB:\n\n&gt; Glad it's helpful! For sensitivity we only have the ability to test with mock samples or RNA (no clinical lab here at NEB). But for us, with the guanidine and combination of N2\/E1 primer sets we get ~95% detection down to about 25 copies, ~50% detection of about 10 copies, all measured by visual color change. With guanidine and the old primer sets that was more like 100 copies, guanidine does improve speed and sensitivity with any of the primer sets we've tried. Again, just RNA (we're using Twist materials), but very promising. \n&gt; \n&gt; We have clinical labs doing validation testing with the different primer sets and the first version (old gene N, no guanidine) had a sensitivity of ~70% compared to qPCR, and we not surprisingly missed mostly the low-copy\/high-Cq qPCR positives. One lab attempted testing directly from UTM or saline collection of NP swabs, and there we saw a similar result missing low positives with a rough sensitivity based on Cq of 200-500 copies. With guanidine and the new primer combo this is all looking much better, but still early.",
        "user": "UV5CCJ9RC",
        "ts": "1587656409.016200",
        "team": "TUU48M0T1",
        "user_team": "TUU48M0T1",
        "source_team": "TUU48M0T1",
        "user_profile": {
            "avatar_hash": "2c79fe05f7e7",
            "image_72": "https:\/\/avatars.slack-edge.com\/2020-03-10\/992653932501_2c79fe05f7e75be19699_72.png",
            "first_name": "Chris",
            "real_name": "Chris Monaco",
            "display_name": "",
            "team": "TUU48M0T1",
            "name": "cmonaco.hr",
            "is_restricted": false,
            "is_ultra_restricted": false
        },
        "blocks": [
            {
                "type": "rich_text",
                "block_id": "FLTO",
                "elements": [
                    {
                        "type": "rich_text_section",
                        "elements": [
                            {
                                "type": "text",
                                "text": "Update from NEB:\n\n"
                            }
                        ]
                    },
                    {
                        "type": "rich_text_quote",
                        "elements": [
                            {
                                "type": "text",
                                "text": "Glad it's helpful! For sensitivity we only have the ability to test with mock samples or RNA (no clinical lab here at NEB). But for us, with the guanidine and combination of N2\/E1 primer sets we get ~95% detection down to about 25 copies, ~50% detection of about 10 copies, all measured by visual color change. With guanidine and the old primer sets that was more like 100 copies, guanidine does improve speed and sensitivity with any of the primer sets we've tried. Again, just RNA (we're using Twist materials), but very promising. \n\nWe have clinical labs doing validation testing with the different primer sets and the first version (old gene N, no guanidine) had a sensitivity of ~70% compared to qPCR, and we not surprisingly missed mostly the low-copy\/high-Cq qPCR positives. One lab attempted testing directly from UTM or saline collection of NP swabs, and there we saw a similar result missing low positives with a rough sensitivity based on Cq of 200-500 copies. With guanidine and the new primer combo this is all looking much better, but still early."
                            }
                        ]
                    }
                ]
            }
        ]
    },
    {
        "client_msg_id": "21b11a3b-5c9c-4e46-bc90-e5e50f18f135",
        "type": "message",
        "text": "Following on from zoom call: <https:\/\/www.medrxiv.org\/content\/10.1101\/2020.03.27.20044495v1>",
        "user": "U011NSDDEKV",
        "ts": "1587657378.016300",
        "team": "TUU48M0T1",
        "user_team": "TUU48M0T1",
        "source_team": "TUU48M0T1",
        "user_profile": {
            "avatar_hash": "f40d81b3da8e",
            "image_72": "https:\/\/avatars.slack-edge.com\/2020-04-16\/1067938122146_f40d81b3da8e15829449_72.jpg",
            "first_name": "Martin",
            "real_name": "Martin Codyre",
            "display_name": "Martin Codyre",
            "team": "TUU48M0T1",
            "name": "martin.codyre",
            "is_restricted": false,
            "is_ultra_restricted": false
        },
        "attachments": [
            {
                "service_name": "medRxiv",
                "title": "An alternative workflow for molecular detection of SARS-CoV-2 - escape from the NA extraction kit-shortage",
                "title_link": "https:\/\/www.medrxiv.org\/content\/10.1101\/2020.03.27.20044495v1",
                "text": "Abstract The World Health Organisation has declared a pandemic caused by the newly discovered SARS-CoV-2. Due to growing demand for reagents used for SARS-CoV-2 RNA extraction for subsequent molecular diagnostics, there is a worldwide risk of kit- and\/or reagent-shortages for extraction. With a detection sensitivity of 97.4% (95% CI=86.2-99.9%), we describe a simple, fast, alternative workflow for molecular detection of SARS-CoV-2, where samples are simply heat-processed for 5 minutes at 98°C prior to the RT-qPCR reaction. ### Competing Interest Statement The authors have declared no competing interest. ### Funding Statement No external funding was recieved ### Author Declarations All relevant ethical guidelines have been followed; any necessary IRB and\/or ethics committee approvals have been obtained and details of the IRB\/oversight body are included in the manuscript. Yes All necessary patient\/participant consent has been obtained and the appropriate institutional forms have been archived. Yes I understand that all clinical trials and any other prospective interventional studies must be registered with an ICMJE-approved registry, such as <http:\/\/ClinicalTrials.gov|ClinicalTrials.gov>. I confirm that any such study reported in the manuscript has been registered and the trial registration ID is provided (note: if posting a prospective study registered retrospectively, please provide a statement in the trial ID field explaining why the study was not registered in advance). Yes I have followed all appropriate research reporting guidelines and uploaded the relevant EQUATOR Network research reporting checklist(s) and other pertinent material as supplementary files, if applicable. Yes The raw data (ct-values) generated in this study available on request",
                "fallback": "medRxiv: An alternative workflow for molecular detection of SARS-CoV-2 - escape from the NA extraction kit-shortage",
                "ts": 1585551600,
                "from_url": "https:\/\/www.medrxiv.org\/content\/10.1101\/2020.03.27.20044495v1",
                "service_icon": "https:\/\/www.medrxiv.org\/sites\/default\/files\/images\/favicon.ico",
                "id": 1,
                "original_url": "https:\/\/www.medrxiv.org\/content\/10.1101\/2020.03.27.20044495v1"
            }
        ],
        "blocks": [
            {
                "type": "rich_text",
                "block_id": "Hw+",
                "elements": [
                    {
                        "type": "rich_text_section",
                        "elements": [
                            {
                                "type": "text",
                                "text": "Following on from zoom call: "
                            },
                            {
                                "type": "link",
                                "url": "https:\/\/www.medrxiv.org\/content\/10.1101\/2020.03.27.20044495v1"
                            }
                        ]
                    }
                ]
            }
        ],
        "thread_ts": "1587652106.012900",
        "parent_user_id": "UV5CCJ9RC"
    },
    {
        "client_msg_id": "b2fa9ab5-0661-4729-8d76-3c1667fd37dc",
        "type": "message",
        "text": "Also, just from seeing so many different numbers floating around, I'm unclear what LOD we should be aiming for to have a \"good test.\" What do you think?",
        "user": "UV5CCJ9RC",
        "ts": "1587657510.017600",
        "team": "TUU48M0T1",
        "user_team": "TUU48M0T1",
        "source_team": "TUU48M0T1",
        "user_profile": {
            "avatar_hash": "2c79fe05f7e7",
            "image_72": "https:\/\/avatars.slack-edge.com\/2020-03-10\/992653932501_2c79fe05f7e75be19699_72.png",
            "first_name": "Chris",
            "real_name": "Chris Monaco",
            "display_name": "",
            "team": "TUU48M0T1",
            "name": "cmonaco.hr",
            "is_restricted": false,
            "is_ultra_restricted": false
        },
        "blocks": [
            {
                "type": "rich_text",
                "block_id": "DJTf",
                "elements": [
                    {
                        "type": "rich_text_section",
                        "elements": [
                            {
                                "type": "text",
                                "text": "Also, just from seeing so many different numbers floating around, I'm unclear what LOD we should be aiming for to have a \"good test.\" What do you think?"
                            }
                        ]
                    }
                ]
            }
        ]
    },
    {
        "client_msg_id": "fdcc51b1-f64d-4719-868e-162fc389cd81",
        "type": "message",
        "text": "95% at 25 seems great (assuming 5ul input) , but I think it is context dependant, I mean if you are going to do some complicated sample prep that concentrates the RNA, the reaction could be less sensitive, but if you want to do direct from saliva or swab maybe you need more sensitivity...",
        "user": "UV7LUJG1Y",
        "ts": "1587657771.020300",
        "team": "TUU48M0T1",
        "user_team": "TUU48M0T1",
        "source_team": "TUU48M0T1",
        "user_profile": {
            "avatar_hash": "048307b17644",
            "image_72": "https:\/\/avatars.slack-edge.com\/2020-04-04\/1043242365313_048307b17644844abd87_72.jpg",
            "first_name": "",
            "real_name": "Guy Aidelberg",
            "display_name": "Guy Aidelberg",
            "team": "TUU48M0T1",
            "name": "guyaidelberg",
            "is_restricted": false,
            "is_ultra_restricted": false
        },
        "edited": {
            "user": "UV7LUJG1Y",
            "ts": "1587657882.000000"
        },
        "blocks": [
            {
                "type": "rich_text",
                "block_id": "y5AIS",
                "elements": [
                    {
                        "type": "rich_text_section",
                        "elements": [
                            {
                                "type": "text",
                                "text": "95% at 25 seems great (assuming 5ul input) , but I think it is context dependant, I mean if you are going to do some complicated sample prep that concentrates the RNA, the reaction could be less sensitive, but if you want to do direct from saliva or swab maybe you need more sensitivity..."
                            }
                        ]
                    }
                ]
            }
        ],
        "reactions": [
            {
                "name": "heavy_check_mark",
                "users": [
                    "UV10KBUQG"
                ],
                "count": 1
            }
        ]
    },
    {
        "client_msg_id": "49a062fd-05dc-445e-aeb1-bef78f216c48",
        "type": "message",
        "text": "I think based on the chart in the Lancet paper, 95% detection at 25 copies would be great!: <https:\/\/www.thelancet.com\/journals\/laninf\/article\/PIIS1473-3099(20)30196-1\/fulltext>",
        "user": "UV10KBUQG",
        "ts": "1587657912.021300",
        "team": "TUU48M0T1",
        "user_team": "TUU48M0T1",
        "source_team": "TUU48M0T1",
        "user_profile": {
            "avatar_hash": "2deebbf6be3d",
            "image_72": "https:\/\/avatars.slack-edge.com\/2020-03-06\/976932190641_2deebbf6be3d17141d91_72.jpg",
            "first_name": "Sarah",
            "real_name": "Sarah Blossom Ware",
            "display_name": "Sarah Blossom Ware - BioBlaze Community Bio Lab",
            "team": "TUU48M0T1",
            "name": "ware.sarah",
            "is_restricted": false,
            "is_ultra_restricted": false
        },
        "blocks": [
            {
                "type": "rich_text",
                "block_id": "U+D",
                "elements": [
                    {
                        "type": "rich_text_section",
                        "elements": [
                            {
                                "type": "text",
                                "text": "I think based on the chart in the Lancet paper, 95% detection at 25 copies would be great!: "
                            },
                            {
                                "type": "link",
                                "url": "https:\/\/www.thelancet.com\/journals\/laninf\/article\/PIIS1473-3099(20)30196-1\/fulltext"
                            }
                        ]
                    }
                ]
            }
        ]
    },
    {
        "client_msg_id": "e7daf216-e5b1-4423-8d8b-c4d7dc8998b7",
        "type": "message",
        "text": "<https:\/\/www.nature.com\/articles\/s41591-020-0869-5>",
        "user": "UV7LUJG1Y",
        "ts": "1587658100.021700",
        "team": "TUU48M0T1",
        "user_team": "TUU48M0T1",
        "source_team": "TUU48M0T1",
        "user_profile": {
            "avatar_hash": "048307b17644",
            "image_72": "https:\/\/avatars.slack-edge.com\/2020-04-04\/1043242365313_048307b17644844abd87_72.jpg",
            "first_name": "",
            "real_name": "Guy Aidelberg",
            "display_name": "Guy Aidelberg",
            "team": "TUU48M0T1",
            "name": "guyaidelberg",
            "is_restricted": false,
            "is_ultra_restricted": false
        },
        "attachments": [
            {
                "service_name": "Nature Medicine",
                "title": "Temporal dynamics in viral shedding and transmissibility of COVID-19",
                "title_link": "https:\/\/www.nature.com\/articles\/s41591-020-0869-5",
                "text": "Presymptomatic transmission of SARS-CoV-2 is estimated to account for a substantial proportion of COVID-19 cases.",
                "fallback": "Nature Medicine: Temporal dynamics in viral shedding and transmissibility of COVID-19",
                "thumb_url": "https:\/\/media.springernature.com\/full\/springer-static\/image\/art%3A10.1038%2Fs41591-020-0869-5\/MediaObjects\/41591_2020_869_Fig1_HTML.png",
                "from_url": "https:\/\/www.nature.com\/articles\/s41591-020-0869-5",
                "thumb_width": 2122,
                "thumb_height": 2251,
                "id": 1,
                "original_url": "https:\/\/www.nature.com\/articles\/s41591-020-0869-5"
            }
        ],
        "blocks": [
            {
                "type": "rich_text",
                "block_id": "oIC",
                "elements": [
                    {
                        "type": "rich_text_section",
                        "elements": [
                            {
                                "type": "link",
                                "url": "https:\/\/www.nature.com\/articles\/s41591-020-0869-5"
                            }
                        ]
                    }
                ]
            }
        ]
    },
    {
        "type": "message",
        "text": "",
        "files": [
            {
                "id": "F012E406UGJ",
                "created": 1587658115,
                "timestamp": 1587658115,
                "name": "image.png",
                "title": "image.png",
                "mimetype": "image\/png",
                "filetype": "png",
                "pretty_type": "PNG",
                "user": "UV10KBUQG",
                "editable": false,
                "size": 1127092,
                "mode": "hosted",
                "is_external": false,
                "external_type": "",
                "is_public": true,
                "public_url_shared": false,
                "display_as_bot": false,
                "username": "",
                "url_private": "https:\/\/files.slack.com\/files-pri\/TUU48M0T1-F012E406UGJ\/image.png?t=xoxe-980144714919-1133254701825-1120841107731-daf595b5a7d6c9028b0b02a925032e36",
                "url_private_download": "https:\/\/files.slack.com\/files-pri\/TUU48M0T1-F012E406UGJ\/download\/image.png?t=xoxe-980144714919-1133254701825-1120841107731-daf595b5a7d6c9028b0b02a925032e36",
                "thumb_64": "https:\/\/files.slack.com\/files-tmb\/TUU48M0T1-F012E406UGJ-fab10d5193\/image_64.png?t=xoxe-980144714919-1133254701825-1120841107731-daf595b5a7d6c9028b0b02a925032e36",
                "thumb_80": "https:\/\/files.slack.com\/files-tmb\/TUU48M0T1-F012E406UGJ-fab10d5193\/image_80.png?t=xoxe-980144714919-1133254701825-1120841107731-daf595b5a7d6c9028b0b02a925032e36",
                "thumb_360": "https:\/\/files.slack.com\/files-tmb\/TUU48M0T1-F012E406UGJ-fab10d5193\/image_360.png?t=xoxe-980144714919-1133254701825-1120841107731-daf595b5a7d6c9028b0b02a925032e36",
                "thumb_360_w": 360,
                "thumb_360_h": 283,
                "thumb_480": "https:\/\/files.slack.com\/files-tmb\/TUU48M0T1-F012E406UGJ-fab10d5193\/image_480.png?t=xoxe-980144714919-1133254701825-1120841107731-daf595b5a7d6c9028b0b02a925032e36",
                "thumb_480_w": 480,
                "thumb_480_h": 378,
                "thumb_160": "https:\/\/files.slack.com\/files-tmb\/TUU48M0T1-F012E406UGJ-fab10d5193\/image_160.png?t=xoxe-980144714919-1133254701825-1120841107731-daf595b5a7d6c9028b0b02a925032e36",
                "thumb_720": "https:\/\/files.slack.com\/files-tmb\/TUU48M0T1-F012E406UGJ-fab10d5193\/image_720.png?t=xoxe-980144714919-1133254701825-1120841107731-daf595b5a7d6c9028b0b02a925032e36",
                "thumb_720_w": 720,
                "thumb_720_h": 566,
                "thumb_800": "https:\/\/files.slack.com\/files-tmb\/TUU48M0T1-F012E406UGJ-fab10d5193\/image_800.png?t=xoxe-980144714919-1133254701825-1120841107731-daf595b5a7d6c9028b0b02a925032e36",
                "thumb_800_w": 800,
                "thumb_800_h": 629,
                "thumb_960": "https:\/\/files.slack.com\/files-tmb\/TUU48M0T1-F012E406UGJ-fab10d5193\/image_960.png?t=xoxe-980144714919-1133254701825-1120841107731-daf595b5a7d6c9028b0b02a925032e36",
                "thumb_960_w": 960,
                "thumb_960_h": 755,
                "thumb_1024": "https:\/\/files.slack.com\/files-tmb\/TUU48M0T1-F012E406UGJ-fab10d5193\/image_1024.png?t=xoxe-980144714919-1133254701825-1120841107731-daf595b5a7d6c9028b0b02a925032e36",
                "thumb_1024_w": 1024,
                "thumb_1024_h": 805,
                "original_w": 2857,
                "original_h": 2247,
                "thumb_tiny": "AwAlADDSIBowPf8AOkzgDjPFJuOCeg9aAH5ophJHPFG7JGKAH0UmeAc8e1LQA3HTntSkc0d6OaAG7BngfWgIBxxj0p2eaD0\/+vQAzhT0IHT2qQYxgU3FG0jnLfnQApPNJmg9aKACjFFFAB+NGeaKO9AH\/9k=",
                "permalink": "https:\/\/open-covid19.slack.com\/files\/UV10KBUQG\/F012E406UGJ\/image.png",
                "permalink_public": "https:\/\/slack-files.com\/TUU48M0T1-F012E406UGJ-be9531467a",
                "is_starred": false,
                "has_rich_preview": false
            }
        ],
        "upload": true,
        "user": "UV10KBUQG",
        "display_as_bot": false,
        "ts": "1587658121.022300",
        "client_msg_id": "546163d8-80fc-4670-b235-1941d5b5f4c8",
        "reactions": [
            {
                "name": "party-dino",
                "users": [
                    "UV3URUKK5"
                ],
                "count": 1
            }
        ]
    },
    {
        "client_msg_id": "6cb8c59f-0412-4d08-b543-0371d4505d0b",
        "type": "message",
        "text": "Shows the peak of infectivity id probably a day or 2 BEFORE symptoms",
        "user": "UV7LUJG1Y",
        "ts": "1587658134.022800",
        "team": "TUU48M0T1",
        "user_team": "TUU48M0T1",
        "source_team": "TUU48M0T1",
        "user_profile": {
            "avatar_hash": "048307b17644",
            "image_72": "https:\/\/avatars.slack-edge.com\/2020-04-04\/1043242365313_048307b17644844abd87_72.jpg",
            "first_name": "",
            "real_name": "Guy Aidelberg",
            "display_name": "Guy Aidelberg",
            "team": "TUU48M0T1",
            "name": "guyaidelberg",
            "is_restricted": false,
            "is_ultra_restricted": false
        },
        "blocks": [
            {
                "type": "rich_text",
                "block_id": "sFv",
                "elements": [
                    {
                        "type": "rich_text_section",
                        "elements": [
                            {
                                "type": "text",
                                "text": "Shows the peak of infectivity id probably a day or 2 BEFORE symptoms"
                            }
                        ]
                    }
                ]
            }
        ]
    },
    {
        "client_msg_id": "583182be-7301-4e14-a715-72c8bc13c366",
        "type": "message",
        "text": "Bravo, Rachel!",
        "user": "UUPQGNNTV",
        "ts": "1587660818.023600",
        "team": "TUU48M0T1",
        "user_team": "TUU48M0T1",
        "source_team": "TUU48M0T1",
        "user_profile": {
            "avatar_hash": "c28127caf7eb",
            "image_72": "https:\/\/avatars.slack-edge.com\/2020-03-07\/989562470694_c28127caf7ebfe67df97_72.jpg",
            "first_name": "",
            "real_name": "Ellen Jorgensen",
            "display_name": "",
            "team": "TUU48M0T1",
            "name": "ejorgensen",
            "is_restricted": false,
            "is_ultra_restricted": false
        },
        "blocks": [
            {
                "type": "rich_text",
                "block_id": "6dLLt",
                "elements": [
                    {
                        "type": "rich_text_section",
                        "elements": [
                            {
                                "type": "text",
                                "text": "Bravo, Rachel!"
                            }
                        ]
                    }
                ]
            }
        ],
        "reactions": [
            {
                "name": "sweat_smile",
                "users": [
                    "UV1A22N3W"
                ],
                "count": 1
            }
        ]
    },
    {
        "client_msg_id": "ed72901e-14c6-4bca-b8c5-8f7b851572b4",
        "type": "message",
        "text": "And more from NEB. Good info here:\n\n&gt; I don't know if I'd recommend abandoning the N-A set, we see the N2 (and especially N2+E combination) do better but worth testing and confirming in your hand with your workflow. Adding the 40 mM guanidine recommended across the board though. One note on its usage, make sure the stock you use is pH 7-8 when you add it to the colorimetric LAMP mix. We've made stocks that are very acidic and we spike in a little bit of KOH to raise the pH. If too acidic it will change the pH of the LAMP reaction all by itself without any amplification. \n&gt; \n&gt; For concentrations, yes, we're using our M1800 LAMP mix just as suggested, with primer concentrations of 1.6 uM FIP\/BIP, 0.2 uM F3\/B3, 0.4 uM LoopF\/B. If you combine the primer sets use those concentrations for each set. The Guanidine should be added in at 40 mM in the final reaction. We're using 30 minute incubation, but going to 40 minutes can improve the color change and sensitivity depending on your sample. Going out to 60 minutes can lead to some false positives so I don't recommend that.\n&gt; \n&gt; The N2 and E1 sets perform better in our hands vs. the original N-A set. From a recent comparison we did with 50 copies of Twist RNA, the N-A set picked up ~40%, N2 alone 70%, and E1 ~80% but the N2+E1 set was 96%. At 12.5 copies N2 and E1 individually were ~25% positive but the combinations 50%. \n&gt; \n&gt; Hope that helps,\n&gt; Nathan",
        "user": "UV5CCJ9RC",
        "ts": "1587660824.023700",
        "team": "TUU48M0T1",
        "user_team": "TUU48M0T1",
        "source_team": "TUU48M0T1",
        "user_profile": {
            "avatar_hash": "2c79fe05f7e7",
            "image_72": "https:\/\/avatars.slack-edge.com\/2020-03-10\/992653932501_2c79fe05f7e75be19699_72.png",
            "first_name": "Chris",
            "real_name": "Chris Monaco",
            "display_name": "",
            "team": "TUU48M0T1",
            "name": "cmonaco.hr",
            "is_restricted": false,
            "is_ultra_restricted": false
        },
        "blocks": [
            {
                "type": "rich_text",
                "block_id": "apA",
                "elements": [
                    {
                        "type": "rich_text_section",
                        "elements": [
                            {
                                "type": "text",
                                "text": "And more from NEB. Good info here:\n\n"
                            }
                        ]
                    },
                    {
                        "type": "rich_text_quote",
                        "elements": [
                            {
                                "type": "text",
                                "text": "I don't know if I'd recommend abandoning the N-A set, we see the N2 (and especially N2+E combination) do better but worth testing and confirming in your hand with your workflow. Adding the 40 mM guanidine recommended across the board though. One note on its usage, make sure the stock you use is pH 7-8 when you add it to the colorimetric LAMP mix. We've made stocks that are very acidic and we spike in a little bit of KOH to raise the pH. If too acidic it will change the pH of the LAMP reaction all by itself without any amplification. \n\nFor concentrations, yes, we're using our M1800 LAMP mix just as suggested, with primer concentrations of 1.6 uM FIP\/BIP, 0.2 uM F3\/B3, 0.4 uM LoopF\/B. If you combine the primer sets use those concentrations for each set. The Guanidine should be added in at 40 mM in the final reaction. We're using 30 minute incubation, but going to 40 minutes can improve the color change and sensitivity depending on your sample. Going out to 60 minutes can lead to some false positives so I don't recommend that.\n\nThe N2 and E1 sets perform better in our hands vs. the original N-A set. From a recent comparison we did with 50 copies of Twist RNA, the N-A set picked up ~40%, N2 alone 70%, and E1 ~80% but the N2+E1 set was 96%. At 12.5 copies N2 and E1 individually were ~25% positive but the combinations 50%. \n\nHope that helps,\nNathan"
                            }
                        ]
                    }
                ]
            }
        ],
        "thread_ts": "1587660824.023700",
        "reply_count": 2,
        "reply_users_count": 2,
        "latest_reply": "1587670859.026800",
        "reply_users": [
            "UV10KBUQG",
            "U010LNECEHE"
        ],
        "replies": [
            {
                "user": "UV10KBUQG",
                "ts": "1587660969.023900"
            },
            {
                "user": "U010LNECEHE",
                "ts": "1587670859.026800"
            }
        ],
        "subscribed": false,
        "reactions": [
            {
                "name": "heart",
                "users": [
                    "UV10KBUQG",
                    "U0123D6FZ41",
                    "UUWSJTQ67",
                    "U012JRY6Q4A"
                ],
                "count": 4
            }
        ]
    },
    {
        "client_msg_id": "dd397282-e739-459d-b41d-ee858252577a",
        "type": "message",
        "text": "VERY useful!",
        "user": "UV10KBUQG",
        "ts": "1587660969.023900",
        "team": "TUU48M0T1",
        "user_team": "TUU48M0T1",
        "source_team": "TUU48M0T1",
        "user_profile": {
            "avatar_hash": "2deebbf6be3d",
            "image_72": "https:\/\/avatars.slack-edge.com\/2020-03-06\/976932190641_2deebbf6be3d17141d91_72.jpg",
            "first_name": "Sarah",
            "real_name": "Sarah Blossom Ware",
            "display_name": "Sarah Blossom Ware - BioBlaze Community Bio Lab",
            "team": "TUU48M0T1",
            "name": "ware.sarah",
            "is_restricted": false,
            "is_ultra_restricted": false
        },
        "blocks": [
            {
                "type": "rich_text",
                "block_id": "GEn",
                "elements": [
                    {
                        "type": "rich_text_section",
                        "elements": [
                            {
                                "type": "text",
                                "text": "VERY useful!"
                            }
                        ]
                    }
                ]
            }
        ],
        "thread_ts": "1587660824.023700",
        "parent_user_id": "UV5CCJ9RC"
    },
    {
        "client_msg_id": "8c5ca204-99ec-4d37-ba61-6e370605d110",
        "type": "message",
        "text": "Ordering these new primers today, willing to share.",
        "user": "UUPQGNNTV",
        "ts": "1587661502.024400",
        "team": "TUU48M0T1",
        "user_team": "TUU48M0T1",
        "source_team": "TUU48M0T1",
        "user_profile": {
            "avatar_hash": "c28127caf7eb",
            "image_72": "https:\/\/avatars.slack-edge.com\/2020-03-07\/989562470694_c28127caf7ebfe67df97_72.jpg",
            "first_name": "",
            "real_name": "Ellen Jorgensen",
            "display_name": "",
            "team": "TUU48M0T1",
            "name": "ejorgensen",
            "is_restricted": false,
            "is_ultra_restricted": false
        },
        "blocks": [
            {
                "type": "rich_text",
                "block_id": "yEl",
                "elements": [
                    {
                        "type": "rich_text_section",
                        "elements": [
                            {
                                "type": "text",
                                "text": "Ordering these new primers today, willing to share."
                            }
                        ]
                    }
                ]
            }
        ],
        "thread_ts": "1587661502.024400",
        "reply_count": 2,
        "reply_users_count": 2,
        "latest_reply": "1587674239.027600",
        "reply_users": [
            "UV10KBUQG",
            "UV5CCJ9RC"
        ],
        "replies": [
            {
                "user": "UV10KBUQG",
                "ts": "1587663479.025300"
            },
            {
                "user": "UV5CCJ9RC",
                "ts": "1587674239.027600"
            }
        ],
        "subscribed": false,
        "reactions": [
            {
                "name": "heart",
                "users": [
                    "UV10KBUQG"
                ],
                "count": 1
            },
            {
                "name": "+1",
                "users": [
                    "UV1A22N3W"
                ],
                "count": 1
            }
        ]
    },
    {
        "client_msg_id": "1b9efe1a-719c-4f3f-a92a-fe2fec080c36",
        "type": "message",
        "text": "In my budget to my company I assumed at least four sets of primers :grin:",
        "user": "UUPQGNNTV",
        "ts": "1587662540.025100",
        "team": "TUU48M0T1",
        "user_team": "TUU48M0T1",
        "source_team": "TUU48M0T1",
        "user_profile": {
            "avatar_hash": "c28127caf7eb",
            "image_72": "https:\/\/avatars.slack-edge.com\/2020-03-07\/989562470694_c28127caf7ebfe67df97_72.jpg",
            "first_name": "",
            "real_name": "Ellen Jorgensen",
            "display_name": "",
            "team": "TUU48M0T1",
            "name": "ejorgensen",
            "is_restricted": false,
            "is_ultra_restricted": false
        },
        "blocks": [
            {
                "type": "rich_text",
                "block_id": "9v6",
                "elements": [
                    {
                        "type": "rich_text_section",
                        "elements": [
                            {
                                "type": "text",
                                "text": "In my budget to my company I assumed at least four sets of primers "
                            },
                            {
                                "type": "emoji",
                                "name": "grin"
                            }
                        ]
                    }
                ]
            }
        ]
    },
    {
        "client_msg_id": "4dd703c1-3cb8-4860-9922-07e9bf7875b3",
        "type": "message",
        "text": "Yes, please!",
        "user": "UV10KBUQG",
        "ts": "1587663479.025300",
        "team": "TUU48M0T1",
        "user_team": "TUU48M0T1",
        "source_team": "TUU48M0T1",
        "user_profile": {
            "avatar_hash": "2deebbf6be3d",
            "image_72": "https:\/\/avatars.slack-edge.com\/2020-03-06\/976932190641_2deebbf6be3d17141d91_72.jpg",
            "first_name": "Sarah",
            "real_name": "Sarah Blossom Ware",
            "display_name": "Sarah Blossom Ware - BioBlaze Community Bio Lab",
            "team": "TUU48M0T1",
            "name": "ware.sarah",
            "is_restricted": false,
            "is_ultra_restricted": false
        },
        "blocks": [
            {
                "type": "rich_text",
                "block_id": "mIe",
                "elements": [
                    {
                        "type": "rich_text_section",
                        "elements": [
                            {
                                "type": "text",
                                "text": "Yes, please!"
                            }
                        ]
                    }
                ]
            }
        ],
        "thread_ts": "1587661502.024400",
        "parent_user_id": "UUPQGNNTV"
    },
    {
        "client_msg_id": "50d2e78c-6f76-41c7-87c4-3937d1a4c6a1",
        "type": "message",
        "text": "Biosafety cabinet is certified!",
        "user": "UV10KBUQG",
        "ts": "1587664984.026000",
        "team": "TUU48M0T1",
        "user_team": "TUU48M0T1",
        "source_team": "TUU48M0T1",
        "user_profile": {
            "avatar_hash": "2deebbf6be3d",
            "image_72": "https:\/\/avatars.slack-edge.com\/2020-03-06\/976932190641_2deebbf6be3d17141d91_72.jpg",
            "first_name": "Sarah",
            "real_name": "Sarah Blossom Ware",
            "display_name": "Sarah Blossom Ware - BioBlaze Community Bio Lab",
            "team": "TUU48M0T1",
            "name": "ware.sarah",
            "is_restricted": false,
            "is_ultra_restricted": false
        },
        "blocks": [
            {
                "type": "rich_text",
                "block_id": "KV9",
                "elements": [
                    {
                        "type": "rich_text_section",
                        "elements": [
                            {
                                "type": "text",
                                "text": "Biosafety cabinet is certified!"
                            }
                        ]
                    }
                ]
            }
        ],
        "reactions": [
            {
                "name": "slightly_smiling_face",
                "users": [
                    "U010LNECEHE"
                ],
                "count": 1
            },
            {
                "name": "clap",
                "users": [
                    "UV1A22N3W",
                    "U011NSDDEKV",
                    "UV7LUJG1Y"
                ],
                "count": 3
            },
            {
                "name": "heart_eyes",
                "users": [
                    "U010W2Z4MMZ"
                ],
                "count": 1
            }
        ]
    },
    {
        "client_msg_id": "8bc989be-4ed4-4c03-9456-58d0c8b7ae77",
        "type": "message",
        "text": "Woot!",
        "user": "UUPQGNNTV",
        "ts": "1587665000.026200",
        "team": "TUU48M0T1",
        "user_team": "TUU48M0T1",
        "source_team": "TUU48M0T1",
        "user_profile": {
            "avatar_hash": "c28127caf7eb",
            "image_72": "https:\/\/avatars.slack-edge.com\/2020-03-07\/989562470694_c28127caf7ebfe67df97_72.jpg",
            "first_name": "",
            "real_name": "Ellen Jorgensen",
            "display_name": "",
            "team": "TUU48M0T1",
            "name": "ejorgensen",
            "is_restricted": false,
            "is_ultra_restricted": false
        },
        "blocks": [
            {
                "type": "rich_text",
                "block_id": "3Mg",
                "elements": [
                    {
                        "type": "rich_text_section",
                        "elements": [
                            {
                                "type": "text",
                                "text": "Woot!"
                            }
                        ]
                    }
                ]
            }
        ]
    },
    {
        "client_msg_id": "F3CDBECD-D85E-4DC0-925E-67FE04F46B26",
        "type": "message",
        "text": "Super useful! Ty!",
        "user": "U010LNECEHE",
        "ts": "1587670859.026800",
        "team": "TUU48M0T1",
        "user_team": "TUU48M0T1",
        "source_team": "TUU48M0T1",
        "user_profile": {
            "avatar_hash": "58bda3258fcd",
            "image_72": "https:\/\/avatars.slack-edge.com\/2020-03-30\/1036110784064_58bda3258fcd726472e4_72.png",
            "first_name": "Ali",
            "real_name": "Ali Bektaş",
            "display_name": "Ali",
            "team": "TUU48M0T1",
            "name": "cinalibektas",
            "is_restricted": false,
            "is_ultra_restricted": false
        },
        "blocks": [
            {
                "type": "rich_text",
                "block_id": "\/6h",
                "elements": [
                    {
                        "type": "rich_text_section",
                        "elements": [
                            {
                                "type": "text",
                                "text": "Super useful! Ty!"
                            }
                        ]
                    }
                ]
            }
        ],
        "thread_ts": "1587660824.023700",
        "parent_user_id": "UV5CCJ9RC"
    },
    {
        "client_msg_id": "0ED4A29A-3033-4EAF-B018-49397BF720B1",
        "type": "message",
        "text": "I’ll go ahead and place an order for them as well tomorrow.",
        "user": "UV5CCJ9RC",
        "ts": "1587674239.027600",
        "team": "TUU48M0T1",
        "user_team": "TUU48M0T1",
        "source_team": "TUU48M0T1",
        "user_profile": {
            "avatar_hash": "2c79fe05f7e7",
            "image_72": "https:\/\/avatars.slack-edge.com\/2020-03-10\/992653932501_2c79fe05f7e75be19699_72.png",
            "first_name": "Chris",
            "real_name": "Chris Monaco",
            "display_name": "",
            "team": "TUU48M0T1",
            "name": "cmonaco.hr",
            "is_restricted": false,
            "is_ultra_restricted": false
        },
        "blocks": [
            {
                "type": "rich_text",
                "block_id": "79Dj",
                "elements": [
                    {
                        "type": "rich_text_section",
                        "elements": [
                            {
                                "type": "text",
                                "text": "I’ll go ahead and place "
                            },
                            {
                                "type": "text",
                                "text": "an"
                            },
                            {
                                "type": "text",
                                "text": " order for them as well tomorrow."
                            }
                        ]
                    }
                ]
            }
        ],
        "thread_ts": "1587661502.024400",
        "parent_user_id": "UUPQGNNTV",
        "reactions": [
            {
                "name": "heavy_check_mark",
                "users": [
                    "UV10KBUQG"
                ],
                "count": 1
            }
        ]
    },
    {
        "client_msg_id": "40F0E459-A628-465A-BD26-D2E62D2AF9A5",
        "type": "message",
        "text": "more from freegenes! :sunglasses:",
        "user": "UV1A22N3W",
        "ts": "1587707477.029000",
        "team": "TUU48M0T1",
        "user_team": "TUU48M0T1",
        "source_team": "TUU48M0T1",
        "user_profile": {
            "avatar_hash": "71f827776ad6",
            "image_72": "https:\/\/avatars.slack-edge.com\/2020-03-09\/988125642964_71f827776ad610af05a2_72.jpg",
            "first_name": "",
            "real_name": "RachelA",
            "display_name": "RachelA",
            "team": "TUU48M0T1",
            "name": "raronoff",
            "is_restricted": false,
            "is_ultra_restricted": false
        },
        "blocks": [
            {
                "type": "rich_text",
                "block_id": "3Zt",
                "elements": [
                    {
                        "type": "rich_text_section",
                        "elements": [
                            {
                                "type": "text",
                                "text": "more from freegenes! "
                            },
                            {
                                "type": "emoji",
                                "name": "sunglasses"
                            }
                        ]
                    }
                ]
            }
        ]
    }
]