[
    {
        "type": "message",
        "subtype": "bot_message",
        "text": "Bonjour <@U0124142S5R> :flag-fr:",
        "ts": "1587280790.021300",
        "username": "GreetBot",
        "bot_id": "B0100JVEKUG"
    },
    {
        "client_msg_id": "d92792f3-a1b9-46f8-914a-f002c2c3d454",
        "type": "message",
        "text": "Hi everyone",
        "user": "U0124142S5R",
        "ts": "1587280847.021600",
        "team": "TUU48M0T1",
        "user_team": "TUU48M0T1",
        "source_team": "TUU48M0T1",
        "user_profile": {
            "avatar_hash": "g0f399723a68",
            "image_72": "https:\/\/secure.gravatar.com\/avatar\/0f399723a689ffe91da485f696907daa.jpg?s=72&d=https%3A%2F%2Fa.slack-edge.com%2Fdf10d%2Fimg%2Favatars%2Fava_0019-72.png",
            "first_name": "",
            "real_name": "Alina Ng Boyte",
            "display_name": "Alina Ng Boyte",
            "team": "TUU48M0T1",
            "name": "alina",
            "is_restricted": false,
            "is_ultra_restricted": false
        },
        "blocks": [
            {
                "type": "rich_text",
                "block_id": "4yVn",
                "elements": [
                    {
                        "type": "rich_text_section",
                        "elements": [
                            {
                                "type": "text",
                                "text": "Hi everyone"
                            }
                        ]
                    }
                ]
            }
        ],
        "thread_ts": "1587280847.021600",
        "reply_count": 1,
        "reply_users_count": 1,
        "latest_reply": "1587459997.030900",
        "reply_users": [
            "U011B6VLM2A"
        ],
        "replies": [
            {
                "user": "U011B6VLM2A",
                "ts": "1587459997.030900"
            }
        ],
        "subscribed": false
    },
    {
        "type": "message",
        "subtype": "bot_message",
        "text": "Marhaba <@U012419JQPM> :flag-eg:",
        "ts": "1587281679.021800",
        "username": "GreetBot",
        "bot_id": "B0100JVEKUG"
    },
    {
        "type": "message",
        "subtype": "bot_message",
        "text": "Sawadi Kap <@U01243D50RH> :flag-th:",
        "ts": "1587291329.022000",
        "username": "GreetBot",
        "bot_id": "B0100JVEKUG"
    },
    {
        "client_msg_id": "0d076d72-8913-48ae-9117-b9750f36644c",
        "type": "message",
        "text": "<!channel> Hello everyone! Im one of the winners from the HackFromHome event  - Encode Health",
        "user": "U01243D50RH",
        "ts": "1587291645.023400",
        "team": "TUU48M0T1",
        "user_team": "TUU48M0T1",
        "source_team": "TUU48M0T1",
        "user_profile": {
            "avatar_hash": "g02551b11059",
            "image_72": "https:\/\/secure.gravatar.com\/avatar\/02551b11059024af5f89da9dfc17e766.jpg?s=72&d=https%3A%2F%2Fa.slack-edge.com%2Fdf10d%2Fimg%2Favatars%2Fava_0011-72.png",
            "first_name": "",
            "real_name": "cosfantis(opencovid)",
            "display_name": "cosfantis(opencovid)",
            "team": "TUU48M0T1",
            "name": "cosfantis",
            "is_restricted": false,
            "is_ultra_restricted": false
        },
        "blocks": [
            {
                "type": "rich_text",
                "block_id": "fEi",
                "elements": [
                    {
                        "type": "rich_text_section",
                        "elements": [
                            {
                                "type": "broadcast",
                                "range": "channel"
                            },
                            {
                                "type": "text",
                                "text": " Hello everyone! Im one of the winners from the HackFromHome event  - Encode Health"
                            }
                        ]
                    }
                ]
            }
        ]
    },
    {
        "client_msg_id": "0547806a-3e8b-41b4-a6c3-8ffdc7d6ef0d",
        "type": "message",
        "text": "<!channel> - We have developed a system that uses mobile device cameras for capturing identity information (such as driver license information) and COVID test kit information in a single application - the Encode Healthcare Passport. Other associated medical test information can also be stored into the Healthcare Passport for anonymised live geographic analysis and forecasts, through a military grade encrypted database. We look to further develop the technology and scale the encrypted and permissions service, with customisable dashboards associated to healthcare supply chains.",
        "user": "U01243D50RH",
        "ts": "1587291662.023800",
        "team": "TUU48M0T1",
        "user_team": "TUU48M0T1",
        "source_team": "TUU48M0T1",
        "user_profile": {
            "avatar_hash": "g02551b11059",
            "image_72": "https:\/\/secure.gravatar.com\/avatar\/02551b11059024af5f89da9dfc17e766.jpg?s=72&d=https%3A%2F%2Fa.slack-edge.com%2Fdf10d%2Fimg%2Favatars%2Fava_0011-72.png",
            "first_name": "",
            "real_name": "cosfantis(opencovid)",
            "display_name": "cosfantis(opencovid)",
            "team": "TUU48M0T1",
            "name": "cosfantis",
            "is_restricted": false,
            "is_ultra_restricted": false
        },
        "blocks": [
            {
                "type": "rich_text",
                "block_id": "Lg+O",
                "elements": [
                    {
                        "type": "rich_text_section",
                        "elements": [
                            {
                                "type": "broadcast",
                                "range": "channel"
                            },
                            {
                                "type": "text",
                                "text": " - We have developed a system that uses mobile device cameras for capturing identity information (such as driver license information) and COVID test kit information in a single application - the Encode Healthcare Passport. Other associated medical test information can also be stored into the Healthcare Passport for anonymised live geographic analysis and forecasts, through a military grade encrypted database. We look to further develop the technology and scale the encrypted and permissions service, with customisable dashboards associated to healthcare supply chains."
                            }
                        ]
                    }
                ]
            }
        ],
        "thread_ts": "1587291662.023800",
        "reply_count": 1,
        "reply_users_count": 1,
        "latest_reply": "1587291761.024400",
        "reply_users": [
            "UV02WET96"
        ],
        "replies": [
            {
                "user": "UV02WET96",
                "ts": "1587291761.024400"
            }
        ],
        "subscribed": false,
        "reactions": [
            {
                "name": "wave",
                "users": [
                    "UV02WET96",
                    "U0101DKUALV",
                    "UUWPKNE2E",
                    "U01113Y1PLP",
                    "U012ASH0XCM"
                ],
                "count": 5
            }
        ]
    },
    {
        "client_msg_id": "8151F69C-8A22-497B-9B42-B5DC37F4A4A1",
        "type": "message",
        "text": "Hi <@U01243D50RH>! Welcome :) \n",
        "user": "UV02WET96",
        "ts": "1587291761.024400",
        "team": "TUU48M0T1",
        "user_team": "TUU48M0T1",
        "source_team": "TUU48M0T1",
        "user_profile": {
            "avatar_hash": "a99c74a194f8",
            "image_72": "https:\/\/avatars.slack-edge.com\/2020-03-07\/975708504851_a99c74a194f86715ca7d_72.png",
            "first_name": "Thomas",
            "real_name": "Thomas Landrain",
            "display_name": "Thomas Landrain - JOGL CoFounder \/ CEO",
            "team": "TUU48M0T1",
            "name": "thomas",
            "is_restricted": false,
            "is_ultra_restricted": false
        },
        "blocks": [
            {
                "type": "rich_text",
                "block_id": "Yra1",
                "elements": [
                    {
                        "type": "rich_text_section",
                        "elements": [
                            {
                                "type": "text",
                                "text": "Hi "
                            },
                            {
                                "type": "user",
                                "user_id": "U01243D50RH"
                            },
                            {
                                "type": "text",
                                "text": "! Welcome :) \n"
                            }
                        ]
                    }
                ]
            }
        ],
        "thread_ts": "1587291662.023800",
        "parent_user_id": "U01243D50RH"
    },
    {
        "client_msg_id": "c056cc23-d1a6-4997-8165-a70da773e4a4",
        "type": "message",
        "text": "Hi <@UV02WET96>\n<@UUUEFQW8N> <@UV0QTJCMT> Holoand @I think Ive done what I need to do but as instructed on the document: <https:\/\/docs.google.com\/document\/d\/1Udagi-PSsiUT4pv1DVnxRbaYyyq754xCAG7IX1ASm5w\/edit#> to receive the grant funding. Any help for next steps is appreciated!",
        "user": "U01243D50RH",
        "ts": "1587292483.027200",
        "team": "TUU48M0T1",
        "user_team": "TUU48M0T1",
        "source_team": "TUU48M0T1",
        "user_profile": {
            "avatar_hash": "g02551b11059",
            "image_72": "https:\/\/secure.gravatar.com\/avatar\/02551b11059024af5f89da9dfc17e766.jpg?s=72&d=https%3A%2F%2Fa.slack-edge.com%2Fdf10d%2Fimg%2Favatars%2Fava_0011-72.png",
            "first_name": "",
            "real_name": "cosfantis(opencovid)",
            "display_name": "cosfantis(opencovid)",
            "team": "TUU48M0T1",
            "name": "cosfantis",
            "is_restricted": false,
            "is_ultra_restricted": false
        },
        "blocks": [
            {
                "type": "rich_text",
                "block_id": "zOQ3v",
                "elements": [
                    {
                        "type": "rich_text_section",
                        "elements": [
                            {
                                "type": "text",
                                "text": "Hi "
                            },
                            {
                                "type": "user",
                                "user_id": "UV02WET96"
                            },
                            {
                                "type": "text",
                                "text": "\n"
                            },
                            {
                                "type": "user",
                                "user_id": "UUUEFQW8N"
                            },
                            {
                                "type": "text",
                                "text": " "
                            },
                            {
                                "type": "user",
                                "user_id": "UV0QTJCMT"
                            },
                            {
                                "type": "text",
                                "text": " Holoand @I think Ive done what I need to do but as instructed on the document: "
                            },
                            {
                                "type": "link",
                                "url": "https:\/\/docs.google.com\/document\/d\/1Udagi-PSsiUT4pv1DVnxRbaYyyq754xCAG7IX1ASm5w\/edit#"
                            },
                            {
                                "type": "text",
                                "text": " to receive the grant funding. Any help for next steps is appreciated!"
                            }
                        ]
                    }
                ]
            }
        ],
        "thread_ts": "1587292483.027200",
        "reply_count": 2,
        "reply_users_count": 2,
        "latest_reply": "1587726146.057500",
        "reply_users": [
            "UV02WET96",
            "U01243D50RH"
        ],
        "replies": [
            {
                "user": "UV02WET96",
                "ts": "1587293345.027900"
            },
            {
                "user": "U01243D50RH",
                "ts": "1587726146.057500"
            }
        ],
        "subscribed": true,
        "last_read": "1587292483.027200"
    },
    {
        "client_msg_id": "CB1E0731-9242-455C-9EA7-F87BCA42AB38",
        "type": "message",
        "text": "Have you created a JOGL project page yet where we can see your application ?",
        "user": "UV02WET96",
        "ts": "1587293345.027900",
        "team": "TUU48M0T1",
        "user_team": "TUU48M0T1",
        "source_team": "TUU48M0T1",
        "user_profile": {
            "avatar_hash": "a99c74a194f8",
            "image_72": "https:\/\/avatars.slack-edge.com\/2020-03-07\/975708504851_a99c74a194f86715ca7d_72.png",
            "first_name": "Thomas",
            "real_name": "Thomas Landrain",
            "display_name": "Thomas Landrain - JOGL CoFounder \/ CEO",
            "team": "TUU48M0T1",
            "name": "thomas",
            "is_restricted": false,
            "is_ultra_restricted": false
        },
        "blocks": [
            {
                "type": "rich_text",
                "block_id": "vzDjA",
                "elements": [
                    {
                        "type": "rich_text_section",
                        "elements": [
                            {
                                "type": "text",
                                "text": "Have you created a JOGL project page yet where we can see your application ?"
                            }
                        ]
                    }
                ]
            }
        ],
        "thread_ts": "1587292483.027200",
        "parent_user_id": "U01243D50RH"
    },
    {
        "type": "message",
        "subtype": "bot_message",
        "text": "Nǐ hǎo <@U011X8L2UGN> :flag-cn:",
        "ts": "1587305435.028600",
        "username": "GreetBot",
        "bot_id": "B0100JVEKUG"
    },
    {
        "type": "message",
        "subtype": "bot_message",
        "text": "Hola <@U012A7FCA9J> :flag-es:",
        "ts": "1587312093.028800",
        "username": "GreetBot",
        "bot_id": "B0100JVEKUG"
    },
    {
        "type": "message",
        "subtype": "bot_message",
        "text": "Ohayo <@U012U74N1FA> :flag-jp:",
        "ts": "1587347562.029100",
        "username": "GreetBot",
        "bot_id": "B0100JVEKUG"
    }
]