[
    {
        "type": "message",
        "subtype": "bot_message",
        "text": "Nǐ hǎo <@U010HGKFDNE> :flag-cn:",
        "ts": "1585294521.070200",
        "username": "GreetBot",
        "bot_id": "B0100JVEKUG"
    },
    {
        "client_msg_id": "074d0b36-d930-4d09-9f9f-11ab1a147bf5",
        "type": "message",
        "text": "Hello! I'm Evangeline, I'm a product designer with a graphic design \/ visual communications background. I have experience designing for medtech web app product using AI. I can work on UI\/UX\/Branding\/Logo\/Web design\/Mobile design etc. I work for a start up in SF South Bay. Just graduated from Singapore, happy to help wherever I can! :relaxed:",
        "user": "U010HGKFDNE",
        "ts": "1585294650.072300",
        "team": "TUU48M0T1",
        "user_team": "TUU48M0T1",
        "source_team": "TUU48M0T1",
        "user_profile": {
            "avatar_hash": "168a8764c68c",
            "image_72": "https:\/\/avatars.slack-edge.com\/2020-03-27\/1030474372304_168a8764c68cd6e9af14_72.png",
            "first_name": "Evangeline",
            "real_name": "Evangeline - JOGL UX\/UI",
            "display_name": "Evangeline Ng",
            "team": "TUU48M0T1",
            "name": "irrelevandesign",
            "is_restricted": false,
            "is_ultra_restricted": false
        },
        "blocks": [
            {
                "type": "rich_text",
                "block_id": "Wfld8",
                "elements": [
                    {
                        "type": "rich_text_section",
                        "elements": [
                            {
                                "type": "text",
                                "text": "Hello! I'm Evangeline, I'm a product designer with a graphic design \/ visual communications background. I have experience designing for medtech web app product using AI. I can work on UI\/UX\/Branding\/Logo\/Web design\/Mobile design etc. I work for a start up in SF South Bay. Just graduated from Singapore, happy to help wherever I can! "
                            },
                            {
                                "type": "emoji",
                                "name": "relaxed"
                            }
                        ]
                    }
                ]
            }
        ],
        "thread_ts": "1585294650.072300",
        "reply_count": 1,
        "reply_users_count": 1,
        "latest_reply": "1585332112.101200",
        "reply_users": [
            "U010566NJHG"
        ],
        "replies": [
            {
                "user": "U010566NJHG",
                "ts": "1585332112.101200"
            }
        ],
        "subscribed": false,
        "reactions": [
            {
                "name": "wave",
                "users": [
                    "UV8T52QJ3",
                    "UUWPKNE2E"
                ],
                "count": 2
            },
            {
                "name": "+1",
                "users": [
                    "U010566NJHG",
                    "U010NTVJ08Z"
                ],
                "count": 2
            }
        ]
    },
    {
        "type": "message",
        "subtype": "bot_message",
        "text": "Olá <@U010K7L2U91> :flag-pt:",
        "ts": "1585303054.073000",
        "username": "GreetBot",
        "bot_id": "B0100JVEKUG"
    },
    {
        "type": "message",
        "subtype": "bot_message",
        "text": "Bonjour <@U010W8NMRBN> :flag-fr:",
        "ts": "1585304474.073300",
        "username": "GreetBot",
        "bot_id": "B0100JVEKUG"
    },
    {
        "client_msg_id": "a0b8fd06-9215-4402-b4fc-1515196c08d7",
        "type": "message",
        "text": "hi everyone, trying to propose one more mask design for the challenge? Is that still possible? This one has been made by a Bordeaux team in collaboration ith Pellegrin Hospital... they have made 500 of them yesterday.",
        "user": "U010K7L2U91",
        "ts": "1585307177.075500",
        "team": "TUU48M0T1",
        "user_team": "TUU48M0T1",
        "source_team": "TUU48M0T1",
        "user_profile": {
            "avatar_hash": "g07daf8b0528",
            "image_72": "https:\/\/secure.gravatar.com\/avatar\/07daf8b0528e1a681887962c8b8326ff.jpg?s=72&d=https%3A%2F%2Fa.slack-edge.com%2Fdf10d%2Fimg%2Favatars%2Fava_0025-72.png",
            "first_name": "",
            "real_name": "nicus",
            "display_name": "nicus",
            "team": "TUU48M0T1",
            "name": "clementnico",
            "is_restricted": false,
            "is_ultra_restricted": false
        },
        "blocks": [
            {
                "type": "rich_text",
                "block_id": "5jc3q",
                "elements": [
                    {
                        "type": "rich_text_section",
                        "elements": [
                            {
                                "type": "text",
                                "text": "hi everyone, trying to propose one more mask design for the challenge? Is that still possible? This one has been made by a Bordeaux team in collaboration ith Pellegrin Hospital... they have made 500 of them yesterday."
                            }
                        ]
                    }
                ]
            }
        ]
    },
    {
        "client_msg_id": "8a6d8278-91b4-42bd-a679-901eca30092b",
        "type": "message",
        "text": "What I pretend to understand : I have to fill one more line in this googledoc : <https:\/\/docs.google.com\/spreadsheets\/d\/1e81ceSrVT6Bl4UaS1SxIUUUzgZAdkIstU7Hzot08Ld8\/edit#gid=46475755>",
        "user": "U010K7L2U91",
        "ts": "1585307317.076900",
        "team": "TUU48M0T1",
        "user_team": "TUU48M0T1",
        "source_team": "TUU48M0T1",
        "user_profile": {
            "avatar_hash": "g07daf8b0528",
            "image_72": "https:\/\/secure.gravatar.com\/avatar\/07daf8b0528e1a681887962c8b8326ff.jpg?s=72&d=https%3A%2F%2Fa.slack-edge.com%2Fdf10d%2Fimg%2Favatars%2Fava_0025-72.png",
            "first_name": "",
            "real_name": "nicus",
            "display_name": "nicus",
            "team": "TUU48M0T1",
            "name": "clementnico",
            "is_restricted": false,
            "is_ultra_restricted": false
        },
        "blocks": [
            {
                "type": "rich_text",
                "block_id": "0sJu",
                "elements": [
                    {
                        "type": "rich_text_section",
                        "elements": [
                            {
                                "type": "text",
                                "text": "What I pretend to understand : I have to fill one more line in this googledoc : "
                            },
                            {
                                "type": "link",
                                "url": "https:\/\/docs.google.com\/spreadsheets\/d\/1e81ceSrVT6Bl4UaS1SxIUUUzgZAdkIstU7Hzot08Ld8\/edit#gid=46475755"
                            }
                        ]
                    }
                ]
            }
        ],
        "thread_ts": "1585307317.076900",
        "reply_count": 1,
        "reply_users_count": 1,
        "latest_reply": "1585316409.077900",
        "reply_users": [
            "UVADMLUB0"
        ],
        "replies": [
            {
                "user": "UVADMLUB0",
                "ts": "1585316409.077900"
            }
        ],
        "subscribed": false
    },
    {
        "type": "message",
        "subtype": "bot_message",
        "text": "Nǐ hǎo <@U010WBRRQN8> :flag-cn:",
        "ts": "1585307705.077400",
        "username": "GreetBot",
        "bot_id": "B0100JVEKUG"
    },
    {
        "type": "message",
        "subtype": "bot_message",
        "text": "Dobryy den’ <@U010Z2UTY2J> :flag-ua:",
        "ts": "1585316258.077800",
        "username": "GreetBot",
        "bot_id": "B0100JVEKUG"
    },
    {
        "client_msg_id": "7f6e9d78-da30-474e-9e47-a7592710b0b2",
        "type": "message",
        "text": "You are correct.",
        "user": "UVADMLUB0",
        "ts": "1585316409.077900",
        "team": "TUU48M0T1",
        "user_team": "TUU48M0T1",
        "source_team": "TUU48M0T1",
        "user_profile": {
            "avatar_hash": "14179705705a",
            "image_72": "https:\/\/avatars.slack-edge.com\/2020-03-11\/981468022482_14179705705a94b3db16_72.jpg",
            "first_name": "Bill",
            "real_name": "Bill Slavin",
            "display_name": "Bill Slavin- Executive Director, Indie Lab",
            "team": "TUU48M0T1",
            "name": "bill",
            "is_restricted": false,
            "is_ultra_restricted": false
        },
        "blocks": [
            {
                "type": "rich_text",
                "block_id": "XKRQ",
                "elements": [
                    {
                        "type": "rich_text_section",
                        "elements": [
                            {
                                "type": "text",
                                "text": "You are correct."
                            }
                        ]
                    }
                ]
            }
        ],
        "thread_ts": "1585307317.076900",
        "parent_user_id": "U010K7L2U91"
    },
    {
        "client_msg_id": "19635e98-a332-46d1-818c-74f124bb07d8",
        "type": "message",
        "text": "Hi! I’m Léonard (Paris region, :fr:), I have graduated from MSc in biotech \/ cell biology last year and have a limited experience both in wet lab (Biochemistry, McGill) and in life sciences consulting (business development\/regulatory\/IP - working mainly with medical devices and biotech companies). Currently working at a stem cells biotech (from home) and registered to start a Master of Public Health next semester (which sounds very fitting to the current context…). Happy to help where I can be useful :blush:",
        "user": "U010Z2UTY2J",
        "ts": "1585316955.083700",
        "team": "TUU48M0T1",
        "user_team": "TUU48M0T1",
        "source_team": "TUU48M0T1",
        "user_profile": {
            "avatar_hash": "c97393c1b3b4",
            "image_72": "https:\/\/avatars.slack-edge.com\/2020-03-27\/1021223553937_c97393c1b3b42d870992_72.jpg",
            "first_name": "",
            "real_name": "Léonard Raimbault",
            "display_name": "Léonard Raimbault",
            "team": "TUU48M0T1",
            "name": "leonard.raimbault",
            "is_restricted": false,
            "is_ultra_restricted": false
        },
        "edited": {
            "user": "U010Z2UTY2J",
            "ts": "1585318464.000000"
        },
        "blocks": [
            {
                "type": "rich_text",
                "block_id": "oful",
                "elements": [
                    {
                        "type": "rich_text_section",
                        "elements": [
                            {
                                "type": "text",
                                "text": "Hi! I’m Léonard (Paris region, "
                            },
                            {
                                "type": "emoji",
                                "name": "fr"
                            },
                            {
                                "type": "text",
                                "text": "), I have graduated from MSc in biotech \/ cell biology last year and have a limited experience both in wet lab (Biochemistry, McGill) and in life sciences consulting (business development\/regulatory\/IP - working mainly with medical devices and biotech companies). Currently working at a stem cells biotech (from home) and registered to start a Master of Public Health next semester (which sounds very fitting to the current context…). Happy to help where I can be useful "
                            },
                            {
                                "type": "emoji",
                                "name": "blush"
                            }
                        ]
                    }
                ]
            }
        ],
        "thread_ts": "1585316955.083700",
        "reply_count": 1,
        "reply_users_count": 1,
        "latest_reply": "1585332455.102300",
        "reply_users": [
            "U010566NJHG"
        ],
        "replies": [
            {
                "user": "U010566NJHG",
                "ts": "1585332455.102300"
            }
        ],
        "subscribed": false,
        "reactions": [
            {
                "name": "wave",
                "users": [
                    "UV02WET96"
                ],
                "count": 1
            },
            {
                "name": "+1",
                "users": [
                    "U010566NJHG"
                ],
                "count": 1
            }
        ]
    },
    {
        "type": "message",
        "subtype": "bot_message",
        "text": "Ciao <@U010YA82ESJ> :flag-it:",
        "ts": "1585318144.083900",
        "username": "GreetBot",
        "bot_id": "B0100JVEKUG"
    },
    {
        "client_msg_id": "d6546451-8047-4a30-9a91-3c466c592668",
        "type": "message",
        "text": "Hi! I’m a Product Designer with Front End Dev experience, can check out some of my previous work ( haven’t updated in a couple of years because of NDA ) to see if I can help <https:\/\/dribbble.com\/brett_marshall>",
        "user": "U010YA82ESJ",
        "ts": "1585318513.085000",
        "team": "TUU48M0T1",
        "user_team": "TUU48M0T1",
        "source_team": "TUU48M0T1",
        "user_profile": {
            "avatar_hash": "g3d19697fad0",
            "image_72": "https:\/\/secure.gravatar.com\/avatar\/3d19697fad09e30bc0dd64bfeb47a28e.jpg?s=72&d=https%3A%2F%2Fa.slack-edge.com%2Fdf10d%2Fimg%2Favatars%2Fava_0012-72.png",
            "first_name": "Brett",
            "real_name": "Brett Marshall",
            "display_name": "Brett",
            "team": "TUU48M0T1",
            "name": "graphfx21",
            "is_restricted": false,
            "is_ultra_restricted": false
        },
        "attachments": [
            {
                "service_name": "Dribbble",
                "title": "Brett Marshall",
                "title_link": "https:\/\/dribbble.com\/brett_marshall",
                "text": "Hello! I’m UX\/UI Designer. I've run UX workshops and managed multidisciplinary teams. I've also worked with The YMCA, Surfrider and Nutanix.",
                "fallback": "Dribbble: Brett Marshall",
                "image_url": "https:\/\/cdn.dribbble.com\/users\/498340\/screenshots\/3852095\/dribbble_0.5x.jpg",
                "image_width": 333,
                "image_height": 250,
                "fields": [
                    {
                        "title": "Dribbbled by",
                        "value": "@brett_marshall",
                        "short": true
                    },
                    {
                        "title": "Team",
                        "value": "@madebygrizzly",
                        "short": true
                    }
                ],
                "from_url": "https:\/\/dribbble.com\/brett_marshall",
                "image_bytes": 71628,
                "id": 1,
                "original_url": "https:\/\/dribbble.com\/brett_marshall"
            }
        ],
        "blocks": [
            {
                "type": "rich_text",
                "block_id": "LhH",
                "elements": [
                    {
                        "type": "rich_text_section",
                        "elements": [
                            {
                                "type": "text",
                                "text": "Hi! I’m a Product Designer with Front End Dev experience, can check out some of my previous work ( haven’t updated in a couple of years because of NDA ) to see if I can help "
                            },
                            {
                                "type": "link",
                                "url": "https:\/\/dribbble.com\/brett_marshall"
                            }
                        ]
                    }
                ]
            }
        ],
        "thread_ts": "1585318513.085000",
        "reply_count": 2,
        "reply_users_count": 2,
        "latest_reply": "1585332416.102100",
        "reply_users": [
            "U010566NJHG",
            "U010YA82ESJ"
        ],
        "replies": [
            {
                "user": "U010566NJHG",
                "ts": "1585332396.101900"
            },
            {
                "user": "U010YA82ESJ",
                "ts": "1585332416.102100"
            }
        ],
        "subscribed": false,
        "reactions": [
            {
                "name": "wave",
                "users": [
                    "UUWPKNE2E",
                    "UV02WET96",
                    "U010HGKFDNE"
                ],
                "count": 3
            },
            {
                "name": "+1",
                "users": [
                    "U010566NJHG"
                ],
                "count": 1
            }
        ]
    },
    {
        "type": "message",
        "subtype": "bot_message",
        "text": "Dobryy den’ <@U010WRFC13N> :flag-ua:",
        "ts": "1585319083.085600",
        "username": "GreetBot",
        "bot_id": "B0100JVEKUG"
    },
    {
        "type": "message",
        "subtype": "bot_message",
        "text": "Sawadi Kap <@U010MCDGN9F> :flag-th:",
        "ts": "1585321049.085900",
        "username": "GreetBot",
        "bot_id": "B0100JVEKUG"
    },
    {
        "type": "message",
        "subtype": "bot_message",
        "text": "Sawadi Kap <@U010L5Y9A0K> :flag-th:",
        "ts": "1585324882.087300",
        "username": "GreetBot",
        "bot_id": "B0100JVEKUG"
    },
    {
        "type": "message",
        "subtype": "bot_message",
        "text": "Nǐ hǎo <@U010MLYPQGH> :flag-cn:",
        "ts": "1585325952.087600",
        "username": "GreetBot",
        "bot_id": "B0100JVEKUG"
    },
    {
        "type": "message",
        "subtype": "bot_message",
        "text": "Hérete <@U010L8GHA4B> :flag-gr:",
        "ts": "1585326451.087900",
        "username": "GreetBot",
        "bot_id": "B0100JVEKUG"
    },
    {
        "type": "message",
        "subtype": "bot_message",
        "text": "Nǐ hǎo <@U010MNDL0EM> :flag-cn:",
        "ts": "1585326842.088200",
        "username": "GreetBot",
        "bot_id": "B0100JVEKUG"
    },
    {
        "type": "message",
        "subtype": "bot_message",
        "text": "Guten tag <@U010X9FPMS8> :flag-de:",
        "ts": "1585327302.088900",
        "username": "GreetBot",
        "bot_id": "B0100JVEKUG"
    },
    {
        "client_msg_id": "5e33bd7f-8de4-4e04-a4fe-b60f4878a69b",
        "type": "message",
        "text": "Hi. I would like to do clinical testing of the test kit in Germany, ideally starting next Wednesday. Is there a test already?",
        "user": "U010X9FPMS8",
        "ts": "1585327353.089700",
        "team": "TUU48M0T1",
        "user_team": "TUU48M0T1",
        "source_team": "TUU48M0T1",
        "user_profile": {
            "avatar_hash": "faff4edf8af2",
            "image_72": "https:\/\/avatars.slack-edge.com\/2020-03-27\/1031471711236_faff4edf8af2cc7b11dd_72.jpg",
            "first_name": "Florian",
            "real_name": "Florian Schulte",
            "display_name": "Florian Schulte",
            "team": "TUU48M0T1",
            "name": "schulte.florian",
            "is_restricted": false,
            "is_ultra_restricted": false
        },
        "blocks": [
            {
                "type": "rich_text",
                "block_id": "=MUB",
                "elements": [
                    {
                        "type": "rich_text_section",
                        "elements": [
                            {
                                "type": "text",
                                "text": "Hi. I would like to do clinical testing of the test kit in Germany, ideally starting next Wednesday. Is there a test already?"
                            }
                        ]
                    }
                ]
            }
        ],
        "thread_ts": "1585327353.089700",
        "reply_count": 1,
        "reply_users_count": 1,
        "latest_reply": "1585331719.101000",
        "reply_users": [
            "UV02WET96"
        ],
        "replies": [
            {
                "user": "UV02WET96",
                "ts": "1585331719.101000"
            }
        ],
        "subscribed": false,
        "reactions": [
            {
                "name": "wave",
                "users": [
                    "UV02WET96"
                ],
                "count": 1
            }
        ]
    },
    {
        "type": "message",
        "subtype": "bot_message",
        "text": "Hérete <@U010GD44692> :flag-gr:",
        "ts": "1585327846.093800",
        "username": "GreetBot",
        "bot_id": "B0100JVEKUG"
    },
    {
        "client_msg_id": "542cc6d5-3ac3-4f79-82b2-1487c02bd192",
        "type": "message",
        "text": "Hi everyone! I'm Vadym, software engineer based in Germany. My experience mostly predominates in Frontend (complex UIs, data visualisation, dashboards etc.), but I'm as well experienced in Backend, mobile development (React Native, Flutter) &amp; a bit of DevOps (mostly AWS). I'm very excited to help you fighting ongoing pandemia with everything I can. :hugging_face:",
        "user": "U010L5Y9A0K",
        "ts": "1585328193.096500",
        "team": "TUU48M0T1",
        "user_team": "TUU48M0T1",
        "source_team": "TUU48M0T1",
        "user_profile": {
            "avatar_hash": "gdf6884894c6",
            "image_72": "https:\/\/secure.gravatar.com\/avatar\/3a1fc8a644265ccf57a6f108752adba8.jpg?s=72&d=https%3A%2F%2Fa.slack-edge.com%2Fdf10d%2Fimg%2Favatars%2Fava_0011-72.png",
            "first_name": "",
            "real_name": "Vadym K",
            "display_name": "Vadym K",
            "team": "TUU48M0T1",
            "name": "vadikace",
            "is_restricted": false,
            "is_ultra_restricted": false
        },
        "blocks": [
            {
                "type": "rich_text",
                "block_id": "qyA",
                "elements": [
                    {
                        "type": "rich_text_section",
                        "elements": [
                            {
                                "type": "text",
                                "text": "Hi everyone! I'm Vadym, software engineer based in Germany. My experience mostly predominates in Frontend (complex UIs, data visualisation, dashboards etc.), but I'm as well experienced in Backend, mobile development (React Native, Flutter) & a bit of DevOps (mostly AWS). I'm very excited to help you fighting ongoing pandemia with everything I can. "
                            },
                            {
                                "type": "emoji",
                                "name": "hugging_face"
                            }
                        ]
                    }
                ]
            }
        ],
        "thread_ts": "1585328193.096500",
        "reply_count": 1,
        "reply_users_count": 1,
        "latest_reply": "1585332361.101700",
        "reply_users": [
            "U010566NJHG"
        ],
        "replies": [
            {
                "user": "U010566NJHG",
                "ts": "1585332361.101700"
            }
        ],
        "subscribed": false,
        "reactions": [
            {
                "name": "+1",
                "users": [
                    "U010566NJHG"
                ],
                "count": 1
            },
            {
                "name": "wave",
                "users": [
                    "UV02WET96"
                ],
                "count": 1
            }
        ]
    },
    {
        "type": "message",
        "subtype": "bot_message",
        "text": "Sawadi Kap <@U010LD2N0P5> :flag-th:",
        "ts": "1585329102.097000",
        "username": "GreetBot",
        "bot_id": "B0100JVEKUG"
    },
    {
        "type": "message",
        "subtype": "bot_message",
        "text": "Sawadi Kap <@U010WDF7UAC> :flag-th:",
        "ts": "1585329886.097100",
        "username": "GreetBot",
        "bot_id": "B0100JVEKUG"
    },
    {
        "client_msg_id": "54186410-afe9-46e0-aa4f-7c889c15c101",
        "type": "message",
        "text": "Hi I am Karolina. I am amateur of biology, self-thought and passionate about molecular biology and genetics. I have design skills and basic lab skills. Currently I am also analyzing and thinking about current pandemic from more meta\/anthropological point of view. I am excited to be here and contribute to our mutual fight.",
        "user": "UVCS0865Q",
        "ts": "1585331033.100300",
        "team": "TUU48M0T1",
        "user_team": "TUU48M0T1",
        "source_team": "TUU48M0T1",
        "user_profile": {
            "avatar_hash": "02067676ba06",
            "image_72": "https:\/\/avatars.slack-edge.com\/2020-04-01\/1028835450754_02067676ba06735a0151_72.png",
            "first_name": "Karolina",
            "real_name": "Karolina",
            "display_name": "",
            "team": "TUU48M0T1",
            "name": "sulichkarolina",
            "is_restricted": false,
            "is_ultra_restricted": false
        },
        "blocks": [
            {
                "type": "rich_text",
                "block_id": "0+1gm",
                "elements": [
                    {
                        "type": "rich_text_section",
                        "elements": [
                            {
                                "type": "text",
                                "text": "Hi I am Karolina. I am amateur of biology, self-thought and passionate about molecular biology and genetics. I have design skills and basic lab skills. Currently I am also analyzing and thinking about current pandemic from more meta\/anthropological point of view. I am excited to be here and contribute to our mutual fight."
                            }
                        ]
                    }
                ]
            }
        ],
        "thread_ts": "1585331033.100300",
        "reply_count": 1,
        "reply_users_count": 1,
        "latest_reply": "1585332178.101500",
        "reply_users": [
            "U010566NJHG"
        ],
        "replies": [
            {
                "user": "U010566NJHG",
                "ts": "1585332178.101500"
            }
        ],
        "subscribed": false,
        "reactions": [
            {
                "name": "+1",
                "users": [
                    "U010566NJHG",
                    "U010HGKFDNE"
                ],
                "count": 2
            },
            {
                "name": "wave",
                "users": [
                    "UV02WET96"
                ],
                "count": 1
            }
        ]
    },
    {
        "client_msg_id": "f31aff74-97f8-477a-a8d8-80cb6093f446",
        "type": "message",
        "text": "Hi Florian, it is still in developement :ok_hand:",
        "user": "UV02WET96",
        "ts": "1585331719.101000",
        "team": "TUU48M0T1",
        "user_team": "TUU48M0T1",
        "source_team": "TUU48M0T1",
        "user_profile": {
            "avatar_hash": "a99c74a194f8",
            "image_72": "https:\/\/avatars.slack-edge.com\/2020-03-07\/975708504851_a99c74a194f86715ca7d_72.png",
            "first_name": "Thomas",
            "real_name": "Thomas Landrain",
            "display_name": "Thomas Landrain - JOGL CoFounder \/ CEO",
            "team": "TUU48M0T1",
            "name": "thomas",
            "is_restricted": false,
            "is_ultra_restricted": false
        },
        "blocks": [
            {
                "type": "rich_text",
                "block_id": "b3zbc",
                "elements": [
                    {
                        "type": "rich_text_section",
                        "elements": [
                            {
                                "type": "text",
                                "text": "Hi Florian, it is still in developement "
                            },
                            {
                                "type": "emoji",
                                "name": "ok_hand"
                            }
                        ]
                    }
                ]
            }
        ],
        "thread_ts": "1585327353.089700",
        "parent_user_id": "U010X9FPMS8"
    },
    {
        "client_msg_id": "22324af5-470f-4af1-ad1f-83d2efec30f9",
        "type": "message",
        "text": "<https:\/\/app.jogl.io\/needs\/173>",
        "user": "U010566NJHG",
        "ts": "1585332112.101200",
        "team": "TUU48M0T1",
        "user_team": "TUU48M0T1",
        "source_team": "TUU48M0T1",
        "user_profile": {
            "avatar_hash": "103225790dbb",
            "image_72": "https:\/\/avatars.slack-edge.com\/2020-03-23\/1018037453952_103225790dbb62abe3e8_72.jpg",
            "first_name": "Avi",
            "real_name": "Avi Khalil",
            "display_name": "Avi",
            "team": "TUU48M0T1",
            "name": "kavb",
            "is_restricted": false,
            "is_ultra_restricted": false
        },
        "attachments": [
            {
                "title": "JOGL - Just One Giant Lab",
                "title_link": "https:\/\/app.jogl.io\/needs\/173",
                "text": "JOGL helps sync humanity onto solving our most important social &amp; environmental problems using open science, responsible innovation &amp; continuous learning.",
                "fallback": "JOGL - Just One Giant Lab",
                "thumb_url": "https:\/\/app.jogl.io\/planet.jpg",
                "from_url": "https:\/\/app.jogl.io\/needs\/173",
                "thumb_width": 2049,
                "thumb_height": 1011,
                "service_icon": "https:\/\/app.jogl.io\/favicon.ico",
                "service_name": "app.jogl.io",
                "id": 1,
                "original_url": "https:\/\/app.jogl.io\/needs\/173"
            }
        ],
        "blocks": [
            {
                "type": "rich_text",
                "block_id": "Cele",
                "elements": [
                    {
                        "type": "rich_text_section",
                        "elements": [
                            {
                                "type": "link",
                                "url": "https:\/\/app.jogl.io\/needs\/173"
                            }
                        ]
                    }
                ]
            }
        ],
        "thread_ts": "1585294650.072300",
        "parent_user_id": "U010HGKFDNE"
    },
    {
        "client_msg_id": "ea49af2f-6def-4a65-a15c-511491f3fd0e",
        "type": "message",
        "text": "Theres some anthropologists in proj-community-testing :)",
        "user": "U010566NJHG",
        "ts": "1585332178.101500",
        "team": "TUU48M0T1",
        "user_team": "TUU48M0T1",
        "source_team": "TUU48M0T1",
        "user_profile": {
            "avatar_hash": "103225790dbb",
            "image_72": "https:\/\/avatars.slack-edge.com\/2020-03-23\/1018037453952_103225790dbb62abe3e8_72.jpg",
            "first_name": "Avi",
            "real_name": "Avi Khalil",
            "display_name": "Avi",
            "team": "TUU48M0T1",
            "name": "kavb",
            "is_restricted": false,
            "is_ultra_restricted": false
        },
        "blocks": [
            {
                "type": "rich_text",
                "block_id": "Lr1",
                "elements": [
                    {
                        "type": "rich_text_section",
                        "elements": [
                            {
                                "type": "text",
                                "text": "Theres some anthropologists in proj-community-testing :)"
                            }
                        ]
                    }
                ]
            }
        ],
        "thread_ts": "1585331033.100300",
        "parent_user_id": "UVCS0865Q"
    },
    {
        "client_msg_id": "b5b8a69b-4dfe-49b3-850e-eb01ae3fea05",
        "type": "message",
        "text": "Probably want to head over to proj-dev-team :)",
        "user": "U010566NJHG",
        "ts": "1585332361.101700",
        "team": "TUU48M0T1",
        "user_team": "TUU48M0T1",
        "source_team": "TUU48M0T1",
        "user_profile": {
            "avatar_hash": "103225790dbb",
            "image_72": "https:\/\/avatars.slack-edge.com\/2020-03-23\/1018037453952_103225790dbb62abe3e8_72.jpg",
            "first_name": "Avi",
            "real_name": "Avi Khalil",
            "display_name": "Avi",
            "team": "TUU48M0T1",
            "name": "kavb",
            "is_restricted": false,
            "is_ultra_restricted": false
        },
        "blocks": [
            {
                "type": "rich_text",
                "block_id": "AqUnx",
                "elements": [
                    {
                        "type": "rich_text_section",
                        "elements": [
                            {
                                "type": "text",
                                "text": "Probably want to head over to proj-dev-team :)"
                            }
                        ]
                    }
                ]
            }
        ],
        "thread_ts": "1585328193.096500",
        "parent_user_id": "U010L5Y9A0K"
    },
    {
        "client_msg_id": "d5e43c26-8136-4e61-9a3a-49483a2f86d7",
        "type": "message",
        "text": "Probably want to head over to proj-dev-team :)",
        "user": "U010566NJHG",
        "ts": "1585332396.101900",
        "team": "TUU48M0T1",
        "user_team": "TUU48M0T1",
        "source_team": "TUU48M0T1",
        "user_profile": {
            "avatar_hash": "103225790dbb",
            "image_72": "https:\/\/avatars.slack-edge.com\/2020-03-23\/1018037453952_103225790dbb62abe3e8_72.jpg",
            "first_name": "Avi",
            "real_name": "Avi Khalil",
            "display_name": "Avi",
            "team": "TUU48M0T1",
            "name": "kavb",
            "is_restricted": false,
            "is_ultra_restricted": false
        },
        "blocks": [
            {
                "type": "rich_text",
                "block_id": "twvI",
                "elements": [
                    {
                        "type": "rich_text_section",
                        "elements": [
                            {
                                "type": "text",
                                "text": "Probably want to head over to proj-dev-team :)"
                            }
                        ]
                    }
                ]
            }
        ],
        "thread_ts": "1585318513.085000",
        "parent_user_id": "U010YA82ESJ"
    },
    {
        "client_msg_id": "f1d56fde-a340-4ec9-9b8c-0639342ea62e",
        "type": "message",
        "text": ":thumbsup: thanks",
        "user": "U010YA82ESJ",
        "ts": "1585332416.102100",
        "team": "TUU48M0T1",
        "user_team": "TUU48M0T1",
        "source_team": "TUU48M0T1",
        "user_profile": {
            "avatar_hash": "g3d19697fad0",
            "image_72": "https:\/\/secure.gravatar.com\/avatar\/3d19697fad09e30bc0dd64bfeb47a28e.jpg?s=72&d=https%3A%2F%2Fa.slack-edge.com%2Fdf10d%2Fimg%2Favatars%2Fava_0012-72.png",
            "first_name": "Brett",
            "real_name": "Brett Marshall",
            "display_name": "Brett",
            "team": "TUU48M0T1",
            "name": "graphfx21",
            "is_restricted": false,
            "is_ultra_restricted": false
        },
        "blocks": [
            {
                "type": "rich_text",
                "block_id": "o09ZG",
                "elements": [
                    {
                        "type": "rich_text_section",
                        "elements": [
                            {
                                "type": "emoji",
                                "name": "thumbsup"
                            },
                            {
                                "type": "text",
                                "text": " thanks"
                            }
                        ]
                    }
                ]
            }
        ],
        "thread_ts": "1585318513.085000",
        "parent_user_id": "U010YA82ESJ"
    },
    {
        "client_msg_id": "e1b9c9e4-6e61-4d7b-981a-5caa7932114a",
        "type": "message",
        "text": "Check out the channels :slightly_smiling_face: There are many suited to your expertise :slightly_smiling_face:",
        "user": "U010566NJHG",
        "ts": "1585332455.102300",
        "team": "TUU48M0T1",
        "user_team": "TUU48M0T1",
        "source_team": "TUU48M0T1",
        "user_profile": {
            "avatar_hash": "103225790dbb",
            "image_72": "https:\/\/avatars.slack-edge.com\/2020-03-23\/1018037453952_103225790dbb62abe3e8_72.jpg",
            "first_name": "Avi",
            "real_name": "Avi Khalil",
            "display_name": "Avi",
            "team": "TUU48M0T1",
            "name": "kavb",
            "is_restricted": false,
            "is_ultra_restricted": false
        },
        "blocks": [
            {
                "type": "rich_text",
                "block_id": "ktUu1",
                "elements": [
                    {
                        "type": "rich_text_section",
                        "elements": [
                            {
                                "type": "text",
                                "text": "Check out the channels "
                            },
                            {
                                "type": "emoji",
                                "name": "slightly_smiling_face"
                            },
                            {
                                "type": "text",
                                "text": " There are many suited to your expertise "
                            },
                            {
                                "type": "emoji",
                                "name": "slightly_smiling_face"
                            }
                        ]
                    }
                ]
            }
        ],
        "thread_ts": "1585316955.083700",
        "parent_user_id": "U010Z2UTY2J",
        "reactions": [
            {
                "name": "clap",
                "users": [
                    "U010Z2UTY2J"
                ],
                "count": 1
            }
        ]
    },
    {
        "client_msg_id": "daea48e3-d907-4516-ac0e-2d8452d3fa6f",
        "type": "message",
        "text": "Sounds amazing :)",
        "user": "U010566NJHG",
        "ts": "1585332553.102600",
        "team": "TUU48M0T1",
        "user_team": "TUU48M0T1",
        "source_team": "TUU48M0T1",
        "user_profile": {
            "avatar_hash": "103225790dbb",
            "image_72": "https:\/\/avatars.slack-edge.com\/2020-03-23\/1018037453952_103225790dbb62abe3e8_72.jpg",
            "first_name": "Avi",
            "real_name": "Avi Khalil",
            "display_name": "Avi",
            "team": "TUU48M0T1",
            "name": "kavb",
            "is_restricted": false,
            "is_ultra_restricted": false
        },
        "blocks": [
            {
                "type": "rich_text",
                "block_id": "lZSnE",
                "elements": [
                    {
                        "type": "rich_text_section",
                        "elements": [
                            {
                                "type": "text",
                                "text": "Sounds amazing :)"
                            }
                        ]
                    }
                ]
            }
        ],
        "thread_ts": "1585276017.069200",
        "parent_user_id": "U010L38EL8H"
    },
    {
        "client_msg_id": "66a2e565-1ad7-4a32-91cb-a25a55e2e5dd",
        "type": "message",
        "text": "I would check out chlg-detect-team and any of the other channels with 'detect' or 'monitor' in. Thats where people with this knowledge are :slightly_smiling_face:",
        "user": "U010566NJHG",
        "ts": "1585332633.102900",
        "team": "TUU48M0T1",
        "user_team": "TUU48M0T1",
        "source_team": "TUU48M0T1",
        "user_profile": {
            "avatar_hash": "103225790dbb",
            "image_72": "https:\/\/avatars.slack-edge.com\/2020-03-23\/1018037453952_103225790dbb62abe3e8_72.jpg",
            "first_name": "Avi",
            "real_name": "Avi Khalil",
            "display_name": "Avi",
            "team": "TUU48M0T1",
            "name": "kavb",
            "is_restricted": false,
            "is_ultra_restricted": false
        },
        "blocks": [
            {
                "type": "rich_text",
                "block_id": "qNkv",
                "elements": [
                    {
                        "type": "rich_text_section",
                        "elements": [
                            {
                                "type": "text",
                                "text": "I would check out chlg-detect-team and any of the other channels with 'detect' or 'monitor' in. Thats where people with this knowledge are "
                            },
                            {
                                "type": "emoji",
                                "name": "slightly_smiling_face"
                            }
                        ]
                    }
                ]
            }
        ],
        "thread_ts": "1585267844.064100",
        "parent_user_id": "U010CC740GG"
    },
    {
        "client_msg_id": "6c20b8c2-6c33-499c-99d2-c45d4483b8dc",
        "type": "message",
        "text": "We welcome some information gathering skills at proj-community-testing <https:\/\/app.jogl.io\/needs\/175>. We are just getting the ball rolling :)",
        "user": "U010566NJHG",
        "ts": "1585332981.103200",
        "team": "TUU48M0T1",
        "user_team": "TUU48M0T1",
        "source_team": "TUU48M0T1",
        "user_profile": {
            "avatar_hash": "103225790dbb",
            "image_72": "https:\/\/avatars.slack-edge.com\/2020-03-23\/1018037453952_103225790dbb62abe3e8_72.jpg",
            "first_name": "Avi",
            "real_name": "Avi Khalil",
            "display_name": "Avi",
            "team": "TUU48M0T1",
            "name": "kavb",
            "is_restricted": false,
            "is_ultra_restricted": false
        },
        "edited": {
            "user": "U010566NJHG",
            "ts": "1585333127.000000"
        },
        "blocks": [
            {
                "type": "rich_text",
                "block_id": "QSz",
                "elements": [
                    {
                        "type": "rich_text_section",
                        "elements": [
                            {
                                "type": "text",
                                "text": "We welcome some information gathering skills at proj-community-testing "
                            },
                            {
                                "type": "link",
                                "url": "https:\/\/app.jogl.io\/needs\/175"
                            },
                            {
                                "type": "text",
                                "text": ". We are just getting the ball rolling :)"
                            }
                        ]
                    }
                ]
            }
        ],
        "thread_ts": "1585248027.060800",
        "parent_user_id": "U010HL8RDC3"
    },
    {
        "client_msg_id": "66c52fde-1e4f-4a69-baa4-a6bf1426bf40",
        "type": "message",
        "text": "At some point you can be the first partner in canada for proj-community-testing :slightly_smiling_face: For now we are working on UK. You probably want to head chlg-detect-team to start with :slightly_smiling_face:",
        "user": "U010566NJHG",
        "ts": "1585333274.103600",
        "team": "TUU48M0T1",
        "user_team": "TUU48M0T1",
        "source_team": "TUU48M0T1",
        "user_profile": {
            "avatar_hash": "103225790dbb",
            "image_72": "https:\/\/avatars.slack-edge.com\/2020-03-23\/1018037453952_103225790dbb62abe3e8_72.jpg",
            "first_name": "Avi",
            "real_name": "Avi Khalil",
            "display_name": "Avi",
            "team": "TUU48M0T1",
            "name": "kavb",
            "is_restricted": false,
            "is_ultra_restricted": false
        },
        "blocks": [
            {
                "type": "rich_text",
                "block_id": "ghp0M",
                "elements": [
                    {
                        "type": "rich_text_section",
                        "elements": [
                            {
                                "type": "text",
                                "text": "At some point you can be the first partner in canada for proj-community-testing "
                            },
                            {
                                "type": "emoji",
                                "name": "slightly_smiling_face"
                            },
                            {
                                "type": "text",
                                "text": " For now we are working on UK. You probably want to head chlg-detect-team to start with "
                            },
                            {
                                "type": "emoji",
                                "name": "slightly_smiling_face"
                            }
                        ]
                    }
                ]
            }
        ],
        "thread_ts": "1585241049.055800",
        "parent_user_id": "U010WKVUFFY"
    },
    {
        "type": "message",
        "subtype": "bot_message",
        "text": "Dobryy den’ <@U010XJCMAAG> :flag-ua:",
        "ts": "1585333306.104000",
        "username": "GreetBot",
        "bot_id": "B0100JVEKUG"
    },
    {
        "client_msg_id": "3d9a7807-a998-4747-a9e0-681ac8205656",
        "type": "message",
        "text": "<@U010HTBUHS9> <@UV9V03C8Y> whose collecting reviewers. Justin sounds like a candidate :slightly_smiling_face:",
        "user": "U010566NJHG",
        "ts": "1585333328.104100",
        "team": "TUU48M0T1",
        "user_team": "TUU48M0T1",
        "source_team": "TUU48M0T1",
        "user_profile": {
            "avatar_hash": "103225790dbb",
            "image_72": "https:\/\/avatars.slack-edge.com\/2020-03-23\/1018037453952_103225790dbb62abe3e8_72.jpg",
            "first_name": "Avi",
            "real_name": "Avi Khalil",
            "display_name": "Avi",
            "team": "TUU48M0T1",
            "name": "kavb",
            "is_restricted": false,
            "is_ultra_restricted": false
        },
        "blocks": [
            {
                "type": "rich_text",
                "block_id": "lqeO",
                "elements": [
                    {
                        "type": "rich_text_section",
                        "elements": [
                            {
                                "type": "user",
                                "user_id": "U010HTBUHS9"
                            },
                            {
                                "type": "text",
                                "text": " "
                            },
                            {
                                "type": "user",
                                "user_id": "UV9V03C8Y"
                            },
                            {
                                "type": "text",
                                "text": " whose collecting reviewers. Justin sounds like a candidate "
                            },
                            {
                                "type": "emoji",
                                "name": "slightly_smiling_face"
                            }
                        ]
                    }
                ]
            }
        ],
        "thread_ts": "1585236124.046700",
        "parent_user_id": "U010JMLP8GZ"
    },
    {
        "client_msg_id": "bb145235-da93-44cc-a7ac-65bb29b66c87",
        "type": "message",
        "text": "Is this like a network of fablabs?",
        "user": "U010566NJHG",
        "ts": "1585333372.104300",
        "team": "TUU48M0T1",
        "user_team": "TUU48M0T1",
        "source_team": "TUU48M0T1",
        "user_profile": {
            "avatar_hash": "103225790dbb",
            "image_72": "https:\/\/avatars.slack-edge.com\/2020-03-23\/1018037453952_103225790dbb62abe3e8_72.jpg",
            "first_name": "Avi",
            "real_name": "Avi Khalil",
            "display_name": "Avi",
            "team": "TUU48M0T1",
            "name": "kavb",
            "is_restricted": false,
            "is_ultra_restricted": false
        },
        "blocks": [
            {
                "type": "rich_text",
                "block_id": "Tg6+",
                "elements": [
                    {
                        "type": "rich_text_section",
                        "elements": [
                            {
                                "type": "text",
                                "text": "Is this like a network of fablabs?"
                            }
                        ]
                    }
                ]
            }
        ],
        "thread_ts": "1585233952.043800",
        "parent_user_id": "U010JJ4NH3K"
    },
    {
        "client_msg_id": "e7574d8d-085a-4ab5-b3ef-62d3681ffdf3",
        "type": "message",
        "text": "helping with c19",
        "user": "U010566NJHG",
        "ts": "1585333391.104600",
        "team": "TUU48M0T1",
        "user_team": "TUU48M0T1",
        "source_team": "TUU48M0T1",
        "user_profile": {
            "avatar_hash": "103225790dbb",
            "image_72": "https:\/\/avatars.slack-edge.com\/2020-03-23\/1018037453952_103225790dbb62abe3e8_72.jpg",
            "first_name": "Avi",
            "real_name": "Avi Khalil",
            "display_name": "Avi",
            "team": "TUU48M0T1",
            "name": "kavb",
            "is_restricted": false,
            "is_ultra_restricted": false
        },
        "blocks": [
            {
                "type": "rich_text",
                "block_id": "2+2K6",
                "elements": [
                    {
                        "type": "rich_text_section",
                        "elements": [
                            {
                                "type": "text",
                                "text": "helping with c19"
                            }
                        ]
                    }
                ]
            }
        ],
        "thread_ts": "1585233952.043800",
        "parent_user_id": "U010JJ4NH3K"
    },
    {
        "client_msg_id": "85bd63e0-4bfb-42a6-9556-53132fed7b3c",
        "type": "message",
        "text": "I believe it's <@U010HTBUHS9> but happy to help if needed. Awesome <@U010JMLP8GZ>! Thanks!",
        "user": "UV9V03C8Y",
        "ts": "1585334684.105900",
        "team": "TUU48M0T1",
        "user_team": "TUU48M0T1",
        "source_team": "TUU48M0T1",
        "user_profile": {
            "avatar_hash": "177697fb7b8f",
            "image_72": "https:\/\/avatars.slack-edge.com\/2020-03-12\/996126178096_177697fb7b8ffa57649c_72.jpg",
            "first_name": "Camille",
            "real_name": "Camille Masselot - JOGL Program coordinator",
            "display_name": "Camille Masselot - JOGL coordinator",
            "team": "TUU48M0T1",
            "name": "masselot.camille",
            "is_restricted": false,
            "is_ultra_restricted": false
        },
        "blocks": [
            {
                "type": "rich_text",
                "block_id": "S3bja",
                "elements": [
                    {
                        "type": "rich_text_section",
                        "elements": [
                            {
                                "type": "text",
                                "text": "I believe it's "
                            },
                            {
                                "type": "user",
                                "user_id": "U010HTBUHS9"
                            },
                            {
                                "type": "text",
                                "text": " but happy to help if needed. Awesome "
                            },
                            {
                                "type": "user",
                                "user_id": "U010JMLP8GZ"
                            },
                            {
                                "type": "text",
                                "text": "! Thanks!"
                            }
                        ]
                    }
                ]
            }
        ],
        "thread_ts": "1585236124.046700",
        "parent_user_id": "U010JMLP8GZ"
    },
    {
        "client_msg_id": "f3a3994a-db2d-49ac-a262-217cc02714d6",
        "type": "message",
        "text": "This is funny - <@U010JMLP8GZ> was the first expert response I got from the JOGL call - you're a popular guy!",
        "user": "U010HTBUHS9",
        "ts": "1585335542.106100",
        "team": "TUU48M0T1",
        "user_team": "TUU48M0T1",
        "source_team": "TUU48M0T1",
        "user_profile": {
            "avatar_hash": "e7bdbebff0d9",
            "image_72": "https:\/\/avatars.slack-edge.com\/2020-03-22\/1017951251813_e7bdbebff0d9ad1e8f12_72.jpg",
            "first_name": "",
            "real_name": "Adam Arabian",
            "display_name": "Adam Arabian",
            "team": "TUU48M0T1",
            "name": "adam.arabian",
            "is_restricted": false,
            "is_ultra_restricted": false
        },
        "blocks": [
            {
                "type": "rich_text",
                "block_id": "zgK",
                "elements": [
                    {
                        "type": "rich_text_section",
                        "elements": [
                            {
                                "type": "text",
                                "text": "This is funny - "
                            },
                            {
                                "type": "user",
                                "user_id": "U010JMLP8GZ"
                            },
                            {
                                "type": "text",
                                "text": " was the first expert response I got from the JOGL call - you're a popular guy!"
                            }
                        ]
                    }
                ]
            }
        ],
        "thread_ts": "1585236124.046700",
        "parent_user_id": "U010JMLP8GZ"
    },
    {
        "type": "message",
        "subtype": "bot_message",
        "text": "Habari <@U010KAZ7D0S> :flag-tz:",
        "ts": "1585337176.106300",
        "username": "GreetBot",
        "bot_id": "B0100JVEKUG"
    },
    {
        "type": "message",
        "subtype": "bot_message",
        "text": "Habari <@U010KB8AV6W> :flag-tz:",
        "ts": "1585343365.106600",
        "username": "GreetBot",
        "bot_id": "B0100JVEKUG"
    },
    {
        "client_msg_id": "19F65602-8609-4FD6-B45D-C383AF089CBA",
        "type": "message",
        "text": " Hey all, I’m Steve Ponsford and I’m a Product Designer. Skilled in user research, user experience, user interface design and problem solving.",
        "user": "U010KB8AV6W",
        "ts": "1585343601.109000",
        "team": "TUU48M0T1",
        "user_team": "TUU48M0T1",
        "source_team": "TUU48M0T1",
        "user_profile": {
            "avatar_hash": "cbde90729799",
            "image_72": "https:\/\/avatars.slack-edge.com\/2020-03-27\/1021079482499_cbde9072979970ac6a5d_72.png",
            "first_name": "Steve",
            "real_name": "Steve Ponsford",
            "display_name": "StevePonsf",
            "team": "TUU48M0T1",
            "name": "uxdesignsteve",
            "is_restricted": false,
            "is_ultra_restricted": false
        },
        "blocks": [
            {
                "type": "rich_text",
                "block_id": "KKE",
                "elements": [
                    {
                        "type": "rich_text_section",
                        "elements": [
                            {
                                "type": "text",
                                "text": " Hey all, I’m Steve Ponsford and I’m a Product Designer. Skilled in user research, user experience, user interface design and problem solving."
                            }
                        ]
                    }
                ]
            }
        ],
        "reactions": [
            {
                "name": "wave",
                "users": [
                    "UV02WET96",
                    "U010HGKFDNE"
                ],
                "count": 2
            }
        ]
    },
    {
        "type": "message",
        "subtype": "bot_message",
        "text": "Hola <@U010Y2WQG21> :flag-es:",
        "ts": "1585345907.109100",
        "username": "GreetBot",
        "bot_id": "B0100JVEKUG"
    },
    {
        "type": "message",
        "subtype": "bot_message",
        "text": "Hallå <@U010YLN6FPF> :flag-se:",
        "ts": "1585351566.110000",
        "username": "GreetBot",
        "bot_id": "B0100JVEKUG"
    },
    {
        "type": "message",
        "subtype": "bot_message",
        "text": "Olá <@U010Y7USAP6> :flag-pt:",
        "ts": "1585351823.110300",
        "username": "GreetBot",
        "bot_id": "B0100JVEKUG"
    },
    {
        "client_msg_id": "5ce19c9d-c8d1-455f-8c12-76d8f4ad6215",
        "type": "message",
        "text": "Hello",
        "user": "U010Y7USAP6",
        "ts": "1585351858.110500",
        "team": "TUU48M0T1",
        "user_team": "TUU48M0T1",
        "source_team": "TUU48M0T1",
        "user_profile": {
            "avatar_hash": "g8ebccff99a2",
            "image_72": "https:\/\/secure.gravatar.com\/avatar\/8ebccff99a2ac25738c9202908b1a70d.jpg?s=72&d=https%3A%2F%2Fa.slack-edge.com%2Fdf10d%2Fimg%2Favatars%2Fava_0008-72.png",
            "first_name": "",
            "real_name": "Marlon",
            "display_name": "",
            "team": "TUU48M0T1",
            "name": "pansectionalpurity",
            "is_restricted": false,
            "is_ultra_restricted": false
        },
        "blocks": [
            {
                "type": "rich_text",
                "block_id": "LFf",
                "elements": [
                    {
                        "type": "rich_text_section",
                        "elements": [
                            {
                                "type": "text",
                                "text": "Hello"
                            }
                        ]
                    }
                ]
            }
        ]
    },
    {
        "type": "message",
        "subtype": "bot_message",
        "text": "Bonjour <@U010NKQAZU1> :flag-fr:",
        "ts": "1585355342.110600",
        "username": "GreetBot",
        "bot_id": "B0100JVEKUG"
    },
    {
        "type": "message",
        "subtype": "bot_message",
        "text": "Marhaba <@U010NQSAHSM> :flag-eg:",
        "ts": "1585360859.111000",
        "username": "GreetBot",
        "bot_id": "B0100JVEKUG"
    },
    {
        "client_msg_id": "97d69bce-4537-49a1-83e8-3d9ce1f11ba8",
        "type": "message",
        "text": "Hello! I run a company with a data platform. we have a database of metadata about data providers. We might be able to help out",
        "user": "U010NQSAHSM",
        "ts": "1585361020.112300",
        "team": "TUU48M0T1",
        "user_team": "TUU48M0T1",
        "source_team": "TUU48M0T1",
        "user_profile": {
            "avatar_hash": "gb095fdc4162",
            "image_72": "https:\/\/secure.gravatar.com\/avatar\/b095fdc4162f850140d741353fc524df.jpg?s=72&d=https%3A%2F%2Fa.slack-edge.com%2Fdf10d%2Fimg%2Favatars%2Fava_0020-72.png",
            "first_name": "",
            "real_name": "Jordan Hauer",
            "display_name": "Jordan Hauer",
            "team": "TUU48M0T1",
            "name": "jordan",
            "is_restricted": false,
            "is_ultra_restricted": false
        },
        "blocks": [
            {
                "type": "rich_text",
                "block_id": "hWWlc",
                "elements": [
                    {
                        "type": "rich_text_section",
                        "elements": [
                            {
                                "type": "text",
                                "text": "Hello! I run a company with a data platform. we have a database of metadata about data providers. We might be able to help out"
                            }
                        ]
                    }
                ]
            }
        ]
    },
    {
        "type": "message",
        "subtype": "bot_message",
        "text": "Hallå <@U010W8C1LBF> :flag-se:",
        "ts": "1585367175.112400",
        "username": "GreetBot",
        "bot_id": "B0100JVEKUG"
    },
    {
        "client_msg_id": "47b16241-586e-418b-ad39-4aeac5262ca2",
        "type": "message",
        "text": "Hi, I am Yuqing Guo, a current master student in CMU, majoring in Educational Technology and Human-Computer Interaction. I am a technical designer and working as a UX designer part-time right now.  Previously, I studied software engineering &amp; new media technology and worked as a software engineer (full-stack) for two years.",
        "user": "U010W8C1LBF",
        "ts": "1585367447.113400",
        "team": "TUU48M0T1",
        "user_team": "TUU48M0T1",
        "source_team": "TUU48M0T1",
        "user_profile": {
            "avatar_hash": "g4178efaa183",
            "image_72": "https:\/\/secure.gravatar.com\/avatar\/4178efaa1830350f479af50ef8c33f86.jpg?s=72&d=https%3A%2F%2Fa.slack-edge.com%2Fdf10d%2Fimg%2Favatars%2Fava_0011-72.png",
            "first_name": "",
            "real_name": "Yuqingg",
            "display_name": "Yuqingg",
            "team": "TUU48M0T1",
            "name": "yuqingg",
            "is_restricted": false,
            "is_ultra_restricted": false
        },
        "blocks": [
            {
                "type": "rich_text",
                "block_id": "0MJm",
                "elements": [
                    {
                        "type": "rich_text_section",
                        "elements": [
                            {
                                "type": "text",
                                "text": "Hi, I am Yuqing Guo, a current master student in CMU, majoring in Educational Technology and Human-Computer Interaction. I am a technical designer and working as a UX designer part-time right now.  Previously, I studied software engineering & new media technology and worked as a software engineer (full-stack) for two years."
                            }
                        ]
                    }
                ]
            }
        ],
        "reactions": [
            {
                "name": "+1",
                "users": [
                    "U010HGKFDNE"
                ],
                "count": 1
            }
        ]
    },
    {
        "client_msg_id": "968fb909-f228-481b-aa9c-6f9aef58dd3a",
        "type": "message",
        "text": "happy to help with any design work!",
        "user": "U010W8C1LBF",
        "ts": "1585367504.114200",
        "team": "TUU48M0T1",
        "user_team": "TUU48M0T1",
        "source_team": "TUU48M0T1",
        "user_profile": {
            "avatar_hash": "g4178efaa183",
            "image_72": "https:\/\/secure.gravatar.com\/avatar\/4178efaa1830350f479af50ef8c33f86.jpg?s=72&d=https%3A%2F%2Fa.slack-edge.com%2Fdf10d%2Fimg%2Favatars%2Fava_0011-72.png",
            "first_name": "",
            "real_name": "Yuqingg",
            "display_name": "Yuqingg",
            "team": "TUU48M0T1",
            "name": "yuqingg",
            "is_restricted": false,
            "is_ultra_restricted": false
        },
        "edited": {
            "user": "U010W8C1LBF",
            "ts": "1585367516.000000"
        },
        "blocks": [
            {
                "type": "rich_text",
                "block_id": "vwG",
                "elements": [
                    {
                        "type": "rich_text_section",
                        "elements": [
                            {
                                "type": "text",
                                "text": "happy to help with any design work!"
                            }
                        ]
                    }
                ]
            }
        ]
    },
    {
        "client_msg_id": "2ef20e81-c957-4995-868a-b91326b5faeb",
        "type": "message",
        "text": "Hi, I'm Florian. I am an MD in family medicine and just starting my dissertation, which I would like to do either about clinical signs and covid19 or in clinical testing of a cheap, rapid, easy-to-deploy lab test beyond PCR. Nice to get to know you guys :slightly_smiling_face:",
        "user": "U010X9FPMS8",
        "ts": "1585375986.116100",
        "team": "TUU48M0T1",
        "user_team": "TUU48M0T1",
        "source_team": "TUU48M0T1",
        "user_profile": {
            "avatar_hash": "faff4edf8af2",
            "image_72": "https:\/\/avatars.slack-edge.com\/2020-03-27\/1031471711236_faff4edf8af2cc7b11dd_72.jpg",
            "first_name": "Florian",
            "real_name": "Florian Schulte",
            "display_name": "Florian Schulte",
            "team": "TUU48M0T1",
            "name": "schulte.florian",
            "is_restricted": false,
            "is_ultra_restricted": false
        },
        "edited": {
            "user": "U010X9FPMS8",
            "ts": "1585376256.000000"
        },
        "blocks": [
            {
                "type": "rich_text",
                "block_id": "Ye1y",
                "elements": [
                    {
                        "type": "rich_text_section",
                        "elements": [
                            {
                                "type": "text",
                                "text": "Hi, I'm Florian. I am an MD in family medicine and just starting my dissertation, which I would like to do either about clinical signs and covid19 or in clinical testing of a cheap, rapid, easy-to-deploy lab test beyond PCR. Nice to get to know you guys "
                            },
                            {
                                "type": "emoji",
                                "name": "slightly_smiling_face"
                            }
                        ]
                    }
                ]
            }
        ],
        "reactions": [
            {
                "name": "wave",
                "users": [
                    "UUWPKNE2E",
                    "U010HGKFDNE"
                ],
                "count": 2
            }
        ]
    },
    {
        "type": "message",
        "subtype": "bot_message",
        "text": "Ohayo <@U010NTVJ08Z> :flag-jp:",
        "ts": "1585376205.116400",
        "username": "GreetBot",
        "bot_id": "B0100JVEKUG"
    },
    {
        "client_msg_id": "bb0807b3-edfc-410f-a8f9-1ba2a180eb35",
        "type": "message",
        "text": "Hi, I am Kunal. I am a technology person with experience in building software applications on scalable and complex infrastructure. I am really looking forward to do anything required to contribute.",
        "user": "U010NTVJ08Z",
        "ts": "1585376384.117900",
        "team": "TUU48M0T1",
        "user_team": "TUU48M0T1",
        "source_team": "TUU48M0T1",
        "user_profile": {
            "avatar_hash": "gd2e06edf99d",
            "image_72": "https:\/\/secure.gravatar.com\/avatar\/d2e06edf99d4534f90818b8d37a2719e.jpg?s=72&d=https%3A%2F%2Fa.slack-edge.com%2Fdf10d%2Fimg%2Favatars%2Fava_0026-72.png",
            "first_name": "",
            "real_name": "Kunal Sandeep",
            "display_name": "Kunal Sandeep",
            "team": "TUU48M0T1",
            "name": "kunalsndp",
            "is_restricted": false,
            "is_ultra_restricted": false
        },
        "blocks": [
            {
                "type": "rich_text",
                "block_id": "pGLL0",
                "elements": [
                    {
                        "type": "rich_text_section",
                        "elements": [
                            {
                                "type": "text",
                                "text": "Hi, I am Kunal. I am a technology person with experience in building software applications on scalable and complex infrastructure. I am really looking forward to do anything required to contribute."
                            }
                        ]
                    }
                ]
            }
        ],
        "reactions": [
            {
                "name": "+1",
                "users": [
                    "U010HGKFDNE"
                ],
                "count": 1
            }
        ]
    }
]