[
    {
        "type": "message",
        "subtype": "bot_message",
        "text": "Ciao <@U011ARP8MRU> :flag-it:",
        "ts": "1585814628.256800",
        "username": "GreetBot",
        "bot_id": "B0100JVEKUG"
    },
    {
        "client_msg_id": "6b093fb4-7720-4dbb-b404-b04152887426",
        "type": "message",
        "text": "Hi, I'm Alex from Vermont, USA. I have a background in software engineering, data engineering, and computer vision. I have a phd in machine learning and I've been working in the robotics and self-driving car industry for the past 7 years. I'm here to help with your software engineering needs.",
        "user": "U011ARP8MRU",
        "ts": "1585814769.258700",
        "team": "TUU48M0T1",
        "user_team": "TUU48M0T1",
        "source_team": "TUU48M0T1",
        "user_profile": {
            "avatar_hash": "10e517b2a81d",
            "image_72": "https:\/\/avatars.slack-edge.com\/2020-04-05\/1044068223073_10e517b2a81d99669419_72.jpg",
            "first_name": "",
            "real_name": "Alex Flint",
            "display_name": "",
            "team": "TUU48M0T1",
            "name": "alex.flint",
            "is_restricted": false,
            "is_ultra_restricted": false
        },
        "blocks": [
            {
                "type": "rich_text",
                "block_id": "MXg",
                "elements": [
                    {
                        "type": "rich_text_section",
                        "elements": [
                            {
                                "type": "text",
                                "text": "Hi, I'm Alex from Vermont, USA. I have a background in software engineering, data engineering, and computer vision. I have a phd in machine learning and I've been working in the robotics and self-driving car industry for the past 7 years. I'm here to help with your software engineering needs."
                            }
                        ]
                    }
                ]
            }
        ],
        "reactions": [
            {
                "name": "slightly_smiling_face",
                "users": [
                    "U0115U5P1B6"
                ],
                "count": 1
            },
            {
                "name": "wave",
                "users": [
                    "UV02WET96",
                    "U01113Y1PLP",
                    "U0103LPAWQ4"
                ],
                "count": 3
            },
            {
                "name": "heavy_check_mark",
                "users": [
                    "U01072UT127"
                ],
                "count": 1
            }
        ]
    },
    {
        "type": "message",
        "subtype": "bot_message",
        "text": "Ohayo <@U011ATMV3NJ> :flag-jp:",
        "ts": "1585819544.259300",
        "username": "GreetBot",
        "bot_id": "B0100JVEKUG"
    },
    {
        "client_msg_id": "4b90af44-bbfb-4a61-8eda-6fde660aa487",
        "type": "message",
        "text": "hello everyone",
        "user": "U011ATMV3NJ",
        "ts": "1585819589.259500",
        "team": "TUU48M0T1",
        "user_team": "TUU48M0T1",
        "source_team": "TUU48M0T1",
        "user_profile": {
            "avatar_hash": "ga910000714b",
            "image_72": "https:\/\/secure.gravatar.com\/avatar\/a910000714bc18a6c9a013f1b6971c0f.jpg?s=72&d=https%3A%2F%2Fa.slack-edge.com%2Fdf10d%2Fimg%2Favatars%2Fava_0000-72.png",
            "first_name": "",
            "real_name": "Ferrari Pablo",
            "display_name": "Ferrari Pablo",
            "team": "TUU48M0T1",
            "name": "ferrari.pab",
            "is_restricted": false,
            "is_ultra_restricted": false
        },
        "blocks": [
            {
                "type": "rich_text",
                "block_id": "iCNp",
                "elements": [
                    {
                        "type": "rich_text_section",
                        "elements": [
                            {
                                "type": "text",
                                "text": "hello everyone"
                            }
                        ]
                    }
                ]
            }
        ]
    },
    {
        "type": "message",
        "subtype": "channel_topic",
        "ts": "1585826897.259800",
        "user": "UV9V03C8Y",
        "text": "<@UV9V03C8Y> set the channel topic: Channel to introduce our location, skills, and interests to help connect people with groups and projects!\nOnboard the initiative here: <http:\/\/bit.ly\/opencovid19-onboarding>\nZoom link for all meetings: <https:\/\/zoom.us\/j\/7804345815>",
        "topic": "Channel to introduce our location, skills, and interests to help connect people with groups and projects!\nOnboard the initiative here: <http:\/\/bit.ly\/opencovid19-onboarding>\nZoom link for all meetings: <https:\/\/zoom.us\/j\/7804345815>"
    },
    {
        "type": "message",
        "subtype": "bot_message",
        "text": "Olá <@U0111198UKB> :flag-pt:",
        "ts": "1585829196.260400",
        "username": "GreetBot",
        "bot_id": "B0100JVEKUG"
    },
    {
        "type": "message",
        "subtype": "bot_message",
        "text": "Nǐ hǎo <@U0119JVTN0M> :flag-cn:",
        "ts": "1585832998.260700",
        "username": "GreetBot",
        "bot_id": "B0100JVEKUG"
    },
    {
        "client_msg_id": "e93833e3-4f8c-47a5-8f1a-a628af0c7d28",
        "type": "message",
        "text": "Hello from France !",
        "user": "U0119JVTN0M",
        "ts": "1585833451.261200",
        "team": "TUU48M0T1",
        "user_team": "TUU48M0T1",
        "source_team": "TUU48M0T1",
        "user_profile": {
            "avatar_hash": "d69de80af691",
            "image_72": "https:\/\/avatars.slack-edge.com\/2020-04-02\/1043734482836_d69de80af69188154b10_72.jpg",
            "first_name": "",
            "real_name": "Laurent Boutigny",
            "display_name": "Laurent Boutigny",
            "team": "TUU48M0T1",
            "name": "boutigny.laurent",
            "is_restricted": false,
            "is_ultra_restricted": false
        },
        "blocks": [
            {
                "type": "rich_text",
                "block_id": "JYAwp",
                "elements": [
                    {
                        "type": "rich_text_section",
                        "elements": [
                            {
                                "type": "text",
                                "text": "Hello from France !"
                            }
                        ]
                    }
                ]
            }
        ],
        "reactions": [
            {
                "name": "slightly_smiling_face",
                "users": [
                    "U0115U5P1B6",
                    "U011B6VLM2A"
                ],
                "count": 2
            },
            {
                "name": "wave",
                "users": [
                    "UV02WET96"
                ],
                "count": 1
            }
        ]
    },
    {
        "type": "message",
        "subtype": "bot_message",
        "text": "Marhaba <@U0119L4UMDK> :flag-eg:",
        "ts": "1585834303.261700",
        "username": "GreetBot",
        "bot_id": "B0100JVEKUG"
    },
    {
        "type": "message",
        "subtype": "bot_message",
        "text": "Bonjour <@U011AMTLK0X> :flag-fr:",
        "ts": "1585835129.264100",
        "username": "GreetBot",
        "bot_id": "B0100JVEKUG"
    },
    {
        "type": "message",
        "subtype": "bot_message",
        "text": "Nǐ hǎo <@U0119SJAKU4> :flag-cn:",
        "ts": "1585836536.264400",
        "username": "GreetBot",
        "bot_id": "B0100JVEKUG"
    },
    {
        "type": "message",
        "subtype": "bot_message",
        "text": "Annyeong <@U011B6VLM2A> :flag-kr:",
        "ts": "1585837604.265000",
        "username": "GreetBot",
        "bot_id": "B0100JVEKUG"
    },
    {
        "type": "message",
        "subtype": "bot_message",
        "text": "Namaste <@U010WPEJMFU> :flag-in:",
        "ts": "1585838352.265200",
        "username": "GreetBot",
        "bot_id": "B0100JVEKUG"
    },
    {
        "type": "message",
        "subtype": "bot_message",
        "text": "Habari <@U011AN76LUX> :flag-tz:",
        "ts": "1585838453.265500",
        "username": "GreetBot",
        "bot_id": "B0100JVEKUG"
    },
    {
        "type": "message",
        "subtype": "bot_message",
        "text": "Annyeong <@U0119SR5LMT> :flag-kr:",
        "ts": "1585840247.266200",
        "username": "GreetBot",
        "bot_id": "B0100JVEKUG"
    },
    {
        "client_msg_id": "caf1261c-e35a-457e-88ce-ddd44d02808e",
        "type": "message",
        "text": "Hi, I'm Gabi from Portland, OR. I have a background in ecology of disease, microbiology, molecular biology and PCR. I almost finished a phd but instead I have two master's in emerging disease dynamics. I have been in this field for 10 years.",
        "user": "U0118T0THTP",
        "ts": "1585846768.268000",
        "team": "TUU48M0T1",
        "user_team": "TUU48M0T1",
        "source_team": "TUU48M0T1",
        "user_profile": {
            "avatar_hash": "115541311c96",
            "image_72": "https:\/\/avatars.slack-edge.com\/2020-04-02\/1044155516661_115541311c966db28fa4_72.jpg",
            "first_name": "Gabriela",
            "real_name": "Gabriela Rios-Sotelo",
            "display_name": "Gabriela Rios-Sotelo",
            "team": "TUU48M0T1",
            "name": "gabriela18",
            "is_restricted": false,
            "is_ultra_restricted": false
        },
        "blocks": [
            {
                "type": "rich_text",
                "block_id": "4bZ",
                "elements": [
                    {
                        "type": "rich_text_section",
                        "elements": [
                            {
                                "type": "text",
                                "text": "Hi, I'm Gabi from Portland, OR. I have a background in ecology of disease, microbiology, molecular biology and PCR. I almost finished a phd but instead I have two master's in emerging disease dynamics. I have been in this field for 10 years."
                            }
                        ]
                    }
                ]
            }
        ],
        "reactions": [
            {
                "name": "wave",
                "users": [
                    "UV02WET96",
                    "U010Q3372P3"
                ],
                "count": 2
            }
        ]
    },
    {
        "type": "message",
        "subtype": "bot_message",
        "text": "Hola <@U0110449PRR> :flag-es:",
        "ts": "1585849498.268400",
        "username": "GreetBot",
        "bot_id": "B0100JVEKUG"
    },
    {
        "type": "message",
        "subtype": "bot_message",
        "text": "Dobryy den’ <@U010YT4BM34> :flag-ua:",
        "ts": "1585849854.269300",
        "username": "GreetBot",
        "bot_id": "B0100JVEKUG"
    },
    {
        "client_msg_id": "cde49a57-f11f-4476-96e3-b54300b2abbc",
        "type": "message",
        "text": "That would be great! I joined that channel :grin:",
        "user": "U010WKVUFFY",
        "ts": "1585849960.270500",
        "team": "TUU48M0T1",
        "user_team": "TUU48M0T1",
        "source_team": "TUU48M0T1",
        "user_profile": {
            "avatar_hash": "gf0c9e06eebd",
            "image_72": "https:\/\/secure.gravatar.com\/avatar\/f0c9e06eebd0184ffae109da36b04f9d.jpg?s=72&d=https%3A%2F%2Fa.slack-edge.com%2Fdf10d%2Fimg%2Favatars%2Fava_0024-72.png",
            "first_name": "",
            "real_name": "Nicholas Crudele",
            "display_name": "Nicholas Crudele",
            "team": "TUU48M0T1",
            "name": "nicoharacrudele4",
            "is_restricted": false,
            "is_ultra_restricted": false
        },
        "blocks": [
            {
                "type": "rich_text",
                "block_id": "mS3",
                "elements": [
                    {
                        "type": "rich_text_section",
                        "elements": [
                            {
                                "type": "text",
                                "text": "That would be great! I joined that channel "
                            },
                            {
                                "type": "emoji",
                                "name": "grin"
                            }
                        ]
                    }
                ]
            }
        ],
        "thread_ts": "1585241049.055800",
        "parent_user_id": "U010WKVUFFY"
    },
    {
        "type": "message",
        "subtype": "bot_message",
        "text": "Habari <@UV442FNFK> :flag-tz:",
        "ts": "1585853081.270900",
        "username": "GreetBot",
        "bot_id": "B0100JVEKUG"
    },
    {
        "type": "message",
        "subtype": "bot_message",
        "text": "Habari <@U011ANKLTNG> :flag-tz:",
        "ts": "1585853516.271300",
        "username": "GreetBot",
        "bot_id": "B0100JVEKUG"
    },
    {
        "type": "message",
        "subtype": "bot_message",
        "text": "Marhaba <@U011D6K9RH6> :flag-eg:",
        "ts": "1585854493.271600",
        "username": "GreetBot",
        "bot_id": "B0100JVEKUG",
        "reactions": [
            {
                "name": "heart",
                "users": [
                    "U011D6K9RH6"
                ],
                "count": 1
            }
        ]
    },
    {
        "type": "message",
        "subtype": "bot_message",
        "text": "Bonjour <@U011B0TK3A8> :flag-fr:",
        "ts": "1585859376.272000",
        "username": "GreetBot",
        "bot_id": "B0100JVEKUG"
    },
    {
        "type": "message",
        "subtype": "bot_message",
        "text": "Cześć <@U011DR5B6Q0> :flag-pl:",
        "ts": "1585863828.272400",
        "username": "GreetBot",
        "bot_id": "B0100JVEKUG"
    },
    {
        "client_msg_id": "571c2550-b74d-4cec-b59f-7507569abfac",
        "type": "message",
        "text": "Hello! I'm Alizarin, a designer and art director. Looking forward to get involved in web, interface and motion design. <http:\/\/www.alizarinz.com|www.alizarinz.com>\nBased in New York and about to graduate from NYU's ITP program.",
        "user": "U011DR5B6Q0",
        "ts": "1585864422.275200",
        "team": "TUU48M0T1",
        "user_team": "TUU48M0T1",
        "source_team": "TUU48M0T1",
        "user_profile": {
            "avatar_hash": "ga623607bb89",
            "image_72": "https:\/\/secure.gravatar.com\/avatar\/a623607bb89dd47af6796058f8e215ef.jpg?s=72&d=https%3A%2F%2Fa.slack-edge.com%2Fdf10d%2Fimg%2Favatars%2Fava_0008-72.png",
            "first_name": "",
            "real_name": "Alizarin",
            "display_name": "Alizarin",
            "team": "TUU48M0T1",
            "name": "aw1888",
            "is_restricted": false,
            "is_ultra_restricted": false
        },
        "blocks": [
            {
                "type": "rich_text",
                "block_id": "2NC",
                "elements": [
                    {
                        "type": "rich_text_section",
                        "elements": [
                            {
                                "type": "text",
                                "text": "Hello! I'm Alizarin, a designer and art director. Looking forward to get involved in web, interface and motion design. "
                            },
                            {
                                "type": "link",
                                "url": "http:\/\/www.alizarinz.com",
                                "text": "www.alizarinz.com"
                            },
                            {
                                "type": "text",
                                "text": "\nBased in New York and about to graduate from NYU's ITP program."
                            }
                        ]
                    }
                ]
            }
        ],
        "thread_ts": "1585864422.275200",
        "reply_count": 1,
        "reply_users_count": 1,
        "latest_reply": "1586028668.307600",
        "reply_users": [
            "U0103LPAWQ4"
        ],
        "replies": [
            {
                "user": "U0103LPAWQ4",
                "ts": "1586028668.307600"
            }
        ],
        "subscribed": false,
        "reactions": [
            {
                "name": "wave",
                "users": [
                    "UV02WET96",
                    "U011DR5B6Q0"
                ],
                "count": 2
            }
        ]
    },
    {
        "type": "message",
        "subtype": "bot_message",
        "text": "Ciao <@U011BN6LZ54> :flag-it:",
        "ts": "1585864737.275500",
        "username": "GreetBot",
        "bot_id": "B0100JVEKUG"
    },
    {
        "client_msg_id": "c2508617-4864-4a82-96fc-a82eed138b81",
        "type": "message",
        "text": "Hi i m Farid arab from to Paris i am launch coronavirus.camp",
        "user": "U011BN6LZ54",
        "ts": "1585865028.276500",
        "team": "TUU48M0T1",
        "user_team": "TUU48M0T1",
        "source_team": "TUU48M0T1",
        "user_profile": {
            "avatar_hash": "f2fa3cc0b574",
            "image_72": "https:\/\/avatars.slack-edge.com\/2020-04-02\/1044844929719_f2fa3cc0b574cc032c7c_72.jpg",
            "first_name": "farid",
            "real_name": "farid arab",
            "display_name": "farid arab",
            "team": "TUU48M0T1",
            "name": "farid",
            "is_restricted": false,
            "is_ultra_restricted": false
        },
        "blocks": [
            {
                "type": "rich_text",
                "block_id": "HgRdM",
                "elements": [
                    {
                        "type": "rich_text_section",
                        "elements": [
                            {
                                "type": "text",
                                "text": "Hi i m Farid arab from to Paris i am launch coronavirus.camp"
                            }
                        ]
                    }
                ]
            }
        ],
        "reactions": [
            {
                "name": "wave",
                "users": [
                    "UV02WET96"
                ],
                "count": 1
            }
        ]
    },
    {
        "type": "message",
        "subtype": "bot_message",
        "text": "Nǐ hǎo <@U011DTCAJAU> :flag-cn:",
        "ts": "1585865175.276800",
        "username": "GreetBot",
        "bot_id": "B0100JVEKUG"
    },
    {
        "type": "message",
        "subtype": "bot_message",
        "text": "Hola <@U010ZRNUQ0J> :flag-es:",
        "ts": "1585870020.277300",
        "username": "GreetBot",
        "bot_id": "B0100JVEKUG"
    },
    {
        "client_msg_id": "6df79bc6-d65f-4f1d-837d-df1c0f2827e9",
        "type": "message",
        "text": "Hi Everyone! I'm Raunak from Corvallis, Oregon. I am a UX Designer proficient in Figma and Adobe XD. Glad to be part of this community and willing to help in whatever way I can.",
        "user": "U010ZRNUQ0J",
        "ts": "1585870209.278700",
        "team": "TUU48M0T1",
        "user_team": "TUU48M0T1",
        "source_team": "TUU48M0T1",
        "user_profile": {
            "avatar_hash": "1a159fff5512",
            "image_72": "https:\/\/avatars.slack-edge.com\/2020-04-07\/1063168446976_1a159fff551208d2fa39_72.png",
            "first_name": "Raunak",
            "real_name": "Raunak Sunder",
            "display_name": "Raunak Sunder",
            "team": "TUU48M0T1",
            "name": "raunaksunder",
            "is_restricted": false,
            "is_ultra_restricted": false
        },
        "edited": {
            "user": "U010ZRNUQ0J",
            "ts": "1585870225.000000"
        },
        "blocks": [
            {
                "type": "rich_text",
                "block_id": "9lI",
                "elements": [
                    {
                        "type": "rich_text_section",
                        "elements": [
                            {
                                "type": "text",
                                "text": "Hi Everyone! I'm Raunak from Corvallis, Oregon. I am a UX Designer proficient in Figma and Adobe XD. Glad to be part of this community and willing to help in whatever way I can."
                            }
                        ]
                    }
                ]
            }
        ],
        "thread_ts": "1585870209.278700",
        "reply_count": 2,
        "reply_users_count": 2,
        "latest_reply": "1586028694.307800",
        "reply_users": [
            "U0103LPAWQ4",
            "U010ZRNUQ0J"
        ],
        "replies": [
            {
                "user": "U0103LPAWQ4",
                "ts": "1586028589.307400"
            },
            {
                "user": "U010ZRNUQ0J",
                "ts": "1586028694.307800"
            }
        ],
        "subscribed": false,
        "reactions": [
            {
                "name": "+1",
                "users": [
                    "U01155M7M62",
                    "U0103LPAWQ4"
                ],
                "count": 2
            },
            {
                "name": "wave",
                "users": [
                    "UV02WET96"
                ],
                "count": 1
            }
        ]
    },
    {
        "type": "message",
        "subtype": "bot_message",
        "text": "Bonjour <@U01113DUV8B> :flag-fr:",
        "ts": "1585870633.279100",
        "username": "GreetBot",
        "bot_id": "B0100JVEKUG"
    },
    {
        "type": "message",
        "subtype": "bot_message",
        "text": "Olá <@U011AQGHDHT> :flag-pt:",
        "ts": "1585872443.279400",
        "username": "GreetBot",
        "bot_id": "B0100JVEKUG"
    },
    {
        "client_msg_id": "6981fa3f-a7f2-4bbc-b881-18b2e67b0080",
        "type": "message",
        "text": "Hello! I'm based in Edmonton, Alberta, Canda. I'm an IT guy who has a passion to help others. Please let me know if we can help each other! Cheers.",
        "user": "U011AQGHDHT",
        "ts": "1585872602.280200",
        "team": "TUU48M0T1",
        "user_team": "TUU48M0T1",
        "source_team": "TUU48M0T1",
        "user_profile": {
            "avatar_hash": "cc9fa4b7f8f3",
            "image_72": "https:\/\/avatars.slack-edge.com\/2020-04-02\/1045433423124_cc9fa4b7f8f34676e92f_72.jpg",
            "first_name": "",
            "real_name": "Chris Simmons",
            "display_name": "Chris Simmons",
            "team": "TUU48M0T1",
            "name": "cshaiku",
            "is_restricted": false,
            "is_ultra_restricted": false
        },
        "blocks": [
            {
                "type": "rich_text",
                "block_id": "XO9R",
                "elements": [
                    {
                        "type": "rich_text_section",
                        "elements": [
                            {
                                "type": "text",
                                "text": "Hello! I'm based in Edmonton, Alberta, Canda. I'm an IT guy who has a passion to help others. Please let me know if we can help each other! Cheers."
                            }
                        ]
                    }
                ]
            }
        ],
        "reactions": [
            {
                "name": "wave",
                "users": [
                    "UV02WET96"
                ],
                "count": 1
            }
        ]
    }
]