[
    {
        "type": "message",
        "subtype": "bot_message",
        "text": "Habari <@U011CT12X8X> :flag-tz:",
        "ts": "1587371593.029300",
        "username": "GreetBot",
        "bot_id": "B0100JVEKUG"
    },
    {
        "type": "message",
        "subtype": "bot_message",
        "text": "Cześć <@U0123RWDZA9> :flag-pl:",
        "ts": "1587384261.029600",
        "username": "GreetBot",
        "bot_id": "B0100JVEKUG"
    },
    {
        "type": "message",
        "subtype": "bot_message",
        "text": "Namaste <@U011QJHRZ0X> :flag-in:",
        "ts": "1587387361.029900",
        "username": "GreetBot",
        "bot_id": "B0100JVEKUG"
    },
    {
        "type": "message",
        "subtype": "bot_message",
        "text": "Sawadi Kap <@U011Z43JHML> :flag-th:",
        "ts": "1587398115.030200",
        "username": "GreetBot",
        "bot_id": "B0100JVEKUG"
    },
    {
        "type": "message",
        "subtype": "bot_message",
        "text": "Namaste <@U011ZBLUNTY> :flag-in:",
        "ts": "1587403776.030400",
        "username": "GreetBot",
        "bot_id": "B0100JVEKUG"
    },
    {
        "type": "message",
        "subtype": "bot_message",
        "text": "Cześć <@U011ZGHR18W> :flag-pl:",
        "ts": "1587407773.030600",
        "username": "GreetBot",
        "bot_id": "B0100JVEKUG"
    },
    {
        "type": "message",
        "subtype": "bot_message",
        "text": "Nǐ hǎo <@U0126DX4GR0> :flag-cn:",
        "ts": "1587412419.030800",
        "username": "GreetBot",
        "bot_id": "B0100JVEKUG"
    }
]