[
    {
        "type": "message",
        "subtype": "bot_message",
        "text": "Bonjour <@U010K4Q6C2K> :flag-fr:",
        "ts": "1584865343.305900",
        "username": "GreetBot",
        "bot_id": "B0100JVEKUG"
    },
    {
        "client_msg_id": "0dbf950d-1962-4a82-b6bf-618cf675f3a1",
        "type": "message",
        "text": "Hey i am ux designer from india, can help u with digital design. Let me know how to collaborate",
        "user": "U010K4Q6C2K",
        "ts": "1584865571.306000",
        "team": "TUU48M0T1",
        "user_team": "TUU48M0T1",
        "source_team": "TUU48M0T1",
        "user_profile": {
            "avatar_hash": "g420b8917233",
            "image_72": "https:\/\/secure.gravatar.com\/avatar\/420b8917233939c6c46f0e373d925088.jpg?s=72&d=https%3A%2F%2Fa.slack-edge.com%2Fdf10d%2Fimg%2Favatars%2Fava_0006-72.png",
            "first_name": "",
            "real_name": "aditya pratap singh",
            "display_name": "aditya pratap singh",
            "team": "TUU48M0T1",
            "name": "aditya.singh1",
            "is_restricted": false,
            "is_ultra_restricted": false
        },
        "blocks": [
            {
                "type": "rich_text",
                "block_id": "Q7yG",
                "elements": [
                    {
                        "type": "rich_text_section",
                        "elements": [
                            {
                                "type": "text",
                                "text": "Hey i am ux designer from india, can help u with digital design. Let me know how to collaborate"
                            }
                        ]
                    }
                ]
            }
        ],
        "thread_ts": "1584813904.257400",
        "parent_user_id": "U0105DYPYAF"
    },
    {
        "client_msg_id": "7ac6ca6c-9eec-493f-9882-07be2f5317ed",
        "type": "message",
        "text": "Hey everyone, I am ux and ui designer based out of India, can help in web and mobile design",
        "user": "U010K4Q6C2K",
        "ts": "1584865656.307300",
        "team": "TUU48M0T1",
        "user_team": "TUU48M0T1",
        "source_team": "TUU48M0T1",
        "user_profile": {
            "avatar_hash": "g420b8917233",
            "image_72": "https:\/\/secure.gravatar.com\/avatar\/420b8917233939c6c46f0e373d925088.jpg?s=72&d=https%3A%2F%2Fa.slack-edge.com%2Fdf10d%2Fimg%2Favatars%2Fava_0006-72.png",
            "first_name": "",
            "real_name": "aditya pratap singh",
            "display_name": "aditya pratap singh",
            "team": "TUU48M0T1",
            "name": "aditya.singh1",
            "is_restricted": false,
            "is_ultra_restricted": false
        },
        "blocks": [
            {
                "type": "rich_text",
                "block_id": "K4B",
                "elements": [
                    {
                        "type": "rich_text_section",
                        "elements": [
                            {
                                "type": "text",
                                "text": "Hey everyone, I am ux and ui designer based out of India, can help in web and mobile design"
                            }
                        ]
                    }
                ]
            }
        ]
    },
    {
        "type": "message",
        "subtype": "bot_message",
        "text": "Ciao <@U0106QPDTB3> :flag-it:",
        "ts": "1584866135.307400",
        "username": "GreetBot",
        "bot_id": "B0100JVEKUG"
    },
    {
        "type": "message",
        "subtype": "bot_message",
        "text": "Namaste <@U010K5MTTN3> :flag-in:",
        "ts": "1584869176.307700",
        "username": "GreetBot",
        "bot_id": "B0100JVEKUG"
    },
    {
        "type": "message",
        "subtype": "bot_message",
        "text": "Hola <@U010H0G55GU> :flag-es:",
        "ts": "1584874760.308000",
        "username": "GreetBot",
        "bot_id": "B0100JVEKUG"
    },
    {
        "type": "message",
        "subtype": "bot_message",
        "text": "Namaste <@U0104L8M4JW> :flag-in:",
        "ts": "1584875127.308300",
        "username": "GreetBot",
        "bot_id": "B0100JVEKUG"
    },
    {
        "type": "message",
        "subtype": "bot_message",
        "text": "Olá <@U01060CNJUT> :flag-pt:",
        "ts": "1584875827.308600",
        "username": "GreetBot",
        "bot_id": "B0100JVEKUG"
    },
    {
        "type": "message",
        "subtype": "bot_message",
        "text": "Hallå <@U01060M08F5> :flag-se:",
        "ts": "1584876763.308900",
        "username": "GreetBot",
        "bot_id": "B0100JVEKUG"
    },
    {
        "client_msg_id": "09CED54F-901E-4C9A-A9A5-B7EE12CBBA7D",
        "type": "message",
        "text": "Hi, I'm Gautier. I'm a senior mobile app product designer based in Sydney. I've created a quick concept of a self-checking app <https:\/\/www.linkedin.com\/posts\/gautierfavier_santer-track-covid-19-in-your-local-area-activity-6647352127406649344-9BQu|https:\/\/www.linkedin.com\/posts\/gautierfavier_santer-track-covid-19-in-your-local-area-activity-6647352127406649344-9BQu>\n\nI would like to offer my help to any team that wants to build apps",
        "user": "U01060M08F5",
        "ts": "1584877334.311700",
        "team": "TUU48M0T1",
        "user_team": "TUU48M0T1",
        "source_team": "TUU48M0T1",
        "user_profile": {
            "avatar_hash": "64623e768d6f",
            "image_72": "https:\/\/avatars.slack-edge.com\/2020-03-23\/1017891333936_64623e768d6fd217024c_72.jpg",
            "first_name": "Gautier",
            "real_name": "Gautier Favier",
            "display_name": "Gautier Favier",
            "team": "TUU48M0T1",
            "name": "gautier.favier",
            "is_restricted": false,
            "is_ultra_restricted": false
        },
        "attachments": [
            {
                "title": "Gautier Favier on LinkedIn: Santer - Track covid-19 in your local area | 10 comments",
                "title_link": "https:\/\/www.linkedin.com\/posts\/gautierfavier_santer-track-covid-19-in-your-local-area-activity-6647352127406649344-9BQu",
                "text": "I&amp;#39;ve created a concept of a self-checking app to track covid-19 in your local area and create region or suburb alerts in NSW. My designs are here: https... 10 comments on LinkedIn",
                "fallback": "Gautier Favier on LinkedIn: Santer - Track covid-19 in your local area | 10 comments",
                "thumb_url": "https:\/\/api-cdn.figma.com\/resize\/thumbnails\/3b2c8727-7bd1-4750-81f2-ec5e48ecd7d9?height=394&bucket=figma-alpha",
                "from_url": "https:\/\/www.linkedin.com\/posts\/gautierfavier_santer-track-covid-19-in-your-local-area-activity-6647352127406649344-9BQu",
                "thumb_width": 800,
                "thumb_height": 394,
                "service_icon": "https:\/\/static-exp1.licdn.com\/scds\/common\/u\/images\/logos\/favicons\/v1\/favicon.ico",
                "service_name": "linkedin.com",
                "id": 1,
                "original_url": "https:\/\/www.linkedin.com\/posts\/gautierfavier_santer-track-covid-19-in-your-local-area-activity-6647352127406649344-9BQu"
            }
        ],
        "blocks": [
            {
                "type": "rich_text",
                "block_id": "RYJ",
                "elements": [
                    {
                        "type": "rich_text_section",
                        "elements": [
                            {
                                "type": "text",
                                "text": "Hi, I'm Gautier. I'm a senior mobile app product designer based in Sydney. I've created a quick concept of a self-checking app "
                            },
                            {
                                "type": "link",
                                "url": "https:\/\/www.linkedin.com\/posts\/gautierfavier_santer-track-covid-19-in-your-local-area-activity-6647352127406649344-9BQu",
                                "text": "https:\/\/www.linkedin.com\/posts\/gautierfavier_santer-track-covid-19-in-your-local-area-activity-6647352127406649344-9BQu"
                            },
                            {
                                "type": "text",
                                "text": "\n"
                            },
                            {
                                "type": "text",
                                "text": "\nI would like to offer my help to any team that wants to build apps"
                            }
                        ]
                    }
                ]
            }
        ],
        "thread_ts": "1584877334.311700",
        "reply_count": 2,
        "reply_users_count": 2,
        "latest_reply": "1584914798.325500",
        "reply_users": [
            "UVC9WMA7N",
            "U01060M08F5"
        ],
        "replies": [
            {
                "user": "UVC9WMA7N",
                "ts": "1584879071.311900"
            },
            {
                "user": "U01060M08F5",
                "ts": "1584914798.325500"
            }
        ],
        "subscribed": false
    },
    {
        "client_msg_id": "5358f27b-ddd7-4f54-94f9-f231e95348f8",
        "type": "message",
        "text": "You should talk to people I. <#CV9R0C4V9|proj-dev-ai-cough-detection>",
        "user": "UVC9WMA7N",
        "ts": "1584879071.311900",
        "team": "TUU48M0T1",
        "user_team": "TUU48M0T1",
        "source_team": "TUU48M0T1",
        "user_profile": {
            "avatar_hash": "56d14d58ed53",
            "image_72": "https:\/\/avatars.slack-edge.com\/2020-03-13\/998337892660_56d14d58ed537e6e4654_72.png",
            "first_name": "Leo",
            "real_name": "Leo Blondel",
            "display_name": "Leo Blondel - JOGL CoFounder \/ CTO",
            "team": "TUU48M0T1",
            "name": "leo",
            "is_restricted": false,
            "is_ultra_restricted": false
        },
        "blocks": [
            {
                "type": "rich_text",
                "block_id": "aPA4Z",
                "elements": [
                    {
                        "type": "rich_text_section",
                        "elements": [
                            {
                                "type": "text",
                                "text": "You should talk to people I. "
                            },
                            {
                                "type": "channel",
                                "channel_id": "CV9R0C4V9"
                            }
                        ]
                    }
                ]
            }
        ],
        "thread_ts": "1584877334.311700",
        "parent_user_id": "U01060M08F5"
    },
    {
        "type": "message",
        "subtype": "bot_message",
        "text": "Bonjour <@U010K92FMJT> :flag-fr:",
        "ts": "1584881990.312300",
        "username": "GreetBot",
        "bot_id": "B0100JVEKUG"
    },
    {
        "type": "message",
        "subtype": "bot_message",
        "text": "Bonjour <@U010K9MHXEK> :flag-fr:",
        "ts": "1584883834.312600",
        "username": "GreetBot",
        "bot_id": "B0100JVEKUG"
    },
    {
        "type": "message",
        "subtype": "bot_message",
        "text": "Bonjour <@U0107FL9UHX> :flag-fr:",
        "ts": "1584886929.313100",
        "username": "GreetBot",
        "bot_id": "B0100JVEKUG"
    },
    {
        "type": "message",
        "subtype": "bot_message",
        "text": "Nǐ hǎo <@U0104RKNR8A> :flag-cn:",
        "ts": "1584892873.314800",
        "username": "GreetBot",
        "bot_id": "B0100JVEKUG"
    },
    {
        "client_msg_id": "f302fd65-7e4d-47b2-a0a8-2ff776064157",
        "type": "message",
        "text": "Bonjour. :flag-fr: 78",
        "user": "U0104RKNR8A",
        "ts": "1584892929.315400",
        "team": "TUU48M0T1",
        "user_team": "TUU48M0T1",
        "source_team": "TUU48M0T1",
        "user_profile": {
            "avatar_hash": "g068747e96c1",
            "image_72": "https:\/\/secure.gravatar.com\/avatar\/068747e96c1d679797f93098cf102c09.jpg?s=72&d=https%3A%2F%2Fa.slack-edge.com%2Fdf10d%2Fimg%2Favatars%2Fava_0002-72.png",
            "first_name": "",
            "real_name": "Sebastien Huet",
            "display_name": "Sebastien Huet",
            "team": "TUU48M0T1",
            "name": "sebhuet",
            "is_restricted": false,
            "is_ultra_restricted": false
        },
        "blocks": [
            {
                "type": "rich_text",
                "block_id": "QcT",
                "elements": [
                    {
                        "type": "rich_text_section",
                        "elements": [
                            {
                                "type": "text",
                                "text": "Bonjour. "
                            },
                            {
                                "type": "emoji",
                                "name": "flag-fr"
                            },
                            {
                                "type": "text",
                                "text": " 78"
                            }
                        ]
                    }
                ]
            }
        ]
    },
    {
        "type": "message",
        "subtype": "bot_message",
        "text": "Sawadi Kap <@U0104RMC75Y> :flag-th:",
        "ts": "1584893012.315700",
        "username": "GreetBot",
        "bot_id": "B0100JVEKUG"
    },
    {
        "type": "message",
        "subtype": "bot_message",
        "text": "Hallå <@U010KCGKEGP> :flag-se:",
        "ts": "1584896585.315800",
        "username": "GreetBot",
        "bot_id": "B0100JVEKUG"
    },
    {
        "type": "message",
        "subtype": "bot_message",
        "text": "Hallå <@U010KT2RR1U> :flag-se:",
        "ts": "1584897822.316100",
        "username": "GreetBot",
        "bot_id": "B0100JVEKUG"
    },
    {
        "type": "message",
        "subtype": "bot_message",
        "text": "Dobryy den’ <@U010KF4N6B1> :flag-ua:",
        "ts": "1584900973.316600",
        "username": "GreetBot",
        "bot_id": "B0100JVEKUG"
    },
    {
        "type": "message",
        "subtype": "bot_message",
        "text": "Nǐ hǎo <@U010HMTS196> :flag-cn:",
        "ts": "1584901864.316900",
        "username": "GreetBot",
        "bot_id": "B0100JVEKUG"
    },
    {
        "type": "message",
        "subtype": "bot_message",
        "text": "Hola <@U010KGBEFLP> :flag-es:",
        "ts": "1584904832.317700",
        "username": "GreetBot",
        "bot_id": "B0100JVEKUG"
    },
    {
        "client_msg_id": "5904280d-d161-4729-9214-ec3609858b20",
        "type": "message",
        "text": "Hello everybody,\nI would like to thank everybody for the organisation of this initiative!\n\n*My background:* Former researcher in Biophysics up to December 2019. I have a Ph.D. in Sciences and did two postdocs where I focused on Biochemistry, Microfluidics and Biophysics. I have experience in Molecular Biology and I worked during my thesis with pathogens (Shigella) in a biosafety level 2 laboratory (BSL-2).\n\nI would be more than happy in collaborating for design and testing detection kits for COVID-19 in traditional  or microfluidic devices. I'm living in Paris FRANCE.",
        "user": "U010KT2RR1U",
        "ts": "1584905000.319800",
        "team": "TUU48M0T1",
        "user_team": "TUU48M0T1",
        "source_team": "TUU48M0T1",
        "user_profile": {
            "avatar_hash": "71d3b43d8397",
            "image_72": "https:\/\/avatars.slack-edge.com\/2020-03-22\/1007651829457_71d3b43d8397cc52124d_72.jpg",
            "first_name": "Cesar",
            "real_name": "Cesar VALENCIA GALLARDO",
            "display_name": "Cesar VALENCIA GALLARDO",
            "team": "TUU48M0T1",
            "name": "ccesar.val",
            "is_restricted": false,
            "is_ultra_restricted": false
        },
        "edited": {
            "user": "U010KT2RR1U",
            "ts": "1584905157.000000"
        },
        "blocks": [
            {
                "type": "rich_text",
                "block_id": "GaFu",
                "elements": [
                    {
                        "type": "rich_text_section",
                        "elements": [
                            {
                                "type": "text",
                                "text": "Hello everybody,\nI would like to thank everybody for the organisation of this initiative!\n\n"
                            },
                            {
                                "type": "text",
                                "text": "My background:",
                                "style": {
                                    "bold": true
                                }
                            },
                            {
                                "type": "text",
                                "text": " Former researcher in Biophysics up to December 2019. I have a Ph.D. in Sciences and did two postdocs where I focused on Biochemistry, Microfluidics and Biophysics. I have experience in Molecular Biology and I worked during my thesis with pathogens (Shigella) in a biosafety level 2 laboratory (BSL-2).\n\nI would be more than happy in collaborating for design and testing detection kits for COVID-19 in traditional  or microfluidic devices. I'm living in Paris FRANCE."
                            }
                        ]
                    }
                ]
            }
        ],
        "thread_ts": "1584905000.319800",
        "reply_count": 2,
        "reply_users_count": 2,
        "latest_reply": "1584925282.341400",
        "reply_users": [
            "UVC9WMA7N",
            "UV6870881"
        ],
        "replies": [
            {
                "user": "UVC9WMA7N",
                "ts": "1584908066.320900"
            },
            {
                "user": "UV6870881",
                "ts": "1584925282.341400"
            }
        ],
        "subscribed": false,
        "reactions": [
            {
                "name": "wave",
                "users": [
                    "UV02WET96",
                    "UVC9WMA7N"
                ],
                "count": 2
            }
        ]
    },
    {
        "client_msg_id": "e32d0288-cb1a-418f-8b69-e64935bfa2d6",
        "type": "message",
        "text": "You are right ad wrong Tim. There are some printers and filaments that are flexible but they are rare and relatively expensive. And more than that it would take hours to print a mask which in my view make that terrible idea :0 But you could print molds and use a faster technology :)",
        "user": "U0103SR759U",
        "ts": "1584907092.320300",
        "team": "TUU48M0T1",
        "user_team": "TUU48M0T1",
        "source_team": "TUU48M0T1",
        "user_profile": {
            "avatar_hash": "g2694d379600",
            "image_72": "https:\/\/secure.gravatar.com\/avatar\/2694d3796008843d36d4b6ceff7f8660.jpg?s=72&d=https%3A%2F%2Fa.slack-edge.com%2Fdf10d%2Fimg%2Favatars%2Fava_0010-72.png",
            "first_name": "Adrian",
            "real_name": "Adrian Molecule",
            "display_name": "Adrian Molecule",
            "team": "TUU48M0T1",
            "name": "tada",
            "is_restricted": false,
            "is_ultra_restricted": false
        },
        "blocks": [
            {
                "type": "rich_text",
                "block_id": "goMt",
                "elements": [
                    {
                        "type": "rich_text_section",
                        "elements": [
                            {
                                "type": "text",
                                "text": "You are right ad wrong Tim. There are some printers and filaments that are flexible but they are rare and relatively expensive. And more than that it would take hours to print a mask which in my view make that terrible idea :0 But you could print molds and use a faster technology :)"
                            }
                        ]
                    }
                ]
            }
        ],
        "thread_ts": "1584708563.161500",
        "parent_user_id": "U0101MQ3ATT"
    },
    {
        "client_msg_id": "1b7b5af5-1df9-4daa-99dd-20a11141d9d6",
        "type": "message",
        "text": "It's probably better to bind to the spike if sequence is known.",
        "user": "U0103SR759U",
        "ts": "1584907223.320500",
        "team": "TUU48M0T1",
        "user_team": "TUU48M0T1",
        "source_team": "TUU48M0T1",
        "user_profile": {
            "avatar_hash": "g2694d379600",
            "image_72": "https:\/\/secure.gravatar.com\/avatar\/2694d3796008843d36d4b6ceff7f8660.jpg?s=72&d=https%3A%2F%2Fa.slack-edge.com%2Fdf10d%2Fimg%2Favatars%2Fava_0010-72.png",
            "first_name": "Adrian",
            "real_name": "Adrian Molecule",
            "display_name": "Adrian Molecule",
            "team": "TUU48M0T1",
            "name": "tada",
            "is_restricted": false,
            "is_ultra_restricted": false
        },
        "edited": {
            "user": "U0103SR759U",
            "ts": "1584907605.000000"
        },
        "blocks": [
            {
                "type": "rich_text",
                "block_id": "wN8t",
                "elements": [
                    {
                        "type": "rich_text_section",
                        "elements": [
                            {
                                "type": "text",
                                "text": "It's probably better to bind to the spike if sequence is known."
                            }
                        ]
                    }
                ]
            }
        ],
        "thread_ts": "1584720776.174700",
        "parent_user_id": "U0101MQ3ATT"
    },
    {
        "client_msg_id": "6c7d849e-d490-419f-a4c4-e249b1169c80",
        "type": "message",
        "text": "Welcome !\n\nI reccomend you go see if there are some projects that inspire you on JOGL, and contact them in their corresponding Slack Channel !\n\nThe detection Challenge seems to be the one you want to checkout !",
        "user": "UVC9WMA7N",
        "ts": "1584908066.320900",
        "team": "TUU48M0T1",
        "user_team": "TUU48M0T1",
        "source_team": "TUU48M0T1",
        "user_profile": {
            "avatar_hash": "56d14d58ed53",
            "image_72": "https:\/\/avatars.slack-edge.com\/2020-03-13\/998337892660_56d14d58ed537e6e4654_72.png",
            "first_name": "Leo",
            "real_name": "Leo Blondel",
            "display_name": "Leo Blondel - JOGL CoFounder \/ CTO",
            "team": "TUU48M0T1",
            "name": "leo",
            "is_restricted": false,
            "is_ultra_restricted": false
        },
        "blocks": [
            {
                "type": "rich_text",
                "block_id": "fILx",
                "elements": [
                    {
                        "type": "rich_text_section",
                        "elements": [
                            {
                                "type": "text",
                                "text": "Welcome !\n\nI reccomend you go see if there are some projects that inspire you on JOGL, and contact them in their corresponding Slack Channel !\n\nThe detection Challenge seems to be the one you want to checkout !"
                            }
                        ]
                    }
                ]
            }
        ],
        "thread_ts": "1584905000.319800",
        "parent_user_id": "U010KT2RR1U"
    },
    {
        "type": "message",
        "subtype": "bot_message",
        "text": "Ohayo <@U010KHRE7AB> :flag-jp:",
        "ts": "1584909570.321400",
        "username": "GreetBot",
        "bot_id": "B0100JVEKUG"
    },
    {
        "type": "message",
        "subtype": "bot_message",
        "text": "Hallå <@U010H59SZFE> :flag-se:",
        "ts": "1584909584.321500",
        "username": "GreetBot",
        "bot_id": "B0100JVEKUG"
    },
    {
        "type": "message",
        "subtype": "bot_message",
        "text": "Hola <@U0106BBE6PM> :flag-es:",
        "ts": "1584911506.322700",
        "username": "GreetBot",
        "bot_id": "B0100JVEKUG"
    },
    {
        "client_msg_id": "8347666e-3423-4222-9c63-fd580d67532f",
        "type": "message",
        "text": "Hello, I'm Jon Sealy. I'm a writer in Richmond, Virginia, and have been supporting <@UVADMLUB0> with communications and outreach. I have a good network of writers in the United States, so if you need a writer in a particular area, let me know and I can try to connect you with someone. I may also be able to connect you with a writing professor who is looking for something to do with their students -- a research project, communications outreach, etc. My email address is <mailto:jon@rhudy.biz|jon@rhudy.biz>. Thank you all for the work you are doing.",
        "user": "U010H59SZFE",
        "ts": "1584911869.324700",
        "team": "TUU48M0T1",
        "user_team": "TUU48M0T1",
        "source_team": "TUU48M0T1",
        "user_profile": {
            "avatar_hash": "g11315836dc1",
            "image_72": "https:\/\/secure.gravatar.com\/avatar\/11315836dc107c2129e222d8e4cc1cf2.jpg?s=72&d=https%3A%2F%2Fa.slack-edge.com%2Fdf10d%2Fimg%2Favatars%2Fava_0010-72.png",
            "first_name": "",
            "real_name": "Jon Sealy",
            "display_name": "Jon Sealy",
            "team": "TUU48M0T1",
            "name": "jon",
            "is_restricted": false,
            "is_ultra_restricted": false
        },
        "blocks": [
            {
                "type": "rich_text",
                "block_id": "IFP",
                "elements": [
                    {
                        "type": "rich_text_section",
                        "elements": [
                            {
                                "type": "text",
                                "text": "Hello, I'm Jon Sealy. I'm a writer in Richmond, Virginia, and have been supporting "
                            },
                            {
                                "type": "user",
                                "user_id": "UVADMLUB0"
                            },
                            {
                                "type": "text",
                                "text": " with communications and outreach. I have a good network of writers in the United States, so if you need a writer in a particular area, let me know and I can try to connect you with someone. I may also be able to connect you with a writing professor who is looking for something to do with their students -- a research project, communications outreach, etc. My email address is "
                            },
                            {
                                "type": "link",
                                "url": "mailto:jon@rhudy.biz",
                                "text": "jon@rhudy.biz"
                            },
                            {
                                "type": "text",
                                "text": ". Thank you all for the work you are doing."
                            }
                        ]
                    }
                ]
            }
        ],
        "thread_ts": "1584911869.324700",
        "reply_count": 1,
        "reply_users_count": 1,
        "latest_reply": "1584925232.341200",
        "reply_users": [
            "UV6870881"
        ],
        "replies": [
            {
                "user": "UV6870881",
                "ts": "1584925232.341200"
            }
        ],
        "subscribed": false,
        "reactions": [
            {
                "name": "wave",
                "users": [
                    "UV02WET96",
                    "UV0QTJCMT"
                ],
                "count": 2
            }
        ]
    },
    {
        "type": "message",
        "subtype": "bot_message",
        "text": "Cześć <@U010L2FDLEA> :flag-pl:",
        "ts": "1584913471.325100",
        "username": "GreetBot",
        "bot_id": "B0100JVEKUG"
    },
    {
        "type": "message",
        "subtype": "bot_message",
        "text": "Cześć <@U010KAJ3SLW> :flag-pl:",
        "ts": "1584914763.325200",
        "username": "GreetBot",
        "bot_id": "B0100JVEKUG"
    },
    {
        "client_msg_id": "CE3B78E9-57BA-442D-AAC0-7D6F6EEF0180",
        "type": "message",
        "text": "I will thanks",
        "user": "U01060M08F5",
        "ts": "1584914798.325500",
        "team": "TUU48M0T1",
        "user_team": "TUU48M0T1",
        "source_team": "TUU48M0T1",
        "user_profile": {
            "avatar_hash": "64623e768d6f",
            "image_72": "https:\/\/avatars.slack-edge.com\/2020-03-23\/1017891333936_64623e768d6fd217024c_72.jpg",
            "first_name": "Gautier",
            "real_name": "Gautier Favier",
            "display_name": "Gautier Favier",
            "team": "TUU48M0T1",
            "name": "gautier.favier",
            "is_restricted": false,
            "is_ultra_restricted": false
        },
        "blocks": [
            {
                "type": "rich_text",
                "block_id": "cDZRV",
                "elements": [
                    {
                        "type": "rich_text_section",
                        "elements": [
                            {
                                "type": "text",
                                "text": "I will thanks"
                            }
                        ]
                    }
                ]
            }
        ],
        "thread_ts": "1584877334.311700",
        "parent_user_id": "U01060M08F5"
    },
    {
        "type": "message",
        "subtype": "bot_message",
        "text": "Ohayo <@U010HSZFE4V> :flag-jp:",
        "ts": "1584915895.325900",
        "username": "GreetBot",
        "bot_id": "B0100JVEKUG"
    },
    {
        "type": "message",
        "subtype": "bot_message",
        "text": "Ohayo <@U010HTBUHS9> :flag-jp:",
        "ts": "1584917051.326100",
        "username": "GreetBot",
        "bot_id": "B0100JVEKUG"
    },
    {
        "client_msg_id": "03e91521-3ceb-40f3-8e68-0b7579acf3f1",
        "type": "message",
        "text": "Greetings - Adam Arabian, Ph.D., registered PE, Mechanical Engineering professor in Seattle WA.  Prior industry experience leading big teams on medical devices and biological sampling of various nasty things (experience with BSL2 labs and running various assays) - willing to throw in on anything from nuts and bolts to high level planning, engagement, and architecture.",
        "user": "U010HTBUHS9",
        "ts": "1584917291.328700",
        "team": "TUU48M0T1",
        "user_team": "TUU48M0T1",
        "source_team": "TUU48M0T1",
        "user_profile": {
            "avatar_hash": "e7bdbebff0d9",
            "image_72": "https:\/\/avatars.slack-edge.com\/2020-03-22\/1017951251813_e7bdbebff0d9ad1e8f12_72.jpg",
            "first_name": "",
            "real_name": "Adam Arabian",
            "display_name": "Adam Arabian",
            "team": "TUU48M0T1",
            "name": "adam.arabian",
            "is_restricted": false,
            "is_ultra_restricted": false
        },
        "blocks": [
            {
                "type": "rich_text",
                "block_id": "zgx",
                "elements": [
                    {
                        "type": "rich_text_section",
                        "elements": [
                            {
                                "type": "text",
                                "text": "Greetings - Adam Arabian, Ph.D., registered PE, Mechanical Engineering professor in Seattle WA.  Prior industry experience leading big teams on medical devices and biological sampling of various nasty things (experience with BSL2 labs and running various assays) - willing to throw in on anything from nuts and bolts to high level planning, engagement, and architecture."
                            }
                        ]
                    }
                ]
            }
        ],
        "thread_ts": "1584917291.328700",
        "reply_count": 1,
        "reply_users_count": 1,
        "latest_reply": "1584925144.340600",
        "reply_users": [
            "UV6870881"
        ],
        "replies": [
            {
                "user": "UV6870881",
                "ts": "1584925144.340600"
            }
        ],
        "subscribed": false,
        "reactions": [
            {
                "name": "wave",
                "users": [
                    "UV02WET96"
                ],
                "count": 1
            }
        ]
    },
    {
        "client_msg_id": "b61c0dfe-cbdb-481e-99d3-3d0c7781ad00",
        "type": "message",
        "text": "Hi everyone, I'm Remi, French student ending his studies in Big Data &amp; Data Science in an internship in south of France. I have some experience with Python and Machine Learning but also collecting and storing datas. Ready to help on everything I can, in data science oriented projects or to help people understand how it works and its benefits!",
        "user": "U010HSZFE4V",
        "ts": "1584917825.331500",
        "team": "TUU48M0T1",
        "user_team": "TUU48M0T1",
        "source_team": "TUU48M0T1",
        "user_profile": {
            "avatar_hash": "g97769c99641",
            "image_72": "https:\/\/secure.gravatar.com\/avatar\/97769c9964194fdd119ca0ccb723f7f3.jpg?s=72&d=https%3A%2F%2Fa.slack-edge.com%2Fdf10d%2Fimg%2Favatars%2Fava_0014-72.png",
            "first_name": "",
            "real_name": "Remi BOUKHELOUA",
            "display_name": "Remi BOUKHELOUA",
            "team": "TUU48M0T1",
            "name": "remitejo",
            "is_restricted": false,
            "is_ultra_restricted": false
        },
        "blocks": [
            {
                "type": "rich_text",
                "block_id": "n4R",
                "elements": [
                    {
                        "type": "rich_text_section",
                        "elements": [
                            {
                                "type": "text",
                                "text": "Hi everyone, I'm Remi, French student ending his studies in Big Data & Data Science in an internship in south of France. I have some experience with Python and Machine Learning but also collecting and storing datas. Ready to help on everything I can, in data science oriented projects or to help people understand how it works and its benefits!"
                            }
                        ]
                    }
                ]
            }
        ],
        "thread_ts": "1584917825.331500",
        "reply_count": 2,
        "reply_users_count": 2,
        "latest_reply": "1586168195.357000",
        "reply_users": [
            "UV0QTJCMT",
            "U011BAD8A5V"
        ],
        "replies": [
            {
                "user": "UV0QTJCMT",
                "ts": "1584926639.347100"
            },
            {
                "user": "U011BAD8A5V",
                "ts": "1586168195.357000"
            }
        ],
        "subscribed": false,
        "reactions": [
            {
                "name": "wave",
                "users": [
                    "UV02WET96"
                ],
                "count": 1
            }
        ]
    },
    {
        "type": "message",
        "subtype": "bot_message",
        "text": "Namaste <@U0107GAJXPT> :flag-in:",
        "ts": "1584918518.331600",
        "username": "GreetBot",
        "bot_id": "B0100JVEKUG"
    },
    {
        "type": "message",
        "subtype": "bot_message",
        "text": "Guten tag <@U010L4A4N4W> :flag-de:",
        "ts": "1584919237.331900",
        "username": "GreetBot",
        "bot_id": "B0100JVEKUG"
    },
    {
        "type": "message",
        "subtype": "bot_message",
        "text": "Ohayo <@U0107S120EM> :flag-jp:",
        "ts": "1584920167.332400",
        "username": "GreetBot",
        "bot_id": "B0100JVEKUG"
    },
    {
        "type": "message",
        "subtype": "bot_message",
        "text": "Nǐ hǎo <@U010L4VK0F8> :flag-cn:",
        "ts": "1584920975.332700",
        "username": "GreetBot",
        "bot_id": "B0100JVEKUG"
    },
    {
        "type": "message",
        "subtype": "bot_message",
        "text": "Bonjour <@U010HERBG0L> :flag-fr:",
        "ts": "1584921081.333000",
        "username": "GreetBot",
        "bot_id": "B0100JVEKUG"
    },
    {
        "type": "message",
        "subtype": "bot_message",
        "text": "Namaste <@U010550945Q> :flag-in:",
        "ts": "1584921094.333300",
        "username": "GreetBot",
        "bot_id": "B0100JVEKUG"
    },
    {
        "type": "message",
        "subtype": "bot_message",
        "text": "Dobryy den’ <@U010566NJHG> :flag-ua:",
        "ts": "1584924163.333600",
        "username": "GreetBot",
        "bot_id": "B0100JVEKUG"
    },
    {
        "client_msg_id": "032707db-a4c9-45b8-99a8-248e96482d0d",
        "type": "message",
        "text": "Hi, I am a Social Anthropologist amongst other things, with specific interests in population control, government interventions and human-nonhuman (e.g. virus) relations. I am also interested in autonomous care and organising. I currently work a contract scenario building for water futures in SE UK. I came here because (a) mass testing for C19 is the bottleneck in addressing it in the UK (b) exploring ways to mobilise university and private labs here in UK to produce tests and testing facilities, and if this capability can be reached in a coordinated way then the first step will have been achieved in ending corona virus here. Looking where I can help and where I can learn towards these aims. Thanks",
        "user": "U010566NJHG",
        "ts": "1584924828.340200",
        "team": "TUU48M0T1",
        "user_team": "TUU48M0T1",
        "source_team": "TUU48M0T1",
        "user_profile": {
            "avatar_hash": "103225790dbb",
            "image_72": "https:\/\/avatars.slack-edge.com\/2020-03-23\/1018037453952_103225790dbb62abe3e8_72.jpg",
            "first_name": "Avi",
            "real_name": "Avi Khalil",
            "display_name": "Avi",
            "team": "TUU48M0T1",
            "name": "kavb",
            "is_restricted": false,
            "is_ultra_restricted": false
        },
        "blocks": [
            {
                "type": "rich_text",
                "block_id": "EB8",
                "elements": [
                    {
                        "type": "rich_text_section",
                        "elements": [
                            {
                                "type": "text",
                                "text": "Hi, I am a Social Anthropologist amongst other things, with specific interests in population control, government interventions and human-nonhuman (e.g. virus) relations. I am also interested in autonomous care and organising. I currently work a contract scenario building for water futures in SE UK. I came here because (a) mass testing for C19 is the bottleneck in addressing it in the UK (b) exploring ways to mobilise university and private labs here in UK to produce tests and testing facilities, and if this capability can be reached in a coordinated way then the first step will have been achieved in ending corona virus here. Looking where I can help and where I can learn towards these aims. Thanks"
                            }
                        ]
                    }
                ]
            }
        ],
        "thread_ts": "1584924828.340200",
        "reply_count": 1,
        "reply_users_count": 1,
        "latest_reply": "1584925050.340300",
        "reply_users": [
            "UV6870881"
        ],
        "replies": [
            {
                "user": "UV6870881",
                "ts": "1584925050.340300"
            }
        ],
        "subscribed": false
    },
    {
        "client_msg_id": "71b7b4ec-72e3-486c-9c7b-ebd300368196",
        "type": "message",
        "text": "Welcome aboard Avi! <#C0103J8NF46|chlg-detect-team> <#CV59UC6JD|chlg-prevent-team>  <#CV9R0C4V9|proj-dev-ai-cough-detection> <#C0109J5U8P7|proj-dev-contact-tracing> are all channels that fit with your goals you should join them",
        "user": "UV6870881",
        "ts": "1584925050.340300",
        "team": "TUU48M0T1",
        "user_team": "TUU48M0T1",
        "source_team": "TUU48M0T1",
        "user_profile": {
            "avatar_hash": "gbbbbcc3accd",
            "image_72": "https:\/\/secure.gravatar.com\/avatar\/bbbbcc3accdddb02dfb1c03a4a65b994.jpg?s=72&d=https%3A%2F%2Fa.slack-edge.com%2Fdf10d%2Fimg%2Favatars%2Fava_0011-72.png",
            "first_name": "Quant",
            "real_name": "Quant",
            "display_name": "",
            "team": "TUU48M0T1",
            "name": "admin",
            "is_restricted": false,
            "is_ultra_restricted": false
        },
        "edited": {
            "user": "UV6870881",
            "ts": "1584925059.000000"
        },
        "blocks": [
            {
                "type": "rich_text",
                "block_id": "=2=b",
                "elements": [
                    {
                        "type": "rich_text_section",
                        "elements": [
                            {
                                "type": "text",
                                "text": "Welcome aboard Avi! "
                            },
                            {
                                "type": "channel",
                                "channel_id": "C0103J8NF46"
                            },
                            {
                                "type": "text",
                                "text": " "
                            },
                            {
                                "type": "channel",
                                "channel_id": "CV59UC6JD"
                            },
                            {
                                "type": "text",
                                "text": "  "
                            },
                            {
                                "type": "channel",
                                "channel_id": "CV9R0C4V9"
                            },
                            {
                                "type": "text",
                                "text": " "
                            },
                            {
                                "type": "channel",
                                "channel_id": "C0109J5U8P7"
                            },
                            {
                                "type": "text",
                                "text": " are all channels that fit with your goals you should join them"
                            }
                        ]
                    }
                ]
            }
        ],
        "thread_ts": "1584924828.340200",
        "parent_user_id": "U010566NJHG",
        "reactions": [
            {
                "name": "+1",
                "users": [
                    "UV0QTJCMT",
                    "U010566NJHG"
                ],
                "count": 2
            }
        ]
    },
    {
        "client_msg_id": "40802fa3-60b7-422d-b351-93945626b97f",
        "type": "message",
        "text": "Welcome aboard adam! <#CVD4RHKDF|proj-ventilator> <#C0103J8NF46|chlg-detect-team> are the channels where you want to be also <#CUWUM8M2P|prgm-biosafety-questions> <#CV0QED4KU|prgm-governance-team>",
        "user": "UV6870881",
        "ts": "1584925144.340600",
        "team": "TUU48M0T1",
        "user_team": "TUU48M0T1",
        "source_team": "TUU48M0T1",
        "user_profile": {
            "avatar_hash": "gbbbbcc3accd",
            "image_72": "https:\/\/secure.gravatar.com\/avatar\/bbbbcc3accdddb02dfb1c03a4a65b994.jpg?s=72&d=https%3A%2F%2Fa.slack-edge.com%2Fdf10d%2Fimg%2Favatars%2Fava_0011-72.png",
            "first_name": "Quant",
            "real_name": "Quant",
            "display_name": "",
            "team": "TUU48M0T1",
            "name": "admin",
            "is_restricted": false,
            "is_ultra_restricted": false
        },
        "edited": {
            "user": "UV6870881",
            "ts": "1584925162.000000"
        },
        "blocks": [
            {
                "type": "rich_text",
                "block_id": "soEVI",
                "elements": [
                    {
                        "type": "rich_text_section",
                        "elements": [
                            {
                                "type": "text",
                                "text": "Welcome aboard adam! "
                            },
                            {
                                "type": "channel",
                                "channel_id": "CVD4RHKDF"
                            },
                            {
                                "type": "text",
                                "text": " "
                            },
                            {
                                "type": "channel",
                                "channel_id": "C0103J8NF46"
                            },
                            {
                                "type": "text",
                                "text": " are the channels where you want to be also "
                            },
                            {
                                "type": "channel",
                                "channel_id": "CUWUM8M2P"
                            },
                            {
                                "type": "text",
                                "text": " "
                            },
                            {
                                "type": "channel",
                                "channel_id": "CV0QED4KU"
                            }
                        ]
                    }
                ]
            }
        ],
        "thread_ts": "1584917291.328700",
        "parent_user_id": "U010HTBUHS9"
    },
    {
        "type": "message",
        "subtype": "bot_message",
        "text": "Namaste <@U010HGC63BN> :flag-in:",
        "ts": "1584925189.341100",
        "username": "GreetBot",
        "bot_id": "B0100JVEKUG"
    },
    {
        "client_msg_id": "96dccbcd-f632-49b2-92e9-706e6cf80c4e",
        "type": "message",
        "text": "Hi Jon <#CURG6ALTC|prgm-communications-team> is the channel that you want to join",
        "user": "UV6870881",
        "ts": "1584925232.341200",
        "team": "TUU48M0T1",
        "user_team": "TUU48M0T1",
        "source_team": "TUU48M0T1",
        "user_profile": {
            "avatar_hash": "gbbbbcc3accd",
            "image_72": "https:\/\/secure.gravatar.com\/avatar\/bbbbcc3accdddb02dfb1c03a4a65b994.jpg?s=72&d=https%3A%2F%2Fa.slack-edge.com%2Fdf10d%2Fimg%2Favatars%2Fava_0011-72.png",
            "first_name": "Quant",
            "real_name": "Quant",
            "display_name": "",
            "team": "TUU48M0T1",
            "name": "admin",
            "is_restricted": false,
            "is_ultra_restricted": false
        },
        "blocks": [
            {
                "type": "rich_text",
                "block_id": "0pZC+",
                "elements": [
                    {
                        "type": "rich_text_section",
                        "elements": [
                            {
                                "type": "text",
                                "text": "Hi Jon "
                            },
                            {
                                "type": "channel",
                                "channel_id": "CURG6ALTC"
                            },
                            {
                                "type": "text",
                                "text": " is the channel that you want to join"
                            }
                        ]
                    }
                ]
            }
        ],
        "thread_ts": "1584911869.324700",
        "parent_user_id": "U010H59SZFE"
    },
    {
        "client_msg_id": "ff8954ca-c276-4a1a-97f6-395005d2ed2a",
        "type": "message",
        "text": "Hola Cesar! <#C0103J8NF46|chlg-detect-team> is the channel u want to join",
        "user": "UV6870881",
        "ts": "1584925282.341400",
        "team": "TUU48M0T1",
        "user_team": "TUU48M0T1",
        "source_team": "TUU48M0T1",
        "user_profile": {
            "avatar_hash": "gbbbbcc3accd",
            "image_72": "https:\/\/secure.gravatar.com\/avatar\/bbbbcc3accdddb02dfb1c03a4a65b994.jpg?s=72&d=https%3A%2F%2Fa.slack-edge.com%2Fdf10d%2Fimg%2Favatars%2Fava_0011-72.png",
            "first_name": "Quant",
            "real_name": "Quant",
            "display_name": "",
            "team": "TUU48M0T1",
            "name": "admin",
            "is_restricted": false,
            "is_ultra_restricted": false
        },
        "blocks": [
            {
                "type": "rich_text",
                "block_id": "8Q9h",
                "elements": [
                    {
                        "type": "rich_text_section",
                        "elements": [
                            {
                                "type": "text",
                                "text": "Hola Cesar! "
                            },
                            {
                                "type": "channel",
                                "channel_id": "C0103J8NF46"
                            },
                            {
                                "type": "text",
                                "text": " is the channel u want to join"
                            }
                        ]
                    }
                ]
            }
        ],
        "thread_ts": "1584905000.319800",
        "parent_user_id": "U010KT2RR1U"
    },
    {
        "client_msg_id": "222da9d7-0e40-45ac-b487-96ce7b597808",
        "type": "message",
        "text": "Yoy should join <#CV9R0C4V9|proj-dev-ai-cough-detection> channel your help is needed",
        "user": "UV6870881",
        "ts": "1584925340.341600",
        "team": "TUU48M0T1",
        "user_team": "TUU48M0T1",
        "source_team": "TUU48M0T1",
        "user_profile": {
            "avatar_hash": "gbbbbcc3accd",
            "image_72": "https:\/\/secure.gravatar.com\/avatar\/bbbbcc3accdddb02dfb1c03a4a65b994.jpg?s=72&d=https%3A%2F%2Fa.slack-edge.com%2Fdf10d%2Fimg%2Favatars%2Fava_0011-72.png",
            "first_name": "Quant",
            "real_name": "Quant",
            "display_name": "",
            "team": "TUU48M0T1",
            "name": "admin",
            "is_restricted": false,
            "is_ultra_restricted": false
        },
        "blocks": [
            {
                "type": "rich_text",
                "block_id": "57ap",
                "elements": [
                    {
                        "type": "rich_text_section",
                        "elements": [
                            {
                                "type": "text",
                                "text": "Yoy should join "
                            },
                            {
                                "type": "channel",
                                "channel_id": "CV9R0C4V9"
                            },
                            {
                                "type": "text",
                                "text": " channel your help is needed"
                            }
                        ]
                    }
                ]
            }
        ],
        "thread_ts": "1584851724.305000",
        "parent_user_id": "UVA9QC7C3"
    },
    {
        "client_msg_id": "c9afc5f6-706d-453f-b3f5-4797ce6a30ce",
        "type": "message",
        "text": "You should join channel <#C0104ANKV4L|proj-mask-team> your help is needed there",
        "user": "UV6870881",
        "ts": "1584925383.341800",
        "team": "TUU48M0T1",
        "user_team": "TUU48M0T1",
        "source_team": "TUU48M0T1",
        "user_profile": {
            "avatar_hash": "gbbbbcc3accd",
            "image_72": "https:\/\/secure.gravatar.com\/avatar\/bbbbcc3accdddb02dfb1c03a4a65b994.jpg?s=72&d=https%3A%2F%2Fa.slack-edge.com%2Fdf10d%2Fimg%2Favatars%2Fava_0011-72.png",
            "first_name": "Quant",
            "real_name": "Quant",
            "display_name": "",
            "team": "TUU48M0T1",
            "name": "admin",
            "is_restricted": false,
            "is_ultra_restricted": false
        },
        "blocks": [
            {
                "type": "rich_text",
                "block_id": "zBj",
                "elements": [
                    {
                        "type": "rich_text_section",
                        "elements": [
                            {
                                "type": "text",
                                "text": "You should join channel "
                            },
                            {
                                "type": "channel",
                                "channel_id": "C0104ANKV4L"
                            },
                            {
                                "type": "text",
                                "text": " your help is needed there"
                            }
                        ]
                    }
                ]
            }
        ],
        "thread_ts": "1584842845.301800",
        "parent_user_id": "U0105KZPEJF",
        "reactions": [
            {
                "name": "100",
                "users": [
                    "U0105KZPEJF"
                ],
                "count": 1
            }
        ]
    },
    {
        "client_msg_id": "a22b3fef-0a96-4922-a972-456e46794c79",
        "type": "message",
        "text": "You should ask your question in channel <#CV59UC6JD|chlg-prevent-team> and <#C01037HNAK1|prgm-hardware-team>",
        "user": "UV6870881",
        "ts": "1584925438.342100",
        "team": "TUU48M0T1",
        "user_team": "TUU48M0T1",
        "source_team": "TUU48M0T1",
        "user_profile": {
            "avatar_hash": "gbbbbcc3accd",
            "image_72": "https:\/\/secure.gravatar.com\/avatar\/bbbbcc3accdddb02dfb1c03a4a65b994.jpg?s=72&d=https%3A%2F%2Fa.slack-edge.com%2Fdf10d%2Fimg%2Favatars%2Fava_0011-72.png",
            "first_name": "Quant",
            "real_name": "Quant",
            "display_name": "",
            "team": "TUU48M0T1",
            "name": "admin",
            "is_restricted": false,
            "is_ultra_restricted": false
        },
        "blocks": [
            {
                "type": "rich_text",
                "block_id": "1DMh",
                "elements": [
                    {
                        "type": "rich_text_section",
                        "elements": [
                            {
                                "type": "text",
                                "text": "You should ask your question in channel "
                            },
                            {
                                "type": "channel",
                                "channel_id": "CV59UC6JD"
                            },
                            {
                                "type": "text",
                                "text": " and "
                            },
                            {
                                "type": "channel",
                                "channel_id": "C01037HNAK1"
                            }
                        ]
                    }
                ]
            }
        ],
        "thread_ts": "1584842134.299200",
        "parent_user_id": "U010KCXU938"
    },
    {
        "client_msg_id": "c45f8c20-ab63-40c8-88eb-96e67d9de320",
        "type": "message",
        "text": "Yes they do especially when combined with a hepa filtee like in vaccums you should join the channel <#C0104ANKV4L|proj-mask-team> you will find your people! Welcome aboard!",
        "user": "UV6870881",
        "ts": "1584925599.342300",
        "team": "TUU48M0T1",
        "user_team": "TUU48M0T1",
        "source_team": "TUU48M0T1",
        "user_profile": {
            "avatar_hash": "gbbbbcc3accd",
            "image_72": "https:\/\/secure.gravatar.com\/avatar\/bbbbcc3accdddb02dfb1c03a4a65b994.jpg?s=72&d=https%3A%2F%2Fa.slack-edge.com%2Fdf10d%2Fimg%2Favatars%2Fava_0011-72.png",
            "first_name": "Quant",
            "real_name": "Quant",
            "display_name": "",
            "team": "TUU48M0T1",
            "name": "admin",
            "is_restricted": false,
            "is_ultra_restricted": false
        },
        "blocks": [
            {
                "type": "rich_text",
                "block_id": "saqz",
                "elements": [
                    {
                        "type": "rich_text_section",
                        "elements": [
                            {
                                "type": "text",
                                "text": "Yes they do especially when combined with a hepa filtee like in vaccums you should join the channel "
                            },
                            {
                                "type": "channel",
                                "channel_id": "C0104ANKV4L"
                            },
                            {
                                "type": "text",
                                "text": " you will find your people! Welcome aboard!"
                            }
                        ]
                    }
                ]
            }
        ],
        "thread_ts": "1584828541.280900",
        "parent_user_id": "U010KA591PY"
    },
    {
        "client_msg_id": "5e60e2dc-9eb5-43a4-b418-344c11114348",
        "type": "message",
        "text": "<#CVD4RHKDF|proj-ventilator> is the channel you need to join",
        "user": "UV6870881",
        "ts": "1584925662.342500",
        "team": "TUU48M0T1",
        "user_team": "TUU48M0T1",
        "source_team": "TUU48M0T1",
        "user_profile": {
            "avatar_hash": "gbbbbcc3accd",
            "image_72": "https:\/\/secure.gravatar.com\/avatar\/bbbbcc3accdddb02dfb1c03a4a65b994.jpg?s=72&d=https%3A%2F%2Fa.slack-edge.com%2Fdf10d%2Fimg%2Favatars%2Fava_0011-72.png",
            "first_name": "Quant",
            "real_name": "Quant",
            "display_name": "",
            "team": "TUU48M0T1",
            "name": "admin",
            "is_restricted": false,
            "is_ultra_restricted": false
        },
        "blocks": [
            {
                "type": "rich_text",
                "block_id": "FcsZ",
                "elements": [
                    {
                        "type": "rich_text_section",
                        "elements": [
                            {
                                "type": "channel",
                                "channel_id": "CVD4RHKDF"
                            },
                            {
                                "type": "text",
                                "text": " is the channel you need to join"
                            }
                        ]
                    }
                ]
            }
        ],
        "thread_ts": "1584827368.277500",
        "parent_user_id": "U010H3V5F3P"
    },
    {
        "client_msg_id": "b60cf7af-b2bf-462c-86b0-c1e2de56d14d",
        "type": "message",
        "text": "Welcome Vahid! You should join channel <#CV9R0C4V9|proj-dev-ai-cough-detection> and <#C0109J5U8P7|proj-dev-contact-tracing> they need your help",
        "user": "UV6870881",
        "ts": "1584925721.342700",
        "team": "TUU48M0T1",
        "user_team": "TUU48M0T1",
        "source_team": "TUU48M0T1",
        "user_profile": {
            "avatar_hash": "gbbbbcc3accd",
            "image_72": "https:\/\/secure.gravatar.com\/avatar\/bbbbcc3accdddb02dfb1c03a4a65b994.jpg?s=72&d=https%3A%2F%2Fa.slack-edge.com%2Fdf10d%2Fimg%2Favatars%2Fava_0011-72.png",
            "first_name": "Quant",
            "real_name": "Quant",
            "display_name": "",
            "team": "TUU48M0T1",
            "name": "admin",
            "is_restricted": false,
            "is_ultra_restricted": false
        },
        "blocks": [
            {
                "type": "rich_text",
                "block_id": "pUZ",
                "elements": [
                    {
                        "type": "rich_text_section",
                        "elements": [
                            {
                                "type": "text",
                                "text": "Welcome Vahid! You should join channel "
                            },
                            {
                                "type": "channel",
                                "channel_id": "CV9R0C4V9"
                            },
                            {
                                "type": "text",
                                "text": " and "
                            },
                            {
                                "type": "channel",
                                "channel_id": "C0109J5U8P7"
                            },
                            {
                                "type": "text",
                                "text": " they need your help"
                            }
                        ]
                    }
                ]
            }
        ],
        "thread_ts": "1584816164.266800",
        "parent_user_id": "U010GD6AALC"
    },
    {
        "client_msg_id": "091d0e52-71bb-43e1-aaa8-fc651f337fd3",
        "type": "message",
        "text": "Join channel <#CV9R0C4V9|proj-dev-ai-cough-detection> and <#C0109J5U8P7|proj-dev-contact-tracing>",
        "user": "UV6870881",
        "ts": "1584925811.342900",
        "team": "TUU48M0T1",
        "user_team": "TUU48M0T1",
        "source_team": "TUU48M0T1",
        "user_profile": {
            "avatar_hash": "gbbbbcc3accd",
            "image_72": "https:\/\/secure.gravatar.com\/avatar\/bbbbcc3accdddb02dfb1c03a4a65b994.jpg?s=72&d=https%3A%2F%2Fa.slack-edge.com%2Fdf10d%2Fimg%2Favatars%2Fava_0011-72.png",
            "first_name": "Quant",
            "real_name": "Quant",
            "display_name": "",
            "team": "TUU48M0T1",
            "name": "admin",
            "is_restricted": false,
            "is_ultra_restricted": false
        },
        "blocks": [
            {
                "type": "rich_text",
                "block_id": "tiz",
                "elements": [
                    {
                        "type": "rich_text_section",
                        "elements": [
                            {
                                "type": "text",
                                "text": "Join channel "
                            },
                            {
                                "type": "channel",
                                "channel_id": "CV9R0C4V9"
                            },
                            {
                                "type": "text",
                                "text": " and "
                            },
                            {
                                "type": "channel",
                                "channel_id": "C0109J5U8P7"
                            }
                        ]
                    }
                ]
            }
        ],
        "thread_ts": "1584813567.254500",
        "parent_user_id": "U0106T8HV4Z"
    },
    {
        "client_msg_id": "210cc31d-437f-440a-917e-91129306b52e",
        "type": "message",
        "text": "Welcome Bill your help is needed in <#CVB9NP1L6|prgm-dev-team> <#CV9R0C4V9|proj-dev-ai-cough-detection> <#CVAS7QHF0|proj-dev-open-source-resources>",
        "user": "UV6870881",
        "ts": "1584925866.343100",
        "team": "TUU48M0T1",
        "user_team": "TUU48M0T1",
        "source_team": "TUU48M0T1",
        "user_profile": {
            "avatar_hash": "gbbbbcc3accd",
            "image_72": "https:\/\/secure.gravatar.com\/avatar\/bbbbcc3accdddb02dfb1c03a4a65b994.jpg?s=72&d=https%3A%2F%2Fa.slack-edge.com%2Fdf10d%2Fimg%2Favatars%2Fava_0011-72.png",
            "first_name": "Quant",
            "real_name": "Quant",
            "display_name": "",
            "team": "TUU48M0T1",
            "name": "admin",
            "is_restricted": false,
            "is_ultra_restricted": false
        },
        "blocks": [
            {
                "type": "rich_text",
                "block_id": "rbx",
                "elements": [
                    {
                        "type": "rich_text_section",
                        "elements": [
                            {
                                "type": "text",
                                "text": "Welcome Bill your help is needed in "
                            },
                            {
                                "type": "channel",
                                "channel_id": "CVB9NP1L6"
                            },
                            {
                                "type": "text",
                                "text": " "
                            },
                            {
                                "type": "channel",
                                "channel_id": "CV9R0C4V9"
                            },
                            {
                                "type": "text",
                                "text": " "
                            },
                            {
                                "type": "channel",
                                "channel_id": "CVAS7QHF0"
                            }
                        ]
                    }
                ]
            }
        ],
        "thread_ts": "1584813364.249000",
        "parent_user_id": "U010GFNDDL4"
    },
    {
        "client_msg_id": "32139c20-59f4-4ae5-8d5d-7c5036b6918b",
        "type": "message",
        "text": "Channel <#C0109J5U8P7|proj-dev-contact-tracing> is where u want to join",
        "user": "UV6870881",
        "ts": "1584925892.343300",
        "team": "TUU48M0T1",
        "user_team": "TUU48M0T1",
        "source_team": "TUU48M0T1",
        "user_profile": {
            "avatar_hash": "gbbbbcc3accd",
            "image_72": "https:\/\/secure.gravatar.com\/avatar\/bbbbcc3accdddb02dfb1c03a4a65b994.jpg?s=72&d=https%3A%2F%2Fa.slack-edge.com%2Fdf10d%2Fimg%2Favatars%2Fava_0011-72.png",
            "first_name": "Quant",
            "real_name": "Quant",
            "display_name": "",
            "team": "TUU48M0T1",
            "name": "admin",
            "is_restricted": false,
            "is_ultra_restricted": false
        },
        "blocks": [
            {
                "type": "rich_text",
                "block_id": "1Cn",
                "elements": [
                    {
                        "type": "rich_text_section",
                        "elements": [
                            {
                                "type": "text",
                                "text": "Channel "
                            },
                            {
                                "type": "channel",
                                "channel_id": "C0109J5U8P7"
                            },
                            {
                                "type": "text",
                                "text": " is where u want to join"
                            }
                        ]
                    }
                ]
            }
        ],
        "thread_ts": "1584812963.246600",
        "parent_user_id": "U0105F34HGT"
    },
    {
        "client_msg_id": "3e98620a-1216-4101-9c91-301cae6b5424",
        "type": "message",
        "text": "Join channel <#CURG6ALTC|prgm-communications-team>",
        "user": "UV6870881",
        "ts": "1584925924.343500",
        "team": "TUU48M0T1",
        "user_team": "TUU48M0T1",
        "source_team": "TUU48M0T1",
        "user_profile": {
            "avatar_hash": "gbbbbcc3accd",
            "image_72": "https:\/\/secure.gravatar.com\/avatar\/bbbbcc3accdddb02dfb1c03a4a65b994.jpg?s=72&d=https%3A%2F%2Fa.slack-edge.com%2Fdf10d%2Fimg%2Favatars%2Fava_0011-72.png",
            "first_name": "Quant",
            "real_name": "Quant",
            "display_name": "",
            "team": "TUU48M0T1",
            "name": "admin",
            "is_restricted": false,
            "is_ultra_restricted": false
        },
        "blocks": [
            {
                "type": "rich_text",
                "block_id": "Qg5W",
                "elements": [
                    {
                        "type": "rich_text_section",
                        "elements": [
                            {
                                "type": "text",
                                "text": "Join channel "
                            },
                            {
                                "type": "channel",
                                "channel_id": "CURG6ALTC"
                            }
                        ]
                    }
                ]
            }
        ],
        "thread_ts": "1584802842.235900",
        "parent_user_id": "U0105BAMLM9"
    },
    {
        "client_msg_id": "7a8f8556-58e3-4f5e-b557-6d66bfbcccc4",
        "type": "message",
        "text": "Join <#CURG6ALTC|prgm-communications-team> <#CVB9NP1L6|prgm-dev-team>",
        "user": "UV6870881",
        "ts": "1584925947.343700",
        "team": "TUU48M0T1",
        "user_team": "TUU48M0T1",
        "source_team": "TUU48M0T1",
        "user_profile": {
            "avatar_hash": "gbbbbcc3accd",
            "image_72": "https:\/\/secure.gravatar.com\/avatar\/bbbbcc3accdddb02dfb1c03a4a65b994.jpg?s=72&d=https%3A%2F%2Fa.slack-edge.com%2Fdf10d%2Fimg%2Favatars%2Fava_0011-72.png",
            "first_name": "Quant",
            "real_name": "Quant",
            "display_name": "",
            "team": "TUU48M0T1",
            "name": "admin",
            "is_restricted": false,
            "is_ultra_restricted": false
        },
        "blocks": [
            {
                "type": "rich_text",
                "block_id": "N2Qhm",
                "elements": [
                    {
                        "type": "rich_text_section",
                        "elements": [
                            {
                                "type": "text",
                                "text": "Join "
                            },
                            {
                                "type": "channel",
                                "channel_id": "CURG6ALTC"
                            },
                            {
                                "type": "text",
                                "text": " "
                            },
                            {
                                "type": "channel",
                                "channel_id": "CVB9NP1L6"
                            }
                        ]
                    }
                ]
            }
        ],
        "thread_ts": "1584802783.235000",
        "parent_user_id": "U010JJ8SDJT"
    },
    {
        "type": "message",
        "subtype": "bot_message",
        "text": "Namaste <@U010J190S5B> :flag-in:",
        "ts": "1584925978.344100",
        "username": "GreetBot",
        "bot_id": "B0100JVEKUG"
    },
    {
        "type": "message",
        "subtype": "bot_message",
        "text": "Namaste <@U0106GLU7AP> :flag-in:",
        "ts": "1584926582.346300",
        "username": "GreetBot",
        "bot_id": "B0100JVEKUG"
    },
    {
        "client_msg_id": "0178bbab-f526-4eae-8324-423241f6b989",
        "type": "message",
        "text": "hello <@U010HSZFE4V>! the <#CV48ZESEP|prgm-metastudy-team> and <#CVB9NP1L6|prgm-dev-team> groups might be good places to start!",
        "user": "UV0QTJCMT",
        "ts": "1584926639.347100",
        "team": "TUU48M0T1",
        "user_team": "TUU48M0T1",
        "source_team": "TUU48M0T1",
        "user_profile": {
            "avatar_hash": "06a6ae8f69d1",
            "image_72": "https:\/\/avatars.slack-edge.com\/2020-04-13\/1060635499315_06a6ae8f69d18f1ad464_72.png",
            "first_name": "Katherine",
            "real_name": "Katherine Holo",
            "display_name": "Kat Holo - Co-Organizer of OpenCOVID19",
            "team": "TUU48M0T1",
            "name": "katherineh245",
            "is_restricted": false,
            "is_ultra_restricted": false
        },
        "blocks": [
            {
                "type": "rich_text",
                "block_id": "mPfvH",
                "elements": [
                    {
                        "type": "rich_text_section",
                        "elements": [
                            {
                                "type": "text",
                                "text": "hello "
                            },
                            {
                                "type": "user",
                                "user_id": "U010HSZFE4V"
                            },
                            {
                                "type": "text",
                                "text": "! the "
                            },
                            {
                                "type": "channel",
                                "channel_id": "CV48ZESEP"
                            },
                            {
                                "type": "text",
                                "text": " and "
                            },
                            {
                                "type": "channel",
                                "channel_id": "CVB9NP1L6"
                            },
                            {
                                "type": "text",
                                "text": " groups might be good places to start!"
                            }
                        ]
                    }
                ]
            }
        ],
        "thread_ts": "1584917825.331500",
        "parent_user_id": "U010HSZFE4V"
    },
    {
        "client_msg_id": "584f15d7-df32-4ebf-947c-a10d81b38d6d",
        "type": "message",
        "text": "I am a Software Developer with a few years experience of in the field and a Physics Baccalaureate. My primary technologies are PHP, JavaScript, Python, and Jira (Project Management Software). I am still working full time at my regular job but willing to moonlight in any way that may be of assistance. I don't have any physical tools to offer. Here is my LinkedIn Profile if anyone wants to dive deeper into my skills, schooling, experience, etc.  <https:\/\/www.linkedin.com\/in\/brettjaybrewster>. Possibly worth noting, is that I have a bit of project management experience with my role at my current employe.r I am here because it is clear that any actions that can be taken to increase the healthcare capacity of the world, decrease the rate at which the disease spreads, and get recovered patients into the workforce expeditiously will result in the saving of lives.",
        "user": "U010J190S5B",
        "ts": "1584926894.350600",
        "team": "TUU48M0T1",
        "user_team": "TUU48M0T1",
        "source_team": "TUU48M0T1",
        "user_profile": {
            "avatar_hash": "e0839369a1f1",
            "image_72": "https:\/\/avatars.slack-edge.com\/2020-03-22\/1005251791106_e0839369a1f10e50673f_72.png",
            "first_name": "",
            "real_name": "Brett Brewster II",
            "display_name": "Brett Brewster II",
            "team": "TUU48M0T1",
            "name": "brettjaybrewster",
            "is_restricted": false,
            "is_ultra_restricted": false
        },
        "blocks": [
            {
                "type": "rich_text",
                "block_id": "GzfE",
                "elements": [
                    {
                        "type": "rich_text_section",
                        "elements": [
                            {
                                "type": "text",
                                "text": "I am a Software Developer with a few years experience of in the field and a Physics Baccalaureate. My primary technologies are PHP, JavaScript, Python, and Jira (Project Management Software). I am still working full time at my regular job but willing to moonlight in any way that may be of assistance. I don't have any physical tools to offer. Here is my LinkedIn Profile if anyone wants to dive deeper into my skills, schooling, experience, etc.  "
                            },
                            {
                                "type": "link",
                                "url": "https:\/\/www.linkedin.com\/in\/brettjaybrewster"
                            },
                            {
                                "type": "text",
                                "text": ". Possibly worth noting, is that I have a bit of project management experience with my role at my current employe.r I am here because it is clear that any actions that can be taken to increase the healthcare capacity of the world, decrease the rate at which the disease spreads, and get recovered patients into the workforce expeditiously will result in the saving of lives."
                            }
                        ]
                    }
                ]
            }
        ],
        "thread_ts": "1584926894.350600",
        "reply_count": 4,
        "reply_users_count": 4,
        "latest_reply": "1585158105.033700",
        "reply_users": [
            "UV0QTJCMT",
            "UV6870881",
            "UV8T52QJ3",
            "U0103SR759U"
        ],
        "replies": [
            {
                "user": "UV0QTJCMT",
                "ts": "1584927258.350700"
            },
            {
                "user": "UV6870881",
                "ts": "1584927356.351100"
            },
            {
                "user": "UV8T52QJ3",
                "ts": "1584933535.365200"
            },
            {
                "user": "U0103SR759U",
                "ts": "1585158105.033700"
            }
        ],
        "subscribed": false
    },
    {
        "client_msg_id": "d8903aa2-d5c3-48c3-b2c1-3a616507a66e",
        "type": "message",
        "text": "<@U010J190S5B> welcome! some groups of interest might be <#CVB9NP1L6|prgm-dev-team> <#CV48ZESEP|prgm-metastudy-team> <#CV0QED4KU|prgm-governance-team>. if you're interested in some development projects, they can be found with the #proj prefix",
        "user": "UV0QTJCMT",
        "ts": "1584927258.350700",
        "team": "TUU48M0T1",
        "user_team": "TUU48M0T1",
        "source_team": "TUU48M0T1",
        "user_profile": {
            "avatar_hash": "06a6ae8f69d1",
            "image_72": "https:\/\/avatars.slack-edge.com\/2020-04-13\/1060635499315_06a6ae8f69d18f1ad464_72.png",
            "first_name": "Katherine",
            "real_name": "Katherine Holo",
            "display_name": "Kat Holo - Co-Organizer of OpenCOVID19",
            "team": "TUU48M0T1",
            "name": "katherineh245",
            "is_restricted": false,
            "is_ultra_restricted": false
        },
        "blocks": [
            {
                "type": "rich_text",
                "block_id": "X+GJ",
                "elements": [
                    {
                        "type": "rich_text_section",
                        "elements": [
                            {
                                "type": "user",
                                "user_id": "U010J190S5B"
                            },
                            {
                                "type": "text",
                                "text": " welcome! some groups of interest might be "
                            },
                            {
                                "type": "channel",
                                "channel_id": "CVB9NP1L6"
                            },
                            {
                                "type": "text",
                                "text": " "
                            },
                            {
                                "type": "channel",
                                "channel_id": "CV48ZESEP"
                            },
                            {
                                "type": "text",
                                "text": " "
                            },
                            {
                                "type": "channel",
                                "channel_id": "CV0QED4KU"
                            },
                            {
                                "type": "text",
                                "text": ". if you're interested in some development projects, they can be found with the #proj prefix"
                            }
                        ]
                    }
                ]
            }
        ],
        "thread_ts": "1584926894.350600",
        "parent_user_id": "U010J190S5B"
    },
    {
        "client_msg_id": "90c43c44-f1bd-4887-a21d-1b4eb591de9e",
        "type": "message",
        "text": "I think <#CV9R0C4V9|proj-dev-ai-cough-detection> and <@UV8T52QJ3> would welcome a project manager",
        "user": "UV6870881",
        "ts": "1584927356.351100",
        "team": "TUU48M0T1",
        "user_team": "TUU48M0T1",
        "source_team": "TUU48M0T1",
        "user_profile": {
            "avatar_hash": "gbbbbcc3accd",
            "image_72": "https:\/\/secure.gravatar.com\/avatar\/bbbbcc3accdddb02dfb1c03a4a65b994.jpg?s=72&d=https%3A%2F%2Fa.slack-edge.com%2Fdf10d%2Fimg%2Favatars%2Fava_0011-72.png",
            "first_name": "Quant",
            "real_name": "Quant",
            "display_name": "",
            "team": "TUU48M0T1",
            "name": "admin",
            "is_restricted": false,
            "is_ultra_restricted": false
        },
        "blocks": [
            {
                "type": "rich_text",
                "block_id": "v\/i",
                "elements": [
                    {
                        "type": "rich_text_section",
                        "elements": [
                            {
                                "type": "text",
                                "text": "I think "
                            },
                            {
                                "type": "channel",
                                "channel_id": "CV9R0C4V9"
                            },
                            {
                                "type": "text",
                                "text": " and "
                            },
                            {
                                "type": "user",
                                "user_id": "UV8T52QJ3"
                            },
                            {
                                "type": "text",
                                "text": " would welcome a project manager"
                            }
                        ]
                    }
                ]
            }
        ],
        "thread_ts": "1584926894.350600",
        "parent_user_id": "U010J190S5B",
        "reactions": [
            {
                "name": "raised_hands",
                "users": [
                    "UV0QTJCMT"
                ],
                "count": 1
            }
        ]
    },
    {
        "client_msg_id": "c1678af6-7fc1-450c-b952-3341489d1762",
        "type": "message",
        "text": "I am an engineer working with Dr. Lonnie Johnson (inventor of the SuperSoaker squirt gun) on various renewable energy and energy storage devices.  We are presently looking into using our innovative staff and networked resources to develop field ventilators that can be quickly fabricated and rushed to service.  I have worked in process development and instrumentation in private industry and both Los Alamos and Oak Ridge National Laboratories here in the USA.  Looking to collaborate.",
        "user": "U010HGC63BN",
        "ts": "1584927800.357600",
        "team": "TUU48M0T1",
        "user_team": "TUU48M0T1",
        "source_team": "TUU48M0T1",
        "user_profile": {
            "avatar_hash": "g6a9f7663928",
            "image_72": "https:\/\/secure.gravatar.com\/avatar\/6a9f7663928870bedd87a81129d4de7d.jpg?s=72&d=https%3A%2F%2Fa.slack-edge.com%2Fdf10d%2Fimg%2Favatars%2Fava_0009-72.png",
            "first_name": "",
            "real_name": "Ian Campbell",
            "display_name": "Ian Campbell",
            "team": "TUU48M0T1",
            "name": "icampbell",
            "is_restricted": false,
            "is_ultra_restricted": false
        },
        "blocks": [
            {
                "type": "rich_text",
                "block_id": "r0Eds",
                "elements": [
                    {
                        "type": "rich_text_section",
                        "elements": [
                            {
                                "type": "text",
                                "text": "I am an engineer working with Dr. Lonnie Johnson (inventor of the SuperSoaker squirt gun) on various renewable energy and energy storage devices.  We are presently looking into using our innovative staff and networked resources to develop field ventilators that can be quickly fabricated and rushed to service.  I have worked in process development and instrumentation in private industry and both Los Alamos and Oak Ridge National Laboratories here in the USA.  Looking to collaborate."
                            }
                        ]
                    }
                ]
            }
        ],
        "thread_ts": "1584927800.357600",
        "reply_count": 1,
        "reply_users_count": 1,
        "latest_reply": "1584929813.360000",
        "reply_users": [
            "UUNGFHSV8"
        ],
        "replies": [
            {
                "user": "UUNGFHSV8",
                "ts": "1584929813.360000"
            }
        ],
        "subscribed": false
    },
    {
        "type": "message",
        "subtype": "bot_message",
        "text": "Guten tag <@U010L8A5P7Y> :flag-de:",
        "ts": "1584929122.357900",
        "username": "GreetBot",
        "bot_id": "B0100JVEKUG"
    },
    {
        "type": "message",
        "subtype": "bot_message",
        "text": "Ciao <@U01080CJ6P3> :flag-it:",
        "ts": "1584929243.358200",
        "username": "GreetBot",
        "bot_id": "B0100JVEKUG"
    },
    {
        "type": "message",
        "subtype": "bot_message",
        "text": "Guten tag <@U01074A630R> :flag-de:",
        "ts": "1584929662.358800",
        "username": "GreetBot",
        "bot_id": "B0100JVEKUG"
    },
    {
        "client_msg_id": "41e8b320-5005-496c-b5ea-2b6c3dfa7d43",
        "type": "message",
        "text": "You should join <#CVD4RHKDF|proj-ventilator> !",
        "user": "UUNGFHSV8",
        "ts": "1584929813.360000",
        "team": "TUU48M0T1",
        "user_team": "TUU48M0T1",
        "source_team": "TUU48M0T1",
        "user_profile": {
            "avatar_hash": "1c55ee32397a",
            "image_72": "https:\/\/avatars.slack-edge.com\/2020-03-07\/987349161984_1c55ee32397a85a87ec4_72.png",
            "first_name": "Isaac",
            "real_name": "Isaac Larkin",
            "display_name": "Isaac Larkin",
            "team": "TUU48M0T1",
            "name": "eyesmo",
            "is_restricted": false,
            "is_ultra_restricted": false
        },
        "blocks": [
            {
                "type": "rich_text",
                "block_id": "FfTK",
                "elements": [
                    {
                        "type": "rich_text_section",
                        "elements": [
                            {
                                "type": "text",
                                "text": "You should join "
                            },
                            {
                                "type": "channel",
                                "channel_id": "CVD4RHKDF"
                            },
                            {
                                "type": "text",
                                "text": " !"
                            }
                        ]
                    }
                ]
            }
        ],
        "thread_ts": "1584927800.357600",
        "parent_user_id": "U010HGC63BN"
    },
    {
        "type": "message",
        "subtype": "bot_message",
        "text": "Guten tag <@U010810HXUH> :flag-de:",
        "ts": "1584930752.362400",
        "username": "GreetBot",
        "bot_id": "B0100JVEKUG"
    },
    {
        "client_msg_id": "2F0D291A-E32A-4002-B733-688670CD8A12",
        "type": "message",
        "text": "Hi everyone! I’m a product manager\/intelligence analyst\/EMT, currently in grad school studying the intersection of biotechnology and national security. I want to lend skill\/time however I can.",
        "user": "U01080CJ6P3",
        "ts": "1584930968.362900",
        "team": "TUU48M0T1",
        "user_team": "TUU48M0T1",
        "source_team": "TUU48M0T1",
        "user_profile": {
            "avatar_hash": "0dfed428b55d",
            "image_72": "https:\/\/avatars.slack-edge.com\/2020-03-23\/1011221929297_0dfed428b55da6f0bc86_72.png",
            "first_name": "April",
            "real_name": "April Lenhard",
            "display_name": "",
            "team": "TUU48M0T1",
            "name": "aprillenhard",
            "is_restricted": false,
            "is_ultra_restricted": false
        },
        "blocks": [
            {
                "type": "rich_text",
                "block_id": "SVPWm",
                "elements": [
                    {
                        "type": "rich_text_section",
                        "elements": [
                            {
                                "type": "text",
                                "text": "Hi everyone! I’m a product manager\/intelligence analyst\/EMT, currently in grad school studying the intersection of biotechnology and national security. I want to lend skill\/time however I can."
                            }
                        ]
                    }
                ]
            }
        ],
        "thread_ts": "1584930968.362900",
        "reply_count": 3,
        "reply_users_count": 3,
        "latest_reply": "1585158196.034000",
        "reply_users": [
            "UUNGFHSV8",
            "U01080CJ6P3",
            "U0103SR759U"
        ],
        "replies": [
            {
                "user": "UUNGFHSV8",
                "ts": "1584932162.364800"
            },
            {
                "user": "U01080CJ6P3",
                "ts": "1584934586.365900"
            },
            {
                "user": "U0103SR759U",
                "ts": "1585158196.034000"
            }
        ],
        "subscribed": false,
        "reactions": [
            {
                "name": "the_horns",
                "users": [
                    "UUNGFHSV8"
                ],
                "count": 1
            }
        ]
    },
    {
        "type": "message",
        "subtype": "bot_message",
        "text": "Guten tag <@U010602FRUH> :flag-de:",
        "ts": "1584932029.363900",
        "username": "GreetBot",
        "bot_id": "B0100JVEKUG"
    },
    {
        "client_msg_id": "E9D67063-1D12-4ABE-B891-C73A02E4CA41",
        "type": "message",
        "text": "Very cool field of study! I’d recommend joining <#C010BM0D4VC|freegenes> <#CUWUM8M2P|prgm-biosafety-questions>     <#C0103J8NF46|chlg-detect-team> and <#CV59UC6JD|chlg-prevent-team> ",
        "user": "UUNGFHSV8",
        "ts": "1584932162.364800",
        "team": "TUU48M0T1",
        "user_team": "TUU48M0T1",
        "source_team": "TUU48M0T1",
        "user_profile": {
            "avatar_hash": "1c55ee32397a",
            "image_72": "https:\/\/avatars.slack-edge.com\/2020-03-07\/987349161984_1c55ee32397a85a87ec4_72.png",
            "first_name": "Isaac",
            "real_name": "Isaac Larkin",
            "display_name": "Isaac Larkin",
            "team": "TUU48M0T1",
            "name": "eyesmo",
            "is_restricted": false,
            "is_ultra_restricted": false
        },
        "blocks": [
            {
                "type": "rich_text",
                "block_id": "WqfmP",
                "elements": [
                    {
                        "type": "rich_text_section",
                        "elements": [
                            {
                                "type": "text",
                                "text": "Very cool field of study! I’d recommend joining "
                            },
                            {
                                "type": "channel",
                                "channel_id": "C010BM0D4VC"
                            },
                            {
                                "type": "text",
                                "text": " "
                            },
                            {
                                "type": "channel",
                                "channel_id": "CUWUM8M2P"
                            },
                            {
                                "type": "text",
                                "text": "     "
                            },
                            {
                                "type": "channel",
                                "channel_id": "C0103J8NF46"
                            },
                            {
                                "type": "text",
                                "text": " and "
                            },
                            {
                                "type": "channel",
                                "channel_id": "CV59UC6JD"
                            },
                            {
                                "type": "text",
                                "text": " "
                            }
                        ]
                    }
                ]
            }
        ],
        "thread_ts": "1584930968.362900",
        "parent_user_id": "U01080CJ6P3",
        "reactions": [
            {
                "name": "+1",
                "users": [
                    "UV0QTJCMT"
                ],
                "count": 1
            }
        ]
    },
    {
        "type": "message",
        "subtype": "bot_message",
        "text": "Guten tag <@U01069KSCKV> :flag-de:",
        "ts": "1584933200.365100",
        "username": "GreetBot",
        "bot_id": "B0100JVEKUG"
    },
    {
        "client_msg_id": "167a1341-257c-42c7-a502-0e6d5b74c0bb",
        "type": "message",
        "text": "Thanks <@UV6870881>. We have a PM which is helping but we could benefit from <@U010J190S5B> experience definitely!!",
        "user": "UV8T52QJ3",
        "ts": "1584933535.365200",
        "team": "TUU48M0T1",
        "user_team": "TUU48M0T1",
        "source_team": "TUU48M0T1",
        "user_profile": {
            "avatar_hash": "g96f14063d73",
            "image_72": "https:\/\/secure.gravatar.com\/avatar\/96f14063d73cc7867772731f881de414.jpg?s=72&d=https%3A%2F%2Fa.slack-edge.com%2Fdf10d%2Fimg%2Favatars%2Fava_0005-72.png",
            "first_name": "Hernán",
            "real_name": "Hernán Morales Durand",
            "display_name": "Hernán Morales Durand",
            "team": "TUU48M0T1",
            "name": "hernan.morales",
            "is_restricted": false,
            "is_ultra_restricted": false
        },
        "blocks": [
            {
                "type": "rich_text",
                "block_id": "AK8ne",
                "elements": [
                    {
                        "type": "rich_text_section",
                        "elements": [
                            {
                                "type": "text",
                                "text": "Thanks "
                            },
                            {
                                "type": "user",
                                "user_id": "UV6870881"
                            },
                            {
                                "type": "text",
                                "text": ". We have a PM which is helping but we could benefit from "
                            },
                            {
                                "type": "user",
                                "user_id": "U010J190S5B"
                            },
                            {
                                "type": "text",
                                "text": " experience definitely!!"
                            }
                        ]
                    }
                ]
            }
        ],
        "thread_ts": "1584926894.350600",
        "parent_user_id": "U010J190S5B"
    },
    {
        "client_msg_id": "0892E377-6908-49D3-AD5A-F3BE55336EA2",
        "type": "message",
        "text": "Awesome, thank you!",
        "user": "U01080CJ6P3",
        "ts": "1584934586.365900",
        "team": "TUU48M0T1",
        "user_team": "TUU48M0T1",
        "source_team": "TUU48M0T1",
        "user_profile": {
            "avatar_hash": "0dfed428b55d",
            "image_72": "https:\/\/avatars.slack-edge.com\/2020-03-23\/1011221929297_0dfed428b55da6f0bc86_72.png",
            "first_name": "April",
            "real_name": "April Lenhard",
            "display_name": "",
            "team": "TUU48M0T1",
            "name": "aprillenhard",
            "is_restricted": false,
            "is_ultra_restricted": false
        },
        "blocks": [
            {
                "type": "rich_text",
                "block_id": "v=Q",
                "elements": [
                    {
                        "type": "rich_text_section",
                        "elements": [
                            {
                                "type": "text",
                                "text": "Awesome, thank you!"
                            }
                        ]
                    }
                ]
            }
        ],
        "thread_ts": "1584930968.362900",
        "parent_user_id": "U01080CJ6P3"
    },
    {
        "type": "message",
        "subtype": "bot_message",
        "text": "Ciao <@U0105C4LVV0> :flag-it:",
        "ts": "1584937809.366500",
        "username": "GreetBot",
        "bot_id": "B0100JVEKUG"
    },
    {
        "type": "message",
        "subtype": "bot_message",
        "text": "Bonjour <@U010844MSBT> :flag-fr:",
        "ts": "1584937959.366800",
        "username": "GreetBot",
        "bot_id": "B0100JVEKUG"
    },
    {
        "type": "message",
        "subtype": "bot_message",
        "text": "Ohayo <@U01087NTUJD> :flag-jp:",
        "ts": "1584945212.367100",
        "username": "GreetBot",
        "bot_id": "B0100JVEKUG"
    },
    {
        "type": "message",
        "subtype": "bot_message",
        "text": "Guten tag <@U010L2V3N9M> :flag-de:",
        "ts": "1584945807.367400",
        "username": "GreetBot",
        "bot_id": "B0100JVEKUG"
    }
]