[
    {
        "type": "message",
        "subtype": "bot_message",
        "text": "Guten tag <@U011C9CNK52> :flag-de:",
        "ts": "1585908077.280900",
        "username": "GreetBot",
        "bot_id": "B0100JVEKUG"
    },
    {
        "client_msg_id": "e7d2cdca-0588-4a36-8fc5-4b089969872b",
        "type": "message",
        "text": "Hey Everyone!. I'm Evelyn, A Biomedical Engineer experienced in program managing healthcare products.",
        "user": "U011C9CNK52",
        "ts": "1585908150.281600",
        "team": "TUU48M0T1",
        "user_team": "TUU48M0T1",
        "source_team": "TUU48M0T1",
        "user_profile": {
            "avatar_hash": "g30e7e2d724f",
            "image_72": "https:\/\/secure.gravatar.com\/avatar\/30e7e2d724f5ed827bd5b131888198c5.jpg?s=72&d=https%3A%2F%2Fa.slack-edge.com%2Fdf10d%2Fimg%2Favatars%2Fava_0021-72.png",
            "first_name": "",
            "real_name": "Evelyn Immanuel",
            "display_name": "Evelyn Immanuel",
            "team": "TUU48M0T1",
            "name": "immanuelevelyn",
            "is_restricted": false,
            "is_ultra_restricted": false
        },
        "blocks": [
            {
                "type": "rich_text",
                "block_id": "zbrc",
                "elements": [
                    {
                        "type": "rich_text_section",
                        "elements": [
                            {
                                "type": "text",
                                "text": "Hey Everyone!. I'm Evelyn, A Biomedical Engineer experienced in program managing healthcare products."
                            }
                        ]
                    }
                ]
            }
        ],
        "reactions": [
            {
                "name": "wave",
                "users": [
                    "UV02WET96",
                    "U0103LPAWQ4"
                ],
                "count": 2
            }
        ]
    },
    {
        "type": "message",
        "subtype": "bot_message",
        "text": "Ohayo <@U011G0YJXBJ> :flag-jp:",
        "ts": "1585916851.282200",
        "username": "GreetBot",
        "bot_id": "B0100JVEKUG"
    },
    {
        "type": "message",
        "subtype": "bot_message",
        "text": "Hola <@U011CLDTKJ8> :flag-es:",
        "ts": "1585917687.282500",
        "username": "GreetBot",
        "bot_id": "B0100JVEKUG"
    },
    {
        "type": "message",
        "subtype": "bot_message",
        "text": "Hola <@U011632SYHF> :flag-es:",
        "ts": "1585919299.282800",
        "username": "GreetBot",
        "bot_id": "B0100JVEKUG"
    },
    {
        "type": "message",
        "subtype": "bot_message",
        "text": "Ohayo <@U011CQ4GSCU> :flag-jp:",
        "ts": "1585920272.283100",
        "username": "GreetBot",
        "bot_id": "B0100JVEKUG"
    },
    {
        "type": "message",
        "subtype": "bot_message",
        "text": "Annyeong <@U011CQ8C9GU> :flag-kr:",
        "ts": "1585920346.283400",
        "username": "GreetBot",
        "bot_id": "B0100JVEKUG",
        "reactions": [
            {
                "name": "+1",
                "users": [
                    "U011CQ8C9GU"
                ],
                "count": 1
            }
        ]
    },
    {
        "type": "message",
        "subtype": "bot_message",
        "text": "Sawadi Kap <@U0116F79UHF> :flag-th:",
        "ts": "1585924561.284200",
        "username": "GreetBot",
        "bot_id": "B0100JVEKUG"
    },
    {
        "client_msg_id": "d4c537ba-71d0-4d11-910d-a6ca90ddbfb4",
        "type": "message",
        "text": "Hi all -- I'm a Madison, Wisconsin, USA based cell biologist. I've been a post-doc for 4 years and have a total of 13 years of labwork behind me, including lots of experience with biosafety cabinets, sterile technique, and PCR\/RT-PCR.",
        "user": "U0116F79UHF",
        "ts": "1585926453.286100",
        "team": "TUU48M0T1",
        "user_team": "TUU48M0T1",
        "source_team": "TUU48M0T1",
        "user_profile": {
            "avatar_hash": "gff0bc484ec2",
            "image_72": "https:\/\/secure.gravatar.com\/avatar\/ff0bc484ec276f6ed4a65fa9afc6905d.jpg?s=72&d=https%3A%2F%2Fa.slack-edge.com%2Fdf10d%2Fimg%2Favatars%2Fava_0009-72.png",
            "first_name": "Liz",
            "real_name": "Liz Haynes",
            "display_name": "Liz H.",
            "team": "TUU48M0T1",
            "name": "lizhaynes",
            "is_restricted": false,
            "is_ultra_restricted": false
        },
        "blocks": [
            {
                "type": "rich_text",
                "block_id": "tPo5",
                "elements": [
                    {
                        "type": "rich_text_section",
                        "elements": [
                            {
                                "type": "text",
                                "text": "Hi all -- I'm a Madison, Wisconsin, USA based cell biologist. I've been a post-doc for 4 years and have a total of 13 years of labwork behind me, including lots of experience with biosafety cabinets, sterile technique, and PCR\/RT-PCR."
                            }
                        ]
                    }
                ]
            }
        ],
        "reactions": [
            {
                "name": "wave",
                "users": [
                    "UV02WET96",
                    "U0103LPAWQ4",
                    "U010XCGM3JP",
                    "U010X9FPMS8"
                ],
                "count": 4
            }
        ]
    },
    {
        "type": "message",
        "subtype": "bot_message",
        "text": "Annyeong <@U01176CEPS5> :flag-kr:",
        "ts": "1585932861.286700",
        "username": "GreetBot",
        "bot_id": "B0100JVEKUG"
    },
    {
        "client_msg_id": "1d9283bf-f841-443f-8abe-5cb7c4b8906e",
        "type": "message",
        "text": "<https:\/\/popelinjonas.wixsite.com\/respirateur-covid19>",
        "user": "U011632SYHF",
        "ts": "1585935513.286900",
        "team": "TUU48M0T1",
        "user_team": "TUU48M0T1",
        "source_team": "TUU48M0T1",
        "user_profile": {
            "avatar_hash": "b8791167bd16",
            "image_72": "https:\/\/avatars.slack-edge.com\/2020-04-03\/1045708053525_b8791167bd16ea2c5a88_72.png",
            "first_name": "",
            "real_name": "Popelin Jonas",
            "display_name": "Popelin Jonas",
            "team": "TUU48M0T1",
            "name": "popelin.jonas",
            "is_restricted": false,
            "is_ultra_restricted": false
        },
        "attachments": [
            {
                "service_name": "RespirateurCovid19",
                "title": "Accueil | RespirateurCovid19",
                "title_link": "https:\/\/popelinjonas.wixsite.com\/respirateur-covid19",
                "text": "Respirateur artificiel pour les malades du Covid-19",
                "fallback": "RespirateurCovid19: Accueil | RespirateurCovid19",
                "from_url": "https:\/\/popelinjonas.wixsite.com\/respirateur-covid19",
                "service_icon": "https:\/\/www.wix.com\/favicon.ico",
                "id": 1,
                "original_url": "https:\/\/popelinjonas.wixsite.com\/respirateur-covid19"
            }
        ],
        "blocks": [
            {
                "type": "rich_text",
                "block_id": "kxJb",
                "elements": [
                    {
                        "type": "rich_text_section",
                        "elements": [
                            {
                                "type": "link",
                                "url": "https:\/\/popelinjonas.wixsite.com\/respirateur-covid19"
                            }
                        ]
                    }
                ]
            }
        ]
    },
    {
        "type": "message",
        "subtype": "bot_message",
        "text": "Annyeong <@U011CCCTPFF> :flag-kr:",
        "ts": "1585939653.287300",
        "username": "GreetBot",
        "bot_id": "B0100JVEKUG",
        "reactions": [
            {
                "name": "wave",
                "users": [
                    "UV02WET96"
                ],
                "count": 1
            }
        ]
    },
    {
        "type": "message",
        "subtype": "bot_message",
        "text": "Ciao <@U0113UW6V3M> :flag-it:",
        "ts": "1585942431.287700",
        "username": "GreetBot",
        "bot_id": "B0100JVEKUG"
    },
    {
        "type": "message",
        "subtype": "bot_message",
        "text": "Hérete <@U011CNWD52A> :flag-gr:",
        "ts": "1585943301.288000",
        "username": "GreetBot",
        "bot_id": "B0100JVEKUG"
    },
    {
        "type": "message",
        "subtype": "bot_message",
        "text": "Namaste <@U01148F31NF> :flag-in:",
        "ts": "1585949003.288300",
        "username": "GreetBot",
        "bot_id": "B0100JVEKUG"
    },
    {
        "type": "message",
        "subtype": "bot_message",
        "text": "Bonjour <@U011CRMJ3V4> :flag-fr:",
        "ts": "1585949848.288600",
        "username": "GreetBot",
        "bot_id": "B0100JVEKUG"
    },
    {
        "type": "message",
        "subtype": "bot_message",
        "text": "Ciao <@U011CQU9J05> :flag-it:",
        "ts": "1585959898.288900",
        "username": "GreetBot",
        "bot_id": "B0100JVEKUG"
    }
]