[
    {
        "type": "message",
        "subtype": "bot_message",
        "text": "Dobryy den’ <@U010S8R901L> :flag-ua:",
        "ts": "1585123532.008800",
        "username": "GreetBot",
        "bot_id": "B0100JVEKUG"
    },
    {
        "type": "message",
        "subtype": "bot_message",
        "text": "Guten tag <@U010BLKEZ0S> :flag-de:",
        "ts": "1585126145.008900",
        "username": "GreetBot",
        "bot_id": "B0100JVEKUG"
    },
    {
        "type": "message",
        "subtype": "bot_message",
        "text": "Ohayo <@U010SFH73HD> :flag-jp:",
        "ts": "1585126451.009100",
        "username": "GreetBot",
        "bot_id": "B0100JVEKUG"
    },
    {
        "client_msg_id": "546dbf0d-071e-4a1f-8736-cfbd2fb712d3",
        "type": "message",
        "text": "Hi all, I've coufounded Sunny Lake, a patient based community dedicated to clinical research.  Patients suffering from chronical diseases are specifically at risk whent it comes to COVID 19. We can provide researchers fast access to patient advocay groups as well as an easy to use tool in order to set up consent forms and survey.. Project <http:\/\/mesdata.fr|mesdata.fr> is located in France but Sunny Lake would be happy to deliver same technology for international projects.",
        "user": "U010SFH73HD",
        "ts": "1585126628.009600",
        "team": "TUU48M0T1",
        "user_team": "TUU48M0T1",
        "source_team": "TUU48M0T1",
        "user_profile": {
            "avatar_hash": "g3371f7bebe8",
            "image_72": "https:\/\/secure.gravatar.com\/avatar\/3371f7bebe83b893803be3520b6840ab.jpg?s=72&d=https%3A%2F%2Fa.slack-edge.com%2Fdf10d%2Fimg%2Favatars%2Fava_0022-72.png",
            "first_name": "",
            "real_name": "Jean-Christophe Despres",
            "display_name": "Jean-Christophe Despres",
            "team": "TUU48M0T1",
            "name": "jcdespres.sopi",
            "is_restricted": false,
            "is_ultra_restricted": false
        },
        "blocks": [
            {
                "type": "rich_text",
                "block_id": "6Gkm",
                "elements": [
                    {
                        "type": "rich_text_section",
                        "elements": [
                            {
                                "type": "text",
                                "text": "Hi all, I've coufounded Sunny Lake, a patient based community dedicated to clinical research.  Patients suffering from chronical diseases are specifically at risk whent it comes to COVID 19. We can provide researchers fast access to patient advocay groups as well as an easy to use tool in order to set up consent forms and survey.. Project "
                            },
                            {
                                "type": "link",
                                "url": "http:\/\/mesdata.fr",
                                "text": "mesdata.fr"
                            },
                            {
                                "type": "text",
                                "text": " is located in France but Sunny Lake would be happy to deliver same technology for international projects."
                            }
                        ]
                    }
                ]
            }
        ],
        "thread_ts": "1585126628.009600",
        "reply_count": 2,
        "reply_users_count": 2,
        "latest_reply": "1585210109.041300",
        "reply_users": [
            "U010566NJHG",
            "U010SFH73HD"
        ],
        "replies": [
            {
                "user": "U010566NJHG",
                "ts": "1585141500.020600"
            },
            {
                "user": "U010SFH73HD",
                "ts": "1585210109.041300"
            }
        ],
        "subscribed": false,
        "reactions": [
            {
                "name": "wave",
                "users": [
                    "UV02WET96",
                    "U01081Y0TBP"
                ],
                "count": 2
            }
        ]
    },
    {
        "type": "message",
        "subtype": "bot_message",
        "text": "Guten tag <@U010Q5FEDRT> :flag-de:",
        "ts": "1585127887.009700",
        "username": "GreetBot",
        "bot_id": "B0100JVEKUG"
    },
    {
        "type": "message",
        "subtype": "bot_message",
        "text": "Olá <@U010QGMD5CM> :flag-pt:",
        "ts": "1585129515.009900",
        "username": "GreetBot",
        "bot_id": "B0100JVEKUG"
    },
    {
        "client_msg_id": "94434189-2631-4dca-9465-9a7f2aacd6e7",
        "type": "message",
        "text": "Hi all, interdisciplinary (Computer Science - Science of Science) PhD student currently working on a web platform to gather the needs of front-line workers during the Covid-19 pandemic and organise the production and delivery of what they need",
        "user": "U010QGMD5CM",
        "ts": "1585129841.011300",
        "team": "TUU48M0T1",
        "user_team": "TUU48M0T1",
        "source_team": "TUU48M0T1",
        "user_profile": {
            "avatar_hash": "6696f84e31a3",
            "image_72": "https:\/\/avatars.slack-edge.com\/2020-03-25\/1012126334210_6696f84e31a32ef3aefe_72.jpg",
            "first_name": "",
            "real_name": "Emma Barme",
            "display_name": "Emma Barme",
            "team": "TUU48M0T1",
            "name": "emmamarion.barme",
            "is_restricted": false,
            "is_ultra_restricted": false
        },
        "blocks": [
            {
                "type": "rich_text",
                "block_id": "VY4",
                "elements": [
                    {
                        "type": "rich_text_section",
                        "elements": [
                            {
                                "type": "text",
                                "text": "Hi all, interdisciplinary (Computer Science - Science of Science) PhD student currently working on a web platform to gather the needs of front-line workers during the Covid-19 pandemic and organise the production and delivery of what they need"
                            }
                        ]
                    }
                ]
            }
        ],
        "thread_ts": "1585129841.011300",
        "reply_count": 2,
        "reply_users_count": 2,
        "latest_reply": "1585155741.032600",
        "reply_users": [
            "U010566NJHG",
            "U010QGMD5CM"
        ],
        "replies": [
            {
                "user": "U010566NJHG",
                "ts": "1585141418.020400"
            },
            {
                "user": "U010QGMD5CM",
                "ts": "1585155741.032600"
            }
        ],
        "subscribed": false,
        "reactions": [
            {
                "name": "wave",
                "users": [
                    "UV02WET96"
                ],
                "count": 1
            },
            {
                "name": "+1",
                "users": [
                    "U010566NJHG"
                ],
                "count": 1
            }
        ]
    },
    {
        "client_msg_id": "21317540-4b68-4a67-981d-3851824b2f2c",
        "type": "message",
        "text": "Hi, I'm a devops, and I would like to develop a web application that would rely people who need help (buying food, want to talk, keeping children...) and people who can help, because there are a lot of associations and people dont know who they can call. This application would also list all the associations \/ groups in a local area. You are wekcomed if you want to help !",
        "user": "U010S8R901L",
        "ts": "1585130336.014400",
        "team": "TUU48M0T1",
        "user_team": "TUU48M0T1",
        "source_team": "TUU48M0T1",
        "user_profile": {
            "avatar_hash": "45c5ba43d45d",
            "image_72": "https:\/\/avatars.slack-edge.com\/2020-03-25\/1026419148566_45c5ba43d45d11585725_72.jpg",
            "first_name": "devops",
            "real_name": "devops",
            "display_name": "devops",
            "team": "TUU48M0T1",
            "name": "lakestani.negar",
            "is_restricted": false,
            "is_ultra_restricted": false
        },
        "blocks": [
            {
                "type": "rich_text",
                "block_id": "gZT",
                "elements": [
                    {
                        "type": "rich_text_section",
                        "elements": [
                            {
                                "type": "text",
                                "text": "Hi, I'm a devops, and I would like to develop a web application that would rely people who need help (buying food, want to talk, keeping children...) and people who can help, because there are a lot of associations and people dont know who they can call. This application would also list all the associations \/ groups in a local area. You are wekcomed if you want to help !"
                            }
                        ]
                    }
                ]
            }
        ],
        "reactions": [
            {
                "name": "wave",
                "users": [
                    "UV02WET96"
                ],
                "count": 1
            }
        ]
    },
    {
        "type": "message",
        "subtype": "bot_message",
        "text": "Hallå <@U010QDQ5GR2> :flag-se:",
        "ts": "1585130756.014600",
        "username": "GreetBot",
        "bot_id": "B0100JVEKUG"
    },
    {
        "client_msg_id": "e30a4aa4-8b6e-4336-b0fa-319aa3a44450",
        "type": "message",
        "text": "Hi i have a master in biotechnology. I live in Greece and i believe i can access university lab space",
        "user": "U010QDQ5GR2",
        "ts": "1585134006.016800",
        "team": "TUU48M0T1",
        "user_team": "TUU48M0T1",
        "source_team": "TUU48M0T1",
        "user_profile": {
            "avatar_hash": "ge9072055c1e",
            "image_72": "https:\/\/secure.gravatar.com\/avatar\/e9072055c1e4473558296e77a6dcdcfd.jpg?s=72&d=https%3A%2F%2Fa.slack-edge.com%2Fdf10d%2Fimg%2Favatars%2Fava_0012-72.png",
            "first_name": "",
            "real_name": "emmanouiltsampalas",
            "display_name": "emmanouiltsampalas",
            "team": "TUU48M0T1",
            "name": "manolis.tsampalas",
            "is_restricted": false,
            "is_ultra_restricted": false
        },
        "blocks": [
            {
                "type": "rich_text",
                "block_id": "JIvV",
                "elements": [
                    {
                        "type": "rich_text_section",
                        "elements": [
                            {
                                "type": "text",
                                "text": "Hi i have a master in biotechnology. I live in Greece and i believe i can access university lab space"
                            }
                        ]
                    }
                ]
            }
        ],
        "reactions": [
            {
                "name": "wave",
                "users": [
                    "UV02WET96"
                ],
                "count": 1
            }
        ]
    },
    {
        "client_msg_id": "e860461f-c1c8-46b0-ae42-330ee912a99d",
        "type": "message",
        "text": "<@U010QDQ5GR2> Any way you’d be able to test sterilization protocols of 3D printing material? :slightly_smiling_face:",
        "user": "U010QGMD5CM",
        "ts": "1585134075.017500",
        "team": "TUU48M0T1",
        "user_team": "TUU48M0T1",
        "source_team": "TUU48M0T1",
        "user_profile": {
            "avatar_hash": "6696f84e31a3",
            "image_72": "https:\/\/avatars.slack-edge.com\/2020-03-25\/1012126334210_6696f84e31a32ef3aefe_72.jpg",
            "first_name": "",
            "real_name": "Emma Barme",
            "display_name": "Emma Barme",
            "team": "TUU48M0T1",
            "name": "emmamarion.barme",
            "is_restricted": false,
            "is_ultra_restricted": false
        },
        "blocks": [
            {
                "type": "rich_text",
                "block_id": "MrHr",
                "elements": [
                    {
                        "type": "rich_text_section",
                        "elements": [
                            {
                                "type": "user",
                                "user_id": "U010QDQ5GR2"
                            },
                            {
                                "type": "text",
                                "text": " Any way you’d be able to test sterilization protocols of 3D printing material? "
                            },
                            {
                                "type": "emoji",
                                "name": "slightly_smiling_face"
                            }
                        ]
                    }
                ]
            }
        ]
    },
    {
        "client_msg_id": "5d2b8953-a583-4a52-b14c-64b6c8a9a1d7",
        "type": "message",
        "text": "give me more details so i start making contacts",
        "user": "U010QDQ5GR2",
        "ts": "1585134138.018500",
        "team": "TUU48M0T1",
        "user_team": "TUU48M0T1",
        "source_team": "TUU48M0T1",
        "user_profile": {
            "avatar_hash": "ge9072055c1e",
            "image_72": "https:\/\/secure.gravatar.com\/avatar\/e9072055c1e4473558296e77a6dcdcfd.jpg?s=72&d=https%3A%2F%2Fa.slack-edge.com%2Fdf10d%2Fimg%2Favatars%2Fava_0012-72.png",
            "first_name": "",
            "real_name": "emmanouiltsampalas",
            "display_name": "emmanouiltsampalas",
            "team": "TUU48M0T1",
            "name": "manolis.tsampalas",
            "is_restricted": false,
            "is_ultra_restricted": false
        },
        "blocks": [
            {
                "type": "rich_text",
                "block_id": "05Ur",
                "elements": [
                    {
                        "type": "rich_text_section",
                        "elements": [
                            {
                                "type": "text",
                                "text": "give me more details so i start making contacts"
                            }
                        ]
                    }
                ]
            }
        ]
    },
    {
        "type": "message",
        "subtype": "bot_message",
        "text": "Ciao <@U010DHA93D1> :flag-it:",
        "ts": "1585134766.019000",
        "username": "GreetBot",
        "bot_id": "B0100JVEKUG"
    },
    {
        "type": "message",
        "subtype": "bot_message",
        "text": "Hola <@U010DHTR16X> :flag-es:",
        "ts": "1585135335.019200",
        "username": "GreetBot",
        "bot_id": "B0100JVEKUG"
    },
    {
        "type": "message",
        "subtype": "bot_message",
        "text": "Ohayo <@U010C7RAT50> :flag-jp:",
        "ts": "1585135656.019300",
        "username": "GreetBot",
        "bot_id": "B0100JVEKUG"
    },
    {
        "client_msg_id": "2769cdca-f77a-4d69-9353-476770ff3ca8",
        "type": "message",
        "text": "Hi David, welcome! Great you are joining. I can imagine you can advice on suitable materials for masks\/respirators in the <#C0104ANKV4L|proj-mask-team>",
        "user": "U01081Y0TBP",
        "ts": "1585136700.019500",
        "team": "TUU48M0T1",
        "user_team": "TUU48M0T1",
        "source_team": "TUU48M0T1",
        "user_profile": {
            "avatar_hash": "60ec5b47107a",
            "image_72": "https:\/\/avatars.slack-edge.com\/2020-03-18\/995274181218_60ec5b47107a3bd2ca7d_72.jpg",
            "first_name": "Peter",
            "real_name": "Peter Kooren",
            "display_name": "Peter Kooren",
            "team": "TUU48M0T1",
            "name": "peterkooren",
            "is_restricted": false,
            "is_ultra_restricted": false
        },
        "blocks": [
            {
                "type": "rich_text",
                "block_id": "VC8D",
                "elements": [
                    {
                        "type": "rich_text_section",
                        "elements": [
                            {
                                "type": "text",
                                "text": "Hi David, welcome! Great you are joining. I can imagine you can advice on suitable materials for masks\/respirators in the "
                            },
                            {
                                "type": "channel",
                                "channel_id": "C0104ANKV4L"
                            }
                        ]
                    }
                ]
            }
        ],
        "thread_ts": "1584954653.372400",
        "parent_user_id": "U01072UT127"
    },
    {
        "type": "message",
        "subtype": "bot_message",
        "text": "Dobryy den’ <@U010QM74MRA> :flag-ua:",
        "ts": "1585138472.019900",
        "username": "GreetBot",
        "bot_id": "B0100JVEKUG"
    },
    {
        "type": "message",
        "subtype": "bot_message",
        "text": "Olá <@U010DPQQ2E7> :flag-pt:",
        "ts": "1585141106.020100",
        "username": "GreetBot",
        "bot_id": "B0100JVEKUG"
    },
    {
        "client_msg_id": "6cec5b08-cde0-4b75-ad03-98a5c0adbe80",
        "type": "message",
        "text": "Hi Emma, keep me posted please :)",
        "user": "U010566NJHG",
        "ts": "1585141418.020400",
        "team": "TUU48M0T1",
        "user_team": "TUU48M0T1",
        "source_team": "TUU48M0T1",
        "user_profile": {
            "avatar_hash": "103225790dbb",
            "image_72": "https:\/\/avatars.slack-edge.com\/2020-03-23\/1018037453952_103225790dbb62abe3e8_72.jpg",
            "first_name": "Avi",
            "real_name": "Avi Khalil",
            "display_name": "Avi",
            "team": "TUU48M0T1",
            "name": "kavb",
            "is_restricted": false,
            "is_ultra_restricted": false
        },
        "blocks": [
            {
                "type": "rich_text",
                "block_id": "3sorb",
                "elements": [
                    {
                        "type": "rich_text_section",
                        "elements": [
                            {
                                "type": "text",
                                "text": "Hi Emma, keep me posted please :)"
                            }
                        ]
                    }
                ]
            }
        ],
        "thread_ts": "1585129841.011300",
        "parent_user_id": "U010QGMD5CM"
    },
    {
        "client_msg_id": "f00fad31-9afe-444a-b5f7-558e72a81ad0",
        "type": "message",
        "text": "Please keep me posted :slightly_smiling_face:",
        "user": "U010566NJHG",
        "ts": "1585141500.020600",
        "team": "TUU48M0T1",
        "user_team": "TUU48M0T1",
        "source_team": "TUU48M0T1",
        "user_profile": {
            "avatar_hash": "103225790dbb",
            "image_72": "https:\/\/avatars.slack-edge.com\/2020-03-23\/1018037453952_103225790dbb62abe3e8_72.jpg",
            "first_name": "Avi",
            "real_name": "Avi Khalil",
            "display_name": "Avi",
            "team": "TUU48M0T1",
            "name": "kavb",
            "is_restricted": false,
            "is_ultra_restricted": false
        },
        "blocks": [
            {
                "type": "rich_text",
                "block_id": "K2AM",
                "elements": [
                    {
                        "type": "rich_text_section",
                        "elements": [
                            {
                                "type": "text",
                                "text": "Please keep me posted "
                            },
                            {
                                "type": "emoji",
                                "name": "slightly_smiling_face"
                            }
                        ]
                    }
                ]
            }
        ],
        "thread_ts": "1585126628.009600",
        "parent_user_id": "U010SFH73HD"
    },
    {
        "type": "message",
        "subtype": "bot_message",
        "text": "Cześć <@U010CFPGPB4> :flag-pl:",
        "ts": "1585142061.020900",
        "username": "GreetBot",
        "bot_id": "B0100JVEKUG"
    },
    {
        "type": "message",
        "subtype": "bot_message",
        "text": "Ciao <@U010CKCDEPL> :flag-it:",
        "ts": "1585144597.021100",
        "username": "GreetBot",
        "bot_id": "B0100JVEKUG"
    },
    {
        "type": "message",
        "subtype": "bot_message",
        "text": "Nǐ hǎo <@U010RE1NDCG> :flag-cn:",
        "ts": "1585145359.021800",
        "username": "GreetBot",
        "bot_id": "B0100JVEKUG"
    },
    {
        "client_msg_id": "DD03FB3F-734E-402D-AEEE-39F4DAA08166",
        "type": "message",
        "text": "Hey everyone! This is Prashant. I currently work at CRI in Paris. I can help with programming (not particularly limited with language or tech) , and can also do design for external communications (sorta citizen-science?).  I’ll be happy to help!",
        "user": "U010RE1NDCG",
        "ts": "1585145714.028400",
        "team": "TUU48M0T1",
        "user_team": "TUU48M0T1",
        "source_team": "TUU48M0T1",
        "user_profile": {
            "avatar_hash": "9b536de47814",
            "image_72": "https:\/\/avatars.slack-edge.com\/2020-03-27\/1033593346022_9b536de4781429680ea1_72.jpg",
            "first_name": "",
            "real_name": "Prashant Sinha",
            "display_name": "",
            "team": "TUU48M0T1",
            "name": "prashant",
            "is_restricted": false,
            "is_ultra_restricted": false
        },
        "blocks": [
            {
                "type": "rich_text",
                "block_id": "xqA=",
                "elements": [
                    {
                        "type": "rich_text_section",
                        "elements": [
                            {
                                "type": "text",
                                "text": "Hey everyone! This is Prashant. I currently work at CRI in Paris. I can help with programming (not particularly limited with language or tech) , and can also do design for external communications (sorta citizen-science?).  I’ll be happy to help!"
                            }
                        ]
                    }
                ]
            }
        ],
        "reactions": [
            {
                "name": "raised_hands",
                "users": [
                    "UV9V03C8Y"
                ],
                "count": 1
            },
            {
                "name": "wave",
                "users": [
                    "UV02WET96"
                ],
                "count": 1
            }
        ]
    },
    {
        "type": "message",
        "subtype": "bot_message",
        "text": "Sawadi Kap <@U010RH54KH6> :flag-th:",
        "ts": "1585147241.028700",
        "username": "GreetBot",
        "bot_id": "B0100JVEKUG"
    },
    {
        "type": "message",
        "subtype": "bot_message",
        "text": "Sawadi Kap <@U010R5M7LUU> :flag-th:",
        "ts": "1585148139.028900",
        "username": "GreetBot",
        "bot_id": "B0100JVEKUG"
    },
    {
        "type": "message",
        "subtype": "bot_message",
        "text": "Ciao <@U010RCB72A1> :flag-it:",
        "ts": "1585149631.029100",
        "username": "GreetBot",
        "bot_id": "B0100JVEKUG"
    },
    {
        "client_msg_id": "f8746488-2b87-426b-af94-319d69d0d68e",
        "type": "message",
        "text": "Hi All, Stephane here from London, UK. I work mainly as UX\/UI Designer in Commercial realm but happy to help where I can. Ive helping so far design a o2 saturation app.",
        "user": "U010RCB72A1",
        "ts": "1585149799.030300",
        "team": "TUU48M0T1",
        "user_team": "TUU48M0T1",
        "source_team": "TUU48M0T1",
        "user_profile": {
            "avatar_hash": "gb76e1745393",
            "image_72": "https:\/\/secure.gravatar.com\/avatar\/b76e17453930368c75b2c7591a879052.jpg?s=72&d=https%3A%2F%2Fa.slack-edge.com%2Fdf10d%2Fimg%2Favatars%2Fava_0014-72.png",
            "first_name": "Stephane",
            "real_name": "Stephane Massey",
            "display_name": "Stephane Massey",
            "team": "TUU48M0T1",
            "name": "stephanmas",
            "is_restricted": false,
            "is_ultra_restricted": false
        },
        "blocks": [
            {
                "type": "rich_text",
                "block_id": "FeT",
                "elements": [
                    {
                        "type": "rich_text_section",
                        "elements": [
                            {
                                "type": "text",
                                "text": "Hi All, Stephane here from London, UK. I work mainly as UX\/UI Designer in Commercial realm but happy to help where I can. Ive helping so far design a o2 saturation app."
                            }
                        ]
                    }
                ]
            }
        ],
        "reactions": [
            {
                "name": "wave",
                "users": [
                    "UV02WET96"
                ],
                "count": 1
            }
        ]
    },
    {
        "type": "message",
        "subtype": "bot_message",
        "text": "Nǐ hǎo <@U010D8HHMRQ> :flag-cn:",
        "ts": "1585155406.030800",
        "username": "GreetBot",
        "bot_id": "B0100JVEKUG"
    },
    {
        "client_msg_id": "27496fa2-e76f-4701-b540-a0e35ac1e682",
        "type": "message",
        "text": "Hey, I am Jayanthan from Sri Lanka. I am a student related to Mechanical and Electronic Engineering. I can work with C and designing works.'",
        "user": "U010D8HHMRQ",
        "ts": "1585155598.032500",
        "team": "TUU48M0T1",
        "user_team": "TUU48M0T1",
        "source_team": "TUU48M0T1",
        "user_profile": {
            "avatar_hash": "65916efccad1",
            "image_72": "https:\/\/avatars.slack-edge.com\/2020-03-25\/1014622613843_65916efccad1cbe17134_72.jpg",
            "first_name": "Jayanthan",
            "real_name": "Jayanthan Amalanathan",
            "display_name": "Jayanthan Amalanathan",
            "team": "TUU48M0T1",
            "name": "ajayanthan",
            "is_restricted": false,
            "is_ultra_restricted": false
        },
        "blocks": [
            {
                "type": "rich_text",
                "block_id": "flfW",
                "elements": [
                    {
                        "type": "rich_text_section",
                        "elements": [
                            {
                                "type": "text",
                                "text": "Hey, I am Jayanthan from Sri Lanka. I am a student related to Mechanical and Electronic Engineering. I can work with C and designing works.'"
                            }
                        ]
                    }
                ]
            }
        ],
        "reactions": [
            {
                "name": "wave",
                "users": [
                    "UV02WET96"
                ],
                "count": 1
            }
        ]
    },
    {
        "client_msg_id": "ad6bfbe3-b4a1-4bde-aafa-ad22df03a5b9",
        "type": "message",
        "text": ":+1:",
        "user": "U010QGMD5CM",
        "ts": "1585155741.032600",
        "team": "TUU48M0T1",
        "user_team": "TUU48M0T1",
        "source_team": "TUU48M0T1",
        "user_profile": {
            "avatar_hash": "6696f84e31a3",
            "image_72": "https:\/\/avatars.slack-edge.com\/2020-03-25\/1012126334210_6696f84e31a32ef3aefe_72.jpg",
            "first_name": "",
            "real_name": "Emma Barme",
            "display_name": "Emma Barme",
            "team": "TUU48M0T1",
            "name": "emmamarion.barme",
            "is_restricted": false,
            "is_ultra_restricted": false
        },
        "blocks": [
            {
                "type": "rich_text",
                "block_id": "OHY\/e",
                "elements": [
                    {
                        "type": "rich_text_section",
                        "elements": [
                            {
                                "type": "emoji",
                                "name": "+1"
                            }
                        ]
                    }
                ]
            }
        ],
        "thread_ts": "1585129841.011300",
        "parent_user_id": "U010QGMD5CM"
    },
    {
        "type": "message",
        "subtype": "bot_message",
        "text": "Dobryy den’ <@U010EKETFA7> :flag-ua:",
        "ts": "1585156277.032900",
        "username": "GreetBot",
        "bot_id": "B0100JVEKUG"
    },
    {
        "type": "message",
        "subtype": "bot_message",
        "text": "Olá <@U010G3HSC9X> :flag-pt:",
        "ts": "1585157104.033100",
        "username": "GreetBot",
        "bot_id": "B0100JVEKUG"
    },
    {
        "client_msg_id": "249b449f-c7e6-49e5-92d3-6aed2aefb5e1",
        "type": "message",
        "text": "Hi Artur from London, UK. Interested in aiding local making, including ventilators\/masks to protect health workers and high-risk groups locally, and improve environmental sustainability. Researcher in the Centre for Environmental Policy at Imperial College London",
        "user": "U010G3HSC9X",
        "ts": "1585157927.033600",
        "team": "TUU48M0T1",
        "user_team": "TUU48M0T1",
        "source_team": "TUU48M0T1",
        "user_profile": {
            "avatar_hash": "g7fe4fdef88a",
            "image_72": "https:\/\/secure.gravatar.com\/avatar\/7fe4fdef88aa31512885e90bd6a547ed.jpg?s=72&d=https%3A%2F%2Fa.slack-edge.com%2Fdf10d%2Fimg%2Favatars%2Fava_0018-72.png",
            "first_name": "",
            "real_name": "Artur",
            "display_name": "Artur",
            "team": "TUU48M0T1",
            "name": "arthurdo",
            "is_restricted": false,
            "is_ultra_restricted": false
        },
        "blocks": [
            {
                "type": "rich_text",
                "block_id": "\/BhZ",
                "elements": [
                    {
                        "type": "rich_text_section",
                        "elements": [
                            {
                                "type": "text",
                                "text": "Hi Artur from London, UK. Interested in aiding local making, including ventilators\/masks to protect health workers and high-risk groups locally, and improve environmental sustainability. Researcher in the Centre for Environmental Policy at Imperial College London"
                            }
                        ]
                    }
                ]
            }
        ],
        "reactions": [
            {
                "name": "wave",
                "users": [
                    "UV02WET96"
                ],
                "count": 1
            }
        ]
    },
    {
        "client_msg_id": "7af281e4-b44c-48f0-adaf-3a0157c84d12",
        "type": "message",
        "text": "We have a project started and I'm still looking for collaborators. The team is getting pretty strong. I thought you might be able and interested to contribute.\nFor convenience and clarity I added all the links to the main project page so we only need to know the one link.<http:\/\/specyal.com\/diybio\/bioreactor.html>\n\nUnder that we linked our general document, the slack address, the JOGL address, the proposal document etc.\n\nOne Ring to rule them ALL\n\nWe will use Slack for communication so please join us in Slack for chat like communication.",
        "user": "U0103SR759U",
        "ts": "1585158105.033700",
        "team": "TUU48M0T1",
        "user_team": "TUU48M0T1",
        "source_team": "TUU48M0T1",
        "user_profile": {
            "avatar_hash": "g2694d379600",
            "image_72": "https:\/\/secure.gravatar.com\/avatar\/2694d3796008843d36d4b6ceff7f8660.jpg?s=72&d=https%3A%2F%2Fa.slack-edge.com%2Fdf10d%2Fimg%2Favatars%2Fava_0010-72.png",
            "first_name": "Adrian",
            "real_name": "Adrian Molecule",
            "display_name": "Adrian Molecule",
            "team": "TUU48M0T1",
            "name": "tada",
            "is_restricted": false,
            "is_ultra_restricted": false
        },
        "attachments": [
            {
                "title": "Ottawa Bio Science - Bioreactor",
                "title_link": "http:\/\/specyal.com\/diybio\/bioreactor.html",
                "text": "Ottawa DIYBio",
                "fallback": "Ottawa Bio Science - Bioreactor",
                "from_url": "http:\/\/specyal.com\/diybio\/bioreactor.html",
                "service_name": "specyal.com",
                "id": 1,
                "original_url": "http:\/\/specyal.com\/diybio\/bioreactor.html"
            }
        ],
        "blocks": [
            {
                "type": "rich_text",
                "block_id": "qEr=",
                "elements": [
                    {
                        "type": "rich_text_section",
                        "elements": [
                            {
                                "type": "text",
                                "text": "We have a project started and I'm still looking for collaborators. The team is getting pretty strong. I thought you might be able and interested to contribute.\nFor convenience and clarity I added all the links to the main project page so we only need to know the one link."
                            },
                            {
                                "type": "link",
                                "url": "http:\/\/specyal.com\/diybio\/bioreactor.html"
                            },
                            {
                                "type": "text",
                                "text": "\n\nUnder that we linked our general document, the slack address, the JOGL address, the proposal document etc.\n\nOne Ring to rule them ALL\n\nWe will use Slack for communication so please join us in Slack for chat like communication."
                            }
                        ]
                    }
                ]
            }
        ],
        "thread_ts": "1584926894.350600",
        "parent_user_id": "U010J190S5B"
    },
    {
        "client_msg_id": "c4b25b8e-32f0-45e2-b705-d6e72e621f85",
        "type": "message",
        "text": "We have a project started and I'm still looking for collaborators. The team is getting pretty strong. I thought you might be able and interested to contribute.\nFor convenience and clarity I added all the links to the main project page so we only need to know the one link.<http:\/\/specyal.com\/diybio\/bioreactor.html>\n\nUnder that we linked our general document, the slack address, the JOGL address, the proposal document etc.\n\nOne Ring to rule them ALL\n\nWe will use Slack for communication so please join us in Slack for chat like communication.",
        "user": "U0103SR759U",
        "ts": "1585158196.034000",
        "team": "TUU48M0T1",
        "user_team": "TUU48M0T1",
        "source_team": "TUU48M0T1",
        "user_profile": {
            "avatar_hash": "g2694d379600",
            "image_72": "https:\/\/secure.gravatar.com\/avatar\/2694d3796008843d36d4b6ceff7f8660.jpg?s=72&d=https%3A%2F%2Fa.slack-edge.com%2Fdf10d%2Fimg%2Favatars%2Fava_0010-72.png",
            "first_name": "Adrian",
            "real_name": "Adrian Molecule",
            "display_name": "Adrian Molecule",
            "team": "TUU48M0T1",
            "name": "tada",
            "is_restricted": false,
            "is_ultra_restricted": false
        },
        "blocks": [
            {
                "type": "rich_text",
                "block_id": "X\/ttJ",
                "elements": [
                    {
                        "type": "rich_text_section",
                        "elements": [
                            {
                                "type": "text",
                                "text": "We have a project started and I'm still looking for collaborators. The team is getting pretty strong. I thought you might be able and interested to contribute.\nFor convenience and clarity I added all the links to the main project page so we only need to know the one link."
                            },
                            {
                                "type": "link",
                                "url": "http:\/\/specyal.com\/diybio\/bioreactor.html"
                            },
                            {
                                "type": "text",
                                "text": "\n\nUnder that we linked our general document, the slack address, the JOGL address, the proposal document etc.\n\nOne Ring to rule them ALL\n\nWe will use Slack for communication so please join us in Slack for chat like communication."
                            }
                        ]
                    }
                ]
            }
        ],
        "thread_ts": "1584930968.362900",
        "parent_user_id": "U01080CJ6P3"
    },
    {
        "type": "message",
        "subtype": "bot_message",
        "text": "Sawadi Kap <@U010ERHR04B> :flag-th:",
        "ts": "1585159799.034300",
        "username": "GreetBot",
        "bot_id": "B0100JVEKUG"
    },
    {
        "type": "message",
        "subtype": "bot_message",
        "text": "Namaste <@U010G9320HF> :flag-in:",
        "ts": "1585160269.034500",
        "username": "GreetBot",
        "bot_id": "B0100JVEKUG"
    },
    {
        "type": "message",
        "subtype": "bot_message",
        "text": "Bonjour <@U010DR75K6E> :flag-fr:",
        "ts": "1585165517.034700",
        "username": "GreetBot",
        "bot_id": "B0100JVEKUG"
    },
    {
        "client_msg_id": "C8C069FC-B8C8-4814-8156-E6B380FC4481",
        "type": "message",
        "text": "hey! I am bouncing over from #cough-tracker I have started a project with a react-native app and audio prediction model (currently 60% acc) specifically for an arudino device. The app is a data collection effort. <https:\/\/twitter.com\/kartikthakore\/status\/1242894561229205504?s=21|https:\/\/twitter.com\/kartikthakore\/status\/1242894561229205504?s=21> the code is being published here <https:\/\/github.com\/Gladsheimr\/covid-tracker|https:\/\/github.com\/Gladsheimr\/covid-tracker>  and the proposal is here <https:\/\/twitter.com\/kartikthakore\/status\/1239738116321054721?s=21|https:\/\/twitter.com\/kartikthakore\/status\/1239738116321054721?s=21>",
        "user": "U010DR75K6E",
        "ts": "1585165940.034900",
        "team": "TUU48M0T1",
        "user_team": "TUU48M0T1",
        "source_team": "TUU48M0T1",
        "user_profile": {
            "avatar_hash": "d61bf3524308",
            "image_72": "https:\/\/avatars.slack-edge.com\/2020-03-25\/1025899632948_d61bf35243082df705e4_72.png",
            "first_name": "Kartik",
            "real_name": "Kartik",
            "display_name": "Kartik Thakore",
            "team": "TUU48M0T1",
            "name": "kthakorefi",
            "is_restricted": false,
            "is_ultra_restricted": false
        },
        "attachments": [
            {
                "fallback": "Gladsheimr\/covid-tracker",
                "text": "Leverage audio signals to track",
                "title": "Gladsheimr\/covid-tracker",
                "footer": "<https:\/\/github.com\/Gladsheimr\/covid-tracker|Gladsheimr\/covid-tracker>",
                "id": 1,
                "footer_icon": "https:\/\/github.githubassets.com\/favicon.ico",
                "ts": 1584396618,
                "color": "24292f",
                "fields": [
                    {
                        "title": "Stars",
                        "value": "3",
                        "short": true
                    },
                    {
                        "title": "Language",
                        "value": "Jupyter Notebook",
                        "short": true
                    }
                ],
                "mrkdwn_in": [
                    "text",
                    "fields"
                ],
                "bot_id": "BUW789DM0",
                "app_unfurl_url": "https:\/\/github.com\/Gladsheimr\/covid-tracker",
                "is_app_unfurl": true
            }
        ],
        "blocks": [
            {
                "type": "rich_text",
                "block_id": "JFh=",
                "elements": [
                    {
                        "type": "rich_text_section",
                        "elements": [
                            {
                                "type": "text",
                                "text": "hey! I am bouncing over from #cough-tracker I have started a project with a react-native app and audio prediction model (currently 60% acc) specifically for an arudino device. The app is a data collection effort. "
                            },
                            {
                                "type": "link",
                                "url": "https:\/\/twitter.com\/kartikthakore\/status\/1242894561229205504?s=21",
                                "text": "https:\/\/twitter.com\/kartikthakore\/status\/1242894561229205504?s=21"
                            },
                            {
                                "type": "text",
                                "text": " the code is being published here "
                            },
                            {
                                "type": "link",
                                "url": "https:\/\/github.com\/Gladsheimr\/covid-tracker",
                                "text": "https:\/\/github.com\/Gladsheimr\/covid-tracker"
                            },
                            {
                                "type": "text",
                                "text": "  and the proposal is here "
                            },
                            {
                                "type": "link",
                                "url": "https:\/\/twitter.com\/kartikthakore\/status\/1239738116321054721?s=21",
                                "text": "https:\/\/twitter.com\/kartikthakore\/status\/1239738116321054721?s=21"
                            }
                        ]
                    }
                ]
            }
        ],
        "reactions": [
            {
                "name": "wave",
                "users": [
                    "UV02WET96"
                ],
                "count": 1
            }
        ]
    },
    {
        "type": "message",
        "subtype": "bot_message",
        "text": "Hallå <@U010UFNLC9M> :flag-se:",
        "ts": "1585168080.035300",
        "username": "GreetBot",
        "bot_id": "B0100JVEKUG"
    },
    {
        "type": "message",
        "subtype": "bot_message",
        "text": "Ohayo <@U010UGFSN4E> :flag-jp:",
        "ts": "1585172437.035500",
        "username": "GreetBot",
        "bot_id": "B0100JVEKUG"
    },
    {
        "type": "message",
        "subtype": "bot_message",
        "text": "Guten tag <@U010SJMDN93> :flag-de:",
        "ts": "1585172607.035700",
        "username": "GreetBot",
        "bot_id": "B0100JVEKUG"
    },
    {
        "client_msg_id": "18406205-e058-4cab-9e3a-a20f08866bb1",
        "type": "message",
        "text": "Hello, I am the founder of the startup Tree of Science dedicated to the democratization of digital tools for science and humanities and open science to researchers. I am here to support any projects with my networks, knowledge and experience. *",
        "user": "U010UGFSN4E",
        "ts": "1585173515.038200",
        "team": "TUU48M0T1",
        "user_team": "TUU48M0T1",
        "source_team": "TUU48M0T1",
        "user_profile": {
            "avatar_hash": "11c3b6e891b8",
            "image_72": "https:\/\/avatars.slack-edge.com\/2020-03-31\/1041090469367_11c3b6e891b8403f4f87_72.jpg",
            "first_name": "Julien",
            "real_name": "Julien Hering (Tree of Science)",
            "display_name": "Julien Hering (Tree of Science)",
            "team": "TUU48M0T1",
            "name": "julien.hering",
            "is_restricted": false,
            "is_ultra_restricted": false
        },
        "blocks": [
            {
                "type": "rich_text",
                "block_id": "N2vq",
                "elements": [
                    {
                        "type": "rich_text_section",
                        "elements": [
                            {
                                "type": "text",
                                "text": "Hello, I am the founder of the startup Tree of Science dedicated to the democratization of digital tools for science and humanities and open science to researchers. I am here to support any projects with my networks, knowledge and experience. *"
                            }
                        ]
                    }
                ]
            }
        ],
        "reactions": [
            {
                "name": "wave",
                "users": [
                    "UV02WET96",
                    "UV8T52QJ3"
                ],
                "count": 2
            },
            {
                "name": "heart",
                "users": [
                    "U010WKVUFFY"
                ],
                "count": 1
            }
        ]
    },
    {
        "type": "message",
        "subtype": "bot_message",
        "text": "Ciao <@U010E7D63A6> :flag-it:",
        "ts": "1585175564.038400",
        "username": "GreetBot",
        "bot_id": "B0100JVEKUG"
    },
    {
        "type": "message",
        "subtype": "bot_message",
        "text": "Nǐ hǎo <@U010E88CX42> :flag-cn:",
        "ts": "1585176063.038600",
        "username": "GreetBot",
        "bot_id": "B0100JVEKUG"
    },
    {
        "type": "message",
        "subtype": "bot_message",
        "text": "Guten tag <@U010SVD31GD> :flag-de:",
        "ts": "1585187951.039000",
        "username": "GreetBot",
        "bot_id": "B0100JVEKUG"
    }
]