[
    {
        "client_msg_id": "87e61a68-ca9b-4dbc-842f-2af8036850d9",
        "type": "message",
        "text": "<https:\/\/www.opencell.bio\/news\/covid-testing-update>",
        "user": "UV7AZH728",
        "ts": "1584704799.012500",
        "team": "TUU48M0T1",
        "user_team": "TUU48M0T1",
        "source_team": "TUU48M0T1",
        "user_profile": {
            "avatar_hash": "g3a93d1b5438",
            "image_72": "https:\/\/secure.gravatar.com\/avatar\/3a93d1b54386d7d5f4abceccfd7414e5.jpg?s=72&d=https%3A%2F%2Fa.slack-edge.com%2Fdf10d%2Fimg%2Favatars%2Fava_0013-72.png",
            "first_name": "",
            "real_name": "Tom Meany",
            "display_name": "Tom Meany",
            "team": "TUU48M0T1",
            "name": "covid19",
            "is_restricted": false,
            "is_ultra_restricted": false
        },
        "attachments": [
            {
                "title": "COVID testing UPDATE",
                "title_link": "https:\/\/www.opencell.bio\/news\/covid-testing-update",
                "text": "Testing saves lives. Every person caring for a vulnerable individual needs daily testing. Every hero working at the front lines in hospitals needs daily testing. Every bus driver, postal worker, and shop keeper who takes risks to keep our society going needs daily testing. This is a once in a century pandemic and we need action. We need to urge policy makers in the UK and elsewhere to permit “emergency use authorisation” guidelines so that we can lower the strict standards currently required and accelerate test deployment. There are four main options for testing",
                "fallback": "COVID testing UPDATE",
                "thumb_url": "https:\/\/uploads-ssl.webflow.com\/5beda5254920653278723f22\/5e74a8d431a71385abb6718a_Screen%20Shot%202020-03-20%20at%2011.27.41.png",
                "from_url": "https:\/\/www.opencell.bio\/news\/covid-testing-update",
                "thumb_width": 2500,
                "thumb_height": 1440,
                "service_name": "opencell.bio",
                "id": 1,
                "original_url": "https:\/\/www.opencell.bio\/news\/covid-testing-update"
            }
        ],
        "blocks": [
            {
                "type": "rich_text",
                "block_id": "SBqSN",
                "elements": [
                    {
                        "type": "rich_text_section",
                        "elements": [
                            {
                                "type": "link",
                                "url": "https:\/\/www.opencell.bio\/news\/covid-testing-update"
                            }
                        ]
                    }
                ]
            }
        ],
        "reactions": [
            {
                "name": "+1",
                "users": [
                    "UV02WET96"
                ],
                "count": 1
            },
            {
                "name": "heart",
                "users": [
                    "UUWLPKCLB"
                ],
                "count": 1
            }
        ]
    }
]