[
    {
        "client_msg_id": "e8fd8077-8461-41e2-8bed-4ffa42752870",
        "type": "message",
        "text": "Hey folks -- an update on the primary Opentrons effort at Open Medicine Intitute in Palo Alto:\n\nThe team has the pilot system set up and has done some gorgeous RNA extractions, which they are QCing on nanodrop. As of today they finally received the required qPCR reagents to finish testing, so they should have some more info + results coming out if not at the end of this week, then by next week. The plan is still to push for an EUA so that the platform can be used for diagnosis and not just surveillance or research, but the timeline on that remains to be seen.\n\n<@UV7AZH728> -- I am sure you are coordinating with Will, Chaz and the rest of the team but lmk if I can be helpful. I am staying close in touch w\/ Will as this develops.",
        "user": "UUWLPKCLB",
        "ts": "1584651917.012100",
        "team": "TUU48M0T1",
        "user_team": "TUU48M0T1",
        "source_team": "TUU48M0T1",
        "user_profile": {
            "avatar_hash": "g59b893b3b55",
            "image_72": "https:\/\/secure.gravatar.com\/avatar\/59b893b3b558815c856d54c41813a478.jpg?s=72&d=https%3A%2F%2Fa.slack-edge.com%2Fdf10d%2Fimg%2Favatars%2Fava_0026-72.png",
            "first_name": "",
            "real_name": "Kristin",
            "display_name": "Kristin",
            "team": "TUU48M0T1",
            "name": "kristin.ellis88",
            "is_restricted": false,
            "is_ultra_restricted": false
        },
        "blocks": [
            {
                "type": "rich_text",
                "block_id": "Cvz",
                "elements": [
                    {
                        "type": "rich_text_section",
                        "elements": [
                            {
                                "type": "text",
                                "text": "Hey folks -- an update on the primary Opentrons effort at Open Medicine Intitute in Palo Alto:\n\nThe team has the pilot system set up and has done some gorgeous RNA extractions, which they are QCing on nanodrop. As of today they finally received the required qPCR reagents to finish testing, so they should have some more info + results coming out if not at the end of this week, then by next week. The plan is still to push for an EUA so that the platform can be used for diagnosis and not just surveillance or research, but the timeline on that remains to be seen.\n\n"
                            },
                            {
                                "type": "user",
                                "user_id": "UV7AZH728"
                            },
                            {
                                "type": "text",
                                "text": " -- I am sure you are coordinating with Will, Chaz and the rest of the team but lmk if I can be helpful. I am staying close in touch w\/ Will as this develops."
                            }
                        ]
                    }
                ]
            }
        ],
        "reactions": [
            {
                "name": "raised_hands",
                "users": [
                    "UV02WET96",
                    "UVADMLUB0",
                    "U011NSDDEKV"
                ],
                "count": 3
            },
            {
                "name": "the_horns",
                "users": [
                    "UUNGFHSV8"
                ],
                "count": 1
            }
        ]
    }
]