[
    {
        "type": "message",
        "subtype": "channel_join",
        "ts": "1585952610.000200",
        "user": "U011D6K9RH6",
        "text": "<@U011D6K9RH6> has joined the channel"
    },
    {
        "type": "message",
        "subtype": "channel_purpose",
        "ts": "1585952611.000300",
        "user": "U011D6K9RH6",
        "text": "<@U011D6K9RH6> set the channel purpose: This is a project designed to create, source and deploy relevant mental health services\/solutions for pre\/mid\/post-diagnosis for Covid-19.",
        "purpose": "This is a project designed to create, source and deploy relevant mental health services\/solutions for pre\/mid\/post-diagnosis for Covid-19."
    },
    {
        "type": "message",
        "subtype": "channel_join",
        "ts": "1585960951.000200",
        "user": "U0103128G4D",
        "text": "<@U0103128G4D> has joined the channel"
    }
]