[
    {
        "type": "message",
        "subtype": "channel_join",
        "ts": "1587752020.002600",
        "user": "U012PAADW2Y",
        "text": "<@U012PAADW2Y> has joined the channel",
        "inviter": "U011D6K9RH6"
    }
]