[
    {
        "client_msg_id": "58ed608f-9ab7-45db-83bb-4833b98f69e4",
        "type": "message",
        "text": "It's SO great to see the members in this channel go up. I am working with <@U011D6K9RH6> to bring you guys a \"Finding Your Peace\" workshop and meditation. Hope you guys will find the value in this during this time. I'd love to hear from all of you to just gauge the interest in this.",
        "user": "U010W4KTANM",
        "ts": "1587487261.032500",
        "team": "TUU48M0T1",
        "user_team": "TUU48M0T1",
        "source_team": "TUU48M0T1",
        "user_profile": {
            "avatar_hash": "5272265a95a9",
            "image_72": "https:\/\/avatars.slack-edge.com\/2020-04-07\/1052520458481_5272265a95a976c79c3e_72.jpg",
            "first_name": "",
            "real_name": "Sophie Lin",
            "display_name": "Sophie Lin",
            "team": "TUU48M0T1",
            "name": "sophie",
            "is_restricted": false,
            "is_ultra_restricted": false
        },
        "blocks": [
            {
                "type": "rich_text",
                "block_id": "sCWq",
                "elements": [
                    {
                        "type": "rich_text_section",
                        "elements": [
                            {
                                "type": "text",
                                "text": "It's SO great to see the members in this channel go up. I am working with "
                            },
                            {
                                "type": "user",
                                "user_id": "U011D6K9RH6"
                            },
                            {
                                "type": "text",
                                "text": " to bring you guys a \"Finding Your Peace\" workshop and meditation. Hope you guys will find the value in this during this time. I'd love to hear from all of you to just gauge the interest in this."
                            }
                        ]
                    }
                ]
            }
        ],
        "thread_ts": "1587487261.032500",
        "reply_count": 1,
        "reply_users_count": 1,
        "latest_reply": "1587548629.033600",
        "reply_users": [
            "U011LQ49GLW"
        ],
        "replies": [
            {
                "user": "U011LQ49GLW",
                "ts": "1587548629.033600"
            }
        ],
        "subscribed": false,
        "reactions": [
            {
                "name": "heart",
                "users": [
                    "U011D6K9RH6",
                    "UV02WET96",
                    "UUS2G6N6M"
                ],
                "count": 3
            },
            {
                "name": "slightly_smiling_face",
                "users": [
                    "U011D6K9RH6"
                ],
                "count": 1
            }
        ]
    }
]