[
    {
        "client_msg_id": "111F70A1-9D37-4AFA-A2CF-39FD6EB1CB77",
        "type": "message",
        "text": "Hey Sophie, sounds interesting what you’re working on. The idea is to do this live? ",
        "user": "U011LQ49GLW",
        "ts": "1587548629.033600",
        "team": "TUU48M0T1",
        "user_team": "TUU48M0T1",
        "source_team": "TUU48M0T1",
        "user_profile": {
            "avatar_hash": "60440d611821",
            "image_72": "https:\/\/avatars.slack-edge.com\/2020-04-14\/1060952694723_60440d6118216793464e_72.png",
            "first_name": "Charlotte",
            "real_name": "Charlotte Vanhoutte",
            "display_name": "Charlotte Vanhoutte",
            "team": "TUU48M0T1",
            "name": "charlottevanhoutte",
            "is_restricted": false,
            "is_ultra_restricted": false
        },
        "blocks": [
            {
                "type": "rich_text",
                "block_id": "a0KMJ",
                "elements": [
                    {
                        "type": "rich_text_section",
                        "elements": [
                            {
                                "type": "text",
                                "text": "Hey Sophie, sounds interesting what you’re working on. The idea is to do this live? "
                            }
                        ]
                    }
                ]
            }
        ],
        "thread_ts": "1587487261.032500",
        "parent_user_id": "U010W4KTANM",
        "reactions": [
            {
                "name": "heart",
                "users": [
                    "U011D6K9RH6"
                ],
                "count": 1
            }
        ]
    },
    {
        "type": "message",
        "subtype": "channel_join",
        "ts": "1587575116.033900",
        "user": "U010B412MF1",
        "text": "<@U010B412MF1> has joined the channel"
    }
]