[
    {
        "type": "message",
        "subtype": "channel_join",
        "ts": "1586606325.000200",
        "user": "U011XCJJ7KK",
        "text": "<@U011XCJJ7KK> has joined the channel"
    },
    {
        "type": "message",
        "subtype": "channel_purpose",
        "ts": "1586606325.000300",
        "user": "U011XCJJ7KK",
        "text": "<@U011XCJJ7KK> set the channel purpose: Smart coaster placed at bottom of a bottle\/cup holding drinking water to monitor our water consumption rate by reading the weight difference. <https:\/\/solve.mit.edu\/challenges\/health-security-pandemics\/solutions\/19715>",
        "purpose": "Smart coaster placed at bottom of a bottle\/cup holding drinking water to monitor our water consumption rate by reading the weight difference. <https:\/\/solve.mit.edu\/challenges\/health-security-pandemics\/solutions\/19715>"
    },
    {
        "client_msg_id": "9e259ad2-478a-450a-897c-28a46460e70f",
        "type": "message",
        "text": "Coronavirus is spread through droplets transmitted into the air from coughing or sneezing, which people nearby can take in through their nose, mouth or eyes. The viral particles in these droplets travel quickly to the back of your nasal passages and to the mucous membranes in the back of your throat, attaching to a particular receptor in cells, beginning there. The virus then crawls progressively down the bronchial tubes. When the virus reaches the lungs, their mucous membranes become inflamed that can damage the lung sacs or alveoli by reducing their numbers leading to lowering their capacity of holding air. Because of this it is recommended to drink water on a very higher frequency to force the virus move from your throat to the stomach where the virus can be killed via the digestive system. So you often see peoples drinking water often but for people who do not have a habit of drinking water regularly we need a mechanism that trigger behavioral change to drink water on regular basis that will help them protect themselves if they are infected with coronavirs without their knowledge. \nSmart  coaster to monitor our water consumption rate by reading the weight difference per time. Meaning, the device have weight measuring sensor\/ high precision load cell, programmable timing board, LED light display and Lithium battery that are connected with simple electronic circuit with cover to place the bottle holding water. When we place the bottle on top of the device, it automatically measures the total weight of the bottle with the water. As we drink the water, its weight decreases and the device measures the difference in weight and count time starting from the first weight difference of the bottle. This will enable the device monitor the weight difference over time. Then the device will compare this data to the recommended consumption rate of water per time set by the programmer and display a signaling light. Meaning, when the weight of the water bottle is decreasing as per recommended value of time, the device shows continuous green light. But when the weight of the bottle is not decreasing faster than the recommended time, the device switches to continuous red color. This will bring behavioral change to drink more water in recommended volume to prevent COVID-19 be in your throat.",
        "user": "U011XCJJ7KK",
        "ts": "1586606470.000400",
        "team": "TUU48M0T1",
        "user_team": "TUU48M0T1",
        "source_team": "TUU48M0T1",
        "user_profile": {
            "avatar_hash": "a14335872167",
            "image_72": "https:\/\/avatars.slack-edge.com\/2020-04-10\/1052948616998_a1433587216787500a0e_72.jpg",
            "first_name": "Anteneh",
            "real_name": "Anteneh Gashaw",
            "display_name": "",
            "team": "TUU48M0T1",
            "name": "antenh.g",
            "is_restricted": false,
            "is_ultra_restricted": false
        },
        "blocks": [
            {
                "type": "rich_text",
                "block_id": "j8QYJ",
                "elements": [
                    {
                        "type": "rich_text_section",
                        "elements": [
                            {
                                "type": "text",
                                "text": "Coronavirus is spread through droplets transmitted into the air from coughing or sneezing, which people nearby can take in through their nose, mouth or eyes. The viral particles in these droplets travel quickly to the back of your nasal passages and to the mucous membranes in the back of your throat, attaching to a particular receptor in cells, beginning there. The virus then crawls progressively down the bronchial tubes. When the virus reaches the lungs, their mucous membranes become inflamed that can damage the lung sacs or alveoli by reducing their numbers leading to lowering their capacity of holding air. Because of this it is recommended to drink water on a very higher frequency to force the virus move from your throat to the stomach where the virus can be killed via the digestive system. So you often see peoples drinking water often but for people who do not have a habit of drinking water regularly we need a mechanism that trigger behavioral change to drink water on regular basis that will help them protect themselves if they are infected with coronavirs without their knowledge. \nSmart  coaster to monitor our water consumption rate by reading the weight difference per time. Meaning, the device have weight measuring sensor\/ high precision load cell, programmable timing board, LED light display and Lithium battery that are connected with simple electronic circuit with cover to place the bottle holding water. When we place the bottle on top of the device, it automatically measures the total weight of the bottle with the water. As we drink the water, its weight decreases and the device measures the difference in weight and count time starting from the first weight difference of the bottle. This will enable the device monitor the weight difference over time. Then the device will compare this data to the recommended consumption rate of water per time set by the programmer and display a signaling light. Meaning, when the weight of the water bottle is decreasing as per recommended value of time, the device shows continuous green light. But when the weight of the bottle is not decreasing faster than the recommended time, the device switches to continuous red color. This will bring behavioral change to drink more water in recommended volume to prevent COVID-19 be in your throat."
                            }
                        ]
                    }
                ]
            }
        ]
    }
]