[
    {
        "client_msg_id": "2335e424-ab2f-4fa8-b18f-1340d0aa2211",
        "type": "message",
        "text": "aptamers would be soooo awesome imho (and maybe better than qPCR or even crispr?) with electrochem detection  <@UV7N8HX28> has expertise in this.  Wondering if there is an open protocol, a way to get this method running for some place like Hackuarium to try?",
        "user": "UV1A22N3W",
        "ts": "1584202900.101400",
        "team": "TUU48M0T1",
        "user_team": "TUU48M0T1",
        "source_team": "TUU48M0T1",
        "user_profile": {
            "avatar_hash": "71f827776ad6",
            "image_72": "https:\/\/avatars.slack-edge.com\/2020-03-09\/988125642964_71f827776ad610af05a2_72.jpg",
            "first_name": "",
            "real_name": "RachelA",
            "display_name": "RachelA",
            "team": "TUU48M0T1",
            "name": "raronoff",
            "is_restricted": false,
            "is_ultra_restricted": false
        },
        "blocks": [
            {
                "type": "rich_text",
                "block_id": "=NMK",
                "elements": [
                    {
                        "type": "rich_text_section",
                        "elements": [
                            {
                                "type": "text",
                                "text": "aptamers would be soooo awesome imho (and maybe better than qPCR or even crispr?) with electrochem detection  "
                            },
                            {
                                "type": "user",
                                "user_id": "UV7N8HX28"
                            },
                            {
                                "type": "text",
                                "text": " has expertise in this.  Wondering if there is an open protocol, a way to get this method running for some place like Hackuarium to try?"
                            }
                        ]
                    }
                ]
            }
        ],
        "thread_ts": "1584134621.096000",
        "parent_user_id": "UUPFF4TC3"
    },
    {
        "type": "message",
        "subtype": "channel_join",
        "ts": "1584202908.101700",
        "user": "UV7N8HX28",
        "text": "<@UV7N8HX28> has joined the channel",
        "inviter": "UV1A22N3W"
    },
    {
        "client_msg_id": "222575a7-51bc-4bf9-94b2-037f6dfe80ac",
        "type": "message",
        "text": "Question, does anyone have any idea where we could get small amounts of Covid-19 convalescent sera for in-vitro testing?",
        "user": "U0100EPL9RT",
        "ts": "1584209437.103300",
        "team": "TUU48M0T1",
        "user_team": "TUU48M0T1",
        "source_team": "TUU48M0T1",
        "user_profile": {
            "avatar_hash": "gcb426d5e001",
            "image_72": "https:\/\/secure.gravatar.com\/avatar\/cb426d5e001776a4cbc74343e46f1916.jpg?s=72&d=https%3A%2F%2Fa.slack-edge.com%2Fdf10d%2Fimg%2Favatars%2Fava_0000-72.png",
            "first_name": "Zac",
            "real_name": "Zac",
            "display_name": "Zac",
            "team": "TUU48M0T1",
            "name": "zac",
            "is_restricted": false,
            "is_ultra_restricted": false
        },
        "blocks": [
            {
                "type": "rich_text",
                "block_id": "UYkJ=",
                "elements": [
                    {
                        "type": "rich_text_section",
                        "elements": [
                            {
                                "type": "text",
                                "text": "Question, does anyone have any idea where we could get small amounts of Covid-19 convalescent sera for in-vitro testing?"
                            }
                        ]
                    }
                ]
            }
        ]
    },
    {
        "client_msg_id": "d38054bd-8b18-4298-b554-e7dd012e6bf8",
        "type": "message",
        "text": "For example is there a biobank for SARS-COV-2?",
        "user": "U0100EPL9RT",
        "ts": "1584209481.103900",
        "team": "TUU48M0T1",
        "user_team": "TUU48M0T1",
        "source_team": "TUU48M0T1",
        "user_profile": {
            "avatar_hash": "gcb426d5e001",
            "image_72": "https:\/\/secure.gravatar.com\/avatar\/cb426d5e001776a4cbc74343e46f1916.jpg?s=72&d=https%3A%2F%2Fa.slack-edge.com%2Fdf10d%2Fimg%2Favatars%2Fava_0000-72.png",
            "first_name": "Zac",
            "real_name": "Zac",
            "display_name": "Zac",
            "team": "TUU48M0T1",
            "name": "zac",
            "is_restricted": false,
            "is_ultra_restricted": false
        },
        "blocks": [
            {
                "type": "rich_text",
                "block_id": "zBVN",
                "elements": [
                    {
                        "type": "rich_text_section",
                        "elements": [
                            {
                                "type": "text",
                                "text": "For example is there a biobank for SARS-COV-2?"
                            }
                        ]
                    }
                ]
            }
        ]
    },
    {
        "client_msg_id": "678ddb14-e40e-4a4f-9ed0-d9e57514a8ee",
        "type": "message",
        "text": "Twist Bioscience has the genes, and the genes are published so self synthesis is possible, but I am unsure on sera",
        "user": "UV0RRGB6H",
        "ts": "1584210991.105000",
        "team": "TUU48M0T1",
        "user_team": "TUU48M0T1",
        "source_team": "TUU48M0T1",
        "user_profile": {
            "avatar_hash": "48d4ab64c90c",
            "image_72": "https:\/\/avatars.slack-edge.com\/2020-03-26\/1029789176912_48d4ab64c90c03f3af4a_72.jpg",
            "first_name": "",
            "real_name": "Chris LB Graham",
            "display_name": "",
            "team": "TUU48M0T1",
            "name": "chris.graham",
            "is_restricted": false,
            "is_ultra_restricted": false
        },
        "blocks": [
            {
                "type": "rich_text",
                "block_id": "vfYf",
                "elements": [
                    {
                        "type": "rich_text_section",
                        "elements": [
                            {
                                "type": "text",
                                "text": "Twist Bioscience has the genes, and the genes are published so self synthesis is possible, but I am unsure on sera"
                            }
                        ]
                    }
                ]
            }
        ]
    },
    {
        "client_msg_id": "5c3cfa52-a346-41f0-8f50-f699f9861d5f",
        "type": "message",
        "text": "Hello boys and girls, not sure where to leave this. I have a connection from Sweden, a sales manager. I talked about the \"RNA extraction kits bottleneck\". He told me that monday he will check with his boss about these kits: <https:\/\/international.neb.com\/products\/t2010-monarch-total-rna-miniprep-kit?fbclid=IwAR3B8PIHp9NLW0VyHFuINHYwjB2XNggZ6nxrjMGzbcfWCnBQIvY8hbdls6I#Product%20Information>\n\nDon't know if they're useful. I will also try to contact a second source. Cheers.",
        "user": "U0100BF93LY",
        "ts": "1584222161.107100",
        "team": "TUU48M0T1",
        "user_team": "TUU48M0T1",
        "source_team": "TUU48M0T1",
        "user_profile": {
            "avatar_hash": "7290646a8195",
            "image_72": "https:\/\/avatars.slack-edge.com\/2020-03-14\/1002603752278_7290646a8195e8171ad5_72.jpg",
            "first_name": "Bruno",
            "real_name": "Bruno Guerreiro",
            "display_name": "Bruno Guerreiro",
            "team": "TUU48M0T1",
            "name": "bm.guerreiro",
            "is_restricted": false,
            "is_ultra_restricted": false
        },
        "attachments": [
            {
                "title": " Monarch Total RNA Miniprep Kit (NEB #T2010) | NEB",
                "title_link": "https:\/\/international.neb.com\/products\/t2010-monarch-total-rna-miniprep-kit?fbclid=IwAR3B8PIHp9NLW0VyHFuINHYwjB2XNggZ6nxrjMGzbcfWCnBQIvY8hbdls6I#Product%20Information",
                "text": "Fast and easy RNA extraction from a variety of sample types",
                "fallback": " Monarch Total RNA Miniprep Kit (NEB #T2010) | NEB",
                "from_url": "https:\/\/international.neb.com\/products\/t2010-monarch-total-rna-miniprep-kit?fbclid=IwAR3B8PIHp9NLW0VyHFuINHYwjB2XNggZ6nxrjMGzbcfWCnBQIvY8hbdls6I#Product%20Information",
                "service_icon": "https:\/\/international.neb.com\/content\/img\/apple-touch-icon-114x114.png",
                "service_name": "international.neb.com",
                "id": 1,
                "original_url": "https:\/\/international.neb.com\/products\/t2010-monarch-total-rna-miniprep-kit?fbclid=IwAR3B8PIHp9NLW0VyHFuINHYwjB2XNggZ6nxrjMGzbcfWCnBQIvY8hbdls6I#Product%20Information"
            }
        ],
        "blocks": [
            {
                "type": "rich_text",
                "block_id": "IozCe",
                "elements": [
                    {
                        "type": "rich_text_section",
                        "elements": [
                            {
                                "type": "text",
                                "text": "Hello boys and girls, not sure where to leave this. I have a connection from Sweden, a sales manager. I talked about the \"RNA extraction kits bottleneck\". He told me that monday he will check with his boss about these kits: "
                            },
                            {
                                "type": "link",
                                "url": "https:\/\/international.neb.com\/products\/t2010-monarch-total-rna-miniprep-kit?fbclid=IwAR3B8PIHp9NLW0VyHFuINHYwjB2XNggZ6nxrjMGzbcfWCnBQIvY8hbdls6I#Product%20Information"
                            },
                            {
                                "type": "text",
                                "text": "\n\nDon't know if they're useful. I will also try to contact a second source. Cheers."
                            }
                        ]
                    }
                ]
            }
        ],
        "reactions": [
            {
                "name": "+1",
                "users": [
                    "UV0RRGB6H",
                    "UV1A22N3W"
                ],
                "count": 2
            }
        ]
    },
    {
        "client_msg_id": "2BCF98BB-A563-4497-870F-81F625C665E5",
        "type": "message",
        "text": "RNA extraction kits do contain phenol and should be used to reproduce with care :) ",
        "user": "UV0RRGB6H",
        "ts": "1584222349.108300",
        "team": "TUU48M0T1",
        "user_team": "TUU48M0T1",
        "source_team": "TUU48M0T1",
        "user_profile": {
            "avatar_hash": "48d4ab64c90c",
            "image_72": "https:\/\/avatars.slack-edge.com\/2020-03-26\/1029789176912_48d4ab64c90c03f3af4a_72.jpg",
            "first_name": "",
            "real_name": "Chris LB Graham",
            "display_name": "",
            "team": "TUU48M0T1",
            "name": "chris.graham",
            "is_restricted": false,
            "is_ultra_restricted": false
        },
        "blocks": [
            {
                "type": "rich_text",
                "block_id": "7MI",
                "elements": [
                    {
                        "type": "rich_text_section",
                        "elements": [
                            {
                                "type": "text",
                                "text": "RNA extraction kits do contain phenol and should be used to reproduce with care :) "
                            }
                        ]
                    }
                ]
            }
        ],
        "thread_ts": "1584222349.108300",
        "reply_count": 1,
        "reply_users_count": 1,
        "latest_reply": "1584242171.110400",
        "reply_users": [
            "U0102NEMRTR"
        ],
        "replies": [
            {
                "user": "U0102NEMRTR",
                "ts": "1584242171.110400"
            }
        ],
        "subscribed": false
    },
    {
        "client_msg_id": "BA3CCB5E-9D0D-4E19-9215-7E98E7DA4BBB",
        "type": "message",
        "text": "Also this is so so awesome ",
        "user": "UV0RRGB6H",
        "ts": "1584222358.108600",
        "team": "TUU48M0T1",
        "user_team": "TUU48M0T1",
        "source_team": "TUU48M0T1",
        "user_profile": {
            "avatar_hash": "48d4ab64c90c",
            "image_72": "https:\/\/avatars.slack-edge.com\/2020-03-26\/1029789176912_48d4ab64c90c03f3af4a_72.jpg",
            "first_name": "",
            "real_name": "Chris LB Graham",
            "display_name": "",
            "team": "TUU48M0T1",
            "name": "chris.graham",
            "is_restricted": false,
            "is_ultra_restricted": false
        },
        "blocks": [
            {
                "type": "rich_text",
                "block_id": "ZL6x",
                "elements": [
                    {
                        "type": "rich_text_section",
                        "elements": [
                            {
                                "type": "text",
                                "text": "Also this is so so awesome "
                            }
                        ]
                    }
                ]
            }
        ]
    },
    {
        "client_msg_id": "097089c0-abdd-4c9e-875b-5b1c692c9888",
        "type": "message",
        "text": "I know someone in the biosummit community got hold of a tonne of Miniprep kits from Bioneer? has anyone reached out to them about support?",
        "user": "UVDEJ7W0M",
        "ts": "1584227386.109900",
        "team": "TUU48M0T1",
        "user_team": "TUU48M0T1",
        "source_team": "TUU48M0T1",
        "user_profile": {
            "avatar_hash": "ed4d3e4ec01a",
            "image_72": "https:\/\/avatars.slack-edge.com\/2020-03-13\/1001396152231_ed4d3e4ec01aea04db0f_72.png",
            "first_name": "",
            "real_name": "Nel - littlepinkmaker",
            "display_name": "Nel - littlepinkmaker",
            "team": "TUU48M0T1",
            "name": "makeit",
            "is_restricted": false,
            "is_ultra_restricted": false
        },
        "blocks": [
            {
                "type": "rich_text",
                "block_id": "XAA",
                "elements": [
                    {
                        "type": "rich_text_section",
                        "elements": [
                            {
                                "type": "text",
                                "text": "I know someone in the biosummit community got hold of a tonne of Miniprep kits from Bioneer? has anyone reached out to them about support?"
                            }
                        ]
                    }
                ]
            }
        ]
    },
    {
        "type": "message",
        "subtype": "thread_broadcast",
        "text": "Depends which ones. Phenol\/chloroform or Trizol definitely pose significant safety hazards, which is why many kit manufacturers have been moving away from those older methods.",
        "user": "U0102NEMRTR",
        "ts": "1584242171.110400",
        "thread_ts": "1584222349.108300",
        "root": {
            "client_msg_id": "2BCF98BB-A563-4497-870F-81F625C665E5",
            "type": "message",
            "text": "RNA extraction kits do contain phenol and should be used to reproduce with care :) ",
            "user": "UV0RRGB6H",
            "ts": "1584222349.108300",
            "team": "TUU48M0T1",
            "blocks": [
                {
                    "type": "rich_text",
                    "block_id": "7MI",
                    "elements": [
                        {
                            "type": "rich_text_section",
                            "elements": [
                                {
                                    "type": "text",
                                    "text": "RNA extraction kits do contain phenol and should be used to reproduce with care :) "
                                }
                            ]
                        }
                    ]
                }
            ],
            "thread_ts": "1584222349.108300",
            "reply_count": 1,
            "reply_users_count": 1,
            "latest_reply": "1584242171.110400",
            "reply_users": [
                "U0102NEMRTR"
            ],
            "subscribed": false
        },
        "blocks": [
            {
                "type": "rich_text",
                "block_id": "N=84",
                "elements": [
                    {
                        "type": "rich_text_section",
                        "elements": [
                            {
                                "type": "text",
                                "text": "Depends which ones. Phenol\/chloroform or Trizol definitely pose significant safety hazards, which is why many kit manufacturers have been moving away from those older methods."
                            }
                        ]
                    }
                ]
            }
        ],
        "client_msg_id": "212f3af6-5505-43af-8d90-900fcd35e1bf"
    }
]