[
    {
        "type": "message",
        "subtype": "channel_join",
        "ts": "1583674775.000200",
        "user": "UV02WET96",
        "text": "<@UV02WET96> has joined the channel"
    },
    {
        "type": "message",
        "subtype": "channel_join",
        "ts": "1583674813.000400",
        "user": "UV42V9XTQ",
        "text": "<@UV42V9XTQ> has joined the channel"
    },
    {
        "type": "message",
        "subtype": "channel_join",
        "ts": "1583709761.000200",
        "user": "UUS2G6N6M",
        "text": "<@UUS2G6N6M> has joined the channel"
    },
    {
        "type": "message",
        "subtype": "channel_join",
        "ts": "1583714870.000400",
        "user": "UUPF597H9",
        "text": "<@UUPF597H9> has joined the channel"
    },
    {
        "type": "message",
        "subtype": "channel_join",
        "ts": "1583718523.000600",
        "user": "UUQM4L2AF",
        "text": "<@UUQM4L2AF> has joined the channel"
    },
    {
        "type": "message",
        "text": "Attached is the Swabbing and qRT-PCR protocol for SARS-CoV-2 in Singapore provided by Niranjan NAGARAJAN, Ph.D. at GIS",
        "files": [
            {
                "id": "FV4ECU2LE",
                "created": 1583718575,
                "timestamp": 1583718575,
                "name": "COVID protocol for GIS 20200307[1].docx",
                "title": "COVID protocol for GIS 20200307[1].docx",
                "mimetype": "application\/vnd.openxmlformats-officedocument.wordprocessingml.document",
                "filetype": "docx",
                "pretty_type": "Word Document",
                "user": "UUQM4L2AF",
                "editable": false,
                "size": 54523,
                "mode": "hosted",
                "is_external": false,
                "external_type": "",
                "is_public": true,
                "public_url_shared": false,
                "display_as_bot": false,
                "username": "",
                "url_private": "https:\/\/files.slack.com\/files-pri\/TUU48M0T1-FV4ECU2LE\/covid_protocol_for_gis_20200307_1_.docx?t=xoxe-980144714919-1133254701825-1120841107731-daf595b5a7d6c9028b0b02a925032e36",
                "url_private_download": "https:\/\/files.slack.com\/files-pri\/TUU48M0T1-FV4ECU2LE\/download\/covid_protocol_for_gis_20200307_1_.docx?t=xoxe-980144714919-1133254701825-1120841107731-daf595b5a7d6c9028b0b02a925032e36",
                "converted_pdf": "https:\/\/files.slack.com\/files-tmb\/TUU48M0T1-FV4ECU2LE-0d7ccf8ba3\/covid_protocol_for_gis_20200307_1__converted.pdf?t=xoxe-980144714919-1133254701825-1120841107731-daf595b5a7d6c9028b0b02a925032e36",
                "thumb_pdf": "https:\/\/files.slack.com\/files-tmb\/TUU48M0T1-FV4ECU2LE-0d7ccf8ba3\/covid_protocol_for_gis_20200307_1__thumb_pdf.png?t=xoxe-980144714919-1133254701825-1120841107731-daf595b5a7d6c9028b0b02a925032e36",
                "thumb_pdf_w": 909,
                "thumb_pdf_h": 1286,
                "permalink": "https:\/\/open-covid19.slack.com\/files\/UUQM4L2AF\/FV4ECU2LE\/covid_protocol_for_gis_20200307_1_.docx",
                "permalink_public": "https:\/\/slack-files.com\/TUU48M0T1-FV4ECU2LE-e155e6306e",
                "is_starred": false,
                "has_rich_preview": false
            }
        ],
        "upload": true,
        "blocks": [
            {
                "type": "rich_text",
                "block_id": "iwt",
                "elements": [
                    {
                        "type": "rich_text_section",
                        "elements": [
                            {
                                "type": "text",
                                "text": "Attached is the Swabbing and qRT-PCR protocol for SARS-CoV-2 in Singapore provided by Niranjan NAGARAJAN, Ph.D. at GIS"
                            }
                        ]
                    }
                ]
            }
        ],
        "user": "UUQM4L2AF",
        "display_as_bot": false,
        "ts": "1583718580.000700",
        "client_msg_id": "ad7505af-27a7-43a9-bbd4-3a00baddf16f",
        "reactions": [
            {
                "name": "100",
                "users": [
                    "UUUEFQW8N"
                ],
                "count": 1
            }
        ]
    }
]