[
    {
        "type": "message",
        "subtype": "channel_join",
        "ts": "1583740987.001100",
        "user": "UV1A22N3W",
        "text": "<@UV1A22N3W> has joined the channel"
    },
    {
        "type": "message",
        "subtype": "channel_join",
        "ts": "1583741316.001300",
        "user": "UURGMNE3T",
        "text": "<@UURGMNE3T> has joined the channel"
    },
    {
        "type": "message",
        "subtype": "channel_join",
        "ts": "1583747952.001500",
        "user": "UV3HA9MM4",
        "text": "<@UV3HA9MM4> has joined the channel"
    },
    {
        "type": "message",
        "subtype": "channel_join",
        "ts": "1583764637.001800",
        "user": "UV20M5HGQ",
        "text": "<@UV20M5HGQ> has joined the channel"
    },
    {
        "type": "message",
        "subtype": "channel_join",
        "ts": "1583772038.002000",
        "user": "UV2SC7ZE3",
        "text": "<@UV2SC7ZE3> has joined the channel"
    },
    {
        "type": "message",
        "text": "Posting to see if anyone has critique of this protocol.",
        "files": [
            {
                "id": "FV65CJKGF",
                "created": 1583798913,
                "timestamp": 1583798913,
                "name": "89039385_2796635817118083_3448865176843976704_o.jpg",
                "title": "89039385_2796635817118083_3448865176843976704_o.jpg",
                "mimetype": "image\/jpeg",
                "filetype": "jpg",
                "pretty_type": "JPEG",
                "user": "UUQM4L2AF",
                "editable": false,
                "size": 383852,
                "mode": "hosted",
                "is_external": false,
                "external_type": "",
                "is_public": true,
                "public_url_shared": false,
                "display_as_bot": false,
                "username": "",
                "url_private": "https:\/\/files.slack.com\/files-pri\/TUU48M0T1-FV65CJKGF\/89039385_2796635817118083_3448865176843976704_o.jpg?t=xoxe-980144714919-1133254701825-1120841107731-daf595b5a7d6c9028b0b02a925032e36",
                "url_private_download": "https:\/\/files.slack.com\/files-pri\/TUU48M0T1-FV65CJKGF\/download\/89039385_2796635817118083_3448865176843976704_o.jpg?t=xoxe-980144714919-1133254701825-1120841107731-daf595b5a7d6c9028b0b02a925032e36",
                "thumb_64": "https:\/\/files.slack.com\/files-tmb\/TUU48M0T1-FV65CJKGF-0ca6ca77a7\/89039385_2796635817118083_3448865176843976704_o_64.jpg?t=xoxe-980144714919-1133254701825-1120841107731-daf595b5a7d6c9028b0b02a925032e36",
                "thumb_80": "https:\/\/files.slack.com\/files-tmb\/TUU48M0T1-FV65CJKGF-0ca6ca77a7\/89039385_2796635817118083_3448865176843976704_o_80.jpg?t=xoxe-980144714919-1133254701825-1120841107731-daf595b5a7d6c9028b0b02a925032e36",
                "thumb_360": "https:\/\/files.slack.com\/files-tmb\/TUU48M0T1-FV65CJKGF-0ca6ca77a7\/89039385_2796635817118083_3448865176843976704_o_360.jpg?t=xoxe-980144714919-1133254701825-1120841107731-daf595b5a7d6c9028b0b02a925032e36",
                "thumb_360_w": 321,
                "thumb_360_h": 360,
                "thumb_480": "https:\/\/files.slack.com\/files-tmb\/TUU48M0T1-FV65CJKGF-0ca6ca77a7\/89039385_2796635817118083_3448865176843976704_o_480.jpg?t=xoxe-980144714919-1133254701825-1120841107731-daf595b5a7d6c9028b0b02a925032e36",
                "thumb_480_w": 427,
                "thumb_480_h": 480,
                "thumb_160": "https:\/\/files.slack.com\/files-tmb\/TUU48M0T1-FV65CJKGF-0ca6ca77a7\/89039385_2796635817118083_3448865176843976704_o_160.jpg?t=xoxe-980144714919-1133254701825-1120841107731-daf595b5a7d6c9028b0b02a925032e36",
                "thumb_720": "https:\/\/files.slack.com\/files-tmb\/TUU48M0T1-FV65CJKGF-0ca6ca77a7\/89039385_2796635817118083_3448865176843976704_o_720.jpg?t=xoxe-980144714919-1133254701825-1120841107731-daf595b5a7d6c9028b0b02a925032e36",
                "thumb_720_w": 641,
                "thumb_720_h": 720,
                "thumb_800": "https:\/\/files.slack.com\/files-tmb\/TUU48M0T1-FV65CJKGF-0ca6ca77a7\/89039385_2796635817118083_3448865176843976704_o_800.jpg?t=xoxe-980144714919-1133254701825-1120841107731-daf595b5a7d6c9028b0b02a925032e36",
                "thumb_800_w": 800,
                "thumb_800_h": 898,
                "thumb_960": "https:\/\/files.slack.com\/files-tmb\/TUU48M0T1-FV65CJKGF-0ca6ca77a7\/89039385_2796635817118083_3448865176843976704_o_960.jpg?t=xoxe-980144714919-1133254701825-1120841107731-daf595b5a7d6c9028b0b02a925032e36",
                "thumb_960_w": 855,
                "thumb_960_h": 960,
                "thumb_1024": "https:\/\/files.slack.com\/files-tmb\/TUU48M0T1-FV65CJKGF-0ca6ca77a7\/89039385_2796635817118083_3448865176843976704_o_1024.jpg?t=xoxe-980144714919-1133254701825-1120841107731-daf595b5a7d6c9028b0b02a925032e36",
                "thumb_1024_w": 912,
                "thumb_1024_h": 1024,
                "image_exif_rotation": 1,
                "original_w": 1684,
                "original_h": 1891,
                "thumb_tiny": "AwAwACq6EwAN7Uu0\/wB40MGyMFRnpkUFZAPvL+VIq4uw\/wB40eWf7xpNkn95fyo2yEfeX8qAF8s\/3jTtpoA7d6dTFcYf4eOlKST2phRWbkDNHlIOqigNCTJx0pAeMYpBCgOQoBFLj0NABk56U6k2\/WloERkc9R+dOxlQBTTuzwBj8aXj3oGOA5paZx70vHpQIXPY0tIPaloA\/9k=",
                "permalink": "https:\/\/open-covid19.slack.com\/files\/UUQM4L2AF\/FV65CJKGF\/89039385_2796635817118083_3448865176843976704_o.jpg",
                "permalink_public": "https:\/\/slack-files.com\/TUU48M0T1-FV65CJKGF-27656dab7b",
                "is_starred": false,
                "has_rich_preview": false
            }
        ],
        "upload": true,
        "blocks": [
            {
                "type": "rich_text",
                "block_id": "A=q4D",
                "elements": [
                    {
                        "type": "rich_text_section",
                        "elements": [
                            {
                                "type": "text",
                                "text": "Posting to see if anyone has critique of this protocol."
                            }
                        ]
                    }
                ]
            }
        ],
        "user": "UUQM4L2AF",
        "display_as_bot": false,
        "ts": "1583798918.002100",
        "client_msg_id": "ae40cb26-06bd-4a1c-9a56-071c7dbb0446",
        "reactions": [
            {
                "name": "+1",
                "users": [
                    "UV7AZH728"
                ],
                "count": 1
            }
        ]
    }
]