[
    {
        "type": "message",
        "subtype": "channel_join",
        "ts": "1583928430.000400",
        "user": "UV5CCJ9RC",
        "text": "<@UV5CCJ9RC> has joined the channel"
    },
    {
        "client_msg_id": "8cc797fb-afe5-4b28-ab5d-d32646fd1f0d",
        "type": "message",
        "text": "The more I read about various testing technologies, the more I think technologies like SHERLOCK, DETECTR or this: <https:\/\/www.biorxiv.org\/content\/10.1101\/2020.02.29.971127v1.full> might be the best route for DIY. qPCR is great and all but you need an expensive machine to run and a relatively clean environment to prep samples since it's very sensitive. For those reasons, a space like the one I run probably wouldn't be able to handle such a test. Just my 2¢",
        "user": "UV5CCJ9RC",
        "ts": "1583928799.004400",
        "team": "TUU48M0T1",
        "user_team": "TUU48M0T1",
        "source_team": "TUU48M0T1",
        "user_profile": {
            "avatar_hash": "2c79fe05f7e7",
            "image_72": "https:\/\/avatars.slack-edge.com\/2020-03-10\/992653932501_2c79fe05f7e75be19699_72.png",
            "first_name": "Chris",
            "real_name": "Chris Monaco",
            "display_name": "",
            "team": "TUU48M0T1",
            "name": "cmonaco.hr",
            "is_restricted": false,
            "is_ultra_restricted": false
        },
        "attachments": [
            {
                "service_name": "bioRxiv",
                "title": "An ultrasensitive, rapid, and portable coronavirus SARS-CoV-2 sequence detection method based on CRISPR-Cas12",
                "title_link": "https:\/\/www.biorxiv.org\/content\/10.1101\/2020.02.29.971127v1.full",
                "text": "Severe acute respiratory syndrome coronavirus 2 (SARS-CoV-2) has received global attention due to the recent outbreak in China. In this work, we report a CRISPR-Cas12 based diagnostic tool to detect synthetic SARS-CoV-2 RNA sequences in a proof-of-principle evaluation. The test proved to be sensitive, rapid, and potentially portable. These key traits of the CRISPR method are critical for virus detection in regions that lack resources to use the currently available methods.",
                "fallback": "bioRxiv: An ultrasensitive, rapid, and portable coronavirus SARS-CoV-2 sequence detection method based on CRISPR-Cas12",
                "thumb_url": "https:\/\/www.biorxiv.org\/sites\/default\/files\/images\/biorxiv_logo_homepage7-5-small.png",
                "ts": 1583136000,
                "from_url": "https:\/\/www.biorxiv.org\/content\/10.1101\/2020.02.29.971127v1.full",
                "thumb_width": 252,
                "thumb_height": 252,
                "service_icon": "https:\/\/www.biorxiv.org\/sites\/default\/files\/images\/favicon.ico",
                "id": 1,
                "original_url": "https:\/\/www.biorxiv.org\/content\/10.1101\/2020.02.29.971127v1.full"
            }
        ],
        "blocks": [
            {
                "type": "rich_text",
                "block_id": "Xbij",
                "elements": [
                    {
                        "type": "rich_text_section",
                        "elements": [
                            {
                                "type": "text",
                                "text": "The more I read about various testing technologies, the more I think technologies like SHERLOCK, DETECTR or this: "
                            },
                            {
                                "type": "link",
                                "url": "https:\/\/www.biorxiv.org\/content\/10.1101\/2020.02.29.971127v1.full"
                            },
                            {
                                "type": "text",
                                "text": " might be the best route for DIY. qPCR is great and all but you need an expensive machine to run and a relatively clean environment to prep samples since it's very sensitive. For those reasons, a space like the one I run probably wouldn't be able to handle such a test. Just my 2¢"
                            }
                        ]
                    }
                ]
            }
        ],
        "thread_ts": "1583928799.004400",
        "reply_count": 3,
        "reply_users_count": 3,
        "latest_reply": "1583937960.007600",
        "reply_users": [
            "UUUEFQW8N",
            "UV1A22N3W",
            "UV3HA9MM4"
        ],
        "replies": [
            {
                "user": "UUUEFQW8N",
                "ts": "1583931363.004700"
            },
            {
                "user": "UV1A22N3W",
                "ts": "1583933726.007100"
            },
            {
                "user": "UV3HA9MM4",
                "ts": "1583937960.007600"
            }
        ],
        "subscribed": true,
        "last_read": "1583937960.007600",
        "reactions": [
            {
                "name": "100",
                "users": [
                    "UUUEFQW8N",
                    "UV3HA9MM4"
                ],
                "count": 2
            }
        ]
    },
    {
        "client_msg_id": "9c77fdf1-d328-4787-ba63-1db67ae5cdb9",
        "type": "message",
        "text": "Yeah we're focusing on those methods at SoundBio and hope to replicate the results in the next couple weeks",
        "user": "UUUEFQW8N",
        "ts": "1583931363.004700",
        "team": "TUU48M0T1",
        "user_team": "TUU48M0T1",
        "source_team": "TUU48M0T1",
        "user_profile": {
            "avatar_hash": "5660f4d7fe91",
            "image_72": "https:\/\/avatars.slack-edge.com\/2020-03-06\/974037299378_5660f4d7fe9118b28c09_72.jpg",
            "first_name": "zachmueller",
            "real_name": "zachmueller",
            "display_name": "zachmueller",
            "team": "TUU48M0T1",
            "name": "zach",
            "is_restricted": false,
            "is_ultra_restricted": false
        },
        "blocks": [
            {
                "type": "rich_text",
                "block_id": "aTetI",
                "elements": [
                    {
                        "type": "rich_text_section",
                        "elements": [
                            {
                                "type": "text",
                                "text": "Yeah we're focusing on those methods at SoundBio and hope to replicate the results in the next couple weeks"
                            }
                        ]
                    }
                ]
            }
        ],
        "thread_ts": "1583928799.004400",
        "parent_user_id": "UV5CCJ9RC"
    },
    {
        "client_msg_id": "F537513F-A6CD-4DEB-A90A-B1962EEEE036",
        "type": "message",
        "text": "we also lack qpcr at hackuarium (though maybe could ask colleagues to do some runs), so are glad to see this thread! cu later!",
        "user": "UV1A22N3W",
        "ts": "1583933726.007100",
        "team": "TUU48M0T1",
        "user_team": "TUU48M0T1",
        "source_team": "TUU48M0T1",
        "user_profile": {
            "avatar_hash": "71f827776ad6",
            "image_72": "https:\/\/avatars.slack-edge.com\/2020-03-09\/988125642964_71f827776ad610af05a2_72.jpg",
            "first_name": "",
            "real_name": "RachelA",
            "display_name": "RachelA",
            "team": "TUU48M0T1",
            "name": "raronoff",
            "is_restricted": false,
            "is_ultra_restricted": false
        },
        "blocks": [
            {
                "type": "rich_text",
                "block_id": "aA+z",
                "elements": [
                    {
                        "type": "rich_text_section",
                        "elements": [
                            {
                                "type": "text",
                                "text": "we also lack qpcr at hackuarium (though maybe could ask colleagues to do some runs), so are glad to see this thread! cu later!"
                            }
                        ]
                    }
                ]
            }
        ],
        "thread_ts": "1583928799.004400",
        "parent_user_id": "UV5CCJ9RC"
    },
    {
        "type": "message",
        "subtype": "channel_join",
        "ts": "1583936502.007400",
        "user": "UUW41MYTV",
        "text": "<@UUW41MYTV> has joined the channel"
    },
    {
        "client_msg_id": "68afaa66-f1b5-4a03-b8bc-13dff29b2792",
        "type": "message",
        "text": "Remember you can just use PCR and run result on a gel.  The fragments are of known size…. this slows it down *a lot* though.  Agreed re speed.  Good post <@UV5CCJ9RC>.  Are you mol bio?  You should join <@UUPFF4TC3> in <#CV4AYKS5U|repro-mammoth-crispr>  channel",
        "user": "UV3HA9MM4",
        "ts": "1583937960.007600",
        "team": "TUU48M0T1",
        "user_team": "TUU48M0T1",
        "source_team": "TUU48M0T1",
        "user_profile": {
            "avatar_hash": "b2f89757c831",
            "image_72": "https:\/\/avatars.slack-edge.com\/2020-03-07\/987455908032_b2f89757c8312ec04011_72.jpg",
            "first_name": "AJP",
            "real_name": "AJP",
            "display_name": "AJP",
            "team": "TUU48M0T1",
            "name": "bioajp",
            "is_restricted": false,
            "is_ultra_restricted": false
        },
        "blocks": [
            {
                "type": "rich_text",
                "block_id": "Iolux",
                "elements": [
                    {
                        "type": "rich_text_section",
                        "elements": [
                            {
                                "type": "text",
                                "text": "Remember you can just use PCR and run result on a gel.  The fragments are of known size…. this slows it down "
                            },
                            {
                                "type": "text",
                                "text": "a lot",
                                "style": {
                                    "bold": true
                                }
                            },
                            {
                                "type": "text",
                                "text": " though.  Agreed re speed.  Good post "
                            },
                            {
                                "type": "user",
                                "user_id": "UV5CCJ9RC"
                            },
                            {
                                "type": "text",
                                "text": ".  Are you mol bio?  You should join "
                            },
                            {
                                "type": "user",
                                "user_id": "UUPFF4TC3"
                            },
                            {
                                "type": "text",
                                "text": " in "
                            },
                            {
                                "type": "channel",
                                "channel_id": "CV4AYKS5U"
                            },
                            {
                                "type": "text",
                                "text": "  channel"
                            }
                        ]
                    }
                ]
            }
        ],
        "thread_ts": "1583928799.004400",
        "parent_user_id": "UV5CCJ9RC"
    },
    {
        "type": "message",
        "subtype": "channel_join",
        "ts": "1583938456.008000",
        "user": "UV0RRGB6H",
        "text": "<@UV0RRGB6H> has joined the channel"
    },
    {
        "client_msg_id": "2c12d864-27b7-470a-8a59-cc628c7f3a67",
        "type": "message",
        "text": "do we have information on the different strains of the virus? I should add that factor into my 'sequence gazing' considerations...  Just saw something about an S strain vs a mutated (and more aggressive) L strain in a twitter feed recommended in this medium article... <https:\/\/medium.com\/@tomaspueyo\/coronavirus-act-today-or-people-will-die-f4d3d9cd99ca>",
        "user": "UV1A22N3W",
        "ts": "1583939848.009600",
        "team": "TUU48M0T1",
        "user_team": "TUU48M0T1",
        "source_team": "TUU48M0T1",
        "user_profile": {
            "avatar_hash": "71f827776ad6",
            "image_72": "https:\/\/avatars.slack-edge.com\/2020-03-09\/988125642964_71f827776ad610af05a2_72.jpg",
            "first_name": "",
            "real_name": "RachelA",
            "display_name": "RachelA",
            "team": "TUU48M0T1",
            "name": "raronoff",
            "is_restricted": false,
            "is_ultra_restricted": false
        },
        "attachments": [
            {
                "service_name": "Medium",
                "title": "Coronavirus: Why You Must Act Now",
                "title_link": "https:\/\/medium.com\/@tomaspueyo\/coronavirus-act-today-or-people-will-die-f4d3d9cd99ca",
                "text": "Politicians and Business Leaders: What Should You Do and When?",
                "fallback": "Medium: Coronavirus: Why You Must Act Now",
                "image_url": "https:\/\/miro.medium.com\/max\/1200\/1*4kOJv8hmd5VFPcBL1mywsw.png",
                "fields": [
                    {
                        "title": "Reading time",
                        "value": "22 min read",
                        "short": true
                    }
                ],
                "ts": 1583919789,
                "from_url": "https:\/\/medium.com\/@tomaspueyo\/coronavirus-act-today-or-people-will-die-f4d3d9cd99ca",
                "image_width": 414,
                "image_height": 250,
                "image_bytes": 111409,
                "service_icon": "https:\/\/cdn-images-1.medium.com\/fit\/c\/152\/152\/1*8I-HPL0bfoIzGied-dzOvA.png",
                "id": 1,
                "original_url": "https:\/\/medium.com\/@tomaspueyo\/coronavirus-act-today-or-people-will-die-f4d3d9cd99ca"
            }
        ],
        "blocks": [
            {
                "type": "rich_text",
                "block_id": "SuZT",
                "elements": [
                    {
                        "type": "rich_text_section",
                        "elements": [
                            {
                                "type": "text",
                                "text": "do we have information on the different strains of the virus? I should add that factor into my 'sequence gazing' considerations...  Just saw something about an S strain vs a mutated (and more aggressive) L strain in a twitter feed recommended in this medium article... "
                            },
                            {
                                "type": "link",
                                "url": "https:\/\/medium.com\/@tomaspueyo\/coronavirus-act-today-or-people-will-die-f4d3d9cd99ca"
                            }
                        ]
                    }
                ]
            }
        ]
    },
    {
        "client_msg_id": "58b06e05-2888-4d71-969c-b1c784f2b609",
        "type": "message",
        "text": "Are there any protocols that don't require some flavor of commercial RNA prep kit as the initial step?  It looks like those are going to be a limiting factor in global testing capacity.\n\nAlternatively, does anybody have validated home-brews?",
        "user": "UUSMRLYH1",
        "ts": "1583951614.013100",
        "team": "TUU48M0T1",
        "user_team": "TUU48M0T1",
        "source_team": "TUU48M0T1",
        "user_profile": {
            "avatar_hash": "gacea34075f8",
            "image_72": "https:\/\/secure.gravatar.com\/avatar\/acea34075f8471630e5e2265500bbe94.jpg?s=72&d=https%3A%2F%2Fa.slack-edge.com%2Fdf10d%2Fimg%2Favatars%2Fava_0022-72.png",
            "first_name": "",
            "real_name": "Chris Le Maire",
            "display_name": "",
            "team": "TUU48M0T1",
            "name": "clemaire2",
            "is_restricted": false,
            "is_ultra_restricted": false
        },
        "edited": {
            "user": "UUSMRLYH1",
            "ts": "1583951659.000000"
        },
        "thread_ts": "1583951614.013100",
        "reply_count": 7,
        "reply_users_count": 5,
        "latest_reply": "1584003638.050500",
        "reply_users": [
            "UUPFF4TC3",
            "UUSMRLYH1",
            "UUPQGNNTV",
            "UV5CCJ9RC",
            "UV1A22N3W"
        ],
        "replies": [
            {
                "user": "UUPFF4TC3",
                "ts": "1583951656.013200"
            },
            {
                "user": "UUSMRLYH1",
                "ts": "1583951758.014600"
            },
            {
                "user": "UUPQGNNTV",
                "ts": "1583951780.014900"
            },
            {
                "user": "UUPQGNNTV",
                "ts": "1583951896.015200"
            },
            {
                "user": "UUSMRLYH1",
                "ts": "1583952227.015600"
            },
            {
                "user": "UV5CCJ9RC",
                "ts": "1583966130.016100"
            },
            {
                "user": "UV1A22N3W",
                "ts": "1584003638.050500"
            }
        ],
        "subscribed": false,
        "reactions": [
            {
                "name": "+1",
                "users": [
                    "UV7AZH728"
                ],
                "count": 1
            }
        ]
    },
    {
        "client_msg_id": "f8c456bf-f181-4093-b9ee-aef06b2ad982",
        "type": "message",
        "text": "Sorry but- what is a home-brew?",
        "user": "UUPFF4TC3",
        "ts": "1583951656.013200",
        "team": "TUU48M0T1",
        "user_team": "TUU48M0T1",
        "source_team": "TUU48M0T1",
        "user_profile": {
            "avatar_hash": "g563e1ed9e36",
            "image_72": "https:\/\/secure.gravatar.com\/avatar\/563e1ed9e362af0ce5867baad4d7c568.jpg?s=72&d=https%3A%2F%2Fa.slack-edge.com%2Fdf10d%2Fimg%2Favatars%2Fava_0007-72.png",
            "first_name": "Sophie",
            "real_name": "Sophie Liu",
            "display_name": "Sophie Liu",
            "team": "TUU48M0T1",
            "name": "sophie006liu",
            "is_restricted": false,
            "is_ultra_restricted": false
        },
        "blocks": [
            {
                "type": "rich_text",
                "block_id": "qlWBU",
                "elements": [
                    {
                        "type": "rich_text_section",
                        "elements": [
                            {
                                "type": "text",
                                "text": "Sorry but- what is a home-brew?"
                            }
                        ]
                    }
                ]
            }
        ],
        "thread_ts": "1583951614.013100",
        "parent_user_id": "UUSMRLYH1"
    },
    {
        "client_msg_id": "9c156cb9-7114-4996-b133-f7f86e7d0f72",
        "type": "message",
        "text": "An in-house protocol using off the shelf chemicals as opposed to a commercial kit.",
        "user": "UUSMRLYH1",
        "ts": "1583951758.014600",
        "team": "TUU48M0T1",
        "user_team": "TUU48M0T1",
        "source_team": "TUU48M0T1",
        "user_profile": {
            "avatar_hash": "gacea34075f8",
            "image_72": "https:\/\/secure.gravatar.com\/avatar\/acea34075f8471630e5e2265500bbe94.jpg?s=72&d=https%3A%2F%2Fa.slack-edge.com%2Fdf10d%2Fimg%2Favatars%2Fava_0022-72.png",
            "first_name": "",
            "real_name": "Chris Le Maire",
            "display_name": "",
            "team": "TUU48M0T1",
            "name": "clemaire2",
            "is_restricted": false,
            "is_ultra_restricted": false
        },
        "thread_ts": "1583951614.013100",
        "parent_user_id": "UUSMRLYH1"
    },
    {
        "client_msg_id": "e562bf98-d7d3-4696-84a6-f22443b99ead",
        "type": "message",
        "text": "The RNA has to be stabilized and the virus inactivated. I would guess that the reagents that do this, detergents for example, would interfere with downstream enzymatic steps so you have to do a purification on a column or other means.",
        "user": "UUPQGNNTV",
        "ts": "1583951780.014900",
        "team": "TUU48M0T1",
        "user_team": "TUU48M0T1",
        "source_team": "TUU48M0T1",
        "user_profile": {
            "avatar_hash": "c28127caf7eb",
            "image_72": "https:\/\/avatars.slack-edge.com\/2020-03-07\/989562470694_c28127caf7ebfe67df97_72.jpg",
            "first_name": "",
            "real_name": "Ellen Jorgensen",
            "display_name": "",
            "team": "TUU48M0T1",
            "name": "ejorgensen",
            "is_restricted": false,
            "is_ultra_restricted": false
        },
        "blocks": [
            {
                "type": "rich_text",
                "block_id": "wwZ2",
                "elements": [
                    {
                        "type": "rich_text_section",
                        "elements": [
                            {
                                "type": "text",
                                "text": "The RNA has to be stabilized and the virus inactivated. I would guess that the reagents that do this, detergents for example, would interfere with downstream enzymatic steps so you have to do a purification on a column or other means."
                            }
                        ]
                    }
                ]
            }
        ],
        "thread_ts": "1583951614.013100",
        "parent_user_id": "UUSMRLYH1"
    },
    {
        "type": "message",
        "subtype": "thread_broadcast",
        "text": "You can probably get the recipe from searching scientific literature, and there have been some DIY purification protocols but only for DNA. RNA is much more prone to degradation by RNAses",
        "user": "UUPQGNNTV",
        "ts": "1583951896.015200",
        "thread_ts": "1583951614.013100",
        "root": {
            "client_msg_id": "58b06e05-2888-4d71-969c-b1c784f2b609",
            "type": "message",
            "text": "Are there any protocols that don't require some flavor of commercial RNA prep kit as the initial step?  It looks like those are going to be a limiting factor in global testing capacity.\n\nAlternatively, does anybody have validated home-brews?",
            "user": "UUSMRLYH1",
            "ts": "1583951614.013100",
            "team": "TUU48M0T1",
            "edited": {
                "user": "UUSMRLYH1",
                "ts": "1583951659.000000"
            },
            "thread_ts": "1583951614.013100",
            "reply_count": 7,
            "reply_users_count": 5,
            "latest_reply": "1584003638.050500",
            "reply_users": [
                "UUPFF4TC3",
                "UUSMRLYH1",
                "UUPQGNNTV",
                "UV5CCJ9RC",
                "UV1A22N3W"
            ],
            "subscribed": false
        },
        "blocks": [
            {
                "type": "rich_text",
                "block_id": "InQI7",
                "elements": [
                    {
                        "type": "rich_text_section",
                        "elements": [
                            {
                                "type": "text",
                                "text": "You can probably get the recipe from searching scientific literature, and there have been some DIY purification protocols but only for DNA. RNA is much more prone to degradation by RNAses"
                            }
                        ]
                    }
                ]
            }
        ],
        "client_msg_id": "a8f12270-fb02-4967-8a9b-0c15b75e615c"
    },
    {
        "type": "message",
        "subtype": "thread_broadcast",
        "text": "Yeah, I know.  RNA kits are about the only thing we do buy rather than making ourselves.  I was hoping someone has something clever.  Oh, and when I say off the shelf chemicals I mean a reasonably stocked laboratory shelf (not the table salt and dish soap DNA prep sort of thing)  What I'm really after is buffers that we can make in-house with DEPC treatment and then use with spin columns.  Trying to think ahead due to the reports that there is a run on RNA kits.",
        "user": "UUSMRLYH1",
        "ts": "1583952227.015600",
        "thread_ts": "1583951614.013100",
        "root": {
            "client_msg_id": "58b06e05-2888-4d71-969c-b1c784f2b609",
            "type": "message",
            "text": "Are there any protocols that don't require some flavor of commercial RNA prep kit as the initial step?  It looks like those are going to be a limiting factor in global testing capacity.\n\nAlternatively, does anybody have validated home-brews?",
            "user": "UUSMRLYH1",
            "ts": "1583951614.013100",
            "team": "TUU48M0T1",
            "edited": {
                "user": "UUSMRLYH1",
                "ts": "1583951659.000000"
            },
            "thread_ts": "1583951614.013100",
            "reply_count": 7,
            "reply_users_count": 5,
            "latest_reply": "1584003638.050500",
            "reply_users": [
                "UUPFF4TC3",
                "UUSMRLYH1",
                "UUPQGNNTV",
                "UV5CCJ9RC",
                "UV1A22N3W"
            ],
            "subscribed": false
        },
        "client_msg_id": "8ccfb734-b0e0-4d43-8822-f9b79d2ec9b2"
    },
    {
        "client_msg_id": "6d0943ea-5d4b-4e81-9bb4-89f51c3a6110",
        "type": "message",
        "text": "Maybe that could be a side project. It does seem like this pandemic is showing all the weak spots in our supply chains.",
        "user": "UV5CCJ9RC",
        "ts": "1583966130.016100",
        "team": "TUU48M0T1",
        "user_team": "TUU48M0T1",
        "source_team": "TUU48M0T1",
        "user_profile": {
            "avatar_hash": "2c79fe05f7e7",
            "image_72": "https:\/\/avatars.slack-edge.com\/2020-03-10\/992653932501_2c79fe05f7e75be19699_72.png",
            "first_name": "Chris",
            "real_name": "Chris Monaco",
            "display_name": "",
            "team": "TUU48M0T1",
            "name": "cmonaco.hr",
            "is_restricted": false,
            "is_ultra_restricted": false
        },
        "blocks": [
            {
                "type": "rich_text",
                "block_id": "wsGQ",
                "elements": [
                    {
                        "type": "rich_text_section",
                        "elements": [
                            {
                                "type": "text",
                                "text": "Maybe that could be a side project. It does seem like this pandemic is showing all the weak spots in our supply chains."
                            }
                        ]
                    }
                ]
            }
        ],
        "thread_ts": "1583951614.013100",
        "parent_user_id": "UUSMRLYH1"
    },
    {
        "client_msg_id": "34ed2138-5dc6-4c9d-a41c-1d9553f79e92",
        "type": "message",
        "text": "On the homebrew nucleic acid purification front, might be worth trying out the bomb.bio magnetic bead synthesis and RNA purification protocols, if column-based RNA purification kits look like they’re going to be in short supply <https:\/\/bomb.bio\/protocols\/>",
        "user": "UUNGFHSV8",
        "ts": "1583970713.017800",
        "team": "TUU48M0T1",
        "user_team": "TUU48M0T1",
        "source_team": "TUU48M0T1",
        "user_profile": {
            "avatar_hash": "1c55ee32397a",
            "image_72": "https:\/\/avatars.slack-edge.com\/2020-03-07\/987349161984_1c55ee32397a85a87ec4_72.png",
            "first_name": "Isaac",
            "real_name": "Isaac Larkin",
            "display_name": "Isaac Larkin",
            "team": "TUU48M0T1",
            "name": "eyesmo",
            "is_restricted": false,
            "is_ultra_restricted": false
        },
        "attachments": [
            {
                "service_name": "bomb.bio",
                "title": "Protocols",
                "title_link": "https:\/\/bomb.bio\/protocols\/",
                "text": "\/* Style Definitions *\/ table.MsoNormalTable {mso-style-name:”Table Normal”; mso-tstyle-rowband-size:0; mso-tstyle-colband-size:0; mso-style-noshow:yes; mso-style-priority:99; mso-style…",
                "fallback": "bomb.bio: Protocols",
                "thumb_url": "https:\/\/bomb.bio\/wp-content\/uploads\/2018\/08\/pockerack-1024x576.jpg",
                "ts": 1532327821,
                "from_url": "https:\/\/bomb.bio\/protocols\/",
                "thumb_width": 1024,
                "thumb_height": 576,
                "service_icon": "https:\/\/bomb.bio\/wp-content\/uploads\/2018\/07\/cropped-bomb_final_comp_550x550-180x180.png",
                "id": 1,
                "original_url": "https:\/\/bomb.bio\/protocols\/"
            }
        ],
        "blocks": [
            {
                "type": "rich_text",
                "block_id": "=xL+E",
                "elements": [
                    {
                        "type": "rich_text_section",
                        "elements": [
                            {
                                "type": "text",
                                "text": "On the homebrew nucleic acid purification front, might be worth trying out the bomb.bio magnetic bead synthesis and RNA purification protocols, if column-based RNA purification kits look like they’re going to be in short supply "
                            },
                            {
                                "type": "link",
                                "url": "https:\/\/bomb.bio\/protocols\/"
                            }
                        ]
                    }
                ]
            }
        ],
        "reactions": [
            {
                "name": "+1",
                "users": [
                    "UV7AZH728"
                ],
                "count": 1
            }
        ]
    },
    {
        "client_msg_id": "fd5bd8d0-b709-4b66-acbb-82e1cf46b0ae",
        "type": "message",
        "text": "Hey all so we're (myself and <@UV20M5HGQ>) looking to test the CDC primers and wanted to know if anyone had a sample of the ncovi19 control plasmid they'd be willing to share. I know IDT carries it. We've got the primers and reagents and such already. We're looking to see if they can just be run as a normal RTPCR assay and visualized on a gel rather than qpcr since the machine is prohibitively expensive. if anyone would be willing to share the plasmid it would make life a lot easier.",
        "user": "UV7QBRCFN",
        "ts": "1583972272.021400",
        "team": "TUU48M0T1",
        "user_team": "TUU48M0T1",
        "source_team": "TUU48M0T1",
        "user_profile": {
            "avatar_hash": "94fb372e8cfc",
            "image_72": "https:\/\/avatars.slack-edge.com\/2020-03-12\/996385001668_94fb372e8cfcfe2ee1cd_72.png",
            "first_name": "",
            "real_name": "Justin A",
            "display_name": "Justin A",
            "team": "TUU48M0T1",
            "name": "thethoughtemporium",
            "is_restricted": false,
            "is_ultra_restricted": false
        },
        "blocks": [
            {
                "type": "rich_text",
                "block_id": "5=M",
                "elements": [
                    {
                        "type": "rich_text_section",
                        "elements": [
                            {
                                "type": "text",
                                "text": "Hey all so we're (myself and "
                            },
                            {
                                "type": "user",
                                "user_id": "UV20M5HGQ"
                            },
                            {
                                "type": "text",
                                "text": ") looking to test the CDC primers and wanted to know if anyone had a sample of the ncovi19 control plasmid they'd be willing to share. I know IDT carries it. We've got the primers and reagents and such already. We're looking to see if they can just be run as a normal RTPCR assay and visualized on a gel rather than qpcr since the machine is prohibitively expensive. if anyone would be willing to share the plasmid it would make life a lot easier."
                            }
                        ]
                    }
                ]
            }
        ]
    },
    {
        "client_msg_id": "95f3c548-a672-4fa8-b00c-584bec00230f",
        "type": "message",
        "text": "<@UUUEFQW8N>  <@UV02WET96> We should create a doc with components that people are willing to share or go in on group buys.",
        "user": "UV10KBUQG",
        "ts": "1583972798.023300",
        "team": "TUU48M0T1",
        "user_team": "TUU48M0T1",
        "source_team": "TUU48M0T1",
        "user_profile": {
            "avatar_hash": "2deebbf6be3d",
            "image_72": "https:\/\/avatars.slack-edge.com\/2020-03-06\/976932190641_2deebbf6be3d17141d91_72.jpg",
            "first_name": "Sarah",
            "real_name": "Sarah Blossom Ware",
            "display_name": "Sarah Blossom Ware - BioBlaze Community Bio Lab",
            "team": "TUU48M0T1",
            "name": "ware.sarah",
            "is_restricted": false,
            "is_ultra_restricted": false
        },
        "edited": {
            "user": "UV10KBUQG",
            "ts": "1583982092.000000"
        },
        "blocks": [
            {
                "type": "rich_text",
                "block_id": "Uh=2X",
                "elements": [
                    {
                        "type": "rich_text_section",
                        "elements": [
                            {
                                "type": "user",
                                "user_id": "UUUEFQW8N"
                            },
                            {
                                "type": "text",
                                "text": "  "
                            },
                            {
                                "type": "user",
                                "user_id": "UV02WET96"
                            },
                            {
                                "type": "text",
                                "text": " We should create a doc with components that people are willing to share or go in on group buys."
                            }
                        ]
                    }
                ]
            }
        ],
        "thread_ts": "1583972798.023300",
        "reply_count": 1,
        "reply_users_count": 1,
        "latest_reply": "1584002467.046800",
        "reply_users": [
            "UV02WET96"
        ],
        "replies": [
            {
                "user": "UV02WET96",
                "ts": "1584002467.046800"
            }
        ],
        "subscribed": true,
        "last_read": "1584024599.000707",
        "reactions": [
            {
                "name": "+1",
                "users": [
                    "UV20M5HGQ",
                    "UV7QBRCFN",
                    "UV02WET96",
                    "UV1A22N3W"
                ],
                "count": 4
            }
        ]
    },
    {
        "client_msg_id": "570d0933-f523-4301-bf23-53b98f182b99",
        "type": "message",
        "text": "I don't know if they have been updated, but there were some issues with the original CDC primers.  If you haven't seen this paper, it's a comparative analysis of several primer sets.",
        "user": "UUSMRLYH1",
        "ts": "1583976740.024300",
        "team": "TUU48M0T1",
        "user_team": "TUU48M0T1",
        "source_team": "TUU48M0T1",
        "user_profile": {
            "avatar_hash": "gacea34075f8",
            "image_72": "https:\/\/secure.gravatar.com\/avatar\/acea34075f8471630e5e2265500bbe94.jpg?s=72&d=https%3A%2F%2Fa.slack-edge.com%2Fdf10d%2Fimg%2Favatars%2Fava_0022-72.png",
            "first_name": "",
            "real_name": "Chris Le Maire",
            "display_name": "",
            "team": "TUU48M0T1",
            "name": "clemaire2",
            "is_restricted": false,
            "is_ultra_restricted": false
        },
        "blocks": [
            {
                "type": "rich_text",
                "block_id": "6hc",
                "elements": [
                    {
                        "type": "rich_text_section",
                        "elements": [
                            {
                                "type": "text",
                                "text": "I don't know if they have been updated, but there were some issues with the original CDC primers.  If you haven't seen this paper, it's a comparative analysis of several primer sets."
                            }
                        ]
                    }
                ]
            }
        ],
        "reactions": [
            {
                "name": "+1",
                "users": [
                    "UV1A22N3W"
                ],
                "count": 1
            }
        ]
    },
    {
        "client_msg_id": "00a54771-36c3-4a85-978e-9a1a44ec2cb9",
        "type": "message",
        "text": "<https:\/\/www.biorxiv.org\/content\/10.1101\/2020.02.25.964775v1.full.pdf>",
        "user": "UUSMRLYH1",
        "ts": "1583976746.024500",
        "team": "TUU48M0T1",
        "user_team": "TUU48M0T1",
        "source_team": "TUU48M0T1",
        "user_profile": {
            "avatar_hash": "gacea34075f8",
            "image_72": "https:\/\/secure.gravatar.com\/avatar\/acea34075f8471630e5e2265500bbe94.jpg?s=72&d=https%3A%2F%2Fa.slack-edge.com%2Fdf10d%2Fimg%2Favatars%2Fava_0022-72.png",
            "first_name": "",
            "real_name": "Chris Le Maire",
            "display_name": "",
            "team": "TUU48M0T1",
            "name": "clemaire2",
            "is_restricted": false,
            "is_ultra_restricted": false
        },
        "blocks": [
            {
                "type": "rich_text",
                "block_id": "a+Jv",
                "elements": [
                    {
                        "type": "rich_text_section",
                        "elements": [
                            {
                                "type": "link",
                                "url": "https:\/\/www.biorxiv.org\/content\/10.1101\/2020.02.25.964775v1.full.pdf"
                            }
                        ]
                    }
                ]
            }
        ]
    },
    {
        "client_msg_id": "a51c8c7b-8586-4767-8e27-56476a1156d2",
        "type": "message",
        "text": "The issue was explained in another thread. It was a temporary contamination issue where one primer was compromised by drying in a unit contaminated with positive control. It has been resolved.",
        "user": "UUPQGNNTV",
        "ts": "1583977511.027000",
        "team": "TUU48M0T1",
        "user_team": "TUU48M0T1",
        "source_team": "TUU48M0T1",
        "user_profile": {
            "avatar_hash": "c28127caf7eb",
            "image_72": "https:\/\/avatars.slack-edge.com\/2020-03-07\/989562470694_c28127caf7ebfe67df97_72.jpg",
            "first_name": "",
            "real_name": "Ellen Jorgensen",
            "display_name": "",
            "team": "TUU48M0T1",
            "name": "ejorgensen",
            "is_restricted": false,
            "is_ultra_restricted": false
        },
        "blocks": [
            {
                "type": "rich_text",
                "block_id": "5Hi",
                "elements": [
                    {
                        "type": "rich_text_section",
                        "elements": [
                            {
                                "type": "text",
                                "text": "The issue was explained in another thread. It was a temporary contamination issue where one primer was compromised by drying in a unit contaminated with positive control. It has been resolved."
                            }
                        ]
                    }
                ]
            }
        ]
    },
    {
        "client_msg_id": "5799c927-809b-48b1-aa5e-f180bfd82c2b",
        "type": "message",
        "text": "Info was from staff member at CDC who is on the team manufacturing kit components",
        "user": "UUPQGNNTV",
        "ts": "1583977555.028200",
        "team": "TUU48M0T1",
        "user_team": "TUU48M0T1",
        "source_team": "TUU48M0T1",
        "user_profile": {
            "avatar_hash": "c28127caf7eb",
            "image_72": "https:\/\/avatars.slack-edge.com\/2020-03-07\/989562470694_c28127caf7ebfe67df97_72.jpg",
            "first_name": "",
            "real_name": "Ellen Jorgensen",
            "display_name": "",
            "team": "TUU48M0T1",
            "name": "ejorgensen",
            "is_restricted": false,
            "is_ultra_restricted": false
        },
        "blocks": [
            {
                "type": "rich_text",
                "block_id": "2L6w",
                "elements": [
                    {
                        "type": "rich_text_section",
                        "elements": [
                            {
                                "type": "text",
                                "text": "Info was from staff member at CDC who is on the team manufacturing kit components"
                            }
                        ]
                    }
                ]
            }
        ]
    },
    {
        "client_msg_id": "96f050f8-94f2-448e-af33-3dad25f7b90e",
        "type": "message",
        "text": "We ordered primers from a local DNA synthesis supplier, so this is why we are missing the positive control plasmid and were looking to see if anyone could share it with us. We're located in Montreal. We're aware that there are better primers available now, but we thought that the original cdc primers should still work. Or did I misunderstand?",
        "user": "UV20M5HGQ",
        "ts": "1583981983.034000",
        "team": "TUU48M0T1",
        "user_team": "TUU48M0T1",
        "source_team": "TUU48M0T1",
        "user_profile": {
            "avatar_hash": "de7ea7b7e14e",
            "image_72": "https:\/\/avatars.slack-edge.com\/2020-03-11\/981865374050_de7ea7b7e14e7b4316b9_72.jpg",
            "first_name": "",
            "real_name": "Vesta Korniakova",
            "display_name": "Vesta Korniakova",
            "team": "TUU48M0T1",
            "name": "riboswitchvesta",
            "is_restricted": false,
            "is_ultra_restricted": false
        },
        "blocks": [
            {
                "type": "rich_text",
                "block_id": "fywN",
                "elements": [
                    {
                        "type": "rich_text_section",
                        "elements": [
                            {
                                "type": "text",
                                "text": "We ordered primers from a local DNA synthesis supplier, so this is why we are missing the positive control plasmid and were looking to see if anyone could share it with us. We're located in Montreal. We're aware that there are better primers available now, but we thought that the original cdc primers should still work. Or did I misunderstand?"
                            }
                        ]
                    }
                ]
            }
        ]
    },
    {
        "client_msg_id": "c996dd25-2cf7-4b5c-83df-b6c9328403b1",
        "type": "message",
        "text": "I have copied and pasted from Chris Monaco's answer to same question in general thread:\n\n' I had a feeling I'd get asked this lol While I am not on the team that designed the assay, I've been in on the conversation and happy to share. It was quite the fiasco over here with HHS and FDA conducting independent investigations in to the lab I work in and the scientists working in the lab. So for those who don't know the CDC test is a multiplex real time rt-PCR assay containing four tests. The first two, called N1 and N2, target regions of the SARS-CoV-2 nucleocapsid gene that are unique to the that virus, while the third test, N3, is for SARS-like viruses. Lastly, there's an test for the human RNase P gene which allows you to validate if your sample was any good in the first place. What ended up happening in testing and early use in public health labs was false positives popping up in the N3 assay. _Though I'll add that we weren't seeing any false positives until after 38 PCR cyles, but FDA requires these types of assays run for 45 cycles._ Further investigation revealed some sort of contamination in the N3 probe\/primer set somewhere in the manufacturing process. The we handle kit manufacturing here is that the primers\/probes are synthesized in the Biotechnology Core Facility Branch, of which I am part of, and then we give master pools to the Reagents and Diagnostic Services Branch (RDSB) who handle all the aliquoting, assembly, and shipping of kits. The suspicion is that one of the speed vacs used to dry down the primers\/probes in RDSB for the N3 assay may have had some previous contamination of template DNA that was manufactured (against the urging of my colleagues) prior to CDC acquiring any actual SARS-CoV-2 specimens. The final solution was to just omit the N3 assay and only use the N1, N2, and RP for the test-- which from my understanding is what is currently being shipped to public health labs. Current protocol can be found here: <https:\/\/www.fda.gov\/media\/135879\/download|https:\/\/www.fda.gov\/media\/135879\/download>\n\nFrom my perspective, this ordeal has really shown the inefficiencies of a large bureaucratic entity. While I can confidently say that the large majority of the scientists who work at the CDC are here because they genuinely care about the health and well-being of the public, others are so fixated on career advancement and being the first to do something mistakes can get made. I really think the issue was blown out of proportion because rather just saying whoops we made a mistake, everyone wanted to point fingers. But that's just my opinion, I might be a bit cynical. Also disclaimer for job security: the views above are my own and do not reflect that of the CDC. :upside_down_face:",
        "user": "UUPQGNNTV",
        "ts": "1583986173.036800",
        "team": "TUU48M0T1",
        "user_team": "TUU48M0T1",
        "source_team": "TUU48M0T1",
        "user_profile": {
            "avatar_hash": "c28127caf7eb",
            "image_72": "https:\/\/avatars.slack-edge.com\/2020-03-07\/989562470694_c28127caf7ebfe67df97_72.jpg",
            "first_name": "",
            "real_name": "Ellen Jorgensen",
            "display_name": "",
            "team": "TUU48M0T1",
            "name": "ejorgensen",
            "is_restricted": false,
            "is_ultra_restricted": false
        },
        "blocks": [
            {
                "type": "rich_text",
                "block_id": "5mRdk",
                "elements": [
                    {
                        "type": "rich_text_section",
                        "elements": [
                            {
                                "type": "text",
                                "text": "I have copied and pasted from Chris Monaco's answer to same question in general thread:\n\n' I had a feeling I'd get asked this lol While I am not on the team that designed the assay, I've been in on the conversation and happy to share. It was quite the fiasco over here with HHS and FDA conducting independent investigations in to the lab I work in and the scientists working in the lab. So for those who don't know the CDC test is a multiplex real time rt-PCR assay containing four tests. The first two, called N1 and N2, target regions of the SARS-CoV-2 nucleocapsid gene that are unique to the that virus, while the third test, N3, is for SARS-like viruses. Lastly, there's an test for the human RNase P gene which allows you to validate if your sample was any good in the first place. What ended up happening in testing and early use in public health labs was false positives popping up in the N3 assay. "
                            },
                            {
                                "type": "text",
                                "text": "Though I'll add that we weren't seeing any false positives until after 38 PCR cyles, but FDA requires these types of assays run for 45 cycles. ",
                                "style": {
                                    "italic": true
                                }
                            },
                            {
                                "type": "text",
                                "text": "Further investigation revealed some sort of contamination in the N3 probe\/primer set somewhere in the manufacturing process. The we handle kit manufacturing here is that the primers\/probes are synthesized in the Biotechnology Core Facility Branch, of which I am part of, and then we give master pools to the Reagents and Diagnostic Services Branch (RDSB) who handle all the aliquoting, assembly, and shipping of kits. The suspicion is that one of the speed vacs used to dry down the primers\/probes in RDSB for the N3 assay may have had some previous contamination of template DNA that was manufactured (against the urging of my colleagues) prior to CDC acquiring any actual SARS-CoV-2 specimens. The final solution was to just omit the N3 assay and only use the N1, N2, and RP for the test-- which from my understanding is what is currently being shipped to public health labs. Current protocol can be found here: "
                            },
                            {
                                "type": "link",
                                "url": "https:\/\/www.fda.gov\/media\/135879\/download",
                                "text": "https:\/\/www.fda.gov\/media\/135879\/download"
                            },
                            {
                                "type": "text",
                                "text": "\n\nFrom my perspective, this ordeal has really shown the inefficiencies of a large bureaucratic entity. While I can confidently say that the large majority of the scientists who work at the CDC are here because they genuinely care about the health and well-being of the public, others are so fixated on career advancement and being the first to do something mistakes can get made. I really think the issue was blown out of proportion because rather just saying whoops we made a mistake, everyone wanted to point fingers. But that's just my opinion, I might be a bit cynical. Also disclaimer for job security: the views above are my own and do not reflect that of the CDC. "
                            },
                            {
                                "type": "emoji",
                                "name": "upside_down_face"
                            }
                        ]
                    }
                ]
            }
        ],
        "reactions": [
            {
                "name": "+1",
                "users": [
                    "UV10KBUQG"
                ],
                "count": 1
            }
        ]
    },
    {
        "client_msg_id": "27444c9d-2d27-42bc-8d2e-cfc0a2d8db6a",
        "type": "message",
        "text": "hmm very interesting. There have been a few threads\/blogs\/papers about the primers not being good but considering that they seem to have worked on ~100k people I think they're probably mostly fine.\nThe reason I ask about getting a sample of the test plasmids is because we're working on a video for my youtube channel where we plan on demonstrating running the test and talk about the virus\/vaccine progress and other details. Though as I mentioned we're making some modifications to the test to make it more accessible (we'll note what we've changed and how what we're doing differs from the standard test). Primarily, the difference is running normal RTPCR rather than qPCR, and analyzing the result by visualizing it on a gel, rather than using a probe. For the RNA extraction we're testing a very simple protocol using reagents that are typically on hand in the average lab to see if the whole process from extraction to results can be done using more readily available materials. We don't expect this to be nearly as good as what would be done for an actual clinical diagnosis (i.e qPCR), but to explore the science and teach people how these things work I think it'll be quite valuable. So again, if anyone's got some of the plasmid and would be willing to share I think it would add a lot of value to the video to show the primers working, rather than simply coming up negative. Although we are testing some extra positive controls just to make sure that the isolation protocol and RTPCR is working properly and demonstrate the process regardless. I just think having all 5 (4 \"classic\" and 1 homebrew) primer sets work would be ideal.",
        "user": "UV7QBRCFN",
        "ts": "1583996025.045400",
        "team": "TUU48M0T1",
        "user_team": "TUU48M0T1",
        "source_team": "TUU48M0T1",
        "user_profile": {
            "avatar_hash": "94fb372e8cfc",
            "image_72": "https:\/\/avatars.slack-edge.com\/2020-03-12\/996385001668_94fb372e8cfcfe2ee1cd_72.png",
            "first_name": "",
            "real_name": "Justin A",
            "display_name": "Justin A",
            "team": "TUU48M0T1",
            "name": "thethoughtemporium",
            "is_restricted": false,
            "is_ultra_restricted": false
        },
        "blocks": [
            {
                "type": "rich_text",
                "block_id": "A68=",
                "elements": [
                    {
                        "type": "rich_text_section",
                        "elements": [
                            {
                                "type": "text",
                                "text": "hmm very interesting. There have been a few threads\/blogs\/papers about the primers not being good but considering that they seem to have worked on ~100k people I think they're probably mostly fine.\nThe reason I ask about getting a sample of the test plasmids is because we're working on a video for my youtube channel where we plan on demonstrating running the test and talk about the virus\/vaccine progress and other details. Though as I mentioned we're making some modifications to the test to make it more accessible (we'll note what we've changed and how what we're doing differs from the standard test). Primarily, the difference is running normal RTPCR rather than qPCR, and analyzing the result by visualizing it on a gel, rather than using a probe. For the RNA extraction we're testing a very simple protocol using reagents that are typically on hand in the average lab to see if the whole process from extraction to results can be done using more readily available materials. We don't expect this to be nearly as good as what would be done for an actual clinical diagnosis (i.e qPCR), but to explore the science and teach people how these things work I think it'll be quite valuable. So again, if anyone's got some of the plasmid and would be willing to share I think it would add a lot of value to the video to show the primers working, rather than simply coming up negative. Although we are testing some extra positive controls just to make sure that the isolation protocol and RTPCR is working properly and demonstrate the process regardless. I just think having all 5 (4 \"classic\" and 1 homebrew) primer sets work would be ideal."
                            }
                        ]
                    }
                ]
            }
        ]
    }
]