[
    {
        "client_msg_id": "b2c6b9e5-6243-4e7d-bf7a-9d881f417232",
        "type": "message",
        "text": "Hello !\n\nIt takes much more time than expected to gather pdf versions of the files.\nThere is currently 1000 articles from the list published by WHO (<https:\/\/www.who.int\/emergencies\/diseases\/novel-coronavirus-2019\/global-research-on-novel-coronavirus-2019-ncov>) searchable on this url :\n<https:\/\/covid.recital.ai>\nWe are currently gathering the remaining files. Any feedback is appreciated !\nBest\nMelchior",
        "user": "U01060RCXJ8",
        "ts": "1584795329.235700",
        "team": "TUU48M0T1",
        "user_team": "TUU48M0T1",
        "source_team": "TUU48M0T1",
        "user_profile": {
            "avatar_hash": "115090137aad",
            "image_72": "https:\/\/avatars.slack-edge.com\/2020-03-17\/1008376451591_115090137aad4168ed28_72.jpg",
            "first_name": "melchior",
            "real_name": "melchior de toldi",
            "display_name": "melchior de toldi",
            "team": "TUU48M0T1",
            "name": "melchior",
            "is_restricted": false,
            "is_ultra_restricted": false
        },
        "blocks": [
            {
                "type": "rich_text",
                "block_id": "5lyv4",
                "elements": [
                    {
                        "type": "rich_text_section",
                        "elements": [
                            {
                                "type": "text",
                                "text": "Hello !\n\nIt takes much more time than expected to gather pdf versions of the files.\nThere is currently 1000 articles from the list published by WHO ("
                            },
                            {
                                "type": "link",
                                "url": "https:\/\/www.who.int\/emergencies\/diseases\/novel-coronavirus-2019\/global-research-on-novel-coronavirus-2019-ncov"
                            },
                            {
                                "type": "text",
                                "text": ") searchable on this url :\n"
                            },
                            {
                                "type": "link",
                                "url": "https:\/\/covid.recital.ai"
                            },
                            {
                                "type": "text",
                                "text": "\nWe are currently gathering the remaining files. Any feedback is appreciated !\nBest\nMelchior"
                            }
                        ]
                    }
                ]
            }
        ],
        "thread_ts": "1584466690.175300",
        "parent_user_id": "U01060RCXJ8"
    },
    {
        "client_msg_id": "8e655268-a631-4405-86e7-ddc5de7ca98e",
        "type": "message",
        "text": "An issue of the massively parallel next-gen seq thing is that is only parallel after the RT. This is a proposal to get around that: <https:\/\/docs.google.com\/document\/d\/1WDKp-s7u_EcJ77WQc0lVK3kSU1YIAFHBSG4QIKp-lTs\/edit> Thoughts v. welcome.",
        "user": "UUW05LBEV",
        "ts": "1584834096.237700",
        "team": "TUU48M0T1",
        "user_team": "TUU48M0T1",
        "source_team": "TUU48M0T1",
        "user_profile": {
            "avatar_hash": "g29002d3ec38",
            "image_72": "https:\/\/secure.gravatar.com\/avatar\/29002d3ec38577934dfa24598f68a0fc.jpg?s=72&d=https%3A%2F%2Fa.slack-edge.com%2Fdf10d%2Fimg%2Favatars%2Fava_0008-72.png",
            "first_name": "",
            "real_name": "Theo Sanderson",
            "display_name": "Theo Sanderson",
            "team": "TUU48M0T1",
            "name": "theo",
            "is_restricted": false,
            "is_ultra_restricted": false
        },
        "blocks": [
            {
                "type": "rich_text",
                "block_id": "c1A\/",
                "elements": [
                    {
                        "type": "rich_text_section",
                        "elements": [
                            {
                                "type": "text",
                                "text": "An issue of the massively parallel next-gen seq thing is that is only parallel after the RT. This is a proposal to get around that: "
                            },
                            {
                                "type": "link",
                                "url": "https:\/\/docs.google.com\/document\/d\/1WDKp-s7u_EcJ77WQc0lVK3kSU1YIAFHBSG4QIKp-lTs\/edit"
                            },
                            {
                                "type": "text",
                                "text": " Thoughts v. welcome."
                            }
                        ]
                    }
                ]
            }
        ]
    }
]