[
    {
        "client_msg_id": "c9ec7a34-5205-4625-a9c8-7d10d6b49e36",
        "type": "message",
        "text": "Please:\n<https:\/\/ieeexplore.ieee.org\/document\/8278171>",
        "user": "UVDCTDP8B",
        "ts": "1586198887.002400",
        "team": "TUU48M0T1",
        "user_team": "TUU48M0T1",
        "source_team": "TUU48M0T1",
        "user_profile": {
            "avatar_hash": "b9681d276810",
            "image_72": "https:\/\/avatars.slack-edge.com\/2020-03-21\/1018866726103_b9681d2768103ad056d7_72.jpg",
            "first_name": "",
            "real_name": "Wesley",
            "display_name": "Wesley",
            "team": "TUU48M0T1",
            "name": "someprogrammerorsomet",
            "is_restricted": false,
            "is_ultra_restricted": false
        },
        "attachments": [
            {
                "title": "Robust Detection of Audio-Cough Events Using Local Hu Moments - IEEE Journals &amp; Magazine",
                "title_link": "https:\/\/ieeexplore.ieee.org\/document\/8278171",
                "text": "Telehealth has shown potential to improve access to healthcare cost-effectively in respiratory illness. However, it has failed to live up to expectation, i",
                "fallback": "Robust Detection of Audio-Cough Events Using Local Hu Moments - IEEE Journals &amp; Magazine",
                "from_url": "https:\/\/ieeexplore.ieee.org\/document\/8278171",
                "service_icon": "https:\/\/ieeexplore.ieee.org\/favicon.ico",
                "service_name": "ieeexplore.ieee.org",
                "id": 1,
                "original_url": "https:\/\/ieeexplore.ieee.org\/document\/8278171"
            }
        ],
        "blocks": [
            {
                "type": "rich_text",
                "block_id": "lTi4",
                "elements": [
                    {
                        "type": "rich_text_section",
                        "elements": [
                            {
                                "type": "text",
                                "text": "Please:\n"
                            },
                            {
                                "type": "link",
                                "url": "https:\/\/ieeexplore.ieee.org\/document\/8278171"
                            }
                        ]
                    }
                ]
            }
        ],
        "thread_ts": "1586198887.002400",
        "reply_count": 2,
        "reply_users_count": 2,
        "latest_reply": "1586344829.003800",
        "reply_users": [
            "U0103RQF7R8",
            "UVDCTDP8B"
        ],
        "replies": [
            {
                "user": "U0103RQF7R8",
                "ts": "1586244891.002600"
            },
            {
                "user": "UVDCTDP8B",
                "ts": "1586344829.003800"
            }
        ],
        "subscribed": false
    }
]