[
    {
        "type": "message",
        "subtype": "channel_join",
        "ts": "1586330217.000200",
        "user": "U011C6SQ6V9",
        "text": "<@U011C6SQ6V9> has joined the channel"
    },
    {
        "type": "message",
        "subtype": "channel_join",
        "ts": "1586340761.000400",
        "user": "UVC9WMA7N",
        "text": "<@UVC9WMA7N> has joined the channel"
    },
    {
        "type": "message",
        "subtype": "channel_join",
        "ts": "1586340769.000600",
        "user": "UV8T52QJ3",
        "text": "<@UV8T52QJ3> has joined the channel",
        "inviter": "UVC9WMA7N"
    },
    {
        "client_msg_id": "0167cca7-f478-4480-bcda-ad1a7c4fe6a8",
        "type": "message",
        "text": "Hola amigos  :smile:",
        "user": "UVC9WMA7N",
        "ts": "1586340782.000900",
        "team": "TUU48M0T1",
        "user_team": "TUU48M0T1",
        "source_team": "TUU48M0T1",
        "user_profile": {
            "avatar_hash": "56d14d58ed53",
            "image_72": "https:\/\/avatars.slack-edge.com\/2020-03-13\/998337892660_56d14d58ed537e6e4654_72.png",
            "first_name": "Leo",
            "real_name": "Leo Blondel",
            "display_name": "Leo Blondel - JOGL CoFounder \/ CTO",
            "team": "TUU48M0T1",
            "name": "leo",
            "is_restricted": false,
            "is_ultra_restricted": false
        },
        "blocks": [
            {
                "type": "rich_text",
                "block_id": "ber",
                "elements": [
                    {
                        "type": "rich_text_section",
                        "elements": [
                            {
                                "type": "text",
                                "text": "Hola amigos  "
                            },
                            {
                                "type": "emoji",
                                "name": "smile"
                            }
                        ]
                    }
                ]
            }
        ]
    },
    {
        "client_msg_id": "942be802-95c1-48f5-82a7-39524067dc1d",
        "type": "message",
        "text": "no soy de latin america, pero my novia es de PuertoRico y yo hablo un poquito espanol.\n\npero tengo el amor de la latinralesa :wink:\n\nNo hesite contactar me si tengo prenguntas por JOGL !",
        "user": "UVC9WMA7N",
        "ts": "1586340888.002300",
        "team": "TUU48M0T1",
        "user_team": "TUU48M0T1",
        "source_team": "TUU48M0T1",
        "user_profile": {
            "avatar_hash": "56d14d58ed53",
            "image_72": "https:\/\/avatars.slack-edge.com\/2020-03-13\/998337892660_56d14d58ed537e6e4654_72.png",
            "first_name": "Leo",
            "real_name": "Leo Blondel",
            "display_name": "Leo Blondel - JOGL CoFounder \/ CTO",
            "team": "TUU48M0T1",
            "name": "leo",
            "is_restricted": false,
            "is_ultra_restricted": false
        },
        "blocks": [
            {
                "type": "rich_text",
                "block_id": "bNZ",
                "elements": [
                    {
                        "type": "rich_text_section",
                        "elements": [
                            {
                                "type": "text",
                                "text": "no soy de latin america, pero my novia es de PuertoRico y yo hablo un poquito espanol.\n\npero tengo el amor de la latinralesa "
                            },
                            {
                                "type": "emoji",
                                "name": "wink"
                            },
                            {
                                "type": "text",
                                "text": "\n\nNo hesite contactar me si tengo prenguntas por JOGL !"
                            }
                        ]
                    }
                ]
            }
        ]
    },
    {
        "client_msg_id": "6f9f05d7-1ddf-4503-8c62-8edcd8518253",
        "type": "message",
        "text": "tu parles français Alan?",
        "user": "U011BGJUFAB",
        "ts": "1586346250.002600",
        "team": "TUU48M0T1",
        "user_team": "TUU48M0T1",
        "source_team": "TUU48M0T1",
        "user_profile": {
            "avatar_hash": "ed32e8ad1f9b",
            "image_72": "https:\/\/avatars.slack-edge.com\/2020-04-07\/1045563456471_ed32e8ad1f9b1ac00a40_72.jpg",
            "first_name": "",
            "real_name": "Diego VEGA",
            "display_name": "Diego VEGA",
            "team": "TUU48M0T1",
            "name": "dialevega",
            "is_restricted": false,
            "is_ultra_restricted": false
        },
        "blocks": [
            {
                "type": "rich_text",
                "block_id": "UM1ZH",
                "elements": [
                    {
                        "type": "rich_text_section",
                        "elements": [
                            {
                                "type": "text",
                                "text": "tu parles français Alan?"
                            }
                        ]
                    }
                ]
            }
        ]
    },
    {
        "client_msg_id": "b6ff54b2-db02-4e3f-8d3b-da8bc16b357e",
        "type": "message",
        "text": "Buenos días :slightly_smiling_face:",
        "user": "UV8T52QJ3",
        "ts": "1586348575.002800",
        "team": "TUU48M0T1",
        "user_team": "TUU48M0T1",
        "source_team": "TUU48M0T1",
        "user_profile": {
            "avatar_hash": "g96f14063d73",
            "image_72": "https:\/\/secure.gravatar.com\/avatar\/96f14063d73cc7867772731f881de414.jpg?s=72&d=https%3A%2F%2Fa.slack-edge.com%2Fdf10d%2Fimg%2Favatars%2Fava_0005-72.png",
            "first_name": "Hernán",
            "real_name": "Hernán Morales Durand",
            "display_name": "Hernán Morales Durand",
            "team": "TUU48M0T1",
            "name": "hernan.morales",
            "is_restricted": false,
            "is_ultra_restricted": false
        },
        "blocks": [
            {
                "type": "rich_text",
                "block_id": "h=Mg",
                "elements": [
                    {
                        "type": "rich_text_section",
                        "elements": [
                            {
                                "type": "text",
                                "text": "Buenos días "
                            },
                            {
                                "type": "emoji",
                                "name": "slightly_smiling_face"
                            }
                        ]
                    }
                ]
            }
        ]
    },
    {
        "client_msg_id": "5ab38004-e9db-4694-bdec-ca211dfc1947",
        "type": "message",
        "text": "Perdí la llamada de hoy en zoom :disappointed: no me llegó la notificación, siempre es a esta hora?",
        "user": "U0115G1A03D",
        "ts": "1586369213.003400",
        "team": "TUU48M0T1",
        "user_team": "TUU48M0T1",
        "source_team": "TUU48M0T1",
        "user_profile": {
            "avatar_hash": "4daeacf08e50",
            "image_72": "https:\/\/avatars.slack-edge.com\/2020-04-04\/1038340161250_4daeacf08e50360875bc_72.png",
            "first_name": "",
            "real_name": "Pablo Díaz",
            "display_name": "Pablo Díaz",
            "team": "TUU48M0T1",
            "name": "pablo.diazv",
            "is_restricted": false,
            "is_ultra_restricted": false
        },
        "blocks": [
            {
                "type": "rich_text",
                "block_id": "egnzb",
                "elements": [
                    {
                        "type": "rich_text_section",
                        "elements": [
                            {
                                "type": "text",
                                "text": "Perdí la llamada de hoy en zoom "
                            },
                            {
                                "type": "emoji",
                                "name": "disappointed"
                            },
                            {
                                "type": "text",
                                "text": " no me llegó la notificación, siempre es a esta hora?"
                            }
                        ]
                    }
                ]
            }
        ]
    },
    {
        "client_msg_id": "c02fe901-6c01-4fbe-ae3b-efe013340899",
        "type": "message",
        "text": "Hola, buenas tardes! Disculpen, todavia no me adapto totalmente a usar Slack. yo tampoco me pude conectar, espero poder hacerlo pronto.",
        "user": "U011C6SQ6V9",
        "ts": "1586380398.004800",
        "team": "TUU48M0T1",
        "user_team": "TUU48M0T1",
        "source_team": "TUU48M0T1",
        "user_profile": {
            "avatar_hash": "374beb9b83a9",
            "image_72": "https:\/\/avatars.slack-edge.com\/2020-04-07\/1063258814352_374beb9b83a9a2e3579a_72.png",
            "first_name": "",
            "real_name": "Alan Hinojosa Godinez",
            "display_name": "Alan Hinojosa Godinez",
            "team": "TUU48M0T1",
            "name": "alanh.godinez.md",
            "is_restricted": false,
            "is_ultra_restricted": false
        },
        "blocks": [
            {
                "type": "rich_text",
                "block_id": "vwh",
                "elements": [
                    {
                        "type": "rich_text_section",
                        "elements": [
                            {
                                "type": "text",
                                "text": "Hola, buenas tardes! Disculpen, todavia no me adapto totalmente a usar Slack. yo tampoco me pude conectar, espero poder hacerlo pronto."
                            }
                        ]
                    }
                ]
            }
        ]
    },
    {
        "client_msg_id": "20e4ceb0-5bcf-4a1b-84f9-bcf1499b20f3",
        "type": "message",
        "text": "Gracias Leo. enterado.",
        "user": "U011C6SQ6V9",
        "ts": "1586380420.005100",
        "team": "TUU48M0T1",
        "user_team": "TUU48M0T1",
        "source_team": "TUU48M0T1",
        "user_profile": {
            "avatar_hash": "374beb9b83a9",
            "image_72": "https:\/\/avatars.slack-edge.com\/2020-04-07\/1063258814352_374beb9b83a9a2e3579a_72.png",
            "first_name": "",
            "real_name": "Alan Hinojosa Godinez",
            "display_name": "Alan Hinojosa Godinez",
            "team": "TUU48M0T1",
            "name": "alanh.godinez.md",
            "is_restricted": false,
            "is_ultra_restricted": false
        },
        "blocks": [
            {
                "type": "rich_text",
                "block_id": "Ojc",
                "elements": [
                    {
                        "type": "rich_text_section",
                        "elements": [
                            {
                                "type": "text",
                                "text": "Gracias Leo. enterado."
                            }
                        ]
                    }
                ]
            }
        ]
    },
    {
        "client_msg_id": "b2d140e4-b3cf-48d2-8a3b-163f0928f4a3",
        "type": "message",
        "text": "Ya publicaron el <https:\/\/www.youtube.com\/watch?v=OqxYM39N-hY&amp;feature=youtu.be|video> de la reunión de hoy",
        "user": "U0115G1A03D",
        "ts": "1586380469.005800",
        "team": "TUU48M0T1",
        "user_team": "TUU48M0T1",
        "source_team": "TUU48M0T1",
        "user_profile": {
            "avatar_hash": "4daeacf08e50",
            "image_72": "https:\/\/avatars.slack-edge.com\/2020-04-04\/1038340161250_4daeacf08e50360875bc_72.png",
            "first_name": "",
            "real_name": "Pablo Díaz",
            "display_name": "Pablo Díaz",
            "team": "TUU48M0T1",
            "name": "pablo.diazv",
            "is_restricted": false,
            "is_ultra_restricted": false
        },
        "edited": {
            "user": "U0115G1A03D",
            "ts": "1586380472.000000"
        },
        "blocks": [
            {
                "type": "rich_text",
                "block_id": "qTl",
                "elements": [
                    {
                        "type": "rich_text_section",
                        "elements": [
                            {
                                "type": "text",
                                "text": "Ya publicaron el "
                            },
                            {
                                "type": "link",
                                "url": "https:\/\/www.youtube.com\/watch?v=OqxYM39N-hY&feature=youtu.be",
                                "text": "video"
                            },
                            {
                                "type": "text",
                                "text": " de la reunión de hoy"
                            }
                        ]
                    }
                ]
            }
        ]
    },
    {
        "client_msg_id": "59af4a11-bb3a-424d-a391-4ab099c7ac95",
        "type": "message",
        "text": "Non, Diego je ne parle pas français. j'ai eu quelques leçons, mais je ne suis pas bon.",
        "user": "U011C6SQ6V9",
        "ts": "1586380560.006600",
        "team": "TUU48M0T1",
        "user_team": "TUU48M0T1",
        "source_team": "TUU48M0T1",
        "user_profile": {
            "avatar_hash": "374beb9b83a9",
            "image_72": "https:\/\/avatars.slack-edge.com\/2020-04-07\/1063258814352_374beb9b83a9a2e3579a_72.png",
            "first_name": "",
            "real_name": "Alan Hinojosa Godinez",
            "display_name": "Alan Hinojosa Godinez",
            "team": "TUU48M0T1",
            "name": "alanh.godinez.md",
            "is_restricted": false,
            "is_ultra_restricted": false
        },
        "blocks": [
            {
                "type": "rich_text",
                "block_id": "zjX",
                "elements": [
                    {
                        "type": "rich_text_section",
                        "elements": [
                            {
                                "type": "text",
                                "text": "Non, Diego je ne parle pas français. j'ai eu quelques leçons, mais je ne suis pas bon."
                            }
                        ]
                    }
                ]
            }
        ]
    },
    {
        "client_msg_id": "6e70e33b-d30a-4f2b-abbc-78dc04b37253",
        "type": "message",
        "text": "Gracias pablo, lo veré tan pronto pueda.",
        "user": "U011C6SQ6V9",
        "ts": "1586380573.007000",
        "team": "TUU48M0T1",
        "user_team": "TUU48M0T1",
        "source_team": "TUU48M0T1",
        "user_profile": {
            "avatar_hash": "374beb9b83a9",
            "image_72": "https:\/\/avatars.slack-edge.com\/2020-04-07\/1063258814352_374beb9b83a9a2e3579a_72.png",
            "first_name": "",
            "real_name": "Alan Hinojosa Godinez",
            "display_name": "Alan Hinojosa Godinez",
            "team": "TUU48M0T1",
            "name": "alanh.godinez.md",
            "is_restricted": false,
            "is_ultra_restricted": false
        },
        "blocks": [
            {
                "type": "rich_text",
                "block_id": "uXPE",
                "elements": [
                    {
                        "type": "rich_text_section",
                        "elements": [
                            {
                                "type": "text",
                                "text": "Gracias pablo, lo veré tan pronto pueda."
                            }
                        ]
                    }
                ]
            }
        ]
    },
    {
        "type": "message",
        "subtype": "channel_join",
        "ts": "1586386625.007200",
        "user": "UVDCTDP8B",
        "text": "<@UVDCTDP8B> has joined the channel"
    }
]