[
    {
        "type": "message",
        "subtype": "channel_join",
        "ts": "1586874081.000200",
        "user": "U011S9UHY2H",
        "text": "<@U011S9UHY2H> has joined the channel"
    },
    {
        "type": "message",
        "subtype": "channel_archive",
        "ts": "1586890158.000100",
        "user": "U011S9UHY2H",
        "text": "<@U011S9UHY2H> archived the channel"
    }
]