[
    {
        "client_msg_id": "dc36a5eb-8a99-4a0f-aebc-b4c852c2beb0",
        "type": "message",
        "text": "South Africa is now under lockdown, over 1000 recorded cases (x100 increase in infection count in two weeks), first two deaths last night",
        "user": "UVD8Q035K",
        "ts": "1585292765.052800",
        "team": "TUU48M0T1",
        "user_team": "TUU48M0T1",
        "source_team": "TUU48M0T1",
        "user_profile": {
            "avatar_hash": "8b2d0f7c083b",
            "image_72": "https:\/\/avatars.slack-edge.com\/2020-03-13\/1001496871254_8b2d0f7c083b78fb0457_72.jpg",
            "first_name": "",
            "real_name": "Jonathan W. Vos",
            "display_name": "Jonathan W. Vos",
            "team": "TUU48M0T1",
            "name": "jonathan",
            "is_restricted": false,
            "is_ultra_restricted": false
        },
        "blocks": [
            {
                "type": "rich_text",
                "block_id": "Euco",
                "elements": [
                    {
                        "type": "rich_text_section",
                        "elements": [
                            {
                                "type": "text",
                                "text": "South Africa is now under lockdown, over 1000 recorded cases (x100 increase in infection count in two weeks), first two deaths last night"
                            }
                        ]
                    }
                ]
            }
        ]
    },
    {
        "client_msg_id": "c28eae4f-745b-437d-9c49-c6f0e517fac0",
        "type": "message",
        "text": "COVID-19 Town Hall on environmental sampling for coronavirus - March 27, 2020, 8:00 AM Pacific Time <https:\/\/synbiobeta.com\/covid-19-town-hall-on-swabbing-the-nyc-subway-for-coronavirus\/>",
        "user": "UUWQU0D8T",
        "ts": "1585303376.053900",
        "team": "TUU48M0T1",
        "user_team": "TUU48M0T1",
        "source_team": "TUU48M0T1",
        "user_profile": {
            "avatar_hash": "ced1bbd4fafd",
            "image_72": "https:\/\/avatars.slack-edge.com\/2020-03-12\/997488626918_ced1bbd4fafddfa4869c_72.png",
            "first_name": "Marianna",
            "real_name": "Marianna Limas",
            "display_name": "Marianna Limas",
            "team": "TUU48M0T1",
            "name": "mnnlimas",
            "is_restricted": false,
            "is_ultra_restricted": false
        },
        "attachments": [
            {
                "service_name": "SynBioBeta",
                "title": "COVID-19 Town Hall on environmental sampling for coronavirus - SynBioBeta",
                "title_link": "https:\/\/synbiobeta.com\/covid-19-town-hall-on-swabbing-the-nyc-subway-for-coronavirus\/",
                "text": "Weill Cornell Medicine professor Christopher Mason has swabbed the NYC subway system before with surprising results. Now, with help from Twist Bioscience’s NGS Target Enrichment tools for Coronavirus, Chris is sampling the public transit system to see if and where the novel coronavirus is residing. Chris will be in conversation with Twist CEO Emily Leproust, …",
                "fallback": "SynBioBeta: COVID-19 Town Hall on environmental sampling for coronavirus - SynBioBeta",
                "image_url": "https:\/\/synbiobeta.com\/wp-content\/uploads\/2020\/03\/12_23_15MasonLG.jpg",
                "image_width": 322,
                "image_height": 250,
                "ts": 1584812703,
                "from_url": "https:\/\/synbiobeta.com\/covid-19-town-hall-on-swabbing-the-nyc-subway-for-coronavirus\/",
                "image_bytes": 130731,
                "service_icon": "https:\/\/synbiobeta.com\/wp-content\/uploads\/2018\/04\/cropped-Favicon-180x180.png",
                "id": 1,
                "original_url": "https:\/\/synbiobeta.com\/covid-19-town-hall-on-swabbing-the-nyc-subway-for-coronavirus\/"
            }
        ],
        "blocks": [
            {
                "type": "rich_text",
                "block_id": "YV996",
                "elements": [
                    {
                        "type": "rich_text_section",
                        "elements": [
                            {
                                "type": "text",
                                "text": "COVID-19 Town Hall on environmental sampling for coronavirus - March 27, 2020, 8:00 AM Pacific Time "
                            },
                            {
                                "type": "link",
                                "url": "https:\/\/synbiobeta.com\/covid-19-town-hall-on-swabbing-the-nyc-subway-for-coronavirus\/"
                            }
                        ]
                    }
                ]
            }
        ]
    },
    {
        "client_msg_id": "f7af73e7-4ff9-48db-b746-a8197bfe975d",
        "type": "message",
        "text": "I'd like to know much more too, but I think this is a good review in general about these viruses: <https:\/\/www.ncbi.nlm.nih.gov\/pmc\/articles\/PMC4369385\/>",
        "user": "UV1A22N3W",
        "ts": "1585314509.054500",
        "team": "TUU48M0T1",
        "user_team": "TUU48M0T1",
        "source_team": "TUU48M0T1",
        "user_profile": {
            "avatar_hash": "71f827776ad6",
            "image_72": "https:\/\/avatars.slack-edge.com\/2020-03-09\/988125642964_71f827776ad610af05a2_72.jpg",
            "first_name": "",
            "real_name": "RachelA",
            "display_name": "RachelA",
            "team": "TUU48M0T1",
            "name": "raronoff",
            "is_restricted": false,
            "is_ultra_restricted": false
        },
        "attachments": [
            {
                "service_name": "PubMed Central (PMC)",
                "title": "Coronaviruses: An Overview of Their Replication and Pathogenesis",
                "title_link": "https:\/\/www.ncbi.nlm.nih.gov\/pmc\/articles\/PMC4369385\/",
                "text": "Coronaviruses (CoVs), enveloped positive-sense RNA viruses, are characterized by club-like spikes that project from their surface, an unusually large RNA genome, and a unique replication strategy. Coronaviruses cause a variety of diseases in mammals and ...",
                "fallback": "PubMed Central (PMC): Coronaviruses: An Overview of Their Replication and Pathogenesis",
                "thumb_url": "https:\/\/www.ncbi.nlm.nih.gov\/corehtml\/pmc\/pmcgifs\/pmc-logo-share.png",
                "from_url": "https:\/\/www.ncbi.nlm.nih.gov\/pmc\/articles\/PMC4369385\/",
                "thumb_width": 1200,
                "thumb_height": 630,
                "service_icon": "http:\/\/www.ncbi.nlm.nih.gov\/favicon.ico",
                "id": 1,
                "original_url": "https:\/\/www.ncbi.nlm.nih.gov\/pmc\/articles\/PMC4369385\/"
            }
        ],
        "blocks": [
            {
                "type": "rich_text",
                "block_id": "AKDZ",
                "elements": [
                    {
                        "type": "rich_text_section",
                        "elements": [
                            {
                                "type": "text",
                                "text": "I'd like to know much more too, but I think this is a good review in general about these viruses: "
                            },
                            {
                                "type": "link",
                                "url": "https:\/\/www.ncbi.nlm.nih.gov\/pmc\/articles\/PMC4369385\/"
                            }
                        ]
                    }
                ]
            }
        ],
        "thread_ts": "1585247701.048600",
        "parent_user_id": "UV78JAX0S"
    },
    {
        "client_msg_id": "7cd4f5b6-063c-4f60-a2bd-05eb74a59f1e",
        "type": "message",
        "text": "regarding serological testing, (<@UVA0E24KZ>) just saw this: <https:\/\/www.360dx.com\/infectious-disease\/sars-cov-2-serology-testing-ramping-address-next-stages-pandemic#.Xn3545NKjbQ>",
        "user": "UV1A22N3W",
        "ts": "1585314573.055300",
        "team": "TUU48M0T1",
        "user_team": "TUU48M0T1",
        "source_team": "TUU48M0T1",
        "user_profile": {
            "avatar_hash": "71f827776ad6",
            "image_72": "https:\/\/avatars.slack-edge.com\/2020-03-09\/988125642964_71f827776ad610af05a2_72.jpg",
            "first_name": "",
            "real_name": "RachelA",
            "display_name": "RachelA",
            "team": "TUU48M0T1",
            "name": "raronoff",
            "is_restricted": false,
            "is_ultra_restricted": false
        },
        "attachments": [
            {
                "service_name": "360Dx",
                "title": "SARS-CoV-2 Serology Testing Ramping Up to Address Next Stages of Pandemic",
                "title_link": "https:\/\/www.360dx.com\/infectious-disease\/sars-cov-2-serology-testing-ramping-address-next-stages-pandemic#.Xn3545NKjbQ",
                "text": "Such tests indicate whether a person had an immune response to the virus, which could aid infection tracking and identifying individuals with immunity.",
                "fallback": "360Dx: SARS-CoV-2 Serology Testing Ramping Up to Address Next Stages of Pandemic",
                "thumb_url": "https:\/\/www.360dx.com\/sites\/default\/files\/styles\/detail\/public\/images\/news\/adobestock_222126396_copy.jpg?itok=fkqnXxmX",
                "from_url": "https:\/\/www.360dx.com\/infectious-disease\/sars-cov-2-serology-testing-ramping-address-next-stages-pandemic#.Xn3545NKjbQ",
                "thumb_width": 230,
                "thumb_height": 153,
                "service_icon": "https:\/\/www.360dx.com\/sites\/default\/themes\/threesixtydx\/inc\/images\/apple-touch-icon.png",
                "id": 1,
                "original_url": "https:\/\/www.360dx.com\/infectious-disease\/sars-cov-2-serology-testing-ramping-address-next-stages-pandemic#.Xn3545NKjbQ"
            }
        ],
        "blocks": [
            {
                "type": "rich_text",
                "block_id": "MjM0j",
                "elements": [
                    {
                        "type": "rich_text_section",
                        "elements": [
                            {
                                "type": "text",
                                "text": "regarding serological testing, ("
                            },
                            {
                                "type": "user",
                                "user_id": "UVA0E24KZ"
                            },
                            {
                                "type": "text",
                                "text": ") just saw this: "
                            },
                            {
                                "type": "link",
                                "url": "https:\/\/www.360dx.com\/infectious-disease\/sars-cov-2-serology-testing-ramping-address-next-stages-pandemic#.Xn3545NKjbQ"
                            }
                        ]
                    }
                ]
            }
        ]
    },
    {
        "client_msg_id": "3f61d234-856b-493e-a91c-b07a1b9eb3f8",
        "type": "message",
        "text": "Thanks Rachel!",
        "user": "UV78JAX0S",
        "ts": "1585317291.055700",
        "team": "TUU48M0T1",
        "user_team": "TUU48M0T1",
        "source_team": "TUU48M0T1",
        "user_profile": {
            "avatar_hash": "ab643489965e",
            "image_72": "https:\/\/avatars.slack-edge.com\/2020-03-17\/996174739571_ab643489965e0031c49d_72.png",
            "first_name": "Khalid",
            "real_name": "Khalid K. Alam",
            "display_name": "Khalid K. Alam",
            "team": "TUU48M0T1",
            "name": "khalid",
            "is_restricted": false,
            "is_ultra_restricted": false
        },
        "blocks": [
            {
                "type": "rich_text",
                "block_id": "hLlyh",
                "elements": [
                    {
                        "type": "rich_text_section",
                        "elements": [
                            {
                                "type": "text",
                                "text": "Thanks Rachel!"
                            }
                        ]
                    }
                ]
            }
        ],
        "thread_ts": "1585247701.048600",
        "parent_user_id": "UV78JAX0S"
    },
    {
        "client_msg_id": "335c0f1b-8753-4f52-ac51-b7498b613a97",
        "type": "message",
        "text": "There has been lots of talk in the media of tech giants such as google and amazon using their algorithms to help combat the spread of covid-19. Does anyone have any further insight into what exactly they are doing?",
        "user": "U010NUT3G2H",
        "ts": "1585325280.058700",
        "team": "TUU48M0T1",
        "user_team": "TUU48M0T1",
        "source_team": "TUU48M0T1",
        "user_profile": {
            "avatar_hash": "7024719895e8",
            "image_72": "https:\/\/avatars.slack-edge.com\/2020-03-24\/1024869475719_7024719895e8ae00ab85_72.jpg",
            "first_name": "",
            "real_name": "Charles Beach",
            "display_name": "Charles Beach",
            "team": "TUU48M0T1",
            "name": "charlesfpbeach",
            "is_restricted": false,
            "is_ultra_restricted": false
        },
        "blocks": [
            {
                "type": "rich_text",
                "block_id": "7wp",
                "elements": [
                    {
                        "type": "rich_text_section",
                        "elements": [
                            {
                                "type": "text",
                                "text": "There has been lots of talk in the media of tech giants such as google and amazon using their algorithms to help combat the spread of covid-19. Does anyone have any further insight into what exactly they are doing?"
                            }
                        ]
                    }
                ]
            }
        ],
        "thread_ts": "1585325280.058700",
        "reply_count": 1,
        "reply_users_count": 1,
        "latest_reply": "1585671911.105000",
        "reply_users": [
            "U010566NJHG"
        ],
        "replies": [
            {
                "user": "U010566NJHG",
                "ts": "1585671911.105000"
            }
        ],
        "subscribed": false,
        "reactions": [
            {
                "name": "star-struck",
                "users": [
                    "U010566NJHG"
                ],
                "count": 1
            }
        ]
    },
    {
        "client_msg_id": "86e72b8c-6d9e-41d4-8790-54debf080297",
        "type": "message",
        "text": "Hello, guys! I would appreciate a lot if some of you can share some opinions about a grey area of science for me.\n\nI am an MS and from what I know, detergents are effective against coronavirus because they can break the lipid layer from coronavirus structure which basically leads to virus inactivation. Also, I am aware that the severe cases\/deaths due to coronavirus are mostly because of respiratory distress caused by the virus which binds the ACE-II receptors from the lungs epithelium.\n\nAcknowledging this stuff, I wondered what would happen if patients with severe respiratory distress from coronavirus would inhale detergent (it sounds weird, but let me follow on that). My first guess was that the inhalation of detergent would destroy the coronavirus together with the lungs epithelium.\n\nHowever, what I found surprising is that there are no scientific references to detergent inhalation side-effects. I’ve searched a lot and surprisingly, there are no almost no side-effects to detergent inhalation. So, any guesses\/thoughts on what inhalation of detergent would do to lung epithelium and viruses?",
        "user": "U010L8GHA4B",
        "ts": "1585329805.061300",
        "team": "TUU48M0T1",
        "user_team": "TUU48M0T1",
        "source_team": "TUU48M0T1",
        "user_profile": {
            "avatar_hash": "gf2fae5cf1ea",
            "image_72": "https:\/\/secure.gravatar.com\/avatar\/f2fae5cf1ea5e82055eb227179142b4a.jpg?s=72&d=https%3A%2F%2Fa.slack-edge.com%2Fdf10d%2Fimg%2Favatars%2Fava_0006-72.png",
            "first_name": "",
            "real_name": "Mihai",
            "display_name": "Mihai",
            "team": "TUU48M0T1",
            "name": "eumihai10",
            "is_restricted": false,
            "is_ultra_restricted": false
        },
        "blocks": [
            {
                "type": "rich_text",
                "block_id": "m4bg",
                "elements": [
                    {
                        "type": "rich_text_section",
                        "elements": [
                            {
                                "type": "text",
                                "text": "Hello, guys! I would appreciate a lot if some of you can share some opinions about a grey area of science for me.\n\nI am an MS and from what I know, detergents are effective against coronavirus because they can break the lipid layer from coronavirus structure which basically leads to virus inactivation. Also, I am aware that the severe cases\/deaths due to coronavirus are mostly because of respiratory distress caused by the virus which binds the ACE-II receptors from the lungs epithelium.\n\nAcknowledging this stuff, I wondered what would happen if patients with severe respiratory distress from coronavirus would inhale detergent (it sounds weird, but let me follow on that). My first guess was that the inhalation of detergent would destroy the coronavirus together with the lungs epithelium.\n\nHowever, what I found surprising is that there are no scientific references to detergent inhalation side-effects. I’ve searched a lot and surprisingly, there are no almost no side-effects to detergent inhalation. So, any guesses\/thoughts on what inhalation of detergent would do to lung epithelium and viruses?"
                            }
                        ]
                    }
                ]
            }
        ],
        "thread_ts": "1585329805.061300",
        "reply_count": 2,
        "reply_users_count": 1,
        "latest_reply": "1585371991.064700",
        "reply_users": [
            "UV87UQ37A"
        ],
        "replies": [
            {
                "user": "UV87UQ37A",
                "ts": "1585371980.064500"
            },
            {
                "user": "UV87UQ37A",
                "ts": "1585371991.064700"
            }
        ],
        "subscribed": false,
        "reactions": [
            {
                "name": "open_mouth",
                "users": [
                    "U010BMYLX36"
                ],
                "count": 1
            }
        ]
    },
    {
        "client_msg_id": "450ccbfc-9709-4b50-9e65-4cc700a4c479",
        "type": "message",
        "text": "<https:\/\/www.linkedin.com\/posts\/keyhanimo_home-activity-6649354790323187712-isrU>",
        "user": "UVC7J1K7Y",
        "ts": "1585329950.061500",
        "team": "TUU48M0T1",
        "user_team": "TUU48M0T1",
        "source_team": "TUU48M0T1",
        "user_profile": {
            "avatar_hash": "25366518f42c",
            "image_72": "https:\/\/avatars.slack-edge.com\/2020-03-12\/995707246548_25366518f42c2b4ddd3c_72.jpg",
            "first_name": "JaswinderBrar",
            "real_name": "JaswinderBrar",
            "display_name": "JaswinderBrar",
            "team": "TUU48M0T1",
            "name": "jaswindersbrar123",
            "is_restricted": false,
            "is_ultra_restricted": false
        },
        "attachments": [
            {
                "title": "Mohammad Keyhani posted on LinkedIn",
                "title_link": "https:\/\/www.linkedin.com\/posts\/keyhanimo_home-activity-6649354790323187712-isrU",
                "text": "Look what we have here, Startups Against Coronavirus: <https:\/\/lnkd.in\/ezB5ic7> #startupchats #startup #innovation #technology #COVID19 #StartupsAgainstCoronavirus...",
                "fallback": "Mohammad Keyhani posted on LinkedIn",
                "thumb_url": "https:\/\/startupsagainstcorona.com\/wp-content\/uploads\/2020\/03\/LinkedinPost.png",
                "from_url": "https:\/\/www.linkedin.com\/posts\/keyhanimo_home-activity-6649354790323187712-isrU",
                "thumb_width": 2770,
                "thumb_height": 1552,
                "service_icon": "https:\/\/static-exp1.licdn.com\/scds\/common\/u\/images\/logos\/favicons\/v1\/favicon.ico",
                "service_name": "linkedin.com",
                "id": 1,
                "original_url": "https:\/\/www.linkedin.com\/posts\/keyhanimo_home-activity-6649354790323187712-isrU"
            }
        ],
        "blocks": [
            {
                "type": "rich_text",
                "block_id": "OTUC",
                "elements": [
                    {
                        "type": "rich_text_section",
                        "elements": [
                            {
                                "type": "link",
                                "url": "https:\/\/www.linkedin.com\/posts\/keyhanimo_home-activity-6649354790323187712-isrU"
                            }
                        ]
                    }
                ]
            }
        ],
        "reactions": [
            {
                "name": "grinning",
                "users": [
                    "U0103LPAWQ4",
                    "UVC7J1K7Y"
                ],
                "count": 2
            }
        ]
    },
    {
        "client_msg_id": "a0067c7d-65ab-47c1-b790-90f9fbde4f06",
        "type": "message",
        "text": "<https:\/\/twitter.com\/MSanchezsWorld\/status\/1243590398142042114?s=20>",
        "user": "UVC7J1K7Y",
        "ts": "1585330130.061800",
        "team": "TUU48M0T1",
        "user_team": "TUU48M0T1",
        "source_team": "TUU48M0T1",
        "user_profile": {
            "avatar_hash": "25366518f42c",
            "image_72": "https:\/\/avatars.slack-edge.com\/2020-03-12\/995707246548_25366518f42c2b4ddd3c_72.jpg",
            "first_name": "JaswinderBrar",
            "real_name": "JaswinderBrar",
            "display_name": "JaswinderBrar",
            "team": "TUU48M0T1",
            "name": "jaswindersbrar123",
            "is_restricted": false,
            "is_ultra_restricted": false
        },
        "blocks": [
            {
                "type": "rich_text",
                "block_id": "=AAK",
                "elements": [
                    {
                        "type": "rich_text_section",
                        "elements": [
                            {
                                "type": "link",
                                "url": "https:\/\/twitter.com\/MSanchezsWorld\/status\/1243590398142042114?s=20"
                            }
                        ]
                    }
                ]
            }
        ]
    },
    {
        "client_msg_id": "01517ca7-6b87-4527-b4f3-5fbab9722423",
        "type": "message",
        "text": "Hi everyone. The proj_dev_endgame team is looking for help with finding facts for a serious\/educational game to help educate the public about how to stay safe. If you know of any relevant resources we should use or if you would like to help fact-check, please see our channel ( <#C01044Q28UB|proj-dev-edgame> ) and feel free to add to this resource:\n<https:\/\/docs.google.com\/document\/d\/1FeSb09gCg9Rqt21-r9GqKTULR47_zH60zDBqalg7qOo\/edit?usp=sharing>",
        "user": "U0103LPAWQ4",
        "ts": "1585364479.064300",
        "team": "TUU48M0T1",
        "user_team": "TUU48M0T1",
        "source_team": "TUU48M0T1",
        "user_profile": {
            "avatar_hash": "7b345029e813",
            "image_72": "https:\/\/avatars.slack-edge.com\/2020-03-17\/1004213082549_7b345029e8137cbdc6b0_72.jpg",
            "first_name": "Bre",
            "real_name": "Bre",
            "display_name": "Bre",
            "team": "TUU48M0T1",
            "name": "info",
            "is_restricted": false,
            "is_ultra_restricted": false
        },
        "blocks": [
            {
                "type": "rich_text",
                "block_id": "R3r",
                "elements": [
                    {
                        "type": "rich_text_section",
                        "elements": [
                            {
                                "type": "text",
                                "text": "Hi everyone. The proj_dev_endgame team is looking for help with finding facts for a serious\/educational game to help educate the public about how to stay safe. If you know of any relevant resources we should use or if you would like to help fact-check, please see our channel ( "
                            },
                            {
                                "type": "channel",
                                "channel_id": "C01044Q28UB"
                            },
                            {
                                "type": "text",
                                "text": " ) and feel free to add to this resource:\n"
                            },
                            {
                                "type": "link",
                                "url": "https:\/\/docs.google.com\/document\/d\/1FeSb09gCg9Rqt21-r9GqKTULR47_zH60zDBqalg7qOo\/edit?usp=sharing"
                            }
                        ]
                    }
                ]
            }
        ]
    },
    {
        "client_msg_id": "1ad0ddac-4962-493a-8be0-51ff619aba77",
        "type": "message",
        "text": "I love seeing something so out of the box",
        "user": "UV87UQ37A",
        "ts": "1585371980.064500",
        "team": "TUU48M0T1",
        "user_team": "TUU48M0T1",
        "source_team": "TUU48M0T1",
        "user_profile": {
            "avatar_hash": "g7c78d2f0258",
            "image_72": "https:\/\/secure.gravatar.com\/avatar\/7c78d2f0258f7bdf78a86301cfd6b712.jpg?s=72&d=https%3A%2F%2Fa.slack-edge.com%2Fdf10d%2Fimg%2Favatars%2Fava_0014-72.png",
            "first_name": "Victoria",
            "real_name": "Victoria Costa",
            "display_name": "Victoria Costa",
            "team": "TUU48M0T1",
            "name": "victorycoast",
            "is_restricted": false,
            "is_ultra_restricted": false
        },
        "blocks": [
            {
                "type": "rich_text",
                "block_id": "ycE",
                "elements": [
                    {
                        "type": "rich_text_section",
                        "elements": [
                            {
                                "type": "text",
                                "text": "I love seeing something so out of the box"
                            }
                        ]
                    }
                ]
            }
        ],
        "thread_ts": "1585329805.061300",
        "parent_user_id": "U010L8GHA4B",
        "reactions": [
            {
                "name": "heart_eyes",
                "users": [
                    "UV3URUKK5"
                ],
                "count": 1
            }
        ]
    },
    {
        "client_msg_id": "467cb0af-2c1d-4459-811b-4e0fc8830d34",
        "type": "message",
        "text": "did anyone ever respond to this?",
        "user": "UV87UQ37A",
        "ts": "1585371991.064700",
        "team": "TUU48M0T1",
        "user_team": "TUU48M0T1",
        "source_team": "TUU48M0T1",
        "user_profile": {
            "avatar_hash": "g7c78d2f0258",
            "image_72": "https:\/\/secure.gravatar.com\/avatar\/7c78d2f0258f7bdf78a86301cfd6b712.jpg?s=72&d=https%3A%2F%2Fa.slack-edge.com%2Fdf10d%2Fimg%2Favatars%2Fava_0014-72.png",
            "first_name": "Victoria",
            "real_name": "Victoria Costa",
            "display_name": "Victoria Costa",
            "team": "TUU48M0T1",
            "name": "victorycoast",
            "is_restricted": false,
            "is_ultra_restricted": false
        },
        "blocks": [
            {
                "type": "rich_text",
                "block_id": "Atkm",
                "elements": [
                    {
                        "type": "rich_text_section",
                        "elements": [
                            {
                                "type": "text",
                                "text": "did anyone ever respond to this?"
                            }
                        ]
                    }
                ]
            }
        ],
        "thread_ts": "1585329805.061300",
        "parent_user_id": "U010L8GHA4B"
    },
    {
        "client_msg_id": "fb7403bd-dcde-4f21-aefe-a73d16a3461d",
        "type": "message",
        "text": "<https:\/\/twitter.com\/HillmanLab\/status\/1243700228722753536>",
        "user": "UVDCTDP8B",
        "ts": "1585374152.065000",
        "team": "TUU48M0T1",
        "user_team": "TUU48M0T1",
        "source_team": "TUU48M0T1",
        "user_profile": {
            "avatar_hash": "b9681d276810",
            "image_72": "https:\/\/avatars.slack-edge.com\/2020-03-21\/1018866726103_b9681d2768103ad056d7_72.jpg",
            "first_name": "",
            "real_name": "Wesley",
            "display_name": "Wesley",
            "team": "TUU48M0T1",
            "name": "someprogrammerorsomet",
            "is_restricted": false,
            "is_ultra_restricted": false
        },
        "blocks": [
            {
                "type": "rich_text",
                "block_id": "if65",
                "elements": [
                    {
                        "type": "rich_text_section",
                        "elements": [
                            {
                                "type": "link",
                                "url": "https:\/\/twitter.com\/HillmanLab\/status\/1243700228722753536"
                            }
                        ]
                    }
                ]
            }
        ]
    },
    {
        "client_msg_id": "03d853f9-e6cb-444b-83a5-071d1660a4ba",
        "type": "message",
        "text": "<https:\/\/nycmakesppe.now.sh\/>",
        "user": "UVDCTDP8B",
        "ts": "1585374270.065300",
        "team": "TUU48M0T1",
        "user_team": "TUU48M0T1",
        "source_team": "TUU48M0T1",
        "user_profile": {
            "avatar_hash": "b9681d276810",
            "image_72": "https:\/\/avatars.slack-edge.com\/2020-03-21\/1018866726103_b9681d2768103ad056d7_72.jpg",
            "first_name": "",
            "real_name": "Wesley",
            "display_name": "Wesley",
            "team": "TUU48M0T1",
            "name": "someprogrammerorsomet",
            "is_restricted": false,
            "is_ultra_restricted": false
        },
        "attachments": [
            {
                "title": "NYC Makes PPE",
                "title_link": "https:\/\/nycmakesppe.now.sh\/",
                "text": "NYC Makes PPE is a group of makers and healthcare professionals in NYC leveraging DIY manufacturing technology to support PPE production in NYC and worldwide.",
                "fallback": "NYC Makes PPE",
                "from_url": "https:\/\/nycmakesppe.now.sh\/",
                "service_name": "nycmakesppe.now.sh",
                "id": 1,
                "original_url": "https:\/\/nycmakesppe.now.sh\/"
            }
        ],
        "blocks": [
            {
                "type": "rich_text",
                "block_id": "tQOu",
                "elements": [
                    {
                        "type": "rich_text_section",
                        "elements": [
                            {
                                "type": "link",
                                "url": "https:\/\/nycmakesppe.now.sh\/"
                            }
                        ]
                    }
                ]
            }
        ]
    },
    {
        "client_msg_id": "10797430-40b2-415f-b238-06a90e18bddb",
        "type": "message",
        "text": "<https:\/\/blog.google\/inside-google\/company-announcements\/commitment-support-small-businesses-and-crisis-response-covid-19>",
        "user": "UVDCTDP8B",
        "ts": "1585375058.065600",
        "team": "TUU48M0T1",
        "user_team": "TUU48M0T1",
        "source_team": "TUU48M0T1",
        "user_profile": {
            "avatar_hash": "b9681d276810",
            "image_72": "https:\/\/avatars.slack-edge.com\/2020-03-21\/1018866726103_b9681d2768103ad056d7_72.jpg",
            "first_name": "",
            "real_name": "Wesley",
            "display_name": "Wesley",
            "team": "TUU48M0T1",
            "name": "someprogrammerorsomet",
            "is_restricted": false,
            "is_ultra_restricted": false
        },
        "attachments": [
            {
                "service_name": "Google",
                "title": "COVID-19: $800+ million to support small businesses and crisis response",
                "title_link": "https:\/\/blog.google\/inside-google\/company-announcements\/commitment-support-small-businesses-and-crisis-response-covid-19",
                "text": "Our commitment to support small- and medium-sized businesses, health organizations and governments, and health workers.",
                "fallback": "Google: COVID-19: $800+ million to support small businesses and crisis response",
                "image_url": "https:\/\/storage.googleapis.com\/gweb-uniblog-publish-prod\/images\/community.max-1300x1300.jpg",
                "ts": 1585292400,
                "from_url": "https:\/\/blog.google\/inside-google\/company-announcements\/commitment-support-small-businesses-and-crisis-response-covid-19",
                "image_width": 514,
                "image_height": 250,
                "image_bytes": 47161,
                "service_icon": "https:\/\/blog.google\/favicon.ico",
                "id": 1,
                "original_url": "https:\/\/blog.google\/inside-google\/company-announcements\/commitment-support-small-businesses-and-crisis-response-covid-19"
            }
        ],
        "blocks": [
            {
                "type": "rich_text",
                "block_id": "xkHgA",
                "elements": [
                    {
                        "type": "rich_text_section",
                        "elements": [
                            {
                                "type": "link",
                                "url": "https:\/\/blog.google\/inside-google\/company-announcements\/commitment-support-small-businesses-and-crisis-response-covid-19"
                            }
                        ]
                    }
                ]
            }
        ]
    },
    {
        "client_msg_id": "bc2613af-d19b-4c43-bb9a-d7a363062c0b",
        "type": "message",
        "text": "Hey, stumbled upon this and potential discussion from end users of different self-quantifying, automated\/wearble devices like temperature, sleep, blood sugar tracking, etc, etc\n\n<https:\/\/forum.quantifiedself.com\/t\/quantified-self-and-covid-19\/7913>\n-&gt; <https:\/\/www.lesswrong.com\/posts\/6kj6cbcsMQFt4ntd9\/using-the-quantified-self-paradigma-for-covid-19>\n\n<https:\/\/forum.quantifiedself.com\/>\n\n<https:\/\/forum.quantifiedself.com\/t\/synching-exporting-body-temperature-data\/4514>\n\n<https:\/\/forum.quantifiedself.com\/t\/synching-exporting-body-temperature-data\/4514>",
        "user": "UVDCTDP8B",
        "ts": "1585376907.066100",
        "team": "TUU48M0T1",
        "user_team": "TUU48M0T1",
        "source_team": "TUU48M0T1",
        "user_profile": {
            "avatar_hash": "b9681d276810",
            "image_72": "https:\/\/avatars.slack-edge.com\/2020-03-21\/1018866726103_b9681d2768103ad056d7_72.jpg",
            "first_name": "",
            "real_name": "Wesley",
            "display_name": "Wesley",
            "team": "TUU48M0T1",
            "name": "someprogrammerorsomet",
            "is_restricted": false,
            "is_ultra_restricted": false
        },
        "attachments": [
            {
                "service_name": "Quantified Self Forum",
                "title": "Quantified Self and COVID-19",
                "title_link": "https:\/\/forum.quantifiedself.com\/t\/quantified-self-and-covid-19\/7913",
                "text": "I wrote an article on LessWrong about how QS can help in the first against COVID-19: <https:\/\/www.lesswrong.com\/posts\/6kj6cbcsMQFt4ntd9\/using-the-quantified-self-paradigma-for-covid-19>",
                "fallback": "Quantified Self Forum: Quantified Self and COVID-19",
                "thumb_url": "https:\/\/forum.quantifiedself.com\/images\/discourse-logo-sketch-small.png",
                "fields": [
                    {
                        "title": "Reading time",
                        "value": "1 mins :clock2:",
                        "short": true
                    },
                    {
                        "title": "Likes",
                        "value": "2 :heart:",
                        "short": true
                    }
                ],
                "ts": 1584962024,
                "from_url": "https:\/\/forum.quantifiedself.com\/t\/quantified-self-and-covid-19\/7913",
                "thumb_width": 512,
                "thumb_height": 512,
                "service_icon": "https:\/\/forum.quantifiedself.com\/uploads\/default\/optimized\/2X\/5\/58c9d19662da7cd8c2149f1bf632d03ce4e3546d_2_180x180.png",
                "id": 1,
                "original_url": "https:\/\/forum.quantifiedself.com\/t\/quantified-self-and-covid-19\/7913"
            },
            {
                "title": "Using the Quantified Self paradigma for COVID-19 - LessWrong 2.0",
                "title_link": "https:\/\/www.lesswrong.com\/posts\/6kj6cbcsMQFt4ntd9\/using-the-quantified-self-paradigma-for-covid-19",
                "text": "Petri Hollmén [<https:\/\/www.facebook.com\/petrihollmen\/posts\/10156628875511933>] traveled to Tyrol on the 5th of March. He had a bottle of hand sanitizer with him, used it a lot and washed his hands like never before. Sunday, the 8th he returned home to hear a day afterwards that Tyrol was declared a COVID-19 epidemic area. He decided to work from home given the higher risk of having been in an epidemic area. On Thursday the 12th he woke up feeling normal but his Oura ring measured that his readiness [<https:\/\/ouraring.com\/readiness-score>] was down to 54 from being normally at 80-90 which was mostly due to having a 1°C elevated temperature at his finger at night. Even though he felt normal, he went to the doctor and given that he was from an epidemic area, they decided to test him. He tested positive and went to self-quarantine for 14 days. He measured his temperature several times during the following day and it always came back with 36.5°C. The Oura ring provided evidence that led to his diagnosis that wouldn't have been available otherwise. While he didn’t have true fever as defined by the official gold standard he did have a kind of clinical relevant fever. It’s my impression that our medical community is too focused on their gold standards that are based on old and outdated technology like mercurial thermometers. Even when new measurements like nightly finger temperature don’t match with the gold standard there are still cases where the information allows for better clinical decision making. Today, we have cheap sensors and machine learning that provide us with a different context of making medical decisions then going to the doctors office. Testing by doctors is very important in the fight against COVID-19 but people need to know when it’s time to go to the doctor. Hollmén needed his Oura to know that it was time to get tested professionally. We need to get good at catching cases of COVID-19 as fast as possible when they happen in the wild if we want t",
                "fallback": "Using the Quantified Self paradigma for COVID-19 - LessWrong 2.0",
                "thumb_url": "https:\/\/res.cloudinary.com\/lesswrong-2-0\/image\/upload\/v1503704344\/sequencesgrid\/h6vrwdypijqgsop7xwa0.jpg",
                "from_url": "https:\/\/www.lesswrong.com\/posts\/6kj6cbcsMQFt4ntd9\/using-the-quantified-self-paradigma-for-covid-19",
                "thumb_width": 696,
                "thumb_height": 274,
                "service_icon": "https:\/\/res.cloudinary.com\/lesswrong-2-0\/image\/upload\/v1497915096\/favicon_lncumn.ico",
                "service_name": "lesswrong.com",
                "id": 2,
                "original_url": "https:\/\/www.lesswrong.com\/posts\/6kj6cbcsMQFt4ntd9\/using-the-quantified-self-paradigma-for-covid-19"
            },
            {
                "title": "Quantified Self Forum",
                "title_link": "https:\/\/forum.quantifiedself.com\/",
                "text": "The largest online QS community for self-trackers",
                "fallback": "Quantified Self Forum",
                "thumb_url": "https:\/\/forum.quantifiedself.com\/images\/discourse-logo-sketch-small.png",
                "from_url": "https:\/\/forum.quantifiedself.com\/",
                "thumb_width": 512,
                "thumb_height": 512,
                "service_icon": "https:\/\/forum.quantifiedself.com\/uploads\/default\/optimized\/2X\/5\/58c9d19662da7cd8c2149f1bf632d03ce4e3546d_2_180x180.png",
                "service_name": "forum.quantifiedself.com",
                "id": 3,
                "original_url": "https:\/\/forum.quantifiedself.com\/"
            },
            {
                "service_name": "Quantified Self Forum",
                "title": "Synching\/Exporting Body Temperature Data",
                "title_link": "https:\/\/forum.quantifiedself.com\/t\/synching-exporting-body-temperature-data\/4514",
                "text": "Hi all, I am on a quest to replace all of my ordinary medical devices with smart devices that log and synch with an app or can transfer data. Most recently, I purchased several “smart” thermometers. But I have found them to be less useful than I had hoped. What follows is my review of them and my personal pros and cons of each. Kinsa - the UI in the app is pretty good, but the thermometer only takes readings while physically connected to the phone. CVS OUcare - the thermometer itself is ju...",
                "fallback": "Quantified Self Forum: Synching\/Exporting Body Temperature Data",
                "thumb_url": "https:\/\/forum.quantifiedself.com\/images\/discourse-logo-sketch-small.png",
                "fields": [
                    {
                        "title": "Reading time",
                        "value": "3 mins :clock2:",
                        "short": true
                    },
                    {
                        "title": "Likes",
                        "value": "5 :heart:",
                        "short": true
                    }
                ],
                "ts": 1506514357,
                "from_url": "https:\/\/forum.quantifiedself.com\/t\/synching-exporting-body-temperature-data\/4514",
                "thumb_width": 512,
                "thumb_height": 512,
                "service_icon": "https:\/\/forum.quantifiedself.com\/uploads\/default\/optimized\/2X\/5\/58c9d19662da7cd8c2149f1bf632d03ce4e3546d_2_180x180.png",
                "id": 4,
                "original_url": "https:\/\/forum.quantifiedself.com\/t\/synching-exporting-body-temperature-data\/4514"
            }
        ],
        "blocks": [
            {
                "type": "rich_text",
                "block_id": "ELO",
                "elements": [
                    {
                        "type": "rich_text_section",
                        "elements": [
                            {
                                "type": "text",
                                "text": "Hey, stumbled upon this and potential discussion from end users of different self-quantifying, automated\/wearble devices like temperature, sleep, blood sugar tracking, etc, etc\n\n"
                            },
                            {
                                "type": "link",
                                "url": "https:\/\/forum.quantifiedself.com\/t\/quantified-self-and-covid-19\/7913"
                            },
                            {
                                "type": "text",
                                "text": "\n-> "
                            },
                            {
                                "type": "link",
                                "url": "https:\/\/www.lesswrong.com\/posts\/6kj6cbcsMQFt4ntd9\/using-the-quantified-self-paradigma-for-covid-19"
                            },
                            {
                                "type": "text",
                                "text": "\n\n"
                            },
                            {
                                "type": "link",
                                "url": "https:\/\/forum.quantifiedself.com\/"
                            },
                            {
                                "type": "text",
                                "text": "\n\n"
                            },
                            {
                                "type": "link",
                                "url": "https:\/\/forum.quantifiedself.com\/t\/synching-exporting-body-temperature-data\/4514"
                            },
                            {
                                "type": "text",
                                "text": "\n\n"
                            },
                            {
                                "type": "link",
                                "url": "https:\/\/forum.quantifiedself.com\/t\/synching-exporting-body-temperature-data\/4514"
                            }
                        ]
                    }
                ]
            }
        ]
    }
]