[
    {
        "client_msg_id": "72569D10-372A-456D-A80A-296CBD293FB6",
        "type": "message",
        "text": "Interesting call from a lab in Berlin for getting help to do the PCR tests\n\n<https:\/\/www.surveymonkey.de\/r\/WL22F5Z|https:\/\/www.surveymonkey.de\/r\/WL22F5Z>",
        "user": "UV02WET96",
        "ts": "1584693449.416800",
        "team": "TUU48M0T1",
        "user_team": "TUU48M0T1",
        "source_team": "TUU48M0T1",
        "user_profile": {
            "avatar_hash": "a99c74a194f8",
            "image_72": "https:\/\/avatars.slack-edge.com\/2020-03-07\/975708504851_a99c74a194f86715ca7d_72.png",
            "first_name": "Thomas",
            "real_name": "Thomas Landrain",
            "display_name": "Thomas Landrain - JOGL CoFounder \/ CEO",
            "team": "TUU48M0T1",
            "name": "thomas",
            "is_restricted": false,
            "is_ultra_restricted": false
        },
        "attachments": [
            {
                "title": "Can you help?",
                "title_link": "https:\/\/www.surveymonkey.de\/r\/WL22F5Z",
                "text": "Take this survey powered by <http:\/\/surveymonkey.com|surveymonkey.com>. Create your own surveys for free.",
                "fallback": "Can you help?",
                "image_url": "https:\/\/www.surveymonkey.de\/collect\/images\/default_custom_meta_image.jpg",
                "from_url": "https:\/\/www.surveymonkey.de\/r\/WL22F5Z",
                "image_width": 478,
                "image_height": 250,
                "image_bytes": 251248,
                "service_icon": "https:\/\/www.surveymonkey.de\/favicon1.ico",
                "service_name": "surveymonkey.de",
                "id": 1,
                "original_url": "https:\/\/www.surveymonkey.de\/r\/WL22F5Z"
            }
        ],
        "blocks": [
            {
                "type": "rich_text",
                "block_id": "FrAKz",
                "elements": [
                    {
                        "type": "rich_text_section",
                        "elements": [
                            {
                                "type": "text",
                                "text": "Interesting call from a lab in Berlin for getting help to do the PCR tests\n\n"
                            },
                            {
                                "type": "link",
                                "url": "https:\/\/www.surveymonkey.de\/r\/WL22F5Z",
                                "text": "https:\/\/www.surveymonkey.de\/r\/WL22F5Z"
                            }
                        ]
                    }
                ]
            }
        ]
    },
    {
        "client_msg_id": "2d2fca80-bb35-4a9e-8cbd-8e77b767ecc3",
        "type": "message",
        "text": "<https:\/\/www.opencell.bio\/news\/covid-testing-update>",
        "user": "UV7AZH728",
        "ts": "1584704904.418000",
        "team": "TUU48M0T1",
        "user_team": "TUU48M0T1",
        "source_team": "TUU48M0T1",
        "user_profile": {
            "avatar_hash": "g3a93d1b5438",
            "image_72": "https:\/\/secure.gravatar.com\/avatar\/3a93d1b54386d7d5f4abceccfd7414e5.jpg?s=72&d=https%3A%2F%2Fa.slack-edge.com%2Fdf10d%2Fimg%2Favatars%2Fava_0013-72.png",
            "first_name": "",
            "real_name": "Tom Meany",
            "display_name": "Tom Meany",
            "team": "TUU48M0T1",
            "name": "covid19",
            "is_restricted": false,
            "is_ultra_restricted": false
        },
        "attachments": [
            {
                "title": "COVID testing UPDATE",
                "title_link": "https:\/\/www.opencell.bio\/news\/covid-testing-update",
                "text": "Testing saves lives. Every person caring for a vulnerable individual needs daily testing. Every hero working at the front lines in hospitals needs daily testing. Every bus driver, postal worker, and shop keeper who takes risks to keep our society going needs daily testing. This is a once in a century pandemic and we need action. We need to urge policy makers in the UK and elsewhere to permit “emergency use authorisation” guidelines so that we can lower the strict standards currently required and accelerate test deployment. There are four main options for testing",
                "fallback": "COVID testing UPDATE",
                "thumb_url": "https:\/\/uploads-ssl.webflow.com\/5beda5254920653278723f22\/5e74a8d431a71385abb6718a_Screen%20Shot%202020-03-20%20at%2011.27.41.png",
                "from_url": "https:\/\/www.opencell.bio\/news\/covid-testing-update",
                "thumb_width": 2500,
                "thumb_height": 1440,
                "service_name": "opencell.bio",
                "id": 1,
                "original_url": "https:\/\/www.opencell.bio\/news\/covid-testing-update"
            }
        ],
        "blocks": [
            {
                "type": "rich_text",
                "block_id": "Pj6",
                "elements": [
                    {
                        "type": "rich_text_section",
                        "elements": [
                            {
                                "type": "link",
                                "url": "https:\/\/www.opencell.bio\/news\/covid-testing-update"
                            }
                        ]
                    }
                ]
            }
        ],
        "reactions": [
            {
                "name": "+1",
                "users": [
                    "UUWPKNE2E",
                    "UV02WET96",
                    "UVC7J1K7Y"
                ],
                "count": 3
            }
        ]
    },
    {
        "client_msg_id": "869dbb92-f4aa-4772-ba30-95b7b8247866",
        "type": "message",
        "text": "A human to send them to who will put them to good use.  My sister wants to make these but wasn't sure how to find someone who will get them to healthcare workers.  I'll let her know if the interest.",
        "user": "UV0FQT2QL",
        "ts": "1584707913.418800",
        "team": "TUU48M0T1",
        "user_team": "TUU48M0T1",
        "source_team": "TUU48M0T1",
        "user_profile": {
            "avatar_hash": "75f46697d2ad",
            "image_72": "https:\/\/avatars.slack-edge.com\/2020-03-07\/986957273572_75f46697d2ad18fdd4cd_72.jpg",
            "first_name": "Rachel",
            "real_name": "Rachel Andrex",
            "display_name": "Rachel",
            "team": "TUU48M0T1",
            "name": "rachelandrex",
            "is_restricted": false,
            "is_ultra_restricted": false
        },
        "thread_ts": "1584664626.406300",
        "parent_user_id": "UV0FQT2QL"
    },
    {
        "client_msg_id": "FCEDE10D-3D5B-408C-9BEC-08D1A22FF9E4",
        "type": "message",
        "text": "saw this yet?  <https:\/\/mailchi.mp\/fountainhopper\/foho-102student-claims-to-run-bootleg-covid-19-testing-lab-50-stanford-affiliates-allegedly-tested-more-news-you-can-use?e=%5BUNIQID|https:\/\/mailchi.mp\/fountainhopper\/foho-102student-claims-to-run-bootleg-covid-19-testing-lab-50-stanford-affiliates-allegedly-tested-more-news-you-can-use?e=[UNIQID>]",
        "user": "UV1A22N3W",
        "ts": "1584708445.419500",
        "team": "TUU48M0T1",
        "user_team": "TUU48M0T1",
        "source_team": "TUU48M0T1",
        "user_profile": {
            "avatar_hash": "71f827776ad6",
            "image_72": "https:\/\/avatars.slack-edge.com\/2020-03-09\/988125642964_71f827776ad610af05a2_72.jpg",
            "first_name": "",
            "real_name": "RachelA",
            "display_name": "RachelA",
            "team": "TUU48M0T1",
            "name": "raronoff",
            "is_restricted": false,
            "is_ultra_restricted": false
        },
        "blocks": [
            {
                "type": "rich_text",
                "block_id": "aRqrn",
                "elements": [
                    {
                        "type": "rich_text_section",
                        "elements": [
                            {
                                "type": "text",
                                "text": "saw this yet?  "
                            },
                            {
                                "type": "link",
                                "url": "https:\/\/mailchi.mp\/fountainhopper\/foho-102student-claims-to-run-bootleg-covid-19-testing-lab-50-stanford-affiliates-allegedly-tested-more-news-you-can-use?e=%5BUNIQID",
                                "text": "https:\/\/mailchi.mp\/fountainhopper\/foho-102student-claims-to-run-bootleg-covid-19-testing-lab-50-stanford-affiliates-allegedly-tested-more-news-you-can-use?e=[UNIQID"
                            },
                            {
                                "type": "text",
                                "text": "]"
                            }
                        ]
                    }
                ]
            }
        ]
    },
    {
        "client_msg_id": "1D7FF42D-FA5C-43E2-AAE1-A77E16B3EEE9",
        "type": "message",
        "text": "If she can get a lot made, I’ll pay for shipping to get it to Tacoma. Here is another WA hospital asking for homemade masks: <https:\/\/komonews.com\/news\/coronavirus\/providence-hospital-asking-for-volunteers-to-sew-medical-masks-to-battle-coronavirus|https:\/\/komonews.com\/news\/coronavirus\/providence-hospital-asking-for-volunteers-to-sew-medical-masks-to-battle-coronavirus>",
        "user": "U0109T1DV9T",
        "ts": "1584709045.421800",
        "team": "TUU48M0T1",
        "user_team": "TUU48M0T1",
        "source_team": "TUU48M0T1",
        "user_profile": {
            "avatar_hash": "0e741d71262c",
            "image_72": "https:\/\/avatars.slack-edge.com\/2020-03-18\/1012114282886_0e741d71262c690a9183_72.jpg",
            "first_name": "",
            "real_name": "Judy Nguyen",
            "display_name": "Judy Nguyen",
            "team": "TUU48M0T1",
            "name": "judy.v.nguyen",
            "is_restricted": false,
            "is_ultra_restricted": false
        },
        "attachments": [
            {
                "service_name": "KOMO",
                "title": "Providence Hospital asking for volunteers to sew medical masks to battle coronavirus",
                "title_link": "https:\/\/komonews.com\/news\/coronavirus\/providence-hospital-asking-for-volunteers-to-sew-medical-masks-to-battle-coronavirus",
                "text": "The looming medical supply shortage facing healthcare workers on the frontlines of the coronavirus battle has one local hospital asking for volunteers to make its own medical masks. As part of its \"100 Million Mask Challenge\" Providence Hospital is beginning its efforts to combat the shortage of medical masks. The hospital is asking for volunteers with the ability to sew and has a sewing machine at home to make at least 100 masks.",
                "fallback": "KOMO: Providence Hospital asking for volunteers to sew medical masks to battle coronavirus",
                "image_url": "http:\/\/static-34.sinclairstoryline.com\/resources\/media\/973d2af8-8bf3-47cc-bd48-152cdaabebf6-large16x9_ftp30providencehospitalrodentsnick430pkgnpp_frame_1072.jpg?1584682820944",
                "ts": 1584657672,
                "from_url": "https:\/\/komonews.com\/news\/coronavirus\/providence-hospital-asking-for-volunteers-to-sew-medical-masks-to-battle-coronavirus",
                "image_width": 444,
                "image_height": 250,
                "image_bytes": 367616,
                "service_icon": "http:\/\/static-36.sinclairstoryline.com\/resources\/assets\/komo\/images\/logos\/favicon.ico",
                "id": 1,
                "original_url": "https:\/\/komonews.com\/news\/coronavirus\/providence-hospital-asking-for-volunteers-to-sew-medical-masks-to-battle-coronavirus"
            }
        ],
        "blocks": [
            {
                "type": "rich_text",
                "block_id": "ZGt2p",
                "elements": [
                    {
                        "type": "rich_text_section",
                        "elements": [
                            {
                                "type": "text",
                                "text": "If she can get a lot made, I’ll pay for shipping to get it to Tacoma. Here is another WA hospital asking for homemade masks: "
                            },
                            {
                                "type": "link",
                                "url": "https:\/\/komonews.com\/news\/coronavirus\/providence-hospital-asking-for-volunteers-to-sew-medical-masks-to-battle-coronavirus",
                                "text": "https:\/\/komonews.com\/news\/coronavirus\/providence-hospital-asking-for-volunteers-to-sew-medical-masks-to-battle-coronavirus"
                            }
                        ]
                    }
                ]
            }
        ],
        "thread_ts": "1584664626.406300",
        "parent_user_id": "UV0FQT2QL"
    },
    {
        "client_msg_id": "53F093C7-7918-49CA-87F0-9EF35485928E",
        "type": "message",
        "text": "I think we will see more hospitals making this call soon. That may make it easier for your sister to find a good place to donate to locally. ",
        "user": "U0109T1DV9T",
        "ts": "1584709161.423700",
        "team": "TUU48M0T1",
        "user_team": "TUU48M0T1",
        "source_team": "TUU48M0T1",
        "user_profile": {
            "avatar_hash": "0e741d71262c",
            "image_72": "https:\/\/avatars.slack-edge.com\/2020-03-18\/1012114282886_0e741d71262c690a9183_72.jpg",
            "first_name": "",
            "real_name": "Judy Nguyen",
            "display_name": "Judy Nguyen",
            "team": "TUU48M0T1",
            "name": "judy.v.nguyen",
            "is_restricted": false,
            "is_ultra_restricted": false
        },
        "blocks": [
            {
                "type": "rich_text",
                "block_id": "81Z",
                "elements": [
                    {
                        "type": "rich_text_section",
                        "elements": [
                            {
                                "type": "text",
                                "text": "I think we will see more hospitals making this call soon. That may make it easier for your sister to find a good place to donate to locally. "
                            }
                        ]
                    }
                ]
            }
        ],
        "thread_ts": "1584664626.406300",
        "parent_user_id": "UV0FQT2QL"
    },
    {
        "client_msg_id": "a51ae849-e3ee-4c04-832b-cbca2aca84a6",
        "type": "message",
        "text": "I tried to understand what this is yesterday and I think they are taking some responsibility for this preprint: <https:\/\/www.medrxiv.org\/content\/10.1101\/2020.02.26.20028373v1> its the colorimetric LAMP, which everyone who I know has tried is very finicky and gives a very small window of detection a few minutes difference between a positive and negative",
        "user": "UV7LUJG1Y",
        "ts": "1584709493.424100",
        "team": "TUU48M0T1",
        "user_team": "TUU48M0T1",
        "source_team": "TUU48M0T1",
        "user_profile": {
            "avatar_hash": "048307b17644",
            "image_72": "https:\/\/avatars.slack-edge.com\/2020-04-04\/1043242365313_048307b17644844abd87_72.jpg",
            "first_name": "",
            "real_name": "Guy Aidelberg",
            "display_name": "Guy Aidelberg",
            "team": "TUU48M0T1",
            "name": "guyaidelberg",
            "is_restricted": false,
            "is_ultra_restricted": false
        },
        "attachments": [
            {
                "service_name": "medRxiv",
                "title": "Rapid Molecular Detection of SARS-CoV-2 (COVID-19) Virus RNA Using Colorimetric LAMP",
                "title_link": "https:\/\/www.medrxiv.org\/content\/10.1101\/2020.02.26.20028373v1",
                "text": "The ability to detect an infectious agent in a widespread epidemic is crucial to the success of quarantine efforts in addition to sensitive and accurate screening of potential cases of infection from patients in a clinical setting. Enabling testing outside of sophisticated laboratories broadens the scope of control and surveillance efforts, but also requires robust and simple methods that can be used without expensive instrumentation. Here we report a method to identify SARS-CoV-2 (COVID-19) virus RNA from purified RNA or cell lysis using loop-mediated isothermal amplification (LAMP) using a visual, colorimetric detection. This test was additionally verified using RNA samples purified from respiratory swabs collected from COVID-19 patients in Wuhan, China with equivalent performance to a commercial RT-qPCR test while requiring only heating and visual inspection. This simple and sensitive method provides an opportunity to facilitate virus detection in the field without a requirement for complex diagnostic infrastructure. ### Competing Interest Statement Authors Zhang, Sun, and Tanner are employed by New England Biolabs, Inc., manufacturer of reagents described in the manuscript. ### Funding Statement Work was funded by New England Biolabs, Inc., Wuhan Institute of Virology, and the Chinese Academy of Sciences ### Author Declarations All relevant ethical guidelines have been followed; any necessary IRB and\/or ethics committee approvals have been obtained and details of the IRB\/oversight body are included in the manuscript. Yes All necessary patient\/participant consent has been obtained and the appropriate institutional forms have been archived. Yes I understand that all clinical trials and any other prospective interventional studies must be registered with an ICMJE-approved registry, such as <http:\/\/ClinicalTrials.gov|ClinicalTrials.gov>. I confirm that any such study reported in the manuscript has been registered and the trial registration ID is provided (note: if posting a prospective study registered retrospectively, please provide a statement in the trial ID field explaining why the study was not registered in advance). Yes I have followed all appropriate research reporting guidelines and uploaded the relevant EQUATOR Network research reporting checklist(s) and other pertinent material as supplementary files, if applicable. Yes No data is required other than what is contained in the manuscript",
                "fallback": "medRxiv: Rapid Molecular Detection of SARS-CoV-2 (COVID-19) Virus RNA Using Colorimetric LAMP",
                "ts": 1582963200,
                "from_url": "https:\/\/www.medrxiv.org\/content\/10.1101\/2020.02.26.20028373v1",
                "service_icon": "https:\/\/www.medrxiv.org\/sites\/default\/files\/images\/favicon.ico",
                "id": 1,
                "original_url": "https:\/\/www.medrxiv.org\/content\/10.1101\/2020.02.26.20028373v1"
            }
        ],
        "blocks": [
            {
                "type": "rich_text",
                "block_id": "O7a8",
                "elements": [
                    {
                        "type": "rich_text_section",
                        "elements": [
                            {
                                "type": "text",
                                "text": "I tried to understand what this is yesterday and I think they are taking some responsibility for this preprint: "
                            },
                            {
                                "type": "link",
                                "url": "https:\/\/www.medrxiv.org\/content\/10.1101\/2020.02.26.20028373v1"
                            },
                            {
                                "type": "text",
                                "text": " its the colorimetric LAMP, which everyone who I know has tried is very finicky and gives a very small window of detection a few minutes difference between a positive and negative"
                            }
                        ]
                    }
                ]
            }
        ],
        "thread_ts": "1584656757.400800",
        "parent_user_id": "U0102U32732"
    },
    {
        "client_msg_id": "1caaf608-e1cb-4677-b3e3-9b5ed77bc588",
        "type": "message",
        "text": "what if there was a ribbon or button to let people be identified in-public if they are *high-risk* for *covid19... it would really help avoid them appropriately!* ",
        "user": "UVC7J1K7Y",
        "ts": "1584711634.425400",
        "team": "TUU48M0T1",
        "user_team": "TUU48M0T1",
        "source_team": "TUU48M0T1",
        "user_profile": {
            "avatar_hash": "25366518f42c",
            "image_72": "https:\/\/avatars.slack-edge.com\/2020-03-12\/995707246548_25366518f42c2b4ddd3c_72.jpg",
            "first_name": "JaswinderBrar",
            "real_name": "JaswinderBrar",
            "display_name": "JaswinderBrar",
            "team": "TUU48M0T1",
            "name": "jaswindersbrar123",
            "is_restricted": false,
            "is_ultra_restricted": false
        },
        "blocks": [
            {
                "type": "rich_text",
                "block_id": "6OSuo",
                "elements": [
                    {
                        "type": "rich_text_section",
                        "elements": [
                            {
                                "type": "text",
                                "text": "what if there was a ribbon or button to let people be identified in-public if they are "
                            },
                            {
                                "type": "text",
                                "text": "high-risk",
                                "style": {
                                    "bold": true
                                }
                            },
                            {
                                "type": "text",
                                "text": " for "
                            },
                            {
                                "type": "text",
                                "text": "covid19... it would really help avoid them appropriately! ",
                                "style": {
                                    "bold": true
                                }
                            }
                        ]
                    }
                ]
            }
        ],
        "thread_ts": "1584711634.425400",
        "reply_count": 4,
        "reply_users_count": 2,
        "latest_reply": "1584758177.446800",
        "reply_users": [
            "UV45T898T",
            "UVC7J1K7Y"
        ],
        "replies": [
            {
                "user": "UV45T898T",
                "ts": "1584721827.431900"
            },
            {
                "user": "UVC7J1K7Y",
                "ts": "1584730815.436700"
            },
            {
                "user": "UV45T898T",
                "ts": "1584731188.438800"
            },
            {
                "user": "UVC7J1K7Y",
                "ts": "1584758177.446800"
            }
        ],
        "subscribed": false,
        "reactions": [
            {
                "name": "bulb",
                "users": [
                    "UVC7J1K7Y",
                    "UV10KBUQG"
                ],
                "count": 2
            },
            {
                "name": "reminder_ribbon",
                "users": [
                    "UVC7J1K7Y"
                ],
                "count": 1
            },
            {
                "name": "free",
                "users": [
                    "UVC7J1K7Y"
                ],
                "count": 1
            },
            {
                "name": "sparkles",
                "users": [
                    "UVC7J1K7Y"
                ],
                "count": 1
            }
        ]
    },
    {
        "client_msg_id": "72b8016c-da4b-4652-b70c-f7a7ac1888a0",
        "type": "message",
        "text": "<https:\/\/www.linkedin.com\/pulse\/free-humanitarian-invention-high-visibility-safety-at-risk-of-brar\/?published=t>",
        "user": "UVC7J1K7Y",
        "ts": "1584712141.426300",
        "team": "TUU48M0T1",
        "user_team": "TUU48M0T1",
        "source_team": "TUU48M0T1",
        "user_profile": {
            "avatar_hash": "25366518f42c",
            "image_72": "https:\/\/avatars.slack-edge.com\/2020-03-12\/995707246548_25366518f42c2b4ddd3c_72.jpg",
            "first_name": "JaswinderBrar",
            "real_name": "JaswinderBrar",
            "display_name": "JaswinderBrar",
            "team": "TUU48M0T1",
            "name": "jaswindersbrar123",
            "is_restricted": false,
            "is_ultra_restricted": false
        },
        "attachments": [
            {
                "title": "Free Humanitarian Invention: The \"High-Visibility-&amp;-Safety:\" At-Risk-Of: COVID-19 Personal Insignia: Badge\/Ribbon.",
                "title_link": "https:\/\/www.linkedin.com\/pulse\/free-humanitarian-invention-high-visibility-safety-at-risk-of-brar\/?published=t",
                "text": "CNN Health Free Helpful Canadian Idea: what if there was a ribbon or button to let people be identified in-public if they are high-risk for covid19..",
                "fallback": "Free Humanitarian Invention: The \"High-Visibility-&amp;-Safety:\" At-Risk-Of: COVID-19 Personal Insignia: Badge\/Ribbon.",
                "image_url": "https:\/\/media-exp1.licdn.com\/dms\/image\/C5612AQGnW9w_ltaAkg\/article-cover_image-shrink_600_2000\/0?e=1590019200&v=beta&t=VxA_ChI09zYZK8gNi7TpYI8qToqIiroNhOhyxYwFgXA",
                "from_url": "https:\/\/www.linkedin.com\/pulse\/free-humanitarian-invention-high-visibility-safety-at-risk-of-brar\/?published=t",
                "image_width": 364,
                "image_height": 250,
                "image_bytes": 74911,
                "service_icon": "https:\/\/static-exp1.licdn.com\/scds\/common\/u\/images\/logos\/favicons\/v1\/favicon.ico",
                "service_name": "linkedin.com",
                "id": 1,
                "original_url": "https:\/\/www.linkedin.com\/pulse\/free-humanitarian-invention-high-visibility-safety-at-risk-of-brar\/?published=t"
            }
        ],
        "blocks": [
            {
                "type": "rich_text",
                "block_id": "fqU0S",
                "elements": [
                    {
                        "type": "rich_text_section",
                        "elements": [
                            {
                                "type": "link",
                                "url": "https:\/\/www.linkedin.com\/pulse\/free-humanitarian-invention-high-visibility-safety-at-risk-of-brar\/?published=t"
                            }
                        ]
                    }
                ]
            }
        ]
    },
    {
        "client_msg_id": "013573ea-a863-41e0-aba5-41c68d4ff1e5",
        "type": "message",
        "text": "share recycle repeat!",
        "user": "UVC7J1K7Y",
        "ts": "1584712155.426700",
        "team": "TUU48M0T1",
        "user_team": "TUU48M0T1",
        "source_team": "TUU48M0T1",
        "user_profile": {
            "avatar_hash": "25366518f42c",
            "image_72": "https:\/\/avatars.slack-edge.com\/2020-03-12\/995707246548_25366518f42c2b4ddd3c_72.jpg",
            "first_name": "JaswinderBrar",
            "real_name": "JaswinderBrar",
            "display_name": "JaswinderBrar",
            "team": "TUU48M0T1",
            "name": "jaswindersbrar123",
            "is_restricted": false,
            "is_ultra_restricted": false
        },
        "blocks": [
            {
                "type": "rich_text",
                "block_id": "hQkf",
                "elements": [
                    {
                        "type": "rich_text_section",
                        "elements": [
                            {
                                "type": "text",
                                "text": "share recycle repeat!"
                            }
                        ]
                    }
                ]
            }
        ]
    },
    {
        "client_msg_id": "a9387649-1e1a-4958-9cee-48db0641575c",
        "type": "message",
        "text": "Anyone have more information on this?\n<https:\/\/www.cnn.com\/2020\/03\/16\/health\/doctors-coronavirus-health-care-hit-harder\/index.html>\n\n```The novel coronavirus seems to hit health care workers harder than others who contract the disease, but it's unclear why,...\"Maybe it's due to a higher dose of virus they're receiving,\" Hotez hypothesized in his Monday interview with CNN ```",
        "user": "U0101204092",
        "ts": "1584715219.428000",
        "team": "TUU48M0T1",
        "user_team": "TUU48M0T1",
        "source_team": "TUU48M0T1",
        "user_profile": {
            "avatar_hash": "gff03b84d3db",
            "image_72": "https:\/\/secure.gravatar.com\/avatar\/ff03b84d3db24da6c29c32ec76963d65.jpg?s=72&d=https%3A%2F%2Fa.slack-edge.com%2Fdf10d%2Fimg%2Favatars%2Fava_0012-72.png",
            "first_name": "",
            "real_name": "Sarah D",
            "display_name": "",
            "team": "TUU48M0T1",
            "name": "syradietrich",
            "is_restricted": false,
            "is_ultra_restricted": false
        },
        "edited": {
            "user": "U0101204092",
            "ts": "1584715233.000000"
        },
        "blocks": [
            {
                "type": "rich_text",
                "block_id": "th8e",
                "elements": [
                    {
                        "type": "rich_text_section",
                        "elements": [
                            {
                                "type": "text",
                                "text": "Anyone have more information on this?\n"
                            },
                            {
                                "type": "link",
                                "url": "https:\/\/www.cnn.com\/2020\/03\/16\/health\/doctors-coronavirus-health-care-hit-harder\/index.html"
                            },
                            {
                                "type": "text",
                                "text": "\n\n"
                            }
                        ]
                    },
                    {
                        "type": "rich_text_preformatted",
                        "elements": [
                            {
                                "type": "text",
                                "text": "The novel coronavirus seems to hit health care workers harder than others who contract the disease, but it's unclear why,...\"Maybe it's due to a higher dose of virus they're receiving,\" Hotez hypothesized in his Monday interview with CNN "
                            }
                        ]
                    }
                ]
            }
        ],
        "thread_ts": "1584715219.428000",
        "reply_count": 1,
        "reply_users_count": 1,
        "latest_reply": "1584715289.428300",
        "reply_users": [
            "U0101204092"
        ],
        "replies": [
            {
                "user": "U0101204092",
                "ts": "1584715289.428300"
            }
        ],
        "subscribed": false
    },
    {
        "type": "message",
        "subtype": "thread_broadcast",
        "text": "Just a social scientist, but some interesting implications here for repeated\/heavy exposure vs light exposure",
        "user": "U0101204092",
        "ts": "1584715289.428300",
        "thread_ts": "1584715219.428000",
        "root": {
            "client_msg_id": "a9387649-1e1a-4958-9cee-48db0641575c",
            "type": "message",
            "text": "Anyone have more information on this?\n<https:\/\/www.cnn.com\/2020\/03\/16\/health\/doctors-coronavirus-health-care-hit-harder\/index.html>\n\n```The novel coronavirus seems to hit health care workers harder than others who contract the disease, but it's unclear why,...\"Maybe it's due to a higher dose of virus they're receiving,\" Hotez hypothesized in his Monday interview with CNN ```",
            "user": "U0101204092",
            "ts": "1584715219.428000",
            "team": "TUU48M0T1",
            "edited": {
                "user": "U0101204092",
                "ts": "1584715233.000000"
            },
            "blocks": [
                {
                    "type": "rich_text",
                    "block_id": "th8e",
                    "elements": [
                        {
                            "type": "rich_text_section",
                            "elements": [
                                {
                                    "type": "text",
                                    "text": "Anyone have more information on this?\n"
                                },
                                {
                                    "type": "link",
                                    "url": "https:\/\/www.cnn.com\/2020\/03\/16\/health\/doctors-coronavirus-health-care-hit-harder\/index.html"
                                },
                                {
                                    "type": "text",
                                    "text": "\n\n"
                                }
                            ]
                        },
                        {
                            "type": "rich_text_preformatted",
                            "elements": [
                                {
                                    "type": "text",
                                    "text": "The novel coronavirus seems to hit health care workers harder than others who contract the disease, but it's unclear why,...\"Maybe it's due to a higher dose of virus they're receiving,\" Hotez hypothesized in his Monday interview with CNN "
                                }
                            ]
                        }
                    ]
                }
            ],
            "thread_ts": "1584715219.428000",
            "reply_count": 1,
            "reply_users_count": 1,
            "latest_reply": "1584715289.428300",
            "reply_users": [
                "U0101204092"
            ],
            "subscribed": false
        },
        "blocks": [
            {
                "type": "rich_text",
                "block_id": "hzQn",
                "elements": [
                    {
                        "type": "rich_text_section",
                        "elements": [
                            {
                                "type": "text",
                                "text": "Just a social scientist, but some interesting implications here for repeated\/heavy exposure vs light exposure"
                            }
                        ]
                    }
                ]
            }
        ],
        "client_msg_id": "0e4d99bf-4582-48d6-8c06-e1682a9d59f9"
    },
    {
        "client_msg_id": "18ff695f-4bcd-4c45-86be-980c37025f3a",
        "type": "message",
        "text": "<https:\/\/www.futurelearn.com\/courses\/covid19-novel-coronavirus?utm_campaign=fl_march_2020&amp;utm_medium=futurelearn_organic_social&amp;utm_source=twitter>",
        "user": "U010CUX7F8U",
        "ts": "1584717342.428700",
        "team": "TUU48M0T1",
        "user_team": "TUU48M0T1",
        "source_team": "TUU48M0T1",
        "user_profile": {
            "avatar_hash": "f1f9da4a50cc",
            "image_72": "https:\/\/avatars.slack-edge.com\/2020-03-19\/1012989388372_f1f9da4a50cc8771a7de_72.png",
            "first_name": "Ali",
            "real_name": "Ali Hendessi",
            "display_name": "Ali",
            "team": "TUU48M0T1",
            "name": "ali",
            "is_restricted": false,
            "is_ultra_restricted": false
        },
        "attachments": [
            {
                "service_name": "FutureLearn",
                "title": "COVID-19 Coronavirus - Online Course - FutureLearn",
                "title_link": "https:\/\/www.futurelearn.com\/courses\/covid19-novel-coronavirus?utm_campaign=fl_march_2020&utm_medium=futurelearn_organic_social&utm_source=twitter",
                "text": "Understand the causes of coronavirus, how coronavirus spreads, and other coronavirus facts in this online course from the London School of Hygiene &amp; Tropical Medicine.",
                "fallback": "FutureLearn: COVID-19 Coronavirus - Online Course - FutureLearn",
                "image_url": "https:\/\/ugc.futurelearn.com\/uploads\/images\/83\/f5\/regular_83f5c0b1-16c2-42e8-ba25-87e83a96cf61.jpg",
                "from_url": "https:\/\/www.futurelearn.com\/courses\/covid19-novel-coronavirus?utm_campaign=fl_march_2020&utm_medium=futurelearn_organic_social&utm_source=twitter",
                "image_width": 375,
                "image_height": 250,
                "image_bytes": 30772,
                "service_icon": "https:\/\/cdn.futurelearn.com\/packs\/app\/assets\/images\/apple-touch-icon-57x57-b029779362bd1a4e0884703a3df786ec.png",
                "id": 1,
                "original_url": "https:\/\/www.futurelearn.com\/courses\/covid19-novel-coronavirus?utm_campaign=fl_march_2020&amp;utm_medium=futurelearn_organic_social&amp;utm_source=twitter"
            }
        ],
        "blocks": [
            {
                "type": "rich_text",
                "block_id": "AafV",
                "elements": [
                    {
                        "type": "rich_text_section",
                        "elements": [
                            {
                                "type": "link",
                                "url": "https:\/\/www.futurelearn.com\/courses\/covid19-novel-coronavirus?utm_campaign=fl_march_2020&utm_medium=futurelearn_organic_social&utm_source=twitter"
                            }
                        ]
                    }
                ]
            }
        ]
    },
    {
        "client_msg_id": "8bb2120e-4540-45dc-95e4-72db01635ad1",
        "type": "message",
        "text": "Free of charge online course run by London School of Hygiene and Tropical Medicine for all those interested in getting a better understanding of the emergence of COVID-19 and how we respond going forward.",
        "user": "U010CUX7F8U",
        "ts": "1584717472.430700",
        "team": "TUU48M0T1",
        "user_team": "TUU48M0T1",
        "source_team": "TUU48M0T1",
        "user_profile": {
            "avatar_hash": "f1f9da4a50cc",
            "image_72": "https:\/\/avatars.slack-edge.com\/2020-03-19\/1012989388372_f1f9da4a50cc8771a7de_72.png",
            "first_name": "Ali",
            "real_name": "Ali Hendessi",
            "display_name": "Ali",
            "team": "TUU48M0T1",
            "name": "ali",
            "is_restricted": false,
            "is_ultra_restricted": false
        },
        "blocks": [
            {
                "type": "rich_text",
                "block_id": "0kv",
                "elements": [
                    {
                        "type": "rich_text_section",
                        "elements": [
                            {
                                "type": "text",
                                "text": "Free of charge online course run by London School of Hygiene and Tropical Medicine for all those interested in getting a better understanding of the emergence of COVID-19 and how we respond going forward."
                            }
                        ]
                    }
                ]
            }
        ]
    },
    {
        "client_msg_id": "02C7880D-1C48-4155-B541-F724A1271687",
        "type": "message",
        "text": "Please Delete this terrible idea. ",
        "user": "UV45T898T",
        "ts": "1584721827.431900",
        "team": "TUU48M0T1",
        "user_team": "TUU48M0T1",
        "source_team": "TUU48M0T1",
        "user_profile": {
            "avatar_hash": "g75422ede6d8",
            "image_72": "https:\/\/secure.gravatar.com\/avatar\/75422ede6d8ad7ef7663d3058364da4b.jpg?s=72&d=https%3A%2F%2Fa.slack-edge.com%2Fdf10d%2Fimg%2Favatars%2Fava_0013-72.png",
            "first_name": "",
            "real_name": "Mike Fried",
            "display_name": "Mike Fried",
            "team": "TUU48M0T1",
            "name": "mike.fried",
            "is_restricted": false,
            "is_ultra_restricted": false
        },
        "thread_ts": "1584711634.425400",
        "parent_user_id": "UVC7J1K7Y"
    },
    {
        "type": "message",
        "subtype": "thread_broadcast",
        "text": "Can someone share instructions for how to make these homemade medical masks? Would like to see if I can get ppl im community to help here with this.",
        "user": "U010H500T2B",
        "ts": "1584724910.432500",
        "thread_ts": "1584664626.406300",
        "root": {
            "client_msg_id": "54817cf3-a31a-4910-be9a-6f65b0046cf6",
            "type": "message",
            "text": "Would anyone here know if healthcare workers would be interested in donations of home made face masks made from fabric that can be washed or autoclaved?",
            "user": "UV0FQT2QL",
            "ts": "1584664626.406300",
            "team": "TUU48M0T1",
            "thread_ts": "1584664626.406300",
            "reply_count": 12,
            "reply_users_count": 5,
            "latest_reply": "1584903345.008200",
            "reply_users": [
                "U0109T1DV9T",
                "UV0FQT2QL",
                "U010H500T2B",
                "UV8FL0JCA",
                "UV8AZ6ABC"
            ],
            "subscribed": false
        },
        "blocks": [
            {
                "type": "rich_text",
                "block_id": "yAOl",
                "elements": [
                    {
                        "type": "rich_text_section",
                        "elements": [
                            {
                                "type": "text",
                                "text": "Can someone share instructions for how to make these homemade medical masks? Would like to see if I can get ppl im community to help here with this."
                            }
                        ]
                    }
                ]
            }
        ],
        "client_msg_id": "adca3c81-cec0-4840-8516-69aa582e6c25"
    },
    {
        "client_msg_id": "e13454ad-92f3-4ae2-8bd1-267bb0c1aedc",
        "type": "message",
        "text": "Hi, if you don’t get a better response, i have some designs listed here <https:\/\/docs.google.com\/document\/d\/1DczBWaHiMBxT4umAzhgwTpK5ldzxBYP7MwfbBu_4I_U\/edit#>",
        "user": "UV8FL0JCA",
        "ts": "1584726233.432900",
        "team": "TUU48M0T1",
        "user_team": "TUU48M0T1",
        "source_team": "TUU48M0T1",
        "user_profile": {
            "avatar_hash": "920c820f5900",
            "image_72": "https:\/\/avatars.slack-edge.com\/2020-03-17\/1009529536646_920c820f5900215fb339_72.jpg",
            "first_name": "Eric",
            "real_name": "Eric Chaves",
            "display_name": "Eric Chaves",
            "team": "TUU48M0T1",
            "name": "eric.chaves.llc",
            "is_restricted": false,
            "is_ultra_restricted": false
        },
        "blocks": [
            {
                "type": "rich_text",
                "block_id": "e0Kk3",
                "elements": [
                    {
                        "type": "rich_text_section",
                        "elements": [
                            {
                                "type": "text",
                                "text": "Hi, if you don’t get a better response, i have some designs listed here "
                            },
                            {
                                "type": "link",
                                "url": "https:\/\/docs.google.com\/document\/d\/1DczBWaHiMBxT4umAzhgwTpK5ldzxBYP7MwfbBu_4I_U\/edit#"
                            }
                        ]
                    }
                ]
            }
        ],
        "thread_ts": "1584664626.406300",
        "parent_user_id": "UV0FQT2QL"
    },
    {
        "client_msg_id": "e14fb214-bad4-47dd-bc70-0f4f2b24ca1d",
        "type": "message",
        "text": "This might be what you’re looking for? <https:\/\/mustsharenews.com\/cloth-face-mask\/>",
        "user": "UV8FL0JCA",
        "ts": "1584726289.433100",
        "team": "TUU48M0T1",
        "user_team": "TUU48M0T1",
        "source_team": "TUU48M0T1",
        "user_profile": {
            "avatar_hash": "920c820f5900",
            "image_72": "https:\/\/avatars.slack-edge.com\/2020-03-17\/1009529536646_920c820f5900215fb339_72.jpg",
            "first_name": "Eric",
            "real_name": "Eric Chaves",
            "display_name": "Eric Chaves",
            "team": "TUU48M0T1",
            "name": "eric.chaves.llc",
            "is_restricted": false,
            "is_ultra_restricted": false
        },
        "attachments": [
            {
                "service_name": "Must Share News - Independent News For Singaporeans",
                "title": "Taiwanese Doctor Teaches How To DIY Cloth Face Mask With Air Filter, So No Need To Scramble At Stores",
                "title_link": "https:\/\/mustsharenews.com\/cloth-face-mask\/",
                "text": "On Friday (7 Feb), Dr Chen Xiaoting, a Taiwanese anaesthesiologist, shared instructions on creating a cloth face mask with air filters.",
                "fallback": "Must Share News - Independent News For Singaporeans: Taiwanese Doctor Teaches How To DIY Cloth Face Mask With Air Filter, So No Need To Scramble At Stores",
                "thumb_url": "https:\/\/mustsharenews.com\/wp-content\/uploads\/2020\/02\/cloth-face-mask-18.jpg",
                "ts": 1581656810,
                "from_url": "https:\/\/mustsharenews.com\/cloth-face-mask\/",
                "thumb_width": 1500,
                "thumb_height": 750,
                "service_icon": "https:\/\/mustsharenews.com\/wp-content\/uploads\/2018\/10\/cropped-favicon-180x180.png",
                "id": 1,
                "original_url": "https:\/\/mustsharenews.com\/cloth-face-mask\/"
            }
        ],
        "blocks": [
            {
                "type": "rich_text",
                "block_id": "Q+Eb9",
                "elements": [
                    {
                        "type": "rich_text_section",
                        "elements": [
                            {
                                "type": "text",
                                "text": "This might be what you’re looking for? "
                            },
                            {
                                "type": "link",
                                "url": "https:\/\/mustsharenews.com\/cloth-face-mask\/"
                            }
                        ]
                    }
                ]
            }
        ],
        "thread_ts": "1584664626.406300",
        "parent_user_id": "UV0FQT2QL"
    },
    {
        "client_msg_id": "67b468ea-6fd5-454c-bb42-f29974052b6a",
        "type": "message",
        "text": "<@UV8FL0JCA> thank you so much! you cannot realize how grateful I am.\ngoing to spread the news around here and gather people to make these masks :)",
        "user": "UV8AZ6ABC",
        "ts": "1584727951.433800",
        "team": "TUU48M0T1",
        "user_team": "TUU48M0T1",
        "source_team": "TUU48M0T1",
        "user_profile": {
            "avatar_hash": "b4d8c336125b",
            "image_72": "https:\/\/avatars.slack-edge.com\/2020-03-17\/1006719750788_b4d8c336125bdcf987eb_72.jpg",
            "first_name": "Juliana",
            "real_name": "Juliana Cavalheiro",
            "display_name": "Juliana Cavalheiro",
            "team": "TUU48M0T1",
            "name": "ju.cavalheiro",
            "is_restricted": false,
            "is_ultra_restricted": false
        },
        "edited": {
            "user": "UV8AZ6ABC",
            "ts": "1584727961.000000"
        },
        "blocks": [
            {
                "type": "rich_text",
                "block_id": "tN=",
                "elements": [
                    {
                        "type": "rich_text_section",
                        "elements": [
                            {
                                "type": "user",
                                "user_id": "UV8FL0JCA"
                            },
                            {
                                "type": "text",
                                "text": " thank you so much! you cannot realize how grateful I am.\ngoing to spread the news around here and gather people to make these masks :)"
                            }
                        ]
                    }
                ]
            }
        ],
        "thread_ts": "1584664626.406300",
        "parent_user_id": "UV0FQT2QL"
    },
    {
        "client_msg_id": "2b3c85f3-0e2f-441a-a41d-ae61a83ee212",
        "type": "message",
        "text": "Thanks <@UV8AZ6ABC>! I made this temp shared doc to help facilitate with 3D printers without asking them to join a slack group. I’m going to make a new channel to discuss what the next steps are for a better version. <https:\/\/docs.google.com\/document\/d\/1NcDnIdpkpdOBeWocyLZMPd_GLiQEheAYJVFHzs3x4hw\/edit#heading=h.bt7fxktk58g7>",
        "user": "UV8FL0JCA",
        "ts": "1584730139.434300",
        "team": "TUU48M0T1",
        "user_team": "TUU48M0T1",
        "source_team": "TUU48M0T1",
        "user_profile": {
            "avatar_hash": "920c820f5900",
            "image_72": "https:\/\/avatars.slack-edge.com\/2020-03-17\/1009529536646_920c820f5900215fb339_72.jpg",
            "first_name": "Eric",
            "real_name": "Eric Chaves",
            "display_name": "Eric Chaves",
            "team": "TUU48M0T1",
            "name": "eric.chaves.llc",
            "is_restricted": false,
            "is_ultra_restricted": false
        },
        "blocks": [
            {
                "type": "rich_text",
                "block_id": "DI\/",
                "elements": [
                    {
                        "type": "rich_text_section",
                        "elements": [
                            {
                                "type": "text",
                                "text": "Thanks "
                            },
                            {
                                "type": "user",
                                "user_id": "UV8AZ6ABC"
                            },
                            {
                                "type": "text",
                                "text": "! I made this temp shared doc to help facilitate with 3D printers without asking them to join a slack group. I’m going to make a new channel to discuss what the next steps are for a better version. "
                            },
                            {
                                "type": "link",
                                "url": "https:\/\/docs.google.com\/document\/d\/1NcDnIdpkpdOBeWocyLZMPd_GLiQEheAYJVFHzs3x4hw\/edit#heading=h.bt7fxktk58g7"
                            }
                        ]
                    }
                ]
            }
        ],
        "thread_ts": "1584664626.406300",
        "parent_user_id": "UV0FQT2QL"
    },
    {
        "client_msg_id": "8e9bf0c6-d637-4ac9-862d-26b14bdc3f39",
        "type": "message",
        "text": "I recommend people here also sign up for this more coordinated volunteering effort to help get your expertise and time to researchers in more traditional institutions: <http:\/\/crowdfightcovid19.org\/>",
        "user": "U010D9EGSTH",
        "ts": "1584730418.435900",
        "team": "TUU48M0T1",
        "user_team": "TUU48M0T1",
        "source_team": "TUU48M0T1",
        "user_profile": {
            "avatar_hash": "gc4df71cbae9",
            "image_72": "https:\/\/secure.gravatar.com\/avatar\/c4df71cbae90ff8819eff196c6ed3edf.jpg?s=72&d=https%3A%2F%2Fa.slack-edge.com%2Fdf10d%2Fimg%2Favatars%2Fava_0020-72.png",
            "first_name": "",
            "real_name": "Ilya Levantis",
            "display_name": "Ilya Levantis",
            "team": "TUU48M0T1",
            "name": "il79663",
            "is_restricted": false,
            "is_ultra_restricted": false
        },
        "attachments": [
            {
                "title": "Crowdfight COVID-19",
                "title_link": "http:\/\/crowdfightcovid19.org\/",
                "text": "An initiative to redirect scientific resources towards the fight against COVID-19",
                "fallback": "Crowdfight COVID-19",
                "from_url": "http:\/\/crowdfightcovid19.org\/",
                "service_icon": "https:\/\/www.mailerlite.com\/site\/themes\/new\/img\/favicons\/favicon-32x32.png",
                "service_name": "crowdfightcovid19.org",
                "id": 1,
                "original_url": "http:\/\/crowdfightcovid19.org\/"
            }
        ],
        "blocks": [
            {
                "type": "rich_text",
                "block_id": "EaG",
                "elements": [
                    {
                        "type": "rich_text_section",
                        "elements": [
                            {
                                "type": "text",
                                "text": "I recommend people here also sign up for this more coordinated volunteering effort to help get your expertise and time to researchers in more traditional institutions: "
                            },
                            {
                                "type": "link",
                                "url": "http:\/\/crowdfightcovid19.org\/"
                            }
                        ]
                    }
                ]
            }
        ],
        "reactions": [
            {
                "name": "+1",
                "users": [
                    "UUWPKNE2E",
                    "UV8AZ6ABC",
                    "UV7LUJG1Y",
                    "UVC7J1K7Y",
                    "UVALZTQ58",
                    "U01063V3M6U"
                ],
                "count": 6
            }
        ]
    },
    {
        "client_msg_id": "668ec8af-18b2-4669-8a2e-f670c50f0c9a",
        "type": "message",
        "text": "your personal-issue-exuding gripe comment is the one that should be deleted.",
        "user": "UVC7J1K7Y",
        "ts": "1584730815.436700",
        "team": "TUU48M0T1",
        "user_team": "TUU48M0T1",
        "source_team": "TUU48M0T1",
        "user_profile": {
            "avatar_hash": "25366518f42c",
            "image_72": "https:\/\/avatars.slack-edge.com\/2020-03-12\/995707246548_25366518f42c2b4ddd3c_72.jpg",
            "first_name": "JaswinderBrar",
            "real_name": "JaswinderBrar",
            "display_name": "JaswinderBrar",
            "team": "TUU48M0T1",
            "name": "jaswindersbrar123",
            "is_restricted": false,
            "is_ultra_restricted": false
        },
        "blocks": [
            {
                "type": "rich_text",
                "block_id": "SAv",
                "elements": [
                    {
                        "type": "rich_text_section",
                        "elements": [
                            {
                                "type": "text",
                                "text": "your personal-issue-exuding gripe comment is the one that should be deleted."
                            }
                        ]
                    }
                ]
            }
        ],
        "thread_ts": "1584711634.425400",
        "parent_user_id": "UVC7J1K7Y"
    },
    {
        "client_msg_id": "0A81437F-0B61-4504-ADFC-4DC70DCB8C0B",
        "type": "message",
        "text": "Stigmatizing vulnerable populations is a terrible idea. Also the concept of certain classes of citizen wearing indicators of their class has a nasty history in the world. This is a societal problem not an individual one. ",
        "user": "UV45T898T",
        "ts": "1584731188.438800",
        "team": "TUU48M0T1",
        "user_team": "TUU48M0T1",
        "source_team": "TUU48M0T1",
        "user_profile": {
            "avatar_hash": "g75422ede6d8",
            "image_72": "https:\/\/secure.gravatar.com\/avatar\/75422ede6d8ad7ef7663d3058364da4b.jpg?s=72&d=https%3A%2F%2Fa.slack-edge.com%2Fdf10d%2Fimg%2Favatars%2Fava_0013-72.png",
            "first_name": "",
            "real_name": "Mike Fried",
            "display_name": "Mike Fried",
            "team": "TUU48M0T1",
            "name": "mike.fried",
            "is_restricted": false,
            "is_ultra_restricted": false
        },
        "thread_ts": "1584711634.425400",
        "parent_user_id": "UVC7J1K7Y"
    },
    {
        "client_msg_id": "3539c97a-c688-466e-874a-5d5dbed9951e",
        "type": "message",
        "text": "@everyone with a sewing machine, check out this great video by Deaconess hospital in Evansville, Indiana on how to sew a \"CDC approved\" surgical mask: <https:\/\/www.youtube.com\/watch?v=9tBg0Os5FWQ>",
        "user": "U0102NEMRTR",
        "ts": "1584733489.439500",
        "team": "TUU48M0T1",
        "user_team": "TUU48M0T1",
        "source_team": "TUU48M0T1",
        "user_profile": {
            "avatar_hash": "g6072d132593",
            "image_72": "https:\/\/secure.gravatar.com\/avatar\/6072d132593acb6de99356666ff0ed9e.jpg?s=72&d=https%3A%2F%2Fa.slack-edge.com%2Fdf10d%2Fimg%2Favatars%2Fava_0008-72.png",
            "first_name": "",
            "real_name": "Patrik D'haeseleer",
            "display_name": "Patrik D'haeseleer",
            "team": "TUU48M0T1",
            "name": "patrikd",
            "is_restricted": false,
            "is_ultra_restricted": false
        },
        "attachments": [
            {
                "service_name": "YouTube",
                "service_url": "https:\/\/www.youtube.com\/",
                "title": "How to make a mask for doctors, nurses and health care workers for COVID-19",
                "title_link": "https:\/\/www.youtube.com\/watch?v=9tBg0Os5FWQ",
                "author_name": "Deaconess Health",
                "author_link": "https:\/\/www.youtube.com\/channel\/UCJmEkeFVWQ_2vtHNonYzVxA",
                "thumb_url": "https:\/\/i.ytimg.com\/vi\/9tBg0Os5FWQ\/hqdefault.jpg",
                "thumb_width": 480,
                "thumb_height": 360,
                "fallback": "YouTube Video: How to make a mask for doctors, nurses and health care workers for COVID-19",
                "video_html": "<iframe width=\"400\" height=\"225\" src=\"https:\/\/www.youtube.com\/embed\/9tBg0Os5FWQ?feature=oembed&autoplay=1&iv_load_policy=3\" frameborder=\"0\" allow=\"accelerometer; autoplay; encrypted-media; gyroscope; picture-in-picture\" allowfullscreen><\/iframe>",
                "video_html_width": 400,
                "video_html_height": 225,
                "from_url": "https:\/\/www.youtube.com\/watch?v=9tBg0Os5FWQ",
                "service_icon": "https:\/\/a.slack-edge.com\/80588\/img\/unfurl_icons\/youtube.png",
                "id": 1,
                "original_url": "https:\/\/www.youtube.com\/watch?v=9tBg0Os5FWQ"
            }
        ],
        "blocks": [
            {
                "type": "rich_text",
                "block_id": "HYWza",
                "elements": [
                    {
                        "type": "rich_text_section",
                        "elements": [
                            {
                                "type": "text",
                                "text": "@everyone with a sewing machine, check out this great video by Deaconess hospital in Evansville, Indiana on how to sew a \"CDC approved\" surgical mask: "
                            },
                            {
                                "type": "link",
                                "url": "https:\/\/www.youtube.com\/watch?v=9tBg0Os5FWQ"
                            }
                        ]
                    }
                ]
            }
        ],
        "reactions": [
            {
                "name": "the_horns",
                "users": [
                    "UUNGFHSV8"
                ],
                "count": 1
            },
            {
                "name": "+1",
                "users": [
                    "U01081Y0TBP"
                ],
                "count": 1
            }
        ]
    },
    {
        "client_msg_id": "0acd7cb4-c743-4acb-bea6-3532e559b536",
        "type": "message",
        "text": "Note that Deaconess now *has enough masks coming in*, so please send your masks to your local hospital, or keep them for personal use. More here: <https:\/\/www.deaconess.com\/How-to-make-a-Face-Mask>",
        "user": "U0102NEMRTR",
        "ts": "1584733558.440700",
        "team": "TUU48M0T1",
        "user_team": "TUU48M0T1",
        "source_team": "TUU48M0T1",
        "user_profile": {
            "avatar_hash": "g6072d132593",
            "image_72": "https:\/\/secure.gravatar.com\/avatar\/6072d132593acb6de99356666ff0ed9e.jpg?s=72&d=https%3A%2F%2Fa.slack-edge.com%2Fdf10d%2Fimg%2Favatars%2Fava_0008-72.png",
            "first_name": "",
            "real_name": "Patrik D'haeseleer",
            "display_name": "Patrik D'haeseleer",
            "team": "TUU48M0T1",
            "name": "patrikd",
            "is_restricted": false,
            "is_ultra_restricted": false
        },
        "attachments": [
            {
                "title": "  Deaconess - How to make a Face Mask ",
                "title_link": "https:\/\/www.deaconess.com\/How-to-make-a-Face-Mask",
                "text": "We are welcoming fabric masks from our community as we prepare for COVID-19. Thank you so much for your interest and care.",
                "fallback": "  Deaconess - How to make a Face Mask ",
                "from_url": "https:\/\/www.deaconess.com\/How-to-make-a-Face-Mask",
                "service_icon": "https:\/\/www.deaconess.com\/DeaconessCom\/media\/Icons\/DH-Bug.png",
                "service_name": "deaconess.com",
                "id": 1,
                "original_url": "https:\/\/www.deaconess.com\/How-to-make-a-Face-Mask"
            }
        ],
        "blocks": [
            {
                "type": "rich_text",
                "block_id": "RUifp",
                "elements": [
                    {
                        "type": "rich_text_section",
                        "elements": [
                            {
                                "type": "text",
                                "text": "Note that Deaconess now "
                            },
                            {
                                "type": "text",
                                "text": "has enough masks coming in",
                                "style": {
                                    "bold": true
                                }
                            },
                            {
                                "type": "text",
                                "text": ", so please send your masks to your local hospital, or keep them for personal use. More here: "
                            },
                            {
                                "type": "link",
                                "url": "https:\/\/www.deaconess.com\/How-to-make-a-Face-Mask"
                            }
                        ]
                    }
                ]
            }
        ]
    },
    {
        "client_msg_id": "0191b205-07c9-4d26-b0e2-751fc4ecca1d",
        "type": "message",
        "text": "Providence has a similar effort going on: <https:\/\/www.providence.org\/lp\/100m-masks>",
        "user": "U0102NEMRTR",
        "ts": "1584734086.441500",
        "team": "TUU48M0T1",
        "user_team": "TUU48M0T1",
        "source_team": "TUU48M0T1",
        "user_profile": {
            "avatar_hash": "g6072d132593",
            "image_72": "https:\/\/secure.gravatar.com\/avatar\/6072d132593acb6de99356666ff0ed9e.jpg?s=72&d=https%3A%2F%2Fa.slack-edge.com%2Fdf10d%2Fimg%2Favatars%2Fava_0008-72.png",
            "first_name": "",
            "real_name": "Patrik D'haeseleer",
            "display_name": "Patrik D'haeseleer",
            "team": "TUU48M0T1",
            "name": "patrikd",
            "is_restricted": false,
            "is_ultra_restricted": false
        },
        "attachments": [
            {
                "title": "100 Million Masks",
                "title_link": "https:\/\/www.providence.org\/lp\/100m-masks",
                "text": "The global demand for personal protective equipment (PPE) has created a severe shortage of PPE across the world. While regular distribution channels ramp up, we need to act now to ensure caregivers have the isolation masks they need to do their jobs safely.",
                "fallback": "100 Million Masks",
                "from_url": "https:\/\/www.providence.org\/lp\/100m-masks",
                "service_icon": "https:\/\/www.providence.org\/favicon.ico",
                "service_name": "providence.org",
                "id": 1,
                "original_url": "https:\/\/www.providence.org\/lp\/100m-masks"
            }
        ],
        "blocks": [
            {
                "type": "rich_text",
                "block_id": "FbIf",
                "elements": [
                    {
                        "type": "rich_text_section",
                        "elements": [
                            {
                                "type": "text",
                                "text": "Providence has a similar effort going on: "
                            },
                            {
                                "type": "link",
                                "url": "https:\/\/www.providence.org\/lp\/100m-masks"
                            }
                        ]
                    }
                ]
            }
        ]
    },
    {
        "client_msg_id": "f30238a8-1324-42e4-a624-8d36d75d3774",
        "type": "message",
        "text": "Some more good resources: <https:\/\/www.forbes.com\/sites\/tjmccue\/2020\/03\/20\/calling-all-people-who-sew-and-make-you-can-help-solve-2020-n95-type-mask-shortage\/#4f25d2b4e41d>",
        "user": "U0102NEMRTR",
        "ts": "1584736298.442400",
        "team": "TUU48M0T1",
        "user_team": "TUU48M0T1",
        "source_team": "TUU48M0T1",
        "user_profile": {
            "avatar_hash": "g6072d132593",
            "image_72": "https:\/\/secure.gravatar.com\/avatar\/6072d132593acb6de99356666ff0ed9e.jpg?s=72&d=https%3A%2F%2Fa.slack-edge.com%2Fdf10d%2Fimg%2Favatars%2Fava_0008-72.png",
            "first_name": "",
            "real_name": "Patrik D'haeseleer",
            "display_name": "Patrik D'haeseleer",
            "team": "TUU48M0T1",
            "name": "patrikd",
            "is_restricted": false,
            "is_ultra_restricted": false
        },
        "attachments": [
            {
                "service_name": "Forbes",
                "title": "Calling All People Who Sew And Make: You Can Help Solve 2020 N95-Type Mask Shortage",
                "title_link": "https:\/\/www.forbes.com\/sites\/tjmccue\/2020\/03\/20\/calling-all-people-who-sew-and-make-you-can-help-solve-2020-n95-type-mask-shortage\/#4f25d2b4e41d",
                "text": "If you want to rally the world to your cause, think like a little bird and tweet. Hospitals and doctors are reaching out via social media to ask for mission-critical help in solving the shortage of N95-type masks during the current Coronavirus (COVID-19) pandemic. Photo: Kately Bowden",
                "fallback": "Forbes: Calling All People Who Sew And Make: You Can Help Solve 2020 N95-Type Mask Shortage",
                "image_url": "https:\/\/thumbor.forbes.com\/thumbor\/fit-in\/1200x0\/filters%3Aformat%28jpg%29\/https%3A%2F%2Fspecials-images.forbesimg.com%2Fimageserve%2F5e746aac10380d0006bdae2e%2F0x0.jpg%3FcropX1%3D0%26cropX2%3D732%26cropY1%3D365%26cropY2%3D777",
                "from_url": "https:\/\/www.forbes.com\/sites\/tjmccue\/2020\/03\/20\/calling-all-people-who-sew-and-make-you-can-help-solve-2020-n95-type-mask-shortage\/#4f25d2b4e41d",
                "image_width": 443,
                "image_height": 250,
                "image_bytes": 33804,
                "service_icon": "https:\/\/i.forbesimg.com\/favicon.ico",
                "id": 1,
                "original_url": "https:\/\/www.forbes.com\/sites\/tjmccue\/2020\/03\/20\/calling-all-people-who-sew-and-make-you-can-help-solve-2020-n95-type-mask-shortage\/#4f25d2b4e41d"
            }
        ],
        "blocks": [
            {
                "type": "rich_text",
                "block_id": "omS9",
                "elements": [
                    {
                        "type": "rich_text_section",
                        "elements": [
                            {
                                "type": "text",
                                "text": "Some more good resources: "
                            },
                            {
                                "type": "link",
                                "url": "https:\/\/www.forbes.com\/sites\/tjmccue\/2020\/03\/20\/calling-all-people-who-sew-and-make-you-can-help-solve-2020-n95-type-mask-shortage\/#4f25d2b4e41d"
                            }
                        ]
                    }
                ]
            }
        ],
        "reactions": [
            {
                "name": "+1",
                "users": [
                    "UUWPKNE2E",
                    "UV2SC7ZE3",
                    "U01084P4ELX"
                ],
                "count": 3
            }
        ]
    },
    {
        "client_msg_id": "47bb2ac1-e4eb-421c-b9bb-86b0505df515",
        "type": "message",
        "text": "This one is actually BY THE CDC: <https:\/\/wwwnc.cdc.gov\/eid\/article\/12\/6\/05-1468_article>",
        "user": "U0102NEMRTR",
        "ts": "1584736422.443100",
        "team": "TUU48M0T1",
        "user_team": "TUU48M0T1",
        "source_team": "TUU48M0T1",
        "user_profile": {
            "avatar_hash": "g6072d132593",
            "image_72": "https:\/\/secure.gravatar.com\/avatar\/6072d132593acb6de99356666ff0ed9e.jpg?s=72&d=https%3A%2F%2Fa.slack-edge.com%2Fdf10d%2Fimg%2Favatars%2Fava_0008-72.png",
            "first_name": "",
            "real_name": "Patrik D'haeseleer",
            "display_name": "Patrik D'haeseleer",
            "team": "TUU48M0T1",
            "name": "patrikd",
            "is_restricted": false,
            "is_ultra_restricted": false
        },
        "attachments": [
            {
                "service_name": "Emerging Infectious Diseases journal",
                "title": "Simple Respiratory Mask",
                "title_link": "https:\/\/wwwnc.cdc.gov\/eid\/article\/12\/6\/05-1468_article",
                "text": "Simple Respiratory Mask",
                "fallback": "Emerging Infectious Diseases journal: Simple Respiratory Mask",
                "image_url": "https:\/\/wwwnc.cdc.gov\/eid\/images\/og-eid-logo-2.jpg",
                "image_width": 476,
                "image_height": 250,
                "from_url": "https:\/\/wwwnc.cdc.gov\/eid\/article\/12\/6\/05-1468_article",
                "image_bytes": 131900,
                "service_icon": "https:\/\/wwwnc.cdc.gov\/eid\/content\/images\/app-icon\/app-icon-touch-144x144.png",
                "id": 1,
                "original_url": "https:\/\/wwwnc.cdc.gov\/eid\/article\/12\/6\/05-1468_article"
            }
        ],
        "blocks": [
            {
                "type": "rich_text",
                "block_id": "KOU",
                "elements": [
                    {
                        "type": "rich_text_section",
                        "elements": [
                            {
                                "type": "text",
                                "text": "This one is actually BY THE CDC: "
                            },
                            {
                                "type": "link",
                                "url": "https:\/\/wwwnc.cdc.gov\/eid\/article\/12\/6\/05-1468_article"
                            }
                        ]
                    }
                ]
            }
        ]
    },
    {
        "client_msg_id": "72727fe1-bc99-41b4-b0f3-391ad842f44c",
        "type": "message",
        "text": "<https:\/\/freesewing.org\/blog\/facemask-frenzy\/>",
        "user": "U0102NEMRTR",
        "ts": "1584736480.443400",
        "team": "TUU48M0T1",
        "user_team": "TUU48M0T1",
        "source_team": "TUU48M0T1",
        "user_profile": {
            "avatar_hash": "g6072d132593",
            "image_72": "https:\/\/secure.gravatar.com\/avatar\/6072d132593acb6de99356666ff0ed9e.jpg?s=72&d=https%3A%2F%2Fa.slack-edge.com%2Fdf10d%2Fimg%2Favatars%2Fava_0008-72.png",
            "first_name": "",
            "real_name": "Patrik D'haeseleer",
            "display_name": "Patrik D'haeseleer",
            "team": "TUU48M0T1",
            "name": "patrikd",
            "is_restricted": false,
            "is_ultra_restricted": false
        },
        "attachments": [
            {
                "title": "Calling all makers: Here's a 1-page PDF facemask pattern; Now go make some and help beat this thing",
                "title_link": "https:\/\/freesewing.org\/blog\/facemask-frenzy\/",
                "text": "false",
                "fallback": "Calling all makers: Here's a 1-page PDF facemask pattern; Now go make some and help beat this thing",
                "image_url": "https:\/\/freesewing.org\/share\/en.wide.jpg",
                "from_url": "https:\/\/freesewing.org\/blog\/facemask-frenzy\/",
                "image_width": 441,
                "image_height": 250,
                "image_bytes": 360018,
                "service_icon": "https:\/\/freesewing.org\/icons\/icon-48x48.png?v=5d6ba5d7e2582b71996eff33c46b24c7",
                "service_name": "freesewing.org",
                "id": 1,
                "original_url": "https:\/\/freesewing.org\/blog\/facemask-frenzy\/"
            }
        ],
        "blocks": [
            {
                "type": "rich_text",
                "block_id": "wJd",
                "elements": [
                    {
                        "type": "rich_text_section",
                        "elements": [
                            {
                                "type": "link",
                                "url": "https:\/\/freesewing.org\/blog\/facemask-frenzy\/"
                            }
                        ]
                    }
                ]
            }
        ]
    },
    {
        "client_msg_id": "54b9c2b8-6056-4eb8-a167-ffc6f3d400fa",
        "type": "message",
        "text": "<https:\/\/www.instructables.com\/id\/DIY-Cloth-Face-Mask\/>",
        "user": "U0102NEMRTR",
        "ts": "1584736490.443700",
        "team": "TUU48M0T1",
        "user_team": "TUU48M0T1",
        "source_team": "TUU48M0T1",
        "user_profile": {
            "avatar_hash": "g6072d132593",
            "image_72": "https:\/\/secure.gravatar.com\/avatar\/6072d132593acb6de99356666ff0ed9e.jpg?s=72&d=https%3A%2F%2Fa.slack-edge.com%2Fdf10d%2Fimg%2Favatars%2Fava_0008-72.png",
            "first_name": "",
            "real_name": "Patrik D'haeseleer",
            "display_name": "Patrik D'haeseleer",
            "team": "TUU48M0T1",
            "name": "patrikd",
            "is_restricted": false,
            "is_ultra_restricted": false
        },
        "attachments": [
            {
                "service_name": "Instructables",
                "title": "DIY Cloth Face Mask",
                "title_link": "https:\/\/www.instructables.com\/id\/DIY-Cloth-Face-Mask\/",
                "text": "DIY Cloth Face Mask: UPDATE 3Child size pattern added, problem with large size pattern PDF solved, added some more measurements to the wire and elastic supply list, added a whole section on filter options in the research notes. Tomorrow I will add a new step at the en...",
                "fallback": "Instructables: DIY Cloth Face Mask",
                "image_url": "https:\/\/content.instructables.com\/FNM\/R1JY\/K7GW9VON\/FNMR1JYK7GW9VON.LARGE.jpg?auto=webp&&frame=1",
                "image_width": 301,
                "image_height": 250,
                "from_url": "https:\/\/www.instructables.com\/id\/DIY-Cloth-Face-Mask\/",
                "image_bytes": 75379,
                "service_icon": "https:\/\/www.instructables.com\/favicon.ico",
                "id": 1,
                "original_url": "https:\/\/www.instructables.com\/id\/DIY-Cloth-Face-Mask\/"
            }
        ],
        "blocks": [
            {
                "type": "rich_text",
                "block_id": "kC8",
                "elements": [
                    {
                        "type": "rich_text_section",
                        "elements": [
                            {
                                "type": "link",
                                "url": "https:\/\/www.instructables.com\/id\/DIY-Cloth-Face-Mask\/"
                            }
                        ]
                    }
                ]
            }
        ],
        "reactions": [
            {
                "name": "+1",
                "users": [
                    "UV13874FN",
                    "UUWPKNE2E",
                    "UV8AZ6ABC",
                    "U01084P4ELX",
                    "UVC7J1K7Y",
                    "U010FKTJX32"
                ],
                "count": 6
            }
        ]
    },
    {
        "client_msg_id": "9992a0d1-125f-49e6-80f1-160b70631023",
        "type": "message",
        "text": "so no one should wear any type of  insignia ever? get real.",
        "user": "UVC7J1K7Y",
        "ts": "1584758177.446800",
        "team": "TUU48M0T1",
        "user_team": "TUU48M0T1",
        "source_team": "TUU48M0T1",
        "user_profile": {
            "avatar_hash": "25366518f42c",
            "image_72": "https:\/\/avatars.slack-edge.com\/2020-03-12\/995707246548_25366518f42c2b4ddd3c_72.jpg",
            "first_name": "JaswinderBrar",
            "real_name": "JaswinderBrar",
            "display_name": "JaswinderBrar",
            "team": "TUU48M0T1",
            "name": "jaswindersbrar123",
            "is_restricted": false,
            "is_ultra_restricted": false
        },
        "blocks": [
            {
                "type": "rich_text",
                "block_id": "x+H23",
                "elements": [
                    {
                        "type": "rich_text_section",
                        "elements": [
                            {
                                "type": "text",
                                "text": "so no one should wear any type of  insignia ever? get real."
                            }
                        ]
                    }
                ]
            }
        ],
        "thread_ts": "1584711634.425400",
        "parent_user_id": "UVC7J1K7Y"
    },
    {
        "client_msg_id": "674cf368-7cb4-48df-b041-a80ab658516f",
        "type": "message",
        "text": "JAMA asks for ideas for PPE shortage…\n<https:\/\/jamanetwork.com\/journals\/jama\/fullarticle\/2763590>",
        "user": "U0100AN3E9J",
        "ts": "1584762874.447600",
        "team": "TUU48M0T1",
        "user_team": "TUU48M0T1",
        "source_team": "TUU48M0T1",
        "user_profile": {
            "avatar_hash": "ga85b00f9b08",
            "image_72": "https:\/\/secure.gravatar.com\/avatar\/a85b00f9b0879618ac76e6aff39cfb7b.jpg?s=72&d=https%3A%2F%2Fa.slack-edge.com%2Fdf10d%2Fimg%2Favatars%2Fava_0008-72.png",
            "first_name": "Justin",
            "real_name": "Justin",
            "display_name": "",
            "team": "TUU48M0T1",
            "name": "alohadesignwork",
            "is_restricted": false,
            "is_ultra_restricted": false
        },
        "edited": {
            "user": "U0100AN3E9J",
            "ts": "1584762895.000000"
        },
        "blocks": [
            {
                "type": "rich_text",
                "block_id": "DvJ",
                "elements": [
                    {
                        "type": "rich_text_section",
                        "elements": [
                            {
                                "type": "text",
                                "text": "JAMA asks for ideas for PPE shortage…\n"
                            },
                            {
                                "type": "link",
                                "url": "https:\/\/jamanetwork.com\/journals\/jama\/fullarticle\/2763590"
                            }
                        ]
                    }
                ]
            }
        ]
    },
    {
        "client_msg_id": "a1158c22-3152-447f-b2fc-f021fc1d4fe4",
        "type": "message",
        "text": "a good follow for PPE related content from an MD <https:\/\/twitter.com\/CMichaelGibson>",
        "user": "U0100AN3E9J",
        "ts": "1584766752.448700",
        "team": "TUU48M0T1",
        "user_team": "TUU48M0T1",
        "source_team": "TUU48M0T1",
        "user_profile": {
            "avatar_hash": "ga85b00f9b08",
            "image_72": "https:\/\/secure.gravatar.com\/avatar\/a85b00f9b0879618ac76e6aff39cfb7b.jpg?s=72&d=https%3A%2F%2Fa.slack-edge.com%2Fdf10d%2Fimg%2Favatars%2Fava_0008-72.png",
            "first_name": "Justin",
            "real_name": "Justin",
            "display_name": "",
            "team": "TUU48M0T1",
            "name": "alohadesignwork",
            "is_restricted": false,
            "is_ultra_restricted": false
        },
        "attachments": [
            {
                "title": "C. Michael Gibson MD (@CMichaelGibson) | Twitter",
                "title_link": "https:\/\/twitter.com\/CMichaelGibson",
                "text": "The latest Tweets from C. Michael Gibson MD (@CMichaelGibson). Non-Profit Founder\/Leader | :heart: Doc | Artist | Scientist | Educator | Med News Anchor <https:\/\/t.co\/LDrNxgwhA4> | RT ≠ endorse | Disclaimer here: <https:\/\/t.co\/2jtJQZQU0H>. Harvard Professor &amp; MD",
                "fallback": "C. Michael Gibson MD (@CMichaelGibson) | Twitter",
                "from_url": "https:\/\/twitter.com\/CMichaelGibson",
                "service_icon": "https:\/\/abs.twimg.com\/icons\/apple-touch-icon-192x192.png",
                "service_name": "twitter.com",
                "id": 1,
                "original_url": "https:\/\/twitter.com\/CMichaelGibson"
            }
        ],
        "blocks": [
            {
                "type": "rich_text",
                "block_id": "6tjM",
                "elements": [
                    {
                        "type": "rich_text_section",
                        "elements": [
                            {
                                "type": "text",
                                "text": "a good follow for PPE related content from an MD "
                            },
                            {
                                "type": "link",
                                "url": "https:\/\/twitter.com\/CMichaelGibson"
                            }
                        ]
                    }
                ]
            }
        ]
    }
]