[
    {
        "client_msg_id": "d70ba99b-72f3-46b1-800e-a15a5a1536cc",
        "type": "message",
        "text": "<@UV02WET96> <@UV0RRGB6H> multiple projects submission for evaluation is allowed, right?",
        "user": "U011XCJJ7KK",
        "ts": "1587028434.318900",
        "team": "TUU48M0T1",
        "user_team": "TUU48M0T1",
        "source_team": "TUU48M0T1",
        "user_profile": {
            "avatar_hash": "a14335872167",
            "image_72": "https:\/\/avatars.slack-edge.com\/2020-04-10\/1052948616998_a1433587216787500a0e_72.jpg",
            "first_name": "Anteneh",
            "real_name": "Anteneh Gashaw",
            "display_name": "",
            "team": "TUU48M0T1",
            "name": "antenh.g",
            "is_restricted": false,
            "is_ultra_restricted": false
        },
        "blocks": [
            {
                "type": "rich_text",
                "block_id": "Ody\/",
                "elements": [
                    {
                        "type": "rich_text_section",
                        "elements": [
                            {
                                "type": "user",
                                "user_id": "UV02WET96"
                            },
                            {
                                "type": "text",
                                "text": " "
                            },
                            {
                                "type": "user",
                                "user_id": "UV0RRGB6H"
                            },
                            {
                                "type": "text",
                                "text": " multiple projects submission for evaluation is allowed, right?"
                            }
                        ]
                    }
                ]
            }
        ],
        "thread_ts": "1587028434.318900",
        "reply_count": 5,
        "reply_users_count": 3,
        "latest_reply": "1587029339.322500",
        "reply_users": [
            "UV02WET96",
            "U011XCJJ7KK",
            "UV0RRGB6H"
        ],
        "replies": [
            {
                "user": "UV02WET96",
                "ts": "1587028659.321400"
            },
            {
                "user": "U011XCJJ7KK",
                "ts": "1587029109.321900"
            },
            {
                "user": "UV0RRGB6H",
                "ts": "1587029139.322100"
            },
            {
                "user": "UV0RRGB6H",
                "ts": "1587029204.322300"
            },
            {
                "user": "UV0RRGB6H",
                "ts": "1587029339.322500"
            }
        ],
        "subscribed": false
    },
    {
        "client_msg_id": "B92AE310-0D0F-4BA8-A1B3-7F82C3378376",
        "type": "message",
        "text": "I’m wondering if we should create a JOGL project page too",
        "user": "UV02WET96",
        "ts": "1587028558.319700",
        "team": "TUU48M0T1",
        "user_team": "TUU48M0T1",
        "source_team": "TUU48M0T1",
        "user_profile": {
            "avatar_hash": "a99c74a194f8",
            "image_72": "https:\/\/avatars.slack-edge.com\/2020-03-07\/975708504851_a99c74a194f86715ca7d_72.png",
            "first_name": "Thomas",
            "real_name": "Thomas Landrain",
            "display_name": "Thomas Landrain - JOGL CoFounder \/ CEO",
            "team": "TUU48M0T1",
            "name": "thomas",
            "is_restricted": false,
            "is_ultra_restricted": false
        },
        "blocks": [
            {
                "type": "rich_text",
                "block_id": "C8z",
                "elements": [
                    {
                        "type": "rich_text_section",
                        "elements": [
                            {
                                "type": "text",
                                "text": "I’m wondering if we should create a JOGL project page too"
                            }
                        ]
                    }
                ]
            }
        ],
        "thread_ts": "1587005050.317700",
        "parent_user_id": "U010G1TCBN2",
        "reactions": [
            {
                "name": "+1",
                "users": [
                    "U010G1TCBN2"
                ],
                "count": 1
            }
        ]
    },
    {
        "client_msg_id": "0A3FA941-8863-4997-9FEE-A9EF921D1FD3",
        "type": "message",
        "text": "Because we don’t have an unlimited number of reviewers, we have to limit naturally the number of submission per individual to one project per individual per round. ",
        "user": "UV02WET96",
        "ts": "1587028659.321400",
        "team": "TUU48M0T1",
        "user_team": "TUU48M0T1",
        "source_team": "TUU48M0T1",
        "user_profile": {
            "avatar_hash": "a99c74a194f8",
            "image_72": "https:\/\/avatars.slack-edge.com\/2020-03-07\/975708504851_a99c74a194f86715ca7d_72.png",
            "first_name": "Thomas",
            "real_name": "Thomas Landrain",
            "display_name": "Thomas Landrain - JOGL CoFounder \/ CEO",
            "team": "TUU48M0T1",
            "name": "thomas",
            "is_restricted": false,
            "is_ultra_restricted": false
        },
        "blocks": [
            {
                "type": "rich_text",
                "block_id": "TGiuS",
                "elements": [
                    {
                        "type": "rich_text_section",
                        "elements": [
                            {
                                "type": "text",
                                "text": "Because we don’t have an unlimited number of reviewers, we have to limit naturally the number of submission per individual to one project per individual per round. "
                            }
                        ]
                    }
                ]
            }
        ],
        "thread_ts": "1587028434.318900",
        "parent_user_id": "U011XCJJ7KK"
    },
    {
        "client_msg_id": "e184f5a5-e73e-4c76-83ce-de4334d432b3",
        "type": "message",
        "text": "Yes I understand. Since I have been told that there is urgent need for the project entitled Risk Calculator VS COVID-19 outcome, I think it's best if we start from that.\nDid you received my application for the \nRisk Calculator VS COVID-19 project?",
        "user": "U011XCJJ7KK",
        "ts": "1587029109.321900",
        "team": "TUU48M0T1",
        "user_team": "TUU48M0T1",
        "source_team": "TUU48M0T1",
        "user_profile": {
            "avatar_hash": "a14335872167",
            "image_72": "https:\/\/avatars.slack-edge.com\/2020-04-10\/1052948616998_a1433587216787500a0e_72.jpg",
            "first_name": "Anteneh",
            "real_name": "Anteneh Gashaw",
            "display_name": "",
            "team": "TUU48M0T1",
            "name": "antenh.g",
            "is_restricted": false,
            "is_ultra_restricted": false
        },
        "blocks": [
            {
                "type": "rich_text",
                "block_id": "1\/18",
                "elements": [
                    {
                        "type": "rich_text_section",
                        "elements": [
                            {
                                "type": "text",
                                "text": "Yes I understand. Since I have been told that there is urgent need for the project entitled Risk Calculator VS COVID-19 outcome, I think it's best if we start from that.\nDid you received my application for the \nRisk Calculator VS COVID-19 project?"
                            }
                        ]
                    }
                ]
            }
        ],
        "thread_ts": "1587028434.318900",
        "parent_user_id": "U011XCJJ7KK"
    },
    {
        "client_msg_id": "a9b16414-a2b9-4f5a-9e1f-be60c6d3d863",
        "type": "message",
        "text": "Sorry about this, perhaps 1 or two would work but a system where we rely on reviewers means we have to limit the number",
        "user": "UV0RRGB6H",
        "ts": "1587029139.322100",
        "team": "TUU48M0T1",
        "user_team": "TUU48M0T1",
        "source_team": "TUU48M0T1",
        "user_profile": {
            "avatar_hash": "48d4ab64c90c",
            "image_72": "https:\/\/avatars.slack-edge.com\/2020-03-26\/1029789176912_48d4ab64c90c03f3af4a_72.jpg",
            "first_name": "",
            "real_name": "Chris LB Graham",
            "display_name": "",
            "team": "TUU48M0T1",
            "name": "chris.graham",
            "is_restricted": false,
            "is_ultra_restricted": false
        },
        "blocks": [
            {
                "type": "rich_text",
                "block_id": "NKA+",
                "elements": [
                    {
                        "type": "rich_text_section",
                        "elements": [
                            {
                                "type": "text",
                                "text": "Sorry about this, perhaps 1 or two would work but a system where we rely on reviewers means we have to limit the number"
                            }
                        ]
                    }
                ]
            }
        ],
        "thread_ts": "1587028434.318900",
        "parent_user_id": "U011XCJJ7KK"
    },
    {
        "client_msg_id": "9383b42c-3fb5-43de-83b7-0a55709f7f1c",
        "type": "message",
        "text": "all the applications you sent we have received- which one is most relevant for us to keep? Perhaps more projects could be in further rounds.",
        "user": "UV0RRGB6H",
        "ts": "1587029204.322300",
        "team": "TUU48M0T1",
        "user_team": "TUU48M0T1",
        "source_team": "TUU48M0T1",
        "user_profile": {
            "avatar_hash": "48d4ab64c90c",
            "image_72": "https:\/\/avatars.slack-edge.com\/2020-03-26\/1029789176912_48d4ab64c90c03f3af4a_72.jpg",
            "first_name": "",
            "real_name": "Chris LB Graham",
            "display_name": "",
            "team": "TUU48M0T1",
            "name": "chris.graham",
            "is_restricted": false,
            "is_ultra_restricted": false
        },
        "blocks": [
            {
                "type": "rich_text",
                "block_id": "t=9Yo",
                "elements": [
                    {
                        "type": "rich_text_section",
                        "elements": [
                            {
                                "type": "text",
                                "text": "all the applications you sent we have received- which one is most relevant for us to keep? Perhaps more projects could be in further rounds."
                            }
                        ]
                    }
                ]
            }
        ],
        "thread_ts": "1587028434.318900",
        "parent_user_id": "U011XCJJ7KK"
    },
    {
        "client_msg_id": "825aed08-eb29-4f79-bd8c-aa04ba81ee99",
        "type": "message",
        "text": "Ahh I see risk calculator. Thanks for submitting!",
        "user": "UV0RRGB6H",
        "ts": "1587029339.322500",
        "team": "TUU48M0T1",
        "user_team": "TUU48M0T1",
        "source_team": "TUU48M0T1",
        "user_profile": {
            "avatar_hash": "48d4ab64c90c",
            "image_72": "https:\/\/avatars.slack-edge.com\/2020-03-26\/1029789176912_48d4ab64c90c03f3af4a_72.jpg",
            "first_name": "",
            "real_name": "Chris LB Graham",
            "display_name": "",
            "team": "TUU48M0T1",
            "name": "chris.graham",
            "is_restricted": false,
            "is_ultra_restricted": false
        },
        "blocks": [
            {
                "type": "rich_text",
                "block_id": "IzT",
                "elements": [
                    {
                        "type": "rich_text_section",
                        "elements": [
                            {
                                "type": "text",
                                "text": "Ahh I see risk calculator. Thanks for submitting!"
                            }
                        ]
                    }
                ]
            }
        ],
        "thread_ts": "1587028434.318900",
        "parent_user_id": "U011XCJJ7KK"
    },
    {
        "client_msg_id": "31ca17de-ae2a-4f21-9bcd-da013a0c4645",
        "type": "message",
        "text": "We are deeply saddened by the sudden death of our colleague Dr Jonathan (Jon) Tennant.\n\nPlease donate to the fund raiser, if possible.\n\n<https:\/\/opensciencemooc.eu\/community_update\/2020\/04\/13\/in-memoriam-jon-tennant\/>",
        "user": "U011B5424FR",
        "ts": "1587032473.323400",
        "team": "TUU48M0T1",
        "user_team": "TUU48M0T1",
        "source_team": "TUU48M0T1",
        "user_profile": {
            "avatar_hash": "eb7c0d044867",
            "image_72": "https:\/\/avatars.slack-edge.com\/2020-04-05\/1054431511504_eb7c0d044867df386504_72.jpg",
            "first_name": "Aravinth",
            "real_name": "Aravinth Panch",
            "display_name": "Ara - DreamSpace Academy - SLINTEC - Sri Lanka",
            "team": "TUU48M0T1",
            "name": "me1435",
            "is_restricted": false,
            "is_ultra_restricted": false
        },
        "blocks": [
            {
                "type": "rich_text",
                "block_id": "xeIn",
                "elements": [
                    {
                        "type": "rich_text_section",
                        "elements": [
                            {
                                "type": "text",
                                "text": "We are deeply saddened by the sudden death of our colleague Dr Jonathan (Jon) Tennant.\n\nPlease donate to the fund raiser, if possible.\n\n"
                            },
                            {
                                "type": "link",
                                "url": "https:\/\/opensciencemooc.eu\/community_update\/2020\/04\/13\/in-memoriam-jon-tennant\/"
                            }
                        ]
                    }
                ]
            }
        ],
        "thread_ts": "1587032473.323400",
        "reply_count": 2,
        "reply_users_count": 2,
        "latest_reply": "1587050656.325000",
        "reply_users": [
            "UV0RRGB6H",
            "UV02WET96"
        ],
        "replies": [
            {
                "user": "UV0RRGB6H",
                "ts": "1587036077.323700"
            },
            {
                "user": "UV02WET96",
                "ts": "1587050656.325000"
            }
        ],
        "subscribed": false
    },
    {
        "client_msg_id": "33b1d6ae-93a6-403f-97f6-77426071c8b4",
        "type": "message",
        "text": "Thank you Aravinth",
        "user": "UV0RRGB6H",
        "ts": "1587036077.323700",
        "team": "TUU48M0T1",
        "user_team": "TUU48M0T1",
        "source_team": "TUU48M0T1",
        "user_profile": {
            "avatar_hash": "48d4ab64c90c",
            "image_72": "https:\/\/avatars.slack-edge.com\/2020-03-26\/1029789176912_48d4ab64c90c03f3af4a_72.jpg",
            "first_name": "",
            "real_name": "Chris LB Graham",
            "display_name": "",
            "team": "TUU48M0T1",
            "name": "chris.graham",
            "is_restricted": false,
            "is_ultra_restricted": false
        },
        "blocks": [
            {
                "type": "rich_text",
                "block_id": "1ctA",
                "elements": [
                    {
                        "type": "rich_text_section",
                        "elements": [
                            {
                                "type": "text",
                                "text": "Thank you Aravinth"
                            }
                        ]
                    }
                ]
            }
        ],
        "thread_ts": "1587032473.323400",
        "parent_user_id": "U011B5424FR"
    },
    {
        "client_msg_id": "0f0a3aa1-c45a-4203-b1b7-e9c69333b324",
        "type": "message",
        "text": "iReceptor Plus to Offer Tools for Sharing antibody and T-cell Receptor Sequencing Data from COVID-19 Patients <https:\/\/projects.leitat.org\/ireceptor-plus-to-offer-tools-and-infrastructure-for-sharing-antibody-and-t-cell-receptor-sequencing-data-from-covid-19-patients\/|https:\/\/projects.leitat.org\/ireceptor-plus-to-offer-tools-and-infrastructure-for-sharing-antibody-and-t-cell-receptor-sequencing-data-from-covid-19-patients\/>",
        "user": "U010BA2NL9E",
        "ts": "1587047465.324500",
        "team": "TUU48M0T1",
        "user_team": "TUU48M0T1",
        "source_team": "TUU48M0T1",
        "user_profile": {
            "avatar_hash": "g3fa100f8f14",
            "image_72": "https:\/\/secure.gravatar.com\/avatar\/3fa100f8f14fc86a0f2f58648b36d29e.jpg?s=72&d=https%3A%2F%2Fa.slack-edge.com%2Fdf10d%2Fimg%2Favatars%2Fava_0008-72.png",
            "first_name": "",
            "real_name": "Eduardo Garcia",
            "display_name": "Eduardo Garcia",
            "team": "TUU48M0T1",
            "name": "eduardo.garcia",
            "is_restricted": false,
            "is_ultra_restricted": false
        },
        "blocks": [
            {
                "type": "rich_text",
                "block_id": "kO94",
                "elements": [
                    {
                        "type": "rich_text_section",
                        "elements": [
                            {
                                "type": "text",
                                "text": "iReceptor Plus to Offer Tools for Sharing antibody and T-cell Receptor Sequencing Data from COVID-19 Patients "
                            },
                            {
                                "type": "link",
                                "url": "https:\/\/projects.leitat.org\/ireceptor-plus-to-offer-tools-and-infrastructure-for-sharing-antibody-and-t-cell-receptor-sequencing-data-from-covid-19-patients\/",
                                "text": "https:\/\/projects.leitat.org\/ireceptor-plus-to-offer-tools-and-infrastructure-for-sharing-antibody-and-t-cell-receptor-sequencing-data-from-covid-19-patients\/"
                            }
                        ]
                    }
                ]
            }
        ]
    },
    {
        "client_msg_id": "cdb1665b-b3a6-40bf-b051-7b4e7f7f923a",
        "type": "message",
        "text": "Thanks Aravinth :heart:",
        "user": "UV02WET96",
        "ts": "1587050656.325000",
        "team": "TUU48M0T1",
        "user_team": "TUU48M0T1",
        "source_team": "TUU48M0T1",
        "user_profile": {
            "avatar_hash": "a99c74a194f8",
            "image_72": "https:\/\/avatars.slack-edge.com\/2020-03-07\/975708504851_a99c74a194f86715ca7d_72.png",
            "first_name": "Thomas",
            "real_name": "Thomas Landrain",
            "display_name": "Thomas Landrain - JOGL CoFounder \/ CEO",
            "team": "TUU48M0T1",
            "name": "thomas",
            "is_restricted": false,
            "is_ultra_restricted": false
        },
        "blocks": [
            {
                "type": "rich_text",
                "block_id": "2NDi",
                "elements": [
                    {
                        "type": "rich_text_section",
                        "elements": [
                            {
                                "type": "text",
                                "text": "Thanks Aravinth "
                            },
                            {
                                "type": "emoji",
                                "name": "heart"
                            }
                        ]
                    }
                ]
            }
        ],
        "thread_ts": "1587032473.323400",
        "parent_user_id": "U011B5424FR",
        "reactions": [
            {
                "name": "pray",
                "users": [
                    "U011B5424FR"
                ],
                "count": 1
            }
        ]
    },
    {
        "client_msg_id": "c7a2478b-1b11-4c72-89ad-8b65493c1915",
        "type": "message",
        "text": "<!here> Hi everyone! this is a bit of a last minute request - I'm co-hosting a virtual job fair for grade 12 and U0 students at Marianopolis College in Montreal, Canada tonight at 7:00 PM EDT April 16  (1:00 AM April 17 Paris Time). I was just wondering if anyone had any projects who'd need extra members, this could be a good opportunity for students to join JOGL and contribute to projects.\n\nI realize this might be a bit last minute, but if anyone would be interested in presenting their JOGL project to students in a 5 minute presentation, please let me know:)",
        "user": "U0102R22GNQ",
        "ts": "1587054816.329100",
        "team": "TUU48M0T1",
        "user_team": "TUU48M0T1",
        "source_team": "TUU48M0T1",
        "user_profile": {
            "avatar_hash": "g861af6fe9a2",
            "image_72": "https:\/\/secure.gravatar.com\/avatar\/861af6fe9a22ee81584f89b5bb5286d4.jpg?s=72&d=https%3A%2F%2Fa.slack-edge.com%2Fdf10d%2Fimg%2Favatars%2Fava_0019-72.png",
            "first_name": "",
            "real_name": "Laurence (Larry) Liang",
            "display_name": "Laurence (Larry) Liang",
            "team": "TUU48M0T1",
            "name": "laurence.w.liang",
            "is_restricted": false,
            "is_ultra_restricted": false
        },
        "blocks": [
            {
                "type": "rich_text",
                "block_id": "pJLOw",
                "elements": [
                    {
                        "type": "rich_text_section",
                        "elements": [
                            {
                                "type": "broadcast",
                                "range": "here"
                            },
                            {
                                "type": "text",
                                "text": " Hi everyone! this is a bit of a last minute request - I'm co-hosting a virtual job fair for grade 12 and U0 students at Marianopolis College in Montreal, Canada tonight at 7:00 PM EDT April 16  (1:00 AM April 17 Paris Time). I was just wondering if anyone had any projects who'd need extra members, this could be a good opportunity for students to join JOGL and contribute to projects.\n\nI realize this might be a bit last minute, but if anyone would be interested in presenting their JOGL project to students in a 5 minute presentation, please let me know:)"
                            }
                        ]
                    }
                ]
            }
        ],
        "thread_ts": "1587054816.329100",
        "reply_count": 3,
        "reply_users_count": 3,
        "latest_reply": "1587066413.340300",
        "reply_users": [
            "UV87UQ37A",
            "U0101DKUALV",
            "U0102R22GNQ"
        ],
        "replies": [
            {
                "user": "UV87UQ37A",
                "ts": "1587056174.329200"
            },
            {
                "user": "U0101DKUALV",
                "ts": "1587059883.337500"
            },
            {
                "user": "U0102R22GNQ",
                "ts": "1587066413.340300"
            }
        ],
        "subscribed": false,
        "reactions": [
            {
                "name": "heart",
                "users": [
                    "U010PSQLYFJ",
                    "U0103128G4D"
                ],
                "count": 2
            }
        ]
    },
    {
        "client_msg_id": "9c86b927-2756-4853-be52-6411fc1b82ac",
        "type": "message",
        "text": "I forwarded this to <#C011FGGNCP8|prgm-student-engagement>",
        "user": "UV87UQ37A",
        "ts": "1587056174.329200",
        "team": "TUU48M0T1",
        "user_team": "TUU48M0T1",
        "source_team": "TUU48M0T1",
        "user_profile": {
            "avatar_hash": "g7c78d2f0258",
            "image_72": "https:\/\/secure.gravatar.com\/avatar\/7c78d2f0258f7bdf78a86301cfd6b712.jpg?s=72&d=https%3A%2F%2Fa.slack-edge.com%2Fdf10d%2Fimg%2Favatars%2Fava_0014-72.png",
            "first_name": "Victoria",
            "real_name": "Victoria Costa",
            "display_name": "Victoria Costa",
            "team": "TUU48M0T1",
            "name": "victorycoast",
            "is_restricted": false,
            "is_ultra_restricted": false
        },
        "blocks": [
            {
                "type": "rich_text",
                "block_id": "MoS",
                "elements": [
                    {
                        "type": "rich_text_section",
                        "elements": [
                            {
                                "type": "text",
                                "text": "I forwarded this to "
                            },
                            {
                                "type": "channel",
                                "channel_id": "C011FGGNCP8"
                            }
                        ]
                    }
                ]
            }
        ],
        "thread_ts": "1587054816.329100",
        "parent_user_id": "U0102R22GNQ"
    },
    {
        "client_msg_id": "94edea12-6a33-40fe-96a3-26634fef7526",
        "type": "message",
        "text": "Hi <@UV0QTJCMT> - That is SUCH a great idea! Yes, I can also create a canva 'meme' like piece of content we can use in here and on social if that helps? - We appreciate your encouragement! My schedule should clear up in the next 2 weeks - As I am also the mental health lead for a hospital in NYC. (Mt Sinai) - Doing their Zoom Wellness -- And <@U010W4KTANM> and I working on this - and she has been awesome too! :slightly_smiling_face:",
        "user": "U011D6K9RH6",
        "ts": "1587058201.329900",
        "team": "TUU48M0T1",
        "user_team": "TUU48M0T1",
        "source_team": "TUU48M0T1",
        "user_profile": {
            "avatar_hash": "85c5155708e4",
            "image_72": "https:\/\/avatars.slack-edge.com\/2020-04-02\/1033600589794_85c5155708e4e6cfa61f_72.jpg",
            "first_name": "George",
            "real_name": "George Elerick",
            "display_name": "George Elerick",
            "team": "TUU48M0T1",
            "name": "george",
            "is_restricted": false,
            "is_ultra_restricted": false
        },
        "blocks": [
            {
                "type": "rich_text",
                "block_id": "SDQ",
                "elements": [
                    {
                        "type": "rich_text_section",
                        "elements": [
                            {
                                "type": "text",
                                "text": "Hi "
                            },
                            {
                                "type": "user",
                                "user_id": "UV0QTJCMT"
                            },
                            {
                                "type": "text",
                                "text": " - That is SUCH a great idea! Yes, I can also create a canva 'meme' like piece of content we can use in here and on social if that helps? - We appreciate your encouragement! My schedule should clear up in the next 2 weeks - As I am also the mental health lead for a hospital in NYC. (Mt Sinai) - Doing their Zoom Wellness -- And "
                            },
                            {
                                "type": "user",
                                "user_id": "U010W4KTANM"
                            },
                            {
                                "type": "text",
                                "text": " and I working on this - and she has been awesome too! "
                            },
                            {
                                "type": "emoji",
                                "name": "slightly_smiling_face"
                            }
                        ]
                    }
                ]
            }
        ],
        "thread_ts": "1586977272.313000",
        "parent_user_id": "U010W4KTANM"
    },
    {
        "client_msg_id": "1fa1c7de-3ffe-4a78-a96f-564caf4f1420",
        "type": "message",
        "text": "<@U011D6K9RH6> I'm sure we will be emailing back and forth getting content for this. I understand you are super busy right now and will most likely just be sending you things to look over in the next week or so. Looking forward to the continued collaboration.",
        "user": "U010W4KTANM",
        "ts": "1587058333.330300",
        "team": "TUU48M0T1",
        "user_team": "TUU48M0T1",
        "source_team": "TUU48M0T1",
        "user_profile": {
            "avatar_hash": "5272265a95a9",
            "image_72": "https:\/\/avatars.slack-edge.com\/2020-04-07\/1052520458481_5272265a95a976c79c3e_72.jpg",
            "first_name": "",
            "real_name": "Sophie Lin",
            "display_name": "Sophie Lin",
            "team": "TUU48M0T1",
            "name": "sophie",
            "is_restricted": false,
            "is_ultra_restricted": false
        },
        "blocks": [
            {
                "type": "rich_text",
                "block_id": "xTn",
                "elements": [
                    {
                        "type": "rich_text_section",
                        "elements": [
                            {
                                "type": "user",
                                "user_id": "U011D6K9RH6"
                            },
                            {
                                "type": "text",
                                "text": " I'm sure we will be emailing back and forth getting content for this. I understand you are super busy right now and will most likely just be sending you things to look over in the next week or so. Looking forward to the continued collaboration."
                            }
                        ]
                    }
                ]
            }
        ],
        "thread_ts": "1586977272.313000",
        "parent_user_id": "U010W4KTANM"
    },
    {
        "client_msg_id": "92aa7808-22f1-426a-918b-e3386db1756c",
        "type": "message",
        "text": "Hi <@UV02WET96> - Thanks for being such an amazing person on all of this! - I am wondering what your thoughts are, or if we can brainstorm ideas, to promoting the mental health aspects (we are still working to get developers to build an AI-emotional cognition app for real-time advice, and a website to match it ) - but also we want to create daily virtual content (i.e. ebooks, social media posts, and etc.\n\nUsing psychology to create ongoing content to help people deal with isolation, anxiety and etc.) -\n\nAnd was wondering what your thoughts\/ideas were on either creating a separate mental health social media account to share content, so we don't flood the current central one, or have a timed schedule to share a post a day? (We would have to create a backlog of content that greenlit by yourself and others.\n\nOther than my central role as being a behavioral scientist, I was a digital marketer\/behavioral consultant to brands as well. - Would love to get your insight! <@U010W4KTANM> as been working with me on this and setting up a mental health\/wellness project for everyone in here as well! She is awesome! :slightly_smiling_face:",
        "user": "U011D6K9RH6",
        "ts": "1587059416.335800",
        "team": "TUU48M0T1",
        "user_team": "TUU48M0T1",
        "source_team": "TUU48M0T1",
        "user_profile": {
            "avatar_hash": "85c5155708e4",
            "image_72": "https:\/\/avatars.slack-edge.com\/2020-04-02\/1033600589794_85c5155708e4e6cfa61f_72.jpg",
            "first_name": "George",
            "real_name": "George Elerick",
            "display_name": "George Elerick",
            "team": "TUU48M0T1",
            "name": "george",
            "is_restricted": false,
            "is_ultra_restricted": false
        },
        "blocks": [
            {
                "type": "rich_text",
                "block_id": "=bAN\/",
                "elements": [
                    {
                        "type": "rich_text_section",
                        "elements": [
                            {
                                "type": "text",
                                "text": "Hi "
                            },
                            {
                                "type": "user",
                                "user_id": "UV02WET96"
                            },
                            {
                                "type": "text",
                                "text": " - Thanks for being such an amazing person on all of this! - I am wondering what your thoughts are, or if we can brainstorm ideas, to promoting the mental health aspects (we are still working to get developers to build an AI-emotional cognition app for real-time advice, and a website to match it ) - but also we want to create daily virtual content (i.e. ebooks, social media posts, and etc.\n\nUsing psychology to create ongoing content to help people deal with isolation, anxiety and etc.) -\n\nAnd was wondering what your thoughts\/ideas were on either creating a separate mental health social media account to share content, so we don't flood the current central one, or have a timed schedule to share a post a day? (We would have to create a backlog of content that greenlit by yourself and others.\n\nOther than my central role as being a behavioral scientist, I was a digital marketer\/behavioral consultant to brands as well. - Would love to get your insight! "
                            },
                            {
                                "type": "user",
                                "user_id": "U010W4KTANM"
                            },
                            {
                                "type": "text",
                                "text": " as been working with me on this and setting up a mental health\/wellness project for everyone in here as well! She is awesome! "
                            },
                            {
                                "type": "emoji",
                                "name": "slightly_smiling_face"
                            }
                        ]
                    }
                ]
            }
        ],
        "thread_ts": "1587059416.335800",
        "reply_count": 4,
        "reply_users_count": 3,
        "latest_reply": "1587065568.340100",
        "reply_users": [
            "UV0QTJCMT",
            "UVC9WMA7N",
            "U011D6K9RH6"
        ],
        "replies": [
            {
                "user": "UV0QTJCMT",
                "ts": "1587060668.337900"
            },
            {
                "user": "UVC9WMA7N",
                "ts": "1587065062.339700"
            },
            {
                "user": "U011D6K9RH6",
                "ts": "1587065353.339900"
            },
            {
                "user": "U011D6K9RH6",
                "ts": "1587065568.340100"
            }
        ],
        "subscribed": false,
        "reactions": [
            {
                "name": "+1",
                "users": [
                    "U010W4KTANM"
                ],
                "count": 1
            },
            {
                "name": "clap",
                "users": [
                    "U010Q3372P3"
                ],
                "count": 1
            }
        ]
    },
    {
        "client_msg_id": "e53dbd33-3a8a-4cb3-b674-71449b5c4906",
        "type": "message",
        "text": "Also, out of curiosity, if we wanted to offer,  say 30 min of a scheduled wellness service, to all, do we just create our own zoom room and promote it separately - or do we use an OPENCOVID19 initiative one? - Thanks again for your time! :slightly_smiling_face:",
        "user": "U011D6K9RH6",
        "ts": "1587059670.337400",
        "team": "TUU48M0T1",
        "user_team": "TUU48M0T1",
        "source_team": "TUU48M0T1",
        "user_profile": {
            "avatar_hash": "85c5155708e4",
            "image_72": "https:\/\/avatars.slack-edge.com\/2020-04-02\/1033600589794_85c5155708e4e6cfa61f_72.jpg",
            "first_name": "George",
            "real_name": "George Elerick",
            "display_name": "George Elerick",
            "team": "TUU48M0T1",
            "name": "george",
            "is_restricted": false,
            "is_ultra_restricted": false
        },
        "blocks": [
            {
                "type": "rich_text",
                "block_id": "I9JL",
                "elements": [
                    {
                        "type": "rich_text_section",
                        "elements": [
                            {
                                "type": "text",
                                "text": "Also, out of curiosity, if we wanted to offer,  say 30 min of a scheduled wellness service, to all, do we just create our own zoom room and promote it separately - or do we use an OPENCOVID19 initiative one? - Thanks again for your time! "
                            },
                            {
                                "type": "emoji",
                                "name": "slightly_smiling_face"
                            }
                        ]
                    }
                ]
            }
        ],
        "thread_ts": "1587059670.337400",
        "reply_count": 4,
        "reply_users_count": 4,
        "latest_reply": "1587138053.343000",
        "reply_users": [
            "U010W4KTANM",
            "UV0QTJCMT",
            "U011V9XEKD2",
            "UV9V03C8Y"
        ],
        "replies": [
            {
                "user": "U010W4KTANM",
                "ts": "1587060524.337700"
            },
            {
                "user": "UV0QTJCMT",
                "ts": "1587060764.338100"
            },
            {
                "user": "U011V9XEKD2",
                "ts": "1587103002.341800"
            },
            {
                "user": "UV9V03C8Y",
                "ts": "1587138053.343000"
            }
        ],
        "subscribed": false
    },
    {
        "client_msg_id": "9506bd9f-faed-486e-834c-413847202c7a",
        "type": "message",
        "text": "Hello! Thank you for forwarding this to the student engagement channel! Would there be a possibility of simply encouraging students to join the <#C011FGGNCP8|prgm-student-engagement> channel as well?",
        "user": "U0101DKUALV",
        "ts": "1587059883.337500",
        "team": "TUU48M0T1",
        "user_team": "TUU48M0T1",
        "source_team": "TUU48M0T1",
        "user_profile": {
            "avatar_hash": "b0aee06ed3e5",
            "image_72": "https:\/\/avatars.slack-edge.com\/2020-04-22\/1072886325190_b0aee06ed3e501ebdf56_72.png",
            "first_name": "",
            "real_name": "Pauline Chane",
            "display_name": "Pauline Chane",
            "team": "TUU48M0T1",
            "name": "pauline.chane",
            "is_restricted": false,
            "is_ultra_restricted": false
        },
        "blocks": [
            {
                "type": "rich_text",
                "block_id": "F9O",
                "elements": [
                    {
                        "type": "rich_text_section",
                        "elements": [
                            {
                                "type": "text",
                                "text": "Hello! Thank you for forwarding this to the student engagement channel! Would there be a possibility of simply encouraging students to join the "
                            },
                            {
                                "type": "channel",
                                "channel_id": "C011FGGNCP8"
                            },
                            {
                                "type": "text",
                                "text": " channel as well?"
                            }
                        ]
                    }
                ]
            }
        ],
        "thread_ts": "1587054816.329100",
        "parent_user_id": "U0102R22GNQ"
    },
    {
        "client_msg_id": "49dcecf4-846a-480e-ae84-eca98dcd2467",
        "type": "message",
        "text": "I'd say it would be 30min-1hr...probably closer to an hour depending on attendee participation.",
        "user": "U010W4KTANM",
        "ts": "1587060524.337700",
        "team": "TUU48M0T1",
        "user_team": "TUU48M0T1",
        "source_team": "TUU48M0T1",
        "user_profile": {
            "avatar_hash": "5272265a95a9",
            "image_72": "https:\/\/avatars.slack-edge.com\/2020-04-07\/1052520458481_5272265a95a976c79c3e_72.jpg",
            "first_name": "",
            "real_name": "Sophie Lin",
            "display_name": "Sophie Lin",
            "team": "TUU48M0T1",
            "name": "sophie",
            "is_restricted": false,
            "is_ultra_restricted": false
        },
        "blocks": [
            {
                "type": "rich_text",
                "block_id": "M\/X",
                "elements": [
                    {
                        "type": "rich_text_section",
                        "elements": [
                            {
                                "type": "text",
                                "text": "I'd say it would be 30min-1hr...probably closer to an hour depending on attendee participation."
                            }
                        ]
                    }
                ]
            }
        ],
        "thread_ts": "1587059670.337400",
        "parent_user_id": "U011D6K9RH6"
    },
    {
        "client_msg_id": "79f8b84c-3ba6-4991-a705-f47321a81972",
        "type": "message",
        "text": "<@U011D6K9RH6> -- not sure what thomas' view on this is but i think it'd totally be great for your project to have a dedicated social media account for your posts\/content and we could have the opencovid19 social media reshare posts or share a few specific posts from the project? it also might help get an audience that's specifically interested in looking for\/receiving mental health-related content",
        "user": "UV0QTJCMT",
        "ts": "1587060668.337900",
        "team": "TUU48M0T1",
        "user_team": "TUU48M0T1",
        "source_team": "TUU48M0T1",
        "user_profile": {
            "avatar_hash": "06a6ae8f69d1",
            "image_72": "https:\/\/avatars.slack-edge.com\/2020-04-13\/1060635499315_06a6ae8f69d18f1ad464_72.png",
            "first_name": "Katherine",
            "real_name": "Katherine Holo",
            "display_name": "Kat Holo - Co-Organizer of OpenCOVID19",
            "team": "TUU48M0T1",
            "name": "katherineh245",
            "is_restricted": false,
            "is_ultra_restricted": false
        },
        "blocks": [
            {
                "type": "rich_text",
                "block_id": "V3Q",
                "elements": [
                    {
                        "type": "rich_text_section",
                        "elements": [
                            {
                                "type": "user",
                                "user_id": "U011D6K9RH6"
                            },
                            {
                                "type": "text",
                                "text": " -- not sure what thomas' view on this is but i think it'd totally be great for your project to have a dedicated social media account for your posts\/content and we could have the opencovid19 social media reshare posts or share a few specific posts from the project? it also might help get an audience that's specifically interested in looking for\/receiving mental health-related content"
                            }
                        ]
                    }
                ]
            }
        ],
        "thread_ts": "1587059416.335800",
        "parent_user_id": "U011D6K9RH6"
    },
    {
        "client_msg_id": "0e48b9f5-c8a6-4751-876a-5134a900ebb0",
        "type": "message",
        "text": "using your own zoom room would definitely allow you to have more flexibility with time, participant numbers, etc. but i think you're more than free to use the opencovid19 zoom room, but if you could put your calls schedule on the opencovid19 calendar (pinned in <#CUDEHLGHY|announcements>) that would be great so that you don't coincide with another group that needs the room",
        "user": "UV0QTJCMT",
        "ts": "1587060764.338100",
        "team": "TUU48M0T1",
        "user_team": "TUU48M0T1",
        "source_team": "TUU48M0T1",
        "user_profile": {
            "avatar_hash": "06a6ae8f69d1",
            "image_72": "https:\/\/avatars.slack-edge.com\/2020-04-13\/1060635499315_06a6ae8f69d18f1ad464_72.png",
            "first_name": "Katherine",
            "real_name": "Katherine Holo",
            "display_name": "Kat Holo - Co-Organizer of OpenCOVID19",
            "team": "TUU48M0T1",
            "name": "katherineh245",
            "is_restricted": false,
            "is_ultra_restricted": false
        },
        "blocks": [
            {
                "type": "rich_text",
                "block_id": "4aws",
                "elements": [
                    {
                        "type": "rich_text_section",
                        "elements": [
                            {
                                "type": "text",
                                "text": "using your own zoom room would definitely allow you to have more flexibility with time, participant numbers, etc. but i think you're more than free to use the opencovid19 zoom room, but if you could put your calls schedule on the opencovid19 calendar (pinned in "
                            },
                            {
                                "type": "channel",
                                "channel_id": "CUDEHLGHY"
                            },
                            {
                                "type": "text",
                                "text": ") that would be great so that you don't coincide with another group that needs the room"
                            }
                        ]
                    }
                ]
            }
        ],
        "thread_ts": "1587059670.337400",
        "parent_user_id": "U011D6K9RH6",
        "reactions": [
            {
                "name": "+1",
                "users": [
                    "U010W4KTANM"
                ],
                "count": 1
            }
        ]
    },
    {
        "client_msg_id": "168b0190-9764-4d7a-9f4b-92a06ac8e385",
        "type": "message",
        "text": "I think <@UV85V64SD> might have ideas as well or connections for this\n\nAlso MIT media labs has a few fellows that are working on emotional AI which are really cool and you could check it out.\n\nIn term of your idea per say, there are many ways this could go either really well or really wrong TBH. Mental Health at the AI level is a tricky societal question.",
        "user": "UVC9WMA7N",
        "ts": "1587065062.339700",
        "team": "TUU48M0T1",
        "user_team": "TUU48M0T1",
        "source_team": "TUU48M0T1",
        "user_profile": {
            "avatar_hash": "56d14d58ed53",
            "image_72": "https:\/\/avatars.slack-edge.com\/2020-03-13\/998337892660_56d14d58ed537e6e4654_72.png",
            "first_name": "Leo",
            "real_name": "Leo Blondel",
            "display_name": "Leo Blondel - JOGL CoFounder \/ CTO",
            "team": "TUU48M0T1",
            "name": "leo",
            "is_restricted": false,
            "is_ultra_restricted": false
        },
        "blocks": [
            {
                "type": "rich_text",
                "block_id": "DqH0s",
                "elements": [
                    {
                        "type": "rich_text_section",
                        "elements": [
                            {
                                "type": "text",
                                "text": "I think "
                            },
                            {
                                "type": "user",
                                "user_id": "UV85V64SD"
                            },
                            {
                                "type": "text",
                                "text": " might have ideas as well or connections for this\n\nAlso MIT media labs has a few fellows that are working on emotional AI which are really cool and you could check it out.\n\nIn term of your idea per say, there are many ways this could go either really well or really wrong TBH. Mental Health at the AI level is a tricky societal question."
                            }
                        ]
                    }
                ]
            }
        ],
        "thread_ts": "1587059416.335800",
        "parent_user_id": "U011D6K9RH6"
    },
    {
        "client_msg_id": "eb7d11bd-8020-48d4-8268-a9e5618cb1a5",
        "type": "message",
        "text": "<@UV0QTJCMT> - Amazing, thank you so much!! Completely!!! I love the whole idea of being a specified space for people to engage with practical tips on how to deal with issues like loneliness and etc. But all the while using technology and behavioral science to help understand their current emotional experiences - I appreciate the encouragement! :slightly_smiling_face:",
        "user": "U011D6K9RH6",
        "ts": "1587065353.339900",
        "team": "TUU48M0T1",
        "user_team": "TUU48M0T1",
        "source_team": "TUU48M0T1",
        "user_profile": {
            "avatar_hash": "85c5155708e4",
            "image_72": "https:\/\/avatars.slack-edge.com\/2020-04-02\/1033600589794_85c5155708e4e6cfa61f_72.jpg",
            "first_name": "George",
            "real_name": "George Elerick",
            "display_name": "George Elerick",
            "team": "TUU48M0T1",
            "name": "george",
            "is_restricted": false,
            "is_ultra_restricted": false
        },
        "blocks": [
            {
                "type": "rich_text",
                "block_id": "CAzmw",
                "elements": [
                    {
                        "type": "rich_text_section",
                        "elements": [
                            {
                                "type": "user",
                                "user_id": "UV0QTJCMT"
                            },
                            {
                                "type": "text",
                                "text": " - Amazing, thank you so much!! Completely!!! I love the whole idea of being a specified space for people to engage with practical tips on how to deal with issues like loneliness and etc. But all the while using technology and behavioral science to help understand their current emotional experiences - I appreciate the encouragement! "
                            },
                            {
                                "type": "emoji",
                                "name": "slightly_smiling_face"
                            }
                        ]
                    }
                ]
            }
        ],
        "thread_ts": "1587059416.335800",
        "parent_user_id": "U011D6K9RH6",
        "reactions": [
            {
                "name": "+1",
                "users": [
                    "UV0QTJCMT"
                ],
                "count": 1
            }
        ]
    },
    {
        "client_msg_id": "a5ac2d24-6d08-415b-86b8-a3654f83c61a",
        "type": "message",
        "text": "Hi <@UVC9WMA7N> - Wow! Thanks for the reference - is there anyone I might be able to contact at MIT (I have seen that program promoted) - VERY interesting! Would love to connect with someone.\n\nAs to the ethical questions surrounding it, I totally understand! - As a behavioral economist (subsection of behavioral science) - we deal with the issue of paternalism - I am not an endorser of this, I am too postmodern and holacratic for how the old way of using behavioral economics to help people deal with mental health issues. So, I believe there are ways to help people navigate their emotional experiences and provide them with real time tools. Would love to hear your concerns more explicitly. Looking forward to hearing more on that and the MIT project. Thanks for your time! :slightly_smiling_face:",
        "user": "U011D6K9RH6",
        "ts": "1587065568.340100",
        "team": "TUU48M0T1",
        "user_team": "TUU48M0T1",
        "source_team": "TUU48M0T1",
        "user_profile": {
            "avatar_hash": "85c5155708e4",
            "image_72": "https:\/\/avatars.slack-edge.com\/2020-04-02\/1033600589794_85c5155708e4e6cfa61f_72.jpg",
            "first_name": "George",
            "real_name": "George Elerick",
            "display_name": "George Elerick",
            "team": "TUU48M0T1",
            "name": "george",
            "is_restricted": false,
            "is_ultra_restricted": false
        },
        "blocks": [
            {
                "type": "rich_text",
                "block_id": "1Uf",
                "elements": [
                    {
                        "type": "rich_text_section",
                        "elements": [
                            {
                                "type": "text",
                                "text": "Hi "
                            },
                            {
                                "type": "user",
                                "user_id": "UVC9WMA7N"
                            },
                            {
                                "type": "text",
                                "text": " - Wow! Thanks for the reference - is there anyone I might be able to contact at MIT (I have seen that program promoted) - VERY interesting! Would love to connect with someone.\n\nAs to the ethical questions surrounding it, I totally understand! - As a behavioral economist (subsection of behavioral science) - we deal with the issue of paternalism - I am not an endorser of this, I am too postmodern and holacratic for how the old way of using behavioral economics to help people deal with mental health issues. So, I believe there are ways to help people navigate their emotional experiences and provide them with real time tools. Would love to hear your concerns more explicitly. Looking forward to hearing more on that and the MIT project. Thanks for your time! "
                            },
                            {
                                "type": "emoji",
                                "name": "slightly_smiling_face"
                            }
                        ]
                    }
                ]
            }
        ],
        "thread_ts": "1587059416.335800",
        "parent_user_id": "U011D6K9RH6"
    },
    {
        "client_msg_id": "3ca28a90-53bd-4eb1-9b9f-62279987aaae",
        "type": "message",
        "text": "<@U0101DKUALV> I defintely can:)",
        "user": "U0102R22GNQ",
        "ts": "1587066413.340300",
        "team": "TUU48M0T1",
        "user_team": "TUU48M0T1",
        "source_team": "TUU48M0T1",
        "user_profile": {
            "avatar_hash": "g861af6fe9a2",
            "image_72": "https:\/\/secure.gravatar.com\/avatar\/861af6fe9a22ee81584f89b5bb5286d4.jpg?s=72&d=https%3A%2F%2Fa.slack-edge.com%2Fdf10d%2Fimg%2Favatars%2Fava_0019-72.png",
            "first_name": "",
            "real_name": "Laurence (Larry) Liang",
            "display_name": "Laurence (Larry) Liang",
            "team": "TUU48M0T1",
            "name": "laurence.w.liang",
            "is_restricted": false,
            "is_ultra_restricted": false
        },
        "blocks": [
            {
                "type": "rich_text",
                "block_id": "h4ZA",
                "elements": [
                    {
                        "type": "rich_text_section",
                        "elements": [
                            {
                                "type": "user",
                                "user_id": "U0101DKUALV"
                            },
                            {
                                "type": "text",
                                "text": " I defintely can:)"
                            }
                        ]
                    }
                ]
            }
        ],
        "thread_ts": "1587054816.329100",
        "parent_user_id": "U0102R22GNQ"
    },
    {
        "client_msg_id": "236da0b5-37c4-4c9c-a713-4f51d6162f98",
        "type": "message",
        "text": "what about switching to jitsi meet ?",
        "user": "U011V9XEKD2",
        "ts": "1587103002.341800",
        "team": "TUU48M0T1",
        "user_team": "TUU48M0T1",
        "source_team": "TUU48M0T1",
        "user_profile": {
            "avatar_hash": "g22b89371965",
            "image_72": "https:\/\/secure.gravatar.com\/avatar\/22b89371965e8334f88a27c407d0eb69.jpg?s=72&d=https%3A%2F%2Fa.slack-edge.com%2Fdf10d%2Fimg%2Favatars%2Fava_0021-72.png",
            "first_name": "",
            "real_name": "Yvan Pellegrini",
            "display_name": "Yvan Pellegrini",
            "team": "TUU48M0T1",
            "name": "yvan.pellegrini",
            "is_restricted": false,
            "is_ultra_restricted": false
        },
        "blocks": [
            {
                "type": "rich_text",
                "block_id": "S77O",
                "elements": [
                    {
                        "type": "rich_text_section",
                        "elements": [
                            {
                                "type": "text",
                                "text": "what about switching to jitsi meet ?"
                            }
                        ]
                    }
                ]
            }
        ],
        "thread_ts": "1587059670.337400",
        "parent_user_id": "U011D6K9RH6"
    }
]