[
    {
        "client_msg_id": "fa17411c-c0d1-45eb-a01b-0225b8bd4aff",
        "type": "message",
        "text": "Can we build a global antibody defense barrier against coronavirus and future pandemics? Join us Monday, May 4 at 8 am Pacific to learn how GEPAD, a consortium of the world’s leading experts on antibody discovery, are coming together to do just that. <https:\/\/go.synbiobeta.com\/l\/408192\/2020-04-29\/lsnkcd>",
        "user": "UUWQU0D8T",
        "ts": "1588173209.396300",
        "team": "TUU48M0T1",
        "user_team": "TUU48M0T1",
        "source_team": "TUU48M0T1",
        "user_profile": {
            "avatar_hash": "ced1bbd4fafd",
            "image_72": "https:\/\/avatars.slack-edge.com\/2020-03-12\/997488626918_ced1bbd4fafddfa4869c_72.png",
            "first_name": "Marianna",
            "real_name": "Marianna Limas",
            "display_name": "Marianna Limas",
            "team": "TUU48M0T1",
            "name": "mnnlimas",
            "is_restricted": false,
            "is_ultra_restricted": false
        },
        "attachments": [
            {
                "service_name": "SynBioBeta",
                "title": "SynBioBeta Live: Can Humanity Build a Global Antibody Defense Barrier Against Future Pandemics? - SynBioBeta",
                "title_link": "https:\/\/go.synbiobeta.com\/l\/408192\/2020-04-29\/lsnkcd",
                "text": "As researchers around the world race to understand the SARS-CoV-2 virus, the ability to isolate neutralizing antibodies from recovering patient’s B-cells remains slow and laborious.  Join us live with the world’s leading experts on antibody discovery to discuss how we can build a global defensive barrier to find new therapeutic antibodies against the coronavirus and …",
                "fallback": "SynBioBeta: SynBioBeta Live: Can Humanity Build a Global Antibody Defense Barrier Against Future Pandemics? - SynBioBeta",
                "image_url": "https:\/\/synbiobeta.com\/wp-content\/uploads\/2020\/04\/Berkeley-Lights-global-antibody-defensive-barrier-slide.png",
                "image_width": 444,
                "image_height": 250,
                "ts": 1588156412,
                "from_url": "https:\/\/go.synbiobeta.com\/l\/408192\/2020-04-29\/lsnkcd",
                "image_bytes": 86370,
                "service_icon": "https:\/\/synbiobeta.com\/wp-content\/uploads\/2018\/04\/cropped-Favicon-180x180.png",
                "id": 1,
                "original_url": "https:\/\/go.synbiobeta.com\/l\/408192\/2020-04-29\/lsnkcd"
            }
        ],
        "blocks": [
            {
                "type": "rich_text",
                "block_id": "hcDzy",
                "elements": [
                    {
                        "type": "rich_text_section",
                        "elements": [
                            {
                                "type": "text",
                                "text": "Can we build a global antibody defense barrier against coronavirus and future pandemics? Join us Monday, May 4 at 8 am Pacific to learn how GEPAD, a consortium of the world’s leading experts on antibody discovery, are coming together to do just that. "
                            },
                            {
                                "type": "link",
                                "url": "https:\/\/go.synbiobeta.com\/l\/408192\/2020-04-29\/lsnkcd"
                            }
                        ]
                    }
                ]
            }
        ]
    },
    {
        "client_msg_id": "1b56650d-5967-4352-8315-90d8f4a52116",
        "type": "message",
        "text": "<https:\/\/www.facebook.com\/WHO\/videos\/263618641478460> WHO media report now",
        "user": "U0115G1A03D",
        "ts": "1588175253.396800",
        "team": "TUU48M0T1",
        "user_team": "TUU48M0T1",
        "source_team": "TUU48M0T1",
        "user_profile": {
            "avatar_hash": "4daeacf08e50",
            "image_72": "https:\/\/avatars.slack-edge.com\/2020-04-04\/1038340161250_4daeacf08e50360875bc_72.png",
            "first_name": "",
            "real_name": "Pablo Díaz",
            "display_name": "Pablo Díaz",
            "team": "TUU48M0T1",
            "name": "pablo.diazv",
            "is_restricted": false,
            "is_ultra_restricted": false
        },
        "attachments": [
            {
                "service_name": "Facebook",
                "service_url": "https:\/\/www.facebook.com",
                "author_name": "World Health Organization (WHO)",
                "author_link": "https:\/\/www.facebook.com\/WHO\/",
                "fallback": "Facebook Video: ",
                "from_url": "https:\/\/www.facebook.com\/WHO\/videos\/263618641478460",
                "id": 1,
                "original_url": "https:\/\/www.facebook.com\/WHO\/videos\/263618641478460"
            }
        ],
        "blocks": [
            {
                "type": "rich_text",
                "block_id": "ymF",
                "elements": [
                    {
                        "type": "rich_text_section",
                        "elements": [
                            {
                                "type": "link",
                                "url": "https:\/\/www.facebook.com\/WHO\/videos\/263618641478460"
                            },
                            {
                                "type": "text",
                                "text": " WHO media report now"
                            }
                        ]
                    }
                ]
            }
        ]
    },
    {
        "client_msg_id": "217914c4-9033-44e8-9682-d32e3b59cfc9",
        "type": "message",
        "text": "Now, JOGL in meeting <https:\/\/zoom.us\/j\/7804345815> week update",
        "user": "U0115G1A03D",
        "ts": "1588176490.397500",
        "team": "TUU48M0T1",
        "user_team": "TUU48M0T1",
        "source_team": "TUU48M0T1",
        "user_profile": {
            "avatar_hash": "4daeacf08e50",
            "image_72": "https:\/\/avatars.slack-edge.com\/2020-04-04\/1038340161250_4daeacf08e50360875bc_72.png",
            "first_name": "",
            "real_name": "Pablo Díaz",
            "display_name": "Pablo Díaz",
            "team": "TUU48M0T1",
            "name": "pablo.diazv",
            "is_restricted": false,
            "is_ultra_restricted": false
        },
        "blocks": [
            {
                "type": "rich_text",
                "block_id": "\/HehE",
                "elements": [
                    {
                        "type": "rich_text_section",
                        "elements": [
                            {
                                "type": "text",
                                "text": "Now, JOGL in meeting "
                            },
                            {
                                "type": "link",
                                "url": "https:\/\/zoom.us\/j\/7804345815"
                            },
                            {
                                "type": "text",
                                "text": " week update"
                            }
                        ]
                    }
                ]
            }
        ],
        "reactions": [
            {
                "name": "+1",
                "users": [
                    "UV02WET96"
                ],
                "count": 1
            }
        ]
    },
    {
        "type": "message",
        "subtype": "channel_join",
        "ts": "1588182056.398100",
        "user": "U012YDF5XEG",
        "text": "<@U012YDF5XEG> has joined the channel",
        "inviter": "UV02WET96"
    }
]