[
    {
        "client_msg_id": "8b01b756-cb42-4125-a7be-8f08077b9610",
        "type": "message",
        "text": "Hey, I'm able to provide you Zoom links whenever you want :slightly_smiling_face:, I have access to the JOGL account and can create meetings easily. jitsi is also an option. Let me know!",
        "user": "UV9V03C8Y",
        "ts": "1587138053.343000",
        "team": "TUU48M0T1",
        "user_team": "TUU48M0T1",
        "source_team": "TUU48M0T1",
        "user_profile": {
            "avatar_hash": "177697fb7b8f",
            "image_72": "https:\/\/avatars.slack-edge.com\/2020-03-12\/996126178096_177697fb7b8ffa57649c_72.jpg",
            "first_name": "Camille",
            "real_name": "Camille Masselot - JOGL Program coordinator",
            "display_name": "Camille Masselot - JOGL coordinator",
            "team": "TUU48M0T1",
            "name": "masselot.camille",
            "is_restricted": false,
            "is_ultra_restricted": false
        },
        "blocks": [
            {
                "type": "rich_text",
                "block_id": "6kNef",
                "elements": [
                    {
                        "type": "rich_text_section",
                        "elements": [
                            {
                                "type": "text",
                                "text": "Hey, I'm able to provide you Zoom links whenever you want "
                            },
                            {
                                "type": "emoji",
                                "name": "slightly_smiling_face"
                            },
                            {
                                "type": "text",
                                "text": ", I have access to the JOGL account and can create meetings easily. jitsi is also an option. Let me know!"
                            }
                        ]
                    }
                ]
            }
        ],
        "thread_ts": "1587059670.337400",
        "parent_user_id": "U011D6K9RH6"
    },
    {
        "type": "message",
        "text": "Hey <!channel> ! *If you'd like to join our meeting regarding onboarding it's at 5PM UTC !* \n\n• Agenda: <https:\/\/docs.google.com\/document\/d\/136k4NXlj9v7BMb9E9l4MGWznvhh09W9o1z2wfB2N4ZI\/edit#|here>\n• Zoom: <https:\/\/zoom.us\/j\/7804345815> (password if needed: 123456)\n:point_right:We're basically going to go through the to do list to improve the onboarding, maybe brainstorm few other ideas, and decide what we should implement before the next community call.\n\nSee ya!",
        "files": [
            {
                "id": "F011TQMMAR1",
                "created": 1586877384,
                "timestamp": 1586877384,
                "name": "2020-04-14 Onboarding topic meeting",
                "title": "Onboarding topic meeting",
                "mimetype": "application\/vnd.google-apps.document",
                "filetype": "gdoc",
                "pretty_type": "GSuite Document",
                "user": "UV9V03C8Y",
                "editable": false,
                "size": 399,
                "mode": "external",
                "is_external": true,
                "external_type": "gdrive",
                "is_public": true,
                "public_url_shared": false,
                "display_as_bot": false,
                "username": "",
                "url_private": "https:\/\/docs.google.com\/document\/d\/136k4NXlj9v7BMb9E9l4MGWznvhh09W9o1z2wfB2N4ZI\/edit#",
                "thumb_64": "https:\/\/files.slack.com\/files-tmb\/TUU48M0T1-F011TQMMAR1-6261500ab2\/2020-04-14_onboarding_topic_meeting_64.png?t=xoxe-980144714919-1133254701825-1120841107731-daf595b5a7d6c9028b0b02a925032e36",
                "thumb_80": "https:\/\/files.slack.com\/files-tmb\/TUU48M0T1-F011TQMMAR1-6261500ab2\/2020-04-14_onboarding_topic_meeting_80.png?t=xoxe-980144714919-1133254701825-1120841107731-daf595b5a7d6c9028b0b02a925032e36",
                "thumb_360": "https:\/\/files.slack.com\/files-tmb\/TUU48M0T1-F011TQMMAR1-6261500ab2\/2020-04-14_onboarding_topic_meeting_360.png?t=xoxe-980144714919-1133254701825-1120841107731-daf595b5a7d6c9028b0b02a925032e36",
                "thumb_360_w": 278,
                "thumb_360_h": 360,
                "thumb_480": "https:\/\/files.slack.com\/files-tmb\/TUU48M0T1-F011TQMMAR1-6261500ab2\/2020-04-14_onboarding_topic_meeting_480.png?t=xoxe-980144714919-1133254701825-1120841107731-daf595b5a7d6c9028b0b02a925032e36",
                "thumb_480_w": 371,
                "thumb_480_h": 480,
                "thumb_160": "https:\/\/files.slack.com\/files-tmb\/TUU48M0T1-F011TQMMAR1-6261500ab2\/2020-04-14_onboarding_topic_meeting_160.png?t=xoxe-980144714919-1133254701825-1120841107731-daf595b5a7d6c9028b0b02a925032e36",
                "thumb_720": "https:\/\/files.slack.com\/files-tmb\/TUU48M0T1-F011TQMMAR1-6261500ab2\/2020-04-14_onboarding_topic_meeting_720.png?t=xoxe-980144714919-1133254701825-1120841107731-daf595b5a7d6c9028b0b02a925032e36",
                "thumb_720_w": 557,
                "thumb_720_h": 720,
                "thumb_800": "https:\/\/files.slack.com\/files-tmb\/TUU48M0T1-F011TQMMAR1-6261500ab2\/2020-04-14_onboarding_topic_meeting_800.png?t=xoxe-980144714919-1133254701825-1120841107731-daf595b5a7d6c9028b0b02a925032e36",
                "thumb_800_w": 800,
                "thumb_800_h": 1035,
                "thumb_960": "https:\/\/files.slack.com\/files-tmb\/TUU48M0T1-F011TQMMAR1-6261500ab2\/2020-04-14_onboarding_topic_meeting_960.png?t=xoxe-980144714919-1133254701825-1120841107731-daf595b5a7d6c9028b0b02a925032e36",
                "thumb_960_w": 742,
                "thumb_960_h": 960,
                "thumb_1024": "https:\/\/files.slack.com\/files-tmb\/TUU48M0T1-F011TQMMAR1-6261500ab2\/2020-04-14_onboarding_topic_meeting_1024.png?t=xoxe-980144714919-1133254701825-1120841107731-daf595b5a7d6c9028b0b02a925032e36",
                "thumb_1024_w": 791,
                "thumb_1024_h": 1024,
                "image_exif_rotation": 1,
                "original_w": 800,
                "original_h": 1035,
                "thumb_tiny": "AwAwACXTpCQKG6Ui474oAXcPQ\/lS9aAR2ooAKKKKAEbpTVzmgqM55pNqk9TQBJRTNq\/3jS7B70AOopAMUtACMcdqbt9jT8UYHpQA3GOxpc+xpcD0owPSgAooooA\/\/9k=",
                "permalink": "https:\/\/open-covid19.slack.com\/files\/UV9V03C8Y\/F011TQMMAR1\/2020-04-14_onboarding_topic_meeting",
                "is_starred": false,
                "external_id": "136k4NXlj9v7BMb9E9l4MGWznvhh09W9o1z2wfB2N4ZI",
                "external_url": "https:\/\/docs.google.com\/document\/d\/136k4NXlj9v7BMb9E9l4MGWznvhh09W9o1z2wfB2N4ZI\/edit#",
                "has_rich_preview": true
            }
        ],
        "upload": false,
        "blocks": [
            {
                "type": "rich_text",
                "block_id": "=Gg",
                "elements": [
                    {
                        "type": "rich_text_section",
                        "elements": [
                            {
                                "type": "text",
                                "text": "Hey "
                            },
                            {
                                "type": "broadcast",
                                "range": "channel"
                            },
                            {
                                "type": "text",
                                "text": " ! "
                            },
                            {
                                "type": "text",
                                "text": "If you'd like to join our meeting regarding onboarding it's at 5PM UTC ! ",
                                "style": {
                                    "bold": true
                                }
                            },
                            {
                                "type": "text",
                                "text": "\n\n"
                            }
                        ]
                    },
                    {
                        "type": "rich_text_list",
                        "style": "bullet",
                        "indent": 0,
                        "elements": [
                            {
                                "type": "rich_text_section",
                                "elements": [
                                    {
                                        "type": "text",
                                        "text": "Agenda: "
                                    },
                                    {
                                        "type": "link",
                                        "url": "https:\/\/docs.google.com\/document\/d\/136k4NXlj9v7BMb9E9l4MGWznvhh09W9o1z2wfB2N4ZI\/edit#",
                                        "text": "here"
                                    }
                                ]
                            },
                            {
                                "type": "rich_text_section",
                                "elements": [
                                    {
                                        "type": "text",
                                        "text": "Zoom: "
                                    },
                                    {
                                        "type": "link",
                                        "url": "https:\/\/zoom.us\/j\/7804345815"
                                    },
                                    {
                                        "type": "text",
                                        "text": " (password if needed: 123456)"
                                    }
                                ]
                            }
                        ]
                    },
                    {
                        "type": "rich_text_section",
                        "elements": [
                            {
                                "type": "text",
                                "text": "\n"
                            },
                            {
                                "type": "emoji",
                                "name": "point_right"
                            },
                            {
                                "type": "text",
                                "text": "We're basically going to go through the to do list to improve the onboarding, maybe brainstorm few other ideas, and decide what we should implement before the next community call.\n\nSee ya!"
                            }
                        ]
                    }
                ]
            }
        ],
        "user": "UV9V03C8Y",
        "display_as_bot": false,
        "x_files": [
            "F011TQMMAR1"
        ],
        "ts": "1587138264.346300",
        "edited": {
            "user": "UV9V03C8Y",
            "ts": "1587138950.000000"
        },
        "client_msg_id": "a8c642a2-3b98-4996-9e50-e2bc389dc188",
        "thread_ts": "1587138264.346300",
        "reply_count": 7,
        "reply_users_count": 4,
        "latest_reply": "1587142187.351100",
        "reply_users": [
            "UV2SC7ZE3",
            "U010Q3372P3",
            "UV9V03C8Y",
            "UV0RRGB6H"
        ],
        "replies": [
            {
                "user": "UV2SC7ZE3",
                "ts": "1587138767.347100"
            },
            {
                "user": "UV2SC7ZE3",
                "ts": "1587138774.347300"
            },
            {
                "user": "U010Q3372P3",
                "ts": "1587138855.347500"
            },
            {
                "user": "UV9V03C8Y",
                "ts": "1587138993.347800"
            },
            {
                "user": "U010Q3372P3",
                "ts": "1587139137.348800"
            },
            {
                "user": "UV0RRGB6H",
                "ts": "1587142126.349700"
            },
            {
                "user": "UV0RRGB6H",
                "ts": "1587142187.351100"
            }
        ],
        "subscribed": false
    },
    {
        "client_msg_id": "7f2313dc-d2a3-412a-be43-922680651aef",
        "type": "message",
        "text": "Isn't the meeting at 5 pm?",
        "user": "UV2SC7ZE3",
        "ts": "1587138767.347100",
        "team": "TUU48M0T1",
        "user_team": "TUU48M0T1",
        "source_team": "TUU48M0T1",
        "user_profile": {
            "avatar_hash": "d28dd0d076e8",
            "image_72": "https:\/\/avatars.slack-edge.com\/2020-03-14\/987873094258_d28dd0d076e8fa9a8409_72.png",
            "first_name": "David",
            "real_name": "David Lu",
            "display_name": "David Lu",
            "team": "TUU48M0T1",
            "name": "ludavidyi",
            "is_restricted": false,
            "is_ultra_restricted": false
        },
        "blocks": [
            {
                "type": "rich_text",
                "block_id": "bIF7",
                "elements": [
                    {
                        "type": "rich_text_section",
                        "elements": [
                            {
                                "type": "text",
                                "text": "Isn't the meeting at 5 pm?"
                            }
                        ]
                    }
                ]
            }
        ],
        "thread_ts": "1587138264.346300",
        "parent_user_id": "UV9V03C8Y"
    },
    {
        "client_msg_id": "5eb2b793-503c-44ff-b0c6-3cd8342c8d06",
        "type": "message",
        "text": "After the metastudy call?",
        "user": "UV2SC7ZE3",
        "ts": "1587138774.347300",
        "team": "TUU48M0T1",
        "user_team": "TUU48M0T1",
        "source_team": "TUU48M0T1",
        "user_profile": {
            "avatar_hash": "d28dd0d076e8",
            "image_72": "https:\/\/avatars.slack-edge.com\/2020-03-14\/987873094258_d28dd0d076e8fa9a8409_72.png",
            "first_name": "David",
            "real_name": "David Lu",
            "display_name": "David Lu",
            "team": "TUU48M0T1",
            "name": "ludavidyi",
            "is_restricted": false,
            "is_ultra_restricted": false
        },
        "blocks": [
            {
                "type": "rich_text",
                "block_id": "rm9",
                "elements": [
                    {
                        "type": "rich_text_section",
                        "elements": [
                            {
                                "type": "text",
                                "text": "After the metastudy call?"
                            }
                        ]
                    }
                ]
            }
        ],
        "thread_ts": "1587138264.346300",
        "parent_user_id": "UV9V03C8Y"
    },
    {
        "client_msg_id": "e7cec71f-a1eb-4e31-9bb9-0692665609a9",
        "type": "message",
        "text": "<@UV9V03C8Y> and <@UV2SC7ZE3> I think it is in roughly an hour from now. I don't have anything on my calendar starting in the next 5 minutes.",
        "user": "U010Q3372P3",
        "ts": "1587138855.347500",
        "team": "TUU48M0T1",
        "user_team": "TUU48M0T1",
        "source_team": "TUU48M0T1",
        "user_profile": {
            "avatar_hash": "95066184973b",
            "image_72": "https:\/\/avatars.slack-edge.com\/2020-03-30\/1036274198128_95066184973b1de50d1a_72.png",
            "first_name": "Kathryn",
            "real_name": "Kathryn Rowe",
            "display_name": "Kathryn Rowe",
            "team": "TUU48M0T1",
            "name": "kathryn.rowe",
            "is_restricted": false,
            "is_ultra_restricted": false
        },
        "blocks": [
            {
                "type": "rich_text",
                "block_id": "FiZ",
                "elements": [
                    {
                        "type": "rich_text_section",
                        "elements": [
                            {
                                "type": "user",
                                "user_id": "UV9V03C8Y"
                            },
                            {
                                "type": "text",
                                "text": " and "
                            },
                            {
                                "type": "user",
                                "user_id": "UV2SC7ZE3"
                            },
                            {
                                "type": "text",
                                "text": " I think it is in roughly an hour from now. I don't have anything on my calendar starting in the next 5 minutes."
                            }
                        ]
                    }
                ]
            }
        ],
        "thread_ts": "1587138264.346300",
        "parent_user_id": "UV9V03C8Y"
    },
    {
        "client_msg_id": "f4e3e656-da14-4a9b-a267-9cb234cce67b",
        "type": "message",
        "text": "<@UV2SC7ZE3> <@U010Q3372P3> it's 5PM UTC, sorry! I got confused with all the meetings. I just changed the post",
        "user": "UV9V03C8Y",
        "ts": "1587138993.347800",
        "team": "TUU48M0T1",
        "user_team": "TUU48M0T1",
        "source_team": "TUU48M0T1",
        "user_profile": {
            "avatar_hash": "177697fb7b8f",
            "image_72": "https:\/\/avatars.slack-edge.com\/2020-03-12\/996126178096_177697fb7b8ffa57649c_72.jpg",
            "first_name": "Camille",
            "real_name": "Camille Masselot - JOGL Program coordinator",
            "display_name": "Camille Masselot - JOGL coordinator",
            "team": "TUU48M0T1",
            "name": "masselot.camille",
            "is_restricted": false,
            "is_ultra_restricted": false
        },
        "blocks": [
            {
                "type": "rich_text",
                "block_id": "gtA9",
                "elements": [
                    {
                        "type": "rich_text_section",
                        "elements": [
                            {
                                "type": "user",
                                "user_id": "UV2SC7ZE3"
                            },
                            {
                                "type": "text",
                                "text": " "
                            },
                            {
                                "type": "user",
                                "user_id": "U010Q3372P3"
                            },
                            {
                                "type": "text",
                                "text": " it's 5PM UTC, sorry! I got confused with all the meetings. I just changed the post"
                            }
                        ]
                    }
                ]
            }
        ],
        "thread_ts": "1587138264.346300",
        "parent_user_id": "UV9V03C8Y",
        "reactions": [
            {
                "name": "+1",
                "users": [
                    "UV2SC7ZE3"
                ],
                "count": 1
            }
        ]
    },
    {
        "client_msg_id": "f71e6473-fe4b-43ad-aca8-e9e085442048",
        "type": "message",
        "text": ":point_up:Erratum: Onboarding meeting is at 5PM UTC (just changed it in the previous post)",
        "user": "UV9V03C8Y",
        "ts": "1587139080.348700",
        "team": "TUU48M0T1",
        "user_team": "TUU48M0T1",
        "source_team": "TUU48M0T1",
        "user_profile": {
            "avatar_hash": "177697fb7b8f",
            "image_72": "https:\/\/avatars.slack-edge.com\/2020-03-12\/996126178096_177697fb7b8ffa57649c_72.jpg",
            "first_name": "Camille",
            "real_name": "Camille Masselot - JOGL Program coordinator",
            "display_name": "Camille Masselot - JOGL coordinator",
            "team": "TUU48M0T1",
            "name": "masselot.camille",
            "is_restricted": false,
            "is_ultra_restricted": false
        },
        "blocks": [
            {
                "type": "rich_text",
                "block_id": "pk9",
                "elements": [
                    {
                        "type": "rich_text_section",
                        "elements": [
                            {
                                "type": "emoji",
                                "name": "point_up"
                            },
                            {
                                "type": "text",
                                "text": "Erratum: Onboarding meeting is at 5PM UTC (just changed it in the previous post)"
                            }
                        ]
                    }
                ]
            }
        ],
        "reactions": [
            {
                "name": "+1",
                "users": [
                    "U011D8T1Z61"
                ],
                "count": 1
            }
        ]
    },
    {
        "client_msg_id": "b609e7eb-a1ee-4809-8efd-073f02082589",
        "type": "message",
        "text": "<@UV9V03C8Y> see you at 5PM UTC!",
        "user": "U010Q3372P3",
        "ts": "1587139137.348800",
        "team": "TUU48M0T1",
        "user_team": "TUU48M0T1",
        "source_team": "TUU48M0T1",
        "user_profile": {
            "avatar_hash": "95066184973b",
            "image_72": "https:\/\/avatars.slack-edge.com\/2020-03-30\/1036274198128_95066184973b1de50d1a_72.png",
            "first_name": "Kathryn",
            "real_name": "Kathryn Rowe",
            "display_name": "Kathryn Rowe",
            "team": "TUU48M0T1",
            "name": "kathryn.rowe",
            "is_restricted": false,
            "is_ultra_restricted": false
        },
        "blocks": [
            {
                "type": "rich_text",
                "block_id": "5n3u=",
                "elements": [
                    {
                        "type": "rich_text_section",
                        "elements": [
                            {
                                "type": "user",
                                "user_id": "UV9V03C8Y"
                            },
                            {
                                "type": "text",
                                "text": " see you at 5PM UTC!"
                            }
                        ]
                    }
                ]
            }
        ],
        "thread_ts": "1587138264.346300",
        "parent_user_id": "UV9V03C8Y"
    },
    {
        "client_msg_id": "A845F552-926A-4FE8-9A1A-9BA8BB01AF87",
        "type": "message",
        "text": "What worked really well on HE was a bot welcome message in the introductions channel ",
        "user": "UV0RRGB6H",
        "ts": "1587142126.349700",
        "team": "TUU48M0T1",
        "user_team": "TUU48M0T1",
        "source_team": "TUU48M0T1",
        "user_profile": {
            "avatar_hash": "48d4ab64c90c",
            "image_72": "https:\/\/avatars.slack-edge.com\/2020-03-26\/1029789176912_48d4ab64c90c03f3af4a_72.jpg",
            "first_name": "",
            "real_name": "Chris LB Graham",
            "display_name": "",
            "team": "TUU48M0T1",
            "name": "chris.graham",
            "is_restricted": false,
            "is_ultra_restricted": false
        },
        "blocks": [
            {
                "type": "rich_text",
                "block_id": "yVEmX",
                "elements": [
                    {
                        "type": "rich_text_section",
                        "elements": [
                            {
                                "type": "text",
                                "text": "What worked really well on HE was a bot welcome message in the introductions channel "
                            }
                        ]
                    }
                ]
            }
        ],
        "thread_ts": "1587138264.346300",
        "parent_user_id": "UV9V03C8Y"
    },
    {
        "client_msg_id": "70942190-C12A-4E2C-A40A-538FAA58411C",
        "type": "message",
        "text": "They arrive or say anything in there and they’re greeted with a message telling them what to do and guiding them around a little. I didn’t make it, but it was extremely effective ",
        "user": "UV0RRGB6H",
        "ts": "1587142187.351100",
        "team": "TUU48M0T1",
        "user_team": "TUU48M0T1",
        "source_team": "TUU48M0T1",
        "user_profile": {
            "avatar_hash": "48d4ab64c90c",
            "image_72": "https:\/\/avatars.slack-edge.com\/2020-03-26\/1029789176912_48d4ab64c90c03f3af4a_72.jpg",
            "first_name": "",
            "real_name": "Chris LB Graham",
            "display_name": "",
            "team": "TUU48M0T1",
            "name": "chris.graham",
            "is_restricted": false,
            "is_ultra_restricted": false
        },
        "blocks": [
            {
                "type": "rich_text",
                "block_id": "EeYZO",
                "elements": [
                    {
                        "type": "rich_text_section",
                        "elements": [
                            {
                                "type": "text",
                                "text": "They arrive or say anything in there and they’re greeted with a message telling them what to do and guiding them around a little. I didn’t make it, but it was extremely effective "
                            }
                        ]
                    }
                ]
            }
        ],
        "thread_ts": "1587138264.346300",
        "parent_user_id": "UV9V03C8Y"
    },
    {
        "client_msg_id": "1edac13b-8c36-46a4-af4c-2efb2ac5490f",
        "type": "message",
        "text": "<https:\/\/www.gov.uk\/government\/news\/government-launches-vaccine-taskforce-to-combat-coronavirus|https:\/\/www.gov.uk\/government\/news\/government-launches-vaccine-taskforce-to-combat-coronavirus>",
        "user": "U010BA2NL9E",
        "ts": "1587142935.351400",
        "team": "TUU48M0T1",
        "user_team": "TUU48M0T1",
        "source_team": "TUU48M0T1",
        "user_profile": {
            "avatar_hash": "g3fa100f8f14",
            "image_72": "https:\/\/secure.gravatar.com\/avatar\/3fa100f8f14fc86a0f2f58648b36d29e.jpg?s=72&d=https%3A%2F%2Fa.slack-edge.com%2Fdf10d%2Fimg%2Favatars%2Fava_0008-72.png",
            "first_name": "",
            "real_name": "Eduardo Garcia",
            "display_name": "Eduardo Garcia",
            "team": "TUU48M0T1",
            "name": "eduardo.garcia",
            "is_restricted": false,
            "is_ultra_restricted": false
        },
        "attachments": [
            {
                "service_name": "GOV.UK",
                "title": "Government launches Vaccine Taskforce to combat coronavirus",
                "title_link": "https:\/\/www.gov.uk\/government\/news\/government-launches-vaccine-taskforce-to-combat-coronavirus",
                "text": "A new Vaccine Taskforce will drive forward, expedite and co-ordinate efforts to research and then produce a coronavirus vaccine.",
                "fallback": "GOV.UK: Government launches Vaccine Taskforce to combat coronavirus",
                "image_url": "https:\/\/assets.publishing.service.gov.uk\/government\/uploads\/system\/uploads\/default_news_organisation_image_data\/file\/199\/s960_beis-sign-1vs.jpg",
                "from_url": "https:\/\/www.gov.uk\/government\/news\/government-launches-vaccine-taskforce-to-combat-coronavirus",
                "image_width": 375,
                "image_height": 250,
                "image_bytes": 314016,
                "service_icon": "https:\/\/assets.publishing.service.gov.uk\/static\/apple-touch-icon-180x180-ea1cbb1cbbeddfff275dfa6e8e46b84cd530892df79dc4882a8f99b802b49a90.png",
                "id": 1,
                "original_url": "https:\/\/www.gov.uk\/government\/news\/government-launches-vaccine-taskforce-to-combat-coronavirus"
            }
        ],
        "blocks": [
            {
                "type": "rich_text",
                "block_id": "09i7",
                "elements": [
                    {
                        "type": "rich_text_section",
                        "elements": [
                            {
                                "type": "link",
                                "url": "https:\/\/www.gov.uk\/government\/news\/government-launches-vaccine-taskforce-to-combat-coronavirus",
                                "text": "https:\/\/www.gov.uk\/government\/news\/government-launches-vaccine-taskforce-to-combat-coronavirus"
                            }
                        ]
                    }
                ]
            }
        ]
    },
    {
        "client_msg_id": "2cdaabaa-ca6d-42db-abc6-f073fea0cf8a",
        "type": "message",
        "text": "UK OpenCell emergency testing labs looking for volunteers to help\n\n<https:\/\/www.opencell.bio\/coronavirus|https:\/\/www.opencell.bio\/coronavirus>",
        "user": "U010BA2NL9E",
        "ts": "1587153816.352500",
        "team": "TUU48M0T1",
        "user_team": "TUU48M0T1",
        "source_team": "TUU48M0T1",
        "user_profile": {
            "avatar_hash": "g3fa100f8f14",
            "image_72": "https:\/\/secure.gravatar.com\/avatar\/3fa100f8f14fc86a0f2f58648b36d29e.jpg?s=72&d=https%3A%2F%2Fa.slack-edge.com%2Fdf10d%2Fimg%2Favatars%2Fava_0008-72.png",
            "first_name": "",
            "real_name": "Eduardo Garcia",
            "display_name": "Eduardo Garcia",
            "team": "TUU48M0T1",
            "name": "eduardo.garcia",
            "is_restricted": false,
            "is_ultra_restricted": false
        },
        "attachments": [
            {
                "title": "Coronavirus",
                "title_link": "https:\/\/www.opencell.bio\/coronavirus",
                "text": "CoVid-19 testing rate of &gt;10K tests\/day using lab automation infrastructure. Coronavirus testing support for London and United Kingdom",
                "fallback": "Coronavirus",
                "thumb_url": "https:\/\/uploads-ssl.webflow.com\/5beda5244920652be0723efa\/5e6907cb883db4b365e200d6_seocorona.jpg",
                "from_url": "https:\/\/www.opencell.bio\/coronavirus",
                "thumb_width": 793,
                "thumb_height": 370,
                "service_name": "opencell.bio",
                "id": 1,
                "original_url": "https:\/\/www.opencell.bio\/coronavirus"
            }
        ],
        "blocks": [
            {
                "type": "rich_text",
                "block_id": "K=cB",
                "elements": [
                    {
                        "type": "rich_text_section",
                        "elements": [
                            {
                                "type": "text",
                                "text": "UK OpenCell emergency testing labs looking for volunteers to help\n\n"
                            },
                            {
                                "type": "link",
                                "url": "https:\/\/www.opencell.bio\/coronavirus",
                                "text": "https:\/\/www.opencell.bio\/coronavirus"
                            }
                        ]
                    }
                ]
            }
        ],
        "reactions": [
            {
                "name": "+1",
                "users": [
                    "UUWPKNE2E"
                ],
                "count": 1
            }
        ]
    },
    {
        "type": "message",
        "text": "IHME prediction model has been updated today.  This model is used by the White House.  Numbers now reflect state-by-state variations and <https:\/\/covid19.healthdata.org\/united-states-of-america|https:\/\/covid19.healthdata.org\/united-states-of-america>\nNotes on the changes:\n<http:\/\/www.healthdata.org\/covid\/updates|http:\/\/www.healthdata.org\/covid\/updates>\n\nEarliest date to reintroduce social distancing (lifting of stay-at-home):",
        "files": [
            {
                "id": "F012SKJTLG0",
                "created": 1587160874,
                "timestamp": 1587160874,
                "name": "US_threshold_by_week_title_fix_20200417_upper_0417.png",
                "title": "US_threshold_by_week_title_fix_20200417_upper_0417.png",
                "mimetype": "image\/png",
                "filetype": "png",
                "pretty_type": "PNG",
                "user": "UV78M0ESG",
                "editable": false,
                "size": 42923,
                "mode": "hosted",
                "is_external": false,
                "external_type": "",
                "is_public": true,
                "public_url_shared": false,
                "display_as_bot": false,
                "username": "",
                "url_private": "https:\/\/files.slack.com\/files-pri\/TUU48M0T1-F012SKJTLG0\/us_threshold_by_week_title_fix_20200417_upper_0417.png?t=xoxe-980144714919-1133254701825-1120841107731-daf595b5a7d6c9028b0b02a925032e36",
                "url_private_download": "https:\/\/files.slack.com\/files-pri\/TUU48M0T1-F012SKJTLG0\/download\/us_threshold_by_week_title_fix_20200417_upper_0417.png?t=xoxe-980144714919-1133254701825-1120841107731-daf595b5a7d6c9028b0b02a925032e36",
                "thumb_64": "https:\/\/files.slack.com\/files-tmb\/TUU48M0T1-F012SKJTLG0-7cf771ea1c\/us_threshold_by_week_title_fix_20200417_upper_0417_64.png?t=xoxe-980144714919-1133254701825-1120841107731-daf595b5a7d6c9028b0b02a925032e36",
                "thumb_80": "https:\/\/files.slack.com\/files-tmb\/TUU48M0T1-F012SKJTLG0-7cf771ea1c\/us_threshold_by_week_title_fix_20200417_upper_0417_80.png?t=xoxe-980144714919-1133254701825-1120841107731-daf595b5a7d6c9028b0b02a925032e36",
                "thumb_360": "https:\/\/files.slack.com\/files-tmb\/TUU48M0T1-F012SKJTLG0-7cf771ea1c\/us_threshold_by_week_title_fix_20200417_upper_0417_360.png?t=xoxe-980144714919-1133254701825-1120841107731-daf595b5a7d6c9028b0b02a925032e36",
                "thumb_360_w": 360,
                "thumb_360_h": 278,
                "thumb_480": "https:\/\/files.slack.com\/files-tmb\/TUU48M0T1-F012SKJTLG0-7cf771ea1c\/us_threshold_by_week_title_fix_20200417_upper_0417_480.png?t=xoxe-980144714919-1133254701825-1120841107731-daf595b5a7d6c9028b0b02a925032e36",
                "thumb_480_w": 480,
                "thumb_480_h": 371,
                "thumb_160": "https:\/\/files.slack.com\/files-tmb\/TUU48M0T1-F012SKJTLG0-7cf771ea1c\/us_threshold_by_week_title_fix_20200417_upper_0417_160.png?t=xoxe-980144714919-1133254701825-1120841107731-daf595b5a7d6c9028b0b02a925032e36",
                "thumb_720": "https:\/\/files.slack.com\/files-tmb\/TUU48M0T1-F012SKJTLG0-7cf771ea1c\/us_threshold_by_week_title_fix_20200417_upper_0417_720.png?t=xoxe-980144714919-1133254701825-1120841107731-daf595b5a7d6c9028b0b02a925032e36",
                "thumb_720_w": 720,
                "thumb_720_h": 556,
                "thumb_800": "https:\/\/files.slack.com\/files-tmb\/TUU48M0T1-F012SKJTLG0-7cf771ea1c\/us_threshold_by_week_title_fix_20200417_upper_0417_800.png?t=xoxe-980144714919-1133254701825-1120841107731-daf595b5a7d6c9028b0b02a925032e36",
                "thumb_800_w": 800,
                "thumb_800_h": 618,
                "thumb_960": "https:\/\/files.slack.com\/files-tmb\/TUU48M0T1-F012SKJTLG0-7cf771ea1c\/us_threshold_by_week_title_fix_20200417_upper_0417_960.png?t=xoxe-980144714919-1133254701825-1120841107731-daf595b5a7d6c9028b0b02a925032e36",
                "thumb_960_w": 960,
                "thumb_960_h": 742,
                "thumb_1024": "https:\/\/files.slack.com\/files-tmb\/TUU48M0T1-F012SKJTLG0-7cf771ea1c\/us_threshold_by_week_title_fix_20200417_upper_0417_1024.png?t=xoxe-980144714919-1133254701825-1120841107731-daf595b5a7d6c9028b0b02a925032e36",
                "thumb_1024_w": 1024,
                "thumb_1024_h": 791,
                "original_w": 2200,
                "original_h": 1700,
                "thumb_tiny": "AwAlADDQkkWMAnPPpSB0cZwaivASq49arGUrhASDSuQ5WZYN1CJChVsg4qZDG4BXvWUxPmFupzViCTG3Iwc5\/Ci4cxoYVeaWqSyyXExUAhOhGccVdAwAB2plJ3GTJ5kZHftWa6kXADDFaLOQ6jsepp\/BxkZ9KVhNXMiTO84oHA3HIwe1XXs1MqlchTndT5LWPy22r83Uc96LE8rFtk8uJnOctzz1qYNk01wzwnHDEd6UKQaZYuKMcYpaKBhRRRQAUUUUAf\/Z",
                "permalink": "https:\/\/open-covid19.slack.com\/files\/UV78M0ESG\/F012SKJTLG0\/us_threshold_by_week_title_fix_20200417_upper_0417.png",
                "permalink_public": "https:\/\/slack-files.com\/TUU48M0T1-F012SKJTLG0-49b9017a34",
                "is_starred": false,
                "has_rich_preview": false
            }
        ],
        "upload": true,
        "blocks": [
            {
                "type": "rich_text",
                "block_id": "Awao",
                "elements": [
                    {
                        "type": "rich_text_section",
                        "elements": [
                            {
                                "type": "text",
                                "text": "IHME prediction model has been updated today.  This model is used by the White House.  Numbers now reflect state-by-state variations and "
                            },
                            {
                                "type": "link",
                                "url": "https:\/\/covid19.healthdata.org\/united-states-of-america",
                                "text": "https:\/\/covid19.healthdata.org\/united-states-of-america"
                            },
                            {
                                "type": "text",
                                "text": "\nNotes on the changes:\n"
                            },
                            {
                                "type": "link",
                                "url": "http:\/\/www.healthdata.org\/covid\/updates",
                                "text": "http:\/\/www.healthdata.org\/covid\/updates"
                            },
                            {
                                "type": "text",
                                "text": "\n\nEarliest date to reintroduce social distancing (lifting of stay-at-home):"
                            }
                        ]
                    }
                ]
            }
        ],
        "user": "UV78M0ESG",
        "display_as_bot": false,
        "ts": "1587160879.353600",
        "client_msg_id": "dba66edd-42d1-4b67-bf40-73b147b488aa"
    },
    {
        "client_msg_id": "73c8888f-28a4-4cbc-bbac-71da3aa187de",
        "type": "message",
        "text": "Hello everyone. Here's a quick question for you. I have been given a donation of a large amount of hand sanitizer but we are not sure of the alcohol concentration in it. Given that you apparently need over 70% to destroy the virus do any of you have any ideas for ways to be able to test the concentration in a pretty much home workshop environment?  I don't think a hydrometer will be any use.  Do any of you have any ideas?",
        "user": "U011NSDDEKV",
        "ts": "1587162026.356100",
        "team": "TUU48M0T1",
        "user_team": "TUU48M0T1",
        "source_team": "TUU48M0T1",
        "user_profile": {
            "avatar_hash": "f40d81b3da8e",
            "image_72": "https:\/\/avatars.slack-edge.com\/2020-04-16\/1067938122146_f40d81b3da8e15829449_72.jpg",
            "first_name": "Martin",
            "real_name": "Martin Codyre",
            "display_name": "Martin Codyre",
            "team": "TUU48M0T1",
            "name": "martin.codyre",
            "is_restricted": false,
            "is_ultra_restricted": false
        },
        "blocks": [
            {
                "type": "rich_text",
                "block_id": "SZWO",
                "elements": [
                    {
                        "type": "rich_text_section",
                        "elements": [
                            {
                                "type": "text",
                                "text": "Hello everyone. Here's a quick question for you. I have been given a donation of a large amount of hand sanitizer but we are not sure of the alcohol concentration in it. Given that you apparently need over 70% to destroy the virus do any of you have any ideas for ways to be able to test the concentration in a pretty much home workshop environment?  I don't think a hydrometer will be any use.  Do any of you have any ideas?"
                            }
                        ]
                    }
                ]
            }
        ],
        "thread_ts": "1587162026.356100",
        "reply_count": 5,
        "reply_users_count": 3,
        "latest_reply": "1587252949.361900",
        "reply_users": [
            "U01084P4ELX",
            "U011NSDDEKV",
            "U0102NEMRTR"
        ],
        "replies": [
            {
                "user": "U01084P4ELX",
                "ts": "1587166028.356200"
            },
            {
                "user": "U011NSDDEKV",
                "ts": "1587166828.356400"
            },
            {
                "user": "U0102NEMRTR",
                "ts": "1587193329.357200"
            },
            {
                "user": "U0102NEMRTR",
                "ts": "1587193566.357400"
            },
            {
                "user": "U011NSDDEKV",
                "ts": "1587252949.361900"
            }
        ],
        "subscribed": false
    },
    {
        "client_msg_id": "83268d21-6d9f-4905-a6c3-3ef73afe8c30",
        "type": "message",
        "text": "There's the old-fashioned way: see how much water you have to dilute it with to make it nonflammable",
        "user": "U01084P4ELX",
        "ts": "1587166028.356200",
        "team": "TUU48M0T1",
        "user_team": "TUU48M0T1",
        "source_team": "TUU48M0T1",
        "user_profile": {
            "avatar_hash": "g314bfba96c5",
            "image_72": "https:\/\/secure.gravatar.com\/avatar\/314bfba96c545495efbc8e77256c78a1.jpg?s=72&d=https%3A%2F%2Fa.slack-edge.com%2Fdf10d%2Fimg%2Favatars%2Fava_0024-72.png",
            "first_name": "",
            "real_name": "Chris Hennick",
            "display_name": "Chris Hennick",
            "team": "TUU48M0T1",
            "name": "chrishennick1",
            "is_restricted": false,
            "is_ultra_restricted": false
        },
        "blocks": [
            {
                "type": "rich_text",
                "block_id": "XZRq",
                "elements": [
                    {
                        "type": "rich_text_section",
                        "elements": [
                            {
                                "type": "text",
                                "text": "There's the old-fashioned way: see how much water you have to dilute it with to make it nonflammable"
                            }
                        ]
                    }
                ]
            }
        ],
        "thread_ts": "1587162026.356100",
        "parent_user_id": "U011NSDDEKV"
    },
    {
        "client_msg_id": "95ba5a6f-d061-40d1-8b72-c9ded3208ce6",
        "type": "message",
        "text": "Very interesting. Thanks.",
        "user": "U011NSDDEKV",
        "ts": "1587166828.356400",
        "team": "TUU48M0T1",
        "user_team": "TUU48M0T1",
        "source_team": "TUU48M0T1",
        "user_profile": {
            "avatar_hash": "f40d81b3da8e",
            "image_72": "https:\/\/avatars.slack-edge.com\/2020-04-16\/1067938122146_f40d81b3da8e15829449_72.jpg",
            "first_name": "Martin",
            "real_name": "Martin Codyre",
            "display_name": "Martin Codyre",
            "team": "TUU48M0T1",
            "name": "martin.codyre",
            "is_restricted": false,
            "is_ultra_restricted": false
        },
        "blocks": [
            {
                "type": "rich_text",
                "block_id": "otm",
                "elements": [
                    {
                        "type": "rich_text_section",
                        "elements": [
                            {
                                "type": "text",
                                "text": "Very interesting. Thanks."
                            }
                        ]
                    }
                ]
            }
        ],
        "thread_ts": "1587162026.356100",
        "parent_user_id": "U011NSDDEKV"
    },
    {
        "client_msg_id": "67ce64bd-0937-497a-8ada-c941f8bf57bd",
        "type": "message",
        "text": "<https:\/\/www.bloomberg.com\/news\/articles\/2020-04-17\/oxford-vaccine-veteran-lays-out-coronavirus-immunization-plans?srnd=premium-europe|https:\/\/www.bloomberg.com\/news\/articles\/2020-04-17\/oxford-vaccine-veteran-lays-out-coronavirus-immunization-plans?srnd=premium-europe>",
        "user": "U010BA2NL9E",
        "ts": "1587188332.356900",
        "team": "TUU48M0T1",
        "user_team": "TUU48M0T1",
        "source_team": "TUU48M0T1",
        "user_profile": {
            "avatar_hash": "g3fa100f8f14",
            "image_72": "https:\/\/secure.gravatar.com\/avatar\/3fa100f8f14fc86a0f2f58648b36d29e.jpg?s=72&d=https%3A%2F%2Fa.slack-edge.com%2Fdf10d%2Fimg%2Favatars%2Fava_0008-72.png",
            "first_name": "",
            "real_name": "Eduardo Garcia",
            "display_name": "Eduardo Garcia",
            "team": "TUU48M0T1",
            "name": "eduardo.garcia",
            "is_restricted": false,
            "is_ultra_restricted": false
        },
        "attachments": [
            {
                "service_name": "Bloomberg.com",
                "title": "Virus Vaccine May Be Ready for Mass Production By Autumn, Oxford Professor Says",
                "title_link": "https:\/\/www.bloomberg.com\/news\/articles\/2020-04-17\/oxford-vaccine-veteran-lays-out-coronavirus-immunization-plans?srnd=premium-europe",
                "text": "A coronavirus vaccine trial by University of Oxford researchers aims to get efficacy results by September, and manufacturing is already underway.",
                "fallback": "Bloomberg.com: Virus Vaccine May Be Ready for Mass Production By Autumn, Oxford Professor Says",
                "image_url": "https:\/\/assets.bwbx.io\/images\/users\/iqjWHBFdfxIU\/izEyEsgKbOsg\/v0\/1200x800.jpg",
                "from_url": "https:\/\/www.bloomberg.com\/news\/articles\/2020-04-17\/oxford-vaccine-veteran-lays-out-coronavirus-immunization-plans?srnd=premium-europe",
                "image_width": 375,
                "image_height": 250,
                "image_bytes": 111537,
                "service_icon": "https:\/\/assets.bwbx.io\/s3\/javelin\/public\/javelin\/images\/favicon-black-63fe5249d3.png",
                "id": 1,
                "original_url": "https:\/\/www.bloomberg.com\/news\/articles\/2020-04-17\/oxford-vaccine-veteran-lays-out-coronavirus-immunization-plans?srnd=premium-europe"
            }
        ],
        "blocks": [
            {
                "type": "rich_text",
                "block_id": "VMT",
                "elements": [
                    {
                        "type": "rich_text_section",
                        "elements": [
                            {
                                "type": "link",
                                "url": "https:\/\/www.bloomberg.com\/news\/articles\/2020-04-17\/oxford-vaccine-veteran-lays-out-coronavirus-immunization-plans?srnd=premium-europe",
                                "text": "https:\/\/www.bloomberg.com\/news\/articles\/2020-04-17\/oxford-vaccine-veteran-lays-out-coronavirus-immunization-plans?srnd=premium-europe"
                            }
                        ]
                    }
                ]
            }
        ]
    }
]