[
    {
        "client_msg_id": "372d0770-70b7-4a95-95aa-5498373e0ffc",
        "type": "message",
        "text": "Hello, who participates to the euvscovid Hackathon? We will be there with HackIT-19 team",
        "user": "U011NP2GGJJ",
        "ts": "1587725507.384100",
        "team": "TUU48M0T1",
        "user_team": "TUU48M0T1",
        "source_team": "TUU48M0T1",
        "user_profile": {
            "avatar_hash": "g3cc77bf0759",
            "image_72": "https:\/\/secure.gravatar.com\/avatar\/3cc77bf075917df3f244f1cd9de236e0.jpg?s=72&d=https%3A%2F%2Fa.slack-edge.com%2Fdf10d%2Fimg%2Favatars%2Fava_0002-72.png",
            "first_name": "",
            "real_name": "Sophie Parsy",
            "display_name": "Sophie Parsy",
            "team": "TUU48M0T1",
            "name": "parsysophie",
            "is_restricted": false,
            "is_ultra_restricted": false
        },
        "blocks": [
            {
                "type": "rich_text",
                "block_id": "6U+",
                "elements": [
                    {
                        "type": "rich_text_section",
                        "elements": [
                            {
                                "type": "text",
                                "text": "Hello, who participates to the euvscovid Hackathon? We will be there with HackIT-19 team"
                            }
                        ]
                    }
                ]
            }
        ],
        "thread_ts": "1587725507.384100",
        "reply_count": 3,
        "reply_users_count": 3,
        "latest_reply": "1588111562.395200",
        "reply_users": [
            "UV9V03C8Y",
            "UV87UQ37A",
            "U011NP2GGJJ"
        ],
        "replies": [
            {
                "user": "UV9V03C8Y",
                "ts": "1587725843.384300"
            },
            {
                "user": "UV87UQ37A",
                "ts": "1587772385.385600"
            },
            {
                "user": "U011NP2GGJJ",
                "ts": "1588111562.395200"
            }
        ],
        "subscribed": false,
        "reactions": [
            {
                "name": "heart_eyes",
                "users": [
                    "UV9V03C8Y"
                ],
                "count": 1
            }
        ]
    },
    {
        "client_msg_id": "b3e0aa69-e7d1-4663-b79f-4427e08bd563",
        "type": "message",
        "text": "<@U011NP2GGJJ> I'm actually considering it. Anyone else from this community?",
        "user": "UV9V03C8Y",
        "ts": "1587725843.384300",
        "team": "TUU48M0T1",
        "user_team": "TUU48M0T1",
        "source_team": "TUU48M0T1",
        "user_profile": {
            "avatar_hash": "177697fb7b8f",
            "image_72": "https:\/\/avatars.slack-edge.com\/2020-03-12\/996126178096_177697fb7b8ffa57649c_72.jpg",
            "first_name": "Camille",
            "real_name": "Camille Masselot - JOGL Program coordinator",
            "display_name": "Camille Masselot - JOGL coordinator",
            "team": "TUU48M0T1",
            "name": "masselot.camille",
            "is_restricted": false,
            "is_ultra_restricted": false
        },
        "blocks": [
            {
                "type": "rich_text",
                "block_id": "QO0H",
                "elements": [
                    {
                        "type": "rich_text_section",
                        "elements": [
                            {
                                "type": "user",
                                "user_id": "U011NP2GGJJ"
                            },
                            {
                                "type": "text",
                                "text": " I'm actually considering it. Anyone else from this community?"
                            }
                        ]
                    }
                ]
            }
        ],
        "thread_ts": "1587725507.384100",
        "parent_user_id": "U011NP2GGJJ",
        "reactions": [
            {
                "name": "+1::skin-tone-5",
                "users": [
                    "U011NP2GGJJ"
                ],
                "count": 1
            }
        ]
    },
    {
        "client_msg_id": "acae01fc-000a-453d-908d-071e45b649ed",
        "type": "message",
        "text": "<@UV9V03C8Y> - yes. Encode Health can help with this.",
        "user": "U01243D50RH",
        "ts": "1587726287.384700",
        "team": "TUU48M0T1",
        "user_team": "TUU48M0T1",
        "source_team": "TUU48M0T1",
        "user_profile": {
            "avatar_hash": "g02551b11059",
            "image_72": "https:\/\/secure.gravatar.com\/avatar\/02551b11059024af5f89da9dfc17e766.jpg?s=72&d=https%3A%2F%2Fa.slack-edge.com%2Fdf10d%2Fimg%2Favatars%2Fava_0011-72.png",
            "first_name": "",
            "real_name": "cosfantis(opencovid)",
            "display_name": "cosfantis(opencovid)",
            "team": "TUU48M0T1",
            "name": "cosfantis",
            "is_restricted": false,
            "is_ultra_restricted": false
        },
        "blocks": [
            {
                "type": "rich_text",
                "block_id": "a=2Om",
                "elements": [
                    {
                        "type": "rich_text_section",
                        "elements": [
                            {
                                "type": "user",
                                "user_id": "UV9V03C8Y"
                            },
                            {
                                "type": "text",
                                "text": " - yes. Encode Health can help with this."
                            }
                        ]
                    }
                ]
            }
        ],
        "thread_ts": "1587647076.381900",
        "parent_user_id": "UV9V03C8Y"
    },
    {
        "client_msg_id": "1b22194e-7282-4d0e-9d26-d25df606d26e",
        "type": "message",
        "text": "<@U012PAADW2Y>",
        "user": "U011D6K9RH6",
        "ts": "1587754119.385300",
        "team": "TUU48M0T1",
        "user_team": "TUU48M0T1",
        "source_team": "TUU48M0T1",
        "user_profile": {
            "avatar_hash": "85c5155708e4",
            "image_72": "https:\/\/avatars.slack-edge.com\/2020-04-02\/1033600589794_85c5155708e4e6cfa61f_72.jpg",
            "first_name": "George",
            "real_name": "George Elerick",
            "display_name": "George Elerick",
            "team": "TUU48M0T1",
            "name": "george",
            "is_restricted": false,
            "is_ultra_restricted": false
        },
        "blocks": [
            {
                "type": "rich_text",
                "block_id": "6vb",
                "elements": [
                    {
                        "type": "rich_text_section",
                        "elements": [
                            {
                                "type": "user",
                                "user_id": "U012PAADW2Y"
                            }
                        ]
                    }
                ]
            }
        ]
    },
    {
        "client_msg_id": "4A193A63-DDB0-425C-98B7-2DE0D391F3E3",
        "type": "message",
        "text": "how was it??",
        "user": "UV87UQ37A",
        "ts": "1587772385.385600",
        "team": "TUU48M0T1",
        "user_team": "TUU48M0T1",
        "source_team": "TUU48M0T1",
        "user_profile": {
            "avatar_hash": "g7c78d2f0258",
            "image_72": "https:\/\/secure.gravatar.com\/avatar\/7c78d2f0258f7bdf78a86301cfd6b712.jpg?s=72&d=https%3A%2F%2Fa.slack-edge.com%2Fdf10d%2Fimg%2Favatars%2Fava_0014-72.png",
            "first_name": "Victoria",
            "real_name": "Victoria Costa",
            "display_name": "Victoria Costa",
            "team": "TUU48M0T1",
            "name": "victorycoast",
            "is_restricted": false,
            "is_ultra_restricted": false
        },
        "blocks": [
            {
                "type": "rich_text",
                "block_id": "zfd4e",
                "elements": [
                    {
                        "type": "rich_text_section",
                        "elements": [
                            {
                                "type": "text",
                                "text": "how was it??"
                            }
                        ]
                    }
                ]
            }
        ],
        "thread_ts": "1587725507.384100",
        "parent_user_id": "U011NP2GGJJ"
    },
    {
        "client_msg_id": "3a01c29d-6411-4a4d-b7d3-f9cf248a9b4f",
        "type": "message",
        "text": "Clinical Trials Registry \n\n<https:\/\/www.thelancet.com\/journals\/landig\/article\/PIIS2589-7500(20)30086-8\/fulltext|https:\/\/www.thelancet.com\/journals\/landig\/article\/PIIS2589-7500(20)30086-8\/fulltext>\n\n<https:\/\/www.covid-trials.org|https:\/\/www.covid-trials.org>",
        "user": "U010BA2NL9E",
        "ts": "1587796301.385900",
        "team": "TUU48M0T1",
        "user_team": "TUU48M0T1",
        "source_team": "TUU48M0T1",
        "user_profile": {
            "avatar_hash": "g3fa100f8f14",
            "image_72": "https:\/\/secure.gravatar.com\/avatar\/3fa100f8f14fc86a0f2f58648b36d29e.jpg?s=72&d=https%3A%2F%2Fa.slack-edge.com%2Fdf10d%2Fimg%2Favatars%2Fava_0008-72.png",
            "first_name": "",
            "real_name": "Eduardo Garcia",
            "display_name": "Eduardo Garcia",
            "team": "TUU48M0T1",
            "name": "eduardo.garcia",
            "is_restricted": false,
            "is_ultra_restricted": false
        },
        "attachments": [
            {
                "text": "Covid-19 Trial Map provided by Cytel",
                "fallback": "Covid-19 Trial Map provided by Cytel",
                "from_url": "https:\/\/www.covid-trials.org\/",
                "service_name": "covid-trials.org",
                "id": 1,
                "original_url": "https:\/\/www.covid-trials.org"
            }
        ],
        "blocks": [
            {
                "type": "rich_text",
                "block_id": "u36",
                "elements": [
                    {
                        "type": "rich_text_section",
                        "elements": [
                            {
                                "type": "text",
                                "text": "Clinical Trials Registry \n\n"
                            },
                            {
                                "type": "link",
                                "url": "https:\/\/www.thelancet.com\/journals\/landig\/article\/PIIS2589-7500(20)30086-8\/fulltext",
                                "text": "https:\/\/www.thelancet.com\/journals\/landig\/article\/PIIS2589-7500(20)30086-8\/fulltext"
                            },
                            {
                                "type": "text",
                                "text": "\n\n"
                            },
                            {
                                "type": "link",
                                "url": "https:\/\/www.covid-trials.org",
                                "text": "https:\/\/www.covid-trials.org"
                            }
                        ]
                    }
                ]
            }
        ]
    }
]