[
    {
        "client_msg_id": "2649dbcc-6b73-4af6-a7d9-8685afb7372a",
        "type": "message",
        "text": "<https:\/\/www.bpifrance.fr\/A-la-une\/Appels-a-projets-concours\/Le-Challenge-Covid-19-appel-aux-partenariats-tech-internationaux-face-a-la-crise-!-49286>",
        "user": "U011NP2GGJJ",
        "ts": "1587906971.390400",
        "team": "TUU48M0T1",
        "user_team": "TUU48M0T1",
        "source_team": "TUU48M0T1",
        "user_profile": {
            "avatar_hash": "g3cc77bf0759",
            "image_72": "https:\/\/secure.gravatar.com\/avatar\/3cc77bf075917df3f244f1cd9de236e0.jpg?s=72&d=https%3A%2F%2Fa.slack-edge.com%2Fdf10d%2Fimg%2Favatars%2Fava_0002-72.png",
            "first_name": "",
            "real_name": "Sophie Parsy",
            "display_name": "Sophie Parsy",
            "team": "TUU48M0T1",
            "name": "parsysophie",
            "is_restricted": false,
            "is_ultra_restricted": false
        },
        "attachments": [
            {
                "title": "Le Challenge Covid-19 : appel aux partenariats tech internationaux face à la crise !",
                "title_link": "https:\/\/www.bpifrance.fr\/A-la-une\/Appels-a-projets-concours\/Le-Challenge-Covid-19-appel-aux-partenariats-tech-internationaux-face-a-la-crise-!-49286",
                "text": "Le « Challenge Covid-19 » est un dispositif international visant à soutenir et financer des partenariats technologiques entre entreprises innovantes pour le développement et le déploiement rapide d’innovations face aux multiples défis liés à la crise du Covid-19. Vous avez jusqu'au 15 mai 2020 pour candidater !",
                "fallback": "Le Challenge Covid-19 : appel aux partenariats tech internationaux face à la crise !",
                "image_url": "https:\/\/www.bpifrance.fr\/var\/bpifrance\/storage\/images\/bpifrance\/a-la-une\/appels-a-projets-concours\/le-challenge-covid-19-appel-aux-partenariats-tech-internationaux-face-a-la-crise-!-49286\/931205-1-fre-FR\/Le-Challenge-Covid-19-appel-aux-partenariats-tech-internationaux-face-a-la-crise.png",
                "from_url": "https:\/\/www.bpifrance.fr\/A-la-une\/Appels-a-projets-concours\/Le-Challenge-Covid-19-appel-aux-partenariats-tech-internationaux-face-a-la-crise-!-49286",
                "image_width": 273,
                "image_height": 250,
                "image_bytes": 120597,
                "service_icon": "https:\/\/www.bpifrance.fr\/favicon.ico",
                "service_name": "bpifrance.fr",
                "id": 1,
                "original_url": "https:\/\/www.bpifrance.fr\/A-la-une\/Appels-a-projets-concours\/Le-Challenge-Covid-19-appel-aux-partenariats-tech-internationaux-face-a-la-crise-!-49286"
            }
        ],
        "blocks": [
            {
                "type": "rich_text",
                "block_id": "s5k",
                "elements": [
                    {
                        "type": "rich_text_section",
                        "elements": [
                            {
                                "type": "link",
                                "url": "https:\/\/www.bpifrance.fr\/A-la-une\/Appels-a-projets-concours\/Le-Challenge-Covid-19-appel-aux-partenariats-tech-internationaux-face-a-la-crise-!-49286"
                            }
                        ]
                    }
                ]
            }
        ]
    }
]