[
    {
        "client_msg_id": "2a17ad6f-960e-4724-aecd-bad3cf97b8e5",
        "type": "message",
        "text": "<https:\/\/www.endcoronavirus.org\/|https:\/\/www.endcoronavirus.org\/>",
        "user": "UUWPKNE2E",
        "ts": "1585725651.110200",
        "team": "TUU48M0T1",
        "user_team": "TUU48M0T1",
        "source_team": "TUU48M0T1",
        "user_profile": {
            "avatar_hash": "f620efd9688e",
            "image_72": "https:\/\/avatars.slack-edge.com\/2020-03-12\/997456647751_f620efd9688ed753ecfc_72.jpg",
            "first_name": "Luca",
            "real_name": "Luca Haenel",
            "display_name": "Luca Haenel - JOGL Developer",
            "team": "TUU48M0T1",
            "name": "luca.haenel",
            "is_restricted": false,
            "is_ultra_restricted": false
        },
        "attachments": [
            {
                "title": "EndCoronavirus.org",
                "title_link": "https:\/\/www.endcoronavirus.org\/",
                "text": "The fastest and the only way to stop COVID-19 in the United States is a five-week national lockdown.",
                "fallback": "EndCoronavirus.org",
                "thumb_url": "http:\/\/static1.squarespace.com\/static\/5e7b914b3b5f9a42199b3337\/t\/5e82776f699ef250abe14e7a\/1585608560981\/ecv-logo-1.jpg?format=1500w",
                "from_url": "https:\/\/www.endcoronavirus.org\/",
                "thumb_width": 600,
                "thumb_height": 158,
                "service_icon": "https:\/\/images.squarespace-cdn.com\/content\/v1\/5e7b914b3b5f9a42199b3337\/1585230137374-08OLT3S37KK1452DTA4L\/ke17ZwdGBToddI8pDm48kO2pS9cMHbO4RvHPc8Skf1tZw-zPPgdn4jUwVcJE1ZvWhcwhEtWJXoshNdA9f1qD7SSwGn0TPzISNt3iSJufpcvR7xFZ2oYA-YTitnkXPCuTgiUfhLEJ_Uxi_cK3qclb8w\/favicon.ico?format=100w",
                "service_name": "endcoronavirus.org",
                "id": 1,
                "original_url": "https:\/\/www.endcoronavirus.org\/"
            }
        ],
        "blocks": [
            {
                "type": "rich_text",
                "block_id": "UKozo",
                "elements": [
                    {
                        "type": "rich_text_section",
                        "elements": [
                            {
                                "type": "link",
                                "url": "https:\/\/www.endcoronavirus.org\/",
                                "text": "https:\/\/www.endcoronavirus.org\/"
                            }
                        ]
                    }
                ]
            }
        ]
    },
    {
        "client_msg_id": "b6d7f931-ab36-4d1d-9fdb-348365c4311d",
        "type": "message",
        "text": "<https:\/\/www.weforum.org\/agenda\/2020\/03\/ventilator-mit-design-free-health-engineering-covid19-pandemic>",
        "user": "U0103LPAWQ4",
        "ts": "1585725695.110500",
        "team": "TUU48M0T1",
        "user_team": "TUU48M0T1",
        "source_team": "TUU48M0T1",
        "user_profile": {
            "avatar_hash": "7b345029e813",
            "image_72": "https:\/\/avatars.slack-edge.com\/2020-03-17\/1004213082549_7b345029e8137cbdc6b0_72.jpg",
            "first_name": "Bre",
            "real_name": "Bre",
            "display_name": "Bre",
            "team": "TUU48M0T1",
            "name": "info",
            "is_restricted": false,
            "is_ultra_restricted": false
        },
        "attachments": [
            {
                "service_name": "World Economic Forum",
                "title": "Coronavirus: A team from MIT is producing an open-source, low-cost ventilator design",
                "title_link": "https:\/\/www.weforum.org\/agenda\/2020\/03\/ventilator-mit-design-free-health-engineering-covid19-pandemic",
                "text": "Their work is based on a decade-old project that created device that could be built with $100 worth of parts. ",
                "fallback": "World Economic Forum: Coronavirus: A team from MIT is producing an open-source, low-cost ventilator design",
                "thumb_url": "https:\/\/assets.weforum.org\/editor\/ZSYLPwJ5xkFPWANDPM4__-PT6v6VbYXcYtPdYn4js3A.jpg",
                "from_url": "https:\/\/www.weforum.org\/agenda\/2020\/03\/ventilator-mit-design-free-health-engineering-covid19-pandemic",
                "thumb_width": 638,
                "thumb_height": 426,
                "service_icon": "https:\/\/www.weforum.org\/favicons\/apple-touch-icon.png?v=lk270KxwRj",
                "id": 1,
                "original_url": "https:\/\/www.weforum.org\/agenda\/2020\/03\/ventilator-mit-design-free-health-engineering-covid19-pandemic"
            }
        ],
        "blocks": [
            {
                "type": "rich_text",
                "block_id": "bWX",
                "elements": [
                    {
                        "type": "rich_text_section",
                        "elements": [
                            {
                                "type": "link",
                                "url": "https:\/\/www.weforum.org\/agenda\/2020\/03\/ventilator-mit-design-free-health-engineering-covid19-pandemic"
                            }
                        ]
                    }
                ]
            }
        ],
        "reactions": [
            {
                "name": "+1",
                "users": [
                    "UUWPKNE2E"
                ],
                "count": 1
            }
        ]
    },
    {
        "client_msg_id": "cd37a5b5-d97e-40a2-97c7-ffcd49f7fc7a",
        "type": "message",
        "text": "Evidence from many countries (Austria, Czech Rep, Hong Kong,...) is that everybody should wear masks in public places.\n\n<https:\/\/www.youtube.com\/watch?v=hVEVve-3QeM|https:\/\/www.youtube.com\/watch?v=hVEVve-3QeM>",
        "user": "U010BA2NL9E",
        "ts": "1585726030.112800",
        "team": "TUU48M0T1",
        "user_team": "TUU48M0T1",
        "source_team": "TUU48M0T1",
        "user_profile": {
            "avatar_hash": "g3fa100f8f14",
            "image_72": "https:\/\/secure.gravatar.com\/avatar\/3fa100f8f14fc86a0f2f58648b36d29e.jpg?s=72&d=https%3A%2F%2Fa.slack-edge.com%2Fdf10d%2Fimg%2Favatars%2Fava_0008-72.png",
            "first_name": "",
            "real_name": "Eduardo Garcia",
            "display_name": "Eduardo Garcia",
            "team": "TUU48M0T1",
            "name": "eduardo.garcia",
            "is_restricted": false,
            "is_ultra_restricted": false
        },
        "attachments": [
            {
                "service_name": "YouTube",
                "service_url": "https:\/\/www.youtube.com\/",
                "title": "Why we need #Masks4All, and how to make your own mask",
                "title_link": "https:\/\/www.youtube.com\/watch?v=hVEVve-3QeM",
                "author_name": "Jeremy Howard",
                "author_link": "https:\/\/www.youtube.com\/user\/howardjeremyp",
                "thumb_url": "https:\/\/i.ytimg.com\/vi\/hVEVve-3QeM\/hqdefault.jpg",
                "thumb_width": 480,
                "thumb_height": 360,
                "fallback": "YouTube Video: Why we need #Masks4All, and how to make your own mask",
                "video_html": "<iframe width=\"400\" height=\"225\" src=\"https:\/\/www.youtube.com\/embed\/hVEVve-3QeM?feature=oembed&autoplay=1&iv_load_policy=3\" frameborder=\"0\" allow=\"accelerometer; autoplay; encrypted-media; gyroscope; picture-in-picture\" allowfullscreen><\/iframe>",
                "video_html_width": 400,
                "video_html_height": 225,
                "from_url": "https:\/\/www.youtube.com\/watch?v=hVEVve-3QeM",
                "service_icon": "https:\/\/a.slack-edge.com\/80588\/img\/unfurl_icons\/youtube.png",
                "id": 1,
                "original_url": "https:\/\/www.youtube.com\/watch?v=hVEVve-3QeM"
            }
        ],
        "blocks": [
            {
                "type": "rich_text",
                "block_id": "Vcbt",
                "elements": [
                    {
                        "type": "rich_text_section",
                        "elements": [
                            {
                                "type": "text",
                                "text": "Evidence from many countries (Austria, Czech Rep, Hong Kong,...) is that everybody should wear masks in public places.\n\n"
                            },
                            {
                                "type": "link",
                                "url": "https:\/\/www.youtube.com\/watch?v=hVEVve-3QeM",
                                "text": "https:\/\/www.youtube.com\/watch?v=hVEVve-3QeM"
                            }
                        ]
                    }
                ]
            }
        ]
    },
    {
        "client_msg_id": "e7d2bd60-f6f5-4491-bb19-50d6998d4613",
        "type": "message",
        "text": "Hello, I will list information about existing projects and  medical studies in this thread.",
        "user": "U0115U5P1B6",
        "ts": "1585727500.113400",
        "team": "TUU48M0T1",
        "user_team": "TUU48M0T1",
        "source_team": "TUU48M0T1",
        "user_profile": {
            "avatar_hash": "6874ee7768d4",
            "image_72": "https:\/\/avatars.slack-edge.com\/2020-04-01\/1040583598240_6874ee7768d4233e0047_72.jpg",
            "first_name": "",
            "real_name": "Mika Turkia",
            "display_name": "Mika Turkia",
            "team": "TUU48M0T1",
            "name": "turkia",
            "is_restricted": false,
            "is_ultra_restricted": false
        },
        "edited": {
            "user": "U0115U5P1B6",
            "ts": "1585729152.000000"
        },
        "blocks": [
            {
                "type": "rich_text",
                "block_id": "YGk",
                "elements": [
                    {
                        "type": "rich_text_section",
                        "elements": [
                            {
                                "type": "text",
                                "text": "Hello, I will list information about existing projects and  medical studies in this thread."
                            }
                        ]
                    }
                ]
            }
        ],
        "thread_ts": "1585727500.113400",
        "reply_count": 5,
        "reply_users_count": 1,
        "latest_reply": "1585729100.115500",
        "reply_users": [
            "U0115U5P1B6"
        ],
        "replies": [
            {
                "user": "U0115U5P1B6",
                "ts": "1585727610.113500"
            },
            {
                "user": "U0115U5P1B6",
                "ts": "1585728531.114100"
            },
            {
                "user": "U0115U5P1B6",
                "ts": "1585729041.115000"
            },
            {
                "user": "U0115U5P1B6",
                "ts": "1585729079.115200"
            },
            {
                "user": "U0115U5P1B6",
                "ts": "1585729100.115500"
            }
        ],
        "subscribed": false
    },
    {
        "client_msg_id": "6b4dd361-c6fd-4539-8f6c-b27ad370226a",
        "type": "message",
        "text": "Hackathlons:\n<https:\/\/garage48.org\/hackthecrisis>",
        "user": "U0115U5P1B6",
        "ts": "1585727610.113500",
        "team": "TUU48M0T1",
        "user_team": "TUU48M0T1",
        "source_team": "TUU48M0T1",
        "user_profile": {
            "avatar_hash": "6874ee7768d4",
            "image_72": "https:\/\/avatars.slack-edge.com\/2020-04-01\/1040583598240_6874ee7768d4233e0047_72.jpg",
            "first_name": "",
            "real_name": "Mika Turkia",
            "display_name": "Mika Turkia",
            "team": "TUU48M0T1",
            "name": "turkia",
            "is_restricted": false,
            "is_ultra_restricted": false
        },
        "edited": {
            "user": "U0115U5P1B6",
            "ts": "1585729221.000000"
        },
        "blocks": [
            {
                "type": "rich_text",
                "block_id": "4Z6",
                "elements": [
                    {
                        "type": "rich_text_section",
                        "elements": [
                            {
                                "type": "text",
                                "text": "Hackathlons:\n"
                            },
                            {
                                "type": "link",
                                "url": "https:\/\/garage48.org\/hackthecrisis"
                            }
                        ]
                    }
                ]
            }
        ],
        "thread_ts": "1585727500.113400",
        "parent_user_id": "U0115U5P1B6"
    },
    {
        "client_msg_id": "37915726-dbdc-4e87-ba9c-e7a3ae7381c6",
        "type": "message",
        "text": "Face mask information:\n<https:\/\/www.ncbi.nlm.nih.gov\/pmc\/articles\/PMC6993921\/>\n<https:\/\/medium.com\/@Cancerwarrior\/covid-19-why-we-should-all-wear-masks-there-is-new-scientific-rationale-280e08ceee71>\n<https:\/\/slatestarcodex.com\/2020\/03\/23\/face-masks-much-more-than-you-wanted-to-know\/>",
        "user": "U0115U5P1B6",
        "ts": "1585728531.114100",
        "team": "TUU48M0T1",
        "user_team": "TUU48M0T1",
        "source_team": "TUU48M0T1",
        "user_profile": {
            "avatar_hash": "6874ee7768d4",
            "image_72": "https:\/\/avatars.slack-edge.com\/2020-04-01\/1040583598240_6874ee7768d4233e0047_72.jpg",
            "first_name": "",
            "real_name": "Mika Turkia",
            "display_name": "Mika Turkia",
            "team": "TUU48M0T1",
            "name": "turkia",
            "is_restricted": false,
            "is_ultra_restricted": false
        },
        "edited": {
            "user": "U0115U5P1B6",
            "ts": "1585729172.000000"
        },
        "blocks": [
            {
                "type": "rich_text",
                "block_id": "VGr",
                "elements": [
                    {
                        "type": "rich_text_section",
                        "elements": [
                            {
                                "type": "text",
                                "text": "Face mask information:\n"
                            },
                            {
                                "type": "link",
                                "url": "https:\/\/www.ncbi.nlm.nih.gov\/pmc\/articles\/PMC6993921\/"
                            },
                            {
                                "type": "text",
                                "text": "\n"
                            },
                            {
                                "type": "link",
                                "url": "https:\/\/medium.com\/@Cancerwarrior\/covid-19-why-we-should-all-wear-masks-there-is-new-scientific-rationale-280e08ceee71"
                            },
                            {
                                "type": "text",
                                "text": "\n"
                            },
                            {
                                "type": "link",
                                "url": "https:\/\/slatestarcodex.com\/2020\/03\/23\/face-masks-much-more-than-you-wanted-to-know\/"
                            }
                        ]
                    }
                ]
            }
        ],
        "thread_ts": "1585727500.113400",
        "parent_user_id": "U0115U5P1B6"
    },
    {
        "client_msg_id": "f8170bfc-c327-496e-8527-3070566a4fd8",
        "type": "message",
        "text": "Medical studies:\n<https:\/\/www.ncbi.nlm.nih.gov\/pmc\/?term=COVID-19>\n<https:\/\/www.ncbi.nlm.nih.gov\/pmc\/?term=SARS-Cov-2>\n<https:\/\/www.ncbi.nlm.nih.gov\/pmc\/?term=SARS+coronavirus>",
        "user": "U0115U5P1B6",
        "ts": "1585729041.115000",
        "team": "TUU48M0T1",
        "user_team": "TUU48M0T1",
        "source_team": "TUU48M0T1",
        "user_profile": {
            "avatar_hash": "6874ee7768d4",
            "image_72": "https:\/\/avatars.slack-edge.com\/2020-04-01\/1040583598240_6874ee7768d4233e0047_72.jpg",
            "first_name": "",
            "real_name": "Mika Turkia",
            "display_name": "Mika Turkia",
            "team": "TUU48M0T1",
            "name": "turkia",
            "is_restricted": false,
            "is_ultra_restricted": false
        },
        "blocks": [
            {
                "type": "rich_text",
                "block_id": "VB+i",
                "elements": [
                    {
                        "type": "rich_text_section",
                        "elements": [
                            {
                                "type": "text",
                                "text": "Medical studies:\n"
                            },
                            {
                                "type": "link",
                                "url": "https:\/\/www.ncbi.nlm.nih.gov\/pmc\/?term=COVID-19"
                            },
                            {
                                "type": "text",
                                "text": "\n"
                            },
                            {
                                "type": "link",
                                "url": "https:\/\/www.ncbi.nlm.nih.gov\/pmc\/?term=SARS-Cov-2"
                            },
                            {
                                "type": "text",
                                "text": "\n"
                            },
                            {
                                "type": "link",
                                "url": "https:\/\/www.ncbi.nlm.nih.gov\/pmc\/?term=SARS+coronavirus"
                            }
                        ]
                    }
                ]
            }
        ],
        "thread_ts": "1585727500.113400",
        "parent_user_id": "U0115U5P1B6"
    },
    {
        "client_msg_id": "401bc2d7-b621-47dd-bd3c-80d438071510",
        "type": "message",
        "text": "Medical preprints: <https:\/\/connect.medrxiv.org\/relate\/content\/181>",
        "user": "U0115U5P1B6",
        "ts": "1585729079.115200",
        "team": "TUU48M0T1",
        "user_team": "TUU48M0T1",
        "source_team": "TUU48M0T1",
        "user_profile": {
            "avatar_hash": "6874ee7768d4",
            "image_72": "https:\/\/avatars.slack-edge.com\/2020-04-01\/1040583598240_6874ee7768d4233e0047_72.jpg",
            "first_name": "",
            "real_name": "Mika Turkia",
            "display_name": "Mika Turkia",
            "team": "TUU48M0T1",
            "name": "turkia",
            "is_restricted": false,
            "is_ultra_restricted": false
        },
        "edited": {
            "user": "U0115U5P1B6",
            "ts": "1585729463.000000"
        },
        "blocks": [
            {
                "type": "rich_text",
                "block_id": "65NF",
                "elements": [
                    {
                        "type": "rich_text_section",
                        "elements": [
                            {
                                "type": "text",
                                "text": "Medical preprints: "
                            },
                            {
                                "type": "link",
                                "url": "https:\/\/connect.medrxiv.org\/relate\/content\/181"
                            }
                        ]
                    }
                ]
            }
        ],
        "thread_ts": "1585727500.113400",
        "parent_user_id": "U0115U5P1B6"
    },
    {
        "client_msg_id": "23d442c6-f3b5-4b2e-abe6-bbad52822ad7",
        "type": "message",
        "text": "MIT Rapid innovation dashboard with existing project (ventilators etc.): <https:\/\/innovation.mit.edu\/rapid_inno_dash_c19\/>",
        "user": "U0115U5P1B6",
        "ts": "1585729100.115500",
        "team": "TUU48M0T1",
        "user_team": "TUU48M0T1",
        "source_team": "TUU48M0T1",
        "user_profile": {
            "avatar_hash": "6874ee7768d4",
            "image_72": "https:\/\/avatars.slack-edge.com\/2020-04-01\/1040583598240_6874ee7768d4233e0047_72.jpg",
            "first_name": "",
            "real_name": "Mika Turkia",
            "display_name": "Mika Turkia",
            "team": "TUU48M0T1",
            "name": "turkia",
            "is_restricted": false,
            "is_ultra_restricted": false
        },
        "edited": {
            "user": "U0115U5P1B6",
            "ts": "1585729200.000000"
        },
        "blocks": [
            {
                "type": "rich_text",
                "block_id": "1i+",
                "elements": [
                    {
                        "type": "rich_text_section",
                        "elements": [
                            {
                                "type": "text",
                                "text": "MIT Rapid innovation dashboard with existing project (ventilators etc.): "
                            },
                            {
                                "type": "link",
                                "url": "https:\/\/innovation.mit.edu\/rapid_inno_dash_c19\/"
                            }
                        ]
                    }
                ]
            }
        ],
        "thread_ts": "1585727500.113400",
        "parent_user_id": "U0115U5P1B6"
    },
    {
        "client_msg_id": "7d956dfd-2c5d-488e-8a04-d62c9e7e26ed",
        "type": "message",
        "text": "Hi everyone! I have an educator friend, Jennifer, whose teachers are looking for scientists working on COVID-19 that would be happy to *talk to their 3rd to 6th-grade students about the virus* as part of a module they are doing on the COVID.\n\nThis could\/would include explaining what it is, how it evolved to where it is now, what work you are doing in relation to the virus\/pandemic, show visuals...  It would be ideal if you could connect from a lab, but not necessary.   If you are interested, can you ping me so I can share your details with Jennifer?",
        "user": "UV76CQTB4",
        "ts": "1585766528.119000",
        "team": "TUU48M0T1",
        "user_team": "TUU48M0T1",
        "source_team": "TUU48M0T1",
        "user_profile": {
            "avatar_hash": "07668a20a751",
            "image_72": "https:\/\/avatars.slack-edge.com\/2020-03-17\/993297059666_07668a20a751afe52104_72.png",
            "first_name": "",
            "real_name": "Julie Legault",
            "display_name": "Julie Legault",
            "team": "TUU48M0T1",
            "name": "julie",
            "is_restricted": false,
            "is_ultra_restricted": false
        },
        "blocks": [
            {
                "type": "rich_text",
                "block_id": "zgv",
                "elements": [
                    {
                        "type": "rich_text_section",
                        "elements": [
                            {
                                "type": "text",
                                "text": "Hi everyone! I have an educator friend, Jennifer, whose teachers are looking for scientists working on COVID-19 that would be happy to"
                            },
                            {
                                "type": "text",
                                "text": " talk to their 3rd to 6th-grade students about the virus ",
                                "style": {
                                    "bold": true
                                }
                            },
                            {
                                "type": "text",
                                "text": "as part of a module they are doing on the COVID.\n\nThis could\/would include explaining what it is, how it evolved to where it is now, what work you are doing in relation to the virus\/pandemic, show visuals...  It would be ideal if you could connect from a lab, but not necessary.   If you are interested, can you ping me so I can share your details with Jennifer?"
                            }
                        ]
                    }
                ]
            }
        ],
        "thread_ts": "1585766528.119000",
        "reply_count": 2,
        "reply_users_count": 2,
        "latest_reply": "1585772840.123500",
        "reply_users": [
            "U0103LPAWQ4",
            "UV76CQTB4"
        ],
        "replies": [
            {
                "user": "U0103LPAWQ4",
                "ts": "1585771972.123000"
            },
            {
                "user": "UV76CQTB4",
                "ts": "1585772840.123500"
            }
        ],
        "subscribed": false,
        "reactions": [
            {
                "name": "+1",
                "users": [
                    "U0111TMRPF0"
                ],
                "count": 1
            }
        ]
    },
    {
        "client_msg_id": "77f7f81b-93ff-4c1f-8eed-6e80ce748625",
        "type": "message",
        "text": "Salut Julie, je suis prof de technologie et je travaille d'arrache pied sur la problématique. Aujourd hui j'ai fait de la virologie. Si cela intéresse les adultes, ce genre de sujet passionne les ados. Mais attention à ne pas ajouter des angoisses qui sont déjà grande lié au confinnement",
        "user": "U0111TMRPF0",
        "ts": "1585768749.121200",
        "team": "TUU48M0T1",
        "user_team": "TUU48M0T1",
        "source_team": "TUU48M0T1",
        "user_profile": {
            "avatar_hash": "ge0c28c41723",
            "image_72": "https:\/\/secure.gravatar.com\/avatar\/e0c28c417237f3fc3e728afc06a16a9c.jpg?s=72&d=https%3A%2F%2Fa.slack-edge.com%2Fdf10d%2Fimg%2Favatars%2Fava_0006-72.png",
            "first_name": "",
            "real_name": "petitmanu",
            "display_name": "petitmanu",
            "team": "TUU48M0T1",
            "name": "pelegrinma",
            "is_restricted": false,
            "is_ultra_restricted": false
        },
        "blocks": [
            {
                "type": "rich_text",
                "block_id": "zjh",
                "elements": [
                    {
                        "type": "rich_text_section",
                        "elements": [
                            {
                                "type": "text",
                                "text": "Salut Julie, je suis prof de technologie et je travaille d'arrache pied sur la problématique. Aujourd hui j'ai fait de la virologie. Si cela intéresse les adultes, ce genre de sujet passionne les ados. Mais attention à ne pas ajouter des angoisses qui sont déjà grande lié au confinnement"
                            }
                        ]
                    }
                ]
            }
        ],
        "reactions": [
            {
                "name": "+1",
                "users": [
                    "UV76CQTB4"
                ],
                "count": 1
            }
        ]
    },
    {
        "client_msg_id": "efb67838-d0dc-4351-8729-01cc165199f6",
        "type": "message",
        "text": "Hi all, I'm interested in practice guidelines and I'm very alarmed at the blanket ban on methylprednisone. Practice guidelines generally tell doctors not to use it which is dangerous because people in hyperinflammatory states need it. More to follow. Opinion may be changing but the faster it changes the more lives to save. Here's one practice guideline that said not to use it a month ago: <https:\/\/emcrit.org\/wp-content\/uploads\/2020\/03\/COVID-19-EMCrit-Project3-16.pdf> and the most recent version says it may help especially in those who develop hyperinflammation. <https:\/\/emcrit.org\/ibcc\/covid19\/>. My very VERY rough notes are here (<https:\/\/docs.google.com\/document\/d\/1pYvFIeIFk2KZ1YyL7WQDw5xAALPFzaNyX6V4d9DZQ3U\/edit?usp=sharing>) for anyone interested. I'm not a good writer, but I want to write newspapers and professional orgs to change practice guidelines because right now they are set to hurt people because docs are told NOT to use life-saving medicine.",
        "user": "U01181TG37X",
        "ts": "1585769895.121400",
        "team": "TUU48M0T1",
        "user_team": "TUU48M0T1",
        "source_team": "TUU48M0T1",
        "user_profile": {
            "avatar_hash": "gd289e036ea7",
            "image_72": "https:\/\/secure.gravatar.com\/avatar\/d289e036ea7edb5e2f513ff27eacc080.jpg?s=72&d=https%3A%2F%2Fa.slack-edge.com%2Fdf10d%2Fimg%2Favatars%2Fava_0006-72.png",
            "first_name": "",
            "real_name": "Mary Paniscus",
            "display_name": "Mary Paniscus",
            "team": "TUU48M0T1",
            "name": "marypaniscus",
            "is_restricted": false,
            "is_ultra_restricted": false
        },
        "attachments": [
            {
                "service_name": "EMCrit Project",
                "title": "COVID-19 - EMCrit Project",
                "title_link": "https:\/\/emcrit.org\/ibcc\/covid19\/",
                "text": " Last updated 3\/29 CONTENTS Basic biology Infection control Transmission Personal protective equipment (PPE) Diagnosis Signs &amp; symptoms Labs Imaging CXR &amp; CT scan Lung ultrasonography General approach to imaging Bronchoscopy Diagnostic approach for admitted patients Treatment: General protocols Protocol for hypoxemic, non-intubated patients Protocol for intubated patients Treatment: Specific anti-viral &amp; immunosuppressive therapies Anti-viral therapies …",
                "fallback": "EMCrit Project: COVID-19 - EMCrit Project",
                "image_url": "https:\/\/i1.wp.com\/emcrit.org\/wp-content\/uploads\/2020\/03\/coronatopbrief.jpg?fit=1000%2C240&ssl=1",
                "image_width": 1000,
                "image_height": 240,
                "from_url": "https:\/\/emcrit.org\/ibcc\/covid19\/",
                "image_bytes": 15298,
                "service_icon": "https:\/\/emcrit.org\/wp-content\/themes\/magazine-pro\/images\/favicon.ico",
                "id": 1,
                "original_url": "https:\/\/emcrit.org\/ibcc\/covid19\/"
            }
        ],
        "blocks": [
            {
                "type": "rich_text",
                "block_id": "ut7",
                "elements": [
                    {
                        "type": "rich_text_section",
                        "elements": [
                            {
                                "type": "text",
                                "text": "Hi all, I'm interested in practice guidelines and I'm very alarmed at the blanket ban on methylprednisone. Practice guidelines generally tell doctors not to use it which is dangerous because people in hyperinflammatory states need it. More to follow. Opinion may be changing but the faster it changes the more lives to save. Here's one practice guideline that said not to use it a month ago: "
                            },
                            {
                                "type": "link",
                                "url": "https:\/\/emcrit.org\/wp-content\/uploads\/2020\/03\/COVID-19-EMCrit-Project3-16.pdf"
                            },
                            {
                                "type": "text",
                                "text": " and the most recent version says it may help especially in those who develop hyperinflammation. "
                            },
                            {
                                "type": "link",
                                "url": "https:\/\/emcrit.org\/ibcc\/covid19\/"
                            },
                            {
                                "type": "text",
                                "text": ". My very VERY rough notes are here ("
                            },
                            {
                                "type": "link",
                                "url": "https:\/\/docs.google.com\/document\/d\/1pYvFIeIFk2KZ1YyL7WQDw5xAALPFzaNyX6V4d9DZQ3U\/edit?usp=sharing"
                            },
                            {
                                "type": "text",
                                "text": ") for anyone interested. I'm not a good writer, but I want to write newspapers and professional orgs to change practice guidelines because right now they are set to hurt people because docs are told NOT to use life-saving medicine."
                            }
                        ]
                    }
                ]
            }
        ]
    },
    {
        "type": "message",
        "text": "Use CDC infectious pratices",
        "files": [
            {
                "id": "F0118FD7ZME",
                "created": 1585771486,
                "timestamp": 1585771486,
                "name": "CDC-BiosafetyMicrobiologicalBiomedicalLaboratories-2009-P.PDF",
                "title": "CDC-BiosafetyMicrobiologicalBiomedicalLaboratories-2009-P.PDF",
                "mimetype": "application\/pdf",
                "filetype": "pdf",
                "pretty_type": "PDF",
                "user": "U0111TMRPF0",
                "editable": false,
                "size": 4124576,
                "mode": "hosted",
                "is_external": false,
                "external_type": "",
                "is_public": true,
                "public_url_shared": false,
                "display_as_bot": false,
                "username": "",
                "url_private": "https:\/\/files.slack.com\/files-pri\/TUU48M0T1-F0118FD7ZME\/cdc-biosafetymicrobiologicalbiomedicallaboratories-2009-p.pdf?t=xoxe-980144714919-1133254701825-1120841107731-daf595b5a7d6c9028b0b02a925032e36",
                "url_private_download": "https:\/\/files.slack.com\/files-pri\/TUU48M0T1-F0118FD7ZME\/download\/cdc-biosafetymicrobiologicalbiomedicallaboratories-2009-p.pdf?t=xoxe-980144714919-1133254701825-1120841107731-daf595b5a7d6c9028b0b02a925032e36",
                "thumb_pdf": "https:\/\/files.slack.com\/files-tmb\/TUU48M0T1-F0118FD7ZME-5492d46c63\/cdc-biosafetymicrobiologicalbiomedicallaboratories-2009-p_thumb_pdf.png?t=xoxe-980144714919-1133254701825-1120841107731-daf595b5a7d6c9028b0b02a925032e36",
                "thumb_pdf_w": 660,
                "thumb_pdf_h": 990,
                "permalink": "https:\/\/open-covid19.slack.com\/files\/U0111TMRPF0\/F0118FD7ZME\/cdc-biosafetymicrobiologicalbiomedicallaboratories-2009-p.pdf",
                "permalink_public": "https:\/\/slack-files.com\/TUU48M0T1-F0118FD7ZME-496631fe4d",
                "is_starred": false,
                "has_rich_preview": false
            }
        ],
        "upload": true,
        "blocks": [
            {
                "type": "rich_text",
                "block_id": "uQr",
                "elements": [
                    {
                        "type": "rich_text_section",
                        "elements": [
                            {
                                "type": "text",
                                "text": "Use CDC infectious pratices"
                            }
                        ]
                    }
                ]
            }
        ],
        "user": "U0111TMRPF0",
        "display_as_bot": false,
        "ts": "1585771562.122100",
        "client_msg_id": "21350822-2c8f-4deb-9b03-11ee7589f81a",
        "thread_ts": "1585771562.122100",
        "reply_count": 1,
        "reply_users_count": 1,
        "latest_reply": "1585912556.136100",
        "reply_users": [
            "UV1A22N3W"
        ],
        "replies": [
            {
                "user": "UV1A22N3W",
                "ts": "1585912556.136100"
            }
        ],
        "subscribed": false
    },
    {
        "client_msg_id": "9afe28c0-c4ef-4861-a62b-23e0edc6e7f9",
        "type": "message",
        "text": "Hi <@UV76CQTB4> I love this idea. If anyone is available to do something like this for a school in Australia please let me know. I'd love to set up a morning session for my kid's school. :grinning:\nWe're in Melbourne so the time difference might be a factor for us.",
        "user": "U0103LPAWQ4",
        "ts": "1585771972.123000",
        "team": "TUU48M0T1",
        "user_team": "TUU48M0T1",
        "source_team": "TUU48M0T1",
        "user_profile": {
            "avatar_hash": "7b345029e813",
            "image_72": "https:\/\/avatars.slack-edge.com\/2020-03-17\/1004213082549_7b345029e8137cbdc6b0_72.jpg",
            "first_name": "Bre",
            "real_name": "Bre",
            "display_name": "Bre",
            "team": "TUU48M0T1",
            "name": "info",
            "is_restricted": false,
            "is_ultra_restricted": false
        },
        "edited": {
            "user": "U0103LPAWQ4",
            "ts": "1585772025.000000"
        },
        "blocks": [
            {
                "type": "rich_text",
                "block_id": "EEaP",
                "elements": [
                    {
                        "type": "rich_text_section",
                        "elements": [
                            {
                                "type": "text",
                                "text": "Hi "
                            },
                            {
                                "type": "user",
                                "user_id": "UV76CQTB4"
                            },
                            {
                                "type": "text",
                                "text": " I love this idea. If anyone is available to do something like this for a school in Australia please let me know. I'd love to set up a morning session for my kid's school. "
                            },
                            {
                                "type": "emoji",
                                "name": "grinning"
                            },
                            {
                                "type": "text",
                                "text": "\nWe're in Melbourne so the time difference might be a factor for us."
                            }
                        ]
                    }
                ]
            }
        ],
        "thread_ts": "1585766528.119000",
        "parent_user_id": "UV76CQTB4"
    },
    {
        "client_msg_id": "75f3bff1-a25c-4cfb-bf3d-156e75625721",
        "type": "message",
        "text": "Ok! Ill let you know if anyone pings :slightly_smiling_face: :crossed_fingers:",
        "user": "UV76CQTB4",
        "ts": "1585772840.123500",
        "team": "TUU48M0T1",
        "user_team": "TUU48M0T1",
        "source_team": "TUU48M0T1",
        "user_profile": {
            "avatar_hash": "07668a20a751",
            "image_72": "https:\/\/avatars.slack-edge.com\/2020-03-17\/993297059666_07668a20a751afe52104_72.png",
            "first_name": "",
            "real_name": "Julie Legault",
            "display_name": "Julie Legault",
            "team": "TUU48M0T1",
            "name": "julie",
            "is_restricted": false,
            "is_ultra_restricted": false
        },
        "blocks": [
            {
                "type": "rich_text",
                "block_id": "4O6tV",
                "elements": [
                    {
                        "type": "rich_text_section",
                        "elements": [
                            {
                                "type": "text",
                                "text": "Ok! Ill let you know if anyone pings "
                            },
                            {
                                "type": "emoji",
                                "name": "slightly_smiling_face"
                            },
                            {
                                "type": "text",
                                "text": " "
                            },
                            {
                                "type": "emoji",
                                "name": "crossed_fingers"
                            }
                        ]
                    }
                ]
            }
        ],
        "thread_ts": "1585766528.119000",
        "parent_user_id": "UV76CQTB4",
        "reactions": [
            {
                "name": "+1::skin-tone-4",
                "users": [
                    "U0103LPAWQ4"
                ],
                "count": 1
            }
        ]
    },
    {
        "client_msg_id": "05575c8e-9e53-434c-94f1-3c8989ffeeb3",
        "type": "message",
        "text": "<https:\/\/www.biorxiv.org\/content\/10.1101\/2020.03.30.015347v1|https:\/\/www.biorxiv.org\/content\/10.1101\/2020.03.30.015347v1>",
        "user": "U010BA2NL9E",
        "ts": "1585775264.124400",
        "team": "TUU48M0T1",
        "user_team": "TUU48M0T1",
        "source_team": "TUU48M0T1",
        "user_profile": {
            "avatar_hash": "g3fa100f8f14",
            "image_72": "https:\/\/secure.gravatar.com\/avatar\/3fa100f8f14fc86a0f2f58648b36d29e.jpg?s=72&d=https%3A%2F%2Fa.slack-edge.com%2Fdf10d%2Fimg%2Favatars%2Fava_0008-72.png",
            "first_name": "",
            "real_name": "Eduardo Garcia",
            "display_name": "Eduardo Garcia",
            "team": "TUU48M0T1",
            "name": "eduardo.garcia",
            "is_restricted": false,
            "is_ultra_restricted": false
        },
        "attachments": [
            {
                "service_name": "bioRxiv",
                "title": "Susceptibility of ferrets, cats, dogs, and different domestic animals to SARS-coronavirus-2",
                "title_link": "https:\/\/www.biorxiv.org\/content\/10.1101\/2020.03.30.015347v1",
                "text": "Severe acute respiratory syndrome coronavirus 2 (SARS-CoV-2) causes the infectious disease COVID-19, which was first reported in Wuhan, China in December, 2019. Despite the tremendous efforts to control the disease, COVID-19 has now spread to over 100 countries and caused a global pandemic. SARS-CoV-2 is thought to have originated in bats; however, the intermediate animal sources of the virus are completely unknown. Here, we investigated the susceptibility of ferrets and animals in close contact with humans to SARS-CoV-2. We found that SARS-CoV-2 replicates poorly in dogs, pigs, chickens, and ducks, but efficiently in ferrets and cats. We found that the virus transmits in cats via respiratory droplets. Our study provides important insights into the animal reservoirs of SARS-CoV-2 and animal management for COVID-19 control.",
                "fallback": "bioRxiv: Susceptibility of ferrets, cats, dogs, and different domestic animals to SARS-coronavirus-2",
                "thumb_url": "https:\/\/www.biorxiv.org\/sites\/default\/files\/images\/biorxiv_logo_homepage7-5-small.png",
                "ts": 1585638000,
                "from_url": "https:\/\/www.biorxiv.org\/content\/10.1101\/2020.03.30.015347v1",
                "thumb_width": 252,
                "thumb_height": 252,
                "service_icon": "https:\/\/www.biorxiv.org\/sites\/default\/files\/images\/favicon.ico",
                "id": 1,
                "original_url": "https:\/\/www.biorxiv.org\/content\/10.1101\/2020.03.30.015347v1"
            }
        ],
        "blocks": [
            {
                "type": "rich_text",
                "block_id": "ctZuU",
                "elements": [
                    {
                        "type": "rich_text_section",
                        "elements": [
                            {
                                "type": "link",
                                "url": "https:\/\/www.biorxiv.org\/content\/10.1101\/2020.03.30.015347v1",
                                "text": "https:\/\/www.biorxiv.org\/content\/10.1101\/2020.03.30.015347v1"
                            }
                        ]
                    }
                ]
            }
        ]
    }
]