[
    {
        "client_msg_id": "a62250e3-db2c-4a86-870e-759a6b091324",
        "type": "message",
        "text": "<https:\/\/www.nature.com\/articles\/d41586-020-01068-3>",
        "user": "UV1A22N3W",
        "ts": "1587283990.363100",
        "team": "TUU48M0T1",
        "user_team": "TUU48M0T1",
        "source_team": "TUU48M0T1",
        "user_profile": {
            "avatar_hash": "71f827776ad6",
            "image_72": "https:\/\/avatars.slack-edge.com\/2020-03-09\/988125642964_71f827776ad610af05a2_72.jpg",
            "first_name": "",
            "real_name": "RachelA",
            "display_name": "RachelA",
            "team": "TUU48M0T1",
            "name": "raronoff",
            "is_restricted": false,
            "is_ultra_restricted": false
        },
        "attachments": [
            {
                "title": "Thousands of coronavirus tests are going unused in US labs",
                "title_link": "https:\/\/www.nature.com\/articles\/d41586-020-01068-3",
                "text": "US labs that underwent huge efforts to retool for COVID-19 testing still aren’t operating at full capacity. Experts say the lack of a national strategy is largely to blame.",
                "fallback": "Thousands of coronavirus tests are going unused in US labs",
                "image_url": "https:\/\/media.nature.com\/lw1024\/magazine-assets\/d41586-020-01068-3\/d41586-020-01068-3_17878432.jpg",
                "from_url": "https:\/\/www.nature.com\/articles\/d41586-020-01068-3",
                "image_width": 444,
                "image_height": 250,
                "image_bytes": 77938,
                "service_name": "Nature",
                "id": 1,
                "original_url": "https:\/\/www.nature.com\/articles\/d41586-020-01068-3"
            }
        ],
        "blocks": [
            {
                "type": "rich_text",
                "block_id": "woUWR",
                "elements": [
                    {
                        "type": "rich_text_section",
                        "elements": [
                            {
                                "type": "link",
                                "url": "https:\/\/www.nature.com\/articles\/d41586-020-01068-3"
                            }
                        ]
                    }
                ]
            }
        ]
    },
    {
        "client_msg_id": "cbb83366-7aa9-4c41-8629-5b6f3dad77a2",
        "type": "message",
        "text": "<https:\/\/www.newsroom.co.nz\/2020\/04\/17\/1132682\/nz-considering-100m-contact-tracing-covidcard>",
        "user": "U0104M5CWV9",
        "ts": "1587334833.365200",
        "team": "TUU48M0T1",
        "user_team": "TUU48M0T1",
        "source_team": "TUU48M0T1",
        "user_profile": {
            "avatar_hash": "g690df94d06f",
            "image_72": "https:\/\/secure.gravatar.com\/avatar\/690df94d06f11222b2bb4d765ee7ba52.jpg?s=72&d=https%3A%2F%2Fa.slack-edge.com%2Fdf10d%2Fimg%2Favatars%2Fava_0002-72.png",
            "first_name": "John",
            "real_name": "John Urbanik",
            "display_name": "John Urbanik",
            "team": "TUU48M0T1",
            "name": "johnurbanik",
            "is_restricted": false,
            "is_ultra_restricted": false
        },
        "attachments": [
            {
                "service_name": "Newsroom",
                "title": "NZ considering $100m contact tracing 'CovidCard'",
                "title_link": "https:\/\/www.newsroom.co.nz\/2020\/04\/17\/1132682\/nz-considering-100m-contact-tracing-covidcard",
                "text": "The Government is considering handing out a Bluetooth-enabled CovidCard to every New Zealander to aid with contact tracing efforts.",
                "fallback": "Newsroom: NZ considering $100m contact tracing 'CovidCard'",
                "image_url": "https:\/\/res.cloudinary.com\/cognitives\/image\/upload\/c_fill,dpr_auto,f_auto,fl_lossy,h_650,q_auto,w_1102\/utugaqgnuppdstr7kojy",
                "image_width": 424,
                "image_height": 250,
                "ts": 1587153420,
                "from_url": "https:\/\/www.newsroom.co.nz\/2020\/04\/17\/1132682\/nz-considering-100m-contact-tracing-covidcard",
                "image_bytes": 38231,
                "service_icon": "https:\/\/d3pbdxdl8c65wb.cloudfront.net\/themes\/ROchisDFz6yCY5\/static\/images\/apple-logo.png",
                "id": 1,
                "original_url": "https:\/\/www.newsroom.co.nz\/2020\/04\/17\/1132682\/nz-considering-100m-contact-tracing-covidcard"
            }
        ],
        "blocks": [
            {
                "type": "rich_text",
                "block_id": "K3yG",
                "elements": [
                    {
                        "type": "rich_text_section",
                        "elements": [
                            {
                                "type": "link",
                                "url": "https:\/\/www.newsroom.co.nz\/2020\/04\/17\/1132682\/nz-considering-100m-contact-tracing-covidcard"
                            }
                        ]
                    }
                ]
            }
        ]
    },
    {
        "client_msg_id": "07B8B022-968A-4968-85A8-3CEEDFD12033",
        "type": "message",
        "text": "any active virologists here?? please dm me!",
        "user": "UV1A22N3W",
        "ts": "1587363739.366400",
        "team": "TUU48M0T1",
        "user_team": "TUU48M0T1",
        "source_team": "TUU48M0T1",
        "user_profile": {
            "avatar_hash": "71f827776ad6",
            "image_72": "https:\/\/avatars.slack-edge.com\/2020-03-09\/988125642964_71f827776ad610af05a2_72.jpg",
            "first_name": "",
            "real_name": "RachelA",
            "display_name": "RachelA",
            "team": "TUU48M0T1",
            "name": "raronoff",
            "is_restricted": false,
            "is_ultra_restricted": false
        },
        "blocks": [
            {
                "type": "rich_text",
                "block_id": "ne=TW",
                "elements": [
                    {
                        "type": "rich_text_section",
                        "elements": [
                            {
                                "type": "text",
                                "text": "any active virologists here?? please dm me!"
                            }
                        ]
                    }
                ]
            }
        ]
    },
    {
        "client_msg_id": "c6b5fdea-2ba5-4866-b723-bd9deea6906d",
        "type": "message",
        "text": "<https:\/\/www.rbc.ru\/rbcfreenews\/5e9d1e719a79471d29a8203a|https:\/\/www.rbc.ru\/rbcfreenews\/5e9d1e719a79471d29a8203a>\n\nGoogle Translate:\n\nThe infectious disease specialist called coronavirus\n\n Coronavirus does not follow the canons of classical epidemiology, and its manifestations are strange, the chief infectious disease specialist of the Federal Medical and Biological Agency (FMBA) of Russia Vladimir Nikiforov said on the program “Evening with Vladimir Solovyov” on the channel “Russia 1”.\n\n According to Nikiforov, the incompatibility of changes in the lungs and the patient's well-being is completely incomprehensible.  The infectious disease specialist noted that there are cases when the CT scan shows that the patient should be at least in intensive care, and the patient feels normal.  “For the time being.  Then comes the catastrophic collapse, ”he added.\n\n\n Nikiforov said that earlier pneumonia was clearly visible on an x-ray, but when infected with coronavirus, it was visible only with computed tomography.\n\n The FMBA announced the completion of the outbreak of coronavirus in Russia by summer\n\n He said that if the virus followed the \"classical pattern\", then the epidemic would end within three months.  The infectious disease specialist noted that the world was faced with \"something new.\"",
        "user": "U010BA2NL9E",
        "ts": "1587364089.366600",
        "team": "TUU48M0T1",
        "user_team": "TUU48M0T1",
        "source_team": "TUU48M0T1",
        "user_profile": {
            "avatar_hash": "g3fa100f8f14",
            "image_72": "https:\/\/secure.gravatar.com\/avatar\/3fa100f8f14fc86a0f2f58648b36d29e.jpg?s=72&d=https%3A%2F%2Fa.slack-edge.com%2Fdf10d%2Fimg%2Favatars%2Fava_0008-72.png",
            "first_name": "",
            "real_name": "Eduardo Garcia",
            "display_name": "Eduardo Garcia",
            "team": "TUU48M0T1",
            "name": "eduardo.garcia",
            "is_restricted": false,
            "is_ultra_restricted": false
        },
        "attachments": [
            {
                "service_name": "РБК",
                "title": "Инфекционист назвал странности коронавируса",
                "title_link": "https:\/\/www.rbc.ru\/rbcfreenews\/5e9d1e719a79471d29a8203a",
                "text": "Коронавирус не следует канонам классической эпидемиологии, и его проявления странные, сообщил главный инфекционист Федерального медико-биологического агентства (ФМБА) России Владимир Никифоров в ...",
                "fallback": "РБК: Инфекционист назвал странности коронавируса",
                "image_url": "https:\/\/s0.rbk.ru\/v6_top_pics\/media\/img\/7\/53\/755873574715537.jpg",
                "from_url": "https:\/\/www.rbc.ru\/rbcfreenews\/5e9d1e719a79471d29a8203a",
                "image_width": 476,
                "image_height": 250,
                "image_bytes": 61893,
                "service_icon": "http:\/\/s.rbk.ru\/v10_rbcnews_static\/common\/common-10.2.42\/images\/apple-touch-icon-60x60.png",
                "id": 1,
                "original_url": "https:\/\/www.rbc.ru\/rbcfreenews\/5e9d1e719a79471d29a8203a"
            }
        ],
        "blocks": [
            {
                "type": "rich_text",
                "block_id": "K7q6",
                "elements": [
                    {
                        "type": "rich_text_section",
                        "elements": [
                            {
                                "type": "link",
                                "url": "https:\/\/www.rbc.ru\/rbcfreenews\/5e9d1e719a79471d29a8203a",
                                "text": "https:\/\/www.rbc.ru\/rbcfreenews\/5e9d1e719a79471d29a8203a"
                            },
                            {
                                "type": "text",
                                "text": "\n\nGoogle Translate:\n\nThe infectious disease specialist called coronavirus\n\n Coronavirus does not follow the canons of classical epidemiology, and its manifestations are strange, the chief infectious disease specialist of the Federal Medical and Biological Agency (FMBA) of Russia Vladimir Nikiforov said on the program “Evening with Vladimir Solovyov” on the channel “Russia 1”.\n\n According to Nikiforov, the incompatibility of changes in the lungs and the patient's well-being is completely incomprehensible.  The infectious disease specialist noted that there are cases when the CT scan shows that the patient should be at least in intensive care, and the patient feels normal.  “For the time being.  Then comes the catastrophic collapse, ”he added.\n\n\n Nikiforov said that earlier pneumonia was clearly visible on an x-ray, but when infected with coronavirus, it was visible only with computed tomography.\n\n The FMBA announced the completion of the outbreak of coronavirus in Russia by summer\n\n He said that if the virus followed the \"classical pattern\", then the epidemic would end within three months.  The infectious disease specialist noted that the world was faced with \"something new.\""
                            }
                        ]
                    }
                ]
            }
        ],
        "thread_ts": "1587364089.366600",
        "reply_count": 1,
        "reply_users_count": 1,
        "latest_reply": "1587478011.372400",
        "reply_users": [
            "U010BA2NL9E"
        ],
        "replies": [
            {
                "user": "U010BA2NL9E",
                "ts": "1587478011.372400"
            }
        ],
        "subscribed": false
    },
    {
        "client_msg_id": "def6e271-16ac-471b-8c68-cd0f69dead9a",
        "type": "message",
        "text": "<@UV02WET96> Great idea, would anyone with experience be available to help with it?",
        "user": "U010G1TCBN2",
        "ts": "1587364779.366800",
        "team": "TUU48M0T1",
        "user_team": "TUU48M0T1",
        "source_team": "TUU48M0T1",
        "user_profile": {
            "avatar_hash": "g2f5283cc7b8",
            "image_72": "https:\/\/secure.gravatar.com\/avatar\/2f5283cc7b85e352c0f86ad8581ff371.jpg?s=72&d=https%3A%2F%2Fa.slack-edge.com%2Fdf10d%2Fimg%2Favatars%2Fava_0008-72.png",
            "first_name": "Dmitri",
            "real_name": "Dmitri Zaitsev",
            "display_name": "",
            "team": "TUU48M0T1",
            "name": "dmitri14",
            "is_restricted": false,
            "is_ultra_restricted": false
        },
        "blocks": [
            {
                "type": "rich_text",
                "block_id": "YPCX2",
                "elements": [
                    {
                        "type": "rich_text_section",
                        "elements": [
                            {
                                "type": "user",
                                "user_id": "UV02WET96"
                            },
                            {
                                "type": "text",
                                "text": " Great idea, would anyone with experience be available to help with it?"
                            }
                        ]
                    }
                ]
            }
        ],
        "thread_ts": "1587005050.317700",
        "parent_user_id": "U010G1TCBN2"
    }
]