[
    {
        "client_msg_id": "A1AA2FE6-E34B-409C-8A39-8BE719262090",
        "type": "message",
        "text": "Hey folks :wave::mask:\nHere is the recording of our last Global Community Call for you to watch and share :raised_hands:\nYou guys rock! :heart::fire:\n\n<https:\/\/youtu.be\/mlvXJu0Lst0|https:\/\/youtu.be\/mlvXJu0Lst0>",
        "user": "UV02WET96",
        "ts": "1588324401.324200",
        "team": "TUU48M0T1",
        "user_team": "TUU48M0T1",
        "source_team": "TUU48M0T1",
        "user_profile": {
            "avatar_hash": "a99c74a194f8",
            "image_72": "https:\/\/avatars.slack-edge.com\/2020-03-07\/975708504851_a99c74a194f86715ca7d_72.png",
            "first_name": "Thomas",
            "real_name": "Thomas Landrain",
            "display_name": "Thomas Landrain - JOGL CoFounder \/ CEO",
            "team": "TUU48M0T1",
            "name": "thomas",
            "is_restricted": false,
            "is_ultra_restricted": false
        },
        "attachments": [
            {
                "service_name": "YouTube",
                "service_url": "https:\/\/www.youtube.com\/",
                "title": "The OpenCovid19 Initiative [Global Community Call #9]",
                "title_link": "https:\/\/youtu.be\/mlvXJu0Lst0",
                "author_name": "Just One Giant Lab",
                "author_link": "https:\/\/www.youtube.com\/channel\/UCvgRJdZ4OoTyo8tuJNVf4fA",
                "thumb_url": "https:\/\/i.ytimg.com\/vi\/mlvXJu0Lst0\/hqdefault.jpg",
                "thumb_width": 480,
                "thumb_height": 360,
                "fallback": "YouTube Video: The OpenCovid19 Initiative [Global Community Call #9]",
                "video_html": "<iframe width=\"400\" height=\"225\" src=\"https:\/\/www.youtube.com\/embed\/mlvXJu0Lst0?feature=oembed&autoplay=1&iv_load_policy=3\" frameborder=\"0\" allow=\"accelerometer; autoplay; encrypted-media; gyroscope; picture-in-picture\" allowfullscreen><\/iframe>",
                "video_html_width": 400,
                "video_html_height": 225,
                "from_url": "https:\/\/youtu.be\/mlvXJu0Lst0",
                "service_icon": "https:\/\/a.slack-edge.com\/80588\/img\/unfurl_icons\/youtube.png",
                "id": 1,
                "original_url": "https:\/\/youtu.be\/mlvXJu0Lst0"
            }
        ],
        "blocks": [
            {
                "type": "rich_text",
                "block_id": "AT5",
                "elements": [
                    {
                        "type": "rich_text_section",
                        "elements": [
                            {
                                "type": "text",
                                "text": "Hey folks "
                            },
                            {
                                "type": "emoji",
                                "name": "wave"
                            },
                            {
                                "type": "emoji",
                                "name": "mask"
                            },
                            {
                                "type": "text",
                                "text": "\nHere is the recording of our last Global Community Call for you to watch and share "
                            },
                            {
                                "type": "emoji",
                                "name": "raised_hands"
                            },
                            {
                                "type": "text",
                                "text": "\n"
                            },
                            {
                                "type": "text",
                                "text": "You guys rock! "
                            },
                            {
                                "type": "emoji",
                                "name": "heart"
                            },
                            {
                                "type": "emoji",
                                "name": "fire"
                            },
                            {
                                "type": "text",
                                "text": "\n\n"
                            },
                            {
                                "type": "link",
                                "url": "https:\/\/youtu.be\/mlvXJu0Lst0",
                                "text": "https:\/\/youtu.be\/mlvXJu0Lst0"
                            }
                        ]
                    }
                ]
            }
        ],
        "reactions": [
            {
                "name": "+1",
                "users": [
                    "U010W2Z4MMZ",
                    "UV0QTJCMT",
                    "U011G0QGFN3",
                    "U01113Y1PLP"
                ],
                "count": 4
            },
            {
                "name": "heart",
                "users": [
                    "U011D6K9RH6"
                ],
                "count": 1
            },
            {
                "name": "100",
                "users": [
                    "UV9V03C8Y"
                ],
                "count": 1
            },
            {
                "name": "raised_hands",
                "users": [
                    "UV9V03C8Y"
                ],
                "count": 1
            }
        ]
    }
]