[
    {
        "client_msg_id": "59AB5F05-4EA2-4090-8FD8-8BD995DC63C4",
        "type": "message",
        "text": "Sounds good! I’ll take a look at the document and perhaps comment or reach out to Kat directly if I think I can be helpful on that front. ",
        "user": "UV48S3N6T",
        "ts": "1583823638.157900",
        "team": "TUU48M0T1",
        "user_team": "TUU48M0T1",
        "source_team": "TUU48M0T1",
        "user_profile": {
            "avatar_hash": "0f7d4e5620ce",
            "image_72": "https:\/\/avatars.slack-edge.com\/2020-03-08\/987981568788_0f7d4e5620ce891da3f4_72.jpg",
            "first_name": "Brendan",
            "real_name": "Brendan Rahman",
            "display_name": "brendan",
            "team": "TUU48M0T1",
            "name": "brendanrahman",
            "is_restricted": false,
            "is_ultra_restricted": false
        },
        "blocks": [
            {
                "type": "rich_text",
                "block_id": "WZl",
                "elements": [
                    {
                        "type": "rich_text_section",
                        "elements": [
                            {
                                "type": "text",
                                "text": "Sounds good! I’ll take a look at the document and perhaps comment or reach out to Kat directly if I think I can be helpful on that front. "
                            }
                        ]
                    }
                ]
            }
        ],
        "thread_ts": "1583732892.128900",
        "parent_user_id": "UV48S3N6T"
    },
    {
        "client_msg_id": "A0A23C20-AFFA-4CF8-AB5B-D1ADC6408EDC",
        "type": "message",
        "text": "Hi Kari, I can make myself available. Even though I share the concerns of JJ but as the OpenCovid19 initiative is not only about diybio (it’s included but not exclusive to) but about community approach of science and innovation in general, I’m happy to share the level of advancement and the motivation behind the project. I’ll write an email to you. \nBest,",
        "user": "UV02WET96",
        "ts": "1583830259.162900",
        "team": "TUU48M0T1",
        "user_team": "TUU48M0T1",
        "source_team": "TUU48M0T1",
        "user_profile": {
            "avatar_hash": "a99c74a194f8",
            "image_72": "https:\/\/avatars.slack-edge.com\/2020-03-07\/975708504851_a99c74a194f86715ca7d_72.png",
            "first_name": "Thomas",
            "real_name": "Thomas Landrain",
            "display_name": "Thomas Landrain - JOGL CoFounder \/ CEO",
            "team": "TUU48M0T1",
            "name": "thomas",
            "is_restricted": false,
            "is_ultra_restricted": false
        },
        "blocks": [
            {
                "type": "rich_text",
                "block_id": "Bt9qG",
                "elements": [
                    {
                        "type": "rich_text_section",
                        "elements": [
                            {
                                "type": "text",
                                "text": "Hi Kari, I can make myself available. Even though I share the concerns of JJ but as the OpenCovid19 initiative is not only about diybio (it’s included but not exclusive to) but about community approach of science and innovation in general, I’m happy to share the level of advancement and the motivation behind the project. I’ll write an email to you. \nBest,"
                            }
                        ]
                    }
                ]
            }
        ],
        "thread_ts": "1583801828.153500",
        "parent_user_id": "UV4AY45H6"
    },
    {
        "client_msg_id": "1a71081e-b8cd-4eba-92bc-a059a0c31560",
        "type": "message",
        "text": "<@UUPQGNNTV> and <@UV3HA9MM4>. I had a feeling I'd get asked this lol While I am not on the team that designed the assay, I've been in on the conversation and happy to share. It was quite the fiasco over here with HHS and FDA conducting independent investigations in to the lab I work in and the scientists working in the lab. So for those who don't know the CDC test is a multiplex real time rt-PCR assay containing four tests. The first two, called N1 and N2, target regions of the SARS-CoV-2 nucleocapsid gene that are unique to the that virus, while the third test, N3, is for SARS-like viruses. Lastly, there's an test for the human RNase P gene which allows you to validate if your sample was any good in the first place. What ended up happening in testing and early use in public health labs was false positives popping up in the N3 assay. _Though I'll add that we weren't seeing any false positives until after 38 PCR cyles, but FDA requires these types of assays run for 45 cycles._ Further investigation revealed some sort of contamination in the N3 probe\/primer set somewhere in the manufacturing process. The we handle kit manufacturing here is that the primers\/probes are synthesized in the Biotechnology Core Facility Branch, of which I am part of, and then we give master pools to the Reagents and Diagnostic Services Branch (RDSB) who handle all the aliquoting, assembly, and shipping of kits. The suspicion is that one of the speed vacs used to dry down the primers\/probes in RDSB for the N3 assay may have had some previous contamination of template DNA that was manufactured (against the urging of my colleagues) prior to CDC acquiring any actual SARS-CoV-2 specimens. The final solution was to just omit the N3 assay and only use the N1, N2, and RP for the test-- which from my understanding is what is currently being shipped to public health labs. Current protocol can be found here: <https:\/\/www.fda.gov\/media\/135879\/download>\n\nFrom my perspective, this ordeal has really shown the inefficiencies of a large bureaucratic entity. While I can confidently say that the large majority of the scientists who work at the CDC are here because they genuinely care about the health and well-being of the public, others are so fixated on career advancement and being the first to do something mistakes can get made. I really think the issue was blown out of proportion because rather just saying whoops we made a mistake, everyone wanted to point fingers. But that's just my opinion, I might be a bit cynical. Also disclaimer for job security: the views above are my own and do not reflect that of the CDC. :upside_down_face:",
        "user": "UV5CCJ9RC",
        "ts": "1583842038.163200",
        "team": "TUU48M0T1",
        "user_team": "TUU48M0T1",
        "source_team": "TUU48M0T1",
        "user_profile": {
            "avatar_hash": "2c79fe05f7e7",
            "image_72": "https:\/\/avatars.slack-edge.com\/2020-03-10\/992653932501_2c79fe05f7e75be19699_72.png",
            "first_name": "Chris",
            "real_name": "Chris Monaco",
            "display_name": "",
            "team": "TUU48M0T1",
            "name": "cmonaco.hr",
            "is_restricted": false,
            "is_ultra_restricted": false
        },
        "edited": {
            "user": "UV5CCJ9RC",
            "ts": "1583938876.000000"
        },
        "blocks": [
            {
                "type": "rich_text",
                "block_id": "yrX\/N",
                "elements": [
                    {
                        "type": "rich_text_section",
                        "elements": [
                            {
                                "type": "user",
                                "user_id": "UUPQGNNTV"
                            },
                            {
                                "type": "text",
                                "text": " and "
                            },
                            {
                                "type": "user",
                                "user_id": "UV3HA9MM4"
                            },
                            {
                                "type": "text",
                                "text": ". I had a feeling I'd get asked this lol While I am not on the team that designed the assay, I've been in on the conversation and happy to share. It was quite the fiasco over here with HHS and FDA conducting independent investigations in to the lab I work in and the scientists working in the lab. So for those who don't know the CDC test is a multiplex real time rt-PCR assay containing four tests. The first two, called N1 and N2, target regions of the SARS-CoV-2 nucleocapsid gene that are unique to the that virus, while the third test, N3, is for SARS-like viruses. Lastly, there's an test for the human RNase P gene which allows you to validate if your sample was any good in the first place. What ended up happening in testing and early use in public health labs was false positives popping up in the N3 assay. "
                            },
                            {
                                "type": "text",
                                "text": "Though I'll add that we weren't seeing any false positives until after 38 PCR cyles, but FDA requires these types of assays run for 45 cycles. ",
                                "style": {
                                    "italic": true
                                }
                            },
                            {
                                "type": "text",
                                "text": "Further investigation revealed some sort of contamination in the N3 probe\/primer set somewhere in the manufacturing process. The we handle kit manufacturing here is that the primers\/probes are synthesized in the Biotechnology Core Facility Branch, of which I am part of, and then we give master pools to the Reagents and Diagnostic Services Branch (RDSB) who handle all the aliquoting, assembly, and shipping of kits. The suspicion is that one of the speed vacs used to dry down the primers\/probes in RDSB for the N3 assay may have had some previous contamination of template DNA that was manufactured (against the urging of my colleagues) prior to CDC acquiring any actual SARS-CoV-2 specimens. The final solution was to just omit the N3 assay and only use the N1, N2, and RP for the test-- which from my understanding is what is currently being shipped to public health labs. Current protocol can be found here: "
                            },
                            {
                                "type": "link",
                                "url": "https:\/\/www.fda.gov\/media\/135879\/download"
                            },
                            {
                                "type": "text",
                                "text": "\n\nFrom my perspective, this ordeal has really shown the inefficiencies of a large bureaucratic entity. While I can confidently say that the large majority of the scientists who work at the CDC are here because they genuinely care about the health and well-being of the public, others are so fixated on career advancement and being the first to do something mistakes can get made. I really think the issue was blown out of proportion because rather just saying whoops we made a mistake, everyone wanted to point fingers. But that's just my opinion, I might be a bit cynical. Also disclaimer for job security: the views above are my own and do not reflect that of the CDC. "
                            },
                            {
                                "type": "emoji",
                                "name": "upside_down_face"
                            }
                        ]
                    }
                ]
            }
        ],
        "thread_ts": "1583769134.147900",
        "parent_user_id": "UV3HA9MM4"
    },
    {
        "client_msg_id": "ae9f015b-53cc-4866-adb1-32aae25776b2",
        "type": "message",
        "text": "Wow, Chris. Thanks SO much for the clarification. It must've been a madhouse at CDC when it started to become apparent that this was a pandemic that was already circulating here in the US, so not surprising a mistake was made. But it was caught fairly quickly so the system is working well. Kudos to all of you who are working like crazy on tests, therapies and vaccines!",
        "user": "UUPQGNNTV",
        "ts": "1583842405.163400",
        "team": "TUU48M0T1",
        "user_team": "TUU48M0T1",
        "source_team": "TUU48M0T1",
        "user_profile": {
            "avatar_hash": "c28127caf7eb",
            "image_72": "https:\/\/avatars.slack-edge.com\/2020-03-07\/989562470694_c28127caf7ebfe67df97_72.jpg",
            "first_name": "",
            "real_name": "Ellen Jorgensen",
            "display_name": "",
            "team": "TUU48M0T1",
            "name": "ejorgensen",
            "is_restricted": false,
            "is_ultra_restricted": false
        },
        "blocks": [
            {
                "type": "rich_text",
                "block_id": "g7AJo",
                "elements": [
                    {
                        "type": "rich_text_section",
                        "elements": [
                            {
                                "type": "text",
                                "text": "Wow, Chris. Thanks SO much for the clarification. It must've been a madhouse at CDC when it started to become apparent that this was a pandemic that was already circulating here in the US, so not surprising a mistake was made. But it was caught fairly quickly so the system is working well. Kudos to all of you who are working like crazy on tests, therapies and vaccines!"
                            }
                        ]
                    }
                ]
            }
        ],
        "thread_ts": "1583769134.147900",
        "parent_user_id": "UV3HA9MM4",
        "reactions": [
            {
                "name": "100",
                "users": [
                    "UV3HA9MM4"
                ],
                "count": 1
            }
        ]
    },
    {
        "client_msg_id": "3f30e66c-8fcc-4c28-b3da-c1542e4b2d7d",
        "type": "message",
        "text": "Do we have an agenda for tomorrow?",
        "user": "UV0RRGB6H",
        "ts": "1583862842.164300",
        "team": "TUU48M0T1",
        "user_team": "TUU48M0T1",
        "source_team": "TUU48M0T1",
        "user_profile": {
            "avatar_hash": "48d4ab64c90c",
            "image_72": "https:\/\/avatars.slack-edge.com\/2020-03-26\/1029789176912_48d4ab64c90c03f3af4a_72.jpg",
            "first_name": "",
            "real_name": "Chris LB Graham",
            "display_name": "",
            "team": "TUU48M0T1",
            "name": "chris.graham",
            "is_restricted": false,
            "is_ultra_restricted": false
        },
        "blocks": [
            {
                "type": "rich_text",
                "block_id": "BkQ1p",
                "elements": [
                    {
                        "type": "rich_text_section",
                        "elements": [
                            {
                                "type": "text",
                                "text": "Do we have an agenda for tomorrow?"
                            }
                        ]
                    }
                ]
            }
        ],
        "thread_ts": "1583862842.164300",
        "reply_count": 6,
        "reply_users_count": 4,
        "latest_reply": "1583892053.169300",
        "reply_users": [
            "UUUEFQW8N",
            "UV02WET96",
            "UV3HA9MM4",
            "UUNQ7H1MG"
        ],
        "replies": [
            {
                "user": "UUUEFQW8N",
                "ts": "1583862864.164400"
            },
            {
                "user": "UV02WET96",
                "ts": "1583862998.164700"
            },
            {
                "user": "UV3HA9MM4",
                "ts": "1583885045.168100"
            },
            {
                "user": "UUNQ7H1MG",
                "ts": "1583890927.168400"
            },
            {
                "user": "UUUEFQW8N",
                "ts": "1583891419.169000"
            },
            {
                "user": "UUUEFQW8N",
                "ts": "1583892053.169300"
            }
        ],
        "subscribed": true,
        "last_read": "1583892053.169300"
    },
    {
        "client_msg_id": "9e825fb3-05e2-40e6-ae32-a4ed22eb9500",
        "type": "message",
        "text": "We're drafting one right now =)",
        "user": "UUUEFQW8N",
        "ts": "1583862864.164400",
        "team": "TUU48M0T1",
        "user_team": "TUU48M0T1",
        "source_team": "TUU48M0T1",
        "user_profile": {
            "avatar_hash": "5660f4d7fe91",
            "image_72": "https:\/\/avatars.slack-edge.com\/2020-03-06\/974037299378_5660f4d7fe9118b28c09_72.jpg",
            "first_name": "zachmueller",
            "real_name": "zachmueller",
            "display_name": "zachmueller",
            "team": "TUU48M0T1",
            "name": "zach",
            "is_restricted": false,
            "is_ultra_restricted": false
        },
        "blocks": [
            {
                "type": "rich_text",
                "block_id": "LUIZ",
                "elements": [
                    {
                        "type": "rich_text_section",
                        "elements": [
                            {
                                "type": "text",
                                "text": "We're drafting one right now =)"
                            }
                        ]
                    }
                ]
            }
        ],
        "thread_ts": "1583862842.164300",
        "parent_user_id": "UV0RRGB6H",
        "reactions": [
            {
                "name": "face_with_cowboy_hat",
                "users": [
                    "UV0QTJCMT",
                    "UV0RRGB6H"
                ],
                "count": 2
            }
        ]
    },
    {
        "client_msg_id": "28ef29f0-50f3-4de7-ac8a-fa0b485bc72f",
        "type": "message",
        "text": "coming soon :slightly_smiling_face:",
        "user": "UV02WET96",
        "ts": "1583862998.164700",
        "team": "TUU48M0T1",
        "user_team": "TUU48M0T1",
        "source_team": "TUU48M0T1",
        "user_profile": {
            "avatar_hash": "a99c74a194f8",
            "image_72": "https:\/\/avatars.slack-edge.com\/2020-03-07\/975708504851_a99c74a194f86715ca7d_72.png",
            "first_name": "Thomas",
            "real_name": "Thomas Landrain",
            "display_name": "Thomas Landrain - JOGL CoFounder \/ CEO",
            "team": "TUU48M0T1",
            "name": "thomas",
            "is_restricted": false,
            "is_ultra_restricted": false
        },
        "blocks": [
            {
                "type": "rich_text",
                "block_id": "\/M5",
                "elements": [
                    {
                        "type": "rich_text_section",
                        "elements": [
                            {
                                "type": "text",
                                "text": "coming soon "
                            },
                            {
                                "type": "emoji",
                                "name": "slightly_smiling_face"
                            }
                        ]
                    }
                ]
            }
        ],
        "thread_ts": "1583862842.164300",
        "parent_user_id": "UV0RRGB6H"
    },
    {
        "client_msg_id": "66ccf8e5-02a7-4716-a6ae-28bf89044355",
        "type": "message",
        "text": "Likewise share JJ’s concerns.  And also interested in the motivation and community approach Thomas mentioned so I’ll email you too.",
        "user": "UV3HA9MM4",
        "ts": "1583877985.165500",
        "team": "TUU48M0T1",
        "user_team": "TUU48M0T1",
        "source_team": "TUU48M0T1",
        "user_profile": {
            "avatar_hash": "b2f89757c831",
            "image_72": "https:\/\/avatars.slack-edge.com\/2020-03-07\/987455908032_b2f89757c8312ec04011_72.jpg",
            "first_name": "AJP",
            "real_name": "AJP",
            "display_name": "AJP",
            "team": "TUU48M0T1",
            "name": "bioajp",
            "is_restricted": false,
            "is_ultra_restricted": false
        },
        "blocks": [
            {
                "type": "rich_text",
                "block_id": "Q3bTD",
                "elements": [
                    {
                        "type": "rich_text_section",
                        "elements": [
                            {
                                "type": "text",
                                "text": "Likewise share JJ’s concerns.  And also interested in the motivation and community approach Thomas mentioned so I’ll email you too."
                            }
                        ]
                    }
                ]
            }
        ],
        "thread_ts": "1583801828.153500",
        "parent_user_id": "UV4AY45H6",
        "reactions": [
            {
                "name": "+1",
                "users": [
                    "UV02WET96"
                ],
                "count": 1
            }
        ]
    },
    {
        "client_msg_id": "e9b95aa0-4758-4f5b-9791-bf4476c0e61b",
        "type": "message",
        "text": "<@UV5CCJ9RC> I’ll 100% echo <@UUPQGNNTV> on that.  Thank you so much for the explanation… perhaps once the dust has settled you’ll add this to humanity’s retrospective on Covid-19 :simple_smile:",
        "user": "UV3HA9MM4",
        "ts": "1583878347.165800",
        "team": "TUU48M0T1",
        "user_team": "TUU48M0T1",
        "source_team": "TUU48M0T1",
        "user_profile": {
            "avatar_hash": "b2f89757c831",
            "image_72": "https:\/\/avatars.slack-edge.com\/2020-03-07\/987455908032_b2f89757c8312ec04011_72.jpg",
            "first_name": "AJP",
            "real_name": "AJP",
            "display_name": "AJP",
            "team": "TUU48M0T1",
            "name": "bioajp",
            "is_restricted": false,
            "is_ultra_restricted": false
        },
        "blocks": [
            {
                "type": "rich_text",
                "block_id": "Nw7Lk",
                "elements": [
                    {
                        "type": "rich_text_section",
                        "elements": [
                            {
                                "type": "user",
                                "user_id": "UV5CCJ9RC"
                            },
                            {
                                "type": "text",
                                "text": " I’ll 100% echo "
                            },
                            {
                                "type": "user",
                                "user_id": "UUPQGNNTV"
                            },
                            {
                                "type": "text",
                                "text": " on that.  Thank you so much for the explanation… perhaps once the dust has settled you’ll add this to humanity’s retrospective on Covid-19 "
                            },
                            {
                                "type": "emoji",
                                "name": "simple_smile"
                            }
                        ]
                    }
                ]
            }
        ],
        "thread_ts": "1583769134.147900",
        "parent_user_id": "UV3HA9MM4"
    },
    {
        "client_msg_id": "c3dc1032-298b-4643-aa99-6b221685fbd3",
        "type": "message",
        "text": "Anyone here have a good understanding of things on the vaccine front? Perhaps there’s a channel for it I missed or separate project",
        "user": "UV1D9NR1N",
        "ts": "1583882840.166800",
        "team": "TUU48M0T1",
        "user_team": "TUU48M0T1",
        "source_team": "TUU48M0T1",
        "user_profile": {
            "avatar_hash": "4892d7aa327f",
            "image_72": "https:\/\/avatars.slack-edge.com\/2020-03-07\/987006824628_4892d7aa327f46dcc8f7_72.jpg",
            "first_name": "Tito",
            "real_name": "Tito Jankowski",
            "display_name": "Tito Jankowski",
            "team": "TUU48M0T1",
            "name": "tito",
            "is_restricted": false,
            "is_ultra_restricted": false
        },
        "blocks": [
            {
                "type": "rich_text",
                "block_id": "jL0ti",
                "elements": [
                    {
                        "type": "rich_text_section",
                        "elements": [
                            {
                                "type": "text",
                                "text": "Anyone here have a good understanding of things on the vaccine front? Perhaps there’s a channel for it I missed or separate project"
                            }
                        ]
                    }
                ]
            }
        ],
        "thread_ts": "1583882840.166800",
        "reply_count": 4,
        "reply_users_count": 4,
        "latest_reply": "1583958197.227700",
        "reply_users": [
            "UV3HA9MM4",
            "UUNQ7H1MG",
            "UV1D9NR1N",
            "UV8HN81LM"
        ],
        "replies": [
            {
                "user": "UV3HA9MM4",
                "ts": "1583885029.167900"
            },
            {
                "user": "UUNQ7H1MG",
                "ts": "1583891005.168600"
            },
            {
                "user": "UV1D9NR1N",
                "ts": "1583943598.205900"
            },
            {
                "user": "UV8HN81LM",
                "ts": "1583958197.227700"
            }
        ],
        "subscribed": false
    },
    {
        "client_msg_id": "D1FEC086-1CC4-48EC-B841-6FD8052C86CD",
        "type": "message",
        "text": "Thanks! And thanks for mentioning that paper. I had not seen it but looks to be an interesting read. ",
        "user": "UV5CCJ9RC",
        "ts": "1583883577.167700",
        "team": "TUU48M0T1",
        "user_team": "TUU48M0T1",
        "source_team": "TUU48M0T1",
        "user_profile": {
            "avatar_hash": "2c79fe05f7e7",
            "image_72": "https:\/\/avatars.slack-edge.com\/2020-03-10\/992653932501_2c79fe05f7e75be19699_72.png",
            "first_name": "Chris",
            "real_name": "Chris Monaco",
            "display_name": "",
            "team": "TUU48M0T1",
            "name": "cmonaco.hr",
            "is_restricted": false,
            "is_ultra_restricted": false
        },
        "blocks": [
            {
                "type": "rich_text",
                "block_id": "BmsoH",
                "elements": [
                    {
                        "type": "rich_text_section",
                        "elements": [
                            {
                                "type": "text",
                                "text": "Thanks! And thanks for mentioning that paper. I had not seen it but looks to be an interesting read. "
                            }
                        ]
                    }
                ]
            }
        ],
        "thread_ts": "1583769134.147900",
        "parent_user_id": "UV3HA9MM4"
    },
    {
        "client_msg_id": "82f0518f-6bb0-422b-8bf1-67d1ce40f9fe",
        "type": "message",
        "text": "I’ve only heard little bits.\nThere’s an israeli company that was making corona virus vaccines for chickens and think they could adapt it to humans.  On the call with synbiobeta last week though one of the panelists said that a corona virus vaccine worked well on chickens but not on rats or something… so it remains to be seen how it works in humans.  Also there’s the risk of it making the situation worse.  I think in cats it left them more susceptible to infection because their body mounted an inadequate \/ partially matching antibody response.",
        "user": "UV3HA9MM4",
        "ts": "1583885029.167900",
        "team": "TUU48M0T1",
        "user_team": "TUU48M0T1",
        "source_team": "TUU48M0T1",
        "user_profile": {
            "avatar_hash": "b2f89757c831",
            "image_72": "https:\/\/avatars.slack-edge.com\/2020-03-07\/987455908032_b2f89757c8312ec04011_72.jpg",
            "first_name": "AJP",
            "real_name": "AJP",
            "display_name": "AJP",
            "team": "TUU48M0T1",
            "name": "bioajp",
            "is_restricted": false,
            "is_ultra_restricted": false
        },
        "blocks": [
            {
                "type": "rich_text",
                "block_id": "g9e+u",
                "elements": [
                    {
                        "type": "rich_text_section",
                        "elements": [
                            {
                                "type": "text",
                                "text": "I’ve only heard little bits.\nThere’s an israeli company that was making corona virus vaccines for chickens and think they could adapt it to humans.  On the call with synbiobeta last week though one of the panelists said that a corona virus vaccine worked well on chickens but not on rats or something… so it remains to be seen how it works in humans.  Also there’s the risk of it making the situation worse.  I think in cats it left them more susceptible to infection because their body mounted an inadequate \/ partially matching antibody response."
                            }
                        ]
                    }
                ]
            }
        ],
        "thread_ts": "1583882840.166800",
        "parent_user_id": "UV1D9NR1N"
    },
    {
        "client_msg_id": "2b7d159f-c89f-429e-9598-141b4c060791",
        "type": "message",
        "text": "What time is the call please?",
        "user": "UV3HA9MM4",
        "ts": "1583885045.168100",
        "team": "TUU48M0T1",
        "user_team": "TUU48M0T1",
        "source_team": "TUU48M0T1",
        "user_profile": {
            "avatar_hash": "b2f89757c831",
            "image_72": "https:\/\/avatars.slack-edge.com\/2020-03-07\/987455908032_b2f89757c8312ec04011_72.jpg",
            "first_name": "AJP",
            "real_name": "AJP",
            "display_name": "AJP",
            "team": "TUU48M0T1",
            "name": "bioajp",
            "is_restricted": false,
            "is_ultra_restricted": false
        },
        "blocks": [
            {
                "type": "rich_text",
                "block_id": "Py+==",
                "elements": [
                    {
                        "type": "rich_text_section",
                        "elements": [
                            {
                                "type": "text",
                                "text": "What time is the call please?"
                            }
                        ]
                    }
                ]
            }
        ],
        "thread_ts": "1583862842.164300",
        "parent_user_id": "UV0RRGB6H"
    },
    {
        "client_msg_id": "5168ffd4-3657-4cce-9600-25f20fdab666",
        "type": "message",
        "text": "^^this? :smiley:",
        "user": "UUNQ7H1MG",
        "ts": "1583890927.168400",
        "team": "TUU48M0T1",
        "user_team": "TUU48M0T1",
        "source_team": "TUU48M0T1",
        "user_profile": {
            "avatar_hash": "g6c134147245",
            "image_72": "https:\/\/secure.gravatar.com\/avatar\/6c134147245b2c1f347afb07cc32e9df.jpg?s=72&d=https%3A%2F%2Fa.slack-edge.com%2Fdf10d%2Fimg%2Favatars%2Fava_0013-72.png",
            "first_name": "DesireeD",
            "real_name": "DesireeD",
            "display_name": "DesireeD",
            "team": "TUU48M0T1",
            "name": "desiree.dawn",
            "is_restricted": false,
            "is_ultra_restricted": false
        },
        "blocks": [
            {
                "type": "rich_text",
                "block_id": "Pbi5H",
                "elements": [
                    {
                        "type": "rich_text_section",
                        "elements": [
                            {
                                "type": "text",
                                "text": "^^this? "
                            },
                            {
                                "type": "emoji",
                                "name": "smiley"
                            }
                        ]
                    }
                ]
            }
        ],
        "thread_ts": "1583862842.164300",
        "parent_user_id": "UV0RRGB6H"
    },
    {
        "client_msg_id": "1c65b240-a58e-45fc-b8f3-df1e59f34040",
        "type": "message",
        "text": "Moderna claims to have submitted for trials, asking for local volunteer recruitment.",
        "user": "UUNQ7H1MG",
        "ts": "1583891005.168600",
        "team": "TUU48M0T1",
        "user_team": "TUU48M0T1",
        "source_team": "TUU48M0T1",
        "user_profile": {
            "avatar_hash": "g6c134147245",
            "image_72": "https:\/\/secure.gravatar.com\/avatar\/6c134147245b2c1f347afb07cc32e9df.jpg?s=72&d=https%3A%2F%2Fa.slack-edge.com%2Fdf10d%2Fimg%2Favatars%2Fava_0013-72.png",
            "first_name": "DesireeD",
            "real_name": "DesireeD",
            "display_name": "DesireeD",
            "team": "TUU48M0T1",
            "name": "desiree.dawn",
            "is_restricted": false,
            "is_ultra_restricted": false
        },
        "blocks": [
            {
                "type": "rich_text",
                "block_id": "1dJbZ",
                "elements": [
                    {
                        "type": "rich_text_section",
                        "elements": [
                            {
                                "type": "text",
                                "text": "Moderna claims to have submitted for trials, asking for local volunteer recruitment."
                            }
                        ]
                    }
                ]
            }
        ],
        "thread_ts": "1583882840.166800",
        "parent_user_id": "UV1D9NR1N"
    },
    {
        "client_msg_id": "03fc5286-02cd-48ee-b4d5-aa6a2515dca9",
        "type": "message",
        "text": "Also, the above is still true, but we're in a little bit of a reorient right now, going virtual as much as possible outside of necessary in-lab work, with increased conscientiousness: <http:\/\/covid19.mit.edu\/update-from-president-l-rafael-reif-to-the-mit-community\/>",
        "user": "UUNQ7H1MG",
        "ts": "1583891109.168800",
        "team": "TUU48M0T1",
        "user_team": "TUU48M0T1",
        "source_team": "TUU48M0T1",
        "user_profile": {
            "avatar_hash": "g6c134147245",
            "image_72": "https:\/\/secure.gravatar.com\/avatar\/6c134147245b2c1f347afb07cc32e9df.jpg?s=72&d=https%3A%2F%2Fa.slack-edge.com%2Fdf10d%2Fimg%2Favatars%2Fava_0013-72.png",
            "first_name": "DesireeD",
            "real_name": "DesireeD",
            "display_name": "DesireeD",
            "team": "TUU48M0T1",
            "name": "desiree.dawn",
            "is_restricted": false,
            "is_ultra_restricted": false
        },
        "blocks": [
            {
                "type": "rich_text",
                "block_id": "faGX",
                "elements": [
                    {
                        "type": "rich_text_section",
                        "elements": [
                            {
                                "type": "text",
                                "text": "Also, the above is still true, but we're in a little bit of a reorient right now, going virtual as much as possible outside of necessary in-lab work, with increased conscientiousness: "
                            },
                            {
                                "type": "link",
                                "url": "http:\/\/covid19.mit.edu\/update-from-president-l-rafael-reif-to-the-mit-community\/"
                            }
                        ]
                    }
                ]
            }
        ],
        "thread_ts": "1583604964.025000",
        "parent_user_id": "UV02WET96"
    },
    {
        "client_msg_id": "dcbe45b1-0e74-44fb-a618-762f0a7e2ec6",
        "type": "message",
        "text": "one sec, just getting back from some family things for the day. will send out the details soon!",
        "user": "UUUEFQW8N",
        "ts": "1583891419.169000",
        "team": "TUU48M0T1",
        "user_team": "TUU48M0T1",
        "source_team": "TUU48M0T1",
        "user_profile": {
            "avatar_hash": "5660f4d7fe91",
            "image_72": "https:\/\/avatars.slack-edge.com\/2020-03-06\/974037299378_5660f4d7fe9118b28c09_72.jpg",
            "first_name": "zachmueller",
            "real_name": "zachmueller",
            "display_name": "zachmueller",
            "team": "TUU48M0T1",
            "name": "zach",
            "is_restricted": false,
            "is_ultra_restricted": false
        },
        "blocks": [
            {
                "type": "rich_text",
                "block_id": "Djcc",
                "elements": [
                    {
                        "type": "rich_text_section",
                        "elements": [
                            {
                                "type": "text",
                                "text": "one sec, just getting back from some family things for the day. will send out the details soon!"
                            }
                        ]
                    }
                ]
            }
        ],
        "thread_ts": "1583862842.164300",
        "parent_user_id": "UV0RRGB6H"
    },
    {
        "client_msg_id": "0cff3afd-6e42-4e45-853c-0e67f697d6cb",
        "type": "message",
        "text": "ok, looks like we've been updating it on the About page of the JOLG Project: <https:\/\/app.jogl.io\/project\/118#about>\nso Wednesday Mar 11, 6pm Paris time. Will post w\/ \"@channel\" in <#CUDEHLGHY|general> in a sec with a link for global time stuff.",
        "user": "UUUEFQW8N",
        "ts": "1583892053.169300",
        "team": "TUU48M0T1",
        "user_team": "TUU48M0T1",
        "source_team": "TUU48M0T1",
        "user_profile": {
            "avatar_hash": "5660f4d7fe91",
            "image_72": "https:\/\/avatars.slack-edge.com\/2020-03-06\/974037299378_5660f4d7fe9118b28c09_72.jpg",
            "first_name": "zachmueller",
            "real_name": "zachmueller",
            "display_name": "zachmueller",
            "team": "TUU48M0T1",
            "name": "zach",
            "is_restricted": false,
            "is_ultra_restricted": false
        },
        "attachments": [
            {
                "title": "JOGL - Just One Giant Lab",
                "title_link": "https:\/\/app.jogl.io\/project\/118#about",
                "text": "JOGL helps sync humanity onto solving our most important social &amp; environmental problems using open science, responsible innovation &amp; continuous learning.",
                "fallback": "JOGL - Just One Giant Lab",
                "thumb_url": "https:\/\/app.jogl.io\/planet.jpg",
                "from_url": "https:\/\/app.jogl.io\/project\/118#about",
                "thumb_width": 2049,
                "thumb_height": 1011,
                "service_icon": "https:\/\/app.jogl.io\/favicon.ico",
                "service_name": "app.jogl.io",
                "id": 1,
                "original_url": "https:\/\/app.jogl.io\/project\/118#about"
            }
        ],
        "blocks": [
            {
                "type": "rich_text",
                "block_id": "hlhAL",
                "elements": [
                    {
                        "type": "rich_text_section",
                        "elements": [
                            {
                                "type": "text",
                                "text": "ok, looks like we've been updating it on the About page of the JOLG Project: "
                            },
                            {
                                "type": "link",
                                "url": "https:\/\/app.jogl.io\/project\/118#about"
                            },
                            {
                                "type": "text",
                                "text": "\nso Wednesday Mar 11, 6pm Paris time. Will post w\/ \"@channel\" in "
                            },
                            {
                                "type": "channel",
                                "channel_id": "CUDEHLGHY"
                            },
                            {
                                "type": "text",
                                "text": " in a sec with a link for global time stuff."
                            }
                        ]
                    }
                ]
            }
        ],
        "thread_ts": "1583862842.164300",
        "parent_user_id": "UV0RRGB6H"
    },
    {
        "client_msg_id": "2af70934-1cef-43c0-acec-8220099d4291",
        "type": "message",
        "text": "<!channel> Quick reminder our next full community call will be Wednesday March 11 @ 6pm Paris Time \/ 1pm EDT ( for global times: <https:\/\/www.timeanddate.com\/worldclock\/fixedtime.html?iso=20200311T18&amp;p1=195>), held through Zoom: <https:\/\/zoom.us\/j\/7804345815>",
        "user": "UUUEFQW8N",
        "ts": "1583892318.170000",
        "team": "TUU48M0T1",
        "user_team": "TUU48M0T1",
        "source_team": "TUU48M0T1",
        "user_profile": {
            "avatar_hash": "5660f4d7fe91",
            "image_72": "https:\/\/avatars.slack-edge.com\/2020-03-06\/974037299378_5660f4d7fe9118b28c09_72.jpg",
            "first_name": "zachmueller",
            "real_name": "zachmueller",
            "display_name": "zachmueller",
            "team": "TUU48M0T1",
            "name": "zach",
            "is_restricted": false,
            "is_ultra_restricted": false
        },
        "edited": {
            "user": "UUUEFQW8N",
            "ts": "1583892325.000000"
        },
        "blocks": [
            {
                "type": "rich_text",
                "block_id": "d618O",
                "elements": [
                    {
                        "type": "rich_text_section",
                        "elements": [
                            {
                                "type": "broadcast",
                                "range": "channel"
                            },
                            {
                                "type": "text",
                                "text": " Quick reminder our next full community call will be Wednesday March 11 @ 6pm Paris Time \/ 1pm EDT ( for global times: "
                            },
                            {
                                "type": "link",
                                "url": "https:\/\/www.timeanddate.com\/worldclock\/fixedtime.html?iso=20200311T18&p1=195"
                            },
                            {
                                "type": "text",
                                "text": "), held through Zoom: "
                            },
                            {
                                "type": "link",
                                "url": "https:\/\/zoom.us\/j\/7804345815"
                            }
                        ]
                    }
                ]
            }
        ],
        "reactions": [
            {
                "name": "100",
                "users": [
                    "UV02WET96",
                    "UV3HA9MM4",
                    "UV1D9NR1N",
                    "UV10KBUQG"
                ],
                "count": 4
            }
        ]
    }
]