[
    {
        "client_msg_id": "5ab2fe32-7e54-4d0a-9bf4-16845c518f28",
        "type": "message",
        "text": "??in a box 2x the size of a typical moving box ...    actually I am impressed after yesterday about how much info is open and available...   of course, many molecular means exist for tests, but it seems like choosing targets, validating them, making testing kits and validating their efficiency in the field are still the big challenges.",
        "user": "UV1A22N3W",
        "ts": "1583661492.082400",
        "team": "TUU48M0T1",
        "user_team": "TUU48M0T1",
        "source_team": "TUU48M0T1",
        "user_profile": {
            "avatar_hash": "71f827776ad6",
            "image_72": "https:\/\/avatars.slack-edge.com\/2020-03-09\/988125642964_71f827776ad610af05a2_72.jpg",
            "first_name": "",
            "real_name": "RachelA",
            "display_name": "RachelA",
            "team": "TUU48M0T1",
            "name": "raronoff",
            "is_restricted": false,
            "is_ultra_restricted": false
        },
        "blocks": [
            {
                "type": "rich_text",
                "block_id": "9sks",
                "elements": [
                    {
                        "type": "rich_text_section",
                        "elements": [
                            {
                                "type": "text",
                                "text": "??in a box 2x the size of a typical moving box ...    actually I am impressed after yesterday about how much info is open and available...   of course, many molecular means exist for tests, but it seems like choosing targets, validating them, making testing kits and validating their efficiency in the field are still the big challenges."
                            }
                        ]
                    }
                ]
            }
        ]
    },
    {
        "type": "message",
        "text": "Hello there!.\nThis is Anibal from Chile. Thanks a lot for creating\/participating in this initiative!\nMy expertise is mainly Cell-free synbio, Toehold sensors and I have some experience with modeling RNA structures, and isothermal reactions. I just wrote some lines In the Google docs about nested NASBA isothermal amplification along with Mango RNA aptamers to follow real time RNA amplification. Hope this helps! Paper attached",
        "files": [
            {
                "id": "FURRAEK09",
                "created": 1583681171,
                "timestamp": 1583681171,
                "name": "abdolahzadeh2019 (1).pdf",
                "title": "abdolahzadeh2019 (1).pdf",
                "mimetype": "application\/pdf",
                "filetype": "pdf",
                "pretty_type": "PDF",
                "user": "UV3746ST1",
                "editable": false,
                "size": 562559,
                "mode": "hosted",
                "is_external": false,
                "external_type": "",
                "is_public": true,
                "public_url_shared": false,
                "display_as_bot": false,
                "username": "",
                "url_private": "https:\/\/files.slack.com\/files-pri\/TUU48M0T1-FURRAEK09\/abdolahzadeh2019__1_.pdf?t=xoxe-980144714919-1133254701825-1120841107731-daf595b5a7d6c9028b0b02a925032e36",
                "url_private_download": "https:\/\/files.slack.com\/files-pri\/TUU48M0T1-FURRAEK09\/download\/abdolahzadeh2019__1_.pdf?t=xoxe-980144714919-1133254701825-1120841107731-daf595b5a7d6c9028b0b02a925032e36",
                "thumb_pdf": "https:\/\/files.slack.com\/files-tmb\/TUU48M0T1-FURRAEK09-a7497be68a\/abdolahzadeh2019__1__thumb_pdf.png?t=xoxe-980144714919-1133254701825-1120841107731-daf595b5a7d6c9028b0b02a925032e36",
                "thumb_pdf_w": 935,
                "thumb_pdf_h": 1210,
                "permalink": "https:\/\/open-covid19.slack.com\/files\/UV3746ST1\/FURRAEK09\/abdolahzadeh2019__1_.pdf",
                "permalink_public": "https:\/\/slack-files.com\/TUU48M0T1-FURRAEK09-97a1226cb3",
                "is_starred": false,
                "has_rich_preview": false
            }
        ],
        "upload": true,
        "blocks": [
            {
                "type": "rich_text",
                "block_id": "iP7w6",
                "elements": [
                    {
                        "type": "rich_text_section",
                        "elements": [
                            {
                                "type": "text",
                                "text": "Hello there!.\nThis is Anibal from Chile. Thanks a lot for creating\/participating in this initiative!\nMy expertise is mainly Cell-free synbio, Toehold sensors and I have some experience with modeling RNA structures, and isothermal reactions. I just wrote some lines In the Google docs about nested NASBA isothermal amplification along with Mango RNA aptamers to follow real time RNA amplification. Hope this helps! Paper attached"
                            }
                        ]
                    }
                ]
            }
        ],
        "user": "UV3746ST1",
        "display_as_bot": false,
        "ts": "1583681268.090000",
        "client_msg_id": "09be4868-bc36-4201-9f29-20555aa4c90d",
        "thread_ts": "1583681268.090000",
        "reply_count": 3,
        "reply_users_count": 3,
        "latest_reply": "1583687017.095400",
        "reply_users": [
            "UV02WET96",
            "UV3746ST1",
            "UV1D9NR1N"
        ],
        "replies": [
            {
                "user": "UV02WET96",
                "ts": "1583684839.092300"
            },
            {
                "user": "UV3746ST1",
                "ts": "1583685080.093900"
            },
            {
                "user": "UV1D9NR1N",
                "ts": "1583687017.095400"
            }
        ],
        "subscribed": false,
        "reactions": [
            {
                "name": "+1",
                "users": [
                    "UV10KBUQG"
                ],
                "count": 1
            }
        ]
    },
    {
        "client_msg_id": "f52a303c-4c16-4625-a675-d68c6d663248",
        "type": "message",
        "text": "Dude! Welcome :slightly_smiling_face:\nSo happy to also have you both on board",
        "user": "UV02WET96",
        "ts": "1583684805.091900",
        "team": "TUU48M0T1",
        "user_team": "TUU48M0T1",
        "source_team": "TUU48M0T1",
        "user_profile": {
            "avatar_hash": "a99c74a194f8",
            "image_72": "https:\/\/avatars.slack-edge.com\/2020-03-07\/975708504851_a99c74a194f86715ca7d_72.png",
            "first_name": "Thomas",
            "real_name": "Thomas Landrain",
            "display_name": "Thomas Landrain - JOGL CoFounder \/ CEO",
            "team": "TUU48M0T1",
            "name": "thomas",
            "is_restricted": false,
            "is_ultra_restricted": false
        },
        "blocks": [
            {
                "type": "rich_text",
                "block_id": "js091",
                "elements": [
                    {
                        "type": "rich_text_section",
                        "elements": [
                            {
                                "type": "text",
                                "text": "Dude! Welcome "
                            },
                            {
                                "type": "emoji",
                                "name": "slightly_smiling_face"
                            },
                            {
                                "type": "text",
                                "text": "\nSo happy to also have you both on board"
                            }
                        ]
                    }
                ]
            }
        ],
        "thread_ts": "1583610087.068100",
        "parent_user_id": "UV1D9NR1N"
    },
    {
        "client_msg_id": "998ac218-5042-4d35-8c0e-9875bfb22cc1",
        "type": "message",
        "text": "Let’s rock this!",
        "user": "UV02WET96",
        "ts": "1583684809.092100",
        "team": "TUU48M0T1",
        "user_team": "TUU48M0T1",
        "source_team": "TUU48M0T1",
        "user_profile": {
            "avatar_hash": "a99c74a194f8",
            "image_72": "https:\/\/avatars.slack-edge.com\/2020-03-07\/975708504851_a99c74a194f86715ca7d_72.png",
            "first_name": "Thomas",
            "real_name": "Thomas Landrain",
            "display_name": "Thomas Landrain - JOGL CoFounder \/ CEO",
            "team": "TUU48M0T1",
            "name": "thomas",
            "is_restricted": false,
            "is_ultra_restricted": false
        },
        "blocks": [
            {
                "type": "rich_text",
                "block_id": "=BBXi",
                "elements": [
                    {
                        "type": "rich_text_section",
                        "elements": [
                            {
                                "type": "text",
                                "text": "Let’s rock this!"
                            }
                        ]
                    }
                ]
            }
        ],
        "thread_ts": "1583610087.068100",
        "parent_user_id": "UV1D9NR1N"
    },
    {
        "client_msg_id": "edd37f64-ed62-4aa0-a8f1-ed5541243040",
        "type": "message",
        "text": "Hi <@UV3746ST1>! Welcome :slightly_smiling_face:\nThanks a lot for contributing. We are still working on how to structure the open lab notebook to accomodate both existing methodologies and ones in construction. Work in progress :slightly_smiling_face:",
        "user": "UV02WET96",
        "ts": "1583684839.092300",
        "team": "TUU48M0T1",
        "user_team": "TUU48M0T1",
        "source_team": "TUU48M0T1",
        "user_profile": {
            "avatar_hash": "a99c74a194f8",
            "image_72": "https:\/\/avatars.slack-edge.com\/2020-03-07\/975708504851_a99c74a194f86715ca7d_72.png",
            "first_name": "Thomas",
            "real_name": "Thomas Landrain",
            "display_name": "Thomas Landrain - JOGL CoFounder \/ CEO",
            "team": "TUU48M0T1",
            "name": "thomas",
            "is_restricted": false,
            "is_ultra_restricted": false
        },
        "blocks": [
            {
                "type": "rich_text",
                "block_id": "SUAD",
                "elements": [
                    {
                        "type": "rich_text_section",
                        "elements": [
                            {
                                "type": "text",
                                "text": "Hi "
                            },
                            {
                                "type": "user",
                                "user_id": "UV3746ST1"
                            },
                            {
                                "type": "text",
                                "text": "! Welcome "
                            },
                            {
                                "type": "emoji",
                                "name": "slightly_smiling_face"
                            },
                            {
                                "type": "text",
                                "text": "\nThanks a lot for contributing. We are still working on how to structure the open lab notebook to accomodate both existing methodologies and ones in construction. Work in progress "
                            },
                            {
                                "type": "emoji",
                                "name": "slightly_smiling_face"
                            }
                        ]
                    }
                ]
            }
        ],
        "thread_ts": "1583681268.090000",
        "parent_user_id": "UV3746ST1"
    },
    {
        "client_msg_id": "dc38c2a4-9041-48bf-a257-351b5fe430af",
        "type": "message",
        "text": "[Special iGEM]\nWhat do you think of inviting iGEM teams to join the initiative and work on special aspects of the projects? What we could achieve would be even more grand.",
        "user": "UV02WET96",
        "ts": "1583685010.093800",
        "team": "TUU48M0T1",
        "user_team": "TUU48M0T1",
        "source_team": "TUU48M0T1",
        "user_profile": {
            "avatar_hash": "a99c74a194f8",
            "image_72": "https:\/\/avatars.slack-edge.com\/2020-03-07\/975708504851_a99c74a194f86715ca7d_72.png",
            "first_name": "Thomas",
            "real_name": "Thomas Landrain",
            "display_name": "Thomas Landrain - JOGL CoFounder \/ CEO",
            "team": "TUU48M0T1",
            "name": "thomas",
            "is_restricted": false,
            "is_ultra_restricted": false
        },
        "blocks": [
            {
                "type": "rich_text",
                "block_id": "tid",
                "elements": [
                    {
                        "type": "rich_text_section",
                        "elements": [
                            {
                                "type": "text",
                                "text": "[Special iGEM]\nWhat do you think of inviting iGEM teams to join the initiative and work on special aspects of the projects? What we could achieve would be even more grand."
                            }
                        ]
                    }
                ]
            }
        ],
        "thread_ts": "1583685010.093800",
        "reply_count": 14,
        "reply_users_count": 6,
        "latest_reply": "1583696522.112200",
        "reply_users": [
            "UUNGFHSV8",
            "UV1D9NR1N",
            "UV02WET96",
            "UUUEFQW8N",
            "UUPFF4TC3",
            "UV0QTJCMT"
        ],
        "replies": [
            {
                "user": "UUNGFHSV8",
                "ts": "1583687033.096000"
            },
            {
                "user": "UV1D9NR1N",
                "ts": "1583687077.097100"
            },
            {
                "user": "UV02WET96",
                "ts": "1583687120.097400"
            },
            {
                "user": "UV02WET96",
                "ts": "1583687141.097700"
            },
            {
                "user": "UV1D9NR1N",
                "ts": "1583687317.099000"
            },
            {
                "user": "UUNGFHSV8",
                "ts": "1583687406.099800"
            },
            {
                "user": "UUUEFQW8N",
                "ts": "1583687559.100400"
            },
            {
                "user": "UV1D9NR1N",
                "ts": "1583687561.100600"
            },
            {
                "user": "UV1D9NR1N",
                "ts": "1583687579.101000"
            },
            {
                "user": "UUUEFQW8N",
                "ts": "1583687604.101200"
            },
            {
                "user": "UUUEFQW8N",
                "ts": "1583687641.101500"
            },
            {
                "user": "UUPFF4TC3",
                "ts": "1583693259.111500"
            },
            {
                "user": "UUUEFQW8N",
                "ts": "1583693274.111700"
            },
            {
                "user": "UV0QTJCMT",
                "ts": "1583696522.112200"
            }
        ],
        "subscribed": true,
        "last_read": "1583696522.112200",
        "reactions": [
            {
                "name": "the_horns",
                "users": [
                    "UUNGFHSV8",
                    "UV1D9NR1N",
                    "UV39M083H"
                ],
                "count": 3
            }
        ]
    },
    {
        "client_msg_id": "91648d64-2c76-44e1-b36e-b9d4ec9b3a00",
        "type": "message",
        "text": "Thanks ! Looking forward to collaborate more",
        "user": "UV3746ST1",
        "ts": "1583685080.093900",
        "team": "TUU48M0T1",
        "user_team": "TUU48M0T1",
        "source_team": "TUU48M0T1",
        "user_profile": {
            "avatar_hash": "a83ec6cd1d1a",
            "image_72": "https:\/\/avatars.slack-edge.com\/2020-03-07\/987381527184_a83ec6cd1d1ab6a03a2c_72.jpg",
            "first_name": "Anibal",
            "real_name": "Anibal",
            "display_name": "Anibal",
            "team": "TUU48M0T1",
            "name": "elanibal",
            "is_restricted": false,
            "is_ultra_restricted": false
        },
        "blocks": [
            {
                "type": "rich_text",
                "block_id": "nJT",
                "elements": [
                    {
                        "type": "rich_text_section",
                        "elements": [
                            {
                                "type": "text",
                                "text": "Thanks ! Looking forward to collaborate more"
                            }
                        ]
                    }
                ]
            }
        ],
        "thread_ts": "1583681268.090000",
        "parent_user_id": "UV3746ST1"
    },
    {
        "client_msg_id": "176276ff-31d3-4faf-bc43-ec31198d9310",
        "type": "message",
        "text": "welcome <@UV3746ST1>!",
        "user": "UV1D9NR1N",
        "ts": "1583687017.095400",
        "team": "TUU48M0T1",
        "user_team": "TUU48M0T1",
        "source_team": "TUU48M0T1",
        "user_profile": {
            "avatar_hash": "4892d7aa327f",
            "image_72": "https:\/\/avatars.slack-edge.com\/2020-03-07\/987006824628_4892d7aa327f46dcc8f7_72.jpg",
            "first_name": "Tito",
            "real_name": "Tito Jankowski",
            "display_name": "Tito Jankowski",
            "team": "TUU48M0T1",
            "name": "tito",
            "is_restricted": false,
            "is_ultra_restricted": false
        },
        "blocks": [
            {
                "type": "rich_text",
                "block_id": "aXf",
                "elements": [
                    {
                        "type": "rich_text_section",
                        "elements": [
                            {
                                "type": "text",
                                "text": "welcome "
                            },
                            {
                                "type": "user",
                                "user_id": "UV3746ST1"
                            },
                            {
                                "type": "text",
                                "text": "!"
                            }
                        ]
                    }
                ]
            }
        ],
        "thread_ts": "1583681268.090000",
        "parent_user_id": "UV3746ST1"
    },
    {
        "client_msg_id": "68A990D4-DDAD-4144-8DE5-6A7BE33BF2A5",
        "type": "message",
        "text": "Makes sense; I would bet a bunch of them are already working on coronavirus projects ",
        "user": "UUNGFHSV8",
        "ts": "1583687033.096000",
        "team": "TUU48M0T1",
        "user_team": "TUU48M0T1",
        "source_team": "TUU48M0T1",
        "user_profile": {
            "avatar_hash": "1c55ee32397a",
            "image_72": "https:\/\/avatars.slack-edge.com\/2020-03-07\/987349161984_1c55ee32397a85a87ec4_72.png",
            "first_name": "Isaac",
            "real_name": "Isaac Larkin",
            "display_name": "Isaac Larkin",
            "team": "TUU48M0T1",
            "name": "eyesmo",
            "is_restricted": false,
            "is_ultra_restricted": false
        },
        "blocks": [
            {
                "type": "rich_text",
                "block_id": "rs13",
                "elements": [
                    {
                        "type": "rich_text_section",
                        "elements": [
                            {
                                "type": "text",
                                "text": "Makes sense; I would bet a bunch of them are already working on coronavirus projects "
                            }
                        ]
                    }
                ]
            }
        ],
        "thread_ts": "1583685010.093800",
        "parent_user_id": "UV02WET96"
    },
    {
        "client_msg_id": "91de19c0-e8f6-4c2d-beee-07b3f1e8524e",
        "type": "message",
        "text": "I’ve been wondering about that, what’s the connection between synbio and COVID19. Would love to hear about connections to PCR testing!",
        "user": "UV1D9NR1N",
        "ts": "1583687077.097100",
        "team": "TUU48M0T1",
        "user_team": "TUU48M0T1",
        "source_team": "TUU48M0T1",
        "user_profile": {
            "avatar_hash": "4892d7aa327f",
            "image_72": "https:\/\/avatars.slack-edge.com\/2020-03-07\/987006824628_4892d7aa327f46dcc8f7_72.jpg",
            "first_name": "Tito",
            "real_name": "Tito Jankowski",
            "display_name": "Tito Jankowski",
            "team": "TUU48M0T1",
            "name": "tito",
            "is_restricted": false,
            "is_ultra_restricted": false
        },
        "blocks": [
            {
                "type": "rich_text",
                "block_id": "yQhq",
                "elements": [
                    {
                        "type": "rich_text_section",
                        "elements": [
                            {
                                "type": "text",
                                "text": "I’ve been wondering about that, what’s the connection between synbio and COVID19. Would love to hear about connections to PCR testing!"
                            }
                        ]
                    }
                ]
            }
        ],
        "thread_ts": "1583685010.093800",
        "parent_user_id": "UV02WET96"
    },
    {
        "client_msg_id": "44063bb6-831e-4102-9885-2c3611ea9871",
        "type": "message",
        "text": "I’m thinking about crispr testing and smart antibodies assays",
        "user": "UV02WET96",
        "ts": "1583687120.097400",
        "team": "TUU48M0T1",
        "user_team": "TUU48M0T1",
        "source_team": "TUU48M0T1",
        "user_profile": {
            "avatar_hash": "a99c74a194f8",
            "image_72": "https:\/\/avatars.slack-edge.com\/2020-03-07\/975708504851_a99c74a194f86715ca7d_72.png",
            "first_name": "Thomas",
            "real_name": "Thomas Landrain",
            "display_name": "Thomas Landrain - JOGL CoFounder \/ CEO",
            "team": "TUU48M0T1",
            "name": "thomas",
            "is_restricted": false,
            "is_ultra_restricted": false
        },
        "edited": {
            "user": "UV02WET96",
            "ts": "1583687124.000000"
        },
        "blocks": [
            {
                "type": "rich_text",
                "block_id": "orR",
                "elements": [
                    {
                        "type": "rich_text_section",
                        "elements": [
                            {
                                "type": "text",
                                "text": "I’m thinking about crispr testing and smart antibodies assays"
                            }
                        ]
                    }
                ]
            }
        ],
        "thread_ts": "1583685010.093800",
        "parent_user_id": "UV02WET96"
    },
    {
        "client_msg_id": "613c8a15-dacf-4722-945c-d41e2338a7ee",
        "type": "message",
        "text": "also some team are also doing some hardware",
        "user": "UV02WET96",
        "ts": "1583687141.097700",
        "team": "TUU48M0T1",
        "user_team": "TUU48M0T1",
        "source_team": "TUU48M0T1",
        "user_profile": {
            "avatar_hash": "a99c74a194f8",
            "image_72": "https:\/\/avatars.slack-edge.com\/2020-03-07\/975708504851_a99c74a194f86715ca7d_72.png",
            "first_name": "Thomas",
            "real_name": "Thomas Landrain",
            "display_name": "Thomas Landrain - JOGL CoFounder \/ CEO",
            "team": "TUU48M0T1",
            "name": "thomas",
            "is_restricted": false,
            "is_ultra_restricted": false
        },
        "blocks": [
            {
                "type": "rich_text",
                "block_id": "321N",
                "elements": [
                    {
                        "type": "rich_text_section",
                        "elements": [
                            {
                                "type": "text",
                                "text": "also some team are also doing some hardware"
                            }
                        ]
                    }
                ]
            }
        ],
        "thread_ts": "1583685010.093800",
        "parent_user_id": "UV02WET96"
    },
    {
        "client_msg_id": "059654a8-7e9c-40f2-9db7-96b70f6e2621",
        "type": "message",
        "text": "sounds awesome!",
        "user": "UV1D9NR1N",
        "ts": "1583687317.099000",
        "team": "TUU48M0T1",
        "user_team": "TUU48M0T1",
        "source_team": "TUU48M0T1",
        "user_profile": {
            "avatar_hash": "4892d7aa327f",
            "image_72": "https:\/\/avatars.slack-edge.com\/2020-03-07\/987006824628_4892d7aa327f46dcc8f7_72.jpg",
            "first_name": "Tito",
            "real_name": "Tito Jankowski",
            "display_name": "Tito Jankowski",
            "team": "TUU48M0T1",
            "name": "tito",
            "is_restricted": false,
            "is_ultra_restricted": false
        },
        "blocks": [
            {
                "type": "rich_text",
                "block_id": "8CmdD",
                "elements": [
                    {
                        "type": "rich_text_section",
                        "elements": [
                            {
                                "type": "text",
                                "text": "sounds awesome!"
                            }
                        ]
                    }
                ]
            }
        ],
        "thread_ts": "1583685010.093800",
        "parent_user_id": "UV02WET96"
    },
    {
        "client_msg_id": "AB1E5404-CAA9-4F34-8800-39859F7F2AC1",
        "type": "message",
        "text": "The most promising DIY diagnostic approach is probably something similar to a winning iGEM project, like the 2019 EPFL team’s overgrad grand prize winner, or TU Delft’s 2017 grand prize winning team \n\n<https:\/\/2019.igem.org\/Team:EPFL\/Design|https:\/\/2019.igem.org\/Team:EPFL\/Design>\n\n<http:\/\/2017.igem.org\/Team:TUDelft\/Description|http:\/\/2017.igem.org\/Team:TUDelft\/Description>",
        "user": "UUNGFHSV8",
        "ts": "1583687406.099800",
        "team": "TUU48M0T1",
        "user_team": "TUU48M0T1",
        "source_team": "TUU48M0T1",
        "user_profile": {
            "avatar_hash": "1c55ee32397a",
            "image_72": "https:\/\/avatars.slack-edge.com\/2020-03-07\/987349161984_1c55ee32397a85a87ec4_72.png",
            "first_name": "Isaac",
            "real_name": "Isaac Larkin",
            "display_name": "Isaac Larkin",
            "team": "TUU48M0T1",
            "name": "eyesmo",
            "is_restricted": false,
            "is_ultra_restricted": false
        },
        "edited": {
            "user": "UUNGFHSV8",
            "ts": "1583687608.000000"
        },
        "attachments": [
            {
                "title": "Team:TUDelft\/Description - 2017.igem.org",
                "title_link": "http:\/\/2017.igem.org\/Team:TUDelft\/Description",
                "text": "An iGEM project",
                "fallback": "Team:TUDelft\/Description - 2017.igem.org",
                "from_url": "http:\/\/2017.igem.org\/Team:TUDelft\/Description",
                "service_icon": "http:\/\/2017.igem.org\/favicon.ico",
                "service_name": "2017.igem.org",
                "id": 1,
                "original_url": "http:\/\/2017.igem.org\/Team:TUDelft\/Description"
            }
        ],
        "blocks": [
            {
                "type": "rich_text",
                "block_id": "eef",
                "elements": [
                    {
                        "type": "rich_text_section",
                        "elements": [
                            {
                                "type": "text",
                                "text": "The most promising DIY diagnostic approach is probably something similar to a winning iGEM project, like the 2019 EPFL team’s overgrad grand prize winner, or TU Delft’s 2017 grand prize winning team \n\n"
                            },
                            {
                                "type": "link",
                                "url": "https:\/\/2019.igem.org\/Team:EPFL\/Design",
                                "text": "https:\/\/2019.igem.org\/Team:EPFL\/Design"
                            },
                            {
                                "type": "text",
                                "text": "\n\n"
                            },
                            {
                                "type": "link",
                                "url": "http:\/\/2017.igem.org\/Team:TUDelft\/Description",
                                "text": "http:\/\/2017.igem.org\/Team:TUDelft\/Description"
                            }
                        ]
                    }
                ]
            }
        ],
        "thread_ts": "1583685010.093800",
        "parent_user_id": "UV02WET96",
        "reactions": [
            {
                "name": "100",
                "users": [
                    "UUUEFQW8N",
                    "UV02WET96"
                ],
                "count": 2
            }
        ]
    },
    {
        "client_msg_id": "6befae8f-ec11-4792-a45b-227f67bf6e18",
        "type": "message",
        "text": "Yeah those are some of the past iGEM projects I think will be useful for us in general too",
        "user": "UUUEFQW8N",
        "ts": "1583687559.100400",
        "team": "TUU48M0T1",
        "user_team": "TUU48M0T1",
        "source_team": "TUU48M0T1",
        "user_profile": {
            "avatar_hash": "5660f4d7fe91",
            "image_72": "https:\/\/avatars.slack-edge.com\/2020-03-06\/974037299378_5660f4d7fe9118b28c09_72.jpg",
            "first_name": "zachmueller",
            "real_name": "zachmueller",
            "display_name": "zachmueller",
            "team": "TUU48M0T1",
            "name": "zach",
            "is_restricted": false,
            "is_ultra_restricted": false
        },
        "blocks": [
            {
                "type": "rich_text",
                "block_id": "CZJ",
                "elements": [
                    {
                        "type": "rich_text_section",
                        "elements": [
                            {
                                "type": "text",
                                "text": "Yeah those are some of the past iGEM projects I think will be useful for us in general too"
                            }
                        ]
                    }
                ]
            }
        ],
        "thread_ts": "1583685010.093800",
        "parent_user_id": "UV02WET96"
    },
    {
        "client_msg_id": "9a451eb0-efd5-47fc-b680-631a7bb08647",
        "type": "message",
        "text": "Oh I know a former member at Delft",
        "user": "UV1D9NR1N",
        "ts": "1583687561.100600",
        "team": "TUU48M0T1",
        "user_team": "TUU48M0T1",
        "source_team": "TUU48M0T1",
        "user_profile": {
            "avatar_hash": "4892d7aa327f",
            "image_72": "https:\/\/avatars.slack-edge.com\/2020-03-07\/987006824628_4892d7aa327f46dcc8f7_72.jpg",
            "first_name": "Tito",
            "real_name": "Tito Jankowski",
            "display_name": "Tito Jankowski",
            "team": "TUU48M0T1",
            "name": "tito",
            "is_restricted": false,
            "is_ultra_restricted": false
        },
        "blocks": [
            {
                "type": "rich_text",
                "block_id": "qTs61",
                "elements": [
                    {
                        "type": "rich_text_section",
                        "elements": [
                            {
                                "type": "text",
                                "text": "Oh I know a former member at Delft"
                            }
                        ]
                    }
                ]
            }
        ],
        "thread_ts": "1583685010.093800",
        "parent_user_id": "UV02WET96"
    },
    {
        "client_msg_id": "0e18eddd-124f-490b-84fa-963700b220b3",
        "type": "message",
        "text": "<@UUUEFQW8N> How about making a doc listing relevant categories and teams?",
        "user": "UV1D9NR1N",
        "ts": "1583687579.101000",
        "team": "TUU48M0T1",
        "user_team": "TUU48M0T1",
        "source_team": "TUU48M0T1",
        "user_profile": {
            "avatar_hash": "4892d7aa327f",
            "image_72": "https:\/\/avatars.slack-edge.com\/2020-03-07\/987006824628_4892d7aa327f46dcc8f7_72.jpg",
            "first_name": "Tito",
            "real_name": "Tito Jankowski",
            "display_name": "Tito Jankowski",
            "team": "TUU48M0T1",
            "name": "tito",
            "is_restricted": false,
            "is_ultra_restricted": false
        },
        "blocks": [
            {
                "type": "rich_text",
                "block_id": "b\/S",
                "elements": [
                    {
                        "type": "rich_text_section",
                        "elements": [
                            {
                                "type": "user",
                                "user_id": "UUUEFQW8N"
                            },
                            {
                                "type": "text",
                                "text": " How about making a doc listing relevant categories and teams?"
                            }
                        ]
                    }
                ]
            }
        ],
        "thread_ts": "1583685010.093800",
        "parent_user_id": "UV02WET96"
    },
    {
        "client_msg_id": "030b1f36-0250-4f37-8497-f2b69b0d171d",
        "type": "message",
        "text": "I can sick one of my past iGEMers on it.... <@UUPFF4TC3> want to help with that?",
        "user": "UUUEFQW8N",
        "ts": "1583687604.101200",
        "team": "TUU48M0T1",
        "user_team": "TUU48M0T1",
        "source_team": "TUU48M0T1",
        "user_profile": {
            "avatar_hash": "5660f4d7fe91",
            "image_72": "https:\/\/avatars.slack-edge.com\/2020-03-06\/974037299378_5660f4d7fe9118b28c09_72.jpg",
            "first_name": "zachmueller",
            "real_name": "zachmueller",
            "display_name": "zachmueller",
            "team": "TUU48M0T1",
            "name": "zach",
            "is_restricted": false,
            "is_ultra_restricted": false
        },
        "blocks": [
            {
                "type": "rich_text",
                "block_id": "\/xRA",
                "elements": [
                    {
                        "type": "rich_text_section",
                        "elements": [
                            {
                                "type": "text",
                                "text": "I can sick one of my past iGEMers on it.... "
                            },
                            {
                                "type": "user",
                                "user_id": "UUPFF4TC3"
                            },
                            {
                                "type": "text",
                                "text": " want to help with that?"
                            }
                        ]
                    }
                ]
            }
        ],
        "thread_ts": "1583685010.093800",
        "parent_user_id": "UV02WET96"
    },
    {
        "client_msg_id": "38b888b4-e214-4e8e-ba23-7bf1c1b57170",
        "type": "message",
        "text": "She's already dropped a couple relevant past projects in the main Google doc, but it might be good to also have a summarized version (that then links off to the details)",
        "user": "UUUEFQW8N",
        "ts": "1583687641.101500",
        "team": "TUU48M0T1",
        "user_team": "TUU48M0T1",
        "source_team": "TUU48M0T1",
        "user_profile": {
            "avatar_hash": "5660f4d7fe91",
            "image_72": "https:\/\/avatars.slack-edge.com\/2020-03-06\/974037299378_5660f4d7fe9118b28c09_72.jpg",
            "first_name": "zachmueller",
            "real_name": "zachmueller",
            "display_name": "zachmueller",
            "team": "TUU48M0T1",
            "name": "zach",
            "is_restricted": false,
            "is_ultra_restricted": false
        },
        "edited": {
            "user": "UUUEFQW8N",
            "ts": "1583687645.000000"
        },
        "blocks": [
            {
                "type": "rich_text",
                "block_id": "2h4",
                "elements": [
                    {
                        "type": "rich_text_section",
                        "elements": [
                            {
                                "type": "text",
                                "text": "She's already dropped a couple relevant past projects in the main Google doc, but it might be good to also have a summarized version (that then links off to the details)"
                            }
                        ]
                    }
                ]
            }
        ],
        "thread_ts": "1583685010.093800",
        "parent_user_id": "UV02WET96"
    },
    {
        "client_msg_id": "2f70f6bd-5d1e-40fa-a074-8da3330392d5",
        "type": "message",
        "text": "[<#CV3RJR83Z|open-lab-notebook>]\nOne of the bottlenecks this initiative is going to have is its open lab notebook and how clear it is structured and how easy it is to use. I’ve set up a special channel to discuss about such a challenge and improve our current open lab notebook and documentation practices.\nPlease join it if you’re interested to contribute, especially if you have experience working on open documentation :v:",
        "user": "UV02WET96",
        "ts": "1583688216.104600",
        "team": "TUU48M0T1",
        "user_team": "TUU48M0T1",
        "source_team": "TUU48M0T1",
        "user_profile": {
            "avatar_hash": "a99c74a194f8",
            "image_72": "https:\/\/avatars.slack-edge.com\/2020-03-07\/975708504851_a99c74a194f86715ca7d_72.png",
            "first_name": "Thomas",
            "real_name": "Thomas Landrain",
            "display_name": "Thomas Landrain - JOGL CoFounder \/ CEO",
            "team": "TUU48M0T1",
            "name": "thomas",
            "is_restricted": false,
            "is_ultra_restricted": false
        },
        "blocks": [
            {
                "type": "rich_text",
                "block_id": "6whXj",
                "elements": [
                    {
                        "type": "rich_text_section",
                        "elements": [
                            {
                                "type": "text",
                                "text": "["
                            },
                            {
                                "type": "channel",
                                "channel_id": "CV3RJR83Z"
                            },
                            {
                                "type": "text",
                                "text": "]\nOne of the bottlenecks this initiative is going to have is its open lab notebook and how clear it is structured and how easy it is to use. I’ve set up a special channel to discuss about such a challenge and improve our current open lab notebook and documentation practices.\nPlease join it if you’re interested to contribute, especially if you have experience working on open documentation "
                            },
                            {
                                "type": "emoji",
                                "name": "v"
                            }
                        ]
                    }
                ]
            }
        ]
    },
    {
        "client_msg_id": "83e7f42b-6c24-47d3-acf4-6264d1a0093a",
        "type": "message",
        "text": "Hi all! Sorry I missed the first call, but just got pulled in, but will try to join the next one.",
        "user": "UUNQ7H1MG",
        "ts": "1583688713.108400",
        "team": "TUU48M0T1",
        "user_team": "TUU48M0T1",
        "source_team": "TUU48M0T1",
        "user_profile": {
            "avatar_hash": "g6c134147245",
            "image_72": "https:\/\/secure.gravatar.com\/avatar\/6c134147245b2c1f347afb07cc32e9df.jpg?s=72&d=https%3A%2F%2Fa.slack-edge.com%2Fdf10d%2Fimg%2Favatars%2Fava_0013-72.png",
            "first_name": "DesireeD",
            "real_name": "DesireeD",
            "display_name": "DesireeD",
            "team": "TUU48M0T1",
            "name": "desiree.dawn",
            "is_restricted": false,
            "is_ultra_restricted": false
        },
        "blocks": [
            {
                "type": "rich_text",
                "block_id": "CIl",
                "elements": [
                    {
                        "type": "rich_text_section",
                        "elements": [
                            {
                                "type": "text",
                                "text": "Hi all! Sorry I missed the first call, but just got pulled in, but will try to join the next one."
                            }
                        ]
                    }
                ]
            }
        ],
        "reactions": [
            {
                "name": "100",
                "users": [
                    "UUUEFQW8N",
                    "UV02WET96",
                    "UV3746ST1",
                    "UV10KBUQG"
                ],
                "count": 4
            }
        ]
    },
    {
        "client_msg_id": "7899aa05-ca6d-4755-be27-2bc13d311981",
        "type": "message",
        "text": "Where is he sending them? If he can send any portion my way we might be able to do something! We have a few cases cropping up in Boston, literally across the st in Kendall Square and also Wellesley, so...",
        "user": "UUNQ7H1MG",
        "ts": "1583688849.108600",
        "team": "TUU48M0T1",
        "user_team": "TUU48M0T1",
        "source_team": "TUU48M0T1",
        "user_profile": {
            "avatar_hash": "g6c134147245",
            "image_72": "https:\/\/secure.gravatar.com\/avatar\/6c134147245b2c1f347afb07cc32e9df.jpg?s=72&d=https%3A%2F%2Fa.slack-edge.com%2Fdf10d%2Fimg%2Favatars%2Fava_0013-72.png",
            "first_name": "DesireeD",
            "real_name": "DesireeD",
            "display_name": "DesireeD",
            "team": "TUU48M0T1",
            "name": "desiree.dawn",
            "is_restricted": false,
            "is_ultra_restricted": false
        },
        "blocks": [
            {
                "type": "rich_text",
                "block_id": "78Z3",
                "elements": [
                    {
                        "type": "rich_text_section",
                        "elements": [
                            {
                                "type": "text",
                                "text": "Where is he sending them? If he can send any portion my way we might be able to do something! We have a few cases cropping up in Boston, literally across the st in Kendall Square and also Wellesley, so..."
                            }
                        ]
                    }
                ]
            }
        ],
        "thread_ts": "1583604964.025000",
        "parent_user_id": "UV02WET96"
    },
    {
        "client_msg_id": "584bdf0a-5d21-4a71-87d5-b081026f3b97",
        "type": "message",
        "text": "(but not clear on testing capacities\/places yet)",
        "user": "UUNQ7H1MG",
        "ts": "1583688871.108900",
        "team": "TUU48M0T1",
        "user_team": "TUU48M0T1",
        "source_team": "TUU48M0T1",
        "user_profile": {
            "avatar_hash": "g6c134147245",
            "image_72": "https:\/\/secure.gravatar.com\/avatar\/6c134147245b2c1f347afb07cc32e9df.jpg?s=72&d=https%3A%2F%2Fa.slack-edge.com%2Fdf10d%2Fimg%2Favatars%2Fava_0013-72.png",
            "first_name": "DesireeD",
            "real_name": "DesireeD",
            "display_name": "DesireeD",
            "team": "TUU48M0T1",
            "name": "desiree.dawn",
            "is_restricted": false,
            "is_ultra_restricted": false
        },
        "blocks": [
            {
                "type": "rich_text",
                "block_id": "Ecqxd",
                "elements": [
                    {
                        "type": "rich_text_section",
                        "elements": [
                            {
                                "type": "text",
                                "text": "(but not clear on testing capacities\/places yet)"
                            }
                        ]
                    }
                ]
            }
        ],
        "thread_ts": "1583604964.025000",
        "parent_user_id": "UV02WET96"
    },
    {
        "client_msg_id": "04b9ba2e-b9c4-453c-9c6f-d3a08e3b77d9",
        "type": "message",
        "text": "<@UUNQ7H1MG> one thing to be careful of with the testing kits is to make sure (if they're being used on a real human sample) to run those tests only in labs with sufficient biosafety capabilities and skilled lab techs. Running these tests inside a community lab itself would create safety issues once a positive result is found =\/",
        "user": "UUUEFQW8N",
        "ts": "1583688981.109100",
        "team": "TUU48M0T1",
        "user_team": "TUU48M0T1",
        "source_team": "TUU48M0T1",
        "user_profile": {
            "avatar_hash": "5660f4d7fe91",
            "image_72": "https:\/\/avatars.slack-edge.com\/2020-03-06\/974037299378_5660f4d7fe9118b28c09_72.jpg",
            "first_name": "zachmueller",
            "real_name": "zachmueller",
            "display_name": "zachmueller",
            "team": "TUU48M0T1",
            "name": "zach",
            "is_restricted": false,
            "is_ultra_restricted": false
        },
        "blocks": [
            {
                "type": "rich_text",
                "block_id": "26gO",
                "elements": [
                    {
                        "type": "rich_text_section",
                        "elements": [
                            {
                                "type": "user",
                                "user_id": "UUNQ7H1MG"
                            },
                            {
                                "type": "text",
                                "text": " one thing to be careful of with the testing kits is to make sure (if they're being used on a real human sample) to run those tests only in labs with sufficient biosafety capabilities and skilled lab techs. Running these tests inside a community lab itself would create safety issues once a positive result is found =\/"
                            }
                        ]
                    }
                ]
            }
        ],
        "thread_ts": "1583604964.025000",
        "parent_user_id": "UV02WET96",
        "reactions": [
            {
                "name": "+1",
                "users": [
                    "UV02WET96"
                ],
                "count": 1
            }
        ]
    },
    {
        "client_msg_id": "4e510075-c0a5-4b80-919d-04f68517e9dd",
        "type": "message",
        "text": "[<#CV474R31U|funding-opportunities>]\nThere are more and more opportunities appearing as the situation is worsening. The goal of this channel is to identify and discuss how we could apply to grants with the OpenCovid19 initiative!",
        "user": "UV02WET96",
        "ts": "1583691377.109800",
        "team": "TUU48M0T1",
        "user_team": "TUU48M0T1",
        "source_team": "TUU48M0T1",
        "user_profile": {
            "avatar_hash": "a99c74a194f8",
            "image_72": "https:\/\/avatars.slack-edge.com\/2020-03-07\/975708504851_a99c74a194f86715ca7d_72.png",
            "first_name": "Thomas",
            "real_name": "Thomas Landrain",
            "display_name": "Thomas Landrain - JOGL CoFounder \/ CEO",
            "team": "TUU48M0T1",
            "name": "thomas",
            "is_restricted": false,
            "is_ultra_restricted": false
        },
        "edited": {
            "user": "UV02WET96",
            "ts": "1583692010.000000"
        },
        "blocks": [
            {
                "type": "rich_text",
                "block_id": "QiLvJ",
                "elements": [
                    {
                        "type": "rich_text_section",
                        "elements": [
                            {
                                "type": "text",
                                "text": "["
                            },
                            {
                                "type": "channel",
                                "channel_id": "CV474R31U"
                            },
                            {
                                "type": "text",
                                "text": "]\nThere are more and more opportunities appearing as the situation is worsening. The goal of this channel is to identify and discuss how we could apply to grants with the OpenCovid19 initiative!"
                            }
                        ]
                    }
                ]
            }
        ],
        "thread_ts": "1583691377.109800",
        "reply_count": 2,
        "reply_users_count": 2,
        "latest_reply": "1584002626.256000",
        "reply_users": [
            "UV10KBUQG",
            "UV02WET96"
        ],
        "replies": [
            {
                "user": "UV10KBUQG",
                "ts": "1583981009.252700"
            },
            {
                "user": "UV02WET96",
                "ts": "1584002626.256000"
            }
        ],
        "subscribed": false,
        "reactions": [
            {
                "name": "wave",
                "users": [
                    "UV10KBUQG"
                ],
                "count": 1
            }
        ]
    },
    {
        "client_msg_id": "B737289E-DF92-47A6-A7FE-2CC6075496CE",
        "type": "message",
        "text": "Yeah I can help with that! Should I start a new channel for it?",
        "user": "UUPFF4TC3",
        "ts": "1583693259.111500",
        "team": "TUU48M0T1",
        "user_team": "TUU48M0T1",
        "source_team": "TUU48M0T1",
        "user_profile": {
            "avatar_hash": "g563e1ed9e36",
            "image_72": "https:\/\/secure.gravatar.com\/avatar\/563e1ed9e362af0ce5867baad4d7c568.jpg?s=72&d=https%3A%2F%2Fa.slack-edge.com%2Fdf10d%2Fimg%2Favatars%2Fava_0007-72.png",
            "first_name": "Sophie",
            "real_name": "Sophie Liu",
            "display_name": "Sophie Liu",
            "team": "TUU48M0T1",
            "name": "sophie006liu",
            "is_restricted": false,
            "is_ultra_restricted": false
        },
        "blocks": [
            {
                "type": "rich_text",
                "block_id": "c=jZ",
                "elements": [
                    {
                        "type": "rich_text_section",
                        "elements": [
                            {
                                "type": "text",
                                "text": "Yeah I can help with that! Should I start a new channel for it?"
                            }
                        ]
                    }
                ]
            }
        ],
        "thread_ts": "1583685010.093800",
        "parent_user_id": "UV02WET96",
        "reactions": [
            {
                "name": "+1",
                "users": [
                    "UV0QTJCMT"
                ],
                "count": 1
            }
        ]
    },
    {
        "client_msg_id": "8b3bc287-a57b-4ec7-85e5-38d0d7316a5f",
        "type": "message",
        "text": "Yeah that could be good!",
        "user": "UUUEFQW8N",
        "ts": "1583693274.111700",
        "team": "TUU48M0T1",
        "user_team": "TUU48M0T1",
        "source_team": "TUU48M0T1",
        "user_profile": {
            "avatar_hash": "5660f4d7fe91",
            "image_72": "https:\/\/avatars.slack-edge.com\/2020-03-06\/974037299378_5660f4d7fe9118b28c09_72.jpg",
            "first_name": "zachmueller",
            "real_name": "zachmueller",
            "display_name": "zachmueller",
            "team": "TUU48M0T1",
            "name": "zach",
            "is_restricted": false,
            "is_ultra_restricted": false
        },
        "blocks": [
            {
                "type": "rich_text",
                "block_id": "Tdus",
                "elements": [
                    {
                        "type": "rich_text_section",
                        "elements": [
                            {
                                "type": "text",
                                "text": "Yeah that could be good!"
                            }
                        ]
                    }
                ]
            }
        ],
        "thread_ts": "1583685010.093800",
        "parent_user_id": "UV02WET96"
    },
    {
        "client_msg_id": "562d040a-0f61-4422-88f9-d574370e13be",
        "type": "message",
        "text": "<@UV02WET96> thoughts on using the afterigem platform to get the word out about the project?",
        "user": "UV0QTJCMT",
        "ts": "1583696522.112200",
        "team": "TUU48M0T1",
        "user_team": "TUU48M0T1",
        "source_team": "TUU48M0T1",
        "user_profile": {
            "avatar_hash": "06a6ae8f69d1",
            "image_72": "https:\/\/avatars.slack-edge.com\/2020-04-13\/1060635499315_06a6ae8f69d18f1ad464_72.png",
            "first_name": "Katherine",
            "real_name": "Katherine Holo",
            "display_name": "Kat Holo - Co-Organizer of OpenCOVID19",
            "team": "TUU48M0T1",
            "name": "katherineh245",
            "is_restricted": false,
            "is_ultra_restricted": false
        },
        "blocks": [
            {
                "type": "rich_text",
                "block_id": "Hymn",
                "elements": [
                    {
                        "type": "rich_text_section",
                        "elements": [
                            {
                                "type": "user",
                                "user_id": "UV02WET96"
                            },
                            {
                                "type": "text",
                                "text": " thoughts on using the afterigem platform to get the word out about the project?"
                            }
                        ]
                    }
                ]
            }
        ],
        "thread_ts": "1583685010.093800",
        "parent_user_id": "UV02WET96"
    },
    {
        "client_msg_id": "687a9d1f-1854-498c-90fe-b366609dace8",
        "type": "message",
        "text": "Hi everyone, I just joined in!",
        "user": "UUP8XJTH8",
        "ts": "1583698580.112700",
        "team": "TUU48M0T1",
        "user_team": "TUU48M0T1",
        "source_team": "TUU48M0T1",
        "user_profile": {
            "avatar_hash": "551563ed5769",
            "image_72": "https:\/\/avatars.slack-edge.com\/2020-03-09\/990308488310_551563ed5769d8569a8f_72.jpg",
            "first_name": "",
            "real_name": "Muhammad Ismail",
            "display_name": "Muhammad Ismail",
            "team": "TUU48M0T1",
            "name": "ismail",
            "is_restricted": false,
            "is_ultra_restricted": false
        },
        "blocks": [
            {
                "type": "rich_text",
                "block_id": "STWu",
                "elements": [
                    {
                        "type": "rich_text_section",
                        "elements": [
                            {
                                "type": "text",
                                "text": "Hi everyone, I just joined in!"
                            }
                        ]
                    }
                ]
            }
        ],
        "thread_ts": "1583698580.112700",
        "reply_count": 3,
        "reply_users_count": 3,
        "latest_reply": "1584134222.464600",
        "reply_users": [
            "UV02WET96",
            "UV1D9NR1N",
            "UUP8XJTH8"
        ],
        "replies": [
            {
                "user": "UV02WET96",
                "ts": "1583700132.113400"
            },
            {
                "user": "UV1D9NR1N",
                "ts": "1583700695.113600"
            },
            {
                "user": "UUP8XJTH8",
                "ts": "1584134222.464600"
            }
        ],
        "subscribed": false,
        "reactions": [
            {
                "name": "wave",
                "users": [
                    "UUUEFQW8N",
                    "UV2SC7ZE3",
                    "UV0QTJCMT",
                    "UV02WET96",
                    "UV1D9NR1N",
                    "UV1G2M821",
                    "UV3HA9MM4",
                    "UV10KBUQG"
                ],
                "count": 8
            }
        ]
    },
    {
        "client_msg_id": "165a34ed-fcd9-4e43-8f53-e64c19934709",
        "type": "message",
        "text": "Hi Muhammad! Welcome :wave:",
        "user": "UV02WET96",
        "ts": "1583700132.113400",
        "team": "TUU48M0T1",
        "user_team": "TUU48M0T1",
        "source_team": "TUU48M0T1",
        "user_profile": {
            "avatar_hash": "a99c74a194f8",
            "image_72": "https:\/\/avatars.slack-edge.com\/2020-03-07\/975708504851_a99c74a194f86715ca7d_72.png",
            "first_name": "Thomas",
            "real_name": "Thomas Landrain",
            "display_name": "Thomas Landrain - JOGL CoFounder \/ CEO",
            "team": "TUU48M0T1",
            "name": "thomas",
            "is_restricted": false,
            "is_ultra_restricted": false
        },
        "blocks": [
            {
                "type": "rich_text",
                "block_id": "vBjJ",
                "elements": [
                    {
                        "type": "rich_text_section",
                        "elements": [
                            {
                                "type": "text",
                                "text": "Hi Muhammad! Welcome "
                            },
                            {
                                "type": "emoji",
                                "name": "wave"
                            }
                        ]
                    }
                ]
            }
        ],
        "thread_ts": "1583698580.112700",
        "parent_user_id": "UUP8XJTH8"
    },
    {
        "client_msg_id": "d44bd76e-e50f-49bd-b209-234fc55e0482",
        "type": "message",
        "text": "Welcome <@UUP8XJTH8>!",
        "user": "UV1D9NR1N",
        "ts": "1583700695.113600",
        "team": "TUU48M0T1",
        "user_team": "TUU48M0T1",
        "source_team": "TUU48M0T1",
        "user_profile": {
            "avatar_hash": "4892d7aa327f",
            "image_72": "https:\/\/avatars.slack-edge.com\/2020-03-07\/987006824628_4892d7aa327f46dcc8f7_72.jpg",
            "first_name": "Tito",
            "real_name": "Tito Jankowski",
            "display_name": "Tito Jankowski",
            "team": "TUU48M0T1",
            "name": "tito",
            "is_restricted": false,
            "is_ultra_restricted": false
        },
        "blocks": [
            {
                "type": "rich_text",
                "block_id": "rZrUt",
                "elements": [
                    {
                        "type": "rich_text_section",
                        "elements": [
                            {
                                "type": "text",
                                "text": "Welcome "
                            },
                            {
                                "type": "user",
                                "user_id": "UUP8XJTH8"
                            },
                            {
                                "type": "text",
                                "text": "!"
                            }
                        ]
                    }
                ]
            }
        ],
        "thread_ts": "1583698580.112700",
        "parent_user_id": "UUP8XJTH8"
    },
    {
        "client_msg_id": "ec986451-e927-45e7-bb2d-d76359303a3e",
        "type": "message",
        "text": "<https:\/\/www.thermofisher.com\/uk\/en\/home\/clinical\/clinical-genomics\/pathogen-detection-solutions\/coronavirus-2019-ncov.html?icid=WB310179>",
        "user": "UV3HA9MM4",
        "ts": "1583708605.114100",
        "team": "TUU48M0T1",
        "user_team": "TUU48M0T1",
        "source_team": "TUU48M0T1",
        "user_profile": {
            "avatar_hash": "b2f89757c831",
            "image_72": "https:\/\/avatars.slack-edge.com\/2020-03-07\/987455908032_b2f89757c8312ec04011_72.jpg",
            "first_name": "AJP",
            "real_name": "AJP",
            "display_name": "AJP",
            "team": "TUU48M0T1",
            "name": "bioajp",
            "is_restricted": false,
            "is_ultra_restricted": false
        },
        "attachments": [
            {
                "title": "Research Solutions for 2019-nCoV | Thermo Fisher Scientific - US",
                "title_link": "https:\/\/www.thermofisher.com\/uk\/en\/home\/clinical\/clinical-genomics\/pathogen-detection-solutions\/coronavirus-2019-ncov.html?icid=WB310179",
                "text": "Thermo Fisher Scientific offers a comprehensive portfolio of products and remote service options for emerging pathogen discovery and identification.",
                "fallback": "Research Solutions for 2019-nCoV | Thermo Fisher Scientific - US",
                "image_url": "https:\/\/www.thermofisher.com\/content\/dam\/LifeTech\/Images\/COL011389-Coronavirus-v2.jpg",
                "from_url": "https:\/\/www.thermofisher.com\/uk\/en\/home\/clinical\/clinical-genomics\/pathogen-detection-solutions\/coronavirus-2019-ncov.html?icid=WB310179",
                "image_width": 441,
                "image_height": 250,
                "image_bytes": 339353,
                "service_icon": "https:\/\/www.thermofisher.com\/favicon.ico",
                "service_name": "thermofisher.com",
                "id": 1,
                "original_url": "https:\/\/www.thermofisher.com\/uk\/en\/home\/clinical\/clinical-genomics\/pathogen-detection-solutions\/coronavirus-2019-ncov.html?icid=WB310179"
            }
        ],
        "blocks": [
            {
                "type": "rich_text",
                "block_id": "rVOz3",
                "elements": [
                    {
                        "type": "rich_text_section",
                        "elements": [
                            {
                                "type": "link",
                                "url": "https:\/\/www.thermofisher.com\/uk\/en\/home\/clinical\/clinical-genomics\/pathogen-detection-solutions\/coronavirus-2019-ncov.html?icid=WB310179"
                            }
                        ]
                    }
                ]
            }
        ],
        "thread_ts": "1583708605.114100",
        "reply_count": 1,
        "reply_users_count": 1,
        "latest_reply": "1583708719.114600",
        "reply_users": [
            "UV3HA9MM4"
        ],
        "replies": [
            {
                "user": "UV3HA9MM4",
                "ts": "1583708719.114600"
            }
        ],
        "subscribed": false
    },
    {
        "client_msg_id": "9516304b-7be7-477e-a8ab-50fa12a765d9",
        "type": "message",
        "text": "250 ml DNAZap for ~£86~ £74 (not converting to $ or € as may not track exchange rate)",
        "user": "UV3HA9MM4",
        "ts": "1583708719.114600",
        "team": "TUU48M0T1",
        "user_team": "TUU48M0T1",
        "source_team": "TUU48M0T1",
        "user_profile": {
            "avatar_hash": "b2f89757c831",
            "image_72": "https:\/\/avatars.slack-edge.com\/2020-03-07\/987455908032_b2f89757c8312ec04011_72.jpg",
            "first_name": "AJP",
            "real_name": "AJP",
            "display_name": "AJP",
            "team": "TUU48M0T1",
            "name": "bioajp",
            "is_restricted": false,
            "is_ultra_restricted": false
        },
        "edited": {
            "user": "UV3HA9MM4",
            "ts": "1583708769.000000"
        },
        "blocks": [
            {
                "type": "rich_text",
                "block_id": "Izgt",
                "elements": [
                    {
                        "type": "rich_text_section",
                        "elements": [
                            {
                                "type": "text",
                                "text": "250 ml DNAZap for "
                            },
                            {
                                "type": "text",
                                "text": "£86",
                                "style": {
                                    "strike": true
                                }
                            },
                            {
                                "type": "text",
                                "text": " £74 (not converting to $ or € as may not track exchange rate)"
                            }
                        ]
                    }
                ]
            }
        ],
        "thread_ts": "1583708605.114100",
        "parent_user_id": "UV3HA9MM4"
    },
    {
        "client_msg_id": "9664f940-0ad4-4640-8de9-5ca2dc8e6506",
        "type": "message",
        "text": "BSL-2 or BSL-3? The article on comparative analysis of primer-probe sets was done on BSL-3\n\nAFAIK, SoundBio only has (had?) a BSL-1 space",
        "user": "UV0BB32QL",
        "ts": "1583716362.115200",
        "team": "TUU48M0T1",
        "user_team": "TUU48M0T1",
        "source_team": "TUU48M0T1",
        "user_profile": {
            "avatar_hash": "g1c475c816d9",
            "image_72": "https:\/\/secure.gravatar.com\/avatar\/1c475c816d9bae65a30285b07c83b645.jpg?s=72&d=https%3A%2F%2Fa.slack-edge.com%2Fdf10d%2Fimg%2Favatars%2Fava_0022-72.png",
            "first_name": "",
            "real_name": "Adi Oltean",
            "display_name": "Adi Oltean",
            "team": "TUU48M0T1",
            "name": "adi.oltean",
            "is_restricted": false,
            "is_ultra_restricted": false
        },
        "blocks": [
            {
                "type": "rich_text",
                "block_id": "0ZsEG",
                "elements": [
                    {
                        "type": "rich_text_section",
                        "elements": [
                            {
                                "type": "text",
                                "text": "BSL-2 or BSL-3? The article on comparative analysis of primer-probe sets was done on BSL-3\n\nAFAIK, SoundBio only has (had?) a BSL-1 space"
                            }
                        ]
                    }
                ]
            }
        ],
        "thread_ts": "1583604964.025000",
        "parent_user_id": "UV02WET96"
    },
    {
        "client_msg_id": "6a3fc381-5e3a-428e-be38-ad4c61e03599",
        "type": "message",
        "text": "SoundBio is only BSL-1, yes. Desiree is based in Boston, so there are likely higher biosafety level spaces she could connect with there",
        "user": "UUUEFQW8N",
        "ts": "1583716434.115400",
        "team": "TUU48M0T1",
        "user_team": "TUU48M0T1",
        "source_team": "TUU48M0T1",
        "user_profile": {
            "avatar_hash": "5660f4d7fe91",
            "image_72": "https:\/\/avatars.slack-edge.com\/2020-03-06\/974037299378_5660f4d7fe9118b28c09_72.jpg",
            "first_name": "zachmueller",
            "real_name": "zachmueller",
            "display_name": "zachmueller",
            "team": "TUU48M0T1",
            "name": "zach",
            "is_restricted": false,
            "is_ultra_restricted": false
        },
        "blocks": [
            {
                "type": "rich_text",
                "block_id": "01OB0",
                "elements": [
                    {
                        "type": "rich_text_section",
                        "elements": [
                            {
                                "type": "text",
                                "text": "SoundBio is only BSL-1, yes. Desiree is based in Boston, so there are likely higher biosafety level spaces she could connect with there"
                            }
                        ]
                    }
                ]
            }
        ],
        "thread_ts": "1583604964.025000",
        "parent_user_id": "UV02WET96"
    },
    {
        "client_msg_id": "a4e5e87a-be94-4d33-b73a-93f84c2c3f9a",
        "type": "message",
        "text": "hi everyone, so just went through and added everyone who filled out the survey to the google group (to have access to the drive and be part of the announcement mailing list). if you still don't have access to the drive or are having trouble accessing documents, reply to this thread and we can try to fix that!",
        "user": "UV0QTJCMT",
        "ts": "1583717571.117200",
        "team": "TUU48M0T1",
        "user_team": "TUU48M0T1",
        "source_team": "TUU48M0T1",
        "user_profile": {
            "avatar_hash": "06a6ae8f69d1",
            "image_72": "https:\/\/avatars.slack-edge.com\/2020-04-13\/1060635499315_06a6ae8f69d18f1ad464_72.png",
            "first_name": "Katherine",
            "real_name": "Katherine Holo",
            "display_name": "Kat Holo - Co-Organizer of OpenCOVID19",
            "team": "TUU48M0T1",
            "name": "katherineh245",
            "is_restricted": false,
            "is_ultra_restricted": false
        },
        "blocks": [
            {
                "type": "rich_text",
                "block_id": "pRrE0",
                "elements": [
                    {
                        "type": "rich_text_section",
                        "elements": [
                            {
                                "type": "text",
                                "text": "hi everyone, so just went through and added everyone who filled out the survey to the google group (to have access to the drive and be part of the announcement mailing list). if you still don't have access to the drive or are having trouble accessing documents, reply to this thread and we can try to fix that!"
                            }
                        ]
                    }
                ]
            }
        ],
        "thread_ts": "1583717571.117200",
        "reply_count": 7,
        "reply_users_count": 4,
        "latest_reply": "1584270804.077500",
        "reply_users": [
            "UV3HA9MM4",
            "UV0QTJCMT",
            "UUUEFQW8N",
            "UV8Q23Y1K"
        ],
        "replies": [
            {
                "user": "UV3HA9MM4",
                "ts": "1583718426.117600"
            },
            {
                "user": "UV0QTJCMT",
                "ts": "1583719471.119000"
            },
            {
                "user": "UUUEFQW8N",
                "ts": "1583759762.137300"
            },
            {
                "user": "UV0QTJCMT",
                "ts": "1583772083.149900"
            },
            {
                "user": "UV8Q23Y1K",
                "ts": "1584268754.076900"
            },
            {
                "user": "UV0QTJCMT",
                "ts": "1584270117.077100"
            },
            {
                "user": "UV8Q23Y1K",
                "ts": "1584270804.077500"
            }
        ],
        "subscribed": true,
        "last_read": "1584381821.009900",
        "reactions": [
            {
                "name": "clap",
                "users": [
                    "UUQM4L2AF",
                    "UV3HA9MM4",
                    "UV10KBUQG"
                ],
                "count": 3
            },
            {
                "name": "100",
                "users": [
                    "UUUEFQW8N"
                ],
                "count": 1
            }
        ]
    },
    {
        "client_msg_id": "aa5e14cf-cf41-458f-aa4e-5230e6d4f029",
        "type": "message",
        "text": "Great <@UV0QTJCMT>, thank you!  :slightly_smiling_face:   Also is the link to the Google Drive folder somewhere obvious that I’ve missed?",
        "user": "UV3HA9MM4",
        "ts": "1583718426.117600",
        "team": "TUU48M0T1",
        "user_team": "TUU48M0T1",
        "source_team": "TUU48M0T1",
        "user_profile": {
            "avatar_hash": "b2f89757c831",
            "image_72": "https:\/\/avatars.slack-edge.com\/2020-03-07\/987455908032_b2f89757c8312ec04011_72.jpg",
            "first_name": "AJP",
            "real_name": "AJP",
            "display_name": "AJP",
            "team": "TUU48M0T1",
            "name": "bioajp",
            "is_restricted": false,
            "is_ultra_restricted": false
        },
        "blocks": [
            {
                "type": "rich_text",
                "block_id": "Aeut",
                "elements": [
                    {
                        "type": "rich_text_section",
                        "elements": [
                            {
                                "type": "text",
                                "text": "Great "
                            },
                            {
                                "type": "user",
                                "user_id": "UV0QTJCMT"
                            },
                            {
                                "type": "text",
                                "text": ", thank you!  "
                            },
                            {
                                "type": "emoji",
                                "name": "slightly_smiling_face"
                            },
                            {
                                "type": "text",
                                "text": "   Also is the link to the Google Drive folder somewhere obvious that I’ve missed?"
                            }
                        ]
                    }
                ]
            }
        ],
        "thread_ts": "1583717571.117200",
        "parent_user_id": "UV0QTJCMT"
    },
    {
        "client_msg_id": "5CE6748B-8829-4C7F-BABC-DAD516DB94DD",
        "type": "message",
        "text": "<@UV3HA9MM4> do you have access to the main lab notebook doc? if you do, when you open it you can click the small folder icon by the title of the doc and it should take you to the folder itself",
        "user": "UV0QTJCMT",
        "ts": "1583719471.119000",
        "team": "TUU48M0T1",
        "user_team": "TUU48M0T1",
        "source_team": "TUU48M0T1",
        "user_profile": {
            "avatar_hash": "06a6ae8f69d1",
            "image_72": "https:\/\/avatars.slack-edge.com\/2020-04-13\/1060635499315_06a6ae8f69d18f1ad464_72.png",
            "first_name": "Katherine",
            "real_name": "Katherine Holo",
            "display_name": "Kat Holo - Co-Organizer of OpenCOVID19",
            "team": "TUU48M0T1",
            "name": "katherineh245",
            "is_restricted": false,
            "is_ultra_restricted": false
        },
        "blocks": [
            {
                "type": "rich_text",
                "block_id": "1iYvh",
                "elements": [
                    {
                        "type": "rich_text_section",
                        "elements": [
                            {
                                "type": "user",
                                "user_id": "UV3HA9MM4"
                            },
                            {
                                "type": "text",
                                "text": " do you have access to the main lab notebook doc? if you do, when you open it you can click the small folder icon by the title of the doc and it should take you to the folder itself"
                            }
                        ]
                    }
                ]
            }
        ],
        "thread_ts": "1583717571.117200",
        "parent_user_id": "UV0QTJCMT"
    },
    {
        "client_msg_id": "c59917e1-9e16-470d-9c3d-1586cc5d8013",
        "type": "message",
        "text": "<https:\/\/techcrunch.com\/2020\/03\/08\/gates-foundation-backed-program-will-soon-be-issuing-home-testing-kits-for-covid-19-in-seattle\/> :thinking_face:",
        "user": "UV120B2P7",
        "ts": "1583725811.119300",
        "team": "TUU48M0T1",
        "user_team": "TUU48M0T1",
        "source_team": "TUU48M0T1",
        "user_profile": {
            "avatar_hash": "34ebddbce513",
            "image_72": "https:\/\/avatars.slack-edge.com\/2020-03-13\/988769523137_34ebddbce5135c5663e2_72.jpg",
            "first_name": "Yoshi",
            "real_name": "Yoshi Goto - SoundBio Lab, Seattle",
            "display_name": "Yoshi Goto - SoundBio Lab, Seattle",
            "team": "TUU48M0T1",
            "name": "yoshi",
            "is_restricted": false,
            "is_ultra_restricted": false
        },
        "attachments": [
            {
                "service_name": "TechCrunch",
                "title": "Gates Foundation-backed program will soon be issuing home testing kits for COVID-19 in Seattle – TechCrunch",
                "title_link": "https:\/\/techcrunch.com\/2020\/03\/08\/gates-foundation-backed-program-will-soon-be-issuing-home-testing-kits-for-covid-19-in-seattle\/",
                "text": "A project funded by the Gates Foundation will soon begin issuing at-home testing kits for the novel coronavirus, COVID-19, according to a report in the Seattle Times. The study, based on a nose-swab should be able to return results in up to two days and will be shared with health officials who can …",
                "fallback": "TechCrunch: Gates Foundation-backed program will soon be issuing home testing kits for COVID-19 in Seattle – TechCrunch",
                "image_url": "https:\/\/techcrunch.com\/wp-content\/uploads\/2018\/11\/GettyImages-1058017974.jpg?w=600",
                "from_url": "https:\/\/techcrunch.com\/2020\/03\/08\/gates-foundation-backed-program-will-soon-be-issuing-home-testing-kits-for-covid-19-in-seattle\/",
                "image_width": 375,
                "image_height": 250,
                "image_bytes": 79966,
                "service_icon": "https:\/\/techcrunch.com\/wp-content\/uploads\/2015\/02\/cropped-cropped-favicon-gradient.png?w=180",
                "id": 1,
                "original_url": "https:\/\/techcrunch.com\/2020\/03\/08\/gates-foundation-backed-program-will-soon-be-issuing-home-testing-kits-for-covid-19-in-seattle\/"
            }
        ],
        "blocks": [
            {
                "type": "rich_text",
                "block_id": "Lt\/q",
                "elements": [
                    {
                        "type": "rich_text_section",
                        "elements": [
                            {
                                "type": "link",
                                "url": "https:\/\/techcrunch.com\/2020\/03\/08\/gates-foundation-backed-program-will-soon-be-issuing-home-testing-kits-for-covid-19-in-seattle\/"
                            },
                            {
                                "type": "text",
                                "text": " "
                            },
                            {
                                "type": "emoji",
                                "name": "thinking_face"
                            }
                        ]
                    }
                ]
            }
        ],
        "reactions": [
            {
                "name": "neutral_face",
                "users": [
                    "UV2SC7ZE3",
                    "UV10KBUQG"
                ],
                "count": 2
            }
        ]
    },
    {
        "client_msg_id": "7EFE5911-BD15-45BA-8A3B-7DDDAF457B90",
        "type": "message",
        "text": "29 minute antibody test, Is that possible? <https:\/\/www.shine.cn\/news\/nation\/2003073683\/|https:\/\/www.shine.cn\/news\/nation\/2003073683\/>",
        "user": "UV1D9NR1N",
        "ts": "1583730841.120200",
        "team": "TUU48M0T1",
        "user_team": "TUU48M0T1",
        "source_team": "TUU48M0T1",
        "user_profile": {
            "avatar_hash": "4892d7aa327f",
            "image_72": "https:\/\/avatars.slack-edge.com\/2020-03-07\/987006824628_4892d7aa327f46dcc8f7_72.jpg",
            "first_name": "Tito",
            "real_name": "Tito Jankowski",
            "display_name": "Tito Jankowski",
            "team": "TUU48M0T1",
            "name": "tito",
            "is_restricted": false,
            "is_ultra_restricted": false
        },
        "attachments": [
            {
                "service_name": "SHINE",
                "title": "China approves 29-minute testing kit for new coronavirus",
                "title_link": "https:\/\/www.shine.cn\/news\/nation\/2003073683\/",
                "text": "A rapid testing kit for the COVID-19 antibody with results available in 29 minutes was approved by t",
                "fallback": "SHINE: China approves 29-minute testing kit for new coronavirus",
                "image_url": "https:\/\/obj.shine.cn\/files\/2020\/03\/07\/aa1e2cc9-94ca-4ae4-beeb-050c475b4434_0.jpg",
                "image_width": 444,
                "image_height": 250,
                "from_url": "https:\/\/www.shine.cn\/news\/nation\/2003073683\/",
                "image_bytes": 57566,
                "service_icon": "https:\/\/www.shine.cn\/assets\/favicon.ico",
                "id": 1,
                "original_url": "https:\/\/www.shine.cn\/news\/nation\/2003073683\/"
            }
        ],
        "blocks": [
            {
                "type": "rich_text",
                "block_id": "pP43",
                "elements": [
                    {
                        "type": "rich_text_section",
                        "elements": [
                            {
                                "type": "text",
                                "text": "29 minute antibody test, Is that possible? "
                            },
                            {
                                "type": "link",
                                "url": "https:\/\/www.shine.cn\/news\/nation\/2003073683\/",
                                "text": "https:\/\/www.shine.cn\/news\/nation\/2003073683\/"
                            }
                        ]
                    }
                ]
            }
        ],
        "reactions": [
            {
                "name": "neutral_face",
                "users": [
                    "UV2SC7ZE3",
                    "UUPQGNNTV",
                    "UV10KBUQG"
                ],
                "count": 3
            }
        ]
    },
    {
        "client_msg_id": "f599cdd8-68a9-46e4-bf52-82db0afc55e6",
        "type": "message",
        "text": ":wave:\n\nI am an urban planner and graphic designer in Seattle. No background in biology. However, I can help with:\n• Kit graphic design (layout, fonts, colors, copy, etc.)\n• Serving as a stand-in for \"layperson\"\n• Project management",
        "user": "UV48S3N6T",
        "ts": "1583732892.128900",
        "team": "TUU48M0T1",
        "user_team": "TUU48M0T1",
        "source_team": "TUU48M0T1",
        "user_profile": {
            "avatar_hash": "0f7d4e5620ce",
            "image_72": "https:\/\/avatars.slack-edge.com\/2020-03-08\/987981568788_0f7d4e5620ce891da3f4_72.jpg",
            "first_name": "Brendan",
            "real_name": "Brendan Rahman",
            "display_name": "brendan",
            "team": "TUU48M0T1",
            "name": "brendanrahman",
            "is_restricted": false,
            "is_ultra_restricted": false
        },
        "blocks": [
            {
                "type": "rich_text",
                "block_id": "v7GOV",
                "elements": [
                    {
                        "type": "rich_text_section",
                        "elements": [
                            {
                                "type": "emoji",
                                "name": "wave"
                            },
                            {
                                "type": "text",
                                "text": "\n\nI am an urban planner and graphic designer in Seattle. No background in biology. However, I can help with:\n"
                            }
                        ]
                    },
                    {
                        "type": "rich_text_list",
                        "elements": [
                            {
                                "type": "rich_text_section",
                                "elements": [
                                    {
                                        "type": "text",
                                        "text": "Kit graphic design (layout, fonts, colors, copy, etc.)"
                                    }
                                ]
                            },
                            {
                                "type": "rich_text_section",
                                "elements": [
                                    {
                                        "type": "text",
                                        "text": "Serving as a stand-in for \"layperson\""
                                    }
                                ]
                            },
                            {
                                "type": "rich_text_section",
                                "elements": [
                                    {
                                        "type": "text",
                                        "text": "Project management"
                                    }
                                ]
                            }
                        ],
                        "style": "bullet",
                        "indent": 0
                    }
                ]
            }
        ],
        "thread_ts": "1583732892.128900",
        "reply_count": 5,
        "reply_users_count": 5,
        "latest_reply": "1583945079.206900",
        "reply_users": [
            "UUPFF4TC3",
            "UUUEFQW8N",
            "UV02WET96",
            "UV48S3N6T",
            "UV1D9NR1N"
        ],
        "replies": [
            {
                "user": "UUPFF4TC3",
                "ts": "1583732925.129000"
            },
            {
                "user": "UUUEFQW8N",
                "ts": "1583759575.137000"
            },
            {
                "user": "UV02WET96",
                "ts": "1583760698.137900"
            },
            {
                "user": "UV48S3N6T",
                "ts": "1583823638.157900"
            },
            {
                "user": "UV1D9NR1N",
                "ts": "1583945079.206900"
            }
        ],
        "subscribed": true,
        "last_read": "1584024599.000707",
        "reactions": [
            {
                "name": "wave",
                "users": [
                    "UUPFF4TC3",
                    "UV3746ST1",
                    "UUP8XJTH8",
                    "UUUEFQW8N",
                    "UV02WET96",
                    "UV0QTJCMT",
                    "UUS2G6N6M",
                    "UV10KBUQG"
                ],
                "count": 8
            }
        ]
    },
    {
        "client_msg_id": "5059611d-2d58-4e9f-b632-1b5a42d4f802",
        "type": "message",
        "text": "Hi Brendan!",
        "user": "UUPFF4TC3",
        "ts": "1583732925.129000",
        "team": "TUU48M0T1",
        "user_team": "TUU48M0T1",
        "source_team": "TUU48M0T1",
        "user_profile": {
            "avatar_hash": "g563e1ed9e36",
            "image_72": "https:\/\/secure.gravatar.com\/avatar\/563e1ed9e362af0ce5867baad4d7c568.jpg?s=72&d=https%3A%2F%2Fa.slack-edge.com%2Fdf10d%2Fimg%2Favatars%2Fava_0007-72.png",
            "first_name": "Sophie",
            "real_name": "Sophie Liu",
            "display_name": "Sophie Liu",
            "team": "TUU48M0T1",
            "name": "sophie006liu",
            "is_restricted": false,
            "is_ultra_restricted": false
        },
        "blocks": [
            {
                "type": "rich_text",
                "block_id": "HX3",
                "elements": [
                    {
                        "type": "rich_text_section",
                        "elements": [
                            {
                                "type": "text",
                                "text": "Hi Brendan!"
                            }
                        ]
                    }
                ]
            }
        ],
        "thread_ts": "1583732892.128900",
        "parent_user_id": "UV48S3N6T"
    }
]