[
    {
        "type": "message",
        "text": "Re-Posting as a reminder! Good luck Everyone",
        "user": "UV0RRGB6H",
        "ts": "1587128449.244000",
        "team": "TUU48M0T1",
        "user_team": "TUU48M0T1",
        "source_team": "TUU48M0T1",
        "user_profile": {
            "avatar_hash": "48d4ab64c90c",
            "image_72": "https:\/\/avatars.slack-edge.com\/2020-03-26\/1029789176912_48d4ab64c90c03f3af4a_72.jpg",
            "first_name": "",
            "real_name": "Chris LB Graham",
            "display_name": "",
            "team": "TUU48M0T1",
            "name": "chris.graham",
            "is_restricted": false,
            "is_ultra_restricted": false
        },
        "attachments": [
            {
                "fallback": "[April 14th, 2020 9:15 PM] chris.graham: Dear <!everyone>\n\nAs promised, *the second round of applications for mini-grants and review is now OPEN!!!* \n:writing_hand:\n*Here is our Application Process*\n\n1. *Follow this template to create a suitable project within JOGL* <https:\/\/docs.google.com\/document\/d\/1Udagi-PSsiUT4pv1DVnxRbaYyyq754xCAG7IX1ASm5w\/edit#heading=h.pq9yll6p0s1r> \n2. *Please follow this link to submit your project* <https:\/\/forms.gle\/nvZYbNGYhxGTKjZ37>, *for reviewing other projects and to apply with your own.*\n3. *The review process involves reviewing three other projects as part of an open review process, before you can submit your own as part of our community effort!*\n4. Your project will then be reviewed by other applicants and reviewers in the community and the results shared a few days after submissions close!\n*The deadline for this second round is this Sunday 19th April @ 7pm UTC*. But don’t worry if you can’t make it, we will have several rounds!\n\nProjects will have to use their JOGL project page to present their proposal so it will be transparent to everyone in this community :mag: One submission per individual.\n\n*The application process is also open to the world, so don’t hesitate to share to the world around you* :mega:\n\nThe results of our previous review and applicants can be found here. If you have any questions please message <@U0119SR5LMT> or myself!\n\nGood luck!",
                "ts": "1586895357.214900",
                "author_id": "UV0RRGB6H",
                "author_subname": "Chris LB Graham",
                "channel_id": "CUDEHLGHY",
                "channel_name": "announcements",
                "is_msg_unfurl": true,
                "text": "Dear <!everyone>\n\nAs promised, *the second round of applications for mini-grants and review is now OPEN!!!* \n:writing_hand:\n*Here is our Application Process*\n\n1. *Follow this template to create a suitable project within JOGL* <https:\/\/docs.google.com\/document\/d\/1Udagi-PSsiUT4pv1DVnxRbaYyyq754xCAG7IX1ASm5w\/edit#heading=h.pq9yll6p0s1r> \n2. *Please follow this link to submit your project* <https:\/\/forms.gle\/nvZYbNGYhxGTKjZ37>, *for reviewing other projects and to apply with your own.*\n3. *The review process involves reviewing three other projects as part of an open review process, before you can submit your own as part of our community effort!*\n4. Your project will then be reviewed by other applicants and reviewers in the community and the results shared a few days after submissions close!\n*The deadline for this second round is this Sunday 19th April @ 7pm UTC*. But don’t worry if you can’t make it, we will have several rounds!\n\nProjects will have to use their JOGL project page to present their proposal so it will be transparent to everyone in this community :mag: One submission per individual.\n\n*The application process is also open to the world, so don’t hesitate to share to the world around you* :mega:\n\nThe results of our previous review and applicants can be found here. If you have any questions please message <@U0119SR5LMT> or myself!\n\nGood luck!",
                "author_name": "Chris LB Graham",
                "author_link": "https:\/\/open-covid19.slack.com\/team\/UV0RRGB6H",
                "author_icon": "https:\/\/avatars.slack-edge.com\/2020-03-26\/1029789176912_48d4ab64c90c03f3af4a_48.jpg",
                "mrkdwn_in": [
                    "text"
                ],
                "files": [
                    {
                        "id": "F0120HGM8HJ",
                        "created": 1586894915,
                        "timestamp": 1586894915,
                        "name": "Final OpenCOVID19 Wave 1 Results slides.pdf",
                        "title": "Final OpenCOVID19 Wave 1 Results slides.pdf",
                        "mimetype": "application\/pdf",
                        "filetype": "pdf",
                        "pretty_type": "PDF",
                        "user": "UV0RRGB6H",
                        "editable": false,
                        "size": 16333601,
                        "mode": "hosted",
                        "is_external": false,
                        "external_type": "",
                        "is_public": true,
                        "public_url_shared": false,
                        "display_as_bot": false,
                        "username": "",
                        "url_private": "https:\/\/files.slack.com\/files-pri\/TUU48M0T1-F0120HGM8HJ\/final_opencovid19_wave_1_results_slides.pdf",
                        "url_private_download": "https:\/\/files.slack.com\/files-pri\/TUU48M0T1-F0120HGM8HJ\/download\/final_opencovid19_wave_1_results_slides.pdf",
                        "thumb_pdf": "https:\/\/files.slack.com\/files-tmb\/TUU48M0T1-F0120HGM8HJ-6d4309a1cc\/final_opencovid19_wave_1_results_slides_thumb_pdf.png",
                        "thumb_pdf_w": 1467,
                        "thumb_pdf_h": 825,
                        "permalink": "https:\/\/open-covid19.slack.com\/files\/UV0RRGB6H\/F0120HGM8HJ\/final_opencovid19_wave_1_results_slides.pdf",
                        "permalink_public": "https:\/\/slack-files.com\/TUU48M0T1-F0120HGM8HJ-508c40661b",
                        "is_starred": false,
                        "has_rich_preview": false
                    }
                ],
                "color": "D0D0D0",
                "from_url": "https:\/\/open-covid19.slack.com\/archives\/CUDEHLGHY\/p1586895357214900",
                "is_share": true,
                "footer": "Posted in #announcements"
            }
        ],
        "blocks": [
            {
                "type": "rich_text",
                "block_id": "CWE",
                "elements": [
                    {
                        "type": "rich_text_section",
                        "elements": [
                            {
                                "type": "text",
                                "text": "Re-Posting as a reminder! Good luck Everyone"
                            }
                        ]
                    }
                ]
            }
        ],
        "thread_ts": "1587128449.244000",
        "reply_count": 4,
        "reply_users_count": 3,
        "latest_reply": "1587136656.245400",
        "reply_users": [
            "U011G0QGFN3",
            "UV02WET96",
            "UUWPKNE2E"
        ],
        "replies": [
            {
                "user": "U011G0QGFN3",
                "ts": "1587136054.244800"
            },
            {
                "user": "UV02WET96",
                "ts": "1587136239.245000"
            },
            {
                "user": "UUWPKNE2E",
                "ts": "1587136320.245200"
            },
            {
                "user": "U011G0QGFN3",
                "ts": "1587136656.245400"
            }
        ],
        "subscribed": false,
        "reactions": [
            {
                "name": "heart",
                "users": [
                    "U0119SR5LMT",
                    "U011BJWBFDM"
                ],
                "count": 2
            }
        ]
    },
    {
        "client_msg_id": "61f05584-48dc-45f6-aae9-47514dc496f0",
        "type": "message",
        "text": "Thank you! I am having trouble submitting my project. I created it on JOGL, but when I tried to add documents, the project is lost. It shows up in search results but when I click on the link it redirects to the projects page. I can't create a new project either. Not sure if there is a tech support email address but posting here in case anyone can help",
        "user": "U011G0QGFN3",
        "ts": "1587136054.244800",
        "team": "TUU48M0T1",
        "user_team": "TUU48M0T1",
        "source_team": "TUU48M0T1",
        "user_profile": {
            "avatar_hash": "e5bfa29546fa",
            "image_72": "https:\/\/avatars.slack-edge.com\/2020-04-15\/1077438063281_e5bfa29546fa8873e2fc_72.jpg",
            "first_name": "Hunter",
            "real_name": "Hunter Futo",
            "display_name": "Hunter Futo",
            "team": "TUU48M0T1",
            "name": "hunter",
            "is_restricted": false,
            "is_ultra_restricted": false
        },
        "blocks": [
            {
                "type": "rich_text",
                "block_id": "dAVkx",
                "elements": [
                    {
                        "type": "rich_text_section",
                        "elements": [
                            {
                                "type": "text",
                                "text": "Thank you! I am having trouble submitting my project. I created it on JOGL, but when I tried to add documents, the project is lost. It shows up in search results but when I click on the link it redirects to the projects page. I can't create a new project either. Not sure if there is a tech support email address but posting here in case anyone can help"
                            }
                        ]
                    }
                ]
            }
        ],
        "thread_ts": "1587128449.244000",
        "parent_user_id": "UV0RRGB6H"
    },
    {
        "client_msg_id": "8b9bf0e2-7bd2-48f0-89c1-cf63af61da95",
        "type": "message",
        "text": "Sorry for that <@U011G0QGFN3>! <@UUWPKNE2E> can you help?",
        "user": "UV02WET96",
        "ts": "1587136239.245000",
        "team": "TUU48M0T1",
        "user_team": "TUU48M0T1",
        "source_team": "TUU48M0T1",
        "user_profile": {
            "avatar_hash": "a99c74a194f8",
            "image_72": "https:\/\/avatars.slack-edge.com\/2020-03-07\/975708504851_a99c74a194f86715ca7d_72.png",
            "first_name": "Thomas",
            "real_name": "Thomas Landrain",
            "display_name": "Thomas Landrain - JOGL CoFounder \/ CEO",
            "team": "TUU48M0T1",
            "name": "thomas",
            "is_restricted": false,
            "is_ultra_restricted": false
        },
        "blocks": [
            {
                "type": "rich_text",
                "block_id": "bMKt",
                "elements": [
                    {
                        "type": "rich_text_section",
                        "elements": [
                            {
                                "type": "text",
                                "text": "Sorry for that "
                            },
                            {
                                "type": "user",
                                "user_id": "U011G0QGFN3"
                            },
                            {
                                "type": "text",
                                "text": "! "
                            },
                            {
                                "type": "user",
                                "user_id": "UUWPKNE2E"
                            },
                            {
                                "type": "text",
                                "text": " can you help?"
                            }
                        ]
                    }
                ]
            }
        ],
        "thread_ts": "1587128449.244000",
        "parent_user_id": "UV0RRGB6H"
    },
    {
        "client_msg_id": "f1f86956-d55a-4962-a948-4ef217928d45",
        "type": "message",
        "text": "Hi <@U011G0QGFN3>, let's continue in mp?",
        "user": "UUWPKNE2E",
        "ts": "1587136320.245200",
        "team": "TUU48M0T1",
        "user_team": "TUU48M0T1",
        "source_team": "TUU48M0T1",
        "user_profile": {
            "avatar_hash": "f620efd9688e",
            "image_72": "https:\/\/avatars.slack-edge.com\/2020-03-12\/997456647751_f620efd9688ed753ecfc_72.jpg",
            "first_name": "Luca",
            "real_name": "Luca Haenel",
            "display_name": "Luca Haenel - JOGL Developer",
            "team": "TUU48M0T1",
            "name": "luca.haenel",
            "is_restricted": false,
            "is_ultra_restricted": false
        },
        "blocks": [
            {
                "type": "rich_text",
                "block_id": "GZJT",
                "elements": [
                    {
                        "type": "rich_text_section",
                        "elements": [
                            {
                                "type": "text",
                                "text": "Hi "
                            },
                            {
                                "type": "user",
                                "user_id": "U011G0QGFN3"
                            },
                            {
                                "type": "text",
                                "text": ", let's continue in mp?"
                            }
                        ]
                    }
                ]
            }
        ],
        "thread_ts": "1587128449.244000",
        "parent_user_id": "UV0RRGB6H"
    },
    {
        "client_msg_id": "15f4e568-b0a6-435f-ba56-16874a88e7a6",
        "type": "message",
        "text": "no worries and thank you!! <@UV02WET96>",
        "user": "U011G0QGFN3",
        "ts": "1587136656.245400",
        "team": "TUU48M0T1",
        "user_team": "TUU48M0T1",
        "source_team": "TUU48M0T1",
        "user_profile": {
            "avatar_hash": "e5bfa29546fa",
            "image_72": "https:\/\/avatars.slack-edge.com\/2020-04-15\/1077438063281_e5bfa29546fa8873e2fc_72.jpg",
            "first_name": "Hunter",
            "real_name": "Hunter Futo",
            "display_name": "Hunter Futo",
            "team": "TUU48M0T1",
            "name": "hunter",
            "is_restricted": false,
            "is_ultra_restricted": false
        },
        "blocks": [
            {
                "type": "rich_text",
                "block_id": "+YJ",
                "elements": [
                    {
                        "type": "rich_text_section",
                        "elements": [
                            {
                                "type": "text",
                                "text": "no worries and thank you!! "
                            },
                            {
                                "type": "user",
                                "user_id": "UV02WET96"
                            }
                        ]
                    }
                ]
            }
        ],
        "thread_ts": "1587128449.244000",
        "parent_user_id": "UV0RRGB6H"
    }
]