[
    {
        "client_msg_id": "cce1e1e6-e41a-4b0f-a4d7-b483890deed1",
        "type": "message",
        "text": "Great to look back the call if you couldn't attend. I do have one idea for easier access for people who look it back. Some shortcuts in the meeting notes to specific moments in the video. That way you can watch back the parts that are interesting for you.",
        "user": "U01081Y0TBP",
        "ts": "1587051311.239900",
        "team": "TUU48M0T1",
        "user_team": "TUU48M0T1",
        "source_team": "TUU48M0T1",
        "user_profile": {
            "avatar_hash": "60ec5b47107a",
            "image_72": "https:\/\/avatars.slack-edge.com\/2020-03-18\/995274181218_60ec5b47107a3bd2ca7d_72.jpg",
            "first_name": "Peter",
            "real_name": "Peter Kooren",
            "display_name": "Peter Kooren",
            "team": "TUU48M0T1",
            "name": "peterkooren",
            "is_restricted": false,
            "is_ultra_restricted": false
        },
        "blocks": [
            {
                "type": "rich_text",
                "block_id": "L852I",
                "elements": [
                    {
                        "type": "rich_text_section",
                        "elements": [
                            {
                                "type": "text",
                                "text": "Great to look back the call if you couldn't attend. I do have one idea for easier access for people who look it back. Some shortcuts in the meeting notes to specific moments in the video. That way you can watch back the parts that are interesting for you."
                            }
                        ]
                    }
                ]
            }
        ],
        "thread_ts": "1586976652.232300",
        "parent_user_id": "UV02WET96",
        "reactions": [
            {
                "name": "+1",
                "users": [
                    "UV02WET96",
                    "U011D6K9RH6",
                    "UV0QTJCMT"
                ],
                "count": 3
            }
        ]
    },
    {
        "client_msg_id": "1e214b2f-f13a-4e24-bab8-c4ec61e8456b",
        "type": "message",
        "text": "great idea Peter!",
        "user": "UV02WET96",
        "ts": "1587056891.241100",
        "team": "TUU48M0T1",
        "user_team": "TUU48M0T1",
        "source_team": "TUU48M0T1",
        "user_profile": {
            "avatar_hash": "a99c74a194f8",
            "image_72": "https:\/\/avatars.slack-edge.com\/2020-03-07\/975708504851_a99c74a194f86715ca7d_72.png",
            "first_name": "Thomas",
            "real_name": "Thomas Landrain",
            "display_name": "Thomas Landrain - JOGL CoFounder \/ CEO",
            "team": "TUU48M0T1",
            "name": "thomas",
            "is_restricted": false,
            "is_ultra_restricted": false
        },
        "blocks": [
            {
                "type": "rich_text",
                "block_id": "uQSm",
                "elements": [
                    {
                        "type": "rich_text_section",
                        "elements": [
                            {
                                "type": "text",
                                "text": "great idea Peter!"
                            }
                        ]
                    }
                ]
            }
        ],
        "thread_ts": "1586976652.232300",
        "parent_user_id": "UV02WET96"
    }
]