[
    {
        "client_msg_id": "DDF13CBC-06E9-452B-8889-5FC530914480",
        "type": "message",
        "text": "<@U0102NEMRTR> you’re totally welcome to do that, the more the merrier! (we also record all of our calls too in case there’s people who want to listen but can’t make it)",
        "user": "UV0QTJCMT",
        "ts": "1584352680.103900",
        "team": "TUU48M0T1",
        "user_team": "TUU48M0T1",
        "source_team": "TUU48M0T1",
        "user_profile": {
            "avatar_hash": "06a6ae8f69d1",
            "image_72": "https:\/\/avatars.slack-edge.com\/2020-04-13\/1060635499315_06a6ae8f69d18f1ad464_72.png",
            "first_name": "Katherine",
            "real_name": "Katherine Holo",
            "display_name": "Kat Holo - Co-Organizer of OpenCOVID19",
            "team": "TUU48M0T1",
            "name": "katherineh245",
            "is_restricted": false,
            "is_ultra_restricted": false
        },
        "blocks": [
            {
                "type": "rich_text",
                "block_id": "z8xEN",
                "elements": [
                    {
                        "type": "rich_text_section",
                        "elements": [
                            {
                                "type": "user",
                                "user_id": "U0102NEMRTR"
                            },
                            {
                                "type": "text",
                                "text": " you’re totally welcome to do that, the more the merrier! (we also record all of our calls too in case there’s people who want to listen but can’t make it)"
                            }
                        ]
                    }
                ]
            }
        ],
        "thread_ts": "1584302489.085800",
        "parent_user_id": "UV0QTJCMT"
    },
    {
        "client_msg_id": "9a639b01-a406-43a2-afa5-6be9536e75e0",
        "type": "message",
        "text": "If the issue is still pending, here is where to apply for free extra capacity from Slack as a non-profit. Workspace admins only can access the form. And the review process normally takes some time so better do it now :wink:\n<https:\/\/slack.com\/intl\/en-fr\/help\/articles\/204368833-Slack-for-Nonprofits>",
        "user": "UV8519NFK",
        "ts": "1584416712.113800",
        "team": "TUU48M0T1",
        "user_team": "TUU48M0T1",
        "source_team": "TUU48M0T1",
        "user_profile": {
            "avatar_hash": "63f8ab1a9517",
            "image_72": "https:\/\/avatars.slack-edge.com\/2020-03-16\/1006137856183_63f8ab1a95179e961ab1_72.jpg",
            "first_name": "David",
            "real_name": "David Canat",
            "display_name": "David Canat",
            "team": "TUU48M0T1",
            "name": "dcanat",
            "is_restricted": false,
            "is_ultra_restricted": false
        },
        "attachments": [
            {
                "service_name": "Slack Help Center",
                "title": "Slack for Nonprofits",
                "title_link": "https:\/\/slack.com\/intl\/en-fr\/help\/articles\/204368833-Slack-for-Nonprofits",
                "text": "The Slack for Nonprofits program offers free or discounted plan upgrades to eligible organizations. Here are the details: Standard Plan: We offer workspaces with 250 or fewer members a free upgr...",
                "fallback": "Slack Help Center: Slack for Nonprofits",
                "thumb_url": "https:\/\/a.slack-edge.com\/80588\/marketing\/img\/meta\/slack_hash_256.png",
                "from_url": "https:\/\/slack.com\/intl\/en-fr\/help\/articles\/204368833-Slack-for-Nonprofits",
                "thumb_width": 256,
                "thumb_height": 256,
                "service_icon": "https:\/\/a.slack-edge.com\/80588\/marketing\/img\/meta\/favicon-32.png",
                "id": 1,
                "original_url": "https:\/\/slack.com\/intl\/en-fr\/help\/articles\/204368833-Slack-for-Nonprofits"
            }
        ],
        "blocks": [
            {
                "type": "rich_text",
                "block_id": "bTH0",
                "elements": [
                    {
                        "type": "rich_text_section",
                        "elements": [
                            {
                                "type": "text",
                                "text": "If the issue is still pending, here is where to apply for free extra capacity from Slack as a non-profit. Workspace admins only can access the form. And the review process normally takes some time so better do it now "
                            },
                            {
                                "type": "emoji",
                                "name": "wink"
                            },
                            {
                                "type": "text",
                                "text": "\n"
                            },
                            {
                                "type": "link",
                                "url": "https:\/\/slack.com\/intl\/en-fr\/help\/articles\/204368833-Slack-for-Nonprofits"
                            }
                        ]
                    }
                ]
            }
        ],
        "thread_ts": "1584104661.349400",
        "parent_user_id": "UV2CNECM7"
    }
]