[
    {
        "client_msg_id": "0407f499-8374-4b31-87d5-9a8bed23f552",
        "type": "message",
        "text": "oh you meant the global call, sorry I thouhght you meant the one for the project I'm in, never mind then",
        "user": "U01188XCK19",
        "ts": "1586419085.139600",
        "team": "TUU48M0T1",
        "user_team": "TUU48M0T1",
        "source_team": "TUU48M0T1",
        "user_profile": {
            "avatar_hash": "gd85edfb45fa",
            "image_72": "https:\/\/secure.gravatar.com\/avatar\/d85edfb45fa87b47ea33da26228d07dd.jpg?s=72&d=https%3A%2F%2Fa.slack-edge.com%2Fdf10d%2Fimg%2Favatars%2Fava_0011-72.png",
            "first_name": "",
            "real_name": "wolf arthur",
            "display_name": "wolf arthur",
            "team": "TUU48M0T1",
            "name": "wolf.arthur",
            "is_restricted": false,
            "is_ultra_restricted": false
        },
        "blocks": [
            {
                "type": "rich_text",
                "block_id": "=suEs",
                "elements": [
                    {
                        "type": "rich_text_section",
                        "elements": [
                            {
                                "type": "text",
                                "text": "oh you meant the global call, sorry I thouhght you meant the one for the project I'm in, never mind then"
                            }
                        ]
                    }
                ]
            }
        ],
        "thread_ts": "1586369932.135300",
        "parent_user_id": "UV02WET96"
    },
    {
        "client_msg_id": "e4dbdc3a-e427-402a-ad83-4a58f9397734",
        "type": "message",
        "text": "<@UV02WET96> is this something I can share on social? <@UV9V03C8Y> has this discussed to shared on social yet? I don’t want to duplicate efforts if there’s already someone creating a post for it! Thank you both! K",
        "user": "U010Q3372P3",
        "ts": "1586454657.144500",
        "team": "TUU48M0T1",
        "user_team": "TUU48M0T1",
        "source_team": "TUU48M0T1",
        "user_profile": {
            "avatar_hash": "95066184973b",
            "image_72": "https:\/\/avatars.slack-edge.com\/2020-03-30\/1036274198128_95066184973b1de50d1a_72.png",
            "first_name": "Kathryn",
            "real_name": "Kathryn Rowe",
            "display_name": "Kathryn Rowe",
            "team": "TUU48M0T1",
            "name": "kathryn.rowe",
            "is_restricted": false,
            "is_ultra_restricted": false
        },
        "blocks": [
            {
                "type": "rich_text",
                "block_id": "oe\/b",
                "elements": [
                    {
                        "type": "rich_text_section",
                        "elements": [
                            {
                                "type": "user",
                                "user_id": "UV02WET96"
                            },
                            {
                                "type": "text",
                                "text": " is this something I can share on social? "
                            },
                            {
                                "type": "user",
                                "user_id": "UV9V03C8Y"
                            },
                            {
                                "type": "text",
                                "text": " has this discussed to shared on social yet? I don’t want to duplicate efforts if there’s already someone creating a post for it! Thank you both! K"
                            }
                        ]
                    }
                ]
            }
        ],
        "thread_ts": "1586369932.135300",
        "parent_user_id": "UV02WET96",
        "reactions": [
            {
                "name": "+1",
                "users": [
                    "UV02WET96"
                ],
                "count": 1
            }
        ]
    },
    {
        "client_msg_id": "9689e9ba-0872-4cbc-9082-62387a6e9065",
        "type": "message",
        "text": "You can absolutely share it on social medias <@U010Q3372P3> :slightly_smiling_face:",
        "user": "UV02WET96",
        "ts": "1586464718.145100",
        "team": "TUU48M0T1",
        "user_team": "TUU48M0T1",
        "source_team": "TUU48M0T1",
        "user_profile": {
            "avatar_hash": "a99c74a194f8",
            "image_72": "https:\/\/avatars.slack-edge.com\/2020-03-07\/975708504851_a99c74a194f86715ca7d_72.png",
            "first_name": "Thomas",
            "real_name": "Thomas Landrain",
            "display_name": "Thomas Landrain - JOGL CoFounder \/ CEO",
            "team": "TUU48M0T1",
            "name": "thomas",
            "is_restricted": false,
            "is_ultra_restricted": false
        },
        "blocks": [
            {
                "type": "rich_text",
                "block_id": "Jan",
                "elements": [
                    {
                        "type": "rich_text_section",
                        "elements": [
                            {
                                "type": "text",
                                "text": "You can absolutely share it on social medias "
                            },
                            {
                                "type": "user",
                                "user_id": "U010Q3372P3"
                            },
                            {
                                "type": "text",
                                "text": " "
                            },
                            {
                                "type": "emoji",
                                "name": "slightly_smiling_face"
                            }
                        ]
                    }
                ]
            }
        ],
        "thread_ts": "1586369932.135300",
        "parent_user_id": "UV02WET96"
    }
]