[
    {
        "client_msg_id": "2d68bad2-2626-4037-b7cd-967737856fdb",
        "type": "message",
        "text": "We are launching an Open Source Face Mask Challenge! :mask:\n\nThe end goal of this project is to validate all the good designs and send them for mass manufacturing.\n\nFor that we are collecting and evaluating all existing open source face mask designs before submitting them to the competent authorities.\nThe best possible face mask designs [cheap, comfortable and safe] will be approved and mass manufactured. Details on the project are in the “About” section of the JOGL project [<https:\/\/app.jogl.io\/project\/150|link to the JOGL project>].\n\nWe’re having a first community call today at 7 PM (CET) to advance on the project, be sure not to miss it! [<https:\/\/zoom.us\/j\/7804345815|link to the zoom>]",
        "user": "UV02WET96",
        "ts": "1584793360.224000",
        "team": "TUU48M0T1",
        "user_team": "TUU48M0T1",
        "source_team": "TUU48M0T1",
        "user_profile": {
            "avatar_hash": "a99c74a194f8",
            "image_72": "https:\/\/avatars.slack-edge.com\/2020-03-07\/975708504851_a99c74a194f86715ca7d_72.png",
            "first_name": "Thomas",
            "real_name": "Thomas Landrain",
            "display_name": "Thomas Landrain - JOGL CoFounder \/ CEO",
            "team": "TUU48M0T1",
            "name": "thomas",
            "is_restricted": false,
            "is_ultra_restricted": false
        },
        "attachments": [
            {
                "title": "JOGL - Just One Giant Lab",
                "title_link": "https:\/\/app.jogl.io\/project\/150",
                "text": "JOGL helps sync humanity onto solving our most important social &amp; environmental problems using open science, responsible innovation &amp; continuous learning.",
                "fallback": "JOGL - Just One Giant Lab",
                "thumb_url": "https:\/\/app.jogl.io\/planet.jpg",
                "from_url": "https:\/\/app.jogl.io\/project\/150",
                "thumb_width": 2049,
                "thumb_height": 1011,
                "service_icon": "https:\/\/app.jogl.io\/favicon.ico",
                "service_name": "app.jogl.io",
                "id": 1,
                "original_url": "https:\/\/app.jogl.io\/project\/150"
            }
        ],
        "blocks": [
            {
                "type": "rich_text",
                "block_id": "=Kio",
                "elements": [
                    {
                        "type": "rich_text_section",
                        "elements": [
                            {
                                "type": "text",
                                "text": "We are launching an Open Source Face Mask Challenge! "
                            },
                            {
                                "type": "emoji",
                                "name": "mask"
                            },
                            {
                                "type": "text",
                                "text": "\n\nThe end goal of this project is to validate all the good designs and send them for mass manufacturing.\n\nFor that we are collecting and evaluating all existing open source face mask designs before submitting them to the competent authorities.\nThe best possible face mask designs [cheap, comfortable and safe] will be approved and mass manufactured. Details on the project are in the “About” section of the JOGL project ["
                            },
                            {
                                "type": "link",
                                "url": "https:\/\/app.jogl.io\/project\/150",
                                "text": "link to the JOGL project"
                            },
                            {
                                "type": "text",
                                "text": "].\n\nWe’re having a first community call today at 7 PM (CET) to advance on the project, be sure not to miss it! ["
                            },
                            {
                                "type": "link",
                                "url": "https:\/\/zoom.us\/j\/7804345815",
                                "text": "link to the zoom"
                            },
                            {
                                "type": "text",
                                "text": "]"
                            }
                        ]
                    }
                ]
            }
        ],
        "thread_ts": "1584793360.224000",
        "reply_count": 2,
        "reply_users_count": 2,
        "latest_reply": "1584851727.236700",
        "reply_users": [
            "U01082CRYQ4",
            "UV0QTJCMT"
        ],
        "replies": [
            {
                "user": "U01082CRYQ4",
                "ts": "1584825958.232500"
            },
            {
                "user": "UV0QTJCMT",
                "ts": "1584851727.236700"
            }
        ],
        "subscribed": false,
        "reactions": [
            {
                "name": "+1",
                "users": [
                    "UV0QTJCMT",
                    "U010K5PFCG6",
                    "UV76CQTB4",
                    "U01019BQXM3",
                    "U010L4A4N4W",
                    "UV7AZH728",
                    "UUVC28VNW"
                ],
                "count": 7
            }
        ]
    },
    {
        "client_msg_id": "36F29A18-1ADE-4D31-ABB7-D2FC6B65960B",
        "type": "message",
        "text": "sorry i wasn’t able to make the call. what were the takeaways",
        "user": "U01082CRYQ4",
        "ts": "1584825958.232500",
        "team": "TUU48M0T1",
        "user_team": "TUU48M0T1",
        "source_team": "TUU48M0T1",
        "user_profile": {
            "avatar_hash": "dcda74e23185",
            "image_72": "https:\/\/avatars.slack-edge.com\/2020-04-06\/1058920444832_dcda74e231859f1a7b7d_72.png",
            "first_name": "jeff",
            "real_name": "jeff shaw",
            "display_name": "jeff shaw",
            "team": "TUU48M0T1",
            "name": "jxjshaw",
            "is_restricted": false,
            "is_ultra_restricted": false
        },
        "edited": {
            "user": "U01082CRYQ4",
            "ts": "1584825969.000000"
        },
        "blocks": [
            {
                "type": "rich_text",
                "block_id": "Yw+mp",
                "elements": [
                    {
                        "type": "rich_text_section",
                        "elements": [
                            {
                                "type": "text",
                                "text": "sorry i wasn’t able to make the call. what were the takeaways"
                            }
                        ]
                    }
                ]
            }
        ],
        "thread_ts": "1584793360.224000",
        "parent_user_id": "UV02WET96",
        "reactions": [
            {
                "name": "point_up",
                "users": [
                    "U0105KZPEJF"
                ],
                "count": 1
            }
        ]
    },
    {
        "client_msg_id": "9abb4ca4-dbbc-4386-a118-12df0daf9edb",
        "type": "message",
        "text": "<@U01082CRYQ4> <@U0105KZPEJF> so it was a generalized call for hardware, but in regards to the face mask project, we talked a bit about the different needs of normal masks vs shields but essentially we're trying to collect all possible designs by tuesday (see the <#C0104ANKV4L|proj-mask-team> channel for the sheet &amp; deadline) and then we'll also be working on drafting up some of the \"design needs\" for the masks based on what doctors\/surgeons have indicated",
        "user": "UV0QTJCMT",
        "ts": "1584851727.236700",
        "team": "TUU48M0T1",
        "user_team": "TUU48M0T1",
        "source_team": "TUU48M0T1",
        "user_profile": {
            "avatar_hash": "06a6ae8f69d1",
            "image_72": "https:\/\/avatars.slack-edge.com\/2020-04-13\/1060635499315_06a6ae8f69d18f1ad464_72.png",
            "first_name": "Katherine",
            "real_name": "Katherine Holo",
            "display_name": "Kat Holo - Co-Organizer of OpenCOVID19",
            "team": "TUU48M0T1",
            "name": "katherineh245",
            "is_restricted": false,
            "is_ultra_restricted": false
        },
        "blocks": [
            {
                "type": "rich_text",
                "block_id": "c2\/H",
                "elements": [
                    {
                        "type": "rich_text_section",
                        "elements": [
                            {
                                "type": "user",
                                "user_id": "U01082CRYQ4"
                            },
                            {
                                "type": "text",
                                "text": " "
                            },
                            {
                                "type": "user",
                                "user_id": "U0105KZPEJF"
                            },
                            {
                                "type": "text",
                                "text": " so it was a generalized call for hardware, but in regards to the face mask project, we talked a bit about the different needs of normal masks vs shields but essentially we're trying to collect all possible designs by tuesday (see the "
                            },
                            {
                                "type": "channel",
                                "channel_id": "C0104ANKV4L"
                            },
                            {
                                "type": "text",
                                "text": " channel for the sheet & deadline) and then we'll also be working on drafting up some of the \"design needs\" for the masks based on what doctors\/surgeons have indicated"
                            }
                        ]
                    }
                ]
            }
        ],
        "thread_ts": "1584793360.224000",
        "parent_user_id": "UV02WET96"
    }
]