[
    {
        "client_msg_id": "46c72ef6-f060-44e9-9814-2156a3dc3455",
        "type": "message",
        "text": "Hey folks! :wave::mask: <!everyone>\nJoin our next global community call is in 1h (4pm UTC) on <https:\/\/us02web.zoom.us\/j\/7804345815>\n\n<!subteam^S01265GRL15|@project-leads> if you want to share an update with the global community please use the following document:\n:point_right: <https:\/\/docs.google.com\/document\/d\/14wSi_AG7mduWY3IrkUGpUdFJAB-Dnxrh5RmFuxTt2D0>\n\nCan’t wait to see you all during what has become one of the best moments of the week! :heart::fire:",
        "user": "UV02WET96",
        "ts": "1588777795.349300",
        "team": "TUU48M0T1",
        "user_team": "TUU48M0T1",
        "source_team": "TUU48M0T1",
        "user_profile": {
            "avatar_hash": "a99c74a194f8",
            "image_72": "https:\/\/avatars.slack-edge.com\/2020-03-07\/975708504851_a99c74a194f86715ca7d_72.png",
            "first_name": "Thomas",
            "real_name": "Thomas Landrain",
            "display_name": "Thomas Landrain - JOGL CoFounder \/ CEO",
            "team": "TUU48M0T1",
            "name": "thomas",
            "is_restricted": false,
            "is_ultra_restricted": false
        },
        "blocks": [
            {
                "type": "rich_text",
                "block_id": "XIsE6",
                "elements": [
                    {
                        "type": "rich_text_section",
                        "elements": [
                            {
                                "type": "text",
                                "text": "Hey folks! "
                            },
                            {
                                "type": "emoji",
                                "name": "wave"
                            },
                            {
                                "type": "emoji",
                                "name": "mask"
                            },
                            {
                                "type": "text",
                                "text": " "
                            },
                            {
                                "type": "broadcast",
                                "range": "everyone"
                            },
                            {
                                "type": "text",
                                "text": "\nJoin our next global community call is in 1h (4pm UTC) on "
                            },
                            {
                                "type": "link",
                                "url": "https:\/\/us02web.zoom.us\/j\/7804345815"
                            },
                            {
                                "type": "text",
                                "text": "\n\n"
                            },
                            {
                                "type": "usergroup",
                                "usergroup_id": "S01265GRL15"
                            },
                            {
                                "type": "text",
                                "text": " if you want to share an update with the global community please use the following document:\n"
                            },
                            {
                                "type": "emoji",
                                "name": "point_right"
                            },
                            {
                                "type": "text",
                                "text": " "
                            },
                            {
                                "type": "link",
                                "url": "https:\/\/docs.google.com\/document\/d\/14wSi_AG7mduWY3IrkUGpUdFJAB-Dnxrh5RmFuxTt2D0"
                            },
                            {
                                "type": "text",
                                "text": "\n\nCan’t wait to see you all during what has become one of the best moments of the week! "
                            },
                            {
                                "type": "emoji",
                                "name": "heart"
                            },
                            {
                                "type": "emoji",
                                "name": "fire"
                            }
                        ]
                    }
                ]
            }
        ],
        "thread_ts": "1588777795.349300",
        "reply_count": 1,
        "reply_users_count": 1,
        "latest_reply": "1588780848.350000",
        "reply_users": [
            "U012BFUB3CK"
        ],
        "replies": [
            {
                "user": "U012BFUB3CK",
                "ts": "1588780848.350000"
            }
        ],
        "subscribed": false
    },
    {
        "client_msg_id": "6f9b45c6-4d35-4154-a89a-6fe790f689c6",
        "type": "message",
        "text": "Hi <@UV02WET96>, <@U010KT2RR1U> and I will not be available to join the community meeting this week but we are looking forward to the recording and to be more involved in the coming weeks",
        "user": "U012BFUB3CK",
        "ts": "1588780848.350000",
        "team": "TUU48M0T1",
        "user_team": "TUU48M0T1",
        "source_team": "TUU48M0T1",
        "user_profile": {
            "avatar_hash": "g791fc5d9e5d",
            "image_72": "https:\/\/secure.gravatar.com\/avatar\/791fc5d9e5dacd0bbed30512af0ef1a9.jpg?s=72&d=https%3A%2F%2Fa.slack-edge.com%2Fdf10d%2Fimg%2Favatars%2Fava_0021-72.png",
            "first_name": "",
            "real_name": "Loretta TIOIELA",
            "display_name": "Loretta TIOIELA",
            "team": "TUU48M0T1",
            "name": "ltioiela",
            "is_restricted": false,
            "is_ultra_restricted": false
        },
        "blocks": [
            {
                "type": "rich_text",
                "block_id": "B=IYB",
                "elements": [
                    {
                        "type": "rich_text_section",
                        "elements": [
                            {
                                "type": "text",
                                "text": "Hi "
                            },
                            {
                                "type": "user",
                                "user_id": "UV02WET96"
                            },
                            {
                                "type": "text",
                                "text": ", "
                            },
                            {
                                "type": "user",
                                "user_id": "U010KT2RR1U"
                            },
                            {
                                "type": "text",
                                "text": " and I will not be available to join the community meeting this week but we are looking forward to the recording and to be more involved in the coming weeks"
                            }
                        ]
                    }
                ]
            }
        ],
        "thread_ts": "1588777795.349300",
        "parent_user_id": "UV02WET96",
        "reactions": [
            {
                "name": "raised_hands",
                "users": [
                    "UV02WET96"
                ],
                "count": 1
            }
        ]
    },
    {
        "client_msg_id": "550458bb-deea-46c6-a431-58aa796ef9ce",
        "type": "message",
        "text": "Re the CoC, (2) maybe read and review: <https:\/\/openscholarship.co.uk\/renew-your-coc\/>",
        "user": "U0116HWM0UX",
        "ts": "1588783074.350500",
        "team": "TUU48M0T1",
        "user_team": "TUU48M0T1",
        "source_team": "TUU48M0T1",
        "user_profile": {
            "avatar_hash": "0ba6883eb3d3",
            "image_72": "https:\/\/avatars.slack-edge.com\/2020-04-03\/1050250600736_0ba6883eb3d3a9f2b765_72.jpg",
            "first_name": "Jo",
            "real_name": "Jo Havemann",
            "display_name": "Jo Havemann",
            "team": "TUU48M0T1",
            "name": "info112",
            "is_restricted": false,
            "is_ultra_restricted": false
        },
        "blocks": [
            {
                "type": "rich_text",
                "block_id": "boG",
                "elements": [
                    {
                        "type": "rich_text_section",
                        "elements": [
                            {
                                "type": "text",
                                "text": "Re the CoC, (2) maybe read and review: "
                            },
                            {
                                "type": "link",
                                "url": "https:\/\/openscholarship.co.uk\/renew-your-coc\/"
                            }
                        ]
                    }
                ]
            }
        ],
        "thread_ts": "1588709103.342000",
        "parent_user_id": "UV9V03C8Y"
    }
]