[
    {
        "client_msg_id": "a8c98ad4-fda7-43f3-97f5-ff46c767b5bf",
        "type": "message",
        "text": "I'm reluctant to use spreadsheets and docs for everything. We've already seen how the documents can effectively become unusable because of the sheer number of people online at any given time. Should we consider using a Kanban board to track progress of tasks and projects? We could easily create an individual board per project.",
        "user": "UVD8Q035K",
        "ts": "1584262253.068500",
        "team": "TUU48M0T1",
        "user_team": "TUU48M0T1",
        "source_team": "TUU48M0T1",
        "user_profile": {
            "avatar_hash": "8b2d0f7c083b",
            "image_72": "https:\/\/avatars.slack-edge.com\/2020-03-13\/1001496871254_8b2d0f7c083b78fb0457_72.jpg",
            "first_name": "",
            "real_name": "Jonathan W. Vos",
            "display_name": "Jonathan W. Vos",
            "team": "TUU48M0T1",
            "name": "jonathan",
            "is_restricted": false,
            "is_ultra_restricted": false
        },
        "edited": {
            "user": "UVD8Q035K",
            "ts": "1584262262.000000"
        },
        "blocks": [
            {
                "type": "rich_text",
                "block_id": "X+x",
                "elements": [
                    {
                        "type": "rich_text_section",
                        "elements": [
                            {
                                "type": "text",
                                "text": "I'm reluctant to use spreadsheets and docs for everything. We've already seen how the documents can effectively become unusable because of the sheer number of people online at any given time. Should we consider using a Kanban board to track progress of tasks and projects? We could easily create an individual board per project."
                            }
                        ]
                    }
                ]
            }
        ]
    },
    {
        "client_msg_id": "d0d09608-f2d9-4106-90c0-2bd51b9b6fdf",
        "type": "message",
        "text": "It does take a more development approach to project organization but it's easy to use and there are free tools that can facilitate it",
        "user": "UVD8Q035K",
        "ts": "1584262304.069400",
        "team": "TUU48M0T1",
        "user_team": "TUU48M0T1",
        "source_team": "TUU48M0T1",
        "user_profile": {
            "avatar_hash": "8b2d0f7c083b",
            "image_72": "https:\/\/avatars.slack-edge.com\/2020-03-13\/1001496871254_8b2d0f7c083b78fb0457_72.jpg",
            "first_name": "",
            "real_name": "Jonathan W. Vos",
            "display_name": "Jonathan W. Vos",
            "team": "TUU48M0T1",
            "name": "jonathan",
            "is_restricted": false,
            "is_ultra_restricted": false
        },
        "blocks": [
            {
                "type": "rich_text",
                "block_id": "5P9K9",
                "elements": [
                    {
                        "type": "rich_text_section",
                        "elements": [
                            {
                                "type": "text",
                                "text": "It does take a more development approach to project organization but it's easy to use and there are free tools that can facilitate it"
                            }
                        ]
                    }
                ]
            }
        ]
    },
    {
        "client_msg_id": "7DC853F3-38C5-41D9-8DCE-25DCF7FB12F5",
        "type": "message",
        "text": "I’d be down for that, I’m starting to get lost myself. \n<@UVD8Q035K> if you have experience with such a board, could you help us set one up and also provide us with good principles of use? ",
        "user": "UV02WET96",
        "ts": "1584262747.071300",
        "team": "TUU48M0T1",
        "user_team": "TUU48M0T1",
        "source_team": "TUU48M0T1",
        "user_profile": {
            "avatar_hash": "a99c74a194f8",
            "image_72": "https:\/\/avatars.slack-edge.com\/2020-03-07\/975708504851_a99c74a194f86715ca7d_72.png",
            "first_name": "Thomas",
            "real_name": "Thomas Landrain",
            "display_name": "Thomas Landrain - JOGL CoFounder \/ CEO",
            "team": "TUU48M0T1",
            "name": "thomas",
            "is_restricted": false,
            "is_ultra_restricted": false
        },
        "blocks": [
            {
                "type": "rich_text",
                "block_id": "n+Ns",
                "elements": [
                    {
                        "type": "rich_text_section",
                        "elements": [
                            {
                                "type": "text",
                                "text": "I’d be down for that, I’m starting to get lost myself. \n"
                            },
                            {
                                "type": "user",
                                "user_id": "UVD8Q035K"
                            },
                            {
                                "type": "text",
                                "text": " if you have experience with such a board, could you help us set one up and also provide us with good principles of use? "
                            }
                        ]
                    }
                ]
            }
        ]
    },
    {
        "client_msg_id": "76d93558-b531-471d-95a2-c281806f9807",
        "type": "message",
        "text": "<@UV02WET96> I've started setting up a Trello board. Trello is free so there's no additional overhead",
        "user": "UVD8Q035K",
        "ts": "1584262830.072100",
        "team": "TUU48M0T1",
        "user_team": "TUU48M0T1",
        "source_team": "TUU48M0T1",
        "user_profile": {
            "avatar_hash": "8b2d0f7c083b",
            "image_72": "https:\/\/avatars.slack-edge.com\/2020-03-13\/1001496871254_8b2d0f7c083b78fb0457_72.jpg",
            "first_name": "",
            "real_name": "Jonathan W. Vos",
            "display_name": "Jonathan W. Vos",
            "team": "TUU48M0T1",
            "name": "jonathan",
            "is_restricted": false,
            "is_ultra_restricted": false
        },
        "blocks": [
            {
                "type": "rich_text",
                "block_id": "AXC",
                "elements": [
                    {
                        "type": "rich_text_section",
                        "elements": [
                            {
                                "type": "user",
                                "user_id": "UV02WET96"
                            },
                            {
                                "type": "text",
                                "text": " I've started setting up a Trello board. Trello is free so there's no additional overhead"
                            }
                        ]
                    }
                ]
            }
        ],
        "thread_ts": "1584262830.072100",
        "reply_count": 1,
        "reply_users_count": 1,
        "latest_reply": "1584354204.100500",
        "reply_users": [
            "UV9V03C8Y"
        ],
        "replies": [
            {
                "user": "UV9V03C8Y",
                "ts": "1584354204.100500"
            }
        ],
        "subscribed": false,
        "reactions": [
            {
                "name": "+1",
                "users": [
                    "UV9V03C8Y"
                ],
                "count": 1
            }
        ]
    },
    {
        "client_msg_id": "6a2eae0d-71a9-439a-a4c0-3e5a6533a4eb",
        "type": "message",
        "text": "I'll add you to it",
        "user": "UVD8Q035K",
        "ts": "1584262839.072400",
        "team": "TUU48M0T1",
        "user_team": "TUU48M0T1",
        "source_team": "TUU48M0T1",
        "user_profile": {
            "avatar_hash": "8b2d0f7c083b",
            "image_72": "https:\/\/avatars.slack-edge.com\/2020-03-13\/1001496871254_8b2d0f7c083b78fb0457_72.jpg",
            "first_name": "",
            "real_name": "Jonathan W. Vos",
            "display_name": "Jonathan W. Vos",
            "team": "TUU48M0T1",
            "name": "jonathan",
            "is_restricted": false,
            "is_ultra_restricted": false
        },
        "blocks": [
            {
                "type": "rich_text",
                "block_id": "0D3",
                "elements": [
                    {
                        "type": "rich_text_section",
                        "elements": [
                            {
                                "type": "text",
                                "text": "I'll add you to it"
                            }
                        ]
                    }
                ]
            }
        ]
    },
    {
        "client_msg_id": "4a33069a-65b2-49ea-ae5f-e7ac97688c4e",
        "type": "message",
        "text": "The idea would be that we create a 'card' for each individual task. Then that card can contain subtasks, like:\n• Literature Review\n• Viability Assessment\n",
        "user": "UVD8Q035K",
        "ts": "1584263213.075600",
        "team": "TUU48M0T1",
        "user_team": "TUU48M0T1",
        "source_team": "TUU48M0T1",
        "user_profile": {
            "avatar_hash": "8b2d0f7c083b",
            "image_72": "https:\/\/avatars.slack-edge.com\/2020-03-13\/1001496871254_8b2d0f7c083b78fb0457_72.jpg",
            "first_name": "",
            "real_name": "Jonathan W. Vos",
            "display_name": "Jonathan W. Vos",
            "team": "TUU48M0T1",
            "name": "jonathan",
            "is_restricted": false,
            "is_ultra_restricted": false
        },
        "blocks": [
            {
                "type": "rich_text",
                "block_id": "5FCl",
                "elements": [
                    {
                        "type": "rich_text_section",
                        "elements": [
                            {
                                "type": "text",
                                "text": "The idea would be that we create a 'card' for each individual task. Then that card can contain subtasks, like:\n"
                            }
                        ]
                    },
                    {
                        "type": "rich_text_list",
                        "elements": [
                            {
                                "type": "rich_text_section",
                                "elements": [
                                    {
                                        "type": "text",
                                        "text": "Literature Review"
                                    }
                                ]
                            },
                            {
                                "type": "rich_text_section",
                                "elements": [
                                    {
                                        "type": "text",
                                        "text": "Viability Assessment"
                                    }
                                ]
                            }
                        ],
                        "style": "bullet",
                        "indent": 0
                    },
                    {
                        "type": "rich_text_section",
                        "elements": []
                    }
                ]
            }
        ]
    },
    {
        "client_msg_id": "4c626751-f1cd-4d23-a740-91470c281d07",
        "type": "message",
        "text": "Then, depending on how useful it was, the card can be placed into a 'failure' column or a 'success' column, in which case the relevant resources would be placed into the relevant google drive\/doc\/sheet",
        "user": "UVD8Q035K",
        "ts": "1584263284.077900",
        "team": "TUU48M0T1",
        "user_team": "TUU48M0T1",
        "source_team": "TUU48M0T1",
        "user_profile": {
            "avatar_hash": "8b2d0f7c083b",
            "image_72": "https:\/\/avatars.slack-edge.com\/2020-03-13\/1001496871254_8b2d0f7c083b78fb0457_72.jpg",
            "first_name": "",
            "real_name": "Jonathan W. Vos",
            "display_name": "Jonathan W. Vos",
            "team": "TUU48M0T1",
            "name": "jonathan",
            "is_restricted": false,
            "is_ultra_restricted": false
        },
        "edited": {
            "user": "UVD8Q035K",
            "ts": "1584263302.000000"
        },
        "blocks": [
            {
                "type": "rich_text",
                "block_id": "cVt",
                "elements": [
                    {
                        "type": "rich_text_section",
                        "elements": [
                            {
                                "type": "text",
                                "text": "Then, depending on how useful it was, the card can be placed into a 'failure' column or a 'success' column, in which case the relevant resources would be placed into the relevant google drive\/doc\/sheet"
                            }
                        ]
                    }
                ]
            }
        ]
    },
    {
        "client_msg_id": "12eb8ed2-12ee-490a-a12e-7ada0a13a223",
        "type": "message",
        "text": "i hear you on that point, however i think that when we start spreading across many different platforms and apps\/programs it will get even more confusing as to where to get information from. when it comes to onboarding docs and the master task spreadsheet, the idea would be to keep that to a limited number of editors, but have them viewable by everyone and keeping those docs and lists of tasks in the same-ish area where they'll find where all their notes\/research is happening is definitely a plus. there's a bigger problem if our entire drive becomes unusable then that's not a question of how we organize tasks but if google drive is a suitable place to store that much content and have that many people editing it.\n\nunfortunately i've been incredibly busy these past few days so i haven't been able to get the chance to just quickly make a bunch of docs and folders, but i'm really hesitant to start moving to new systems especially since we've already put in effort to make them for now in google drive\/docs.",
        "user": "UV0QTJCMT",
        "ts": "1584263340.078900",
        "team": "TUU48M0T1",
        "user_team": "TUU48M0T1",
        "source_team": "TUU48M0T1",
        "user_profile": {
            "avatar_hash": "06a6ae8f69d1",
            "image_72": "https:\/\/avatars.slack-edge.com\/2020-04-13\/1060635499315_06a6ae8f69d18f1ad464_72.png",
            "first_name": "Katherine",
            "real_name": "Katherine Holo",
            "display_name": "Kat Holo - Co-Organizer of OpenCOVID19",
            "team": "TUU48M0T1",
            "name": "katherineh245",
            "is_restricted": false,
            "is_ultra_restricted": false
        },
        "blocks": [
            {
                "type": "rich_text",
                "block_id": "rsB",
                "elements": [
                    {
                        "type": "rich_text_section",
                        "elements": [
                            {
                                "type": "text",
                                "text": "i hear you on that point, however i think that when we start spreading across many different platforms and apps\/programs it will get even more confusing as to where to get information from. when it comes to onboarding docs and the master task spreadsheet, the idea would be to keep that to a limited number of editors, but have them viewable by everyone and keeping those docs and lists of tasks in the same-ish area where they'll find where all their notes\/research is happening is definitely a plus. there's a bigger problem if our entire drive becomes unusable then that's not a question of how we organize tasks but if google drive is a suitable place to store that much content and have that many people editing it.\n\nunfortunately i've been incredibly busy these past few days so i haven't been able to get the chance to just quickly make a bunch of docs and folders, but i'm really hesitant to start moving to new systems especially since we've already put in effort to make them for now in google drive\/docs."
                            }
                        ]
                    }
                ]
            }
        ],
        "thread_ts": "1584263340.078900",
        "reply_count": 2,
        "reply_users_count": 1,
        "latest_reply": "1584282481.082500",
        "reply_users": [
            "UV87UQ37A"
        ],
        "replies": [
            {
                "user": "UV87UQ37A",
                "ts": "1584282459.082000"
            },
            {
                "user": "UV87UQ37A",
                "ts": "1584282481.082500"
            }
        ],
        "subscribed": false,
        "reactions": [
            {
                "name": "+1",
                "users": [
                    "UUS2G6N6M"
                ],
                "count": 1
            }
        ]
    },
    {
        "client_msg_id": "7c732ba8-ae4b-41a3-8ecd-a625ed3964eb",
        "type": "message",
        "text": "Hi everyone, I’ve set up the Greetbot!",
        "user": "UV02WET96",
        "ts": "1584280114.079500",
        "team": "TUU48M0T1",
        "user_team": "TUU48M0T1",
        "source_team": "TUU48M0T1",
        "user_profile": {
            "avatar_hash": "a99c74a194f8",
            "image_72": "https:\/\/avatars.slack-edge.com\/2020-03-07\/975708504851_a99c74a194f86715ca7d_72.png",
            "first_name": "Thomas",
            "real_name": "Thomas Landrain",
            "display_name": "Thomas Landrain - JOGL CoFounder \/ CEO",
            "team": "TUU48M0T1",
            "name": "thomas",
            "is_restricted": false,
            "is_ultra_restricted": false
        },
        "blocks": [
            {
                "type": "rich_text",
                "block_id": "BTZc",
                "elements": [
                    {
                        "type": "rich_text_section",
                        "elements": [
                            {
                                "type": "text",
                                "text": "Hi everyone, I’ve set up the Greetbot!"
                            }
                        ]
                    }
                ]
            }
        ],
        "reactions": [
            {
                "name": "+1",
                "users": [
                    "UV2SC7ZE3"
                ],
                "count": 1
            }
        ]
    },
    {
        "client_msg_id": "B1A95BF9-35D9-426E-B60D-953301C7AF43",
        "type": "message",
        "text": "Can you pin the notes of meetings to this channel? People should read meeting notes before making suggestions so they can respond to cross talk we’ve already had?",
        "user": "UV87UQ37A",
        "ts": "1584282459.082000",
        "team": "TUU48M0T1",
        "user_team": "TUU48M0T1",
        "source_team": "TUU48M0T1",
        "user_profile": {
            "avatar_hash": "g7c78d2f0258",
            "image_72": "https:\/\/secure.gravatar.com\/avatar\/7c78d2f0258f7bdf78a86301cfd6b712.jpg?s=72&d=https%3A%2F%2Fa.slack-edge.com%2Fdf10d%2Fimg%2Favatars%2Fava_0014-72.png",
            "first_name": "Victoria",
            "real_name": "Victoria Costa",
            "display_name": "Victoria Costa",
            "team": "TUU48M0T1",
            "name": "victorycoast",
            "is_restricted": false,
            "is_ultra_restricted": false
        },
        "blocks": [
            {
                "type": "rich_text",
                "block_id": "wfXU",
                "elements": [
                    {
                        "type": "rich_text_section",
                        "elements": [
                            {
                                "type": "text",
                                "text": "Can you pin the notes of meetings to this channel? People should read meeting notes before making suggestions so they can respond to cross talk we’ve already had?"
                            }
                        ]
                    }
                ]
            }
        ],
        "thread_ts": "1584263340.078900",
        "parent_user_id": "UV0QTJCMT"
    },
    {
        "client_msg_id": "8B730B34-AECA-4BF7-87AC-51FE38356CFC",
        "type": "message",
        "text": "Rather than it be a free for all of suggestions to wade through",
        "user": "UV87UQ37A",
        "ts": "1584282481.082500",
        "team": "TUU48M0T1",
        "user_team": "TUU48M0T1",
        "source_team": "TUU48M0T1",
        "user_profile": {
            "avatar_hash": "g7c78d2f0258",
            "image_72": "https:\/\/secure.gravatar.com\/avatar\/7c78d2f0258f7bdf78a86301cfd6b712.jpg?s=72&d=https%3A%2F%2Fa.slack-edge.com%2Fdf10d%2Fimg%2Favatars%2Fava_0014-72.png",
            "first_name": "Victoria",
            "real_name": "Victoria Costa",
            "display_name": "Victoria Costa",
            "team": "TUU48M0T1",
            "name": "victorycoast",
            "is_restricted": false,
            "is_ultra_restricted": false
        },
        "blocks": [
            {
                "type": "rich_text",
                "block_id": "rW97L",
                "elements": [
                    {
                        "type": "rich_text_section",
                        "elements": [
                            {
                                "type": "text",
                                "text": "Rather than it be a free for all of suggestions to wade through"
                            }
                        ]
                    }
                ]
            }
        ],
        "thread_ts": "1584263340.078900",
        "parent_user_id": "UV0QTJCMT",
        "reactions": [
            {
                "name": "+1",
                "users": [
                    "UV2SC7ZE3",
                    "UV0QTJCMT"
                ],
                "count": 2
            }
        ]
    },
    {
        "client_msg_id": "3aa42e4e-198c-4d9c-a28f-e0c8b67de94c",
        "type": "message",
        "text": "Dear all <!channel>, The program structure is finally ready to go live! We just need to write the contents \/FAQ of it!\nYou will find the different google doc for that here: <https:\/\/drive.google.com\/open?id=197gE8eZjs8HxnewBNzGkQaZeMFI0dRE_>\n\nThere are 4 challenges:\n• Prevention\n• Diagnostic and Detection\n• Treatment\n• Local Care Centers\nWe need members who can help with the writing :raised_hands:\nIf you can’t access the doc in edit mode, let me know!",
        "user": "UV02WET96",
        "ts": "1584286259.087000",
        "team": "TUU48M0T1",
        "user_team": "TUU48M0T1",
        "source_team": "TUU48M0T1",
        "user_profile": {
            "avatar_hash": "a99c74a194f8",
            "image_72": "https:\/\/avatars.slack-edge.com\/2020-03-07\/975708504851_a99c74a194f86715ca7d_72.png",
            "first_name": "Thomas",
            "real_name": "Thomas Landrain",
            "display_name": "Thomas Landrain - JOGL CoFounder \/ CEO",
            "team": "TUU48M0T1",
            "name": "thomas",
            "is_restricted": false,
            "is_ultra_restricted": false
        },
        "blocks": [
            {
                "type": "rich_text",
                "block_id": "uZLA",
                "elements": [
                    {
                        "type": "rich_text_section",
                        "elements": [
                            {
                                "type": "text",
                                "text": "Dear all "
                            },
                            {
                                "type": "broadcast",
                                "range": "channel"
                            },
                            {
                                "type": "text",
                                "text": ", The program structure is finally ready to go live! We just need to write the contents \/FAQ of it!\nYou will find the different google doc for that here: "
                            },
                            {
                                "type": "link",
                                "url": "https:\/\/drive.google.com\/open?id=197gE8eZjs8HxnewBNzGkQaZeMFI0dRE_"
                            },
                            {
                                "type": "text",
                                "text": "\n\nThere are 4 challenges:\n"
                            }
                        ]
                    },
                    {
                        "type": "rich_text_list",
                        "elements": [
                            {
                                "type": "rich_text_section",
                                "elements": [
                                    {
                                        "type": "text",
                                        "text": "Prevention"
                                    }
                                ]
                            },
                            {
                                "type": "rich_text_section",
                                "elements": [
                                    {
                                        "type": "text",
                                        "text": "Diagnostic and Detection"
                                    }
                                ]
                            },
                            {
                                "type": "rich_text_section",
                                "elements": [
                                    {
                                        "type": "text",
                                        "text": "Treatment"
                                    }
                                ]
                            },
                            {
                                "type": "rich_text_section",
                                "elements": [
                                    {
                                        "type": "text",
                                        "text": "Local Care Centers"
                                    }
                                ]
                            }
                        ],
                        "style": "bullet",
                        "indent": 0
                    },
                    {
                        "type": "rich_text_section",
                        "elements": [
                            {
                                "type": "text",
                                "text": "\nWe need members who can help with the writing "
                            },
                            {
                                "type": "emoji",
                                "name": "raised_hands"
                            },
                            {
                                "type": "text",
                                "text": "\nIf you can’t access the doc in edit mode, let me know!"
                            }
                        ]
                    }
                ]
            }
        ],
        "thread_ts": "1584286259.087000",
        "reply_count": 2,
        "reply_users_count": 1,
        "latest_reply": "1584340775.100100",
        "reply_users": [
            "UVD8Q035K"
        ],
        "replies": [
            {
                "user": "UVD8Q035K",
                "ts": "1584340703.099900"
            },
            {
                "user": "UVD8Q035K",
                "ts": "1584340775.100100"
            }
        ],
        "subscribed": false,
        "reactions": [
            {
                "name": "+1",
                "users": [
                    "UV2SC7ZE3",
                    "UV87UQ37A",
                    "UV0QTJCMT",
                    "U01019BQXM3",
                    "UUWR0FJ7M",
                    "UV9V03C8Y"
                ],
                "count": 6
            },
            {
                "name": "boom",
                "users": [
                    "UV87UQ37A"
                ],
                "count": 1
            },
            {
                "name": "eyes",
                "users": [
                    "UV87UQ37A"
                ],
                "count": 1
            }
        ]
    },
    {
        "client_msg_id": "ff68e20b-4178-44ed-afbf-b4a3d6dbe9fa",
        "type": "message",
        "text": "awesome! y'all are nonstop, thank you so much for your dedication! I think there are a couple immediate needs -- the hierarchy\/\/workflow people can immediately recognize and make their way to the appropriate channel and gatekeeper, and we need a volunteer captain with a team of moderators\/ushers that document newcomers and get them in the appropriate channels. it's moving so fast, I am excited to see it come together!",
        "user": "UV87UQ37A",
        "ts": "1584288430.090200",
        "team": "TUU48M0T1",
        "user_team": "TUU48M0T1",
        "source_team": "TUU48M0T1",
        "user_profile": {
            "avatar_hash": "g7c78d2f0258",
            "image_72": "https:\/\/secure.gravatar.com\/avatar\/7c78d2f0258f7bdf78a86301cfd6b712.jpg?s=72&d=https%3A%2F%2Fa.slack-edge.com%2Fdf10d%2Fimg%2Favatars%2Fava_0014-72.png",
            "first_name": "Victoria",
            "real_name": "Victoria Costa",
            "display_name": "Victoria Costa",
            "team": "TUU48M0T1",
            "name": "victorycoast",
            "is_restricted": false,
            "is_ultra_restricted": false
        },
        "blocks": [
            {
                "type": "rich_text",
                "block_id": "nut",
                "elements": [
                    {
                        "type": "rich_text_section",
                        "elements": [
                            {
                                "type": "text",
                                "text": "awesome! y'all are nonstop, thank you so much for your dedication! I think there are a couple immediate needs -- the hierarchy\/\/workflow people can immediately recognize and make their way to the appropriate channel and gatekeeper, and we need a volunteer captain with a team of moderators\/ushers that document newcomers and get them in the appropriate channels. it's moving so fast, I am excited to see it come together!"
                            }
                        ]
                    }
                ]
            }
        ],
        "thread_ts": "1584288430.090200",
        "reply_count": 2,
        "reply_users_count": 2,
        "latest_reply": "1584324331.099000",
        "reply_users": [
            "UV0QTJCMT",
            "UV87UQ37A"
        ],
        "replies": [
            {
                "user": "UV0QTJCMT",
                "ts": "1584298290.095600"
            },
            {
                "user": "UV87UQ37A",
                "ts": "1584324331.099000"
            }
        ],
        "subscribed": false,
        "reactions": [
            {
                "name": "100",
                "users": [
                    "UV02WET96",
                    "UV2SC7ZE3",
                    "UV0QTJCMT"
                ],
                "count": 3
            }
        ]
    },
    {
        "client_msg_id": "d043ff51-f0fa-46de-94b2-8430a1f98a72",
        "type": "message",
        "text": "ahh, I edited instead of replied. I made a more specific comment about the urgent need for a responsive in nature ethical review group. I don't think we need to check credentials for most projects, although some teams might consider that and we might want to consider how to setup apprenticeships. who was the person from the CDC who was interested in ethics from Friday's call? I nominate him to lead.",
        "user": "UV87UQ37A",
        "ts": "1584288780.094000",
        "team": "TUU48M0T1",
        "user_team": "TUU48M0T1",
        "source_team": "TUU48M0T1",
        "user_profile": {
            "avatar_hash": "g7c78d2f0258",
            "image_72": "https:\/\/secure.gravatar.com\/avatar\/7c78d2f0258f7bdf78a86301cfd6b712.jpg?s=72&d=https%3A%2F%2Fa.slack-edge.com%2Fdf10d%2Fimg%2Favatars%2Fava_0014-72.png",
            "first_name": "Victoria",
            "real_name": "Victoria Costa",
            "display_name": "Victoria Costa",
            "team": "TUU48M0T1",
            "name": "victorycoast",
            "is_restricted": false,
            "is_ultra_restricted": false
        },
        "edited": {
            "user": "UV87UQ37A",
            "ts": "1584289591.000000"
        },
        "blocks": [
            {
                "type": "rich_text",
                "block_id": "4GR+u",
                "elements": [
                    {
                        "type": "rich_text_section",
                        "elements": [
                            {
                                "type": "text",
                                "text": "ahh, I edited instead of replied. I made a more specific comment about the urgent need for a responsive in nature ethical review group. I don't think we need to check credentials for most projects, although some teams might consider that and we might want to consider how to setup apprenticeships. who was the person from the CDC who was interested in ethics from Friday's call? I nominate him to lead."
                            }
                        ]
                    }
                ]
            }
        ],
        "reactions": [
            {
                "name": "+1",
                "users": [
                    "UV2SC7ZE3",
                    "UV02WET96",
                    "UVAP0J75L",
                    "UUS2G6N6M",
                    "UV0QTJCMT"
                ],
                "count": 5
            }
        ]
    },
    {
        "client_msg_id": "1efcc8a3-2cc6-44b1-bee9-a173a66a93aa",
        "type": "message",
        "text": "this is great! i think as of right now, maybe let's have the governance group act as those ushers for the time being?",
        "user": "UV0QTJCMT",
        "ts": "1584298290.095600",
        "team": "TUU48M0T1",
        "user_team": "TUU48M0T1",
        "source_team": "TUU48M0T1",
        "user_profile": {
            "avatar_hash": "06a6ae8f69d1",
            "image_72": "https:\/\/avatars.slack-edge.com\/2020-04-13\/1060635499315_06a6ae8f69d18f1ad464_72.png",
            "first_name": "Katherine",
            "real_name": "Katherine Holo",
            "display_name": "Kat Holo - Co-Organizer of OpenCOVID19",
            "team": "TUU48M0T1",
            "name": "katherineh245",
            "is_restricted": false,
            "is_ultra_restricted": false
        },
        "blocks": [
            {
                "type": "rich_text",
                "block_id": "gHHPZ",
                "elements": [
                    {
                        "type": "rich_text_section",
                        "elements": [
                            {
                                "type": "text",
                                "text": "this is great! i think as of right now, maybe let's have the governance group act as those ushers for the time being?"
                            }
                        ]
                    }
                ]
            }
        ],
        "thread_ts": "1584288430.090200",
        "parent_user_id": "UV87UQ37A"
    },
    {
        "type": "message",
        "text": "notes to reference from our meeting last week: <https:\/\/docs.google.com\/document\/d\/1DbHts4dCmnIE78r65FBGZAPufjWnr4r_ea33UCeeZ4w\/edit#>",
        "upload": false,
        "blocks": [
            {
                "type": "rich_text",
                "block_id": "tedgA",
                "elements": [
                    {
                        "type": "rich_text_section",
                        "elements": [
                            {
                                "type": "text",
                                "text": "notes to reference from our meeting last week: "
                            },
                            {
                                "type": "link",
                                "url": "https:\/\/docs.google.com\/document\/d\/1DbHts4dCmnIE78r65FBGZAPufjWnr4r_ea33UCeeZ4w\/edit#"
                            }
                        ]
                    }
                ]
            }
        ],
        "user": "UV0QTJCMT",
        "ts": "1584298331.096000",
        "edited": {
            "user": "UV0QTJCMT",
            "ts": "1584298337.000000"
        },
        "client_msg_id": "0f63f5f0-79f0-43a4-8297-ee7baa1d5c91"
    },
    {
        "type": "message",
        "subtype": "channel_name",
        "ts": "1584300600.098000",
        "user": "UV0QTJCMT",
        "text": "<@UV0QTJCMT> has renamed the channel from \"prgm-governance\" to \"prgm-governance-team\"",
        "old_name": "prgm-governance",
        "name": "prgm-governance-team"
    },
    {
        "client_msg_id": "8c44407e-9b59-46a9-8ed2-0396f98b707f",
        "type": "message",
        "text": "if we can identify someone with organizing experience who has the bandwidth through an announcement, I think it would be helpful. it's also a good thing for folks who don't know what to do or how to contribute but are enthusiastic and have time so the governance group can get all the processes and documentation up over the next few days. it seems like we are getting a lot of new folks on Slack everyday -- the greetbot has been keeping me updated haha but if we have team members reaching out and messaging newcomers and at the very least urging them in real accountable time to fill out the survey and and following up if they do or don't. in fact, in order to get on the Slack, we might want to make filling out the survey as a prerequisite. in political organizing these days for phone banking and text banking, you usually take a quick survey before getting app access. the process stays automated, but it keeps traffic relevant to those who really will be more involved rather than just curious people. I am thinking through my fingers, sorry for the rambling message!",
        "user": "UV87UQ37A",
        "ts": "1584324331.099000",
        "team": "TUU48M0T1",
        "user_team": "TUU48M0T1",
        "source_team": "TUU48M0T1",
        "user_profile": {
            "avatar_hash": "g7c78d2f0258",
            "image_72": "https:\/\/secure.gravatar.com\/avatar\/7c78d2f0258f7bdf78a86301cfd6b712.jpg?s=72&d=https%3A%2F%2Fa.slack-edge.com%2Fdf10d%2Fimg%2Favatars%2Fava_0014-72.png",
            "first_name": "Victoria",
            "real_name": "Victoria Costa",
            "display_name": "Victoria Costa",
            "team": "TUU48M0T1",
            "name": "victorycoast",
            "is_restricted": false,
            "is_ultra_restricted": false
        },
        "blocks": [
            {
                "type": "rich_text",
                "block_id": "kk+",
                "elements": [
                    {
                        "type": "rich_text_section",
                        "elements": [
                            {
                                "type": "text",
                                "text": "if we can identify someone with organizing experience who has the bandwidth through an announcement, I think it would be helpful. it's also a good thing for folks who don't know what to do or how to contribute but are enthusiastic and have time so the governance group can get all the processes and documentation up over the next few days. it seems like we are getting a lot of new folks on Slack everyday -- the greetbot has been keeping me updated haha but if we have team members reaching out and messaging newcomers and at the very least urging them in real accountable time to fill out the survey and and following up if they do or don't. in fact, in order to get on the Slack, we might want to make filling out the survey as a prerequisite. in political organizing these days for phone banking and text banking, you usually take a quick survey before getting app access. the process stays automated, but it keeps traffic relevant to those who really will be more involved rather than just curious people. I am thinking through my fingers, sorry for the rambling message!"
                            }
                        ]
                    }
                ]
            }
        ],
        "thread_ts": "1584288430.090200",
        "parent_user_id": "UV87UQ37A"
    },
    {
        "type": "message",
        "subtype": "channel_topic",
        "ts": "1584329689.099400",
        "user": "UV87UQ37A",
        "text": "<@UV87UQ37A> set the channel topic: please read through meeting notes pinned and search discussion so as to add to topics already discussed and identify where the gaps are",
        "topic": "please read through meeting notes pinned and search discussion so as to add to topics already discussed and identify where the gaps are"
    },
    {
        "client_msg_id": "d421bc54-1b91-4586-9424-6920a4f73a48",
        "type": "message",
        "text": "<@UV02WET96> In terms of the local care centers. Do you think it would be worth it to develop a model for care centers? In the sense that, we can represent the number of care givers (nurses, doctors, paramedics, etc...)  and how many people they can serve at a given time,  how far apart each bed, diagnostic station, quarantine station, etc should be to minimize transmission? And then try and optimize for cost?",
        "user": "UVD8Q035K",
        "ts": "1584340703.099900",
        "team": "TUU48M0T1",
        "user_team": "TUU48M0T1",
        "source_team": "TUU48M0T1",
        "user_profile": {
            "avatar_hash": "8b2d0f7c083b",
            "image_72": "https:\/\/avatars.slack-edge.com\/2020-03-13\/1001496871254_8b2d0f7c083b78fb0457_72.jpg",
            "first_name": "",
            "real_name": "Jonathan W. Vos",
            "display_name": "Jonathan W. Vos",
            "team": "TUU48M0T1",
            "name": "jonathan",
            "is_restricted": false,
            "is_ultra_restricted": false
        },
        "blocks": [
            {
                "type": "rich_text",
                "block_id": "aJ\/4",
                "elements": [
                    {
                        "type": "rich_text_section",
                        "elements": [
                            {
                                "type": "user",
                                "user_id": "UV02WET96"
                            },
                            {
                                "type": "text",
                                "text": " In terms of the local care centers. Do you think it would be worth it to develop a model for care centers? In the sense that, we can represent the number of care givers (nurses, doctors, paramedics, etc...)  and how many people they can serve at a given time,  how far apart each bed, diagnostic station, quarantine station, etc should be to minimize transmission? And then try and optimize for cost?"
                            }
                        ]
                    }
                ]
            }
        ],
        "thread_ts": "1584286259.087000",
        "parent_user_id": "UV02WET96"
    },
    {
        "client_msg_id": "5b4531ad-fbd6-4ed2-a6b1-20bd8cb10095",
        "type": "message",
        "text": "My goal here is that, if anyone wants to establish a care center we can provide them with a blueprint of what to setup, how many they can reasonably serve, approximated costs, risks and so on",
        "user": "UVD8Q035K",
        "ts": "1584340775.100100",
        "team": "TUU48M0T1",
        "user_team": "TUU48M0T1",
        "source_team": "TUU48M0T1",
        "user_profile": {
            "avatar_hash": "8b2d0f7c083b",
            "image_72": "https:\/\/avatars.slack-edge.com\/2020-03-13\/1001496871254_8b2d0f7c083b78fb0457_72.jpg",
            "first_name": "",
            "real_name": "Jonathan W. Vos",
            "display_name": "Jonathan W. Vos",
            "team": "TUU48M0T1",
            "name": "jonathan",
            "is_restricted": false,
            "is_ultra_restricted": false
        },
        "blocks": [
            {
                "type": "rich_text",
                "block_id": "msXxk",
                "elements": [
                    {
                        "type": "rich_text_section",
                        "elements": [
                            {
                                "type": "text",
                                "text": "My goal here is that, if anyone wants to establish a care center we can provide them with a blueprint of what to setup, how many they can reasonably serve, approximated costs, risks and so on"
                            }
                        ]
                    }
                ]
            }
        ],
        "thread_ts": "1584286259.087000",
        "parent_user_id": "UV02WET96"
    }
]