[
    {
        "client_msg_id": "137a38a5-6fff-4a6e-8672-c147d7d9a127",
        "type": "message",
        "text": "<@UUPFF4TC3> ping :slightly_smiling_face:",
        "user": "UV3HA9MM4",
        "ts": "1586800278.003100",
        "team": "TUU48M0T1",
        "user_team": "TUU48M0T1",
        "source_team": "TUU48M0T1",
        "user_profile": {
            "avatar_hash": "b2f89757c831",
            "image_72": "https:\/\/avatars.slack-edge.com\/2020-03-07\/987455908032_b2f89757c8312ec04011_72.jpg",
            "first_name": "AJP",
            "real_name": "AJP",
            "display_name": "AJP",
            "team": "TUU48M0T1",
            "name": "bioajp",
            "is_restricted": false,
            "is_ultra_restricted": false
        },
        "blocks": [
            {
                "type": "rich_text",
                "block_id": "goLvx",
                "elements": [
                    {
                        "type": "rich_text_section",
                        "elements": [
                            {
                                "type": "user",
                                "user_id": "UUPFF4TC3"
                            },
                            {
                                "type": "text",
                                "text": " ping "
                            },
                            {
                                "type": "emoji",
                                "name": "slightly_smiling_face"
                            }
                        ]
                    }
                ]
            }
        ],
        "thread_ts": "1585453251.006500",
        "parent_user_id": "UUPFF4TC3"
    }
]