[
    {
        "type": "message",
        "subtype": "channel_join",
        "ts": "1588152232.000200",
        "user": "U011B6VLM2A",
        "text": "<@U011B6VLM2A> has joined the channel"
    },
    {
        "client_msg_id": "42b47120-dfaf-4dbf-8449-23dc55e61801",
        "type": "message",
        "text": "*Hello @ channel*!\nI’m working on the coordination team and implementing a new Slack tool: User Groups. We’re looking to identify the main Project Lead(s) for each project, and add them to the Project Leads user group so that they can be easily contacted.\n*Who should I add from this project? <@U011G0QGFN3>?* \nThanks!!",
        "user": "U011B6VLM2A",
        "ts": "1588152318.000600",
        "team": "TUU48M0T1",
        "user_team": "TUU48M0T1",
        "source_team": "TUU48M0T1",
        "user_profile": {
            "avatar_hash": "4231dc598cfc",
            "image_72": "https:\/\/avatars.slack-edge.com\/2020-04-02\/1044784558839_4231dc598cfc2e59c4c4_72.jpg",
            "first_name": "Alix",
            "real_name": "Alix Mains",
            "display_name": "Alix Mains - JOGL Coordinator",
            "team": "TUU48M0T1",
            "name": "alixhmains",
            "is_restricted": false,
            "is_ultra_restricted": false
        },
        "blocks": [
            {
                "type": "rich_text",
                "block_id": "p4Yj",
                "elements": [
                    {
                        "type": "rich_text_section",
                        "elements": [
                            {
                                "type": "text",
                                "text": "Hello @ channel",
                                "style": {
                                    "bold": true
                                }
                            },
                            {
                                "type": "text",
                                "text": "!\nI’m working on the coordination team and implementing a new Slack tool: User Groups. We’re looking to identify the main Project Lead(s) for each project, and add them to the Project Leads user group so that they can be easily contacted.\n"
                            },
                            {
                                "type": "text",
                                "text": "Who should I add from this project? ",
                                "style": {
                                    "bold": true
                                }
                            },
                            {
                                "type": "user",
                                "user_id": "U011G0QGFN3",
                                "style": {
                                    "bold": true
                                }
                            },
                            {
                                "type": "text",
                                "text": "? ",
                                "style": {
                                    "bold": true
                                }
                            },
                            {
                                "type": "text",
                                "text": "\nThanks!!"
                            }
                        ]
                    }
                ]
            }
        ]
    },
    {
        "client_msg_id": "293C6D6C-E696-4A46-A59C-DB91F98DCDB9",
        "type": "message",
        "text": "<@U011B6VLM2A> yep I’m the lead thank you!",
        "user": "U011G0QGFN3",
        "ts": "1588170118.000600",
        "team": "TUU48M0T1",
        "user_team": "TUU48M0T1",
        "source_team": "TUU48M0T1",
        "user_profile": {
            "avatar_hash": "e5bfa29546fa",
            "image_72": "https:\/\/avatars.slack-edge.com\/2020-04-15\/1077438063281_e5bfa29546fa8873e2fc_72.jpg",
            "first_name": "Hunter",
            "real_name": "Hunter Futo",
            "display_name": "Hunter Futo",
            "team": "TUU48M0T1",
            "name": "hunter",
            "is_restricted": false,
            "is_ultra_restricted": false
        },
        "blocks": [
            {
                "type": "rich_text",
                "block_id": "4l6",
                "elements": [
                    {
                        "type": "rich_text_section",
                        "elements": [
                            {
                                "type": "user",
                                "user_id": "U011B6VLM2A"
                            },
                            {
                                "type": "text",
                                "text": " yep I’m the lead thank you!"
                            }
                        ]
                    }
                ]
            }
        ],
        "thread_ts": "1588170118.000600",
        "reply_count": 2,
        "reply_users_count": 2,
        "latest_reply": "1588256494.000100",
        "reply_users": [
            "U011B6VLM2A",
            "U011G0QGFN3"
        ],
        "replies": [
            {
                "user": "U011B6VLM2A",
                "ts": "1588235798.000100"
            },
            {
                "user": "U011G0QGFN3",
                "ts": "1588256494.000100"
            }
        ],
        "subscribed": false
    }
]