[
    {
        "client_msg_id": "4f532fc3-3ee6-4148-8a85-68e468e98451",
        "type": "message",
        "text": "This article by Robert L. Read is excellent, and should be considered required reading for everybody on this <!channel>! <https:\/\/medium.com\/@RobertLeeRead\/the-state-of-open-source-ventilator-projects-as-of-march-21st-1f36bfb608b4>",
        "user": "U0102NEMRTR",
        "ts": "1585554512.016200",
        "team": "TUU48M0T1",
        "user_team": "TUU48M0T1",
        "source_team": "TUU48M0T1",
        "user_profile": {
            "avatar_hash": "g6072d132593",
            "image_72": "https:\/\/secure.gravatar.com\/avatar\/6072d132593acb6de99356666ff0ed9e.jpg?s=72&d=https%3A%2F%2Fa.slack-edge.com%2Fdf10d%2Fimg%2Favatars%2Fava_0008-72.png",
            "first_name": "",
            "real_name": "Patrik D'haeseleer",
            "display_name": "Patrik D'haeseleer",
            "team": "TUU48M0T1",
            "name": "patrikd",
            "is_restricted": false,
            "is_ultra_restricted": false
        },
        "attachments": [
            {
                "service_name": "Medium",
                "title": "The State of Open Source Ventilator Projects as of March 21st",
                "title_link": "https:\/\/medium.com\/@RobertLeeRead\/the-state-of-open-source-ventilator-projects-as-of-march-21st-1f36bfb608b4",
                "text": "— Robert L. Read, PhD, Nariman Poushin, Keeshan Patel, Stacey Olive Sarris and Andrea Ippolito",
                "fallback": "Medium: The State of Open Source Ventilator Projects as of March 21st",
                "image_url": "https:\/\/miro.medium.com\/max\/1003\/1*TEnXJzKy6YwEsFNUK22Ytw.png",
                "fields": [
                    {
                        "title": "Reading time",
                        "value": "4 min read",
                        "short": true
                    }
                ],
                "ts": 1584926286,
                "from_url": "https:\/\/medium.com\/@RobertLeeRead\/the-state-of-open-source-ventilator-projects-as-of-march-21st-1f36bfb608b4",
                "image_width": 262,
                "image_height": 250,
                "image_bytes": 102431,
                "service_icon": "https:\/\/cdn-images-1.medium.com\/fit\/c\/152\/152\/1*8I-HPL0bfoIzGied-dzOvA.png",
                "id": 1,
                "original_url": "https:\/\/medium.com\/@RobertLeeRead\/the-state-of-open-source-ventilator-projects-as-of-march-21st-1f36bfb608b4"
            }
        ],
        "blocks": [
            {
                "type": "rich_text",
                "block_id": "i8cUl",
                "elements": [
                    {
                        "type": "rich_text_section",
                        "elements": [
                            {
                                "type": "text",
                                "text": "This article by Robert L. Read is excellent, and should be considered required reading for everybody on this "
                            },
                            {
                                "type": "broadcast",
                                "range": "channel"
                            },
                            {
                                "type": "text",
                                "text": "! "
                            },
                            {
                                "type": "link",
                                "url": "https:\/\/medium.com\/@RobertLeeRead\/the-state-of-open-source-ventilator-projects-as-of-march-21st-1f36bfb608b4"
                            }
                        ]
                    }
                ]
            }
        ]
    },
    {
        "client_msg_id": "cb353fd7-5803-44e2-bfe4-b6048b55a771",
        "type": "message",
        "text": "<!channel>: \"At least some engineers seem to have undertaken or thought about undertaking projects without sufficient understanding of the problem. We consider the four links below essential reading. They are about 50 pages in all, and should take at most two hours to read:\n\n• <https:\/\/assets.publishing.service.gov.uk\/government\/uploads\/system\/uploads\/attachment_data\/file\/874279\/RMVS001_Rapidly_Manufactured_Ventilator_Specification__PDF.pdf|Rapidly Manufactured Ventilator System>\n• <https:\/\/sccm.org\/getattachment\/Blog\/March-2020\/United-States-Resource-Availability-for-COVID-19\/United-States-Resource-Availability-for-COVID-19.pdf?lang=en-US|U.S. ICU Resource Availability for COVID-19>\n• <https:\/\/docs.google.com\/document\/d\/1lZWUwIpN2kINxURqP9Tczn2zYqpuVlBSDBypJt76a2Q\/edit?usp=sharing|OSCMS — Ventilator Machines>\n• <https:\/\/github.com\/jcl5m1\/ventilator\/wiki\/Notes-from-chatting-with-a-pulmonologist|Informal notes from a pulmonologist>",
        "user": "U0102NEMRTR",
        "ts": "1585554595.016900",
        "team": "TUU48M0T1",
        "user_team": "TUU48M0T1",
        "source_team": "TUU48M0T1",
        "user_profile": {
            "avatar_hash": "g6072d132593",
            "image_72": "https:\/\/secure.gravatar.com\/avatar\/6072d132593acb6de99356666ff0ed9e.jpg?s=72&d=https%3A%2F%2Fa.slack-edge.com%2Fdf10d%2Fimg%2Favatars%2Fava_0008-72.png",
            "first_name": "",
            "real_name": "Patrik D'haeseleer",
            "display_name": "Patrik D'haeseleer",
            "team": "TUU48M0T1",
            "name": "patrikd",
            "is_restricted": false,
            "is_ultra_restricted": false
        },
        "blocks": [
            {
                "type": "rich_text",
                "block_id": "LH4d",
                "elements": [
                    {
                        "type": "rich_text_section",
                        "elements": [
                            {
                                "type": "broadcast",
                                "range": "channel"
                            },
                            {
                                "type": "text",
                                "text": ": \"At least some engineers seem to have undertaken or thought about undertaking projects without sufficient understanding of the problem. We consider the four links below essential reading. They are about 50 pages in all, and should take at most two hours to read:\n\n"
                            }
                        ]
                    },
                    {
                        "type": "rich_text_list",
                        "elements": [
                            {
                                "type": "rich_text_section",
                                "elements": [
                                    {
                                        "type": "link",
                                        "url": "https:\/\/assets.publishing.service.gov.uk\/government\/uploads\/system\/uploads\/attachment_data\/file\/874279\/RMVS001_Rapidly_Manufactured_Ventilator_Specification__PDF.pdf",
                                        "text": "Rapidly Manufactured Ventilator System"
                                    }
                                ]
                            },
                            {
                                "type": "rich_text_section",
                                "elements": [
                                    {
                                        "type": "link",
                                        "url": "https:\/\/sccm.org\/getattachment\/Blog\/March-2020\/United-States-Resource-Availability-for-COVID-19\/United-States-Resource-Availability-for-COVID-19.pdf?lang=en-US",
                                        "text": "U.S. ICU Resource Availability for COVID-19"
                                    }
                                ]
                            },
                            {
                                "type": "rich_text_section",
                                "elements": [
                                    {
                                        "type": "link",
                                        "url": "https:\/\/docs.google.com\/document\/d\/1lZWUwIpN2kINxURqP9Tczn2zYqpuVlBSDBypJt76a2Q\/edit?usp=sharing",
                                        "text": "OSCMS — Ventilator Machines"
                                    }
                                ]
                            },
                            {
                                "type": "rich_text_section",
                                "elements": [
                                    {
                                        "type": "link",
                                        "url": "https:\/\/github.com\/jcl5m1\/ventilator\/wiki\/Notes-from-chatting-with-a-pulmonologist",
                                        "text": "Informal notes from a pulmonologist"
                                    }
                                ]
                            }
                        ],
                        "style": "bullet",
                        "indent": 0
                    }
                ]
            }
        ],
        "thread_ts": "1585554595.016900",
        "reply_count": 4,
        "reply_users_count": 4,
        "latest_reply": "1585683983.020100",
        "reply_users": [
            "UV2P3AQEN",
            "U01016B7KPY",
            "U0102NEMRTR",
            "U010GFNDDL4"
        ],
        "replies": [
            {
                "user": "UV2P3AQEN",
                "ts": "1585557416.017100"
            },
            {
                "user": "U01016B7KPY",
                "ts": "1585557674.017300"
            },
            {
                "user": "U0102NEMRTR",
                "ts": "1585562321.017500"
            },
            {
                "user": "U010GFNDDL4",
                "ts": "1585683983.020100"
            }
        ],
        "subscribed": false
    },
    {
        "client_msg_id": "a2024d66-95a4-4dba-ae0f-842255ca19fb",
        "type": "message",
        "text": "That's great. And that's critical to a project like the ventilator one which has the potential to do real bad to patients",
        "user": "UV2P3AQEN",
        "ts": "1585557416.017100",
        "team": "TUU48M0T1",
        "user_team": "TUU48M0T1",
        "source_team": "TUU48M0T1",
        "user_profile": {
            "avatar_hash": "82d977ce9645",
            "image_72": "https:\/\/avatars.slack-edge.com\/2020-03-16\/1003452392327_82d977ce9645ebc30917_72.jpg",
            "first_name": "Antonio",
            "real_name": "Antonio Mangiapane",
            "display_name": "Antonio Mangiapane",
            "team": "TUU48M0T1",
            "name": "antonio.mangiapane29",
            "is_restricted": false,
            "is_ultra_restricted": false
        },
        "blocks": [
            {
                "type": "rich_text",
                "block_id": "SUm1",
                "elements": [
                    {
                        "type": "rich_text_section",
                        "elements": [
                            {
                                "type": "text",
                                "text": "That's great. And that's critical to a project like the ventilator one which has the potential to do real bad to patients"
                            }
                        ]
                    }
                ]
            }
        ],
        "thread_ts": "1585554595.016900",
        "parent_user_id": "U0102NEMRTR"
    },
    {
        "client_msg_id": "72c11d88-1261-4b2f-9aed-0a0b0eb18644",
        "type": "message",
        "text": "Hi Patrik, I can see that these machines are really complex, and I'm wondering if it would make more sense for the maker community to get in touch with established manufacturers and offer to help with creation of specific parts that they can use in their process. I wondered if you think that would be better? There was an article about it in the financial times yesterday and it made a lot of sense to me. Best wishes, Jennifer",
        "user": "U01016B7KPY",
        "ts": "1585557674.017300",
        "team": "TUU48M0T1",
        "user_team": "TUU48M0T1",
        "source_team": "TUU48M0T1",
        "user_profile": {
            "avatar_hash": "9a7d8bed69ad",
            "image_72": "https:\/\/avatars.slack-edge.com\/2020-03-13\/1001221150774_9a7d8bed69ad082201d0_72.jpg",
            "first_name": "",
            "real_name": "Jennifer Deegan",
            "display_name": "Jennifer Deegan",
            "team": "TUU48M0T1",
            "name": "jendeegan",
            "is_restricted": false,
            "is_ultra_restricted": false
        },
        "blocks": [
            {
                "type": "rich_text",
                "block_id": "k+D",
                "elements": [
                    {
                        "type": "rich_text_section",
                        "elements": [
                            {
                                "type": "text",
                                "text": "Hi Patrik, I can see that these machines are really complex, and I'm wondering if it would make more sense for the maker community to get in touch with established manufacturers and offer to help with creation of specific parts that they can use in their process. I wondered if you think that would be better? There was an article about it in the financial times yesterday and it made a lot of sense to me. Best wishes, Jennifer"
                            }
                        ]
                    }
                ]
            }
        ],
        "thread_ts": "1585554595.016900",
        "parent_user_id": "U0102NEMRTR"
    },
    {
        "client_msg_id": "e7f8cf08-3515-44ec-8e13-1d69e630c45a",
        "type": "message",
        "text": "Hi Jennifer - yes, that is definitely a valid approach as well. Keep in mind that manufacturers may not appreciate DIYers eating into their market share though - as has happened with the Italian group that was 3D printing respirator valves: <https:\/\/www.medicaldevice-network.com\/news\/3d-printed-valves-covid-19-italy\/>",
        "user": "U0102NEMRTR",
        "ts": "1585562321.017500",
        "team": "TUU48M0T1",
        "user_team": "TUU48M0T1",
        "source_team": "TUU48M0T1",
        "user_profile": {
            "avatar_hash": "g6072d132593",
            "image_72": "https:\/\/secure.gravatar.com\/avatar\/6072d132593acb6de99356666ff0ed9e.jpg?s=72&d=https%3A%2F%2Fa.slack-edge.com%2Fdf10d%2Fimg%2Favatars%2Fava_0008-72.png",
            "first_name": "",
            "real_name": "Patrik D'haeseleer",
            "display_name": "Patrik D'haeseleer",
            "team": "TUU48M0T1",
            "name": "patrikd",
            "is_restricted": false,
            "is_ultra_restricted": false
        },
        "attachments": [
            {
                "service_name": "Verdict Medical Devices",
                "title": "Start-up which 3D-printed lifesaving ventilator valves may face legal action",
                "title_link": "https:\/\/www.medicaldevice-network.com\/news\/3d-printed-valves-covid-19-italy\/",
                "text": "The company which 3D-printed ventilator valves for an Italian hospital in short supply may be facing legal action from the manufacturer of the original part",
                "fallback": "Verdict Medical Devices: Start-up which 3D-printed lifesaving ventilator valves may face legal action",
                "thumb_url": "https:\/\/www.medicaldevice-network.com\/wp-content\/uploads\/sites\/11\/2020\/03\/89996384_10222328772156304_3292612436959428608_o.jpg",
                "ts": 1584551665,
                "from_url": "https:\/\/www.medicaldevice-network.com\/news\/3d-printed-valves-covid-19-italy\/",
                "thumb_width": 838,
                "thumb_height": 600,
                "service_icon": "https:\/\/www.medicaldevice-network.com\/wp-content\/uploads\/sites\/11\/2017\/09\/medical-icon.png",
                "id": 1,
                "original_url": "https:\/\/www.medicaldevice-network.com\/news\/3d-printed-valves-covid-19-italy\/"
            }
        ],
        "blocks": [
            {
                "type": "rich_text",
                "block_id": "tXh",
                "elements": [
                    {
                        "type": "rich_text_section",
                        "elements": [
                            {
                                "type": "text",
                                "text": "Hi Jennifer - yes, that is definitely a valid approach as well. Keep in mind that manufacturers may not appreciate DIYers eating into their market share though - as has happened with the Italian group that was 3D printing respirator valves: "
                            },
                            {
                                "type": "link",
                                "url": "https:\/\/www.medicaldevice-network.com\/news\/3d-printed-valves-covid-19-italy\/"
                            }
                        ]
                    }
                ]
            }
        ],
        "thread_ts": "1585554595.016900",
        "parent_user_id": "U0102NEMRTR"
    },
    {
        "client_msg_id": "9b8b4ca4-0fe5-49f3-8a25-12958f388136",
        "type": "message",
        "text": "<https:\/\/www.medtronic.com\/us-en\/e\/open-files.html?cmpid=vanity_url_medtronic_com_openventilator_Corp_US_Covid19_FY20>",
        "user": "U010B4EJG2C",
        "ts": "1585596078.018200",
        "team": "TUU48M0T1",
        "user_team": "TUU48M0T1",
        "source_team": "TUU48M0T1",
        "user_profile": {
            "avatar_hash": "5c9626d7b328",
            "image_72": "https:\/\/avatars.slack-edge.com\/2020-03-19\/1011171782821_5c9626d7b328e5dc84ea_72.jpg",
            "first_name": "Adam",
            "real_name": "Adam Krovina",
            "display_name": "Adam Krovina",
            "team": "TUU48M0T1",
            "name": "adam",
            "is_restricted": false,
            "is_ultra_restricted": false
        },
        "attachments": [
            {
                "title": "Register to Download Ventilator Files",
                "title_link": "https:\/\/www.medtronic.com\/us-en\/e\/open-files.html?cmpid=vanity_url_medtronic_com_openventilator_Corp_US_Covid19_FY20",
                "text": "Register to download the design specification for the PB560 ventilator system from Medtronic. Manufacturers and innovators may consult these files as part of the larger effort to confront and overcome the impact of COVID-19.",
                "fallback": "Register to Download Ventilator Files",
                "from_url": "https:\/\/www.medtronic.com\/us-en\/e\/open-files.html?cmpid=vanity_url_medtronic_com_openventilator_Corp_US_Covid19_FY20",
                "service_icon": "https:\/\/www.medtronic.com\/content\/dam\/medtronic-com\/apple-touch-icon-precomposed.png",
                "service_name": "medtronic.com",
                "id": 1,
                "original_url": "https:\/\/www.medtronic.com\/us-en\/e\/open-files.html?cmpid=vanity_url_medtronic_com_openventilator_Corp_US_Covid19_FY20"
            }
        ],
        "blocks": [
            {
                "type": "rich_text",
                "block_id": "8J18c",
                "elements": [
                    {
                        "type": "rich_text_section",
                        "elements": [
                            {
                                "type": "link",
                                "url": "https:\/\/www.medtronic.com\/us-en\/e\/open-files.html?cmpid=vanity_url_medtronic_com_openventilator_Corp_US_Covid19_FY20"
                            }
                        ]
                    }
                ]
            }
        ]
    }
]