[
    {
        "client_msg_id": "cfc4e17e-be59-41db-9691-3c4437cdb368",
        "type": "message",
        "text": "<https:\/\/www.mercedesamgf1.com\/en\/news\/2020\/04\/ucl-uclh-f1-project-pitlane-start-delivery-breathing-aids-nhs-hospitals\/|https:\/\/www.mercedesamgf1.com\/en\/news\/2020\/04\/ucl-uclh-f1-project-pitlane-start-delivery-breathing-aids-nhs-hospitals\/>",
        "user": "U010BA2NL9E",
        "ts": "1586338324.031800",
        "team": "TUU48M0T1",
        "user_team": "TUU48M0T1",
        "source_team": "TUU48M0T1",
        "user_profile": {
            "avatar_hash": "g3fa100f8f14",
            "image_72": "https:\/\/secure.gravatar.com\/avatar\/3fa100f8f14fc86a0f2f58648b36d29e.jpg?s=72&d=https%3A%2F%2Fa.slack-edge.com%2Fdf10d%2Fimg%2Favatars%2Fava_0008-72.png",
            "first_name": "",
            "real_name": "Eduardo Garcia",
            "display_name": "Eduardo Garcia",
            "team": "TUU48M0T1",
            "name": "eduardo.garcia",
            "is_restricted": false,
            "is_ultra_restricted": false
        },
        "attachments": [
            {
                "title": "Designs for Life-saving Breathing Aid to be Made Freely Available",
                "title_link": "https:\/\/www.mercedesamgf1.com\/en\/news\/2020\/04\/ucl-uclh-f1-project-pitlane-start-delivery-breathing-aids-nhs-hospitals\/",
                "text": "The designs of a new breathing aid developed by engineers at UCL and Formula One working with clinicians at UCLH have been made freely available to support the global response to Covid-19.",
                "fallback": "Designs for Life-saving Breathing Aid to be Made Freely Available",
                "image_url": "https:\/\/www.mercedesamgf1.com\/en\/news\/2020\/04\/ucl-uclh-f1-project-pitlane-start-delivery-breathing-aids-nhs-hospitals\/_jcr_content\/image\/MQ6-12-image-20200406105442\/00_8.jpeg",
                "from_url": "https:\/\/www.mercedesamgf1.com\/en\/news\/2020\/04\/ucl-uclh-f1-project-pitlane-start-delivery-breathing-aids-nhs-hospitals\/",
                "image_width": 375,
                "image_height": 250,
                "image_bytes": 86726,
                "service_icon": "https:\/\/assets.oneweb.mercedes-benz.com\/global\/1.9.0\/favicon\/apple-touch-icon.png",
                "service_name": "mercedesamgf1.com",
                "id": 1,
                "original_url": "https:\/\/www.mercedesamgf1.com\/en\/news\/2020\/04\/ucl-uclh-f1-project-pitlane-start-delivery-breathing-aids-nhs-hospitals\/"
            }
        ],
        "blocks": [
            {
                "type": "rich_text",
                "block_id": "Xa1",
                "elements": [
                    {
                        "type": "rich_text_section",
                        "elements": [
                            {
                                "type": "link",
                                "url": "https:\/\/www.mercedesamgf1.com\/en\/news\/2020\/04\/ucl-uclh-f1-project-pitlane-start-delivery-breathing-aids-nhs-hospitals\/",
                                "text": "https:\/\/www.mercedesamgf1.com\/en\/news\/2020\/04\/ucl-uclh-f1-project-pitlane-start-delivery-breathing-aids-nhs-hospitals\/"
                            }
                        ]
                    }
                ]
            }
        ]
    },
    {
        "client_msg_id": "34d81a94-10f4-475d-9cd9-9faf65ce8725",
        "type": "message",
        "text": "<https:\/\/www.linkedin.com\/posts\/activity-6652192922219364352-XEK0|https:\/\/www.linkedin.com\/posts\/activity-6652192922219364352-XEK0>",
        "user": "U01081Y0TBP",
        "ts": "1586364054.032000",
        "team": "TUU48M0T1",
        "user_team": "TUU48M0T1",
        "source_team": "TUU48M0T1",
        "user_profile": {
            "avatar_hash": "60ec5b47107a",
            "image_72": "https:\/\/avatars.slack-edge.com\/2020-03-18\/995274181218_60ec5b47107a3bd2ca7d_72.jpg",
            "first_name": "Peter",
            "real_name": "Peter Kooren",
            "display_name": "Peter Kooren",
            "team": "TUU48M0T1",
            "name": "peterkooren",
            "is_restricted": false,
            "is_ultra_restricted": false
        },
        "attachments": [
            {
                "title": "Sign Up | LinkedIn",
                "title_link": "https:\/\/www.linkedin.com\/posts\/activity-6652192922219364352-XEK0",
                "text": "500 million+ members | Manage your professional identity. Build and engage with your professional network. Access knowledge, insights and opportunities.",
                "fallback": "Sign Up | LinkedIn",
                "thumb_url": "https:\/\/static-exp1.licdn.com\/scds\/common\/u\/images\/logos\/favicons\/v1\/favicon.ico",
                "from_url": "https:\/\/www.linkedin.com\/posts\/activity-6652192922219364352-XEK0",
                "thumb_width": 16,
                "thumb_height": 16,
                "service_icon": "https:\/\/static-exp1.licdn.com\/scds\/common\/u\/images\/logos\/favicons\/v1\/favicon.ico",
                "service_name": "linkedin.com",
                "id": 1,
                "original_url": "https:\/\/www.linkedin.com\/posts\/activity-6652192922219364352-XEK0"
            }
        ],
        "blocks": [
            {
                "type": "rich_text",
                "block_id": "TaEx",
                "elements": [
                    {
                        "type": "rich_text_section",
                        "elements": [
                            {
                                "type": "link",
                                "url": "https:\/\/www.linkedin.com\/posts\/activity-6652192922219364352-XEK0",
                                "text": "https:\/\/www.linkedin.com\/posts\/activity-6652192922219364352-XEK0"
                            }
                        ]
                    }
                ]
            }
        ]
    }
]