[
    {
        "client_msg_id": "ddf1175b-1563-474c-a943-d039ff3e422d",
        "type": "message",
        "text": "I would like to contribute to this development, but it is unclear to me what the status is of this project and what needs to be done. I saw some images on a platform called Figma, but i believe it is more transparent to put this just in google doc and pin a link in this channel",
        "user": "U01081Y0TBP",
        "ts": "1585304994.007600",
        "team": "TUU48M0T1",
        "user_team": "TUU48M0T1",
        "source_team": "TUU48M0T1",
        "user_profile": {
            "avatar_hash": "60ec5b47107a",
            "image_72": "https:\/\/avatars.slack-edge.com\/2020-03-18\/995274181218_60ec5b47107a3bd2ca7d_72.jpg",
            "first_name": "Peter",
            "real_name": "Peter Kooren",
            "display_name": "Peter Kooren",
            "team": "TUU48M0T1",
            "name": "peterkooren",
            "is_restricted": false,
            "is_ultra_restricted": false
        },
        "blocks": [
            {
                "type": "rich_text",
                "block_id": "2i=K",
                "elements": [
                    {
                        "type": "rich_text_section",
                        "elements": [
                            {
                                "type": "text",
                                "text": "I would like to contribute to this development, but it is unclear to me what the status is of this project and what needs to be done. I saw some images on a platform called Figma, but i believe it is more transparent to put this just in google doc and pin a link in this channel"
                            }
                        ]
                    }
                ]
            }
        ]
    },
    {
        "type": "message",
        "text": "Is this the current design doc? <https:\/\/docs.google.com\/document\/d\/13m4imgJSW-eGm5iIxNw-y5DvLdE8oWYOBy2FzDp0QVQ\/edit>",
        "files": [
            {
                "id": "F010YR1R4TH",
                "created": 1585305555,
                "timestamp": 1585305555,
                "name": "pVp Pressure Vent Design",
                "title": "pVp Pressure Vent Design",
                "mimetype": "application\/vnd.google-apps.document",
                "filetype": "gdoc",
                "pretty_type": "GSuite Document",
                "user": "U01081Y0TBP",
                "editable": false,
                "size": 8832,
                "mode": "external",
                "is_external": true,
                "external_type": "gdrive",
                "is_public": true,
                "public_url_shared": false,
                "display_as_bot": false,
                "username": "",
                "url_private": "https:\/\/docs.google.com\/document\/d\/13m4imgJSW-eGm5iIxNw-y5DvLdE8oWYOBy2FzDp0QVQ\/edit",
                "thumb_64": "https:\/\/files.slack.com\/files-tmb\/TUU48M0T1-F010YR1R4TH-6873023146\/pvp_pressure_vent_design_64.png?t=xoxe-980144714919-1106606678066-1105227127893-6f722bb664235052954ad46852628b64",
                "thumb_80": "https:\/\/files.slack.com\/files-tmb\/TUU48M0T1-F010YR1R4TH-6873023146\/pvp_pressure_vent_design_80.png?t=xoxe-980144714919-1106606678066-1105227127893-6f722bb664235052954ad46852628b64",
                "thumb_360": "https:\/\/files.slack.com\/files-tmb\/TUU48M0T1-F010YR1R4TH-6873023146\/pvp_pressure_vent_design_360.png?t=xoxe-980144714919-1106606678066-1105227127893-6f722bb664235052954ad46852628b64",
                "thumb_360_w": 255,
                "thumb_360_h": 360,
                "thumb_480": "https:\/\/files.slack.com\/files-tmb\/TUU48M0T1-F010YR1R4TH-6873023146\/pvp_pressure_vent_design_480.png?t=xoxe-980144714919-1106606678066-1105227127893-6f722bb664235052954ad46852628b64",
                "thumb_480_w": 340,
                "thumb_480_h": 480,
                "thumb_160": "https:\/\/files.slack.com\/files-tmb\/TUU48M0T1-F010YR1R4TH-6873023146\/pvp_pressure_vent_design_160.png?t=xoxe-980144714919-1106606678066-1105227127893-6f722bb664235052954ad46852628b64",
                "thumb_720": "https:\/\/files.slack.com\/files-tmb\/TUU48M0T1-F010YR1R4TH-6873023146\/pvp_pressure_vent_design_720.png?t=xoxe-980144714919-1106606678066-1105227127893-6f722bb664235052954ad46852628b64",
                "thumb_720_w": 509,
                "thumb_720_h": 720,
                "thumb_800": "https:\/\/files.slack.com\/files-tmb\/TUU48M0T1-F010YR1R4TH-6873023146\/pvp_pressure_vent_design_800.png?t=xoxe-980144714919-1106606678066-1105227127893-6f722bb664235052954ad46852628b64",
                "thumb_800_w": 800,
                "thumb_800_h": 1131,
                "thumb_960": "https:\/\/files.slack.com\/files-tmb\/TUU48M0T1-F010YR1R4TH-6873023146\/pvp_pressure_vent_design_960.png?t=xoxe-980144714919-1106606678066-1105227127893-6f722bb664235052954ad46852628b64",
                "thumb_960_w": 679,
                "thumb_960_h": 960,
                "thumb_1024": "https:\/\/files.slack.com\/files-tmb\/TUU48M0T1-F010YR1R4TH-6873023146\/pvp_pressure_vent_design_1024.png?t=xoxe-980144714919-1106606678066-1105227127893-6f722bb664235052954ad46852628b64",
                "thumb_1024_w": 724,
                "thumb_1024_h": 1024,
                "image_exif_rotation": 1,
                "original_w": 800,
                "original_h": 1131,
                "thumb_tiny": "AwAwACHTpCcHGKRu3Sm\/lQA\/PsaWo\/ypy\/hQA6iiigBr9qbn2FPIpDhRyTQAmf8AZFKv0xSgZHU0oGKACiiigBCcCo9xbtmpaQADoAKAEGV460oOc0tAGOlABRRRQB\/\/2Q==",
                "permalink": "https:\/\/open-covid19.slack.com\/files\/U01081Y0TBP\/F010YR1R4TH\/pvp_pressure_vent_design",
                "is_starred": false,
                "external_id": "13m4imgJSW-eGm5iIxNw-y5DvLdE8oWYOBy2FzDp0QVQ",
                "external_url": "https:\/\/docs.google.com\/document\/d\/13m4imgJSW-eGm5iIxNw-y5DvLdE8oWYOBy2FzDp0QVQ\/edit",
                "has_rich_preview": true
            }
        ],
        "upload": false,
        "blocks": [
            {
                "type": "rich_text",
                "block_id": "sYEz",
                "elements": [
                    {
                        "type": "rich_text_section",
                        "elements": [
                            {
                                "type": "text",
                                "text": "Is this the current design doc? "
                            },
                            {
                                "type": "link",
                                "url": "https:\/\/docs.google.com\/document\/d\/13m4imgJSW-eGm5iIxNw-y5DvLdE8oWYOBy2FzDp0QVQ\/edit"
                            }
                        ]
                    }
                ]
            }
        ],
        "user": "U01081Y0TBP",
        "display_as_bot": false,
        "x_files": [
            "F010YR1R4TH"
        ],
        "ts": "1585305553.008200",
        "client_msg_id": "9eb18486-f226-44ba-a315-8ea0a2cfabf5"
    },
    {
        "client_msg_id": "3fa44cac-3fc7-4311-b3b5-17a329f96c32",
        "type": "message",
        "text": "Do you need another pair of hands on the Android app?",
        "user": "U01084P4ELX",
        "ts": "1585310781.009000",
        "team": "TUU48M0T1",
        "user_team": "TUU48M0T1",
        "source_team": "TUU48M0T1",
        "user_profile": {
            "avatar_hash": "g314bfba96c5",
            "image_72": "https:\/\/secure.gravatar.com\/avatar\/314bfba96c545495efbc8e77256c78a1.jpg?s=72&d=https%3A%2F%2Fa.slack-edge.com%2Fdf10d%2Fimg%2Favatars%2Fava_0024-72.png",
            "first_name": "",
            "real_name": "Chris Hennick",
            "display_name": "Chris Hennick",
            "team": "TUU48M0T1",
            "name": "chrishennick1",
            "is_restricted": false,
            "is_ultra_restricted": false
        },
        "blocks": [
            {
                "type": "rich_text",
                "block_id": "13m",
                "elements": [
                    {
                        "type": "rich_text_section",
                        "elements": [
                            {
                                "type": "text",
                                "text": "Do you need another pair of hands on the Android app?"
                            }
                        ]
                    }
                ]
            }
        ],
        "thread_ts": "1585062740.129100",
        "parent_user_id": "U010GFNDDL4"
    },
    {
        "client_msg_id": "2cb64d75-54fd-41ec-9a72-de3b5725d4dc",
        "type": "message",
        "text": "There's an Oxford professor talking today on the BBC NewsHour on the radio about a DIY ventilator his group is producing that sounds promising. Free access to the design once it is safety approved <http:\/\/oxvent.org|oxvent.org> is their website.",
        "user": "UUPQGNNTV",
        "ts": "1585316501.010800",
        "team": "TUU48M0T1",
        "user_team": "TUU48M0T1",
        "source_team": "TUU48M0T1",
        "user_profile": {
            "avatar_hash": "c28127caf7eb",
            "image_72": "https:\/\/avatars.slack-edge.com\/2020-03-07\/989562470694_c28127caf7ebfe67df97_72.jpg",
            "first_name": "",
            "real_name": "Ellen Jorgensen",
            "display_name": "",
            "team": "TUU48M0T1",
            "name": "ejorgensen",
            "is_restricted": false,
            "is_ultra_restricted": false
        },
        "blocks": [
            {
                "type": "rich_text",
                "block_id": "1ZMUO",
                "elements": [
                    {
                        "type": "rich_text_section",
                        "elements": [
                            {
                                "type": "text",
                                "text": "There's an Oxford professor talking today on the BBC NewsHour on the radio about a DIY ventilator his group is producing that sounds promising. Free access to the design once it is safety approved "
                            },
                            {
                                "type": "link",
                                "url": "http:\/\/oxvent.org",
                                "text": "oxvent.org"
                            },
                            {
                                "type": "text",
                                "text": " is their website."
                            }
                        ]
                    }
                ]
            }
        ],
        "reactions": [
            {
                "name": "+1",
                "users": [
                    "U01081Y0TBP"
                ],
                "count": 1
            }
        ]
    },
    {
        "client_msg_id": "0a21d10d-ea38-48a6-acd3-7eed704d4e6d",
        "type": "message",
        "text": "Andrew Famery (?) I think is the prof's name",
        "user": "UUPQGNNTV",
        "ts": "1585316533.011300",
        "team": "TUU48M0T1",
        "user_team": "TUU48M0T1",
        "source_team": "TUU48M0T1",
        "user_profile": {
            "avatar_hash": "c28127caf7eb",
            "image_72": "https:\/\/avatars.slack-edge.com\/2020-03-07\/989562470694_c28127caf7ebfe67df97_72.jpg",
            "first_name": "",
            "real_name": "Ellen Jorgensen",
            "display_name": "",
            "team": "TUU48M0T1",
            "name": "ejorgensen",
            "is_restricted": false,
            "is_ultra_restricted": false
        },
        "blocks": [
            {
                "type": "rich_text",
                "block_id": "gLs0",
                "elements": [
                    {
                        "type": "rich_text_section",
                        "elements": [
                            {
                                "type": "text",
                                "text": "Andrew Famery (?) I think is the prof's name"
                            }
                        ]
                    }
                ]
            }
        ]
    }
]