[
    {
        "type": "message",
        "subtype": "channel_join",
        "ts": "1588152420.001400",
        "user": "U012R8TDBGT",
        "text": "<@U012R8TDBGT> has joined the channel"
    },
    {
        "type": "message",
        "subtype": "channel_join",
        "ts": "1588158768.001600",
        "user": "U012PSB1A1K",
        "text": "<@U012PSB1A1K> has joined the channel"
    },
    {
        "type": "message",
        "subtype": "channel_join",
        "ts": "1588162955.001800",
        "user": "U012AKH7763",
        "text": "<@U012AKH7763> has joined the channel"
    },
    {
        "type": "message",
        "subtype": "channel_join",
        "ts": "1588175893.002000",
        "user": "U012K7JSL7Q",
        "text": "<@U012K7JSL7Q> has joined the channel"
    },
    {
        "type": "message",
        "subtype": "channel_join",
        "ts": "1588178184.002200",
        "user": "U012Y8AJMBN",
        "text": "<@U012Y8AJMBN> has joined the channel"
    },
    {
        "type": "message",
        "subtype": "channel_join",
        "ts": "1588179626.002400",
        "user": "U0134PD5AMP",
        "text": "<@U0134PD5AMP> has joined the channel"
    },
    {
        "type": "message",
        "subtype": "channel_join",
        "ts": "1588182056.002600",
        "user": "U012YDF5XEG",
        "text": "<@U012YDF5XEG> has joined the channel",
        "inviter": "UV02WET96"
    },
    {
        "type": "message",
        "subtype": "channel_join",
        "ts": "1588186834.002800",
        "user": "U012R3F0PBP",
        "text": "<@U012R3F0PBP> has joined the channel"
    }
]