[
    {
        "type": "message",
        "subtype": "channel_join",
        "ts": "1588059470.000800",
        "user": "U0127ERKYTH",
        "text": "<@U0127ERKYTH> has joined the channel"
    },
    {
        "type": "message",
        "subtype": "channel_join",
        "ts": "1588101435.001000",
        "user": "U0132G0EHNV",
        "text": "<@U0132G0EHNV> has joined the channel"
    },
    {
        "type": "message",
        "subtype": "channel_join",
        "ts": "1588129305.001200",
        "user": "U013ED82H16",
        "text": "<@U013ED82H16> has joined the channel"
    }
]