[
    {
        "type": "message",
        "subtype": "channel_join",
        "ts": "1587053357.000200",
        "user": "UV78JAX0S",
        "text": "<@UV78JAX0S> has joined the channel"
    },
    {
        "type": "message",
        "subtype": "channel_join",
        "ts": "1587055651.000200",
        "user": "UV9V03C8Y",
        "text": "<@UV9V03C8Y> has joined the channel"
    },
    {
        "type": "message",
        "text": "",
        "user": "U011B6VLM2A",
        "ts": "1587058311.000300",
        "team": "TUU48M0T1",
        "user_team": "TUU48M0T1",
        "source_team": "TUU48M0T1",
        "user_profile": {
            "avatar_hash": "4231dc598cfc",
            "image_72": "https:\/\/avatars.slack-edge.com\/2020-04-02\/1044784558839_4231dc598cfc2e59c4c4_72.jpg",
            "first_name": "Alix",
            "real_name": "Alix Mains",
            "display_name": "Alix Mains - JOGL Coordinator",
            "team": "TUU48M0T1",
            "name": "alixhmains",
            "is_restricted": false,
            "is_ultra_restricted": false
        },
        "attachments": [
            {
                "fallback": "[April 15th, 2020 7:38 PM] johnurbanik: Hi <@U011B6VLM2A> <@UV9V03C8Y> I would like if everyone put the slack channels they are active in as part of their slack profile. See mine for an example - maybe we can try to encourage others to do so. If you think this would be useful, I believe there is a functionality in the paid slack plan to add links as custom profile fields <https:\/\/slack.com\/help\/articles\/212281478-Customize-member-profiles>, so we could do that until June as well.",
                "ts": "1586972288.001000",
                "author_id": "U0104M5CWV9",
                "author_subname": "John Urbanik",
                "channel_id": "C011N87V3HP",
                "channel_name": "prgm-community-support",
                "is_msg_unfurl": true,
                "is_thread_root_unfurl": true,
                "text": "Hi <@U011B6VLM2A> <@UV9V03C8Y> I would like if everyone put the slack channels they are active in as part of their slack profile. See mine for an example - maybe we can try to encourage others to do so. If you think this would be useful, I believe there is a functionality in the paid slack plan to add links as custom profile fields <https:\/\/slack.com\/help\/articles\/212281478-Customize-member-profiles>, so we could do that until June as well.",
                "author_name": "John Urbanik",
                "author_link": "https:\/\/open-covid19.slack.com\/team\/U0104M5CWV9",
                "author_icon": "https:\/\/secure.gravatar.com\/avatar\/690df94d06f11222b2bb4d765ee7ba52.jpg?s=48&d=https%3A%2F%2Fa.slack-edge.com%2Fdf10d%2Fimg%2Favatars%2Fava_0002-48.png",
                "mrkdwn_in": [
                    "text"
                ],
                "color": "D0D0D0",
                "from_url": "https:\/\/open-covid19.slack.com\/archives\/C011N87V3HP\/p1586972288001000?thread_ts=1586972288001000&cid=C011N87V3HP",
                "is_share": true,
                "footer": "Thread in #prgm-community-support"
            }
        ],
        "thread_ts": "1587058311.000300",
        "reply_count": 2,
        "reply_users_count": 2,
        "latest_reply": "1588009901.000200",
        "reply_users": [
            "UV9V03C8Y",
            "U011B6VLM2A"
        ],
        "replies": [
            {
                "user": "UV9V03C8Y",
                "ts": "1587743581.000300"
            },
            {
                "user": "U011B6VLM2A",
                "ts": "1588009901.000200"
            }
        ],
        "subscribed": false,
        "reactions": [
            {
                "name": "+1",
                "users": [
                    "U011B6VLM2A"
                ],
                "count": 1
            }
        ]
    },
    {
        "type": "message",
        "subtype": "channel_join",
        "ts": "1587059882.000500",
        "user": "UV20M5HGQ",
        "text": "<@UV20M5HGQ> has joined the channel",
        "reactions": [
            {
                "name": "+1",
                "users": [
                    "U011B6VLM2A"
                ],
                "count": 1
            }
        ]
    }
]