[
    {
        "type": "message",
        "subtype": "channel_join",
        "ts": "1583661449.002300",
        "user": "UV2P7ML3Z",
        "text": "<@UV2P7ML3Z> has joined the channel"
    },
    {
        "type": "message",
        "subtype": "channel_join",
        "ts": "1583674769.002500",
        "user": "UV02WET96",
        "text": "<@UV02WET96> has joined the channel"
    },
    {
        "type": "message",
        "subtype": "channel_join",
        "ts": "1583674830.002700",
        "user": "UV42V9XTQ",
        "text": "<@UV42V9XTQ> has joined the channel"
    },
    {
        "type": "message",
        "subtype": "channel_join",
        "ts": "1583693534.002900",
        "user": "UV0FQT2QL",
        "text": "<@UV0FQT2QL> has joined the channel"
    },
    {
        "type": "message",
        "subtype": "channel_purpose",
        "ts": "1583701309.003100",
        "user": "UV3HA9MM4",
        "text": "<@UV3HA9MM4> set the channel purpose: Reproduce paper comparing which PCR primers are best\n\n<https:\/\/www.biorxiv.org\/content\/10.1101\/2020.02.25.964775v1>",
        "purpose": "Reproduce paper comparing which PCR primers are best\n\n<https:\/\/www.biorxiv.org\/content\/10.1101\/2020.02.25.964775v1>"
    },
    {
        "type": "message",
        "subtype": "channel_purpose",
        "ts": "1583701319.003300",
        "user": "UV3HA9MM4",
        "text": "<@UV3HA9MM4> set the channel purpose: Reproduce paper comparing which PCR primers are best:\n<https:\/\/www.biorxiv.org\/content\/10.1101\/2020.02.25.964775v1>",
        "purpose": "Reproduce paper comparing which PCR primers are best:\n<https:\/\/www.biorxiv.org\/content\/10.1101\/2020.02.25.964775v1>"
    },
    {
        "type": "message",
        "subtype": "channel_purpose",
        "ts": "1583701328.003500",
        "user": "UV3HA9MM4",
        "text": "<@UV3HA9MM4> set the channel purpose: .\nReproduce paper comparing which PCR primers are best:\n<https:\/\/www.biorxiv.org\/content\/10.1101\/2020.02.25.964775v1>",
        "purpose": ".\nReproduce paper comparing which PCR primers are best:\n<https:\/\/www.biorxiv.org\/content\/10.1101\/2020.02.25.964775v1>"
    },
    {
        "type": "message",
        "subtype": "channel_join",
        "ts": "1583712183.003700",
        "user": "UV1G2M821",
        "text": "<@UV1G2M821> has joined the channel",
        "reactions": [
            {
                "name": "wave",
                "users": [
                    "UV3HA9MM4"
                ],
                "count": 1
            }
        ]
    },
    {
        "type": "message",
        "subtype": "channel_join",
        "ts": "1583714854.003900",
        "user": "UUPF597H9",
        "text": "<@UUPF597H9> has joined the channel"
    },
    {
        "type": "message",
        "subtype": "channel_join",
        "ts": "1583714887.004100",
        "user": "UUS2G6N6M",
        "text": "<@UUS2G6N6M> has joined the channel"
    }
]