[
    {
        "type": "message",
        "subtype": "channel_join",
        "ts": "1583949522.000300",
        "user": "UUSMRLYH1",
        "text": "<@UUSMRLYH1> has joined the channel"
    },
    {
        "type": "message",
        "subtype": "channel_join",
        "ts": "1583949925.000500",
        "user": "UUPQGNNTV",
        "text": "<@UUPQGNNTV> has joined the channel"
    },
    {
        "type": "message",
        "subtype": "channel_join",
        "ts": "1583963772.000700",
        "user": "UV10KBUQG",
        "text": "<@UV10KBUQG> has joined the channel"
    }
]