[
    {
        "type": "message",
        "subtype": "channel_join",
        "ts": "1583740985.004300",
        "user": "UV1A22N3W",
        "text": "<@UV1A22N3W> has joined the channel"
    },
    {
        "type": "message",
        "subtype": "channel_join",
        "ts": "1583741302.004500",
        "user": "UURGMNE3T",
        "text": "<@UURGMNE3T> has joined the channel"
    },
    {
        "client_msg_id": "c126adf4-d370-4c7f-a527-094f4b36225b",
        "type": "message",
        "text": "Please contribute to \/ use this doc if you think this research is valuable to recreate: <https:\/\/jogl-covid-19.slack.com\/archives\/CUQ069HNX\/p1583612458000800>",
        "user": "UV3HA9MM4",
        "ts": "1583754702.005200",
        "team": "TUU48M0T1",
        "user_team": "TUU48M0T1",
        "source_team": "TUU48M0T1",
        "user_profile": {
            "avatar_hash": "b2f89757c831",
            "image_72": "https:\/\/avatars.slack-edge.com\/2020-03-07\/987455908032_b2f89757c8312ec04011_72.jpg",
            "first_name": "AJP",
            "real_name": "AJP",
            "display_name": "AJP",
            "team": "TUU48M0T1",
            "name": "bioajp",
            "is_restricted": false,
            "is_ultra_restricted": false
        },
        "attachments": [
            {
                "from_url": "https:\/\/jogl-covid-19.slack.com\/archives\/CUQ069HNX\/p1583612458000800",
                "fallback": "[March 7th, 2020 12:20 PM] bioajp: Open document for experiment here: <https:\/\/docs.google.com\/document\/d\/1VIaNY868xMUmFF2BfeJ8l1e7Mnx_6mVUfC5EkNdCa1M\/edit#>",
                "ts": "1583612458.000800",
                "author_id": "UV3HA9MM4",
                "author_subname": "AJP",
                "channel_id": "CUQ069HNX",
                "channel_name": "repro-jung2020feb-primer-comparison",
                "is_msg_unfurl": true,
                "text": "Open document for experiment here: <https:\/\/docs.google.com\/document\/d\/1VIaNY868xMUmFF2BfeJ8l1e7Mnx_6mVUfC5EkNdCa1M\/edit#>",
                "author_name": "AJP",
                "author_link": "https:\/\/jogl-covid-19.slack.com\/team\/UV3HA9MM4",
                "author_icon": "https:\/\/avatars.slack-edge.com\/2020-03-07\/987455908032_b2f89757c8312ec04011_48.jpg",
                "mrkdwn_in": [
                    "text"
                ],
                "id": 1,
                "original_url": "https:\/\/jogl-covid-19.slack.com\/archives\/CUQ069HNX\/p1583612458000800",
                "footer": "Posted in #repro-jung2020feb-primer-comparison"
            }
        ],
        "blocks": [
            {
                "type": "rich_text",
                "block_id": "Fle",
                "elements": [
                    {
                        "type": "rich_text_section",
                        "elements": [
                            {
                                "type": "text",
                                "text": "Please contribute to \/ use this doc if you think this research is valuable to recreate: "
                            },
                            {
                                "type": "link",
                                "url": "https:\/\/jogl-covid-19.slack.com\/archives\/CUQ069HNX\/p1583612458000800"
                            }
                        ]
                    }
                ]
            }
        ],
        "reactions": [
            {
                "name": "+1",
                "users": [
                    "UV20M5HGQ"
                ],
                "count": 1
            }
        ]
    },
    {
        "type": "message",
        "subtype": "channel_join",
        "ts": "1583764609.005500",
        "user": "UV20M5HGQ",
        "text": "<@UV20M5HGQ> has joined the channel",
        "reactions": [
            {
                "name": "wave",
                "users": [
                    "UV3HA9MM4"
                ],
                "count": 1
            }
        ]
    },
    {
        "type": "message",
        "subtype": "channel_join",
        "ts": "1583799603.005700",
        "user": "UV3746ST1",
        "text": "<@UV3746ST1> has joined the channel"
    }
]