[
    {
        "client_msg_id": "cf51279e-a6d3-4b88-9661-aa13c5bfe920",
        "type": "message",
        "text": "I haven't double checked the sequences, but I have a lot of experience with sequence-specific primer design and that is probably just fine to amplify even if it has 1nt mismatch because the mismatch is so far from the 3' growing end.  They might be trying to put that nt there for a reason, like a site for restriction enzyme cleavage.",
        "user": "U01181TG37X",
        "ts": "1586411759.004800",
        "team": "TUU48M0T1",
        "user_team": "TUU48M0T1",
        "source_team": "TUU48M0T1",
        "user_profile": {
            "avatar_hash": "gd289e036ea7",
            "image_72": "https:\/\/secure.gravatar.com\/avatar\/d289e036ea7edb5e2f513ff27eacc080.jpg?s=72&d=https%3A%2F%2Fa.slack-edge.com%2Fdf10d%2Fimg%2Favatars%2Fava_0006-72.png",
            "first_name": "",
            "real_name": "Mary Paniscus",
            "display_name": "Mary Paniscus",
            "team": "TUU48M0T1",
            "name": "marypaniscus",
            "is_restricted": false,
            "is_ultra_restricted": false
        },
        "blocks": [
            {
                "type": "rich_text",
                "block_id": "dVv0",
                "elements": [
                    {
                        "type": "rich_text_section",
                        "elements": [
                            {
                                "type": "text",
                                "text": "I haven't double checked the sequences, but I have a lot of experience with sequence-specific primer design and that is probably just fine to amplify even if it has 1nt mismatch because the mismatch is so far from the 3' growing end.  They might be trying to put that nt there for a reason, like a site for restriction enzyme cleavage."
                            }
                        ]
                    }
                ]
            }
        ],
        "thread_ts": "1584632533.023800",
        "parent_user_id": "UV20M5HGQ"
    },
    {
        "client_msg_id": "41da1e4b-f7a9-4455-ba7f-7252760e22a8",
        "type": "message",
        "text": "I worked in HLA typing diagnostics.",
        "user": "U01181TG37X",
        "ts": "1586411824.005000",
        "team": "TUU48M0T1",
        "user_team": "TUU48M0T1",
        "source_team": "TUU48M0T1",
        "user_profile": {
            "avatar_hash": "gd289e036ea7",
            "image_72": "https:\/\/secure.gravatar.com\/avatar\/d289e036ea7edb5e2f513ff27eacc080.jpg?s=72&d=https%3A%2F%2Fa.slack-edge.com%2Fdf10d%2Fimg%2Favatars%2Fava_0006-72.png",
            "first_name": "",
            "real_name": "Mary Paniscus",
            "display_name": "Mary Paniscus",
            "team": "TUU48M0T1",
            "name": "marypaniscus",
            "is_restricted": false,
            "is_ultra_restricted": false
        },
        "blocks": [
            {
                "type": "rich_text",
                "block_id": "gm1Cu",
                "elements": [
                    {
                        "type": "rich_text_section",
                        "elements": [
                            {
                                "type": "text",
                                "text": "I worked in HLA typing diagnostics."
                            }
                        ]
                    }
                ]
            }
        ],
        "thread_ts": "1585216110.000100",
        "parent_user_id": "UV02WET96"
    }
]