[
    {
        "type": "message",
        "text": "Sorry for the radio silence over the last few weeks. We're sourcing materials for building a large scale prototype generator and can advise on what you need to do for the process, but are also looking for assistance with coding controllers and finding some of the materials. The design as it stands is 2 stages, N2\/O2 separation, then O2\/Ar separation. Doing pressure swing to separate the latter is a different strategy than many current producers that use cryogenic separation at least for pure Ar streams.\nAll materials used in the O2\/Ar separation need to be cleaned to avoid explosive contamination from oils or diets in the line.  There are metal suppliers that sell N2 purged, cleaned copper and it's not much more expensive. <https:\/\/webstore.ansi.org\/Standards\/CGA\/CGA2018-1718351?source=blog|The guidelines for cleaning- if anyone wants to purchase- are here>.  You can also find <https:\/\/christensoncorporation.com\/projects\/1206\/Files\/Specs%20V2\/22%2061%2013%20Medical%20Gas%20Piping%20System.pdf|guidelines for medical installations here>.  We were able to find a local supplier for the cleaned pipe itself but not for the fittings like elbows and adapters.  The supplier of the adapters and pipe said the adapters are in very short supply so someone learning the cleaning methods would be useful to the community.\nI've added materials to the growing list of items for the build and <https:\/\/docs.google.com\/spreadsheets\/d\/1ej1c1Uv9czZ30jSucVv20ZePXrlXtcd0IcUXOlsgmk0\/edit?usp=sharing|that document is available here>.  Much of the steel pipe was cheaper locally, and schedule 10 316 is fine for the swing beds.  The pressure is only up to ~120psi and that tube is rated in the thousands.  There are different stages to the system:\n1. Compression: use oil-free air compressor to fill air storage tank.\n2. Cleaning: use sieves to remove water, CO2, and organics.\n3. N2\/O2 cycle: separate N2 and O2 from each other to obtain 95\/5 O2\/Ar stream for further separation.  N2 can also be stored for further purification or use.\n4. O2\/Ar cycle: the description of the swing system here is described in the attached paper.  Should produce a 99% O2 stream.\n5. High pressure storage: O2 produced can be stored in 2200psi tanks for mobile use.  The O2 compressor for this is the most expensive part of the system.  For our size system it is around $52,000.  I'm searching for additional manufacturers and suppliers of such compressors, or compressors at auction.",
        "files": [
            {
                "id": "F011QEVKB46",
                "created": 1586983652,
                "timestamp": 1586983652,
                "name": "rege2000.pdf",
                "title": "rege2000.pdf",
                "mimetype": "application\/pdf",
                "filetype": "pdf",
                "pretty_type": "PDF",
                "user": "UVADMLUB0",
                "editable": false,
                "size": 83916,
                "mode": "hosted",
                "is_external": false,
                "external_type": "",
                "is_public": true,
                "public_url_shared": false,
                "display_as_bot": false,
                "username": "",
                "url_private": "https:\/\/files.slack.com\/files-pri\/TUU48M0T1-F011QEVKB46\/rege2000.pdf?t=xoxe-980144714919-1133254701825-1120841107731-daf595b5a7d6c9028b0b02a925032e36",
                "url_private_download": "https:\/\/files.slack.com\/files-pri\/TUU48M0T1-F011QEVKB46\/download\/rege2000.pdf?t=xoxe-980144714919-1133254701825-1120841107731-daf595b5a7d6c9028b0b02a925032e36",
                "thumb_pdf": "https:\/\/files.slack.com\/files-tmb\/TUU48M0T1-F011QEVKB46-07f95b7cd5\/rege2000_thumb_pdf.png?t=xoxe-980144714919-1133254701825-1120841107731-daf595b5a7d6c9028b0b02a925032e36",
                "thumb_pdf_w": 909,
                "thumb_pdf_h": 1286,
                "permalink": "https:\/\/open-covid19.slack.com\/files\/UVADMLUB0\/F011QEVKB46\/rege2000.pdf",
                "permalink_public": "https:\/\/slack-files.com\/TUU48M0T1-F011QEVKB46-d89ffa3ea0",
                "is_starred": false,
                "has_rich_preview": false
            }
        ],
        "upload": true,
        "blocks": [
            {
                "type": "rich_text",
                "block_id": "VX3bb",
                "elements": [
                    {
                        "type": "rich_text_section",
                        "elements": [
                            {
                                "type": "text",
                                "text": "Sorry for the radio silence over the last few weeks. We're sourcing materials for building a large scale prototype generator and can advise on what you need to do for the process, but are also looking for assistance with coding controllers and finding some of the materials. The design as it stands is 2 stages, N2\/O2 separation, then O2\/Ar separation. Doing pressure swing to separate the latter is a different strategy than many current producers that use cryogenic separation at least for pure Ar streams.\nAll materials used in the O2\/Ar separation need to be cleaned to avoid explosive contamination from oils or diets in the line.  There are metal suppliers that sell N2 purged, cleaned copper and it's not much more expensive. "
                            },
                            {
                                "type": "link",
                                "url": "https:\/\/webstore.ansi.org\/Standards\/CGA\/CGA2018-1718351?source=blog",
                                "text": "The guidelines for cleaning- if anyone wants to purchase- are here"
                            },
                            {
                                "type": "text",
                                "text": ".  You can also find "
                            },
                            {
                                "type": "link",
                                "url": "https:\/\/christensoncorporation.com\/projects\/1206\/Files\/Specs%20V2\/22%2061%2013%20Medical%20Gas%20Piping%20System.pdf",
                                "text": "guidelines for medical installations here"
                            },
                            {
                                "type": "text",
                                "text": ".  We were able to find a local supplier for the cleaned pipe itself but not for the fittings like elbows and adapters.  The supplier of the adapters and pipe said the adapters are in very short supply so someone learning the cleaning methods would be useful to the community.\nI've added materials to the growing list of items for the build and "
                            },
                            {
                                "type": "link",
                                "url": "https:\/\/docs.google.com\/spreadsheets\/d\/1ej1c1Uv9czZ30jSucVv20ZePXrlXtcd0IcUXOlsgmk0\/edit?usp=sharing",
                                "text": "that document is available here"
                            },
                            {
                                "type": "text",
                                "text": ".  Much of the steel pipe was cheaper locally, and schedule 10 316 is fine for the swing beds.  The pressure is only up to ~120psi and that tube is rated in the thousands.  There are different stages to the system:\n"
                            }
                        ]
                    },
                    {
                        "type": "rich_text_list",
                        "style": "ordered",
                        "indent": 0,
                        "elements": [
                            {
                                "type": "rich_text_section",
                                "elements": [
                                    {
                                        "type": "text",
                                        "text": "Compression: use oil-free air compressor to fill air storage tank."
                                    }
                                ]
                            },
                            {
                                "type": "rich_text_section",
                                "elements": [
                                    {
                                        "type": "text",
                                        "text": "Cleaning: use sieves to remove water, CO2, and organics."
                                    }
                                ]
                            },
                            {
                                "type": "rich_text_section",
                                "elements": [
                                    {
                                        "type": "text",
                                        "text": "N2\/O2 cycle: separate N2 and O2 from each other to obtain 95\/5 O2\/Ar stream for further separation.  N2 can also be stored for further purification or use."
                                    }
                                ]
                            },
                            {
                                "type": "rich_text_section",
                                "elements": [
                                    {
                                        "type": "text",
                                        "text": "O2\/Ar cycle: the description of the swing system here is described in the attached paper.  Should produce a 99% O2 stream."
                                    }
                                ]
                            },
                            {
                                "type": "rich_text_section",
                                "elements": [
                                    {
                                        "type": "text",
                                        "text": "High pressure storage: O2 produced can be stored in 2200psi tanks for mobile use.  The O2 compressor for this is the most expensive part of the system.  For our size system it is around $52,000.  I'm searching for additional manufacturers and suppliers of such compressors, or compressors at auction."
                                    }
                                ]
                            }
                        ]
                    }
                ]
            }
        ],
        "user": "UVADMLUB0",
        "display_as_bot": false,
        "ts": "1586983654.021800",
        "edited": {
            "user": "UVADMLUB0",
            "ts": "1586984399.000000"
        },
        "client_msg_id": "c055ac5b-4107-4d0c-9bda-6a68a182222f"
    }
]