[
    {
        "type": "message",
        "subtype": "channel_join",
        "ts": "1583693851.000200",
        "user": "UUPFF4TC3",
        "text": "<@UUPFF4TC3> has joined the channel"
    },
    {
        "type": "message",
        "subtype": "channel_join",
        "ts": "1583695876.000200",
        "user": "UV0QTJCMT",
        "text": "<@UV0QTJCMT> has joined the channel"
    },
    {
        "type": "message",
        "subtype": "channel_join",
        "ts": "1583709744.000200",
        "user": "UUS2G6N6M",
        "text": "<@UUS2G6N6M> has joined the channel"
    },
    {
        "type": "message",
        "subtype": "channel_join",
        "ts": "1583712180.000400",
        "user": "UV1G2M821",
        "text": "<@UV1G2M821> has joined the channel"
    },
    {
        "type": "message",
        "subtype": "channel_join",
        "ts": "1583714769.000600",
        "user": "UUUEFQW8N",
        "text": "<@UUUEFQW8N> has joined the channel"
    }
]