[
    {
        "client_msg_id": "2d08b4e3-8bb7-4d31-83c1-06c2b30bdaec",
        "type": "message",
        "text": "Hey all, been a bit absent here. I've been helping out with organizing <https:\/\/www.coronawhy.org\/> around starting to work toward building a product for automated literature review. Discussion with their organizer: <https:\/\/www.youtube.com\/watch?v=McrqeLacpIQ&amp=&amp;feature=youtu.be>",
        "user": "U0104M5CWV9",
        "ts": "1587569882.000800",
        "team": "TUU48M0T1",
        "user_team": "TUU48M0T1",
        "source_team": "TUU48M0T1",
        "user_profile": {
            "avatar_hash": "g690df94d06f",
            "image_72": "https:\/\/secure.gravatar.com\/avatar\/690df94d06f11222b2bb4d765ee7ba52.jpg?s=72&d=https%3A%2F%2Fa.slack-edge.com%2Fdf10d%2Fimg%2Favatars%2Fava_0002-72.png",
            "first_name": "John",
            "real_name": "John Urbanik",
            "display_name": "John Urbanik",
            "team": "TUU48M0T1",
            "name": "johnurbanik",
            "is_restricted": false,
            "is_ultra_restricted": false
        },
        "attachments": [
            {
                "title": "Help Fight Coronavirus: COVID-19 Kaggle Team | CoronaWhy",
                "title_link": "https:\/\/www.coronawhy.org\/",
                "text": "Join our globally distributed, volunteer-powered research organisation. We're trying to assist the medical community’s ability to answer key questions related to COVID-19.",
                "fallback": "Help Fight Coronavirus: COVID-19 Kaggle Team | CoronaWhy",
                "thumb_url": "https:\/\/global-uploads.webflow.com\/5e729ef3ef0f906b804d4f27\/5e9d9c6619e8041bf8421468_coronawhy-white.png",
                "from_url": "https:\/\/www.coronawhy.org\/",
                "thumb_width": 1326,
                "thumb_height": 272,
                "service_name": "coronawhy.org",
                "id": 1,
                "original_url": "https:\/\/www.coronawhy.org\/"
            },
            {
                "service_name": "YouTube",
                "service_url": "https:\/\/www.youtube.com\/",
                "title": "#discovery-engine - Apr 18, 2020 - John &amp; Artur sync",
                "title_link": "https:\/\/www.youtube.com\/watch?v=McrqeLacpIQ&amp=&amp;feature=youtu.be",
                "author_name": "CoronaWhy",
                "author_link": "https:\/\/www.youtube.com\/channel\/UCEeuBPsfGE3fceAN3yL5Gig",
                "thumb_url": "https:\/\/i.ytimg.com\/vi\/McrqeLacpIQ\/hqdefault.jpg",
                "thumb_width": 480,
                "thumb_height": 360,
                "fallback": "YouTube Video: #discovery-engine - Apr 18, 2020 - John & Artur sync",
                "video_html": "<iframe width=\"400\" height=\"225\" src=\"https:\/\/www.youtube.com\/embed\/McrqeLacpIQ?feature=oembed&autoplay=1&iv_load_policy=3\" frameborder=\"0\" allow=\"accelerometer; autoplay; encrypted-media; gyroscope; picture-in-picture\" allowfullscreen><\/iframe>",
                "video_html_width": 400,
                "video_html_height": 225,
                "from_url": "https:\/\/www.youtube.com\/watch?v=McrqeLacpIQ&amp=&amp;feature=youtu.be",
                "service_icon": "https:\/\/a.slack-edge.com\/80588\/img\/unfurl_icons\/youtube.png",
                "id": 2,
                "original_url": "https:\/\/www.youtube.com\/watch?v=McrqeLacpIQ&amp=&amp;feature=youtu.be"
            }
        ],
        "blocks": [
            {
                "type": "rich_text",
                "block_id": "QEsuU",
                "elements": [
                    {
                        "type": "rich_text_section",
                        "elements": [
                            {
                                "type": "text",
                                "text": "Hey all, been a bit absent here. I've been helping out with organizing "
                            },
                            {
                                "type": "link",
                                "url": "https:\/\/www.coronawhy.org\/"
                            },
                            {
                                "type": "text",
                                "text": " around starting to work toward building a product for automated literature review. Discussion with their organizer: "
                            },
                            {
                                "type": "link",
                                "url": "https:\/\/www.youtube.com\/watch?v=McrqeLacpIQ&amp=&feature=youtu.be"
                            }
                        ]
                    }
                ]
            }
        ]
    },
    {
        "client_msg_id": "b8bd300b-e457-47c2-8788-e3219db2913c",
        "type": "message",
        "text": "Here's the spec that I wrote for their product: <https:\/\/docs.google.com\/document\/d\/1tJMIYMWDH9nt9vcNDTDVd494FNof4X8EZac6RzdTkQU\/edit>",
        "user": "U0104M5CWV9",
        "ts": "1587569918.001400",
        "team": "TUU48M0T1",
        "user_team": "TUU48M0T1",
        "source_team": "TUU48M0T1",
        "user_profile": {
            "avatar_hash": "g690df94d06f",
            "image_72": "https:\/\/secure.gravatar.com\/avatar\/690df94d06f11222b2bb4d765ee7ba52.jpg?s=72&d=https%3A%2F%2Fa.slack-edge.com%2Fdf10d%2Fimg%2Favatars%2Fava_0002-72.png",
            "first_name": "John",
            "real_name": "John Urbanik",
            "display_name": "John Urbanik",
            "team": "TUU48M0T1",
            "name": "johnurbanik",
            "is_restricted": false,
            "is_ultra_restricted": false
        },
        "blocks": [
            {
                "type": "rich_text",
                "block_id": "ZghN",
                "elements": [
                    {
                        "type": "rich_text_section",
                        "elements": [
                            {
                                "type": "text",
                                "text": "Here's the spec that I wrote for their product: "
                            },
                            {
                                "type": "link",
                                "url": "https:\/\/docs.google.com\/document\/d\/1tJMIYMWDH9nt9vcNDTDVd494FNof4X8EZac6RzdTkQU\/edit"
                            }
                        ]
                    }
                ]
            }
        ]
    },
    {
        "client_msg_id": "29c32777-e611-42f5-9a50-adbe80a706dd",
        "type": "message",
        "text": "I'm hopeful that outputs for this product will be useful for the blackboard architecture based product I am speccing out here: <https:\/\/github.com\/understand-covid\/epimodelingtoolkit\/tree\/master\/project%20planning\/data>, where epidemiologists could collaboratively work on estimates of parameters within a knowledge graph that provides tools for maintaining data harmony and a lot of other fun stuff.",
        "user": "U0104M5CWV9",
        "ts": "1587570010.003100",
        "team": "TUU48M0T1",
        "user_team": "TUU48M0T1",
        "source_team": "TUU48M0T1",
        "user_profile": {
            "avatar_hash": "g690df94d06f",
            "image_72": "https:\/\/secure.gravatar.com\/avatar\/690df94d06f11222b2bb4d765ee7ba52.jpg?s=72&d=https%3A%2F%2Fa.slack-edge.com%2Fdf10d%2Fimg%2Favatars%2Fava_0002-72.png",
            "first_name": "John",
            "real_name": "John Urbanik",
            "display_name": "John Urbanik",
            "team": "TUU48M0T1",
            "name": "johnurbanik",
            "is_restricted": false,
            "is_ultra_restricted": false
        },
        "blocks": [
            {
                "type": "rich_text",
                "block_id": "GIT8",
                "elements": [
                    {
                        "type": "rich_text_section",
                        "elements": [
                            {
                                "type": "text",
                                "text": "I'm hopeful that outputs for this product will be useful for the blackboard architecture based product I am speccing out here: "
                            },
                            {
                                "type": "link",
                                "url": "https:\/\/github.com\/understand-covid\/epimodelingtoolkit\/tree\/master\/project%20planning\/data"
                            },
                            {
                                "type": "text",
                                "text": ", where epidemiologists could collaboratively work on estimates of parameters within a knowledge graph that provides tools for maintaining data harmony and a lot of other fun stuff."
                            }
                        ]
                    }
                ]
            }
        ]
    },
    {
        "client_msg_id": "c847100b-4fc2-4f54-92ea-dec7dbddad4f",
        "type": "message",
        "text": "Epimodelingtoolkit is likely going to be moving toward building this product, so I may be renaming this project over the next week as I get some time to flesh things out a little more.",
        "user": "U0104M5CWV9",
        "ts": "1587570060.004300",
        "team": "TUU48M0T1",
        "user_team": "TUU48M0T1",
        "source_team": "TUU48M0T1",
        "user_profile": {
            "avatar_hash": "g690df94d06f",
            "image_72": "https:\/\/secure.gravatar.com\/avatar\/690df94d06f11222b2bb4d765ee7ba52.jpg?s=72&d=https%3A%2F%2Fa.slack-edge.com%2Fdf10d%2Fimg%2Favatars%2Fava_0002-72.png",
            "first_name": "John",
            "real_name": "John Urbanik",
            "display_name": "John Urbanik",
            "team": "TUU48M0T1",
            "name": "johnurbanik",
            "is_restricted": false,
            "is_ultra_restricted": false
        },
        "blocks": [
            {
                "type": "rich_text",
                "block_id": "jLv+P",
                "elements": [
                    {
                        "type": "rich_text_section",
                        "elements": [
                            {
                                "type": "text",
                                "text": "Epimodelingtoolkit is likely going to be moving toward building this product, so I may be renaming this project over the next week as I get some time to flesh things out a little more."
                            }
                        ]
                    }
                ]
            }
        ],
        "reactions": [
            {
                "name": "+1",
                "users": [
                    "UV85V64SD"
                ],
                "count": 1
            }
        ]
    },
    {
        "client_msg_id": "db701256-d91f-4db7-9eb9-af79135f288b",
        "type": "message",
        "text": "Hello <@UV85V64SD>, now we have a site <http:\/\/epidemicalk.softbutterfly.io|epidemicalk.softbutterfly.io>\nUser: <mailto:admin@example.com|admin@example.com>\nPass: 1qa2ws3ed4rf\nAs I said, it's open-source and provided by a nonprofit organization. Is this what the group looks for as tools or what we should add or remove.",
        "user": "U0115G1A03D",
        "ts": "1587612404.004700",
        "team": "TUU48M0T1",
        "user_team": "TUU48M0T1",
        "source_team": "TUU48M0T1",
        "user_profile": {
            "avatar_hash": "4daeacf08e50",
            "image_72": "https:\/\/avatars.slack-edge.com\/2020-04-04\/1038340161250_4daeacf08e50360875bc_72.png",
            "first_name": "",
            "real_name": "Pablo Díaz",
            "display_name": "Pablo Díaz",
            "team": "TUU48M0T1",
            "name": "pablo.diazv",
            "is_restricted": false,
            "is_ultra_restricted": false
        },
        "edited": {
            "user": "U0115G1A03D",
            "ts": "1587612483.000000"
        },
        "blocks": [
            {
                "type": "rich_text",
                "block_id": "h8Sn",
                "elements": [
                    {
                        "type": "rich_text_section",
                        "elements": [
                            {
                                "type": "text",
                                "text": "Hello "
                            },
                            {
                                "type": "user",
                                "user_id": "UV85V64SD"
                            },
                            {
                                "type": "text",
                                "text": ", now we have a site "
                            },
                            {
                                "type": "link",
                                "url": "http:\/\/epidemicalk.softbutterfly.io",
                                "text": "epidemicalk.softbutterfly.io"
                            },
                            {
                                "type": "text",
                                "text": "\nUser: "
                            },
                            {
                                "type": "link",
                                "url": "mailto:admin@example.com",
                                "text": "admin@example.com"
                            },
                            {
                                "type": "text",
                                "text": "\nPass: 1qa2ws3ed4rf\nAs I said, it's open-source and provided by a nonprofit organization. Is this what the group looks for as tools or what we should add or remove."
                            }
                        ]
                    }
                ]
            }
        ],
        "thread_ts": "1586994521.017600",
        "parent_user_id": "U0115G1A03D"
    }
]