[
    {
        "client_msg_id": "6a89de7b-550c-4b5f-8ec2-8ab8bd73c624",
        "type": "message",
        "text": "Hey <@U0101DKUALV>, this is great. <@U010B412MF1> actually sent me an email this weekend about it. It is a great opportunity to start working together and make things happen!\n<@U012G0X589F> , <@U010B412MF1>: <@U0101DKUALV> <@UVATPEW2W> <@U011D8T1Z61> are leading this student engagement initiative ; let's see what we can do together!",
        "user": "UV9V03C8Y",
        "ts": "1587382003.054600",
        "team": "TUU48M0T1",
        "user_team": "TUU48M0T1",
        "source_team": "TUU48M0T1",
        "user_profile": {
            "avatar_hash": "177697fb7b8f",
            "image_72": "https:\/\/avatars.slack-edge.com\/2020-03-12\/996126178096_177697fb7b8ffa57649c_72.jpg",
            "first_name": "Camille",
            "real_name": "Camille Masselot - JOGL Program coordinator",
            "display_name": "Camille Masselot - JOGL coordinator",
            "team": "TUU48M0T1",
            "name": "masselot.camille",
            "is_restricted": false,
            "is_ultra_restricted": false
        },
        "blocks": [
            {
                "type": "rich_text",
                "block_id": "IYpP",
                "elements": [
                    {
                        "type": "rich_text_section",
                        "elements": [
                            {
                                "type": "text",
                                "text": "Hey "
                            },
                            {
                                "type": "user",
                                "user_id": "U0101DKUALV"
                            },
                            {
                                "type": "text",
                                "text": ", this is great. "
                            },
                            {
                                "type": "user",
                                "user_id": "U010B412MF1"
                            },
                            {
                                "type": "text",
                                "text": " actually sent me an email this weekend about it. It is a great opportunity to start working together and make things happen!\n"
                            },
                            {
                                "type": "user",
                                "user_id": "U012G0X589F"
                            },
                            {
                                "type": "text",
                                "text": " , "
                            },
                            {
                                "type": "user",
                                "user_id": "U010B412MF1"
                            },
                            {
                                "type": "text",
                                "text": ": "
                            },
                            {
                                "type": "user",
                                "user_id": "U0101DKUALV"
                            },
                            {
                                "type": "text",
                                "text": " "
                            },
                            {
                                "type": "user",
                                "user_id": "UVATPEW2W"
                            },
                            {
                                "type": "text",
                                "text": " "
                            },
                            {
                                "type": "user",
                                "user_id": "U011D8T1Z61"
                            },
                            {
                                "type": "text",
                                "text": " are leading this student engagement initiative ; let's see what we can do together!"
                            }
                        ]
                    }
                ]
            }
        ],
        "reactions": [
            {
                "name": "heart",
                "users": [
                    "U011D8T1Z61",
                    "U0101DKUALV",
                    "U0103128G4D"
                ],
                "count": 3
            }
        ]
    },
    {
        "client_msg_id": "26009dbd-84d7-42c6-90d9-3376b9063eb8",
        "type": "message",
        "text": "Hi <@U0103LPAWQ4>, yes we do, here's the link: <https:\/\/open-covid19.slack.com\/archives\/C012G5T0EEM> and the name is <#C012G5T0EEM|proj-free-edu-webinars-viruses>",
        "user": "U012G0X589F",
        "ts": "1587385241.055400",
        "team": "TUU48M0T1",
        "user_team": "TUU48M0T1",
        "source_team": "TUU48M0T1",
        "user_profile": {
            "avatar_hash": "geedc4e2d6eb",
            "image_72": "https:\/\/secure.gravatar.com\/avatar\/eedc4e2d6eb67843d8dbd043fb8db9d7.jpg?s=72&d=https%3A%2F%2Fa.slack-edge.com%2Fdf10d%2Fimg%2Favatars%2Fava_0013-72.png",
            "first_name": "",
            "real_name": "Eugenia Covernton",
            "display_name": "Eugenia Covernton",
            "team": "TUU48M0T1",
            "name": "eugenia.covernton",
            "is_restricted": false,
            "is_ultra_restricted": false
        },
        "blocks": [
            {
                "type": "rich_text",
                "block_id": "ds6s",
                "elements": [
                    {
                        "type": "rich_text_section",
                        "elements": [
                            {
                                "type": "text",
                                "text": "Hi "
                            },
                            {
                                "type": "user",
                                "user_id": "U0103LPAWQ4"
                            },
                            {
                                "type": "text",
                                "text": ", yes we do, here's the link: "
                            },
                            {
                                "type": "link",
                                "url": "https:\/\/open-covid19.slack.com\/archives\/C012G5T0EEM"
                            },
                            {
                                "type": "text",
                                "text": " and the name is "
                            },
                            {
                                "type": "channel",
                                "channel_id": "C012G5T0EEM"
                            }
                        ]
                    }
                ]
            }
        ]
    },
    {
        "client_msg_id": "8f5429f6-e715-434e-87f6-3e55c63383ea",
        "type": "message",
        "text": "Thank you, <@UV9V03C8Y>. I would definitely be interested in collaborating with you on any projects regarding education and students engagement. I am a virologist myself, did a PhD in one of the leading labs in COVID-19 research at the Institut Pasteur in Paris and I am currently between jobs (i.e. with a lot of free time in my hands) and trying to get involved in science communication, education and outreach initiatives. If you have anything you'd like to discuss, please don't hesitate to contact me. You can also email me directly to <mailto:eugenia.covernton@gmail.com|eugenia.covernton@gmail.com> if you prefer.",
        "user": "U012G0X589F",
        "ts": "1587385911.063600",
        "team": "TUU48M0T1",
        "user_team": "TUU48M0T1",
        "source_team": "TUU48M0T1",
        "user_profile": {
            "avatar_hash": "geedc4e2d6eb",
            "image_72": "https:\/\/secure.gravatar.com\/avatar\/eedc4e2d6eb67843d8dbd043fb8db9d7.jpg?s=72&d=https%3A%2F%2Fa.slack-edge.com%2Fdf10d%2Fimg%2Favatars%2Fava_0013-72.png",
            "first_name": "",
            "real_name": "Eugenia Covernton",
            "display_name": "Eugenia Covernton",
            "team": "TUU48M0T1",
            "name": "eugenia.covernton",
            "is_restricted": false,
            "is_ultra_restricted": false
        },
        "blocks": [
            {
                "type": "rich_text",
                "block_id": "280i",
                "elements": [
                    {
                        "type": "rich_text_section",
                        "elements": [
                            {
                                "type": "text",
                                "text": "Thank you, "
                            },
                            {
                                "type": "user",
                                "user_id": "UV9V03C8Y"
                            },
                            {
                                "type": "text",
                                "text": ". I would definitely be interested in collaborating with you on any projects regarding education and students engagement. I am a virologist myself, did a PhD in one of the leading labs in COVID-19 research at the Institut Pasteur in Paris and I am currently between jobs (i.e. with a lot of free time in my hands) and trying to get involved in science communication, education and outreach initiatives. If you have anything you'd like to discuss, please don't hesitate to contact me. You can also email me directly to "
                            },
                            {
                                "type": "link",
                                "url": "mailto:eugenia.covernton@gmail.com",
                                "text": "eugenia.covernton@gmail.com"
                            },
                            {
                                "type": "text",
                                "text": " if you prefer."
                            }
                        ]
                    }
                ]
            }
        ],
        "thread_ts": "1587385911.063600",
        "reply_count": 2,
        "reply_users_count": 2,
        "latest_reply": "1587387560.063900",
        "reply_users": [
            "UV9V03C8Y",
            "U012G0X589F"
        ],
        "replies": [
            {
                "user": "UV9V03C8Y",
                "ts": "1587386501.063700"
            },
            {
                "user": "U012G0X589F",
                "ts": "1587387560.063900"
            }
        ],
        "subscribed": false
    },
    {
        "client_msg_id": "39e511eb-616f-4277-9d38-9cc9bd284e4b",
        "type": "message",
        "text": "Hi <@U012G0X589F>! This is great! We're lucky to have you here! Let's see where this project is going and plan a call soon! I think it would also be nice for you to be linked to the communication team as well as science communication is one of your interest!",
        "user": "UV9V03C8Y",
        "ts": "1587386501.063700",
        "team": "TUU48M0T1",
        "user_team": "TUU48M0T1",
        "source_team": "TUU48M0T1",
        "user_profile": {
            "avatar_hash": "177697fb7b8f",
            "image_72": "https:\/\/avatars.slack-edge.com\/2020-03-12\/996126178096_177697fb7b8ffa57649c_72.jpg",
            "first_name": "Camille",
            "real_name": "Camille Masselot - JOGL Program coordinator",
            "display_name": "Camille Masselot - JOGL coordinator",
            "team": "TUU48M0T1",
            "name": "masselot.camille",
            "is_restricted": false,
            "is_ultra_restricted": false
        },
        "blocks": [
            {
                "type": "rich_text",
                "block_id": "uR=XE",
                "elements": [
                    {
                        "type": "rich_text_section",
                        "elements": [
                            {
                                "type": "text",
                                "text": "Hi "
                            },
                            {
                                "type": "user",
                                "user_id": "U012G0X589F"
                            },
                            {
                                "type": "text",
                                "text": "! This is great! We're lucky to have you here! Let's see where this project is going and plan a call soon! I think it would also be nice for you to be linked to the communication team as well as science communication is one of your interest!"
                            }
                        ]
                    }
                ]
            }
        ],
        "thread_ts": "1587385911.063600",
        "parent_user_id": "U012G0X589F"
    },
    {
        "client_msg_id": "e6987ac6-87f1-4a58-8c81-c78f5ba5b4f5",
        "type": "message",
        "text": "Sure! I'd be happy to discuss it further. Thanks!",
        "user": "U012G0X589F",
        "ts": "1587387560.063900",
        "team": "TUU48M0T1",
        "user_team": "TUU48M0T1",
        "source_team": "TUU48M0T1",
        "user_profile": {
            "avatar_hash": "geedc4e2d6eb",
            "image_72": "https:\/\/secure.gravatar.com\/avatar\/eedc4e2d6eb67843d8dbd043fb8db9d7.jpg?s=72&d=https%3A%2F%2Fa.slack-edge.com%2Fdf10d%2Fimg%2Favatars%2Fava_0013-72.png",
            "first_name": "",
            "real_name": "Eugenia Covernton",
            "display_name": "Eugenia Covernton",
            "team": "TUU48M0T1",
            "name": "eugenia.covernton",
            "is_restricted": false,
            "is_ultra_restricted": false
        },
        "blocks": [
            {
                "type": "rich_text",
                "block_id": "x7zwj",
                "elements": [
                    {
                        "type": "rich_text_section",
                        "elements": [
                            {
                                "type": "text",
                                "text": "Sure! I'd be happy to discuss it further. Thanks!"
                            }
                        ]
                    }
                ]
            }
        ],
        "thread_ts": "1587385911.063600",
        "parent_user_id": "U012G0X589F"
    },
    {
        "client_msg_id": "1076e6b0-f047-4dda-a9ab-2e7a77d93cc9",
        "type": "message",
        "text": "Hi all-- resharing here after <@U0101DKUALV> kindly pointed me to this channel. Are you a student or grad who has been stimulated into pursuing further studies by the experience of OpenCOVID19 initiatives? Check out the University of Illinois Urbana-Champaign *MS in Health Technology*! Accepting applications for Fall 2020 and *scholarships* are available. Open to all majors.\n\nFor more information or to sign up for an info session: <https:\/\/ahs.illinois.edu\/ht-overview>\n\nEmail <mailto:healthtech@illinois.edu|healthtech@illinois.edu> for more information!",
        "user": "U0104DUJQPP",
        "ts": "1587416932.064900",
        "team": "TUU48M0T1",
        "user_team": "TUU48M0T1",
        "source_team": "TUU48M0T1",
        "user_profile": {
            "avatar_hash": "g06bc9c0ea00",
            "image_72": "https:\/\/secure.gravatar.com\/avatar\/06bc9c0ea009323b5f0a44e42d5d27d3.jpg?s=72&d=https%3A%2F%2Fa.slack-edge.com%2Fdf10d%2Fimg%2Favatars%2Fava_0010-72.png",
            "first_name": "",
            "real_name": "Christopher Khoury",
            "display_name": "Christopher Khoury",
            "team": "TUU48M0T1",
            "name": "christopher.khoury",
            "is_restricted": false,
            "is_ultra_restricted": false
        },
        "blocks": [
            {
                "type": "rich_text",
                "block_id": "EcR",
                "elements": [
                    {
                        "type": "rich_text_section",
                        "elements": [
                            {
                                "type": "text",
                                "text": "Hi all-- resharing here after "
                            },
                            {
                                "type": "user",
                                "user_id": "U0101DKUALV"
                            },
                            {
                                "type": "text",
                                "text": " kindly pointed me to this channel. Are you a student or grad who has been stimulated into pursuing further studies by the experience of OpenCOVID19 initiatives? Check out the University of Illinois Urbana-Champaign "
                            },
                            {
                                "type": "text",
                                "text": "MS in Health Technology",
                                "style": {
                                    "bold": true
                                }
                            },
                            {
                                "type": "text",
                                "text": "! Accepting applications for Fall 2020 and "
                            },
                            {
                                "type": "text",
                                "text": "scholarships",
                                "style": {
                                    "bold": true
                                }
                            },
                            {
                                "type": "text",
                                "text": " are available. Open to all majors.\n\nFor more information or to sign up for an info session: "
                            },
                            {
                                "type": "link",
                                "url": "https:\/\/ahs.illinois.edu\/ht-overview"
                            },
                            {
                                "type": "text",
                                "text": "\n\nEmail "
                            },
                            {
                                "type": "link",
                                "url": "mailto:healthtech@illinois.edu",
                                "text": "healthtech@illinois.edu"
                            },
                            {
                                "type": "text",
                                "text": " for more information!"
                            }
                        ]
                    }
                ]
            }
        ],
        "reactions": [
            {
                "name": "+1",
                "users": [
                    "U011D8T1Z61"
                ],
                "count": 1
            }
        ]
    },
    {
        "client_msg_id": "a41a52c4-2f29-42f6-b295-a4f56576584d",
        "type": "message",
        "text": "Hi <!channel> - I just wanted to reintroduce the Mental Health Project Channel: <https:\/\/open-covid19.slack.com\/archives\/C0114C2L1SP> on here -- And that we are still looking for:  (Volunteer)\n\n• Behavioral Scientists: To do Behavioral Surveys and consult. ( am a behavioral scientist)\n• Psychologists (3-4): To help list out the practical written assets\/content to share in real time. \n• AI Developers (1-2) (AI = Artificial Intelligence)\n• Website Developers (1-2)\n• Social Media Manager (1) \nThis is to develop an AI-emotion based app that works in real-time that helps those experiencing anxiety, depression and mental health concerns and gives them real-time solutions to their problems.\n\nAfter we get these people in place -we will also apply for the seed funding application here with OpenCovid19 - which is pretty awesome! Our timelines is: As fast as possible! - We want to get this app in hands as quick as we can.\n\nAwesome, thanks to all who have already joined and are willing to be a part - this could quite help literally save lives.\n------------------------------\nAlso, <@U010W4KTANM> and I are working together to provide a weekly wellness hour, where you can join to get some self-care, meditation, practical behavioral science researched actions and etc.",
        "user": "U011D6K9RH6",
        "ts": "1587427850.072100",
        "team": "TUU48M0T1",
        "user_team": "TUU48M0T1",
        "source_team": "TUU48M0T1",
        "user_profile": {
            "avatar_hash": "85c5155708e4",
            "image_72": "https:\/\/avatars.slack-edge.com\/2020-04-02\/1033600589794_85c5155708e4e6cfa61f_72.jpg",
            "first_name": "George",
            "real_name": "George Elerick",
            "display_name": "George Elerick",
            "team": "TUU48M0T1",
            "name": "george",
            "is_restricted": false,
            "is_ultra_restricted": false
        },
        "blocks": [
            {
                "type": "rich_text",
                "block_id": "F1Fn",
                "elements": [
                    {
                        "type": "rich_text_section",
                        "elements": [
                            {
                                "type": "text",
                                "text": "Hi "
                            },
                            {
                                "type": "broadcast",
                                "range": "channel"
                            },
                            {
                                "type": "text",
                                "text": " - I just wanted to reintroduce the Mental Health Project Channel: "
                            },
                            {
                                "type": "link",
                                "url": "https:\/\/open-covid19.slack.com\/archives\/C0114C2L1SP"
                            },
                            {
                                "type": "text",
                                "text": " on here -- And that we are still looking for:  (Volunteer)\n\n"
                            }
                        ]
                    },
                    {
                        "type": "rich_text_list",
                        "elements": [
                            {
                                "type": "rich_text_section",
                                "elements": [
                                    {
                                        "type": "text",
                                        "text": "Behavioral Scientists: To do Behavioral Surveys and consult. ( am a behavioral scientist)"
                                    }
                                ]
                            },
                            {
                                "type": "rich_text_section",
                                "elements": [
                                    {
                                        "type": "text",
                                        "text": "Psychologists (3-4): To help list out the practical written assets\/content to share in real time. "
                                    }
                                ]
                            },
                            {
                                "type": "rich_text_section",
                                "elements": [
                                    {
                                        "type": "text",
                                        "text": "AI Developers (1-2) (AI = Artificial Intelligence)"
                                    }
                                ]
                            },
                            {
                                "type": "rich_text_section",
                                "elements": [
                                    {
                                        "type": "text",
                                        "text": "Website Developers (1-2)"
                                    }
                                ]
                            },
                            {
                                "type": "rich_text_section",
                                "elements": [
                                    {
                                        "type": "text",
                                        "text": "Social Media Manager (1) "
                                    }
                                ]
                            }
                        ],
                        "style": "bullet",
                        "indent": 0
                    },
                    {
                        "type": "rich_text_section",
                        "elements": [
                            {
                                "type": "text",
                                "text": "\nThis is to develop an AI-emotion based app that works in real-time that helps those experiencing anxiety, depression and mental health concerns and gives them real-time solutions to their problems.\n\nAfter we get these people in place -we will also apply for the seed funding application here with OpenCovid19 - which is pretty awesome! Our timelines is: As fast as possible! - We want to get this app in hands as quick as we can.\n\nAwesome, thanks to all who have already joined and are willing to be a part - this could quite help literally save lives.\n------------------------------\nAlso, "
                            },
                            {
                                "type": "user",
                                "user_id": "U010W4KTANM"
                            },
                            {
                                "type": "text",
                                "text": " and I are working together to provide a weekly wellness hour, where you can join to get some self-care, meditation, practical behavioral science researched actions and etc."
                            }
                        ]
                    }
                ]
            }
        ],
        "reactions": [
            {
                "name": "+1",
                "users": [
                    "U011D8T1Z61",
                    "U0101DKUALV",
                    "U010AGDDEBZ"
                ],
                "count": 3
            }
        ]
    }
]