[
    {
        "client_msg_id": "9d32dba2-2fac-4006-8d62-e91678a10018",
        "type": "message",
        "text": "Hello everyone, I am a grad student here, what are we working on?",
        "user": "U0108GQLD0T",
        "ts": "1586738899.003400",
        "team": "TUU48M0T1",
        "user_team": "TUU48M0T1",
        "source_team": "TUU48M0T1",
        "user_profile": {
            "avatar_hash": "ge00d6f0879e",
            "image_72": "https:\/\/secure.gravatar.com\/avatar\/e00d6f0879e386e9f1d4a2b5e37f655e.jpg?s=72&d=https%3A%2F%2Fa.slack-edge.com%2Fdf10d%2Fimg%2Favatars%2Fava_0018-72.png",
            "first_name": "",
            "real_name": "Benjamin Akin",
            "display_name": "Benjamin Akin",
            "team": "TUU48M0T1",
            "name": "ben_akin",
            "is_restricted": false,
            "is_ultra_restricted": false
        },
        "blocks": [
            {
                "type": "rich_text",
                "block_id": "X47H",
                "elements": [
                    {
                        "type": "rich_text_section",
                        "elements": [
                            {
                                "type": "text",
                                "text": "Hello everyone, I am a grad student here, what are we working on?"
                            }
                        ]
                    }
                ]
            }
        ],
        "thread_ts": "1586738899.003400",
        "reply_count": 1,
        "reply_users_count": 1,
        "latest_reply": "1586743238.003500",
        "reply_users": [
            "U0101DKUALV"
        ],
        "replies": [
            {
                "user": "U0101DKUALV",
                "ts": "1586743238.003500"
            }
        ],
        "subscribed": false
    },
    {
        "client_msg_id": "3e9b1055-caab-4b20-b018-1f6231656883",
        "type": "message",
        "text": "Hello, Benjamin! Welcome to the channel!\n\nCurrently, we are meeting to determine what kind of projects we would like to start through the channel, and we are open to any suggestions that you have in mind!\n\nIn the meantime, feel free to use this platform as a means to connect with other students or projects. I should hopefully have an intro thread pinned to this channel soon!",
        "user": "U0101DKUALV",
        "ts": "1586743238.003500",
        "team": "TUU48M0T1",
        "user_team": "TUU48M0T1",
        "source_team": "TUU48M0T1",
        "user_profile": {
            "avatar_hash": "b0aee06ed3e5",
            "image_72": "https:\/\/avatars.slack-edge.com\/2020-04-22\/1072886325190_b0aee06ed3e501ebdf56_72.png",
            "first_name": "",
            "real_name": "Pauline Chane",
            "display_name": "Pauline Chane",
            "team": "TUU48M0T1",
            "name": "pauline.chane",
            "is_restricted": false,
            "is_ultra_restricted": false
        },
        "blocks": [
            {
                "type": "rich_text",
                "block_id": "OmtN",
                "elements": [
                    {
                        "type": "rich_text_section",
                        "elements": [
                            {
                                "type": "text",
                                "text": "Hello, Benjamin! Welcome to the channel!\n\nCurrently, we are meeting to determine what kind of projects we would like to start through the channel, and we are open to any suggestions that you have in mind!\n\nIn the meantime, feel free to use this platform as a means to connect with other students or projects. I should hopefully have an intro thread pinned to this channel soon!"
                            }
                        ]
                    }
                ]
            }
        ],
        "thread_ts": "1586738899.003400",
        "parent_user_id": "U0108GQLD0T"
    },
    {
        "type": "message",
        "text": "Let's get the ball rolling!\n\n*Students and recent graduates,* please feel free to introduce yourself in this thread!\n\n_If you are looking to connect to a project,_ _please include your background and interests so that *project*, *program*, and *challenge* leaders can best reach out to you!_",
        "files": [
            {
                "id": "F011PP4V2EP",
                "created": 1586745996,
                "timestamp": 1586745996,
                "name": "prgm student engagment introductions.png",
                "title": "prgm student engagment introductions.png",
                "mimetype": "image\/png",
                "filetype": "png",
                "pretty_type": "PNG",
                "user": "U0101DKUALV",
                "editable": false,
                "size": 245019,
                "mode": "hosted",
                "is_external": false,
                "external_type": "",
                "is_public": true,
                "public_url_shared": false,
                "display_as_bot": false,
                "username": "",
                "url_private": "https:\/\/files.slack.com\/files-pri\/TUU48M0T1-F011PP4V2EP\/prgm_student_engagment_introductions.png?t=xoxe-980144714919-1133254701825-1120841107731-daf595b5a7d6c9028b0b02a925032e36",
                "url_private_download": "https:\/\/files.slack.com\/files-pri\/TUU48M0T1-F011PP4V2EP\/download\/prgm_student_engagment_introductions.png?t=xoxe-980144714919-1133254701825-1120841107731-daf595b5a7d6c9028b0b02a925032e36",
                "thumb_64": "https:\/\/files.slack.com\/files-tmb\/TUU48M0T1-F011PP4V2EP-028572365a\/prgm_student_engagment_introductions_64.png?t=xoxe-980144714919-1133254701825-1120841107731-daf595b5a7d6c9028b0b02a925032e36",
                "thumb_80": "https:\/\/files.slack.com\/files-tmb\/TUU48M0T1-F011PP4V2EP-028572365a\/prgm_student_engagment_introductions_80.png?t=xoxe-980144714919-1133254701825-1120841107731-daf595b5a7d6c9028b0b02a925032e36",
                "thumb_360": "https:\/\/files.slack.com\/files-tmb\/TUU48M0T1-F011PP4V2EP-028572365a\/prgm_student_engagment_introductions_360.png?t=xoxe-980144714919-1133254701825-1120841107731-daf595b5a7d6c9028b0b02a925032e36",
                "thumb_360_w": 360,
                "thumb_360_h": 208,
                "thumb_480": "https:\/\/files.slack.com\/files-tmb\/TUU48M0T1-F011PP4V2EP-028572365a\/prgm_student_engagment_introductions_480.png?t=xoxe-980144714919-1133254701825-1120841107731-daf595b5a7d6c9028b0b02a925032e36",
                "thumb_480_w": 480,
                "thumb_480_h": 278,
                "thumb_160": "https:\/\/files.slack.com\/files-tmb\/TUU48M0T1-F011PP4V2EP-028572365a\/prgm_student_engagment_introductions_160.png?t=xoxe-980144714919-1133254701825-1120841107731-daf595b5a7d6c9028b0b02a925032e36",
                "image_exif_rotation": 1,
                "original_w": 640,
                "original_h": 370,
                "permalink": "https:\/\/open-covid19.slack.com\/files\/U0101DKUALV\/F011PP4V2EP\/prgm_student_engagment_introductions.png",
                "permalink_public": "https:\/\/slack-files.com\/TUU48M0T1-F011PP4V2EP-17d9e22caf",
                "is_starred": false,
                "has_rich_preview": false
            }
        ],
        "upload": true,
        "blocks": [
            {
                "type": "rich_text",
                "block_id": "nBG",
                "elements": [
                    {
                        "type": "rich_text_section",
                        "elements": [
                            {
                                "type": "text",
                                "text": "Let's get the ball rolling!\n\n"
                            },
                            {
                                "type": "text",
                                "text": "Students and recent graduates, ",
                                "style": {
                                    "bold": true
                                }
                            },
                            {
                                "type": "text",
                                "text": "please feel free to introduce yourself in this thread!\n\n"
                            },
                            {
                                "type": "text",
                                "text": "If you are looking to connect to a project,",
                                "style": {
                                    "italic": true
                                }
                            },
                            {
                                "type": "text",
                                "text": " "
                            },
                            {
                                "type": "text",
                                "text": "please include your background and interests so that ",
                                "style": {
                                    "italic": true
                                }
                            },
                            {
                                "type": "text",
                                "text": "project",
                                "style": {
                                    "bold": true,
                                    "italic": true
                                }
                            },
                            {
                                "type": "text",
                                "text": ",",
                                "style": {
                                    "italic": true
                                }
                            },
                            {
                                "type": "text",
                                "text": " program",
                                "style": {
                                    "bold": true,
                                    "italic": true
                                }
                            },
                            {
                                "type": "text",
                                "text": ", and ",
                                "style": {
                                    "italic": true
                                }
                            },
                            {
                                "type": "text",
                                "text": "challenge",
                                "style": {
                                    "bold": true,
                                    "italic": true
                                }
                            },
                            {
                                "type": "text",
                                "text": " leaders can best reach out to you!",
                                "style": {
                                    "italic": true
                                }
                            }
                        ]
                    }
                ]
            }
        ],
        "user": "U0101DKUALV",
        "display_as_bot": false,
        "ts": "1586746000.006600",
        "client_msg_id": "d14919a9-0c6e-4651-b1c2-8059115e63ac",
        "thread_ts": "1586746000.006600",
        "reply_count": 1,
        "reply_users_count": 1,
        "latest_reply": "1586810848.021100",
        "reply_users": [
            "U01020789CK"
        ],
        "replies": [
            {
                "user": "U01020789CK",
                "ts": "1586810848.021100"
            }
        ],
        "subscribed": false,
        "reactions": [
            {
                "name": "bowtie",
                "users": [
                    "U011R307NH3"
                ],
                "count": 1
            }
        ]
    },
    {
        "type": "message",
        "subtype": "channel_join",
        "ts": "1586750313.007100",
        "user": "U011CNRLYDV",
        "text": "<@U011CNRLYDV> has joined the channel",
        "inviter": "U0104M5CWV9"
    }
]