[
    {
        "type": "message",
        "subtype": "channel_join",
        "ts": "1589291369.000200",
        "user": "U011B6VLM2A",
        "text": "<@U011B6VLM2A> has joined the channel"
    },
    {
        "type": "message",
        "text": ":wave:Hi everyone! We’re looking to gather more regular updates from project teams, so as to better follow the impact of the OpenCovid19 initiative.\n:mega:<@UVA46RKLY> — *could you please add a few sentences of project updates from your JOGL project page on <http:\/\/jogl.io|jogl.io> (if you have one!),* and also to the agenda for tomorrow’s Global Community Call?  \n<https:\/\/docs.google.com\/document\/d\/1zSdRSHncDgurw4h_AJeydJARJJ2ndOgiVvZyZOsu0DI\/edit>",
        "files": [
            {
                "id": "F0146F0C796",
                "created": 1589290869,
                "timestamp": 1589290869,
                "name": "2020-05-13 Eleventh Global Community Call - OpenCovid19",
                "title": "2020-05-13 Eleventh Global Community Call - OpenCovid19",
                "mimetype": "application\/vnd.google-apps.document",
                "filetype": "gdoc",
                "pretty_type": "GSuite Document",
                "user": "U011B6VLM2A",
                "editable": false,
                "size": 2375,
                "mode": "external",
                "is_external": true,
                "external_type": "gdrive",
                "is_public": true,
                "public_url_shared": false,
                "display_as_bot": false,
                "username": "",
                "url_private": "https:\/\/docs.google.com\/document\/d\/1zSdRSHncDgurw4h_AJeydJARJJ2ndOgiVvZyZOsu0DI\/edit",
                "thumb_64": "https:\/\/files.slack.com\/files-tmb\/TUU48M0T1-F0146F0C796-7323c64edb\/2020-05-13_eleventh_global_community_call_-_opencovid19_64.png?t=xoxe-980144714919-1133254701825-1120841107731-daf595b5a7d6c9028b0b02a925032e36",
                "thumb_80": "https:\/\/files.slack.com\/files-tmb\/TUU48M0T1-F0146F0C796-7323c64edb\/2020-05-13_eleventh_global_community_call_-_opencovid19_80.png?t=xoxe-980144714919-1133254701825-1120841107731-daf595b5a7d6c9028b0b02a925032e36",
                "thumb_360": "https:\/\/files.slack.com\/files-tmb\/TUU48M0T1-F0146F0C796-7323c64edb\/2020-05-13_eleventh_global_community_call_-_opencovid19_360.png?t=xoxe-980144714919-1133254701825-1120841107731-daf595b5a7d6c9028b0b02a925032e36",
                "thumb_360_w": 278,
                "thumb_360_h": 360,
                "thumb_480": "https:\/\/files.slack.com\/files-tmb\/TUU48M0T1-F0146F0C796-7323c64edb\/2020-05-13_eleventh_global_community_call_-_opencovid19_480.png?t=xoxe-980144714919-1133254701825-1120841107731-daf595b5a7d6c9028b0b02a925032e36",
                "thumb_480_w": 371,
                "thumb_480_h": 480,
                "thumb_160": "https:\/\/files.slack.com\/files-tmb\/TUU48M0T1-F0146F0C796-7323c64edb\/2020-05-13_eleventh_global_community_call_-_opencovid19_160.png?t=xoxe-980144714919-1133254701825-1120841107731-daf595b5a7d6c9028b0b02a925032e36",
                "thumb_720": "https:\/\/files.slack.com\/files-tmb\/TUU48M0T1-F0146F0C796-7323c64edb\/2020-05-13_eleventh_global_community_call_-_opencovid19_720.png?t=xoxe-980144714919-1133254701825-1120841107731-daf595b5a7d6c9028b0b02a925032e36",
                "thumb_720_w": 557,
                "thumb_720_h": 720,
                "thumb_800": "https:\/\/files.slack.com\/files-tmb\/TUU48M0T1-F0146F0C796-7323c64edb\/2020-05-13_eleventh_global_community_call_-_opencovid19_800.png?t=xoxe-980144714919-1133254701825-1120841107731-daf595b5a7d6c9028b0b02a925032e36",
                "thumb_800_w": 800,
                "thumb_800_h": 1035,
                "thumb_960": "https:\/\/files.slack.com\/files-tmb\/TUU48M0T1-F0146F0C796-7323c64edb\/2020-05-13_eleventh_global_community_call_-_opencovid19_960.png?t=xoxe-980144714919-1133254701825-1120841107731-daf595b5a7d6c9028b0b02a925032e36",
                "thumb_960_w": 742,
                "thumb_960_h": 960,
                "thumb_1024": "https:\/\/files.slack.com\/files-tmb\/TUU48M0T1-F0146F0C796-7323c64edb\/2020-05-13_eleventh_global_community_call_-_opencovid19_1024.png?t=xoxe-980144714919-1133254701825-1120841107731-daf595b5a7d6c9028b0b02a925032e36",
                "thumb_1024_w": 791,
                "thumb_1024_h": 1024,
                "image_exif_rotation": 1,
                "original_w": 800,
                "original_h": 1035,
                "thumb_tiny": "AwAwACXTppkQEgsAR156Upz2xUZxuJ2LnuaAJNy\/3h+dKCD0NRFuPurTlJx8oH50APooooAQkDrTTg9M\/lTm6UzC+poANp9T+VPA470gYDvmlBzQAtFFFACN0poz6GnkZpNgHQUAGf8AZNLSbR7\/AJ0tABRRRQB\/\/9k=",
                "permalink": "https:\/\/open-covid19.slack.com\/files\/U011B6VLM2A\/F0146F0C796\/2020-05-13_eleventh_global_community_call_-_opencovid19",
                "is_starred": false,
                "external_id": "1zSdRSHncDgurw4h_AJeydJARJJ2ndOgiVvZyZOsu0DI",
                "external_url": "https:\/\/docs.google.com\/document\/d\/1zSdRSHncDgurw4h_AJeydJARJJ2ndOgiVvZyZOsu0DI\/edit",
                "has_rich_preview": true
            }
        ],
        "upload": false,
        "blocks": [
            {
                "type": "rich_text",
                "block_id": "ITcRp",
                "elements": [
                    {
                        "type": "rich_text_section",
                        "elements": [
                            {
                                "type": "emoji",
                                "name": "wave"
                            },
                            {
                                "type": "text",
                                "text": "Hi everyone! We’re looking to gather more regular updates from project teams, so as to better follow the impact of the OpenCovid19 initiative.\n"
                            },
                            {
                                "type": "emoji",
                                "name": "mega"
                            },
                            {
                                "type": "user",
                                "user_id": "UVA46RKLY"
                            },
                            {
                                "type": "text",
                                "text": " — "
                            },
                            {
                                "type": "text",
                                "text": "could you please add a few sentences of project updates from your JOGL project page on ",
                                "style": {
                                    "bold": true
                                }
                            },
                            {
                                "type": "link",
                                "url": "http:\/\/jogl.io",
                                "text": "jogl.io",
                                "style": {
                                    "bold": true
                                }
                            },
                            {
                                "type": "text",
                                "text": " (if you have one!), ",
                                "style": {
                                    "bold": true
                                }
                            },
                            {
                                "type": "text",
                                "text": "and also to the agenda for tomorrow’s Global Community Call? "
                            },
                            {
                                "type": "text",
                                "text": " ",
                                "style": {
                                    "bold": true
                                }
                            },
                            {
                                "type": "text",
                                "text": "\n"
                            },
                            {
                                "type": "link",
                                "url": "https:\/\/docs.google.com\/document\/d\/1zSdRSHncDgurw4h_AJeydJARJJ2ndOgiVvZyZOsu0DI\/edit"
                            }
                        ]
                    }
                ]
            }
        ],
        "user": "U011B6VLM2A",
        "display_as_bot": false,
        "x_files": [
            "F0146F0C796"
        ],
        "ts": "1589291398.000700",
        "client_msg_id": "f3e0bb0b-f6ef-41e8-a401-259b0b4f49e0"
    }
]