[
    {
        "type": "message",
        "subtype": "channel_join",
        "ts": "1584592545.000200",
        "user": "UVA46RKLY",
        "text": "<@UVA46RKLY> has joined the channel"
    },
    {
        "type": "message",
        "subtype": "channel_purpose",
        "ts": "1584592545.000300",
        "user": "UVA46RKLY",
        "text": "<@UVA46RKLY> set the channel purpose: This channel is dedicated to mass spectrometry based detection methods for viruses",
        "purpose": "This channel is dedicated to mass spectrometry based detection methods for viruses"
    }
]