[
    {
        "client_msg_id": "6d7187ae-68a9-4346-a730-5c3d79363f71",
        "type": "message",
        "text": "Hello dear scientists, we have published our treatment method yet. <https:\/\/app.jogl.io\/project\/232> we need your feedback as much as we need to hire talents too. Thank you for your time.",
        "user": "U0131T9QYKD",
        "ts": "1588738769.095400",
        "team": "TUU48M0T1",
        "user_team": "TUU48M0T1",
        "source_team": "TUU48M0T1",
        "user_profile": {
            "avatar_hash": "e21e4f400eea",
            "image_72": "https:\/\/avatars.slack-edge.com\/2020-05-05\/1127556484928_e21e4f400eea61ae6fb4_72.jpg",
            "first_name": "",
            "real_name": "mert atakan",
            "display_name": "mert atakan",
            "team": "TUU48M0T1",
            "name": "mertatakan53",
            "is_restricted": false,
            "is_ultra_restricted": false
        },
        "attachments": [
            {
                "service_name": "JOGL - Just One Giant Lab",
                "title": "Treater | JOGL",
                "title_link": "https:\/\/app.jogl.io\/project\/232",
                "text": "We are aiming to cure the Covid patients with minimal invasive surgery",
                "fallback": "JOGL - Just One Giant Lab: Treater | JOGL",
                "thumb_url": "https:\/\/jogl-backend.herokuapp.com\/rails\/active_storage\/representations\/eyJfcmFpbHMiOnsibWVzc2FnZSI6IkJBaHBBb3dIIiwiZXhwIjpudWxsLCJwdXIiOiJibG9iX2lkIn19--a4204c081bb5fc427e226a90dbabdd9a9434387b\/eyJfcmFpbHMiOnsibWVzc2FnZSI6IkJBaDdCam9MY21WemFYcGxTU0lOTkRBd2VEUXdNRjRHT2daRlZBPT0iLCJleHAiOm51bGwsInB1ciI6InZhcmlhdGlvbiJ9fQ==--a35f8ec586c78dc9d1bd1b8dff57088b517bdd00\/aid.png",
                "from_url": "https:\/\/app.jogl.io\/project\/232",
                "thumb_width": 400,
                "thumb_height": 416,
                "service_icon": "https:\/\/app.jogl.io\/images\/favicon.ico",
                "id": 1,
                "original_url": "https:\/\/app.jogl.io\/project\/232"
            }
        ],
        "blocks": [
            {
                "type": "rich_text",
                "block_id": "l=AlB",
                "elements": [
                    {
                        "type": "rich_text_section",
                        "elements": [
                            {
                                "type": "text",
                                "text": "Hello dear scientists, we have published our treatment method yet. "
                            },
                            {
                                "type": "link",
                                "url": "https:\/\/app.jogl.io\/project\/232"
                            },
                            {
                                "type": "text",
                                "text": " we need your feedback as much as we need to hire talents too. Thank you for your time."
                            }
                        ]
                    }
                ]
            }
        ]
    }
]