[
    {
        "client_msg_id": "bc6429e1-c0d1-44a4-8a56-2cfa466a2def",
        "type": "message",
        "text": "ATCC now sells heat inactivated SARS-CoV-2 and classifies it as BSL1. Zeptometrix sells it and classifies it as BSL2. We are having a discussion around this in the advisory board thread, but would love it if more biosafety professionals would join the discussion either in this thread or that one.",
        "user": "UUPQGNNTV",
        "ts": "1586977745.058600",
        "team": "TUU48M0T1",
        "user_team": "TUU48M0T1",
        "source_team": "TUU48M0T1",
        "user_profile": {
            "avatar_hash": "c28127caf7eb",
            "image_72": "https:\/\/avatars.slack-edge.com\/2020-03-07\/989562470694_c28127caf7ebfe67df97_72.jpg",
            "first_name": "",
            "real_name": "Ellen Jorgensen",
            "display_name": "",
            "team": "TUU48M0T1",
            "name": "ejorgensen",
            "is_restricted": false,
            "is_ultra_restricted": false
        },
        "blocks": [
            {
                "type": "rich_text",
                "block_id": "sOU0F",
                "elements": [
                    {
                        "type": "rich_text_section",
                        "elements": [
                            {
                                "type": "text",
                                "text": "ATCC now sells heat inactivated SARS-CoV-2 and classifies it as BSL1. Zeptometrix sells it and classifies it as BSL2. We are having a discussion around this in the advisory board thread, but would love it if more biosafety professionals would join the discussion either in this thread or that one."
                            }
                        ]
                    }
                ]
            }
        ]
    },
    {
        "client_msg_id": "ed3fb6c9-ef29-4101-ab9d-4de5dfe72333",
        "type": "message",
        "text": "We should provide some guidance on this for projects.",
        "user": "UUPQGNNTV",
        "ts": "1586977767.059000",
        "team": "TUU48M0T1",
        "user_team": "TUU48M0T1",
        "source_team": "TUU48M0T1",
        "user_profile": {
            "avatar_hash": "c28127caf7eb",
            "image_72": "https:\/\/avatars.slack-edge.com\/2020-03-07\/989562470694_c28127caf7ebfe67df97_72.jpg",
            "first_name": "",
            "real_name": "Ellen Jorgensen",
            "display_name": "",
            "team": "TUU48M0T1",
            "name": "ejorgensen",
            "is_restricted": false,
            "is_ultra_restricted": false
        },
        "blocks": [
            {
                "type": "rich_text",
                "block_id": "h4j\/P",
                "elements": [
                    {
                        "type": "rich_text_section",
                        "elements": [
                            {
                                "type": "text",
                                "text": "We should provide some guidance on this for projects."
                            }
                        ]
                    }
                ]
            }
        ]
    }
]