[
    {
        "client_msg_id": "de3ffa9c-f7b3-4303-bde0-12d4ce7a6410",
        "type": "message",
        "text": "I just got a yes from Todd Kuiken to be part if our advisory board. He is reaching out to Dee Zimmerman who was the former president of ABSA and did biosafety boot camps with community labs to see if she will join too.",
        "user": "UUPQGNNTV",
        "ts": "1584197064.012200",
        "team": "TUU48M0T1",
        "user_team": "TUU48M0T1",
        "source_team": "TUU48M0T1",
        "user_profile": {
            "avatar_hash": "c28127caf7eb",
            "image_72": "https:\/\/avatars.slack-edge.com\/2020-03-07\/989562470694_c28127caf7ebfe67df97_72.jpg",
            "first_name": "",
            "real_name": "Ellen Jorgensen",
            "display_name": "",
            "team": "TUU48M0T1",
            "name": "ejorgensen",
            "is_restricted": false,
            "is_ultra_restricted": false
        },
        "blocks": [
            {
                "type": "rich_text",
                "block_id": "=+t3I",
                "elements": [
                    {
                        "type": "rich_text_section",
                        "elements": [
                            {
                                "type": "text",
                                "text": "I just got a yes from Todd Kuiken to be part if our advisory board. He is reaching out to Dee Zimmerman who was the former president of ABSA and did biosafety boot camps with community labs to see if she will join too."
                            }
                        ]
                    }
                ]
            }
        ],
        "thread_ts": "1584197064.012200",
        "reply_count": 4,
        "reply_users_count": 3,
        "latest_reply": "1584329327.024400",
        "reply_users": [
            "UV02WET96",
            "UUPQGNNTV",
            "UV0QTJCMT"
        ],
        "replies": [
            {
                "user": "UV02WET96",
                "ts": "1584197286.012600"
            },
            {
                "user": "UUPQGNNTV",
                "ts": "1584197444.012800"
            },
            {
                "user": "UV02WET96",
                "ts": "1584197470.013000"
            },
            {
                "user": "UV0QTJCMT",
                "ts": "1584329327.024400"
            }
        ],
        "subscribed": false,
        "reactions": [
            {
                "name": "heart",
                "users": [
                    "UVADMLUB0",
                    "UV02WET96",
                    "UUUEFQW8N",
                    "UV0QTJCMT",
                    "UV0GKVDUZ",
                    "UUPQGNNTV"
                ],
                "count": 6
            }
        ]
    },
    {
        "client_msg_id": "595c5f79-59e3-450b-86b2-853b95fc1891",
        "type": "message",
        "text": "This is great Ellen! :clap:",
        "user": "UV02WET96",
        "ts": "1584197286.012600",
        "team": "TUU48M0T1",
        "user_team": "TUU48M0T1",
        "source_team": "TUU48M0T1",
        "user_profile": {
            "avatar_hash": "a99c74a194f8",
            "image_72": "https:\/\/avatars.slack-edge.com\/2020-03-07\/975708504851_a99c74a194f86715ca7d_72.png",
            "first_name": "Thomas",
            "real_name": "Thomas Landrain",
            "display_name": "Thomas Landrain - JOGL CoFounder \/ CEO",
            "team": "TUU48M0T1",
            "name": "thomas",
            "is_restricted": false,
            "is_ultra_restricted": false
        },
        "blocks": [
            {
                "type": "rich_text",
                "block_id": "O+2R",
                "elements": [
                    {
                        "type": "rich_text_section",
                        "elements": [
                            {
                                "type": "text",
                                "text": "This is great Ellen! "
                            },
                            {
                                "type": "emoji",
                                "name": "clap"
                            }
                        ]
                    }
                ]
            }
        ],
        "thread_ts": "1584197064.012200",
        "parent_user_id": "UUPQGNNTV"
    },
    {
        "client_msg_id": "7b31b2d9-0b6f-44b0-b005-9fa7716e439b",
        "type": "message",
        "text": "How, exactly to I invite him into all these cyber venues? Can we get one doc with invite links\/instructions for JOGL, Covid-19 slack channel, Google drive docs, etc? It is getting a bit confusing and scattered for me...",
        "user": "UUPQGNNTV",
        "ts": "1584197444.012800",
        "team": "TUU48M0T1",
        "user_team": "TUU48M0T1",
        "source_team": "TUU48M0T1",
        "user_profile": {
            "avatar_hash": "c28127caf7eb",
            "image_72": "https:\/\/avatars.slack-edge.com\/2020-03-07\/989562470694_c28127caf7ebfe67df97_72.jpg",
            "first_name": "",
            "real_name": "Ellen Jorgensen",
            "display_name": "",
            "team": "TUU48M0T1",
            "name": "ejorgensen",
            "is_restricted": false,
            "is_ultra_restricted": false
        },
        "blocks": [
            {
                "type": "rich_text",
                "block_id": "O0+LI",
                "elements": [
                    {
                        "type": "rich_text_section",
                        "elements": [
                            {
                                "type": "text",
                                "text": "How, exactly to I invite him into all these cyber venues? Can we get one doc with invite links\/instructions for JOGL, Covid-19 slack channel, Google drive docs, etc? It is getting a bit confusing and scattered for me..."
                            }
                        ]
                    }
                ]
            }
        ],
        "thread_ts": "1584197064.012200",
        "parent_user_id": "UUPQGNNTV"
    },
    {
        "client_msg_id": "585d9d51-a9a8-43bd-ab14-9839fa53d93c",
        "type": "message",
        "text": "yes :+1:",
        "user": "UV02WET96",
        "ts": "1584197470.013000",
        "team": "TUU48M0T1",
        "user_team": "TUU48M0T1",
        "source_team": "TUU48M0T1",
        "user_profile": {
            "avatar_hash": "a99c74a194f8",
            "image_72": "https:\/\/avatars.slack-edge.com\/2020-03-07\/975708504851_a99c74a194f86715ca7d_72.png",
            "first_name": "Thomas",
            "real_name": "Thomas Landrain",
            "display_name": "Thomas Landrain - JOGL CoFounder \/ CEO",
            "team": "TUU48M0T1",
            "name": "thomas",
            "is_restricted": false,
            "is_ultra_restricted": false
        },
        "blocks": [
            {
                "type": "rich_text",
                "block_id": "lrkxp",
                "elements": [
                    {
                        "type": "rich_text_section",
                        "elements": [
                            {
                                "type": "text",
                                "text": "yes "
                            },
                            {
                                "type": "emoji",
                                "name": "+1"
                            }
                        ]
                    }
                ]
            }
        ],
        "thread_ts": "1584197064.012200",
        "parent_user_id": "UUPQGNNTV"
    },
    {
        "type": "message",
        "subtype": "channel_join",
        "ts": "1584221529.013600",
        "user": "U0100EPL9RT",
        "text": "<@U0100EPL9RT> has joined the channel"
    },
    {
        "type": "message",
        "subtype": "channel_join",
        "ts": "1584221537.013900",
        "user": "UVAB15FU0",
        "text": "<@UVAB15FU0> has joined the channel"
    },
    {
        "type": "message",
        "subtype": "channel_join",
        "ts": "1584222324.014200",
        "user": "UUXTPFTD0",
        "text": "<@UUXTPFTD0> has joined the channel"
    },
    {
        "type": "message",
        "subtype": "channel_join",
        "ts": "1584223799.014500",
        "user": "UUPF597H9",
        "text": "<@UUPF597H9> has joined the channel"
    },
    {
        "client_msg_id": "87c68729-0c17-4e6a-b1b4-66b57b589adc",
        "type": "message",
        "text": "I all, I started a Biosafety and Biosecurity guidelines document here: <https:\/\/docs.google.com\/document\/d\/1ldQ1aRxHjuj-U7kNqwWlkwwwW54U6ls8xMI9l0LBFrQ\/edit#> please jump on and add and change as you see fit.",
        "user": "UV5CCJ9RC",
        "ts": "1584229582.016000",
        "team": "TUU48M0T1",
        "user_team": "TUU48M0T1",
        "source_team": "TUU48M0T1",
        "user_profile": {
            "avatar_hash": "2c79fe05f7e7",
            "image_72": "https:\/\/avatars.slack-edge.com\/2020-03-10\/992653932501_2c79fe05f7e75be19699_72.png",
            "first_name": "Chris",
            "real_name": "Chris Monaco",
            "display_name": "",
            "team": "TUU48M0T1",
            "name": "cmonaco.hr",
            "is_restricted": false,
            "is_ultra_restricted": false
        },
        "blocks": [
            {
                "type": "rich_text",
                "block_id": "fRW",
                "elements": [
                    {
                        "type": "rich_text_section",
                        "elements": [
                            {
                                "type": "text",
                                "text": "I all, I started a Biosafety and Biosecurity guidelines document here: "
                            },
                            {
                                "type": "link",
                                "url": "https:\/\/docs.google.com\/document\/d\/1ldQ1aRxHjuj-U7kNqwWlkwwwW54U6ls8xMI9l0LBFrQ\/edit#"
                            },
                            {
                                "type": "text",
                                "text": " please jump on and add and change as you see fit."
                            }
                        ]
                    }
                ]
            }
        ],
        "reactions": [
            {
                "name": "100",
                "users": [
                    "UV0QTJCMT",
                    "UV02WET96",
                    "UUPQGNNTV"
                ],
                "count": 3
            }
        ]
    }
]