[
    {
        "client_msg_id": "1f0e056e-88fc-4a40-bf75-622a8334c59c",
        "type": "message",
        "text": "Along similar lines, the Twist synthetic RNA control covers over 99.9% of the viral genome. It's broken into 6 non-overlapping fragments and is sold as BSL1. Does this control follow the 2\/3 rule because the genome is fragmented?",
        "user": "UV5CCJ9RC",
        "ts": "1587040394.061000",
        "team": "TUU48M0T1",
        "user_team": "TUU48M0T1",
        "source_team": "TUU48M0T1",
        "user_profile": {
            "avatar_hash": "2c79fe05f7e7",
            "image_72": "https:\/\/avatars.slack-edge.com\/2020-03-10\/992653932501_2c79fe05f7e75be19699_72.png",
            "first_name": "Chris",
            "real_name": "Chris Monaco",
            "display_name": "",
            "team": "TUU48M0T1",
            "name": "cmonaco.hr",
            "is_restricted": false,
            "is_ultra_restricted": false
        },
        "blocks": [
            {
                "type": "rich_text",
                "block_id": "QKw",
                "elements": [
                    {
                        "type": "rich_text_section",
                        "elements": [
                            {
                                "type": "text",
                                "text": "Along similar lines, the Twist synthetic RNA control covers over 99.9% of the viral genome. It's broken into 6 non-overlapping fragments and is sold as BSL1. Does this control follow the 2\/3 rule because the genome is fragmented?"
                            }
                        ]
                    }
                ]
            }
        ]
    },
    {
        "client_msg_id": "368dd775-c273-4b45-ba9b-f180cd4ae8e4",
        "type": "message",
        "text": "<@U0102NEMRTR> wdyt?",
        "user": "UV1A22N3W",
        "ts": "1587043693.061400",
        "team": "TUU48M0T1",
        "user_team": "TUU48M0T1",
        "source_team": "TUU48M0T1",
        "user_profile": {
            "avatar_hash": "71f827776ad6",
            "image_72": "https:\/\/avatars.slack-edge.com\/2020-03-09\/988125642964_71f827776ad610af05a2_72.jpg",
            "first_name": "",
            "real_name": "RachelA",
            "display_name": "RachelA",
            "team": "TUU48M0T1",
            "name": "raronoff",
            "is_restricted": false,
            "is_ultra_restricted": false
        },
        "blocks": [
            {
                "type": "rich_text",
                "block_id": "mEwb",
                "elements": [
                    {
                        "type": "rich_text_section",
                        "elements": [
                            {
                                "type": "user",
                                "user_id": "U0102NEMRTR"
                            },
                            {
                                "type": "text",
                                "text": " wdyt?"
                            }
                        ]
                    }
                ]
            }
        ]
    }
]