[
    {
        "client_msg_id": "28394226-d6eb-46b7-b2b6-d616583d7f02",
        "type": "message",
        "text": "there are still so many unknowns about this virus, but the point about naked RNA not getting in cells is certain to reduce inherent risk. Still, which of our projects have gotten this?  does anyone know the size of the 'gaps' between the pieces?",
        "user": "UV1A22N3W",
        "ts": "1587194661.067200",
        "team": "TUU48M0T1",
        "user_team": "TUU48M0T1",
        "source_team": "TUU48M0T1",
        "user_profile": {
            "avatar_hash": "71f827776ad6",
            "image_72": "https:\/\/avatars.slack-edge.com\/2020-03-09\/988125642964_71f827776ad610af05a2_72.jpg",
            "first_name": "",
            "real_name": "RachelA",
            "display_name": "RachelA",
            "team": "TUU48M0T1",
            "name": "raronoff",
            "is_restricted": false,
            "is_ultra_restricted": false
        },
        "blocks": [
            {
                "type": "rich_text",
                "block_id": "jmYbk",
                "elements": [
                    {
                        "type": "rich_text_section",
                        "elements": [
                            {
                                "type": "text",
                                "text": "there are still so many unknowns about this virus, but the point about naked RNA not getting in cells is certain to reduce inherent risk. Still, which of our projects have gotten this?  does anyone know the size of the 'gaps' between the pieces?"
                            }
                        ]
                    }
                ]
            }
        ]
    },
    {
        "client_msg_id": "d1217b7f-3602-42e5-b3c9-8c43a89c6bd5",
        "type": "message",
        "text": "My company's facilities are BSL1 and Twist shipped them the RNA controls. On the SynbioBeta webinar, Emily LeProust declared they were 'so safe you can brush your teeth with them'",
        "user": "UUPQGNNTV",
        "ts": "1587214820.070400",
        "team": "TUU48M0T1",
        "user_team": "TUU48M0T1",
        "source_team": "TUU48M0T1",
        "user_profile": {
            "avatar_hash": "c28127caf7eb",
            "image_72": "https:\/\/avatars.slack-edge.com\/2020-03-07\/989562470694_c28127caf7ebfe67df97_72.jpg",
            "first_name": "",
            "real_name": "Ellen Jorgensen",
            "display_name": "",
            "team": "TUU48M0T1",
            "name": "ejorgensen",
            "is_restricted": false,
            "is_ultra_restricted": false
        },
        "blocks": [
            {
                "type": "rich_text",
                "block_id": "7DF",
                "elements": [
                    {
                        "type": "rich_text_section",
                        "elements": [
                            {
                                "type": "text",
                                "text": "My company's facilities are BSL1 and Twist shipped them the RNA controls. On the SynbioBeta webinar, Emily LeProust declared they were 'so safe you can brush your teeth with them'"
                            }
                        ]
                    }
                ]
            }
        ]
    },
    {
        "client_msg_id": "CF6B95FB-D8C6-414F-A74D-C5629F6E9BC5",
        "type": "message",
        "text": ":joy: typical pr person, or actual virologist?  when they say ‘synthetic’ does that mean in vitro txbd or synth’d like oligos, btw?",
        "user": "UV1A22N3W",
        "ts": "1587219718.072900",
        "team": "TUU48M0T1",
        "user_team": "TUU48M0T1",
        "source_team": "TUU48M0T1",
        "user_profile": {
            "avatar_hash": "71f827776ad6",
            "image_72": "https:\/\/avatars.slack-edge.com\/2020-03-09\/988125642964_71f827776ad610af05a2_72.jpg",
            "first_name": "",
            "real_name": "RachelA",
            "display_name": "RachelA",
            "team": "TUU48M0T1",
            "name": "raronoff",
            "is_restricted": false,
            "is_ultra_restricted": false
        },
        "blocks": [
            {
                "type": "rich_text",
                "block_id": "ZbXf8",
                "elements": [
                    {
                        "type": "rich_text_section",
                        "elements": [
                            {
                                "type": "emoji",
                                "name": "joy"
                            },
                            {
                                "type": "text",
                                "text": " typical pr person, or actual virologist?  when they say ‘synthetic’ does that mean in vitro txbd or synth’d like oligos, btw?"
                            }
                        ]
                    }
                ]
            }
        ]
    },
    {
        "client_msg_id": "b9f9c95a-ae5e-42ab-aa0d-d98e3d6920dd",
        "type": "message",
        "text": "They saay they're expressed from DNA segments with a T7 promoter, if I recall correctly. And to Patrik's point it's all shipped in one tube.",
        "user": "UV5CCJ9RC",
        "ts": "1587221419.074000",
        "team": "TUU48M0T1",
        "user_team": "TUU48M0T1",
        "source_team": "TUU48M0T1",
        "user_profile": {
            "avatar_hash": "2c79fe05f7e7",
            "image_72": "https:\/\/avatars.slack-edge.com\/2020-03-10\/992653932501_2c79fe05f7e75be19699_72.png",
            "first_name": "Chris",
            "real_name": "Chris Monaco",
            "display_name": "",
            "team": "TUU48M0T1",
            "name": "cmonaco.hr",
            "is_restricted": false,
            "is_ultra_restricted": false
        },
        "blocks": [
            {
                "type": "rich_text",
                "block_id": "mjcb",
                "elements": [
                    {
                        "type": "rich_text_section",
                        "elements": [
                            {
                                "type": "text",
                                "text": "They saay they're expressed from DNA segments with a T7 promoter, if I recall correctly. And to Patrik's point it's all shipped in one tube."
                            }
                        ]
                    }
                ]
            }
        ]
    }
]