[
    {
        "type": "message",
        "subtype": "channel_join",
        "ts": "1584391219.000200",
        "user": "UV3HA9MM4",
        "text": "<@UV3HA9MM4> has joined the channel"
    },
    {
        "type": "message",
        "subtype": "channel_join",
        "ts": "1584391228.000400",
        "user": "UUPFF4TC3",
        "text": "<@UUPFF4TC3> has joined the channel",
        "inviter": "UV3HA9MM4"
    },
    {
        "type": "message",
        "subtype": "channel_join",
        "ts": "1584391228.000600",
        "user": "UV0RRGB6H",
        "text": "<@UV0RRGB6H> has joined the channel",
        "inviter": "UV3HA9MM4"
    },
    {
        "client_msg_id": "2d8d0df8-70d1-42c1-88c9-0c762dfffe02",
        "type": "message",
        "text": "This is *not* my idea.  Sophie just told it to me in a DM.",
        "user": "UV3HA9MM4",
        "ts": "1584391252.001000",
        "team": "TUU48M0T1",
        "user_team": "TUU48M0T1",
        "source_team": "TUU48M0T1",
        "user_profile": {
            "avatar_hash": "b2f89757c831",
            "image_72": "https:\/\/avatars.slack-edge.com\/2020-03-07\/987455908032_b2f89757c8312ec04011_72.jpg",
            "first_name": "AJP",
            "real_name": "AJP",
            "display_name": "AJP",
            "team": "TUU48M0T1",
            "name": "bioajp",
            "is_restricted": false,
            "is_ultra_restricted": false
        },
        "blocks": [
            {
                "type": "rich_text",
                "block_id": "JnG",
                "elements": [
                    {
                        "type": "rich_text_section",
                        "elements": [
                            {
                                "type": "text",
                                "text": "This is "
                            },
                            {
                                "type": "text",
                                "text": "not",
                                "style": {
                                    "bold": true
                                }
                            },
                            {
                                "type": "text",
                                "text": " my idea.  Sophie just told it to me in a DM."
                            }
                        ]
                    }
                ]
            }
        ]
    },
    {
        "client_msg_id": "e8676253-821a-4d3b-9833-5177d6765ff2",
        "type": "message",
        "text": "I think it’s definitely worth exploring… would take away a large part of the challenge leaving only RNA extraction, and making that compatible with home testing (if that’s the ultimate goal)… but even if large lab scale testing then still potentially useful if we can get it to work.",
        "user": "UV3HA9MM4",
        "ts": "1584391303.002100",
        "team": "TUU48M0T1",
        "user_team": "TUU48M0T1",
        "source_team": "TUU48M0T1",
        "user_profile": {
            "avatar_hash": "b2f89757c831",
            "image_72": "https:\/\/avatars.slack-edge.com\/2020-03-07\/987455908032_b2f89757c8312ec04011_72.jpg",
            "first_name": "AJP",
            "real_name": "AJP",
            "display_name": "AJP",
            "team": "TUU48M0T1",
            "name": "bioajp",
            "is_restricted": false,
            "is_ultra_restricted": false
        },
        "blocks": [
            {
                "type": "rich_text",
                "block_id": "gFu",
                "elements": [
                    {
                        "type": "rich_text_section",
                        "elements": [
                            {
                                "type": "text",
                                "text": "I think it’s definitely worth exploring… would take away a large part of the challenge leaving only RNA extraction, and making that compatible with home testing (if that’s the ultimate goal)… but even if large lab scale testing then still potentially useful if we can get it to work."
                            }
                        ]
                    }
                ]
            }
        ]
    },
    {
        "type": "message",
        "subtype": "channel_name",
        "ts": "1584391387.002200",
        "user": "UV3HA9MM4",
        "text": "<@UV3HA9MM4> has renamed the channel from \"mammoth-multiplier\" to \"prgm-mammoth-multiplier\"",
        "old_name": "mammoth-multiplier",
        "name": "prgm-mammoth-multiplier"
    },
    {
        "type": "message",
        "text": "",
        "files": [
            {
                "id": "F0105TA952B",
                "created": 1584391408,
                "timestamp": 1584391408,
                "name": "Screen Shot 2020-03-16 at 20.41.52.png",
                "title": "Screen Shot 2020-03-16 at 20.41.52.png",
                "mimetype": "image\/png",
                "filetype": "png",
                "pretty_type": "PNG",
                "user": "UV3HA9MM4",
                "editable": false,
                "size": 172266,
                "mode": "hosted",
                "is_external": false,
                "external_type": "",
                "is_public": true,
                "public_url_shared": false,
                "display_as_bot": false,
                "username": "",
                "url_private": "https:\/\/files.slack.com\/files-pri\/TUU48M0T1-F0105TA952B\/screen_shot_2020-03-16_at_20.41.52.png?t=xoxe-980144714919-1133254701825-1120841107731-daf595b5a7d6c9028b0b02a925032e36",
                "url_private_download": "https:\/\/files.slack.com\/files-pri\/TUU48M0T1-F0105TA952B\/download\/screen_shot_2020-03-16_at_20.41.52.png?t=xoxe-980144714919-1133254701825-1120841107731-daf595b5a7d6c9028b0b02a925032e36",
                "thumb_64": "https:\/\/files.slack.com\/files-tmb\/TUU48M0T1-F0105TA952B-9132bc8a79\/screen_shot_2020-03-16_at_20.41.52_64.png?t=xoxe-980144714919-1133254701825-1120841107731-daf595b5a7d6c9028b0b02a925032e36",
                "thumb_80": "https:\/\/files.slack.com\/files-tmb\/TUU48M0T1-F0105TA952B-9132bc8a79\/screen_shot_2020-03-16_at_20.41.52_80.png?t=xoxe-980144714919-1133254701825-1120841107731-daf595b5a7d6c9028b0b02a925032e36",
                "thumb_360": "https:\/\/files.slack.com\/files-tmb\/TUU48M0T1-F0105TA952B-9132bc8a79\/screen_shot_2020-03-16_at_20.41.52_360.png?t=xoxe-980144714919-1133254701825-1120841107731-daf595b5a7d6c9028b0b02a925032e36",
                "thumb_360_w": 360,
                "thumb_360_h": 216,
                "thumb_480": "https:\/\/files.slack.com\/files-tmb\/TUU48M0T1-F0105TA952B-9132bc8a79\/screen_shot_2020-03-16_at_20.41.52_480.png?t=xoxe-980144714919-1133254701825-1120841107731-daf595b5a7d6c9028b0b02a925032e36",
                "thumb_480_w": 480,
                "thumb_480_h": 288,
                "thumb_160": "https:\/\/files.slack.com\/files-tmb\/TUU48M0T1-F0105TA952B-9132bc8a79\/screen_shot_2020-03-16_at_20.41.52_160.png?t=xoxe-980144714919-1133254701825-1120841107731-daf595b5a7d6c9028b0b02a925032e36",
                "thumb_720": "https:\/\/files.slack.com\/files-tmb\/TUU48M0T1-F0105TA952B-9132bc8a79\/screen_shot_2020-03-16_at_20.41.52_720.png?t=xoxe-980144714919-1133254701825-1120841107731-daf595b5a7d6c9028b0b02a925032e36",
                "thumb_720_w": 720,
                "thumb_720_h": 432,
                "thumb_800": "https:\/\/files.slack.com\/files-tmb\/TUU48M0T1-F0105TA952B-9132bc8a79\/screen_shot_2020-03-16_at_20.41.52_800.png?t=xoxe-980144714919-1133254701825-1120841107731-daf595b5a7d6c9028b0b02a925032e36",
                "thumb_800_w": 800,
                "thumb_800_h": 480,
                "thumb_960": "https:\/\/files.slack.com\/files-tmb\/TUU48M0T1-F0105TA952B-9132bc8a79\/screen_shot_2020-03-16_at_20.41.52_960.png?t=xoxe-980144714919-1133254701825-1120841107731-daf595b5a7d6c9028b0b02a925032e36",
                "thumb_960_w": 960,
                "thumb_960_h": 576,
                "thumb_1024": "https:\/\/files.slack.com\/files-tmb\/TUU48M0T1-F0105TA952B-9132bc8a79\/screen_shot_2020-03-16_at_20.41.52_1024.png?t=xoxe-980144714919-1133254701825-1120841107731-daf595b5a7d6c9028b0b02a925032e36",
                "thumb_1024_w": 1024,
                "thumb_1024_h": 614,
                "image_exif_rotation": 1,
                "original_w": 1130,
                "original_h": 678,
                "thumb_tiny": "AwAcADDQAx1GD7U7HuaYAPTFOwfegB2PrRim4PvRt9zQA7FFJijAoAYowPmHNOyKG60ZPrQAZFAIo3GjcaAHZozTdxpVOaAP\/9k=",
                "permalink": "https:\/\/open-covid19.slack.com\/files\/UV3HA9MM4\/F0105TA952B\/screen_shot_2020-03-16_at_20.41.52.png",
                "permalink_public": "https:\/\/slack-files.com\/TUU48M0T1-F0105TA952B-ae3080ef75",
                "is_starred": false,
                "has_rich_preview": false
            }
        ],
        "upload": true,
        "user": "UV3HA9MM4",
        "display_as_bot": false,
        "ts": "1584391413.002300",
        "client_msg_id": "f649b147-dcab-46be-a592-210737668a21"
    },
    {
        "type": "message",
        "text": "",
        "files": [
            {
                "id": "FV6HKCQ59",
                "created": 1584391415,
                "timestamp": 1584391415,
                "name": "Screen Shot 2020-03-16 at 20.42.02.png",
                "title": "Screen Shot 2020-03-16 at 20.42.02.png",
                "mimetype": "image\/png",
                "filetype": "png",
                "pretty_type": "PNG",
                "user": "UV3HA9MM4",
                "editable": false,
                "size": 137758,
                "mode": "hosted",
                "is_external": false,
                "external_type": "",
                "is_public": true,
                "public_url_shared": false,
                "display_as_bot": false,
                "username": "",
                "url_private": "https:\/\/files.slack.com\/files-pri\/TUU48M0T1-FV6HKCQ59\/screen_shot_2020-03-16_at_20.42.02.png?t=xoxe-980144714919-1133254701825-1120841107731-daf595b5a7d6c9028b0b02a925032e36",
                "url_private_download": "https:\/\/files.slack.com\/files-pri\/TUU48M0T1-FV6HKCQ59\/download\/screen_shot_2020-03-16_at_20.42.02.png?t=xoxe-980144714919-1133254701825-1120841107731-daf595b5a7d6c9028b0b02a925032e36",
                "thumb_64": "https:\/\/files.slack.com\/files-tmb\/TUU48M0T1-FV6HKCQ59-a786d664ad\/screen_shot_2020-03-16_at_20.42.02_64.png?t=xoxe-980144714919-1133254701825-1120841107731-daf595b5a7d6c9028b0b02a925032e36",
                "thumb_80": "https:\/\/files.slack.com\/files-tmb\/TUU48M0T1-FV6HKCQ59-a786d664ad\/screen_shot_2020-03-16_at_20.42.02_80.png?t=xoxe-980144714919-1133254701825-1120841107731-daf595b5a7d6c9028b0b02a925032e36",
                "thumb_360": "https:\/\/files.slack.com\/files-tmb\/TUU48M0T1-FV6HKCQ59-a786d664ad\/screen_shot_2020-03-16_at_20.42.02_360.png?t=xoxe-980144714919-1133254701825-1120841107731-daf595b5a7d6c9028b0b02a925032e36",
                "thumb_360_w": 360,
                "thumb_360_h": 160,
                "thumb_480": "https:\/\/files.slack.com\/files-tmb\/TUU48M0T1-FV6HKCQ59-a786d664ad\/screen_shot_2020-03-16_at_20.42.02_480.png?t=xoxe-980144714919-1133254701825-1120841107731-daf595b5a7d6c9028b0b02a925032e36",
                "thumb_480_w": 480,
                "thumb_480_h": 214,
                "thumb_160": "https:\/\/files.slack.com\/files-tmb\/TUU48M0T1-FV6HKCQ59-a786d664ad\/screen_shot_2020-03-16_at_20.42.02_160.png?t=xoxe-980144714919-1133254701825-1120841107731-daf595b5a7d6c9028b0b02a925032e36",
                "thumb_720": "https:\/\/files.slack.com\/files-tmb\/TUU48M0T1-FV6HKCQ59-a786d664ad\/screen_shot_2020-03-16_at_20.42.02_720.png?t=xoxe-980144714919-1133254701825-1120841107731-daf595b5a7d6c9028b0b02a925032e36",
                "thumb_720_w": 720,
                "thumb_720_h": 320,
                "thumb_800": "https:\/\/files.slack.com\/files-tmb\/TUU48M0T1-FV6HKCQ59-a786d664ad\/screen_shot_2020-03-16_at_20.42.02_800.png?t=xoxe-980144714919-1133254701825-1120841107731-daf595b5a7d6c9028b0b02a925032e36",
                "thumb_800_w": 800,
                "thumb_800_h": 356,
                "thumb_960": "https:\/\/files.slack.com\/files-tmb\/TUU48M0T1-FV6HKCQ59-a786d664ad\/screen_shot_2020-03-16_at_20.42.02_960.png?t=xoxe-980144714919-1133254701825-1120841107731-daf595b5a7d6c9028b0b02a925032e36",
                "thumb_960_w": 960,
                "thumb_960_h": 427,
                "thumb_1024": "https:\/\/files.slack.com\/files-tmb\/TUU48M0T1-FV6HKCQ59-a786d664ad\/screen_shot_2020-03-16_at_20.42.02_1024.png?t=xoxe-980144714919-1133254701825-1120841107731-daf595b5a7d6c9028b0b02a925032e36",
                "thumb_1024_w": 1024,
                "thumb_1024_h": 456,
                "image_exif_rotation": 1,
                "original_w": 1061,
                "original_h": 472,
                "thumb_tiny": "AwAVADDQySeRijih+tA46CgBQB60vFJk+hpcc5yfzoAOKOPSlooAjBJ5PrS59qReh+ppaAFyPQUbqSigBw5FLikXpS0Af\/\/Z",
                "permalink": "https:\/\/open-covid19.slack.com\/files\/UV3HA9MM4\/FV6HKCQ59\/screen_shot_2020-03-16_at_20.42.02.png",
                "permalink_public": "https:\/\/slack-files.com\/TUU48M0T1-FV6HKCQ59-890acd5b0f",
                "is_starred": false,
                "has_rich_preview": false
            }
        ],
        "upload": true,
        "user": "UV3HA9MM4",
        "display_as_bot": false,
        "ts": "1584391423.002600",
        "client_msg_id": "1c45f70f-f44b-4af3-a2c3-c8231905527e"
    },
    {
        "client_msg_id": "b241bae5-ba7b-418b-b664-6307e6833d4f",
        "type": "message",
        "text": "<@UUPFF4TC3> I’m happy to delete these DMs… appreciate it’s *not* good form but I think (hope) you don’t mind in this case.  <@UV0RRGB6H> what are you thoughts on above ^^",
        "user": "UV3HA9MM4",
        "ts": "1584391543.003700",
        "team": "TUU48M0T1",
        "user_team": "TUU48M0T1",
        "source_team": "TUU48M0T1",
        "user_profile": {
            "avatar_hash": "b2f89757c831",
            "image_72": "https:\/\/avatars.slack-edge.com\/2020-03-07\/987455908032_b2f89757c8312ec04011_72.jpg",
            "first_name": "AJP",
            "real_name": "AJP",
            "display_name": "AJP",
            "team": "TUU48M0T1",
            "name": "bioajp",
            "is_restricted": false,
            "is_ultra_restricted": false
        },
        "blocks": [
            {
                "type": "rich_text",
                "block_id": "sSx",
                "elements": [
                    {
                        "type": "rich_text_section",
                        "elements": [
                            {
                                "type": "user",
                                "user_id": "UUPFF4TC3"
                            },
                            {
                                "type": "text",
                                "text": " I’m happy to delete these DMs… appreciate it’s "
                            },
                            {
                                "type": "text",
                                "text": "not",
                                "style": {
                                    "bold": true
                                }
                            },
                            {
                                "type": "text",
                                "text": " good form but I think (hope) you don’t mind in this case.  "
                            },
                            {
                                "type": "user",
                                "user_id": "UV0RRGB6H"
                            },
                            {
                                "type": "text",
                                "text": " what are you thoughts on above ^^"
                            }
                        ]
                    }
                ]
            }
        ]
    },
    {
        "client_msg_id": "833c734e-98b9-430f-806f-1fd487a3a76d",
        "type": "message",
        "text": "Also in the back of your mind if you could think about ways to have a sample mixed full of RNase, human cells and virus… and detect the RNA without needing an extraction step… that would be immense… only thing I can think of is Abs against the viral proteins (which obviously is not RNA detection at all)",
        "user": "UV3HA9MM4",
        "ts": "1584391643.005700",
        "team": "TUU48M0T1",
        "user_team": "TUU48M0T1",
        "source_team": "TUU48M0T1",
        "user_profile": {
            "avatar_hash": "b2f89757c831",
            "image_72": "https:\/\/avatars.slack-edge.com\/2020-03-07\/987455908032_b2f89757c8312ec04011_72.jpg",
            "first_name": "AJP",
            "real_name": "AJP",
            "display_name": "AJP",
            "team": "TUU48M0T1",
            "name": "bioajp",
            "is_restricted": false,
            "is_ultra_restricted": false
        },
        "blocks": [
            {
                "type": "rich_text",
                "block_id": "vJXg",
                "elements": [
                    {
                        "type": "rich_text_section",
                        "elements": [
                            {
                                "type": "text",
                                "text": "Also in the back of your mind if you could think about ways to have a sample mixed full of RNase, human cells and virus… and detect the RNA without needing an extraction step… that would be immense… only thing I can think of is Abs against the viral proteins (which obviously is not RNA detection at all)"
                            }
                        ]
                    }
                ]
            }
        ]
    },
    {
        "client_msg_id": "52cd77f2-b4ae-4e36-a1e3-03f57df37874",
        "type": "message",
        "text": "I have actually designed CRISPR plasmids before! its very simple. Check add gene, and read the primary literature on CRISPR. There will be plasmids that contain the cas9\/dcas9 and another. Addgene has a good library",
        "user": "UV0RRGB6H",
        "ts": "1584391748.007100",
        "team": "TUU48M0T1",
        "user_team": "TUU48M0T1",
        "source_team": "TUU48M0T1",
        "user_profile": {
            "avatar_hash": "48d4ab64c90c",
            "image_72": "https:\/\/avatars.slack-edge.com\/2020-03-26\/1029789176912_48d4ab64c90c03f3af4a_72.jpg",
            "first_name": "",
            "real_name": "Chris LB Graham",
            "display_name": "",
            "team": "TUU48M0T1",
            "name": "chris.graham",
            "is_restricted": false,
            "is_ultra_restricted": false
        },
        "blocks": [
            {
                "type": "rich_text",
                "block_id": "MRvGF",
                "elements": [
                    {
                        "type": "rich_text_section",
                        "elements": [
                            {
                                "type": "text",
                                "text": "I have actually designed CRISPR plasmids before! its very simple. Check add gene, and read the primary literature on CRISPR. There will be plasmids that contain the cas9\/dcas9 and another. Addgene has a good library"
                            }
                        ]
                    }
                ]
            }
        ]
    },
    {
        "client_msg_id": "aaac2508-520a-4450-bb84-28f0ace553b7",
        "type": "message",
        "text": "if you plan on making these plasmids. ill set aside some time tonight to give you a detailed protocol if you are uncomfortable making your own",
        "user": "UV0RRGB6H",
        "ts": "1584391774.007800",
        "team": "TUU48M0T1",
        "user_team": "TUU48M0T1",
        "source_team": "TUU48M0T1",
        "user_profile": {
            "avatar_hash": "48d4ab64c90c",
            "image_72": "https:\/\/avatars.slack-edge.com\/2020-03-26\/1029789176912_48d4ab64c90c03f3af4a_72.jpg",
            "first_name": "",
            "real_name": "Chris LB Graham",
            "display_name": "",
            "team": "TUU48M0T1",
            "name": "chris.graham",
            "is_restricted": false,
            "is_ultra_restricted": false
        },
        "blocks": [
            {
                "type": "rich_text",
                "block_id": "VDEWf",
                "elements": [
                    {
                        "type": "rich_text_section",
                        "elements": [
                            {
                                "type": "text",
                                "text": "if you plan on making these plasmids. ill set aside some time tonight to give you a detailed protocol if you are uncomfortable making your own"
                            }
                        ]
                    }
                ]
            }
        ]
    },
    {
        "client_msg_id": "daab0807-1e0f-4ce3-bb44-4278944b3149",
        "type": "message",
        "text": "No that’s fine.  We can do that later.  Thanks man.",
        "user": "UV3HA9MM4",
        "ts": "1584391788.008300",
        "team": "TUU48M0T1",
        "user_team": "TUU48M0T1",
        "source_team": "TUU48M0T1",
        "user_profile": {
            "avatar_hash": "b2f89757c831",
            "image_72": "https:\/\/avatars.slack-edge.com\/2020-03-07\/987455908032_b2f89757c8312ec04011_72.jpg",
            "first_name": "AJP",
            "real_name": "AJP",
            "display_name": "AJP",
            "team": "TUU48M0T1",
            "name": "bioajp",
            "is_restricted": false,
            "is_ultra_restricted": false
        },
        "edited": {
            "user": "UV3HA9MM4",
            "ts": "1584391797.000000"
        },
        "blocks": [
            {
                "type": "rich_text",
                "block_id": "v+eGQ",
                "elements": [
                    {
                        "type": "rich_text_section",
                        "elements": [
                            {
                                "type": "text",
                                "text": "No that’s fine.  We can do that later.  Thanks man."
                            }
                        ]
                    }
                ]
            }
        ]
    },
    {
        "client_msg_id": "a6a6f771-2d60-4b4f-96f5-b0badf77fa74",
        "type": "message",
        "text": "What about the getting rid of the RNase from the E. coli genomes?",
        "user": "UV3HA9MM4",
        "ts": "1584391810.008900",
        "team": "TUU48M0T1",
        "user_team": "TUU48M0T1",
        "source_team": "TUU48M0T1",
        "user_profile": {
            "avatar_hash": "b2f89757c831",
            "image_72": "https:\/\/avatars.slack-edge.com\/2020-03-07\/987455908032_b2f89757c8312ec04011_72.jpg",
            "first_name": "AJP",
            "real_name": "AJP",
            "display_name": "AJP",
            "team": "TUU48M0T1",
            "name": "bioajp",
            "is_restricted": false,
            "is_ultra_restricted": false
        },
        "blocks": [
            {
                "type": "rich_text",
                "block_id": "Fhr",
                "elements": [
                    {
                        "type": "rich_text_section",
                        "elements": [
                            {
                                "type": "text",
                                "text": "What about the getting rid of the RNase from the E. coli genomes?"
                            }
                        ]
                    }
                ]
            }
        ],
        "thread_ts": "1584391810.008900",
        "reply_count": 5,
        "reply_users_count": 3,
        "latest_reply": "1584808261.017200",
        "reply_users": [
            "UV0RRGB6H",
            "UV3HA9MM4",
            "UUPQGNNTV"
        ],
        "replies": [
            {
                "user": "UV0RRGB6H",
                "ts": "1584392884.011200"
            },
            {
                "user": "UV3HA9MM4",
                "ts": "1584401018.001900"
            },
            {
                "user": "UUPQGNNTV",
                "ts": "1584808113.016800"
            },
            {
                "user": "UUPQGNNTV",
                "ts": "1584808234.017000"
            },
            {
                "user": "UUPQGNNTV",
                "ts": "1584808261.017200"
            }
        ],
        "subscribed": false
    },
    {
        "client_msg_id": "41aa25ca-9ceb-41dc-8ead-2f23def54ec4",
        "type": "message",
        "text": "This seems like a massive challenge and a huge risk factor no?",
        "user": "UV3HA9MM4",
        "ts": "1584391825.009300",
        "team": "TUU48M0T1",
        "user_team": "TUU48M0T1",
        "source_team": "TUU48M0T1",
        "user_profile": {
            "avatar_hash": "b2f89757c831",
            "image_72": "https:\/\/avatars.slack-edge.com\/2020-03-07\/987455908032_b2f89757c8312ec04011_72.jpg",
            "first_name": "AJP",
            "real_name": "AJP",
            "display_name": "AJP",
            "team": "TUU48M0T1",
            "name": "bioajp",
            "is_restricted": false,
            "is_ultra_restricted": false
        },
        "blocks": [
            {
                "type": "rich_text",
                "block_id": "Vhk",
                "elements": [
                    {
                        "type": "rich_text_section",
                        "elements": [
                            {
                                "type": "text",
                                "text": "This seems like a massive challenge and a huge risk factor no?"
                            }
                        ]
                    }
                ]
            }
        ]
    },
    {
        "client_msg_id": "5e0dd48e-806c-4275-be53-888ddfadef77",
        "type": "message",
        "text": "I havent read the whole channel yet",
        "user": "UV0RRGB6H",
        "ts": "1584391895.009700",
        "team": "TUU48M0T1",
        "user_team": "TUU48M0T1",
        "source_team": "TUU48M0T1",
        "user_profile": {
            "avatar_hash": "48d4ab64c90c",
            "image_72": "https:\/\/avatars.slack-edge.com\/2020-03-26\/1029789176912_48d4ab64c90c03f3af4a_72.jpg",
            "first_name": "",
            "real_name": "Chris LB Graham",
            "display_name": "",
            "team": "TUU48M0T1",
            "name": "chris.graham",
            "is_restricted": false,
            "is_ultra_restricted": false
        },
        "blocks": [
            {
                "type": "rich_text",
                "block_id": "Fy3",
                "elements": [
                    {
                        "type": "rich_text_section",
                        "elements": [
                            {
                                "type": "text",
                                "text": "I havent read the whole channel yet"
                            }
                        ]
                    }
                ]
            }
        ]
    },
    {
        "client_msg_id": "7e386dec-a14b-4b2b-885f-f0d03d17d542",
        "type": "message",
        "text": "ill look up mammoth multiplier. I need to understand this.",
        "user": "UV0RRGB6H",
        "ts": "1584391938.010000",
        "team": "TUU48M0T1",
        "user_team": "TUU48M0T1",
        "source_team": "TUU48M0T1",
        "user_profile": {
            "avatar_hash": "48d4ab64c90c",
            "image_72": "https:\/\/avatars.slack-edge.com\/2020-03-26\/1029789176912_48d4ab64c90c03f3af4a_72.jpg",
            "first_name": "",
            "real_name": "Chris LB Graham",
            "display_name": "",
            "team": "TUU48M0T1",
            "name": "chris.graham",
            "is_restricted": false,
            "is_ultra_restricted": false
        },
        "blocks": [
            {
                "type": "rich_text",
                "block_id": "6Fy",
                "elements": [
                    {
                        "type": "rich_text_section",
                        "elements": [
                            {
                                "type": "text",
                                "text": "ill look up mammoth multiplier. I need to understand this."
                            }
                        ]
                    }
                ]
            }
        ]
    },
    {
        "client_msg_id": "5f3525f8-74ad-437a-9c63-a7ccb64c3b48",
        "type": "message",
        "text": "CrispR is easy though :slightly_smiling_face: I should say",
        "user": "UV0RRGB6H",
        "ts": "1584391951.010300",
        "team": "TUU48M0T1",
        "user_team": "TUU48M0T1",
        "source_team": "TUU48M0T1",
        "user_profile": {
            "avatar_hash": "48d4ab64c90c",
            "image_72": "https:\/\/avatars.slack-edge.com\/2020-03-26\/1029789176912_48d4ab64c90c03f3af4a_72.jpg",
            "first_name": "",
            "real_name": "Chris LB Graham",
            "display_name": "",
            "team": "TUU48M0T1",
            "name": "chris.graham",
            "is_restricted": false,
            "is_ultra_restricted": false
        },
        "blocks": [
            {
                "type": "rich_text",
                "block_id": "xLa",
                "elements": [
                    {
                        "type": "rich_text_section",
                        "elements": [
                            {
                                "type": "text",
                                "text": "CrispR is easy though "
                            },
                            {
                                "type": "emoji",
                                "name": "slightly_smiling_face"
                            },
                            {
                                "type": "text",
                                "text": " I should say"
                            }
                        ]
                    }
                ]
            }
        ]
    },
    {
        "client_msg_id": "b188d329-9cb6-48a6-be2f-7dc1fa34cbbc",
        "type": "message",
        "text": "rna is good for a bit honestly.",
        "user": "UV0RRGB6H",
        "ts": "1584391999.011100",
        "team": "TUU48M0T1",
        "user_team": "TUU48M0T1",
        "source_team": "TUU48M0T1",
        "user_profile": {
            "avatar_hash": "48d4ab64c90c",
            "image_72": "https:\/\/avatars.slack-edge.com\/2020-03-26\/1029789176912_48d4ab64c90c03f3af4a_72.jpg",
            "first_name": "",
            "real_name": "Chris LB Graham",
            "display_name": "",
            "team": "TUU48M0T1",
            "name": "chris.graham",
            "is_restricted": false,
            "is_ultra_restricted": false
        },
        "blocks": [
            {
                "type": "rich_text",
                "block_id": "TE7",
                "elements": [
                    {
                        "type": "rich_text_section",
                        "elements": [
                            {
                                "type": "text",
                                "text": "rna is good for a bit honestly."
                            }
                        ]
                    }
                ]
            }
        ]
    },
    {
        "client_msg_id": "b54e37ef-72cc-4264-887f-e77901d43639",
        "type": "message",
        "text": "you dont need to, just make sure its fast.",
        "user": "UV0RRGB6H",
        "ts": "1584392884.011200",
        "team": "TUU48M0T1",
        "user_team": "TUU48M0T1",
        "source_team": "TUU48M0T1",
        "user_profile": {
            "avatar_hash": "48d4ab64c90c",
            "image_72": "https:\/\/avatars.slack-edge.com\/2020-03-26\/1029789176912_48d4ab64c90c03f3af4a_72.jpg",
            "first_name": "",
            "real_name": "Chris LB Graham",
            "display_name": "",
            "team": "TUU48M0T1",
            "name": "chris.graham",
            "is_restricted": false,
            "is_ultra_restricted": false
        },
        "blocks": [
            {
                "type": "rich_text",
                "block_id": "dgZj",
                "elements": [
                    {
                        "type": "rich_text_section",
                        "elements": [
                            {
                                "type": "text",
                                "text": "you dont need to, just make sure its fast."
                            }
                        ]
                    }
                ]
            }
        ],
        "thread_ts": "1584391810.008900",
        "parent_user_id": "UV3HA9MM4"
    },
    {
        "client_msg_id": "8bb3b9e0-b888-4910-a236-5e798623d827",
        "type": "message",
        "text": "<@UV0RRGB6H> the CrispR plasmids also produce the necessary gRNA \/ crRNA ?\n<https:\/\/jogl-covid-19.slack.com\/archives\/CURQC583E\/p1584400047221000?thread_ts=1584397486.216100&amp;cid=CURQC583E>",
        "user": "UV3HA9MM4",
        "ts": "1584400769.000600",
        "team": "TUU48M0T1",
        "user_team": "TUU48M0T1",
        "source_team": "TUU48M0T1",
        "user_profile": {
            "avatar_hash": "b2f89757c831",
            "image_72": "https:\/\/avatars.slack-edge.com\/2020-03-07\/987455908032_b2f89757c8312ec04011_72.jpg",
            "first_name": "AJP",
            "real_name": "AJP",
            "display_name": "AJP",
            "team": "TUU48M0T1",
            "name": "bioajp",
            "is_restricted": false,
            "is_ultra_restricted": false
        },
        "attachments": [
            {
                "from_url": "https:\/\/jogl-covid-19.slack.com\/archives\/CURQC583E\/p1584400047221000?thread_ts=1584397486.216100&amp;cid=CURQC583E",
                "fallback": "[March 16th, 2020 4:07 PM] sophie006liu: The trickier part for us is making recombinant CRIPSR Cas 12a without needing to order the gRNA. Does anyone have tips on doing that? I tried looking into how CRISPR works in nature but I couldn’t find anything useful",
                "ts": "1584400047.221000",
                "author_id": "UUPFF4TC3",
                "author_subname": "Sophie Liu",
                "channel_id": "CURQC583E",
                "channel_name": "random",
                "is_msg_unfurl": true,
                "is_reply_unfurl": true,
                "text": "The trickier part for us is making recombinant CRIPSR Cas 12a without needing to order the gRNA. Does anyone have tips on doing that? I tried looking into how CRISPR works in nature but I couldn’t find anything useful",
                "author_name": "Sophie Liu",
                "author_link": "https:\/\/jogl-covid-19.slack.com\/team\/UUPFF4TC3",
                "author_icon": "https:\/\/secure.gravatar.com\/avatar\/563e1ed9e362af0ce5867baad4d7c568.jpg?s=48&d=https%3A%2F%2Fa.slack-edge.com%2Fdf10d%2Fimg%2Favatars%2Fava_0007-48.png",
                "mrkdwn_in": [
                    "text"
                ],
                "id": 1,
                "original_url": "https:\/\/jogl-covid-19.slack.com\/archives\/CURQC583E\/p1584400047221000?thread_ts=1584397486.216100&amp;cid=CURQC583E",
                "footer": "From a thread in #random"
            }
        ],
        "blocks": [
            {
                "type": "rich_text",
                "block_id": "p6c8",
                "elements": [
                    {
                        "type": "rich_text_section",
                        "elements": [
                            {
                                "type": "user",
                                "user_id": "UV0RRGB6H"
                            },
                            {
                                "type": "text",
                                "text": " the CrispR plasmids also produce the necessary gRNA \/ crRNA ?\n"
                            },
                            {
                                "type": "link",
                                "url": "https:\/\/jogl-covid-19.slack.com\/archives\/CURQC583E\/p1584400047221000?thread_ts=1584397486.216100&cid=CURQC583E"
                            }
                        ]
                    }
                ]
            }
        ]
    },
    {
        "client_msg_id": "598d35ca-12f3-4815-92b9-8a2d7846bf33",
        "type": "message",
        "text": "&gt; ill look up mammoth multiplier.\nNo that’s just the name I made up for this idea <@UUPFF4TC3> had… mainly because it sounds kinda cool!  :grin:",
        "user": "UV3HA9MM4",
        "ts": "1584400867.001800",
        "team": "TUU48M0T1",
        "user_team": "TUU48M0T1",
        "source_team": "TUU48M0T1",
        "user_profile": {
            "avatar_hash": "b2f89757c831",
            "image_72": "https:\/\/avatars.slack-edge.com\/2020-03-07\/987455908032_b2f89757c8312ec04011_72.jpg",
            "first_name": "AJP",
            "real_name": "AJP",
            "display_name": "AJP",
            "team": "TUU48M0T1",
            "name": "bioajp",
            "is_restricted": false,
            "is_ultra_restricted": false
        },
        "blocks": [
            {
                "type": "rich_text",
                "block_id": "stiPP",
                "elements": [
                    {
                        "type": "rich_text_quote",
                        "elements": [
                            {
                                "type": "text",
                                "text": "ill look up mammoth multiplier."
                            }
                        ]
                    },
                    {
                        "type": "rich_text_section",
                        "elements": [
                            {
                                "type": "text",
                                "text": "No that’s just the name I made up for this idea "
                            },
                            {
                                "type": "user",
                                "user_id": "UUPFF4TC3"
                            },
                            {
                                "type": "text",
                                "text": " had… mainly because it sounds kinda cool!  "
                            },
                            {
                                "type": "emoji",
                                "name": "grin"
                            }
                        ]
                    }
                ]
            }
        ]
    },
    {
        "type": "message",
        "subtype": "thread_broadcast",
        "text": "Good point.  Maybe this is version 1 and version 2 we try to remove extracellular RNase production from the bacteria… you kind of wonder how they produce RNase inside them in the first place because it must be translated as inactive before being transformed into active form outside the bacteria.  Also why they do it… why is nature so afraid of free RNA… what’s it going to do?  What terrible crimes has it done in the past… conversation for another day!",
        "user": "UV3HA9MM4",
        "ts": "1584401018.001900",
        "thread_ts": "1584391810.008900",
        "root": {
            "client_msg_id": "a6a6f771-2d60-4b4f-96f5-b0badf77fa74",
            "type": "message",
            "text": "What about the getting rid of the RNase from the E. coli genomes?",
            "user": "UV3HA9MM4",
            "ts": "1584391810.008900",
            "team": "TUU48M0T1",
            "blocks": [
                {
                    "type": "rich_text",
                    "block_id": "Fhr",
                    "elements": [
                        {
                            "type": "rich_text_section",
                            "elements": [
                                {
                                    "type": "text",
                                    "text": "What about the getting rid of the RNase from the E. coli genomes?"
                                }
                            ]
                        }
                    ]
                }
            ],
            "thread_ts": "1584391810.008900",
            "reply_count": 5,
            "reply_users_count": 3,
            "latest_reply": "1584808261.017200",
            "reply_users": [
                "UV0RRGB6H",
                "UV3HA9MM4",
                "UUPQGNNTV"
            ],
            "subscribed": false
        },
        "blocks": [
            {
                "type": "rich_text",
                "block_id": "4=gi",
                "elements": [
                    {
                        "type": "rich_text_section",
                        "elements": [
                            {
                                "type": "text",
                                "text": "Good point.  Maybe this is version 1 and version 2 we try to remove extracellular RNase production from the bacteria… you kind of wonder how they produce RNase inside them in the first place because it must be translated as inactive before being transformed into active form outside the bacteria.  Also why they do it… why is nature so afraid of free RNA… what’s it going to do?  What terrible crimes has it done in the past… conversation for another day!"
                            }
                        ]
                    }
                ]
            }
        ],
        "client_msg_id": "21399711-8812-4133-ad02-c1371d54f15d"
    },
    {
        "client_msg_id": "BA1C57B9-E767-4F66-AA5D-59A12166DF4F",
        "type": "message",
        "text": "*Just to clarify this was not my idea* this was mentioned to me by Zach and I’m just trying to carry out the plans!",
        "user": "UUPFF4TC3",
        "ts": "1584402478.003400",
        "team": "TUU48M0T1",
        "user_team": "TUU48M0T1",
        "source_team": "TUU48M0T1",
        "user_profile": {
            "avatar_hash": "g563e1ed9e36",
            "image_72": "https:\/\/secure.gravatar.com\/avatar\/563e1ed9e362af0ce5867baad4d7c568.jpg?s=72&d=https%3A%2F%2Fa.slack-edge.com%2Fdf10d%2Fimg%2Favatars%2Fava_0007-72.png",
            "first_name": "Sophie",
            "real_name": "Sophie Liu",
            "display_name": "Sophie Liu",
            "team": "TUU48M0T1",
            "name": "sophie006liu",
            "is_restricted": false,
            "is_ultra_restricted": false
        },
        "blocks": [
            {
                "type": "rich_text",
                "block_id": "\/Vt9",
                "elements": [
                    {
                        "type": "rich_text_section",
                        "elements": [
                            {
                                "type": "text",
                                "text": "Just to clarify this was not my idea",
                                "style": {
                                    "bold": true
                                }
                            },
                            {
                                "type": "text",
                                "text": " this was mentioned to me by Zach and I’m just trying to carry out the plans!"
                            }
                        ]
                    }
                ]
            }
        ]
    },
    {
        "client_msg_id": "4709df1c-759b-44ad-81f7-27dd4c58368e",
        "type": "message",
        "text": "Roger that <@UUPFF4TC3> … my mistake!  :grimacing:  <@UUUEFQW8N>\n(you guys are inspirational! :grin: )",
        "user": "UV3HA9MM4",
        "ts": "1584402554.004400",
        "team": "TUU48M0T1",
        "user_team": "TUU48M0T1",
        "source_team": "TUU48M0T1",
        "user_profile": {
            "avatar_hash": "b2f89757c831",
            "image_72": "https:\/\/avatars.slack-edge.com\/2020-03-07\/987455908032_b2f89757c8312ec04011_72.jpg",
            "first_name": "AJP",
            "real_name": "AJP",
            "display_name": "AJP",
            "team": "TUU48M0T1",
            "name": "bioajp",
            "is_restricted": false,
            "is_ultra_restricted": false
        },
        "blocks": [
            {
                "type": "rich_text",
                "block_id": "18h8",
                "elements": [
                    {
                        "type": "rich_text_section",
                        "elements": [
                            {
                                "type": "text",
                                "text": "Roger that "
                            },
                            {
                                "type": "user",
                                "user_id": "UUPFF4TC3"
                            },
                            {
                                "type": "text",
                                "text": " … my mistake!  "
                            },
                            {
                                "type": "emoji",
                                "name": "grimacing"
                            },
                            {
                                "type": "text",
                                "text": "  "
                            },
                            {
                                "type": "user",
                                "user_id": "UUUEFQW8N"
                            },
                            {
                                "type": "text",
                                "text": "\n(you guys are inspirational! "
                            },
                            {
                                "type": "emoji",
                                "name": "grin"
                            },
                            {
                                "type": "text",
                                "text": " )"
                            }
                        ]
                    }
                ]
            }
        ],
        "thread_ts": "1584402554.004400",
        "reply_count": 1,
        "reply_users_count": 1,
        "latest_reply": "1584471585.011800",
        "reply_users": [
            "UUPFF4TC3"
        ],
        "replies": [
            {
                "user": "UUPFF4TC3",
                "ts": "1584471585.011800"
            }
        ],
        "subscribed": true,
        "last_read": "1584402554.004400"
    },
    {
        "type": "message",
        "subtype": "channel_join",
        "ts": "1584402557.004600",
        "user": "UUUEFQW8N",
        "text": "<@UUUEFQW8N> has joined the channel",
        "inviter": "UV3HA9MM4"
    },
    {
        "type": "message",
        "text": "",
        "files": [
            {
                "id": "F0104RN5BQD",
                "created": 1584427499,
                "timestamp": 1584427499,
                "name": "Overall Plan.png",
                "title": "Overall Plan.png",
                "mimetype": "image\/png",
                "filetype": "png",
                "pretty_type": "PNG",
                "user": "UUPFF4TC3",
                "editable": false,
                "size": 337347,
                "mode": "hosted",
                "is_external": false,
                "external_type": "",
                "is_public": true,
                "public_url_shared": false,
                "display_as_bot": false,
                "username": "",
                "url_private": "https:\/\/files.slack.com\/files-pri\/TUU48M0T1-F0104RN5BQD\/overall_plan.png?t=xoxe-980144714919-1133254701825-1120841107731-daf595b5a7d6c9028b0b02a925032e36",
                "url_private_download": "https:\/\/files.slack.com\/files-pri\/TUU48M0T1-F0104RN5BQD\/download\/overall_plan.png?t=xoxe-980144714919-1133254701825-1120841107731-daf595b5a7d6c9028b0b02a925032e36",
                "thumb_64": "https:\/\/files.slack.com\/files-tmb\/TUU48M0T1-F0104RN5BQD-593f7234bd\/overall_plan_64.png?t=xoxe-980144714919-1133254701825-1120841107731-daf595b5a7d6c9028b0b02a925032e36",
                "thumb_80": "https:\/\/files.slack.com\/files-tmb\/TUU48M0T1-F0104RN5BQD-593f7234bd\/overall_plan_80.png?t=xoxe-980144714919-1133254701825-1120841107731-daf595b5a7d6c9028b0b02a925032e36",
                "thumb_360": "https:\/\/files.slack.com\/files-tmb\/TUU48M0T1-F0104RN5BQD-593f7234bd\/overall_plan_360.png?t=xoxe-980144714919-1133254701825-1120841107731-daf595b5a7d6c9028b0b02a925032e36",
                "thumb_360_w": 360,
                "thumb_360_h": 360,
                "thumb_480": "https:\/\/files.slack.com\/files-tmb\/TUU48M0T1-F0104RN5BQD-593f7234bd\/overall_plan_480.png?t=xoxe-980144714919-1133254701825-1120841107731-daf595b5a7d6c9028b0b02a925032e36",
                "thumb_480_w": 480,
                "thumb_480_h": 480,
                "thumb_160": "https:\/\/files.slack.com\/files-tmb\/TUU48M0T1-F0104RN5BQD-593f7234bd\/overall_plan_160.png?t=xoxe-980144714919-1133254701825-1120841107731-daf595b5a7d6c9028b0b02a925032e36",
                "thumb_720": "https:\/\/files.slack.com\/files-tmb\/TUU48M0T1-F0104RN5BQD-593f7234bd\/overall_plan_720.png?t=xoxe-980144714919-1133254701825-1120841107731-daf595b5a7d6c9028b0b02a925032e36",
                "thumb_720_w": 720,
                "thumb_720_h": 720,
                "thumb_800": "https:\/\/files.slack.com\/files-tmb\/TUU48M0T1-F0104RN5BQD-593f7234bd\/overall_plan_800.png?t=xoxe-980144714919-1133254701825-1120841107731-daf595b5a7d6c9028b0b02a925032e36",
                "thumb_800_w": 800,
                "thumb_800_h": 800,
                "thumb_960": "https:\/\/files.slack.com\/files-tmb\/TUU48M0T1-F0104RN5BQD-593f7234bd\/overall_plan_960.png?t=xoxe-980144714919-1133254701825-1120841107731-daf595b5a7d6c9028b0b02a925032e36",
                "thumb_960_w": 960,
                "thumb_960_h": 960,
                "thumb_1024": "https:\/\/files.slack.com\/files-tmb\/TUU48M0T1-F0104RN5BQD-593f7234bd\/overall_plan_1024.png?t=xoxe-980144714919-1133254701825-1120841107731-daf595b5a7d6c9028b0b02a925032e36",
                "thumb_1024_w": 1024,
                "thumb_1024_h": 1024,
                "image_exif_rotation": 1,
                "original_w": 1152,
                "original_h": 1152,
                "thumb_tiny": "AwAwADC7SUtFVYkbk+1GfcU7IHXil3D\/ACKAGg5paUCkIoATHNIEAJOTz704UvFADNopQoFO4\/yKSgAooopiAUufamNu\/hx+NOpDQuf9mmMfm6VJx\/eptAMbk0opplQEgtyKTzk\/vfpQB\/\/Z",
                "permalink": "https:\/\/open-covid19.slack.com\/files\/UUPFF4TC3\/F0104RN5BQD\/overall_plan.png",
                "permalink_public": "https:\/\/slack-files.com\/TUU48M0T1-F0104RN5BQD-9467260b77",
                "is_starred": false,
                "has_rich_preview": false
            }
        ],
        "upload": true,
        "user": "UUPFF4TC3",
        "display_as_bot": false,
        "ts": "1584427506.000100",
        "client_msg_id": "612fbdb2-6f97-4af6-bc69-d9e874a7fa53"
    },
    {
        "client_msg_id": "b25348af-94b2-4fa1-af9f-c4f641629ddb",
        "type": "message",
        "text": "Here's how I could envision such a test being carried out, didn't mention incubation times in the flow but I hope you get the idea",
        "user": "UUPFF4TC3",
        "ts": "1584427547.001100",
        "team": "TUU48M0T1",
        "user_team": "TUU48M0T1",
        "source_team": "TUU48M0T1",
        "user_profile": {
            "avatar_hash": "g563e1ed9e36",
            "image_72": "https:\/\/secure.gravatar.com\/avatar\/563e1ed9e362af0ce5867baad4d7c568.jpg?s=72&d=https%3A%2F%2Fa.slack-edge.com%2Fdf10d%2Fimg%2Favatars%2Fava_0007-72.png",
            "first_name": "Sophie",
            "real_name": "Sophie Liu",
            "display_name": "Sophie Liu",
            "team": "TUU48M0T1",
            "name": "sophie006liu",
            "is_restricted": false,
            "is_ultra_restricted": false
        },
        "blocks": [
            {
                "type": "rich_text",
                "block_id": "G\/ElP",
                "elements": [
                    {
                        "type": "rich_text_section",
                        "elements": [
                            {
                                "type": "text",
                                "text": "Here's how I could envision such a test being carried out, didn't mention incubation times in the flow but I hope you get the idea"
                            }
                        ]
                    }
                ]
            }
        ]
    },
    {
        "type": "message",
        "subtype": "channel_join",
        "ts": "1584427602.001300",
        "user": "U0101DKUALV",
        "text": "<@U0101DKUALV> has joined the channel",
        "inviter": "UUPFF4TC3"
    }
]