[
    {
        "client_msg_id": "36914f65-1259-49c6-8246-45d63fe0e6d5",
        "type": "message",
        "text": "no worries, not the best poll interface as you gotta click “take poll” instead of just selecting an option. gotcha down for sunday :thumbsup:",
        "user": "UVABNG1A9",
        "ts": "1585297545.016000",
        "team": "TUU48M0T1",
        "user_team": "TUU48M0T1",
        "source_team": "TUU48M0T1",
        "user_profile": {
            "avatar_hash": "a7524a427338",
            "image_72": "https:\/\/avatars.slack-edge.com\/2020-03-27\/1030980562116_a7524a427338ec909fa7_72.jpg",
            "first_name": "anoop",
            "real_name": "anoop",
            "display_name": "Anoop - JOGL UX\/UI",
            "team": "TUU48M0T1",
            "name": "anoopdeep",
            "is_restricted": false,
            "is_ultra_restricted": false
        },
        "blocks": [
            {
                "type": "rich_text",
                "block_id": "k50R5",
                "elements": [
                    {
                        "type": "rich_text_section",
                        "elements": [
                            {
                                "type": "text",
                                "text": "no worries, not the best poll interface as you gotta click “take poll” instead of just selecting an option. gotcha down for sunday "
                            },
                            {
                                "type": "emoji",
                                "name": "thumbsup"
                            }
                        ]
                    }
                ]
            }
        ],
        "thread_ts": "1585264458.013700",
        "parent_user_id": "UVABNG1A9"
    },
    {
        "type": "message",
        "text": "For all who are working on design-related activities, some resources from the website’s style guide. Can pass along cards for Inputs, Text Areas, Buttons, Selects, Dropdowns, Checks &amp; Radios, and Other elements as well — feel free to reach out if any can be helpful for you",
        "files": [
            {
                "id": "F010YMWBVFH",
                "created": 1585302396,
                "timestamp": 1585302396,
                "name": "01 - Colours.png",
                "title": "01 - Colours.png",
                "mimetype": "image\/png",
                "filetype": "png",
                "pretty_type": "PNG",
                "user": "UVABNG1A9",
                "editable": false,
                "size": 171951,
                "mode": "hosted",
                "is_external": false,
                "external_type": "",
                "is_public": true,
                "public_url_shared": false,
                "display_as_bot": false,
                "username": "",
                "url_private": "https:\/\/files.slack.com\/files-pri\/TUU48M0T1-F010YMWBVFH\/01_-_colours.png?t=xoxe-980144714919-1106606678066-1105227127893-6f722bb664235052954ad46852628b64",
                "url_private_download": "https:\/\/files.slack.com\/files-pri\/TUU48M0T1-F010YMWBVFH\/download\/01_-_colours.png?t=xoxe-980144714919-1106606678066-1105227127893-6f722bb664235052954ad46852628b64",
                "thumb_64": "https:\/\/files.slack.com\/files-tmb\/TUU48M0T1-F010YMWBVFH-8540cc4bc3\/01_-_colours_64.png?t=xoxe-980144714919-1106606678066-1105227127893-6f722bb664235052954ad46852628b64",
                "thumb_80": "https:\/\/files.slack.com\/files-tmb\/TUU48M0T1-F010YMWBVFH-8540cc4bc3\/01_-_colours_80.png?t=xoxe-980144714919-1106606678066-1105227127893-6f722bb664235052954ad46852628b64",
                "thumb_360": "https:\/\/files.slack.com\/files-tmb\/TUU48M0T1-F010YMWBVFH-8540cc4bc3\/01_-_colours_360.png?t=xoxe-980144714919-1106606678066-1105227127893-6f722bb664235052954ad46852628b64",
                "thumb_360_w": 360,
                "thumb_360_h": 256,
                "thumb_480": "https:\/\/files.slack.com\/files-tmb\/TUU48M0T1-F010YMWBVFH-8540cc4bc3\/01_-_colours_480.png?t=xoxe-980144714919-1106606678066-1105227127893-6f722bb664235052954ad46852628b64",
                "thumb_480_w": 480,
                "thumb_480_h": 341,
                "thumb_160": "https:\/\/files.slack.com\/files-tmb\/TUU48M0T1-F010YMWBVFH-8540cc4bc3\/01_-_colours_160.png?t=xoxe-980144714919-1106606678066-1105227127893-6f722bb664235052954ad46852628b64",
                "thumb_720": "https:\/\/files.slack.com\/files-tmb\/TUU48M0T1-F010YMWBVFH-8540cc4bc3\/01_-_colours_720.png?t=xoxe-980144714919-1106606678066-1105227127893-6f722bb664235052954ad46852628b64",
                "thumb_720_w": 720,
                "thumb_720_h": 512,
                "thumb_800": "https:\/\/files.slack.com\/files-tmb\/TUU48M0T1-F010YMWBVFH-8540cc4bc3\/01_-_colours_800.png?t=xoxe-980144714919-1106606678066-1105227127893-6f722bb664235052954ad46852628b64",
                "thumb_800_w": 800,
                "thumb_800_h": 569,
                "thumb_960": "https:\/\/files.slack.com\/files-tmb\/TUU48M0T1-F010YMWBVFH-8540cc4bc3\/01_-_colours_960.png?t=xoxe-980144714919-1106606678066-1105227127893-6f722bb664235052954ad46852628b64",
                "thumb_960_w": 960,
                "thumb_960_h": 683,
                "thumb_1024": "https:\/\/files.slack.com\/files-tmb\/TUU48M0T1-F010YMWBVFH-8540cc4bc3\/01_-_colours_1024.png?t=xoxe-980144714919-1106606678066-1105227127893-6f722bb664235052954ad46852628b64",
                "thumb_1024_w": 1024,
                "thumb_1024_h": 728,
                "image_exif_rotation": 1,
                "original_w": 2880,
                "original_h": 2048,
                "thumb_tiny": "AwAiADDSzzSmiorr\/UN+FCBkmR60ZHrWdB\/rk+tJN\/rn\/wB41fLqEPeNLNFUz\/x7RfjTrX\/WH6Vk5WlYvk0uW6ZKu+Mr60\/NBqiCqlvtdWx0ND2+52OOpqzRiq5mEfd2ITD+6RfSlii2MT7VLilqLa3K5nawUUUUyQooooAKKKKAP\/\/Z",
                "permalink": "https:\/\/open-covid19.slack.com\/files\/UVABNG1A9\/F010YMWBVFH\/01_-_colours.png",
                "permalink_public": "https:\/\/slack-files.com\/TUU48M0T1-F010YMWBVFH-93cfbbede7",
                "is_starred": false,
                "has_rich_preview": false
            },
            {
                "id": "F010W6K7PHA",
                "created": 1585302396,
                "timestamp": 1585302396,
                "name": "02 - Gradients.png",
                "title": "02 - Gradients.png",
                "mimetype": "image\/png",
                "filetype": "png",
                "pretty_type": "PNG",
                "user": "UVABNG1A9",
                "editable": false,
                "size": 891036,
                "mode": "hosted",
                "is_external": false,
                "external_type": "",
                "is_public": true,
                "public_url_shared": false,
                "display_as_bot": false,
                "username": "",
                "url_private": "https:\/\/files.slack.com\/files-pri\/TUU48M0T1-F010W6K7PHA\/02_-_gradients.png?t=xoxe-980144714919-1106606678066-1105227127893-6f722bb664235052954ad46852628b64",
                "url_private_download": "https:\/\/files.slack.com\/files-pri\/TUU48M0T1-F010W6K7PHA\/download\/02_-_gradients.png?t=xoxe-980144714919-1106606678066-1105227127893-6f722bb664235052954ad46852628b64",
                "thumb_64": "https:\/\/files.slack.com\/files-tmb\/TUU48M0T1-F010W6K7PHA-9f75e416b3\/02_-_gradients_64.png?t=xoxe-980144714919-1106606678066-1105227127893-6f722bb664235052954ad46852628b64",
                "thumb_80": "https:\/\/files.slack.com\/files-tmb\/TUU48M0T1-F010W6K7PHA-9f75e416b3\/02_-_gradients_80.png?t=xoxe-980144714919-1106606678066-1105227127893-6f722bb664235052954ad46852628b64",
                "thumb_360": "https:\/\/files.slack.com\/files-tmb\/TUU48M0T1-F010W6K7PHA-9f75e416b3\/02_-_gradients_360.png?t=xoxe-980144714919-1106606678066-1105227127893-6f722bb664235052954ad46852628b64",
                "thumb_360_w": 360,
                "thumb_360_h": 256,
                "thumb_480": "https:\/\/files.slack.com\/files-tmb\/TUU48M0T1-F010W6K7PHA-9f75e416b3\/02_-_gradients_480.png?t=xoxe-980144714919-1106606678066-1105227127893-6f722bb664235052954ad46852628b64",
                "thumb_480_w": 480,
                "thumb_480_h": 341,
                "thumb_160": "https:\/\/files.slack.com\/files-tmb\/TUU48M0T1-F010W6K7PHA-9f75e416b3\/02_-_gradients_160.png?t=xoxe-980144714919-1106606678066-1105227127893-6f722bb664235052954ad46852628b64",
                "thumb_720": "https:\/\/files.slack.com\/files-tmb\/TUU48M0T1-F010W6K7PHA-9f75e416b3\/02_-_gradients_720.png?t=xoxe-980144714919-1106606678066-1105227127893-6f722bb664235052954ad46852628b64",
                "thumb_720_w": 720,
                "thumb_720_h": 512,
                "thumb_800": "https:\/\/files.slack.com\/files-tmb\/TUU48M0T1-F010W6K7PHA-9f75e416b3\/02_-_gradients_800.png?t=xoxe-980144714919-1106606678066-1105227127893-6f722bb664235052954ad46852628b64",
                "thumb_800_w": 800,
                "thumb_800_h": 569,
                "thumb_960": "https:\/\/files.slack.com\/files-tmb\/TUU48M0T1-F010W6K7PHA-9f75e416b3\/02_-_gradients_960.png?t=xoxe-980144714919-1106606678066-1105227127893-6f722bb664235052954ad46852628b64",
                "thumb_960_w": 960,
                "thumb_960_h": 683,
                "thumb_1024": "https:\/\/files.slack.com\/files-tmb\/TUU48M0T1-F010W6K7PHA-9f75e416b3\/02_-_gradients_1024.png?t=xoxe-980144714919-1106606678066-1105227127893-6f722bb664235052954ad46852628b64",
                "thumb_1024_w": 1024,
                "thumb_1024_h": 728,
                "image_exif_rotation": 1,
                "original_w": 2880,
                "original_h": 2048,
                "thumb_tiny": "AwAiADDS5zS0UyZWeMqrFSe4oAfRVMW03\/Pw360v2Wb\/AJ+D+tVZdwLdFVPs03\/Pc\/rUkMTxsS0hYY6UWXcVyeo5t\/lHyiA\/bNSZoqRlIfbfVP0pwF56r+lWqWncdyqBd+q\/pUkXnbv3mMY7VNRSC4UUUUCCiiigAooooA\/\/2Q==",
                "permalink": "https:\/\/open-covid19.slack.com\/files\/UVABNG1A9\/F010W6K7PHA\/02_-_gradients.png",
                "permalink_public": "https:\/\/slack-files.com\/TUU48M0T1-F010W6K7PHA-268b73c1df",
                "is_starred": false,
                "has_rich_preview": false
            },
            {
                "id": "F010W6K7R44",
                "created": 1585302396,
                "timestamp": 1585302396,
                "name": "03 - Typography.png",
                "title": "03 - Typography.png",
                "mimetype": "image\/png",
                "filetype": "png",
                "pretty_type": "PNG",
                "user": "UVABNG1A9",
                "editable": false,
                "size": 370009,
                "mode": "hosted",
                "is_external": false,
                "external_type": "",
                "is_public": true,
                "public_url_shared": false,
                "display_as_bot": false,
                "username": "",
                "url_private": "https:\/\/files.slack.com\/files-pri\/TUU48M0T1-F010W6K7R44\/03_-_typography.png?t=xoxe-980144714919-1106606678066-1105227127893-6f722bb664235052954ad46852628b64",
                "url_private_download": "https:\/\/files.slack.com\/files-pri\/TUU48M0T1-F010W6K7R44\/download\/03_-_typography.png?t=xoxe-980144714919-1106606678066-1105227127893-6f722bb664235052954ad46852628b64",
                "thumb_64": "https:\/\/files.slack.com\/files-tmb\/TUU48M0T1-F010W6K7R44-e10735c9d7\/03_-_typography_64.png?t=xoxe-980144714919-1106606678066-1105227127893-6f722bb664235052954ad46852628b64",
                "thumb_80": "https:\/\/files.slack.com\/files-tmb\/TUU48M0T1-F010W6K7R44-e10735c9d7\/03_-_typography_80.png?t=xoxe-980144714919-1106606678066-1105227127893-6f722bb664235052954ad46852628b64",
                "thumb_360": "https:\/\/files.slack.com\/files-tmb\/TUU48M0T1-F010W6K7R44-e10735c9d7\/03_-_typography_360.png?t=xoxe-980144714919-1106606678066-1105227127893-6f722bb664235052954ad46852628b64",
                "thumb_360_w": 360,
                "thumb_360_h": 256,
                "thumb_480": "https:\/\/files.slack.com\/files-tmb\/TUU48M0T1-F010W6K7R44-e10735c9d7\/03_-_typography_480.png?t=xoxe-980144714919-1106606678066-1105227127893-6f722bb664235052954ad46852628b64",
                "thumb_480_w": 480,
                "thumb_480_h": 341,
                "thumb_160": "https:\/\/files.slack.com\/files-tmb\/TUU48M0T1-F010W6K7R44-e10735c9d7\/03_-_typography_160.png?t=xoxe-980144714919-1106606678066-1105227127893-6f722bb664235052954ad46852628b64",
                "thumb_720": "https:\/\/files.slack.com\/files-tmb\/TUU48M0T1-F010W6K7R44-e10735c9d7\/03_-_typography_720.png?t=xoxe-980144714919-1106606678066-1105227127893-6f722bb664235052954ad46852628b64",
                "thumb_720_w": 720,
                "thumb_720_h": 512,
                "thumb_800": "https:\/\/files.slack.com\/files-tmb\/TUU48M0T1-F010W6K7R44-e10735c9d7\/03_-_typography_800.png?t=xoxe-980144714919-1106606678066-1105227127893-6f722bb664235052954ad46852628b64",
                "thumb_800_w": 800,
                "thumb_800_h": 569,
                "thumb_960": "https:\/\/files.slack.com\/files-tmb\/TUU48M0T1-F010W6K7R44-e10735c9d7\/03_-_typography_960.png?t=xoxe-980144714919-1106606678066-1105227127893-6f722bb664235052954ad46852628b64",
                "thumb_960_w": 960,
                "thumb_960_h": 683,
                "thumb_1024": "https:\/\/files.slack.com\/files-tmb\/TUU48M0T1-F010W6K7R44-e10735c9d7\/03_-_typography_1024.png?t=xoxe-980144714919-1106606678066-1105227127893-6f722bb664235052954ad46852628b64",
                "thumb_1024_w": 1024,
                "thumb_1024_h": 728,
                "image_exif_rotation": 1,
                "original_w": 2880,
                "original_h": 2048,
                "thumb_tiny": "AwAiADDSzzS0Y96RunXFABRSAEL1qNYyNuH4BzQBLkDqRRUMkPmSEhh+VSRqUTaSDQA+kY4GaXNIRnrQA1WJB9qEYnrTgAO1GMUANyd+O1PoooAKKKKACiiigAooooA\/\/9k=",
                "permalink": "https:\/\/open-covid19.slack.com\/files\/UVABNG1A9\/F010W6K7R44\/03_-_typography.png",
                "permalink_public": "https:\/\/slack-files.com\/TUU48M0T1-F010W6K7R44-dc63f320e7",
                "is_starred": false,
                "has_rich_preview": false
            }
        ],
        "upload": true,
        "blocks": [
            {
                "type": "rich_text",
                "block_id": "EHJ",
                "elements": [
                    {
                        "type": "rich_text_section",
                        "elements": [
                            {
                                "type": "text",
                                "text": "For all who are working on design-related activities, some resources from the website’s style guide. Can pass along cards for Inputs, Text Areas, Buttons, Selects, Dropdowns, Checks & Radios, and Other elements as well — feel free to reach out if any can be helpful for you"
                            }
                        ]
                    }
                ]
            }
        ],
        "user": "UVABNG1A9",
        "ts": "1585302438.018800",
        "edited": {
            "user": "UVABNG1A9",
            "ts": "1585303505.000000"
        },
        "client_msg_id": "4025c506-a9f6-4280-9ec8-0331f400171e",
        "thread_ts": "1585302438.018800",
        "reply_count": 5,
        "reply_users_count": 4,
        "latest_reply": "1585609126.067500",
        "reply_users": [
            "U010RE1NDCG",
            "UVABNG1A9",
            "U010YA82ESJ",
            "UV6PMT2DQ"
        ],
        "replies": [
            {
                "user": "U010RE1NDCG",
                "ts": "1585302946.019500"
            },
            {
                "user": "UVABNG1A9",
                "ts": "1585303467.019700"
            },
            {
                "user": "U010YA82ESJ",
                "ts": "1585328903.020200"
            },
            {
                "user": "UVABNG1A9",
                "ts": "1585336045.020700"
            },
            {
                "user": "UV6PMT2DQ",
                "ts": "1585609126.067500"
            }
        ],
        "subscribed": false
    },
    {
        "client_msg_id": "62131792-672d-4d51-8d32-365242944076",
        "type": "message",
        "text": "The typeface for JOGL is beautiful. Feels closer to DIN. Nice!",
        "user": "U010RE1NDCG",
        "ts": "1585302946.019500",
        "team": "TUU48M0T1",
        "user_team": "TUU48M0T1",
        "source_team": "TUU48M0T1",
        "user_profile": {
            "avatar_hash": "9b536de47814",
            "image_72": "https:\/\/avatars.slack-edge.com\/2020-03-27\/1033593346022_9b536de4781429680ea1_72.jpg",
            "first_name": "",
            "real_name": "Prashant Sinha",
            "display_name": "",
            "team": "TUU48M0T1",
            "name": "prashant",
            "is_restricted": false,
            "is_ultra_restricted": false
        },
        "blocks": [
            {
                "type": "rich_text",
                "block_id": "JTi",
                "elements": [
                    {
                        "type": "rich_text_section",
                        "elements": [
                            {
                                "type": "text",
                                "text": "The typeface for JOGL is beautiful. Feels closer to DIN. Nice!"
                            }
                        ]
                    }
                ]
            }
        ],
        "thread_ts": "1585302438.018800",
        "parent_user_id": "UVABNG1A9"
    },
    {
        "client_msg_id": "e19cd4d2-f10e-442b-b5fd-3dec1695ab17",
        "type": "message",
        "text": "not my work but agreed. good looks!",
        "user": "UVABNG1A9",
        "ts": "1585303467.019700",
        "team": "TUU48M0T1",
        "user_team": "TUU48M0T1",
        "source_team": "TUU48M0T1",
        "user_profile": {
            "avatar_hash": "a7524a427338",
            "image_72": "https:\/\/avatars.slack-edge.com\/2020-03-27\/1030980562116_a7524a427338ec909fa7_72.jpg",
            "first_name": "anoop",
            "real_name": "anoop",
            "display_name": "Anoop - JOGL UX\/UI",
            "team": "TUU48M0T1",
            "name": "anoopdeep",
            "is_restricted": false,
            "is_ultra_restricted": false
        },
        "blocks": [
            {
                "type": "rich_text",
                "block_id": "yNpW",
                "elements": [
                    {
                        "type": "rich_text_section",
                        "elements": [
                            {
                                "type": "text",
                                "text": "not my work but agreed. good looks!"
                            }
                        ]
                    }
                ]
            }
        ],
        "thread_ts": "1585302438.018800",
        "parent_user_id": "UVABNG1A9"
    },
    {
        "client_msg_id": "7e8f062c-3e63-4b97-b7e1-e12de2d78ba6",
        "type": "message",
        "text": "Is there a Sketch ( or other program type ) download or anything for this + the other components you mentioned?",
        "user": "U010YA82ESJ",
        "ts": "1585328903.020200",
        "team": "TUU48M0T1",
        "user_team": "TUU48M0T1",
        "source_team": "TUU48M0T1",
        "user_profile": {
            "avatar_hash": "g3d19697fad0",
            "image_72": "https:\/\/secure.gravatar.com\/avatar\/3d19697fad09e30bc0dd64bfeb47a28e.jpg?s=72&d=https%3A%2F%2Fa.slack-edge.com%2Fdf10d%2Fimg%2Favatars%2Fava_0012-72.png",
            "first_name": "Brett",
            "real_name": "Brett Marshall",
            "display_name": "Brett",
            "team": "TUU48M0T1",
            "name": "graphfx21",
            "is_restricted": false,
            "is_ultra_restricted": false
        },
        "blocks": [
            {
                "type": "rich_text",
                "block_id": "i=L",
                "elements": [
                    {
                        "type": "rich_text_section",
                        "elements": [
                            {
                                "type": "text",
                                "text": "Is there a Sketch ( or other program type ) download or anything for this + the other components you mentioned?"
                            }
                        ]
                    }
                ]
            }
        ],
        "thread_ts": "1585302438.018800",
        "parent_user_id": "UVABNG1A9"
    },
    {
        "client_msg_id": "8b74e1d3-728b-41c2-801b-870a431c4c1f",
        "type": "message",
        "text": "yup! have Sketch files, will link",
        "user": "UVABNG1A9",
        "ts": "1585336045.020700",
        "team": "TUU48M0T1",
        "user_team": "TUU48M0T1",
        "source_team": "TUU48M0T1",
        "user_profile": {
            "avatar_hash": "a7524a427338",
            "image_72": "https:\/\/avatars.slack-edge.com\/2020-03-27\/1030980562116_a7524a427338ec909fa7_72.jpg",
            "first_name": "anoop",
            "real_name": "anoop",
            "display_name": "Anoop - JOGL UX\/UI",
            "team": "TUU48M0T1",
            "name": "anoopdeep",
            "is_restricted": false,
            "is_ultra_restricted": false
        },
        "blocks": [
            {
                "type": "rich_text",
                "block_id": "pFrq",
                "elements": [
                    {
                        "type": "rich_text_section",
                        "elements": [
                            {
                                "type": "text",
                                "text": "yup! have Sketch files, will link"
                            }
                        ]
                    }
                ]
            }
        ],
        "thread_ts": "1585302438.018800",
        "parent_user_id": "UVABNG1A9"
    },
    {
        "client_msg_id": "758f7275-8be8-4c71-81b4-a6169e08d4f3",
        "type": "message",
        "text": "Did you do the design sprint?",
        "user": "U0103LPAWQ4",
        "ts": "1585341004.021200",
        "team": "TUU48M0T1",
        "user_team": "TUU48M0T1",
        "source_team": "TUU48M0T1",
        "user_profile": {
            "avatar_hash": "7b345029e813",
            "image_72": "https:\/\/avatars.slack-edge.com\/2020-03-17\/1004213082549_7b345029e8137cbdc6b0_72.jpg",
            "first_name": "Bre",
            "real_name": "Bre",
            "display_name": "Bre",
            "team": "TUU48M0T1",
            "name": "info",
            "is_restricted": false,
            "is_ultra_restricted": false
        },
        "blocks": [
            {
                "type": "rich_text",
                "block_id": "2zD",
                "elements": [
                    {
                        "type": "rich_text_section",
                        "elements": [
                            {
                                "type": "text",
                                "text": "Did you do the design sprint?"
                            }
                        ]
                    }
                ]
            }
        ],
        "thread_ts": "1585264582.013900",
        "parent_user_id": "UVABNG1A9"
    },
    {
        "client_msg_id": "150899e3-bfd8-474e-bc8f-2ede9bd71e8b",
        "type": "message",
        "text": "I'd like to see the recording if there was one.",
        "user": "U0103LPAWQ4",
        "ts": "1585341053.021400",
        "team": "TUU48M0T1",
        "user_team": "TUU48M0T1",
        "source_team": "TUU48M0T1",
        "user_profile": {
            "avatar_hash": "7b345029e813",
            "image_72": "https:\/\/avatars.slack-edge.com\/2020-03-17\/1004213082549_7b345029e8137cbdc6b0_72.jpg",
            "first_name": "Bre",
            "real_name": "Bre",
            "display_name": "Bre",
            "team": "TUU48M0T1",
            "name": "info",
            "is_restricted": false,
            "is_ultra_restricted": false
        },
        "blocks": [
            {
                "type": "rich_text",
                "block_id": "3rY",
                "elements": [
                    {
                        "type": "rich_text_section",
                        "elements": [
                            {
                                "type": "text",
                                "text": "I'd like to see the recording if there was one."
                            }
                        ]
                    }
                ]
            }
        ],
        "thread_ts": "1585264582.013900",
        "parent_user_id": "UVABNG1A9"
    },
    {
        "bot_id": "B010X7M9PJT",
        "type": "message",
        "text": "@channel, I’ve announced a *<slack:\/\/app?team=TUU48M0T1&amp;id=AKHMRPUCT&amp;tab=home|Cloverpop>* decision!",
        "user": "UVABNG1A9",
        "ts": "1585352744.021900",
        "team": "TUU48M0T1",
        "bot_profile": {
            "id": "B010X7M9PJT",
            "deleted": false,
            "name": "Cloverpop",
            "updated": 1585248763,
            "app_id": "AKHMRPUCT",
            "icons": {
                "image_36": "https:\/\/avatars.slack-edge.com\/2019-10-08\/775562855714_7f791d2af39b650a825a_36.png",
                "image_48": "https:\/\/avatars.slack-edge.com\/2019-10-08\/775562855714_7f791d2af39b650a825a_48.png",
                "image_72": "https:\/\/avatars.slack-edge.com\/2019-10-08\/775562855714_7f791d2af39b650a825a_72.png"
            },
            "team_id": "TUU48M0T1"
        },
        "edited": {
            "user": "B010X7M9PJT",
            "ts": "1585352744.000000"
        },
        "blocks": [
            {
                "type": "context",
                "block_id": "NytdA",
                "elements": [
                    {
                        "fallback": "88x88px image",
                        "image_url": "https:\/\/avatars.slack-edge.com\/2019-06-07\/661037330918_c66299258658692de505_88.png",
                        "image_width": 88,
                        "image_height": 88,
                        "image_bytes": 7025,
                        "type": "image",
                        "alt_text": "Cloverpop"
                    },
                    {
                        "type": "mrkdwn",
                        "text": "<!channel>, I’ve announced a *<slack:\/\/app?team=TUU48M0T1&amp;id=AKHMRPUCT&amp;tab=home|Cloverpop>* decision!",
                        "verbatim": false
                    }
                ]
            },
            {
                "type": "section",
                "block_id": "yssb",
                "text": {
                    "type": "mrkdwn",
                    "text": "*Are you available for a UX design sprint from 5pm - 9pm UTC on*",
                    "verbatim": false
                }
            },
            {
                "type": "section",
                "block_id": "JM4mw",
                "text": {
                    "type": "mrkdwn",
                    "text": "Let's begin on Saturday, March 28th @ 5pm UTC with the goal of developing User Journeys &amp; HMWs by 9pm UTC. &amp; then determine if reconvening on Sunday @ 5pm UTC to Ideate &amp; build User Stories is feasible. Will send out an agenda &amp; supporting docs in advance!",
                    "verbatim": false
                }
            },
            {
                "type": "actions",
                "block_id": "participants_actions_block",
                "elements": [
                    {
                        "type": "button",
                        "action_id": "6qqNY",
                        "text": {
                            "type": "plain_text",
                            "text": "Show Details",
                            "emoji": true
                        },
                        "value": "announcement_show_details"
                    }
                ]
            }
        ],
        "thread_ts": "1585352744.021900",
        "reply_count": 4,
        "reply_users_count": 2,
        "latest_reply": "1585415036.027100",
        "reply_users": [
            "UV02WET96",
            "UVABNG1A9"
        ],
        "replies": [
            {
                "user": "UV02WET96",
                "ts": "1585413117.025900"
            },
            {
                "user": "UV02WET96",
                "ts": "1585414826.026700"
            },
            {
                "user": "UV02WET96",
                "ts": "1585414991.026900"
            },
            {
                "user": "UVABNG1A9",
                "ts": "1585415036.027100"
            }
        ],
        "subscribed": false,
        "reactions": [
            {
                "name": "+1",
                "users": [
                    "U010HGKFDNE",
                    "UV02WET96"
                ],
                "count": 2
            }
        ]
    },
    {
        "client_msg_id": "3e8cc942-cac5-47f0-8430-fde1e20b44b5",
        "type": "message",
        "text": "Hi Bre! Sprint scheduled for 5p - 9p UTC on Saturday, March 28th. Will record as much as possible. In any case, would love to find time to jump on a call &amp; see how best to collaborate moving forward",
        "user": "UVABNG1A9",
        "ts": "1585352890.022300",
        "team": "TUU48M0T1",
        "user_team": "TUU48M0T1",
        "source_team": "TUU48M0T1",
        "user_profile": {
            "avatar_hash": "a7524a427338",
            "image_72": "https:\/\/avatars.slack-edge.com\/2020-03-27\/1030980562116_a7524a427338ec909fa7_72.jpg",
            "first_name": "anoop",
            "real_name": "anoop",
            "display_name": "Anoop - JOGL UX\/UI",
            "team": "TUU48M0T1",
            "name": "anoopdeep",
            "is_restricted": false,
            "is_ultra_restricted": false
        },
        "blocks": [
            {
                "type": "rich_text",
                "block_id": "Yi=j",
                "elements": [
                    {
                        "type": "rich_text_section",
                        "elements": [
                            {
                                "type": "text",
                                "text": "Hi Bre! Sprint scheduled for 5p - 9p UTC on Saturday, March 28th. Will record as much as possible. In any case, would love to find time to jump on a call & see how best to collaborate moving forward"
                            }
                        ]
                    }
                ]
            }
        ],
        "thread_ts": "1585264582.013900",
        "parent_user_id": "UVABNG1A9"
    },
    {
        "client_msg_id": "2f8d3276-3b6f-4d20-a604-d0772bfebab3",
        "type": "message",
        "text": "I think that would be at 5 am here in Australia. I might be up and available around that time but would have to jump off when the family wakes up.",
        "user": "U0103LPAWQ4",
        "ts": "1585358240.022800",
        "team": "TUU48M0T1",
        "user_team": "TUU48M0T1",
        "source_team": "TUU48M0T1",
        "user_profile": {
            "avatar_hash": "7b345029e813",
            "image_72": "https:\/\/avatars.slack-edge.com\/2020-03-17\/1004213082549_7b345029e8137cbdc6b0_72.jpg",
            "first_name": "Bre",
            "real_name": "Bre",
            "display_name": "Bre",
            "team": "TUU48M0T1",
            "name": "info",
            "is_restricted": false,
            "is_ultra_restricted": false
        },
        "blocks": [
            {
                "type": "rich_text",
                "block_id": "oEwv",
                "elements": [
                    {
                        "type": "rich_text_section",
                        "elements": [
                            {
                                "type": "text",
                                "text": "I think that would be at 5 am here in Australia. I might be up and available around that time but would have to jump off when the family wakes up."
                            }
                        ]
                    }
                ]
            }
        ],
        "thread_ts": "1585264582.013900",
        "parent_user_id": "UVABNG1A9"
    },
    {
        "type": "message",
        "subtype": "channel_join",
        "ts": "1585371513.023200",
        "user": "U010W8C1LBF",
        "text": "<@U010W8C1LBF> has joined the channel",
        "inviter": "U010HGKFDNE"
    },
    {
        "type": "message",
        "subtype": "channel_join",
        "ts": "1585371543.023500",
        "user": "U010KB8AV6W",
        "text": "<@U010KB8AV6W> has joined the channel",
        "inviter": "U010HGKFDNE"
    },
    {
        "type": "message",
        "subtype": "channel_join",
        "ts": "1585371543.023700",
        "user": "UVCS0865Q",
        "text": "<@UVCS0865Q> has joined the channel",
        "inviter": "U010HGKFDNE"
    }
]