[
    {
        "client_msg_id": "03e391a7-5dfd-4da5-9507-e621e278bae4",
        "type": "message",
        "text": "<https:\/\/about.canva.com\/canva-for-nonprofits\/?utm_medium=pr&amp;utm_source=news&amp;utm_campaign=nfp_program>",
        "user": "U0103LPAWQ4",
        "ts": "1586940128.093700",
        "team": "TUU48M0T1",
        "user_team": "TUU48M0T1",
        "source_team": "TUU48M0T1",
        "user_profile": {
            "avatar_hash": "7b345029e813",
            "image_72": "https:\/\/avatars.slack-edge.com\/2020-03-17\/1004213082549_7b345029e8137cbdc6b0_72.jpg",
            "first_name": "Bre",
            "real_name": "Bre",
            "display_name": "Bre",
            "team": "TUU48M0T1",
            "name": "info",
            "is_restricted": false,
            "is_ultra_restricted": false
        },
        "attachments": [
            {
                "service_name": "About Canva",
                "title": "Canva for Nonprofits",
                "title_link": "https:\/\/about.canva.com\/canva-for-nonprofits\/?utm_medium=pr&utm_source=news&utm_campaign=nfp_program",
                "text": "Empower your team to create high-impact social media graphics and marketing materials. Canva offers its premium version free to registered nonprofits.",
                "fallback": "About Canva: Canva for Nonprofits",
                "ts": 1444292842,
                "from_url": "https:\/\/about.canva.com\/canva-for-nonprofits\/?utm_medium=pr&utm_source=news&utm_campaign=nfp_program",
                "service_icon": "https:\/\/static.canva.com\/static\/images\/apple-touch-120x120.png",
                "id": 1,
                "original_url": "https:\/\/about.canva.com\/canva-for-nonprofits\/?utm_medium=pr&amp;utm_source=news&amp;utm_campaign=nfp_program"
            }
        ],
        "blocks": [
            {
                "type": "rich_text",
                "block_id": "B9M",
                "elements": [
                    {
                        "type": "rich_text_section",
                        "elements": [
                            {
                                "type": "link",
                                "url": "https:\/\/about.canva.com\/canva-for-nonprofits\/?utm_medium=pr&utm_source=news&utm_campaign=nfp_program"
                            }
                        ]
                    }
                ]
            }
        ],
        "thread_ts": "1586940128.093700",
        "reply_count": 1,
        "reply_users_count": 1,
        "latest_reply": "1586959595.094100",
        "reply_users": [
            "UUWPKNE2E"
        ],
        "replies": [
            {
                "user": "UUWPKNE2E",
                "ts": "1586959595.094100"
            }
        ],
        "subscribed": false,
        "reactions": [
            {
                "name": "+1",
                "users": [
                    "U01113Y1PLP",
                    "UUWPKNE2E",
                    "U010Q3372P3"
                ],
                "count": 3
            }
        ]
    },
    {
        "client_msg_id": "29e0efb9-d155-40a8-b4ee-2058af09abc7",
        "type": "message",
        "text": "thank you <@U0103LPAWQ4>, we'll have a look at this!",
        "user": "UUWPKNE2E",
        "ts": "1586959595.094100",
        "team": "TUU48M0T1",
        "user_team": "TUU48M0T1",
        "source_team": "TUU48M0T1",
        "user_profile": {
            "avatar_hash": "f620efd9688e",
            "image_72": "https:\/\/avatars.slack-edge.com\/2020-03-12\/997456647751_f620efd9688ed753ecfc_72.jpg",
            "first_name": "Luca",
            "real_name": "Luca Haenel",
            "display_name": "Luca Haenel - JOGL Developer",
            "team": "TUU48M0T1",
            "name": "luca.haenel",
            "is_restricted": false,
            "is_ultra_restricted": false
        },
        "blocks": [
            {
                "type": "rich_text",
                "block_id": "vX66t",
                "elements": [
                    {
                        "type": "rich_text_section",
                        "elements": [
                            {
                                "type": "text",
                                "text": "thank you "
                            },
                            {
                                "type": "user",
                                "user_id": "U0103LPAWQ4"
                            },
                            {
                                "type": "text",
                                "text": ", we'll have a look at this!"
                            }
                        ]
                    }
                ]
            }
        ],
        "thread_ts": "1586940128.093700",
        "parent_user_id": "U0103LPAWQ4",
        "reactions": [
            {
                "name": "+1::skin-tone-4",
                "users": [
                    "U0103LPAWQ4",
                    "UV9V03C8Y"
                ],
                "count": 2
            }
        ]
    }
]