[
    {
        "client_msg_id": "d807f7e8-6369-4ae9-9cc0-5a276a6ce15f",
        "type": "message",
        "text": ":wave: <!subteam^S01265GRL15|@project-leads> *— please join this channel to share your suggestions on how OpenCovid19 could be improved to help _you_ build your solutions!* :ballot_box_with_ballot:",
        "user": "U011B6VLM2A",
        "ts": "1588598656.006300",
        "team": "TUU48M0T1",
        "user_team": "TUU48M0T1",
        "source_team": "TUU48M0T1",
        "user_profile": {
            "avatar_hash": "4231dc598cfc",
            "image_72": "https:\/\/avatars.slack-edge.com\/2020-04-02\/1044784558839_4231dc598cfc2e59c4c4_72.jpg",
            "first_name": "Alix",
            "real_name": "Alix Mains",
            "display_name": "Alix Mains - JOGL Coordinator",
            "team": "TUU48M0T1",
            "name": "alixhmains",
            "is_restricted": false,
            "is_ultra_restricted": false
        },
        "blocks": [
            {
                "type": "rich_text",
                "block_id": "vO0",
                "elements": [
                    {
                        "type": "rich_text_section",
                        "elements": [
                            {
                                "type": "emoji",
                                "name": "wave"
                            },
                            {
                                "type": "text",
                                "text": " "
                            },
                            {
                                "type": "usergroup",
                                "usergroup_id": "S01265GRL15"
                            },
                            {
                                "type": "text",
                                "text": " "
                            },
                            {
                                "type": "text",
                                "text": "— please join this channel to share your suggestions on how OpenCovid19 could be improved to help ",
                                "style": {
                                    "bold": true
                                }
                            },
                            {
                                "type": "text",
                                "text": "you",
                                "style": {
                                    "bold": true,
                                    "italic": true
                                }
                            },
                            {
                                "type": "text",
                                "text": " build your solutions!",
                                "style": {
                                    "bold": true
                                }
                            },
                            {
                                "type": "text",
                                "text": " "
                            },
                            {
                                "type": "emoji",
                                "name": "ballot_box_with_ballot"
                            }
                        ]
                    }
                ]
            }
        ]
    },
    {
        "type": "message",
        "subtype": "channel_join",
        "ts": "1588598660.006500",
        "user": "UUNGFHSV8",
        "text": "<@UUNGFHSV8> has joined the channel",
        "inviter": "U011B6VLM2A"
    },
    {
        "type": "message",
        "subtype": "channel_join",
        "ts": "1588598660.006700",
        "user": "UUPFF4TC3",
        "text": "<@UUPFF4TC3> has joined the channel",
        "inviter": "U011B6VLM2A"
    },
    {
        "type": "message",
        "subtype": "channel_join",
        "ts": "1588598660.006900",
        "user": "UUPQGNNTV",
        "text": "<@UUPQGNNTV> has joined the channel",
        "inviter": "U011B6VLM2A"
    },
    {
        "type": "message",
        "subtype": "channel_join",
        "ts": "1588598660.007100",
        "user": "UV10KBUQG",
        "text": "<@UV10KBUQG> has joined the channel",
        "inviter": "U011B6VLM2A"
    },
    {
        "type": "message",
        "subtype": "channel_join",
        "ts": "1588598660.007300",
        "user": "UV1A22N3W",
        "text": "<@UV1A22N3W> has joined the channel",
        "inviter": "U011B6VLM2A"
    },
    {
        "type": "message",
        "subtype": "channel_join",
        "ts": "1588598660.007500",
        "user": "UV3URUKK5",
        "text": "<@UV3URUKK5> has joined the channel",
        "inviter": "U011B6VLM2A"
    },
    {
        "type": "message",
        "subtype": "channel_join",
        "ts": "1588598660.008000",
        "user": "UV8T52QJ3",
        "text": "<@UV8T52QJ3> has joined the channel",
        "inviter": "U011B6VLM2A"
    },
    {
        "type": "message",
        "subtype": "channel_join",
        "ts": "1588598660.008300",
        "user": "UVA0E24KZ",
        "text": "<@UVA0E24KZ> has joined the channel",
        "inviter": "U011B6VLM2A"
    },
    {
        "type": "message",
        "subtype": "channel_join",
        "ts": "1588598660.008500",
        "user": "UVA46RKLY",
        "text": "<@UVA46RKLY> has joined the channel",
        "inviter": "U011B6VLM2A"
    },
    {
        "type": "message",
        "subtype": "channel_join",
        "ts": "1588598661.008700",
        "user": "UVADMLUB0",
        "text": "<@UVADMLUB0> has joined the channel",
        "inviter": "U011B6VLM2A"
    },
    {
        "type": "message",
        "subtype": "channel_join",
        "ts": "1588598661.009000",
        "user": "U0104M5CWV9",
        "text": "<@U0104M5CWV9> has joined the channel",
        "inviter": "U011B6VLM2A"
    },
    {
        "type": "message",
        "subtype": "channel_join",
        "ts": "1588598661.009500",
        "user": "U01084P4ELX",
        "text": "<@U01084P4ELX> has joined the channel",
        "inviter": "U011B6VLM2A"
    },
    {
        "type": "message",
        "subtype": "channel_join",
        "ts": "1588598661.009800",
        "user": "U01089UEU30",
        "text": "<@U01089UEU30> has joined the channel",
        "inviter": "U011B6VLM2A"
    },
    {
        "type": "message",
        "subtype": "channel_join",
        "ts": "1588598661.010000",
        "user": "U0108DWH5NH",
        "text": "<@U0108DWH5NH> has joined the channel",
        "inviter": "U011B6VLM2A"
    },
    {
        "type": "message",
        "subtype": "channel_join",
        "ts": "1588598661.010600",
        "user": "U010B4EJG2C",
        "text": "<@U010B4EJG2C> has joined the channel",
        "inviter": "U011B6VLM2A"
    },
    {
        "type": "message",
        "subtype": "channel_join",
        "ts": "1588598661.010900",
        "user": "U010Q3G4MDF",
        "text": "<@U010Q3G4MDF> has joined the channel",
        "inviter": "U011B6VLM2A"
    },
    {
        "type": "message",
        "subtype": "channel_join",
        "ts": "1588598661.011100",
        "user": "U010QHBTBPY",
        "text": "<@U010QHBTBPY> has joined the channel",
        "inviter": "U011B6VLM2A"
    },
    {
        "type": "message",
        "subtype": "channel_join",
        "ts": "1588598662.011300",
        "user": "U010YT4BM34",
        "text": "<@U010YT4BM34> has joined the channel",
        "inviter": "U011B6VLM2A"
    },
    {
        "type": "message",
        "subtype": "channel_join",
        "ts": "1588598662.011500",
        "user": "U010Z4GHYGG",
        "text": "<@U010Z4GHYGG> has joined the channel",
        "inviter": "U011B6VLM2A"
    },
    {
        "type": "message",
        "subtype": "channel_join",
        "ts": "1588598662.011800",
        "user": "U0115R9V9CJ",
        "text": "<@U0115R9V9CJ> has joined the channel",
        "inviter": "U011B6VLM2A"
    },
    {
        "type": "message",
        "subtype": "channel_join",
        "ts": "1588598662.012300",
        "user": "U0119U5N3T3",
        "text": "<@U0119U5N3T3> has joined the channel",
        "inviter": "U011B6VLM2A"
    },
    {
        "type": "message",
        "subtype": "channel_join",
        "ts": "1588598662.012600",
        "user": "U011BAD8A5V",
        "text": "<@U011BAD8A5V> has joined the channel",
        "inviter": "U011B6VLM2A"
    },
    {
        "type": "message",
        "subtype": "channel_join",
        "ts": "1588598662.012800",
        "user": "U011D6K9RH6",
        "text": "<@U011D6K9RH6> has joined the channel",
        "inviter": "U011B6VLM2A"
    },
    {
        "type": "message",
        "subtype": "channel_join",
        "ts": "1588598662.013000",
        "user": "U011G0QGFN3",
        "text": "<@U011G0QGFN3> has joined the channel",
        "inviter": "U011B6VLM2A"
    },
    {
        "type": "message",
        "subtype": "channel_join",
        "ts": "1588598663.013400",
        "user": "U011NP2GGJJ",
        "text": "<@U011NP2GGJJ> has joined the channel",
        "inviter": "U011B6VLM2A"
    },
    {
        "type": "message",
        "subtype": "channel_join",
        "ts": "1588598663.013600",
        "user": "U011XCJJ7KK",
        "text": "<@U011XCJJ7KK> has joined the channel",
        "inviter": "U011B6VLM2A"
    },
    {
        "type": "message",
        "subtype": "channel_join",
        "ts": "1588598663.013800",
        "user": "U012G0X589F",
        "text": "<@U012G0X589F> has joined the channel",
        "inviter": "U011B6VLM2A"
    },
    {
        "type": "message",
        "subtype": "channel_join",
        "ts": "1588598663.014200",
        "user": "U012PAADW2Y",
        "text": "<@U012PAADW2Y> has joined the channel",
        "inviter": "U011B6VLM2A"
    }
]