[
    {
        "client_msg_id": "182E7898-7421-444E-B2BF-1CC89DE03376",
        "type": "message",
        "text": "Good news <@UV2SC7ZE3>! I’ve changed the google agenda so that I can add now more admins. What is your email address ? I’m going to add you ",
        "user": "UV02WET96",
        "ts": "1585482688.098800",
        "team": "TUU48M0T1",
        "user_team": "TUU48M0T1",
        "source_team": "TUU48M0T1",
        "user_profile": {
            "avatar_hash": "a99c74a194f8",
            "image_72": "https:\/\/avatars.slack-edge.com\/2020-03-07\/975708504851_a99c74a194f86715ca7d_72.png",
            "first_name": "Thomas",
            "real_name": "Thomas Landrain",
            "display_name": "Thomas Landrain - JOGL CoFounder \/ CEO",
            "team": "TUU48M0T1",
            "name": "thomas",
            "is_restricted": false,
            "is_ultra_restricted": false
        },
        "blocks": [
            {
                "type": "rich_text",
                "block_id": "PECCM",
                "elements": [
                    {
                        "type": "rich_text_section",
                        "elements": [
                            {
                                "type": "text",
                                "text": "Good news "
                            },
                            {
                                "type": "user",
                                "user_id": "UV2SC7ZE3"
                            },
                            {
                                "type": "text",
                                "text": "! I’ve changed the google agenda so that I can add now more admins. What is your email address ? I’m going to add you "
                            }
                        ]
                    }
                ]
            }
        ],
        "thread_ts": "1585482688.098800",
        "reply_count": 2,
        "reply_users_count": 1,
        "latest_reply": "1585495536.100100",
        "reply_users": [
            "UV2SC7ZE3"
        ],
        "replies": [
            {
                "user": "UV2SC7ZE3",
                "ts": "1585493481.099900"
            },
            {
                "user": "UV2SC7ZE3",
                "ts": "1585495536.100100"
            }
        ],
        "subscribed": false
    },
    {
        "client_msg_id": "BCD896DA-464E-47E4-9DC0-BAD4CAAF4430",
        "type": "message",
        "text": "The new calendar is now this one and should be shared to everyone:\n\n<https:\/\/calendar.google.com\/calendar\/b\/1?cid=c2xpZmZxNmUwN2lpcHVoMHI5cW1nMjhtMWdAZ3JvdXAuY2FsZW5kYXIuZ29vZ2xlLmNvbQ|https:\/\/calendar.google.com\/calendar\/b\/1?cid=c2xpZmZxNmUwN2lpcHVoMHI5cW1nMjhtMWdAZ3JvdXAuY2FsZW5kYXIuZ29vZ2xlLmNvbQ>",
        "user": "UV02WET96",
        "ts": "1585482727.099500",
        "team": "TUU48M0T1",
        "user_team": "TUU48M0T1",
        "source_team": "TUU48M0T1",
        "user_profile": {
            "avatar_hash": "a99c74a194f8",
            "image_72": "https:\/\/avatars.slack-edge.com\/2020-03-07\/975708504851_a99c74a194f86715ca7d_72.png",
            "first_name": "Thomas",
            "real_name": "Thomas Landrain",
            "display_name": "Thomas Landrain - JOGL CoFounder \/ CEO",
            "team": "TUU48M0T1",
            "name": "thomas",
            "is_restricted": false,
            "is_ultra_restricted": false
        },
        "attachments": [
            {
                "title": "Google Calendar",
                "title_link": "https:\/\/calendar.google.com\/calendar\/b\/1?cid=c2xpZmZxNmUwN2lpcHVoMHI5cW1nMjhtMWdAZ3JvdXAuY2FsZW5kYXIuZ29vZ2xlLmNvbQ",
                "text": "With Google's free online calendar, it’s easy to keep track of life’s important events all in one place.",
                "fallback": "Google Calendar",
                "from_url": "https:\/\/calendar.google.com\/calendar\/b\/1?cid=c2xpZmZxNmUwN2lpcHVoMHI5cW1nMjhtMWdAZ3JvdXAuY2FsZW5kYXIuZ29vZ2xlLmNvbQ",
                "service_icon": "https:\/\/accounts.google.com\/favicon.ico",
                "service_name": "accounts.google.com",
                "id": 1,
                "original_url": "https:\/\/calendar.google.com\/calendar\/b\/1?cid=c2xpZmZxNmUwN2lpcHVoMHI5cW1nMjhtMWdAZ3JvdXAuY2FsZW5kYXIuZ29vZ2xlLmNvbQ"
            }
        ],
        "blocks": [
            {
                "type": "rich_text",
                "block_id": "ARSq",
                "elements": [
                    {
                        "type": "rich_text_section",
                        "elements": [
                            {
                                "type": "text",
                                "text": "The new calendar is now this one and should be shared to everyone:\n\n"
                            },
                            {
                                "type": "link",
                                "url": "https:\/\/calendar.google.com\/calendar\/b\/1?cid=c2xpZmZxNmUwN2lpcHVoMHI5cW1nMjhtMWdAZ3JvdXAuY2FsZW5kYXIuZ29vZ2xlLmNvbQ",
                                "text": "https:\/\/calendar.google.com\/calendar\/b\/1?cid=c2xpZmZxNmUwN2lpcHVoMHI5cW1nMjhtMWdAZ3JvdXAuY2FsZW5kYXIuZ29vZ2xlLmNvbQ"
                            }
                        ]
                    }
                ]
            }
        ],
        "reactions": [
            {
                "name": "+1",
                "users": [
                    "UV2SC7ZE3"
                ],
                "count": 1
            }
        ]
    },
    {
        "client_msg_id": "d3a76038-704c-44e1-a8d4-e25028171837",
        "type": "message",
        "text": "<mailto:ludavidyi@gmail.com|ludavidyi@gmail.com>",
        "user": "UV2SC7ZE3",
        "ts": "1585493481.099900",
        "team": "TUU48M0T1",
        "user_team": "TUU48M0T1",
        "source_team": "TUU48M0T1",
        "user_profile": {
            "avatar_hash": "d28dd0d076e8",
            "image_72": "https:\/\/avatars.slack-edge.com\/2020-03-14\/987873094258_d28dd0d076e8fa9a8409_72.png",
            "first_name": "David",
            "real_name": "David Lu",
            "display_name": "David Lu",
            "team": "TUU48M0T1",
            "name": "ludavidyi",
            "is_restricted": false,
            "is_ultra_restricted": false
        },
        "blocks": [
            {
                "type": "rich_text",
                "block_id": "Kcqcl",
                "elements": [
                    {
                        "type": "rich_text_section",
                        "elements": [
                            {
                                "type": "link",
                                "url": "mailto:ludavidyi@gmail.com",
                                "text": "ludavidyi@gmail.com"
                            }
                        ]
                    }
                ]
            }
        ],
        "thread_ts": "1585482688.098800",
        "parent_user_id": "UV02WET96"
    },
    {
        "client_msg_id": "6d31ce24-64d2-4bbd-b6b7-9211753b722d",
        "type": "message",
        "text": "thanks!",
        "user": "UV2SC7ZE3",
        "ts": "1585495536.100100",
        "team": "TUU48M0T1",
        "user_team": "TUU48M0T1",
        "source_team": "TUU48M0T1",
        "user_profile": {
            "avatar_hash": "d28dd0d076e8",
            "image_72": "https:\/\/avatars.slack-edge.com\/2020-03-14\/987873094258_d28dd0d076e8fa9a8409_72.png",
            "first_name": "David",
            "real_name": "David Lu",
            "display_name": "David Lu",
            "team": "TUU48M0T1",
            "name": "ludavidyi",
            "is_restricted": false,
            "is_ultra_restricted": false
        },
        "blocks": [
            {
                "type": "rich_text",
                "block_id": "l2nD",
                "elements": [
                    {
                        "type": "rich_text_section",
                        "elements": [
                            {
                                "type": "text",
                                "text": "thanks!"
                            }
                        ]
                    }
                ]
            }
        ],
        "thread_ts": "1585482688.098800",
        "parent_user_id": "UV02WET96"
    },
    {
        "client_msg_id": "3EED7697-EF1D-4FC1-BC76-C86C3A2CB704",
        "type": "message",
        "text": "does someone <!here> mind taking over the task of creating a press kit? ",
        "user": "UV0QTJCMT",
        "ts": "1585504752.100900",
        "team": "TUU48M0T1",
        "user_team": "TUU48M0T1",
        "source_team": "TUU48M0T1",
        "user_profile": {
            "avatar_hash": "06a6ae8f69d1",
            "image_72": "https:\/\/avatars.slack-edge.com\/2020-04-13\/1060635499315_06a6ae8f69d18f1ad464_72.png",
            "first_name": "Katherine",
            "real_name": "Katherine Holo",
            "display_name": "Kat Holo - Co-Organizer of OpenCOVID19",
            "team": "TUU48M0T1",
            "name": "katherineh245",
            "is_restricted": false,
            "is_ultra_restricted": false
        },
        "blocks": [
            {
                "type": "rich_text",
                "block_id": "W=6S",
                "elements": [
                    {
                        "type": "rich_text_section",
                        "elements": [
                            {
                                "type": "text",
                                "text": "does someone "
                            },
                            {
                                "type": "broadcast",
                                "range": "here"
                            },
                            {
                                "type": "text",
                                "text": " mind taking over the task of creating a press kit? "
                            }
                        ]
                    }
                ]
            }
        ],
        "thread_ts": "1585504752.100900",
        "reply_count": 18,
        "reply_users_count": 3,
        "latest_reply": "1585846458.229900",
        "reply_users": [
            "UV2SC7ZE3",
            "U010Q3372P3",
            "UV0QTJCMT"
        ],
        "replies": [
            {
                "user": "UV2SC7ZE3",
                "ts": "1585508223.101000"
            },
            {
                "user": "U010Q3372P3",
                "ts": "1585590986.112000"
            },
            {
                "user": "UV0QTJCMT",
                "ts": "1585596028.113500"
            },
            {
                "user": "U010Q3372P3",
                "ts": "1585597197.113700"
            },
            {
                "user": "UV2SC7ZE3",
                "ts": "1585605980.115400"
            },
            {
                "user": "U010Q3372P3",
                "ts": "1585606797.115900"
            },
            {
                "user": "UV2SC7ZE3",
                "ts": "1585608240.116200"
            },
            {
                "user": "UV2SC7ZE3",
                "ts": "1585608251.116600"
            },
            {
                "user": "UV2SC7ZE3",
                "ts": "1585608333.116800"
            },
            {
                "user": "U010Q3372P3",
                "ts": "1585679970.141800"
            },
            {
                "user": "UV2SC7ZE3",
                "ts": "1585680135.142200"
            },
            {
                "user": "UV0QTJCMT",
                "ts": "1585681532.147600"
            },
            {
                "user": "U010Q3372P3",
                "ts": "1585795795.202000"
            },
            {
                "user": "UV2SC7ZE3",
                "ts": "1585798532.202200"
            },
            {
                "user": "U010Q3372P3",
                "ts": "1585837029.211600"
            },
            {
                "user": "UV2SC7ZE3",
                "ts": "1585843990.226000"
            },
            {
                "user": "U010Q3372P3",
                "ts": "1585846386.229500"
            },
            {
                "user": "UV2SC7ZE3",
                "ts": "1585846458.229900"
            }
        ],
        "subscribed": false
    },
    {
        "client_msg_id": "10cab79b-0e6c-4319-bbfc-3790b3cb3b94",
        "type": "message",
        "text": "I can help with that",
        "user": "UV2SC7ZE3",
        "ts": "1585508223.101000",
        "team": "TUU48M0T1",
        "user_team": "TUU48M0T1",
        "source_team": "TUU48M0T1",
        "user_profile": {
            "avatar_hash": "d28dd0d076e8",
            "image_72": "https:\/\/avatars.slack-edge.com\/2020-03-14\/987873094258_d28dd0d076e8fa9a8409_72.png",
            "first_name": "David",
            "real_name": "David Lu",
            "display_name": "David Lu",
            "team": "TUU48M0T1",
            "name": "ludavidyi",
            "is_restricted": false,
            "is_ultra_restricted": false
        },
        "blocks": [
            {
                "type": "rich_text",
                "block_id": "ZrxAm",
                "elements": [
                    {
                        "type": "rich_text_section",
                        "elements": [
                            {
                                "type": "text",
                                "text": "I can help with that"
                            }
                        ]
                    }
                ]
            }
        ],
        "thread_ts": "1585504752.100900",
        "parent_user_id": "UV0QTJCMT",
        "reactions": [
            {
                "name": "heart",
                "users": [
                    "UV0QTJCMT",
                    "U010HGKFDNE"
                ],
                "count": 2
            }
        ]
    },
    {
        "client_msg_id": "6a9d8919-1f48-4d67-b8be-2888b9544170",
        "type": "message",
        "text": "<@UV76CQTB4> made a document outlining guidelines when interacting with the press. Please take a look at it and offer suggestions\/ask questions! <https:\/\/docs.google.com\/document\/d\/1Ii6wDA8JoXaXMkgIcJuR861FxRea6V3p9VyW1OYaYXk\/edit#heading=h.z44ytz9syro>",
        "user": "UV2SC7ZE3",
        "ts": "1585508377.102000",
        "team": "TUU48M0T1",
        "user_team": "TUU48M0T1",
        "source_team": "TUU48M0T1",
        "user_profile": {
            "avatar_hash": "d28dd0d076e8",
            "image_72": "https:\/\/avatars.slack-edge.com\/2020-03-14\/987873094258_d28dd0d076e8fa9a8409_72.png",
            "first_name": "David",
            "real_name": "David Lu",
            "display_name": "David Lu",
            "team": "TUU48M0T1",
            "name": "ludavidyi",
            "is_restricted": false,
            "is_ultra_restricted": false
        },
        "blocks": [
            {
                "type": "rich_text",
                "block_id": "C1woq",
                "elements": [
                    {
                        "type": "rich_text_section",
                        "elements": [
                            {
                                "type": "user",
                                "user_id": "UV76CQTB4"
                            },
                            {
                                "type": "text",
                                "text": " made a document outlining guidelines when interacting with the press. Please take a look at it and offer suggestions\/ask questions! "
                            },
                            {
                                "type": "link",
                                "url": "https:\/\/docs.google.com\/document\/d\/1Ii6wDA8JoXaXMkgIcJuR861FxRea6V3p9VyW1OYaYXk\/edit#heading=h.z44ytz9syro"
                            }
                        ]
                    }
                ]
            }
        ]
    },
    {
        "type": "message",
        "subtype": "channel_join",
        "ts": "1585520812.102500",
        "user": "U010Q3372P3",
        "text": "<@U010Q3372P3> has joined the channel",
        "inviter": "U010HGKFDNE",
        "reactions": [
            {
                "name": "wave",
                "users": [
                    "UV2SC7ZE3"
                ],
                "count": 1
            }
        ]
    },
    {
        "client_msg_id": "7fff6e89-cfa3-4ce6-b994-b9e7db812cdb",
        "type": "message",
        "text": "Can people add\/comment on the social media posting guidelines document? <https:\/\/docs.google.com\/document\/d\/1DrckucsfcHW_TuhZW1nJhV739U876kPIOdzP5garmSM\/edit#> We can also talk about this during our meeting this Tuesday.",
        "user": "UV2SC7ZE3",
        "ts": "1585532083.103200",
        "team": "TUU48M0T1",
        "user_team": "TUU48M0T1",
        "source_team": "TUU48M0T1",
        "user_profile": {
            "avatar_hash": "d28dd0d076e8",
            "image_72": "https:\/\/avatars.slack-edge.com\/2020-03-14\/987873094258_d28dd0d076e8fa9a8409_72.png",
            "first_name": "David",
            "real_name": "David Lu",
            "display_name": "David Lu",
            "team": "TUU48M0T1",
            "name": "ludavidyi",
            "is_restricted": false,
            "is_ultra_restricted": false
        },
        "edited": {
            "user": "UV2SC7ZE3",
            "ts": "1585532147.000000"
        },
        "blocks": [
            {
                "type": "rich_text",
                "block_id": "Y5ya",
                "elements": [
                    {
                        "type": "rich_text_section",
                        "elements": [
                            {
                                "type": "text",
                                "text": "Can people add\/comment on the social media posting guidelines document? "
                            },
                            {
                                "type": "link",
                                "url": "https:\/\/docs.google.com\/document\/d\/1DrckucsfcHW_TuhZW1nJhV739U876kPIOdzP5garmSM\/edit#"
                            },
                            {
                                "type": "text",
                                "text": " We can also talk about this during our meeting this Tuesday."
                            }
                        ]
                    }
                ]
            }
        ],
        "thread_ts": "1585532083.103200",
        "reply_count": 3,
        "reply_users_count": 2,
        "latest_reply": "1585612799.117400",
        "reply_users": [
            "U0103LPAWQ4",
            "UV2SC7ZE3"
        ],
        "replies": [
            {
                "user": "U0103LPAWQ4",
                "ts": "1585609967.117000"
            },
            {
                "user": "UV2SC7ZE3",
                "ts": "1585612778.117200"
            },
            {
                "user": "UV2SC7ZE3",
                "ts": "1585612799.117400"
            }
        ],
        "subscribed": false
    }
]