[
    {
        "client_msg_id": "4BE417EE-066A-4AF7-97DD-A34FD41202B1",
        "type": "message",
        "text": "Great <@UUWPKNE2E> !!",
        "user": "U01019BQXM3",
        "ts": "1584299856.020100",
        "team": "TUU48M0T1",
        "user_team": "TUU48M0T1",
        "source_team": "TUU48M0T1",
        "user_profile": {
            "avatar_hash": "7e0f35d8cc55",
            "image_72": "https:\/\/avatars.slack-edge.com\/2020-03-15\/988667349730_7e0f35d8cc556cd89565_72.jpg",
            "first_name": "Marc",
            "real_name": "Marc Bokobza",
            "display_name": "Marc Bokobza",
            "team": "TUU48M0T1",
            "name": "marcbokobza1",
            "is_restricted": false,
            "is_ultra_restricted": false
        },
        "blocks": [
            {
                "type": "rich_text",
                "block_id": "xOT5",
                "elements": [
                    {
                        "type": "rich_text_section",
                        "elements": [
                            {
                                "type": "text",
                                "text": "Great "
                            },
                            {
                                "type": "user",
                                "user_id": "UUWPKNE2E"
                            },
                            {
                                "type": "text",
                                "text": " !!"
                            }
                        ]
                    }
                ]
            }
        ],
        "thread_ts": "1584223966.016100",
        "parent_user_id": "UV2SC7ZE3"
    },
    {
        "client_msg_id": "583AB0C6-3972-4CC0-94DE-EB63C747AF10",
        "type": "message",
        "text": "I think that it’s a great start to include to all these elements",
        "user": "U01019BQXM3",
        "ts": "1584299941.020900",
        "team": "TUU48M0T1",
        "user_team": "TUU48M0T1",
        "source_team": "TUU48M0T1",
        "user_profile": {
            "avatar_hash": "7e0f35d8cc55",
            "image_72": "https:\/\/avatars.slack-edge.com\/2020-03-15\/988667349730_7e0f35d8cc556cd89565_72.jpg",
            "first_name": "Marc",
            "real_name": "Marc Bokobza",
            "display_name": "Marc Bokobza",
            "team": "TUU48M0T1",
            "name": "marcbokobza1",
            "is_restricted": false,
            "is_ultra_restricted": false
        },
        "blocks": [
            {
                "type": "rich_text",
                "block_id": "PzP",
                "elements": [
                    {
                        "type": "rich_text_section",
                        "elements": [
                            {
                                "type": "text",
                                "text": "I think that it’s a great start to include to all these elements"
                            }
                        ]
                    }
                ]
            }
        ],
        "thread_ts": "1584223966.016100",
        "parent_user_id": "UV2SC7ZE3",
        "reactions": [
            {
                "name": "100",
                "users": [
                    "UV2SC7ZE3"
                ],
                "count": 1
            },
            {
                "name": "+1",
                "users": [
                    "UV2SC7ZE3"
                ],
                "count": 1
            }
        ]
    },
    {
        "client_msg_id": "7DBE08F0-2F18-4079-8433-E14619D27013",
        "type": "message",
        "text": "We could then get into social medias ",
        "user": "U01019BQXM3",
        "ts": "1584299958.021500",
        "team": "TUU48M0T1",
        "user_team": "TUU48M0T1",
        "source_team": "TUU48M0T1",
        "user_profile": {
            "avatar_hash": "7e0f35d8cc55",
            "image_72": "https:\/\/avatars.slack-edge.com\/2020-03-15\/988667349730_7e0f35d8cc556cd89565_72.jpg",
            "first_name": "Marc",
            "real_name": "Marc Bokobza",
            "display_name": "Marc Bokobza",
            "team": "TUU48M0T1",
            "name": "marcbokobza1",
            "is_restricted": false,
            "is_ultra_restricted": false
        },
        "blocks": [
            {
                "type": "rich_text",
                "block_id": "Iwj=o",
                "elements": [
                    {
                        "type": "rich_text_section",
                        "elements": [
                            {
                                "type": "text",
                                "text": "We could then get into social medias "
                            }
                        ]
                    }
                ]
            }
        ],
        "thread_ts": "1584223966.016100",
        "parent_user_id": "UV2SC7ZE3"
    },
    {
        "client_msg_id": "38F0FF72-2984-49A3-B2AF-2C16DB3150F4",
        "type": "message",
        "text": "To increase visibility",
        "user": "U01019BQXM3",
        "ts": "1584299970.022100",
        "team": "TUU48M0T1",
        "user_team": "TUU48M0T1",
        "source_team": "TUU48M0T1",
        "user_profile": {
            "avatar_hash": "7e0f35d8cc55",
            "image_72": "https:\/\/avatars.slack-edge.com\/2020-03-15\/988667349730_7e0f35d8cc556cd89565_72.jpg",
            "first_name": "Marc",
            "real_name": "Marc Bokobza",
            "display_name": "Marc Bokobza",
            "team": "TUU48M0T1",
            "name": "marcbokobza1",
            "is_restricted": false,
            "is_ultra_restricted": false
        },
        "blocks": [
            {
                "type": "rich_text",
                "block_id": "LK1gx",
                "elements": [
                    {
                        "type": "rich_text_section",
                        "elements": [
                            {
                                "type": "text",
                                "text": "To increase visibility"
                            }
                        ]
                    }
                ]
            }
        ],
        "thread_ts": "1584223966.016100",
        "parent_user_id": "UV2SC7ZE3"
    },
    {
        "client_msg_id": "FEDDD7AF-E24B-4A32-9D05-C8A8FDDE48C5",
        "type": "message",
        "text": "Since, well.. quarantine :sweat_smile:",
        "user": "U01019BQXM3",
        "ts": "1584299990.022700",
        "team": "TUU48M0T1",
        "user_team": "TUU48M0T1",
        "source_team": "TUU48M0T1",
        "user_profile": {
            "avatar_hash": "7e0f35d8cc55",
            "image_72": "https:\/\/avatars.slack-edge.com\/2020-03-15\/988667349730_7e0f35d8cc556cd89565_72.jpg",
            "first_name": "Marc",
            "real_name": "Marc Bokobza",
            "display_name": "Marc Bokobza",
            "team": "TUU48M0T1",
            "name": "marcbokobza1",
            "is_restricted": false,
            "is_ultra_restricted": false
        },
        "blocks": [
            {
                "type": "rich_text",
                "block_id": "E7+x",
                "elements": [
                    {
                        "type": "rich_text_section",
                        "elements": [
                            {
                                "type": "text",
                                "text": "Since, well.. quarantine "
                            },
                            {
                                "type": "emoji",
                                "name": "sweat_smile"
                            }
                        ]
                    }
                ]
            }
        ],
        "thread_ts": "1584223966.016100",
        "parent_user_id": "UV2SC7ZE3",
        "reactions": [
            {
                "name": "sweat_smile",
                "users": [
                    "UV0QTJCMT",
                    "UUWPKNE2E",
                    "UV2SC7ZE3"
                ],
                "count": 3
            }
        ]
    },
    {
        "type": "message",
        "subtype": "channel_name",
        "ts": "1584300207.023200",
        "user": "UV0QTJCMT",
        "text": "<@UV0QTJCMT> has renamed the channel from \"communications\" to \"prgm-communications-team\"",
        "old_name": "communications",
        "name": "prgm-communications-team"
    },
    {
        "type": "message",
        "subtype": "channel_topic",
        "ts": "1584300264.023400",
        "user": "UV0QTJCMT",
        "text": "<@UV0QTJCMT> set the channel topic: Main channel for the all the members of the program meta-workgroup which is responsible for handling public-facing and in-program communications of the entire OpenCovid19 Initiative",
        "topic": "Main channel for the all the members of the program meta-workgroup which is responsible for handling public-facing and in-program communications of the entire OpenCovid19 Initiative"
    },
    {
        "client_msg_id": "F862AAE4-0C7A-4075-BF4B-1FCF2EC97835",
        "type": "message",
        "text": "I can create the Facebook Page and include all the « About » « Who we are » and kickstart the page ",
        "user": "U01019BQXM3",
        "ts": "1584301248.024700",
        "team": "TUU48M0T1",
        "user_team": "TUU48M0T1",
        "source_team": "TUU48M0T1",
        "user_profile": {
            "avatar_hash": "7e0f35d8cc55",
            "image_72": "https:\/\/avatars.slack-edge.com\/2020-03-15\/988667349730_7e0f35d8cc556cd89565_72.jpg",
            "first_name": "Marc",
            "real_name": "Marc Bokobza",
            "display_name": "Marc Bokobza",
            "team": "TUU48M0T1",
            "name": "marcbokobza1",
            "is_restricted": false,
            "is_ultra_restricted": false
        },
        "blocks": [
            {
                "type": "rich_text",
                "block_id": "KOK+U",
                "elements": [
                    {
                        "type": "rich_text_section",
                        "elements": [
                            {
                                "type": "text",
                                "text": "I can create the Facebook Page and include all the « About » « Who we are » and kickstart the page "
                            }
                        ]
                    }
                ]
            }
        ],
        "thread_ts": "1584301248.024700",
        "reply_count": 4,
        "reply_users_count": 3,
        "latest_reply": "1584301399.029900",
        "reply_users": [
            "UV2SC7ZE3",
            "UV0QTJCMT",
            "U01019BQXM3"
        ],
        "replies": [
            {
                "user": "UV2SC7ZE3",
                "ts": "1584301299.024800"
            },
            {
                "user": "UV0QTJCMT",
                "ts": "1584301306.025000"
            },
            {
                "user": "UV0QTJCMT",
                "ts": "1584301341.027000"
            },
            {
                "user": "U01019BQXM3",
                "ts": "1584301399.029900"
            }
        ],
        "subscribed": false
    },
    {
        "client_msg_id": "35b4f4f4-801c-4a36-ab08-8920e0c11916",
        "type": "message",
        "text": "yes! I think that'd be awesome",
        "user": "UV2SC7ZE3",
        "ts": "1584301299.024800",
        "team": "TUU48M0T1",
        "user_team": "TUU48M0T1",
        "source_team": "TUU48M0T1",
        "user_profile": {
            "avatar_hash": "d28dd0d076e8",
            "image_72": "https:\/\/avatars.slack-edge.com\/2020-03-14\/987873094258_d28dd0d076e8fa9a8409_72.png",
            "first_name": "David",
            "real_name": "David Lu",
            "display_name": "David Lu",
            "team": "TUU48M0T1",
            "name": "ludavidyi",
            "is_restricted": false,
            "is_ultra_restricted": false
        },
        "blocks": [
            {
                "type": "rich_text",
                "block_id": "Rk8D",
                "elements": [
                    {
                        "type": "rich_text_section",
                        "elements": [
                            {
                                "type": "text",
                                "text": "yes! I think that'd be awesome"
                            }
                        ]
                    }
                ]
            }
        ],
        "thread_ts": "1584301248.024700",
        "parent_user_id": "U01019BQXM3"
    },
    {
        "type": "message",
        "text": "<@U01019BQXM3> it'd actually be great if you could start with helping out creating that content for the JOGL program first (and then we can also use it for social media accounts later). here's the doc to do that (<https:\/\/docs.google.com\/document\/d\/1WipfHU2RDQCTGhbEQ7QdPnvhtZmqcCXtmzfY_UgYL8Y\/edit>)",
        "files": [
            {
                "id": "F0101BYTZ88",
                "created": 1584301308,
                "timestamp": 1584301308,
                "name": "OpenCovid19 Program Page",
                "title": "OpenCovid19 Program Page",
                "mimetype": "application\/vnd.google-apps.document",
                "filetype": "gdoc",
                "pretty_type": "GSuite Document",
                "user": "UV0QTJCMT",
                "editable": false,
                "size": 769,
                "mode": "external",
                "is_external": true,
                "external_type": "gdrive",
                "is_public": true,
                "public_url_shared": false,
                "display_as_bot": false,
                "username": "",
                "url_private": "https:\/\/docs.google.com\/document\/d\/1WipfHU2RDQCTGhbEQ7QdPnvhtZmqcCXtmzfY_UgYL8Y\/edit",
                "thumb_64": "https:\/\/files.slack.com\/files-tmb\/TUU48M0T1-F0101BYTZ88-96a821b974\/opencovid19_program_page_64.png?t=xoxe-980144714919-1133254701825-1120841107731-daf595b5a7d6c9028b0b02a925032e36",
                "thumb_80": "https:\/\/files.slack.com\/files-tmb\/TUU48M0T1-F0101BYTZ88-96a821b974\/opencovid19_program_page_80.png?t=xoxe-980144714919-1133254701825-1120841107731-daf595b5a7d6c9028b0b02a925032e36",
                "thumb_360": "https:\/\/files.slack.com\/files-tmb\/TUU48M0T1-F0101BYTZ88-96a821b974\/opencovid19_program_page_360.png?t=xoxe-980144714919-1133254701825-1120841107731-daf595b5a7d6c9028b0b02a925032e36",
                "thumb_360_w": 255,
                "thumb_360_h": 360,
                "thumb_480": "https:\/\/files.slack.com\/files-tmb\/TUU48M0T1-F0101BYTZ88-96a821b974\/opencovid19_program_page_480.png?t=xoxe-980144714919-1133254701825-1120841107731-daf595b5a7d6c9028b0b02a925032e36",
                "thumb_480_w": 340,
                "thumb_480_h": 480,
                "thumb_160": "https:\/\/files.slack.com\/files-tmb\/TUU48M0T1-F0101BYTZ88-96a821b974\/opencovid19_program_page_160.png?t=xoxe-980144714919-1133254701825-1120841107731-daf595b5a7d6c9028b0b02a925032e36",
                "thumb_720": "https:\/\/files.slack.com\/files-tmb\/TUU48M0T1-F0101BYTZ88-96a821b974\/opencovid19_program_page_720.png?t=xoxe-980144714919-1133254701825-1120841107731-daf595b5a7d6c9028b0b02a925032e36",
                "thumb_720_w": 509,
                "thumb_720_h": 720,
                "thumb_800": "https:\/\/files.slack.com\/files-tmb\/TUU48M0T1-F0101BYTZ88-96a821b974\/opencovid19_program_page_800.png?t=xoxe-980144714919-1133254701825-1120841107731-daf595b5a7d6c9028b0b02a925032e36",
                "thumb_800_w": 800,
                "thumb_800_h": 1131,
                "thumb_960": "https:\/\/files.slack.com\/files-tmb\/TUU48M0T1-F0101BYTZ88-96a821b974\/opencovid19_program_page_960.png?t=xoxe-980144714919-1133254701825-1120841107731-daf595b5a7d6c9028b0b02a925032e36",
                "thumb_960_w": 679,
                "thumb_960_h": 960,
                "thumb_1024": "https:\/\/files.slack.com\/files-tmb\/TUU48M0T1-F0101BYTZ88-96a821b974\/opencovid19_program_page_1024.png?t=xoxe-980144714919-1133254701825-1120841107731-daf595b5a7d6c9028b0b02a925032e36",
                "thumb_1024_w": 724,
                "thumb_1024_h": 1024,
                "image_exif_rotation": 1,
                "original_w": 800,
                "original_h": 1131,
                "thumb_tiny": "AwAwACHTNJupaYrDuKAHiigHPSigAooooADwKZn0Jp9FADQc8f0p1FFABRRRQAUUUUAFFFFABRRRQB\/\/2Q==",
                "permalink": "https:\/\/open-covid19.slack.com\/files\/UV0QTJCMT\/F0101BYTZ88\/opencovid19_program_page",
                "is_starred": false,
                "external_id": "1WipfHU2RDQCTGhbEQ7QdPnvhtZmqcCXtmzfY_UgYL8Y",
                "external_url": "https:\/\/docs.google.com\/document\/d\/1WipfHU2RDQCTGhbEQ7QdPnvhtZmqcCXtmzfY_UgYL8Y\/edit",
                "has_rich_preview": true
            }
        ],
        "upload": false,
        "blocks": [
            {
                "type": "rich_text",
                "block_id": "esTP",
                "elements": [
                    {
                        "type": "rich_text_section",
                        "elements": [
                            {
                                "type": "user",
                                "user_id": "U01019BQXM3"
                            },
                            {
                                "type": "text",
                                "text": " it'd actually be great if you could start with helping out creating that content for the JOGL program first (and then we can also use it for social media accounts later). here's the doc to do that ("
                            },
                            {
                                "type": "link",
                                "url": "https:\/\/docs.google.com\/document\/d\/1WipfHU2RDQCTGhbEQ7QdPnvhtZmqcCXtmzfY_UgYL8Y\/edit"
                            },
                            {
                                "type": "text",
                                "text": ")"
                            }
                        ]
                    }
                ]
            }
        ],
        "user": "UV0QTJCMT",
        "display_as_bot": false,
        "x_files": [
            "F0101BYTZ88"
        ],
        "ts": "1584301306.025000",
        "client_msg_id": "68fdb56b-54d9-422d-96c4-bc44908cdeb6",
        "thread_ts": "1584301248.024700",
        "parent_user_id": "U01019BQXM3",
        "reactions": [
            {
                "name": "+1",
                "users": [
                    "UV02WET96"
                ],
                "count": 1
            }
        ]
    },
    {
        "client_msg_id": "aaf85618-d8ea-4eb2-a014-8286639c1a6f",
        "type": "message",
        "text": "social media is definitely something this group will want to work on but we should start with making sure we have the content on the program page first so we have a \"home base\" for all interested members and the public",
        "user": "UV0QTJCMT",
        "ts": "1584301341.027000",
        "team": "TUU48M0T1",
        "user_team": "TUU48M0T1",
        "source_team": "TUU48M0T1",
        "user_profile": {
            "avatar_hash": "06a6ae8f69d1",
            "image_72": "https:\/\/avatars.slack-edge.com\/2020-04-13\/1060635499315_06a6ae8f69d18f1ad464_72.png",
            "first_name": "Katherine",
            "real_name": "Katherine Holo",
            "display_name": "Kat Holo - Co-Organizer of OpenCOVID19",
            "team": "TUU48M0T1",
            "name": "katherineh245",
            "is_restricted": false,
            "is_ultra_restricted": false
        },
        "blocks": [
            {
                "type": "rich_text",
                "block_id": "91B4y",
                "elements": [
                    {
                        "type": "rich_text_section",
                        "elements": [
                            {
                                "type": "text",
                                "text": "social media is definitely something this group will want to work on but we should start with making sure we have the content on the program page first so we have a \"home base\" for all interested members and the public"
                            }
                        ]
                    }
                ]
            }
        ],
        "thread_ts": "1584301248.024700",
        "parent_user_id": "U01019BQXM3"
    },
    {
        "type": "message",
        "text": "<!channel> if anyone here can help draft up the content for the program page, please contribute <https:\/\/docs.google.com\/document\/d\/1WipfHU2RDQCTGhbEQ7QdPnvhtZmqcCXtmzfY_UgYL8Y\/edit|here>! we really need some help to draft up the content :))",
        "files": [
            {
                "id": "F0101BYTZ88",
                "created": 1584301308,
                "timestamp": 1584301308,
                "name": "OpenCovid19 Program Page",
                "title": "OpenCovid19 Program Page",
                "mimetype": "application\/vnd.google-apps.document",
                "filetype": "gdoc",
                "pretty_type": "GSuite Document",
                "user": "UV0QTJCMT",
                "editable": false,
                "size": 769,
                "mode": "external",
                "is_external": true,
                "external_type": "gdrive",
                "is_public": true,
                "public_url_shared": false,
                "display_as_bot": false,
                "username": "",
                "url_private": "https:\/\/docs.google.com\/document\/d\/1WipfHU2RDQCTGhbEQ7QdPnvhtZmqcCXtmzfY_UgYL8Y\/edit",
                "thumb_64": "https:\/\/files.slack.com\/files-tmb\/TUU48M0T1-F0101BYTZ88-96a821b974\/opencovid19_program_page_64.png?t=xoxe-980144714919-1133254701825-1120841107731-daf595b5a7d6c9028b0b02a925032e36",
                "thumb_80": "https:\/\/files.slack.com\/files-tmb\/TUU48M0T1-F0101BYTZ88-96a821b974\/opencovid19_program_page_80.png?t=xoxe-980144714919-1133254701825-1120841107731-daf595b5a7d6c9028b0b02a925032e36",
                "thumb_360": "https:\/\/files.slack.com\/files-tmb\/TUU48M0T1-F0101BYTZ88-96a821b974\/opencovid19_program_page_360.png?t=xoxe-980144714919-1133254701825-1120841107731-daf595b5a7d6c9028b0b02a925032e36",
                "thumb_360_w": 255,
                "thumb_360_h": 360,
                "thumb_480": "https:\/\/files.slack.com\/files-tmb\/TUU48M0T1-F0101BYTZ88-96a821b974\/opencovid19_program_page_480.png?t=xoxe-980144714919-1133254701825-1120841107731-daf595b5a7d6c9028b0b02a925032e36",
                "thumb_480_w": 340,
                "thumb_480_h": 480,
                "thumb_160": "https:\/\/files.slack.com\/files-tmb\/TUU48M0T1-F0101BYTZ88-96a821b974\/opencovid19_program_page_160.png?t=xoxe-980144714919-1133254701825-1120841107731-daf595b5a7d6c9028b0b02a925032e36",
                "thumb_720": "https:\/\/files.slack.com\/files-tmb\/TUU48M0T1-F0101BYTZ88-96a821b974\/opencovid19_program_page_720.png?t=xoxe-980144714919-1133254701825-1120841107731-daf595b5a7d6c9028b0b02a925032e36",
                "thumb_720_w": 509,
                "thumb_720_h": 720,
                "thumb_800": "https:\/\/files.slack.com\/files-tmb\/TUU48M0T1-F0101BYTZ88-96a821b974\/opencovid19_program_page_800.png?t=xoxe-980144714919-1133254701825-1120841107731-daf595b5a7d6c9028b0b02a925032e36",
                "thumb_800_w": 800,
                "thumb_800_h": 1131,
                "thumb_960": "https:\/\/files.slack.com\/files-tmb\/TUU48M0T1-F0101BYTZ88-96a821b974\/opencovid19_program_page_960.png?t=xoxe-980144714919-1133254701825-1120841107731-daf595b5a7d6c9028b0b02a925032e36",
                "thumb_960_w": 679,
                "thumb_960_h": 960,
                "thumb_1024": "https:\/\/files.slack.com\/files-tmb\/TUU48M0T1-F0101BYTZ88-96a821b974\/opencovid19_program_page_1024.png?t=xoxe-980144714919-1133254701825-1120841107731-daf595b5a7d6c9028b0b02a925032e36",
                "thumb_1024_w": 724,
                "thumb_1024_h": 1024,
                "image_exif_rotation": 1,
                "original_w": 800,
                "original_h": 1131,
                "thumb_tiny": "AwAwACHTNJupaYrDuKAHiigHPSigAooooADwKZn0Jp9FADQc8f0p1FFABRRRQAUUUUAFFFFABRRRQB\/\/2Q==",
                "permalink": "https:\/\/open-covid19.slack.com\/files\/UV0QTJCMT\/F0101BYTZ88\/opencovid19_program_page",
                "is_starred": false,
                "external_id": "1WipfHU2RDQCTGhbEQ7QdPnvhtZmqcCXtmzfY_UgYL8Y",
                "external_url": "https:\/\/docs.google.com\/document\/d\/1WipfHU2RDQCTGhbEQ7QdPnvhtZmqcCXtmzfY_UgYL8Y\/edit",
                "has_rich_preview": true
            }
        ],
        "upload": false,
        "blocks": [
            {
                "type": "rich_text",
                "block_id": "dCa",
                "elements": [
                    {
                        "type": "rich_text_section",
                        "elements": [
                            {
                                "type": "broadcast",
                                "range": "channel"
                            },
                            {
                                "type": "text",
                                "text": " if anyone here can help draft up the content for the program page, please contribute "
                            },
                            {
                                "type": "link",
                                "url": "https:\/\/docs.google.com\/document\/d\/1WipfHU2RDQCTGhbEQ7QdPnvhtZmqcCXtmzfY_UgYL8Y\/edit",
                                "text": "here"
                            },
                            {
                                "type": "text",
                                "text": "! we really need some help to draft up the content :))"
                            }
                        ]
                    }
                ]
            }
        ],
        "user": "UV0QTJCMT",
        "display_as_bot": false,
        "x_files": [
            "F0101BYTZ88"
        ],
        "ts": "1584301382.027800",
        "client_msg_id": "cc6dfed3-cdfb-4d57-9634-cfc133c221d3"
    },
    {
        "type": "message",
        "subtype": "thread_broadcast",
        "text": "I completely agree",
        "user": "U01019BQXM3",
        "ts": "1584301399.029900",
        "thread_ts": "1584301248.024700",
        "root": {
            "client_msg_id": "F862AAE4-0C7A-4075-BF4B-1FCF2EC97835",
            "type": "message",
            "text": "I can create the Facebook Page and include all the « About » « Who we are » and kickstart the page ",
            "user": "U01019BQXM3",
            "ts": "1584301248.024700",
            "team": "TUU48M0T1",
            "blocks": [
                {
                    "type": "rich_text",
                    "block_id": "KOK+U",
                    "elements": [
                        {
                            "type": "rich_text_section",
                            "elements": [
                                {
                                    "type": "text",
                                    "text": "I can create the Facebook Page and include all the « About » « Who we are » and kickstart the page "
                                }
                            ]
                        }
                    ]
                }
            ],
            "thread_ts": "1584301248.024700",
            "reply_count": 4,
            "reply_users_count": 3,
            "latest_reply": "1584301399.029900",
            "reply_users": [
                "UV2SC7ZE3",
                "UV0QTJCMT",
                "U01019BQXM3"
            ],
            "subscribed": false
        },
        "blocks": [
            {
                "type": "rich_text",
                "block_id": "joxdZ",
                "elements": [
                    {
                        "type": "rich_text_section",
                        "elements": [
                            {
                                "type": "text",
                                "text": "I completely agree"
                            }
                        ]
                    }
                ]
            }
        ],
        "client_msg_id": "C1A9EE29-8D8E-4129-B5F0-A23D9098B272",
        "reactions": [
            {
                "name": "heart",
                "users": [
                    "UV0QTJCMT",
                    "UUWPKNE2E",
                    "UV2SC7ZE3"
                ],
                "count": 3
            }
        ]
    },
    {
        "client_msg_id": "6064bb68-3168-4c23-9d28-ba00137d1f66",
        "type": "message",
        "text": "A small suggestion which can be useful: It is possible to add something like \"Are you researcher\/virologist\/epidemiologist\/geneticist\/biomechanical engineer\/biologist\/biotechnologist\/etc??? *Share\/Write your current COVID-19 challenge here* or *help others here*\"\nI mean immediate call-to-action links in the front-page for people who don't have too much time.",
        "user": "UV8T52QJ3",
        "ts": "1584309705.033900",
        "team": "TUU48M0T1",
        "user_team": "TUU48M0T1",
        "source_team": "TUU48M0T1",
        "user_profile": {
            "avatar_hash": "g96f14063d73",
            "image_72": "https:\/\/secure.gravatar.com\/avatar\/96f14063d73cc7867772731f881de414.jpg?s=72&d=https%3A%2F%2Fa.slack-edge.com%2Fdf10d%2Fimg%2Favatars%2Fava_0005-72.png",
            "first_name": "Hernán",
            "real_name": "Hernán Morales Durand",
            "display_name": "Hernán Morales Durand",
            "team": "TUU48M0T1",
            "name": "hernan.morales",
            "is_restricted": false,
            "is_ultra_restricted": false
        },
        "blocks": [
            {
                "type": "rich_text",
                "block_id": "339GI",
                "elements": [
                    {
                        "type": "rich_text_section",
                        "elements": [
                            {
                                "type": "text",
                                "text": "A small suggestion which can be useful: It is possible to add something like \"Are you researcher\/virologist\/epidemiologist\/geneticist\/biomechanical engineer\/biologist\/biotechnologist\/etc??? "
                            },
                            {
                                "type": "text",
                                "text": "Share\/Write your current COVID-19 challenge here",
                                "style": {
                                    "bold": true
                                }
                            },
                            {
                                "type": "text",
                                "text": " or "
                            },
                            {
                                "type": "text",
                                "text": "help others here",
                                "style": {
                                    "bold": true
                                }
                            },
                            {
                                "type": "text",
                                "text": "\"\nI mean immediate call-to-action links in the front-page for people who don't have too much time."
                            }
                        ]
                    }
                ]
            }
        ],
        "thread_ts": "1584309705.033900",
        "reply_count": 8,
        "reply_users_count": 2,
        "latest_reply": "1584314117.039200",
        "reply_users": [
            "UV0QTJCMT",
            "UV8T52QJ3"
        ],
        "replies": [
            {
                "user": "UV0QTJCMT",
                "ts": "1584309762.035000"
            },
            {
                "user": "UV8T52QJ3",
                "ts": "1584309953.036000"
            },
            {
                "user": "UV0QTJCMT",
                "ts": "1584310186.036400"
            },
            {
                "user": "UV0QTJCMT",
                "ts": "1584310272.037800"
            },
            {
                "user": "UV8T52QJ3",
                "ts": "1584310343.038300"
            },
            {
                "user": "UV0QTJCMT",
                "ts": "1584310353.038500"
            },
            {
                "user": "UV8T52QJ3",
                "ts": "1584314089.038900"
            },
            {
                "user": "UV8T52QJ3",
                "ts": "1584314117.039200"
            }
        ],
        "subscribed": false,
        "reactions": [
            {
                "name": "+1",
                "users": [
                    "UV0QTJCMT",
                    "UV02WET96",
                    "UV2SC7ZE3"
                ],
                "count": 3
            }
        ]
    },
    {
        "client_msg_id": "d11f56ad-eed9-480d-ad4f-427a328c62ae",
        "type": "message",
        "text": "Totally, do you have access to the doc? <@UV8T52QJ3>",
        "user": "UV02WET96",
        "ts": "1584309735.034400",
        "team": "TUU48M0T1",
        "user_team": "TUU48M0T1",
        "source_team": "TUU48M0T1",
        "user_profile": {
            "avatar_hash": "a99c74a194f8",
            "image_72": "https:\/\/avatars.slack-edge.com\/2020-03-07\/975708504851_a99c74a194f86715ca7d_72.png",
            "first_name": "Thomas",
            "real_name": "Thomas Landrain",
            "display_name": "Thomas Landrain - JOGL CoFounder \/ CEO",
            "team": "TUU48M0T1",
            "name": "thomas",
            "is_restricted": false,
            "is_ultra_restricted": false
        },
        "edited": {
            "user": "UV02WET96",
            "ts": "1584309744.000000"
        },
        "blocks": [
            {
                "type": "rich_text",
                "block_id": "g=Wl+",
                "elements": [
                    {
                        "type": "rich_text_section",
                        "elements": [
                            {
                                "type": "text",
                                "text": "Totally, do you have access to the doc? "
                            },
                            {
                                "type": "user",
                                "user_id": "UV8T52QJ3"
                            }
                        ]
                    }
                ]
            }
        ],
        "thread_ts": "1584309735.034400",
        "reply_count": 3,
        "reply_users_count": 2,
        "latest_reply": "1584309806.035700",
        "reply_users": [
            "UV8T52QJ3",
            "UV0QTJCMT"
        ],
        "replies": [
            {
                "user": "UV8T52QJ3",
                "ts": "1584309797.035300"
            },
            {
                "user": "UV0QTJCMT",
                "ts": "1584309801.035500"
            },
            {
                "user": "UV0QTJCMT",
                "ts": "1584309806.035700"
            }
        ],
        "subscribed": false
    },
    {
        "client_msg_id": "da8c0838-7443-4739-8803-8600e9e855ba",
        "type": "message",
        "text": "yeah that's a really good idea! we were thinking about developing a form for experts that are passing by to drop feedback or questions and leave their contact info if we have questions--would something like this be of use?",
        "user": "UV0QTJCMT",
        "ts": "1584309762.035000",
        "team": "TUU48M0T1",
        "user_team": "TUU48M0T1",
        "source_team": "TUU48M0T1",
        "user_profile": {
            "avatar_hash": "06a6ae8f69d1",
            "image_72": "https:\/\/avatars.slack-edge.com\/2020-04-13\/1060635499315_06a6ae8f69d18f1ad464_72.png",
            "first_name": "Katherine",
            "real_name": "Katherine Holo",
            "display_name": "Kat Holo - Co-Organizer of OpenCOVID19",
            "team": "TUU48M0T1",
            "name": "katherineh245",
            "is_restricted": false,
            "is_ultra_restricted": false
        },
        "blocks": [
            {
                "type": "rich_text",
                "block_id": "zjNS",
                "elements": [
                    {
                        "type": "rich_text_section",
                        "elements": [
                            {
                                "type": "text",
                                "text": "yeah that's a really good idea! we were thinking about developing a form for experts that are passing by to drop feedback or questions and leave their contact info if we have questions--would something like this be of use?"
                            }
                        ]
                    }
                ]
            }
        ],
        "thread_ts": "1584309705.033900",
        "parent_user_id": "UV8T52QJ3"
    },
    {
        "client_msg_id": "298b2c24-6f11-4f8d-9ac7-5a267966e4ef",
        "type": "message",
        "text": "Yes, I will add something now",
        "user": "UV8T52QJ3",
        "ts": "1584309797.035300",
        "team": "TUU48M0T1",
        "user_team": "TUU48M0T1",
        "source_team": "TUU48M0T1",
        "user_profile": {
            "avatar_hash": "g96f14063d73",
            "image_72": "https:\/\/secure.gravatar.com\/avatar\/96f14063d73cc7867772731f881de414.jpg?s=72&d=https%3A%2F%2Fa.slack-edge.com%2Fdf10d%2Fimg%2Favatars%2Fava_0005-72.png",
            "first_name": "Hernán",
            "real_name": "Hernán Morales Durand",
            "display_name": "Hernán Morales Durand",
            "team": "TUU48M0T1",
            "name": "hernan.morales",
            "is_restricted": false,
            "is_ultra_restricted": false
        },
        "blocks": [
            {
                "type": "rich_text",
                "block_id": "0xCHS",
                "elements": [
                    {
                        "type": "rich_text_section",
                        "elements": [
                            {
                                "type": "text",
                                "text": "Yes, I will add something now"
                            }
                        ]
                    }
                ]
            }
        ],
        "thread_ts": "1584309735.034400",
        "parent_user_id": "UV02WET96",
        "reactions": [
            {
                "name": "100",
                "users": [
                    "UV0QTJCMT",
                    "UV02WET96"
                ],
                "count": 2
            }
        ]
    },
    {
        "client_msg_id": "c24b6120-7d58-4bcf-b2ed-c1840952dfe4",
        "type": "message",
        "text": "this would fit great under the \"contribution\/participation\" section to get info from people who aren't able to dedicate too much time",
        "user": "UV0QTJCMT",
        "ts": "1584309801.035500",
        "team": "TUU48M0T1",
        "user_team": "TUU48M0T1",
        "source_team": "TUU48M0T1",
        "user_profile": {
            "avatar_hash": "06a6ae8f69d1",
            "image_72": "https:\/\/avatars.slack-edge.com\/2020-04-13\/1060635499315_06a6ae8f69d18f1ad464_72.png",
            "first_name": "Katherine",
            "real_name": "Katherine Holo",
            "display_name": "Kat Holo - Co-Organizer of OpenCOVID19",
            "team": "TUU48M0T1",
            "name": "katherineh245",
            "is_restricted": false,
            "is_ultra_restricted": false
        },
        "blocks": [
            {
                "type": "rich_text",
                "block_id": "OWDfo",
                "elements": [
                    {
                        "type": "rich_text_section",
                        "elements": [
                            {
                                "type": "text",
                                "text": "this would fit great under the \"contribution\/participation\" section to get info from people who aren't able to dedicate too much time"
                            }
                        ]
                    }
                ]
            }
        ],
        "thread_ts": "1584309735.034400",
        "parent_user_id": "UV02WET96"
    },
    {
        "client_msg_id": "098860ce-423a-4b0d-9019-1bd1e93f0e78",
        "type": "message",
        "text": "awesome thank you!",
        "user": "UV0QTJCMT",
        "ts": "1584309806.035700",
        "team": "TUU48M0T1",
        "user_team": "TUU48M0T1",
        "source_team": "TUU48M0T1",
        "user_profile": {
            "avatar_hash": "06a6ae8f69d1",
            "image_72": "https:\/\/avatars.slack-edge.com\/2020-04-13\/1060635499315_06a6ae8f69d18f1ad464_72.png",
            "first_name": "Katherine",
            "real_name": "Katherine Holo",
            "display_name": "Kat Holo - Co-Organizer of OpenCOVID19",
            "team": "TUU48M0T1",
            "name": "katherineh245",
            "is_restricted": false,
            "is_ultra_restricted": false
        },
        "blocks": [
            {
                "type": "rich_text",
                "block_id": "HQb",
                "elements": [
                    {
                        "type": "rich_text_section",
                        "elements": [
                            {
                                "type": "text",
                                "text": "awesome thank you!"
                            }
                        ]
                    }
                ]
            }
        ],
        "thread_ts": "1584309735.034400",
        "parent_user_id": "UV02WET96"
    },
    {
        "client_msg_id": "ce0902d2-82c0-48dd-9832-3dcec21156ff",
        "type": "message",
        "text": "Nice, maybe Google Forms can help here, I would like everyone can see what others are doing because we need good flow of information",
        "user": "UV8T52QJ3",
        "ts": "1584309953.036000",
        "team": "TUU48M0T1",
        "user_team": "TUU48M0T1",
        "source_team": "TUU48M0T1",
        "user_profile": {
            "avatar_hash": "g96f14063d73",
            "image_72": "https:\/\/secure.gravatar.com\/avatar\/96f14063d73cc7867772731f881de414.jpg?s=72&d=https%3A%2F%2Fa.slack-edge.com%2Fdf10d%2Fimg%2Favatars%2Fava_0005-72.png",
            "first_name": "Hernán",
            "real_name": "Hernán Morales Durand",
            "display_name": "Hernán Morales Durand",
            "team": "TUU48M0T1",
            "name": "hernan.morales",
            "is_restricted": false,
            "is_ultra_restricted": false
        },
        "blocks": [
            {
                "type": "rich_text",
                "block_id": "xw6Y",
                "elements": [
                    {
                        "type": "rich_text_section",
                        "elements": [
                            {
                                "type": "text",
                                "text": "Nice, maybe Google Forms can help here, I would like everyone can see what others are doing because we need good flow of information"
                            }
                        ]
                    }
                ]
            }
        ],
        "thread_ts": "1584309705.033900",
        "parent_user_id": "UV8T52QJ3",
        "reactions": [
            {
                "name": "+1",
                "users": [
                    "UV0QTJCMT"
                ],
                "count": 1
            }
        ]
    },
    {
        "client_msg_id": "3ba0c671-808a-40fc-8fad-ed823fb93722",
        "type": "message",
        "text": "definitely--there are a few people trying to develop a master spreadsheet to keep track of all the tasks\/activity of each group with the goal that different leads of challenges\/workgroups\/projects will update it so everyone can easily see what's happening",
        "user": "UV0QTJCMT",
        "ts": "1584310186.036400",
        "team": "TUU48M0T1",
        "user_team": "TUU48M0T1",
        "source_team": "TUU48M0T1",
        "user_profile": {
            "avatar_hash": "06a6ae8f69d1",
            "image_72": "https:\/\/avatars.slack-edge.com\/2020-04-13\/1060635499315_06a6ae8f69d18f1ad464_72.png",
            "first_name": "Katherine",
            "real_name": "Katherine Holo",
            "display_name": "Kat Holo - Co-Organizer of OpenCOVID19",
            "team": "TUU48M0T1",
            "name": "katherineh245",
            "is_restricted": false,
            "is_ultra_restricted": false
        },
        "edited": {
            "user": "UV0QTJCMT",
            "ts": "1584310196.000000"
        },
        "blocks": [
            {
                "type": "rich_text",
                "block_id": "ure\/W",
                "elements": [
                    {
                        "type": "rich_text_section",
                        "elements": [
                            {
                                "type": "text",
                                "text": "definitely--there are a few people trying to develop a master spreadsheet to keep track of all the tasks\/activity of each group with the goal that different leads of challenges\/workgroups\/projects will update it so everyone can easily see what's happening"
                            }
                        ]
                    }
                ]
            }
        ],
        "thread_ts": "1584309705.033900",
        "parent_user_id": "UV8T52QJ3"
    },
    {
        "client_msg_id": "79db9f94-4a53-4f43-b71e-56f6b1cf161b",
        "type": "message",
        "text": "<@UV8T52QJ3> moved your writing to the contribution section, could you possibly start creating the google form to collect the info?",
        "user": "UV0QTJCMT",
        "ts": "1584310272.037800",
        "team": "TUU48M0T1",
        "user_team": "TUU48M0T1",
        "source_team": "TUU48M0T1",
        "user_profile": {
            "avatar_hash": "06a6ae8f69d1",
            "image_72": "https:\/\/avatars.slack-edge.com\/2020-04-13\/1060635499315_06a6ae8f69d18f1ad464_72.png",
            "first_name": "Katherine",
            "real_name": "Katherine Holo",
            "display_name": "Kat Holo - Co-Organizer of OpenCOVID19",
            "team": "TUU48M0T1",
            "name": "katherineh245",
            "is_restricted": false,
            "is_ultra_restricted": false
        },
        "blocks": [
            {
                "type": "rich_text",
                "block_id": "0o76",
                "elements": [
                    {
                        "type": "rich_text_section",
                        "elements": [
                            {
                                "type": "user",
                                "user_id": "UV8T52QJ3"
                            },
                            {
                                "type": "text",
                                "text": " moved your writing to the contribution section, could you possibly start creating the google form to collect the info?"
                            }
                        ]
                    }
                ]
            }
        ],
        "thread_ts": "1584309705.033900",
        "parent_user_id": "UV8T52QJ3"
    },
    {
        "client_msg_id": "1bf8aed0-e264-47dc-a3db-f96c212a8ba9",
        "type": "message",
        "text": "When you publish the doc please include <https:\/\/www.biostars.org\/> community because there are really nice open-source friendly prople there and they can help a lot",
        "user": "UV8T52QJ3",
        "ts": "1584310289.038200",
        "team": "TUU48M0T1",
        "user_team": "TUU48M0T1",
        "source_team": "TUU48M0T1",
        "user_profile": {
            "avatar_hash": "g96f14063d73",
            "image_72": "https:\/\/secure.gravatar.com\/avatar\/96f14063d73cc7867772731f881de414.jpg?s=72&d=https%3A%2F%2Fa.slack-edge.com%2Fdf10d%2Fimg%2Favatars%2Fava_0005-72.png",
            "first_name": "Hernán",
            "real_name": "Hernán Morales Durand",
            "display_name": "Hernán Morales Durand",
            "team": "TUU48M0T1",
            "name": "hernan.morales",
            "is_restricted": false,
            "is_ultra_restricted": false
        },
        "blocks": [
            {
                "type": "rich_text",
                "block_id": "rpy",
                "elements": [
                    {
                        "type": "rich_text_section",
                        "elements": [
                            {
                                "type": "text",
                                "text": "When you publish the doc please include "
                            },
                            {
                                "type": "link",
                                "url": "https:\/\/www.biostars.org\/"
                            },
                            {
                                "type": "text",
                                "text": " community because there are really nice open-source friendly prople there and they can help a lot"
                            }
                        ]
                    }
                ]
            }
        ],
        "reactions": [
            {
                "name": "+1",
                "users": [
                    "UV02WET96",
                    "UV2SC7ZE3"
                ],
                "count": 2
            }
        ]
    },
    {
        "client_msg_id": "a4372c4e-2387-49b6-b595-c6488fa82d9b",
        "type": "message",
        "text": "<@UV0QTJCMT> Sure, I will let you know when finished",
        "user": "UV8T52QJ3",
        "ts": "1584310343.038300",
        "team": "TUU48M0T1",
        "user_team": "TUU48M0T1",
        "source_team": "TUU48M0T1",
        "user_profile": {
            "avatar_hash": "g96f14063d73",
            "image_72": "https:\/\/secure.gravatar.com\/avatar\/96f14063d73cc7867772731f881de414.jpg?s=72&d=https%3A%2F%2Fa.slack-edge.com%2Fdf10d%2Fimg%2Favatars%2Fava_0005-72.png",
            "first_name": "Hernán",
            "real_name": "Hernán Morales Durand",
            "display_name": "Hernán Morales Durand",
            "team": "TUU48M0T1",
            "name": "hernan.morales",
            "is_restricted": false,
            "is_ultra_restricted": false
        },
        "blocks": [
            {
                "type": "rich_text",
                "block_id": "kvkS",
                "elements": [
                    {
                        "type": "rich_text_section",
                        "elements": [
                            {
                                "type": "user",
                                "user_id": "UV0QTJCMT"
                            },
                            {
                                "type": "text",
                                "text": " Sure, I will let you know when finished"
                            }
                        ]
                    }
                ]
            }
        ],
        "thread_ts": "1584309705.033900",
        "parent_user_id": "UV8T52QJ3"
    },
    {
        "client_msg_id": "721d7f0f-eccb-4a04-a126-9021190c14b5",
        "type": "message",
        "text": "awesome--thanks!",
        "user": "UV0QTJCMT",
        "ts": "1584310353.038500",
        "team": "TUU48M0T1",
        "user_team": "TUU48M0T1",
        "source_team": "TUU48M0T1",
        "user_profile": {
            "avatar_hash": "06a6ae8f69d1",
            "image_72": "https:\/\/avatars.slack-edge.com\/2020-04-13\/1060635499315_06a6ae8f69d18f1ad464_72.png",
            "first_name": "Katherine",
            "real_name": "Katherine Holo",
            "display_name": "Kat Holo - Co-Organizer of OpenCOVID19",
            "team": "TUU48M0T1",
            "name": "katherineh245",
            "is_restricted": false,
            "is_ultra_restricted": false
        },
        "blocks": [
            {
                "type": "rich_text",
                "block_id": "rhPms",
                "elements": [
                    {
                        "type": "rich_text_section",
                        "elements": [
                            {
                                "type": "text",
                                "text": "awesome--thanks!"
                            }
                        ]
                    }
                ]
            }
        ],
        "thread_ts": "1584309705.033900",
        "parent_user_id": "UV8T52QJ3"
    },
    {
        "client_msg_id": "c6e9a7a9-5258-49d3-9c05-49a3d0d28191",
        "type": "message",
        "text": "<@UV0QTJCMT> This is the link: <https:\/\/forms.gle\/kC2jWSDueLypDHZg8>",
        "user": "UV8T52QJ3",
        "ts": "1584314089.038900",
        "team": "TUU48M0T1",
        "user_team": "TUU48M0T1",
        "source_team": "TUU48M0T1",
        "user_profile": {
            "avatar_hash": "g96f14063d73",
            "image_72": "https:\/\/secure.gravatar.com\/avatar\/96f14063d73cc7867772731f881de414.jpg?s=72&d=https%3A%2F%2Fa.slack-edge.com%2Fdf10d%2Fimg%2Favatars%2Fava_0005-72.png",
            "first_name": "Hernán",
            "real_name": "Hernán Morales Durand",
            "display_name": "Hernán Morales Durand",
            "team": "TUU48M0T1",
            "name": "hernan.morales",
            "is_restricted": false,
            "is_ultra_restricted": false
        },
        "attachments": [
            {
                "service_name": "Google Docs",
                "title": "Tell us and share your COVID-19 challenge or idea!",
                "title_link": "https:\/\/forms.gle\/kC2jWSDueLypDHZg8",
                "text": "Just 2 questions. The more precise the better. We can help each other. Don't be afraid to share your doubts\/challenges. There is a lot of people helping each others in the open source jogl-covid-19 community",
                "fallback": "Google Docs: Tell us and share your COVID-19 challenge or idea!",
                "image_url": "https:\/\/lh3.googleusercontent.com\/ejb8D6pMUcvGpGC4cYBq-SYr7YtTx4q8SEYXfErTekQUFJ5pqa30WwxjIp9-fpMatudghs0",
                "image_width": 333,
                "image_height": 250,
                "from_url": "https:\/\/forms.gle\/kC2jWSDueLypDHZg8",
                "image_bytes": 93858,
                "service_icon": "http:\/\/ssl.gstatic.com\/docs\/forms\/device_home\/ios_120.png",
                "id": 1,
                "original_url": "https:\/\/forms.gle\/kC2jWSDueLypDHZg8"
            }
        ],
        "blocks": [
            {
                "type": "rich_text",
                "block_id": "dZ7hw",
                "elements": [
                    {
                        "type": "rich_text_section",
                        "elements": [
                            {
                                "type": "user",
                                "user_id": "UV0QTJCMT"
                            },
                            {
                                "type": "text",
                                "text": " This is the link: "
                            },
                            {
                                "type": "link",
                                "url": "https:\/\/forms.gle\/kC2jWSDueLypDHZg8"
                            }
                        ]
                    }
                ]
            }
        ],
        "thread_ts": "1584309705.033900",
        "parent_user_id": "UV8T52QJ3"
    },
    {
        "client_msg_id": "4b14db14-9f49-4a06-a44e-6c098896cba4",
        "type": "message",
        "text": "Suggestions more than welcome",
        "user": "UV8T52QJ3",
        "ts": "1584314117.039200",
        "team": "TUU48M0T1",
        "user_team": "TUU48M0T1",
        "source_team": "TUU48M0T1",
        "user_profile": {
            "avatar_hash": "g96f14063d73",
            "image_72": "https:\/\/secure.gravatar.com\/avatar\/96f14063d73cc7867772731f881de414.jpg?s=72&d=https%3A%2F%2Fa.slack-edge.com%2Fdf10d%2Fimg%2Favatars%2Fava_0005-72.png",
            "first_name": "Hernán",
            "real_name": "Hernán Morales Durand",
            "display_name": "Hernán Morales Durand",
            "team": "TUU48M0T1",
            "name": "hernan.morales",
            "is_restricted": false,
            "is_ultra_restricted": false
        },
        "blocks": [
            {
                "type": "rich_text",
                "block_id": "JArb",
                "elements": [
                    {
                        "type": "rich_text_section",
                        "elements": [
                            {
                                "type": "text",
                                "text": "Suggestions more than welcome"
                            }
                        ]
                    }
                ]
            }
        ],
        "thread_ts": "1584309705.033900",
        "parent_user_id": "UV8T52QJ3"
    }
]