[
    {
        "client_msg_id": "725738e8-43e6-421b-9135-5c071cd32f82",
        "type": "message",
        "text": "Hey comm friends! After some interest in the design team, I created a project for an educational game on the virus and safety practices so that we can reach kids in one of their favorite medium! We need designers, developers, scientists, biosafety ppl, etc to participate!  Pls join if you are interested in participating: <https:\/\/app.jogl.io\/project\/140>   slack channel: <#C01044Q28UB|proj-dev-edgame>",
        "user": "UV76CQTB4",
        "ts": "1584819618.116600",
        "team": "TUU48M0T1",
        "user_team": "TUU48M0T1",
        "source_team": "TUU48M0T1",
        "user_profile": {
            "avatar_hash": "07668a20a751",
            "image_72": "https:\/\/avatars.slack-edge.com\/2020-03-17\/993297059666_07668a20a751afe52104_72.png",
            "first_name": "",
            "real_name": "Julie Legault",
            "display_name": "Julie Legault",
            "team": "TUU48M0T1",
            "name": "julie",
            "is_restricted": false,
            "is_ultra_restricted": false
        },
        "attachments": [
            {
                "title": "JOGL - Just One Giant Lab",
                "title_link": "https:\/\/app.jogl.io\/project\/140",
                "text": "JOGL helps sync humanity onto solving our most important social &amp; environmental problems using open science, responsible innovation &amp; continuous learning.",
                "fallback": "JOGL - Just One Giant Lab",
                "thumb_url": "https:\/\/app.jogl.io\/planet.jpg",
                "from_url": "https:\/\/app.jogl.io\/project\/140",
                "thumb_width": 2049,
                "thumb_height": 1011,
                "service_icon": "https:\/\/app.jogl.io\/favicon.ico",
                "service_name": "app.jogl.io",
                "id": 1,
                "original_url": "https:\/\/app.jogl.io\/project\/140"
            }
        ],
        "blocks": [
            {
                "type": "rich_text",
                "block_id": "2TaN",
                "elements": [
                    {
                        "type": "rich_text_section",
                        "elements": [
                            {
                                "type": "text",
                                "text": "Hey comm friends! After some interest in the design team, I created a project for an educational game on the virus and safety practices so that we can reach kids in one of their favorite medium! We need designers, developers, scientists, biosafety ppl, etc to participate!  Pls join if you are interested in participating: "
                            },
                            {
                                "type": "link",
                                "url": "https:\/\/app.jogl.io\/project\/140"
                            },
                            {
                                "type": "text",
                                "text": "   slack channel: "
                            },
                            {
                                "type": "channel",
                                "channel_id": "C01044Q28UB"
                            }
                        ]
                    }
                ]
            }
        ],
        "thread_ts": "1584819618.116600",
        "reply_count": 4,
        "reply_users_count": 3,
        "latest_reply": "1584996126.161000",
        "reply_users": [
            "U0103LPAWQ4",
            "UV76CQTB4",
            "U01019BQXM3"
        ],
        "replies": [
            {
                "user": "U0103LPAWQ4",
                "ts": "1584841665.117500"
            },
            {
                "user": "UV76CQTB4",
                "ts": "1584901379.129700"
            },
            {
                "user": "U01019BQXM3",
                "ts": "1584996035.159000"
            },
            {
                "user": "U01019BQXM3",
                "ts": "1584996126.161000"
            }
        ],
        "subscribed": false,
        "reactions": [
            {
                "name": "100",
                "users": [
                    "UV2SC7ZE3",
                    "U010BMYLX36",
                    "U0103LPAWQ4",
                    "UV02WET96"
                ],
                "count": 4
            }
        ]
    },
    {
        "client_msg_id": "e686b998-1f5e-4022-86fc-f58a27a5c47d",
        "type": "message",
        "text": "That sounds great. I don't have any background in educational game design. What kind of help\/support do you need from the community?",
        "user": "U0103LPAWQ4",
        "ts": "1584841665.117500",
        "team": "TUU48M0T1",
        "user_team": "TUU48M0T1",
        "source_team": "TUU48M0T1",
        "user_profile": {
            "avatar_hash": "7b345029e813",
            "image_72": "https:\/\/avatars.slack-edge.com\/2020-03-17\/1004213082549_7b345029e8137cbdc6b0_72.jpg",
            "first_name": "Bre",
            "real_name": "Bre",
            "display_name": "Bre",
            "team": "TUU48M0T1",
            "name": "info",
            "is_restricted": false,
            "is_ultra_restricted": false
        },
        "blocks": [
            {
                "type": "rich_text",
                "block_id": "JlRyq",
                "elements": [
                    {
                        "type": "rich_text_section",
                        "elements": [
                            {
                                "type": "text",
                                "text": "That sounds great. I don't have any background in educational game design. What kind of help\/support do you need from the community?"
                            }
                        ]
                    }
                ]
            }
        ],
        "thread_ts": "1584819618.116600",
        "parent_user_id": "UV76CQTB4"
    }
]