[
    {
        "client_msg_id": "f0c68fa9-10f8-433c-9184-b4d1fc50eda2",
        "type": "message",
        "text": "Hi, <@UV02WET96> first article by Makery on JOGL OpenCovid19 Intitiative",
        "user": "U011HGM1Q4F",
        "ts": "1588683771.229400",
        "team": "TUU48M0T1",
        "user_team": "TUU48M0T1",
        "source_team": "TUU48M0T1",
        "user_profile": {
            "avatar_hash": "3691a3ec4275",
            "image_72": "https:\/\/avatars.slack-edge.com\/2020-04-29\/1092903031381_3691a3ec4275b6950b68_72.jpg",
            "first_name": "Ewen",
            "real_name": "Ewen Chardronnet",
            "display_name": "Ewen Chardronnet",
            "team": "TUU48M0T1",
            "name": "ewen",
            "is_restricted": false,
            "is_ultra_restricted": false
        },
        "blocks": [
            {
                "type": "rich_text",
                "block_id": "waBF",
                "elements": [
                    {
                        "type": "rich_text_section",
                        "elements": [
                            {
                                "type": "text",
                                "text": "Hi, "
                            },
                            {
                                "type": "user",
                                "user_id": "UV02WET96"
                            },
                            {
                                "type": "text",
                                "text": " first article by Makery on JOGL OpenCovid19 Intitiative"
                            }
                        ]
                    }
                ]
            }
        ],
        "thread_ts": "1588683771.229400",
        "reply_count": 2,
        "reply_users_count": 1,
        "latest_reply": "1588693969.231600",
        "reply_users": [
            "UV9V03C8Y"
        ],
        "replies": [
            {
                "user": "UV9V03C8Y",
                "ts": "1588693915.231100"
            },
            {
                "user": "UV9V03C8Y",
                "ts": "1588693969.231600"
            }
        ],
        "subscribed": false
    },
    {
        "client_msg_id": "301b43d6-7266-4cb3-b181-73f54014b072",
        "type": "message",
        "text": "<https:\/\/www.makery.info\/en\/2020\/05\/05\/english-just-one-giant-hackathon-against-covid-19\/>",
        "user": "U011HGM1Q4F",
        "ts": "1588683774.229600",
        "team": "TUU48M0T1",
        "user_team": "TUU48M0T1",
        "source_team": "TUU48M0T1",
        "user_profile": {
            "avatar_hash": "3691a3ec4275",
            "image_72": "https:\/\/avatars.slack-edge.com\/2020-04-29\/1092903031381_3691a3ec4275b6950b68_72.jpg",
            "first_name": "Ewen",
            "real_name": "Ewen Chardronnet",
            "display_name": "Ewen Chardronnet",
            "team": "TUU48M0T1",
            "name": "ewen",
            "is_restricted": false,
            "is_ultra_restricted": false
        },
        "attachments": [
            {
                "service_name": "Makery",
                "title": "Just One Giant Hackathon against Covid-19",
                "title_link": "https:\/\/www.makery.info\/en\/2020\/05\/05\/english-just-one-giant-hackathon-against-covid-19\/",
                "text": "JOGL, a global platform for collaborating on open source biotech projects to make our planet more sustainable, recently launched a series of micro-grants for projects directly tackling the Covid-19 crisis. 8 new projects were awarded in Round 2.",
                "fallback": "Makery: Just One Giant Hackathon against Covid-19",
                "image_url": "https:\/\/s3-eu-central-1.amazonaws.com\/makeryfiles\/wp-content\/uploads\/2020\/05\/map.jpg",
                "from_url": "https:\/\/www.makery.info\/en\/2020\/05\/05\/english-just-one-giant-hackathon-against-covid-19\/",
                "image_width": 500,
                "image_height": 250,
                "image_bytes": 306479,
                "service_icon": "https:\/\/www.makery.info\/wp-content\/themes\/makery\/assets\/imgs\/apple-touch-icon-precomposed.png",
                "id": 1,
                "original_url": "https:\/\/www.makery.info\/en\/2020\/05\/05\/english-just-one-giant-hackathon-against-covid-19\/"
            }
        ],
        "blocks": [
            {
                "type": "rich_text",
                "block_id": "m+J",
                "elements": [
                    {
                        "type": "rich_text_section",
                        "elements": [
                            {
                                "type": "link",
                                "url": "https:\/\/www.makery.info\/en\/2020\/05\/05\/english-just-one-giant-hackathon-against-covid-19\/"
                            }
                        ]
                    }
                ]
            }
        ],
        "reactions": [
            {
                "name": "heart",
                "users": [
                    "UV0RRGB6H",
                    "UV9V03C8Y",
                    "UV0QTJCMT"
                ],
                "count": 3
            },
            {
                "name": "boom",
                "users": [
                    "UV9V03C8Y"
                ],
                "count": 1
            },
            {
                "name": "star-struck",
                "users": [
                    "UV9V03C8Y"
                ],
                "count": 1
            },
            {
                "name": "tada",
                "users": [
                    "UV9V03C8Y"
                ],
                "count": 1
            }
        ]
    },
    {
        "client_msg_id": "1069e440-ddda-4d42-8eef-205fef870a38",
        "type": "message",
        "text": "They weren't but they should be, thank for offering to review!",
        "user": "U010APQC76J",
        "ts": "1588692525.230000",
        "team": "TUU48M0T1",
        "user_team": "TUU48M0T1",
        "source_team": "TUU48M0T1",
        "user_profile": {
            "avatar_hash": "751a8e7a94a5",
            "image_72": "https:\/\/avatars.slack-edge.com\/2020-03-25\/1026091401893_751a8e7a94a519bfd1d7_72.jpg",
            "first_name": "Hans",
            "real_name": "Hans Pfalzgraf",
            "display_name": "Hans P",
            "team": "TUU48M0T1",
            "name": "h.pfalzgraf",
            "is_restricted": false,
            "is_ultra_restricted": false
        },
        "blocks": [
            {
                "type": "rich_text",
                "block_id": "qN+sg",
                "elements": [
                    {
                        "type": "rich_text_section",
                        "elements": [
                            {
                                "type": "text",
                                "text": "They weren't but they should be, thank for offering to review!"
                            }
                        ]
                    }
                ]
            }
        ],
        "thread_ts": "1588343145.219800",
        "parent_user_id": "U010APQC76J"
    },
    {
        "client_msg_id": "9eb1de19-793c-4e0b-b7b4-5ce6708baaa3",
        "type": "message",
        "text": "I'm feeling unwell so cannot make it onto today's call, sorry! If you decide on what update to make for the community call I may still be well enough tomorrow to deliver it",
        "user": "U010APQC76J",
        "ts": "1588692584.231000",
        "team": "TUU48M0T1",
        "user_team": "TUU48M0T1",
        "source_team": "TUU48M0T1",
        "user_profile": {
            "avatar_hash": "751a8e7a94a5",
            "image_72": "https:\/\/avatars.slack-edge.com\/2020-03-25\/1026091401893_751a8e7a94a519bfd1d7_72.jpg",
            "first_name": "Hans",
            "real_name": "Hans Pfalzgraf",
            "display_name": "Hans P",
            "team": "TUU48M0T1",
            "name": "h.pfalzgraf",
            "is_restricted": false,
            "is_ultra_restricted": false
        },
        "blocks": [
            {
                "type": "rich_text",
                "block_id": "4cz=",
                "elements": [
                    {
                        "type": "rich_text_section",
                        "elements": [
                            {
                                "type": "text",
                                "text": "I'm feeling unwell so cannot make it onto today's call, sorry! If you decide on what update to make for the community call I may still be well enough tomorrow to deliver it"
                            }
                        ]
                    }
                ]
            }
        ]
    },
    {
        "client_msg_id": "dc2faecd-91fb-4461-8474-99bfa89f4b00",
        "type": "message",
        "text": "This is great! Thank you <@U011HGM1Q4F>! It is so nice to see projects on the spotlight! I'm sure it's going to be very inspiring for many people. <!subteam^S012DF438LW|@communications-team> could we maybe relay the article in our social media? Thanks again for the article!",
        "user": "UV9V03C8Y",
        "ts": "1588693915.231100",
        "team": "TUU48M0T1",
        "user_team": "TUU48M0T1",
        "source_team": "TUU48M0T1",
        "user_profile": {
            "avatar_hash": "177697fb7b8f",
            "image_72": "https:\/\/avatars.slack-edge.com\/2020-03-12\/996126178096_177697fb7b8ffa57649c_72.jpg",
            "first_name": "Camille",
            "real_name": "Camille Masselot - JOGL Program coordinator",
            "display_name": "Camille Masselot - JOGL coordinator",
            "team": "TUU48M0T1",
            "name": "masselot.camille",
            "is_restricted": false,
            "is_ultra_restricted": false
        },
        "blocks": [
            {
                "type": "rich_text",
                "block_id": "uhjU",
                "elements": [
                    {
                        "type": "rich_text_section",
                        "elements": [
                            {
                                "type": "text",
                                "text": "This is great! Thank you "
                            },
                            {
                                "type": "user",
                                "user_id": "U011HGM1Q4F"
                            },
                            {
                                "type": "text",
                                "text": "! It is so nice to see projects on the spotlight! I'm sure it's going to be very inspiring for many people. "
                            },
                            {
                                "type": "usergroup",
                                "usergroup_id": "S012DF438LW"
                            },
                            {
                                "type": "text",
                                "text": " could we maybe relay the article in our social media? Thanks again for the article!"
                            }
                        ]
                    }
                ]
            }
        ],
        "thread_ts": "1588683771.229400",
        "parent_user_id": "U011HGM1Q4F"
    },
    {
        "client_msg_id": "ab5e9aa1-2f20-46dd-999b-f93826056b51",
        "type": "message",
        "text": "Also <@UV02WET96> I think this diserves an annoucement :slightly_smiling_face:",
        "user": "UV9V03C8Y",
        "ts": "1588693969.231600",
        "team": "TUU48M0T1",
        "user_team": "TUU48M0T1",
        "source_team": "TUU48M0T1",
        "user_profile": {
            "avatar_hash": "177697fb7b8f",
            "image_72": "https:\/\/avatars.slack-edge.com\/2020-03-12\/996126178096_177697fb7b8ffa57649c_72.jpg",
            "first_name": "Camille",
            "real_name": "Camille Masselot - JOGL Program coordinator",
            "display_name": "Camille Masselot - JOGL coordinator",
            "team": "TUU48M0T1",
            "name": "masselot.camille",
            "is_restricted": false,
            "is_ultra_restricted": false
        },
        "blocks": [
            {
                "type": "rich_text",
                "block_id": "\/O9i6",
                "elements": [
                    {
                        "type": "rich_text_section",
                        "elements": [
                            {
                                "type": "text",
                                "text": "Also "
                            },
                            {
                                "type": "user",
                                "user_id": "UV02WET96"
                            },
                            {
                                "type": "text",
                                "text": " I think this diserves an annoucement "
                            },
                            {
                                "type": "emoji",
                                "name": "slightly_smiling_face"
                            }
                        ]
                    }
                ]
            }
        ],
        "thread_ts": "1588683771.229400",
        "parent_user_id": "U011HGM1Q4F"
    }
]