[
    {
        "client_msg_id": "bbc06638-2cf9-47c8-805d-6f134f7c9a05",
        "type": "message",
        "text": "Is there a link to a single folder that has all the google docs and spreadsheets from the Comm group? Like Julie's guidelines, science journalist spreadsheet, project updates? Thanks.",
        "user": "UV0PCSG58",
        "ts": "1585573362.104200",
        "team": "TUU48M0T1",
        "user_team": "TUU48M0T1",
        "source_team": "TUU48M0T1",
        "user_profile": {
            "avatar_hash": "f39dcc98ce27",
            "image_72": "https:\/\/avatars.slack-edge.com\/2020-03-25\/1026668986768_f39dcc98ce2701046e27_72.jpg",
            "first_name": "",
            "real_name": "emilym",
            "display_name": "emilym",
            "team": "TUU48M0T1",
            "name": "emonosson",
            "is_restricted": false,
            "is_ultra_restricted": false
        },
        "blocks": [
            {
                "type": "rich_text",
                "block_id": "rPwH",
                "elements": [
                    {
                        "type": "rich_text_section",
                        "elements": [
                            {
                                "type": "text",
                                "text": "Is there a link to a single folder that has all the google docs and spreadsheets from the Comm group? Like Julie's guidelines, science journalist spreadsheet, project updates? Thanks."
                            }
                        ]
                    }
                ]
            }
        ],
        "thread_ts": "1585573362.104200",
        "reply_count": 3,
        "reply_users_count": 2,
        "latest_reply": "1585683003.150600",
        "reply_users": [
            "UV2SC7ZE3",
            "UV0PCSG58"
        ],
        "replies": [
            {
                "user": "UV2SC7ZE3",
                "ts": "1585580549.108000"
            },
            {
                "user": "UV2SC7ZE3",
                "ts": "1585580730.108200"
            },
            {
                "user": "UV0PCSG58",
                "ts": "1585683003.150600"
            }
        ],
        "subscribed": false
    },
    {
        "client_msg_id": "3c11c15c-f558-46b8-a04f-6aba2c877a9e",
        "type": "message",
        "text": "I've made the OpenCovid19 LinkedIn page: <https:\/\/www.linkedin.com\/company\/OpenCovid19>",
        "user": "U010APQC76J",
        "ts": "1585579327.104900",
        "team": "TUU48M0T1",
        "user_team": "TUU48M0T1",
        "source_team": "TUU48M0T1",
        "user_profile": {
            "avatar_hash": "751a8e7a94a5",
            "image_72": "https:\/\/avatars.slack-edge.com\/2020-03-25\/1026091401893_751a8e7a94a519bfd1d7_72.jpg",
            "first_name": "Hans",
            "real_name": "Hans Pfalzgraf",
            "display_name": "Hans P",
            "team": "TUU48M0T1",
            "name": "h.pfalzgraf",
            "is_restricted": false,
            "is_ultra_restricted": false
        },
        "blocks": [
            {
                "type": "rich_text",
                "block_id": "ZFR=2",
                "elements": [
                    {
                        "type": "rich_text_section",
                        "elements": [
                            {
                                "type": "text",
                                "text": "I've made the OpenCovid19 LinkedIn page: "
                            },
                            {
                                "type": "link",
                                "url": "https:\/\/www.linkedin.com\/company\/OpenCovid19"
                            }
                        ]
                    }
                ]
            }
        ],
        "thread_ts": "1585579327.104900",
        "reply_count": 1,
        "reply_users_count": 1,
        "latest_reply": "1585645745.117800",
        "reply_users": [
            "UUWPKNE2E"
        ],
        "replies": [
            {
                "user": "UUWPKNE2E",
                "ts": "1585645745.117800"
            }
        ],
        "subscribed": false,
        "reactions": [
            {
                "name": "+1",
                "users": [
                    "UV2SC7ZE3",
                    "UV9V03C8Y",
                    "U0103LPAWQ4",
                    "UUWPKNE2E"
                ],
                "count": 4
            }
        ]
    },
    {
        "client_msg_id": "e0ef3b2f-be36-41a5-bc98-fe375e44f7ee",
        "type": "message",
        "text": "If you want to be added as an Admin please say so and add me on LinkedIn so I can add you as an admin: <https:\/\/www.linkedin.com\/in\/hanspfalzgraf\/>",
        "user": "U010APQC76J",
        "ts": "1585579463.106200",
        "team": "TUU48M0T1",
        "user_team": "TUU48M0T1",
        "source_team": "TUU48M0T1",
        "user_profile": {
            "avatar_hash": "751a8e7a94a5",
            "image_72": "https:\/\/avatars.slack-edge.com\/2020-03-25\/1026091401893_751a8e7a94a519bfd1d7_72.jpg",
            "first_name": "Hans",
            "real_name": "Hans Pfalzgraf",
            "display_name": "Hans P",
            "team": "TUU48M0T1",
            "name": "h.pfalzgraf",
            "is_restricted": false,
            "is_ultra_restricted": false
        },
        "blocks": [
            {
                "type": "rich_text",
                "block_id": "3TF5k",
                "elements": [
                    {
                        "type": "rich_text_section",
                        "elements": [
                            {
                                "type": "text",
                                "text": "If you want to be added as an Admin please say so and add me on LinkedIn so I can add you as an admin: "
                            },
                            {
                                "type": "link",
                                "url": "https:\/\/www.linkedin.com\/in\/hanspfalzgraf\/"
                            }
                        ]
                    }
                ]
            }
        ]
    },
    {
        "client_msg_id": "b772e4b0-71c8-4691-b62c-8e0f48ca9f41",
        "type": "message",
        "text": "The good news is that people can now add it to their work experience\nWe could improve it further, partly by following some tips here: <https:\/\/topdogsocialmedia.com\/create-linkedin-company-page\/>\nBut right now I should be pushing through my fever to write my thesis so see you tomorrow!",
        "user": "U010APQC76J",
        "ts": "1585579815.107600",
        "team": "TUU48M0T1",
        "user_team": "TUU48M0T1",
        "source_team": "TUU48M0T1",
        "user_profile": {
            "avatar_hash": "751a8e7a94a5",
            "image_72": "https:\/\/avatars.slack-edge.com\/2020-03-25\/1026091401893_751a8e7a94a519bfd1d7_72.jpg",
            "first_name": "Hans",
            "real_name": "Hans Pfalzgraf",
            "display_name": "Hans P",
            "team": "TUU48M0T1",
            "name": "h.pfalzgraf",
            "is_restricted": false,
            "is_ultra_restricted": false
        },
        "attachments": [
            {
                "service_name": "Top Dog Social Media",
                "title": "How to Create a LinkedIn Company Page",
                "title_link": "https:\/\/topdogsocialmedia.com\/create-linkedin-company-page\/",
                "text": "Setting up an optimized LinkedIn company page is easy if you know the exact steps to follow. Here’s a complete guide to setting up your company page on LinkedIn.",
                "fallback": "Top Dog Social Media: How to Create a LinkedIn Company Page",
                "image_url": "https:\/\/topdogsocialmedia.com\/wp-content\/uploads\/2019\/07\/create-a-linkedin-company-page.jpg",
                "ts": 1563435027,
                "from_url": "https:\/\/topdogsocialmedia.com\/create-linkedin-company-page\/",
                "image_width": 478,
                "image_height": 250,
                "image_bytes": 28585,
                "service_icon": "https:\/\/topdogsocialmedia.com\/wp-content\/uploads\/cropped-TDSM-Favicon-1-180x180.png",
                "id": 1,
                "original_url": "https:\/\/topdogsocialmedia.com\/create-linkedin-company-page\/"
            }
        ],
        "blocks": [
            {
                "type": "rich_text",
                "block_id": "8qE",
                "elements": [
                    {
                        "type": "rich_text_section",
                        "elements": [
                            {
                                "type": "text",
                                "text": "The good news is that people can now add it to their work experience\nWe could improve it further, partly by following some tips here: "
                            },
                            {
                                "type": "link",
                                "url": "https:\/\/topdogsocialmedia.com\/create-linkedin-company-page\/"
                            },
                            {
                                "type": "text",
                                "text": "\nBut right now I should be pushing through my fever to write my thesis so see you tomorrow!"
                            }
                        ]
                    }
                ]
            }
        ],
        "thread_ts": "1585579815.107600",
        "reply_count": 1,
        "reply_users_count": 1,
        "latest_reply": "1585586561.110400",
        "reply_users": [
            "UV76CQTB4"
        ],
        "replies": [
            {
                "user": "UV76CQTB4",
                "ts": "1585586561.110400"
            }
        ],
        "subscribed": false,
        "reactions": [
            {
                "name": "+1",
                "users": [
                    "UV2SC7ZE3",
                    "UV76CQTB4",
                    "UV9V03C8Y"
                ],
                "count": 3
            }
        ]
    },
    {
        "client_msg_id": "c37e8dbd-0492-4b98-98f2-dc031a906c4e",
        "type": "message",
        "text": "Here is the entire opencovid19 initative folder:\n<https:\/\/drive.google.com\/open?id=1CLZnM0s_RFr2FCdCwTFUtJkPIjmb42b3>. There is a Comms folder inside.\n<#CV0QED4KU|prgm-governance-team> is working to get people added to the folder. Unfortunately, I think you can only get view access.",
        "user": "UV2SC7ZE3",
        "ts": "1585580549.108000",
        "team": "TUU48M0T1",
        "user_team": "TUU48M0T1",
        "source_team": "TUU48M0T1",
        "user_profile": {
            "avatar_hash": "d28dd0d076e8",
            "image_72": "https:\/\/avatars.slack-edge.com\/2020-03-14\/987873094258_d28dd0d076e8fa9a8409_72.png",
            "first_name": "David",
            "real_name": "David Lu",
            "display_name": "David Lu",
            "team": "TUU48M0T1",
            "name": "ludavidyi",
            "is_restricted": false,
            "is_ultra_restricted": false
        },
        "blocks": [
            {
                "type": "rich_text",
                "block_id": "Lb2",
                "elements": [
                    {
                        "type": "rich_text_section",
                        "elements": [
                            {
                                "type": "text",
                                "text": "Here is the entire opencovid19 initative folder:\n"
                            },
                            {
                                "type": "link",
                                "url": "https:\/\/drive.google.com\/open?id=1CLZnM0s_RFr2FCdCwTFUtJkPIjmb42b3"
                            },
                            {
                                "type": "text",
                                "text": ". There is a Comms folder inside.\n"
                            },
                            {
                                "type": "channel",
                                "channel_id": "CV0QED4KU"
                            },
                            {
                                "type": "text",
                                "text": " is working to get people added to the folder. Unfortunately, I think you can only get view access."
                            }
                        ]
                    }
                ]
            }
        ],
        "thread_ts": "1585573362.104200",
        "parent_user_id": "UV0PCSG58"
    },
    {
        "client_msg_id": "d314b5fa-c6a0-4c18-8479-bcd8218b08c4",
        "type": "message",
        "text": "Try following step 3 in the onboarding document: <https:\/\/docs.google.com\/document\/d\/1h0Zu-Q_c71FUlyh66rAPcNR1s7ASOatY2oicsaedzsk\/edit#>",
        "user": "UV2SC7ZE3",
        "ts": "1585580730.108200",
        "team": "TUU48M0T1",
        "user_team": "TUU48M0T1",
        "source_team": "TUU48M0T1",
        "user_profile": {
            "avatar_hash": "d28dd0d076e8",
            "image_72": "https:\/\/avatars.slack-edge.com\/2020-03-14\/987873094258_d28dd0d076e8fa9a8409_72.png",
            "first_name": "David",
            "real_name": "David Lu",
            "display_name": "David Lu",
            "team": "TUU48M0T1",
            "name": "ludavidyi",
            "is_restricted": false,
            "is_ultra_restricted": false
        },
        "blocks": [
            {
                "type": "rich_text",
                "block_id": "JAp7",
                "elements": [
                    {
                        "type": "rich_text_section",
                        "elements": [
                            {
                                "type": "text",
                                "text": "Try following step 3 in the onboarding document: "
                            },
                            {
                                "type": "link",
                                "url": "https:\/\/docs.google.com\/document\/d\/1h0Zu-Q_c71FUlyh66rAPcNR1s7ASOatY2oicsaedzsk\/edit#"
                            }
                        ]
                    }
                ]
            }
        ],
        "thread_ts": "1585573362.104200",
        "parent_user_id": "UV0PCSG58"
    },
    {
        "client_msg_id": "29fb4da2-8097-4e4b-8c2d-0eccf6bfe2b5",
        "type": "message",
        "text": "Hey Comms! I want to share the Biosafety questions docs we created with the Biosafety team to collect their bullet point responses so we can craft statements - is there a channel I should use to reach out to our experts?",
        "user": "UV76CQTB4",
        "ts": "1585586358.110200",
        "team": "TUU48M0T1",
        "user_team": "TUU48M0T1",
        "source_team": "TUU48M0T1",
        "user_profile": {
            "avatar_hash": "07668a20a751",
            "image_72": "https:\/\/avatars.slack-edge.com\/2020-03-17\/993297059666_07668a20a751afe52104_72.png",
            "first_name": "",
            "real_name": "Julie Legault",
            "display_name": "Julie Legault",
            "team": "TUU48M0T1",
            "name": "julie",
            "is_restricted": false,
            "is_ultra_restricted": false
        },
        "blocks": [
            {
                "type": "rich_text",
                "block_id": "L+Nc",
                "elements": [
                    {
                        "type": "rich_text_section",
                        "elements": [
                            {
                                "type": "text",
                                "text": "Hey Comms! I want to share the Biosafety questions docs we created with the Biosafety team to collect their bullet point responses so we can craft statements - is there a channel I should use to reach out to our experts?"
                            }
                        ]
                    }
                ]
            }
        ],
        "thread_ts": "1585586358.110200",
        "reply_count": 4,
        "reply_users_count": 3,
        "latest_reply": "1585588214.111200",
        "reply_users": [
            "UV2SC7ZE3",
            "U01019BQXM3",
            "UV76CQTB4"
        ],
        "replies": [
            {
                "user": "UV2SC7ZE3",
                "ts": "1585586883.110600"
            },
            {
                "user": "UV2SC7ZE3",
                "ts": "1585586938.110800"
            },
            {
                "user": "U01019BQXM3",
                "ts": "1585586952.111000"
            },
            {
                "user": "UV76CQTB4",
                "ts": "1585588214.111200"
            }
        ],
        "subscribed": false
    },
    {
        "client_msg_id": "36b49d30-c0fc-4bd4-9822-ffb65f11eb70",
        "type": "message",
        "text": "Once we have our Press Kit statements, I can help adding content :slightly_smiling_face:",
        "user": "UV76CQTB4",
        "ts": "1585586561.110400",
        "team": "TUU48M0T1",
        "user_team": "TUU48M0T1",
        "source_team": "TUU48M0T1",
        "user_profile": {
            "avatar_hash": "07668a20a751",
            "image_72": "https:\/\/avatars.slack-edge.com\/2020-03-17\/993297059666_07668a20a751afe52104_72.png",
            "first_name": "",
            "real_name": "Julie Legault",
            "display_name": "Julie Legault",
            "team": "TUU48M0T1",
            "name": "julie",
            "is_restricted": false,
            "is_ultra_restricted": false
        },
        "blocks": [
            {
                "type": "rich_text",
                "block_id": "TrgTE",
                "elements": [
                    {
                        "type": "rich_text_section",
                        "elements": [
                            {
                                "type": "text",
                                "text": "Once we have our Press Kit statements, I can help adding content "
                            },
                            {
                                "type": "emoji",
                                "name": "slightly_smiling_face"
                            }
                        ]
                    }
                ]
            }
        ],
        "thread_ts": "1585579815.107600",
        "parent_user_id": "U010APQC76J",
        "reactions": [
            {
                "name": "+1",
                "users": [
                    "UV2SC7ZE3"
                ],
                "count": 1
            }
        ]
    },
    {
        "client_msg_id": "5e070acd-43f5-4d33-aa93-25a739ca6d3b",
        "type": "message",
        "text": "There is a <#CUWUM8M2P|prgm-biosafety-questions>",
        "user": "UV2SC7ZE3",
        "ts": "1585586883.110600",
        "team": "TUU48M0T1",
        "user_team": "TUU48M0T1",
        "source_team": "TUU48M0T1",
        "user_profile": {
            "avatar_hash": "d28dd0d076e8",
            "image_72": "https:\/\/avatars.slack-edge.com\/2020-03-14\/987873094258_d28dd0d076e8fa9a8409_72.png",
            "first_name": "David",
            "real_name": "David Lu",
            "display_name": "David Lu",
            "team": "TUU48M0T1",
            "name": "ludavidyi",
            "is_restricted": false,
            "is_ultra_restricted": false
        },
        "blocks": [
            {
                "type": "rich_text",
                "block_id": "yWL3G",
                "elements": [
                    {
                        "type": "rich_text_section",
                        "elements": [
                            {
                                "type": "text",
                                "text": "There is a "
                            },
                            {
                                "type": "channel",
                                "channel_id": "CUWUM8M2P"
                            }
                        ]
                    }
                ]
            }
        ],
        "thread_ts": "1585586358.110200",
        "parent_user_id": "UV76CQTB4"
    },
    {
        "client_msg_id": "06f42960-b793-4df1-a61e-0793ca2bd70c",
        "type": "message",
        "text": "Thanks again for writing those up!",
        "user": "UV2SC7ZE3",
        "ts": "1585586938.110800",
        "team": "TUU48M0T1",
        "user_team": "TUU48M0T1",
        "source_team": "TUU48M0T1",
        "user_profile": {
            "avatar_hash": "d28dd0d076e8",
            "image_72": "https:\/\/avatars.slack-edge.com\/2020-03-14\/987873094258_d28dd0d076e8fa9a8409_72.png",
            "first_name": "David",
            "real_name": "David Lu",
            "display_name": "David Lu",
            "team": "TUU48M0T1",
            "name": "ludavidyi",
            "is_restricted": false,
            "is_ultra_restricted": false
        },
        "blocks": [
            {
                "type": "rich_text",
                "block_id": "mwk",
                "elements": [
                    {
                        "type": "rich_text_section",
                        "elements": [
                            {
                                "type": "text",
                                "text": "Thanks again for writing those up!"
                            }
                        ]
                    }
                ]
            }
        ],
        "thread_ts": "1585586358.110200",
        "parent_user_id": "UV76CQTB4"
    },
    {
        "client_msg_id": "9fff91f6-257b-483e-b20f-9bcb127221a0",
        "type": "message",
        "text": "Also, on the onboarding doc you have the Biosafety Board comprised of 3 people if I remember well, you could contact them too individually",
        "user": "U01019BQXM3",
        "ts": "1585586952.111000",
        "team": "TUU48M0T1",
        "user_team": "TUU48M0T1",
        "source_team": "TUU48M0T1",
        "user_profile": {
            "avatar_hash": "7e0f35d8cc55",
            "image_72": "https:\/\/avatars.slack-edge.com\/2020-03-15\/988667349730_7e0f35d8cc556cd89565_72.jpg",
            "first_name": "Marc",
            "real_name": "Marc Bokobza",
            "display_name": "Marc Bokobza",
            "team": "TUU48M0T1",
            "name": "marcbokobza1",
            "is_restricted": false,
            "is_ultra_restricted": false
        },
        "blocks": [
            {
                "type": "rich_text",
                "block_id": "dX0g",
                "elements": [
                    {
                        "type": "rich_text_section",
                        "elements": [
                            {
                                "type": "text",
                                "text": "Also, on the onboarding doc you have the Biosafety Board comprised of 3 people if I remember well, you could contact them too individually"
                            }
                        ]
                    }
                ]
            }
        ],
        "thread_ts": "1585586358.110200",
        "parent_user_id": "UV76CQTB4"
    },
    {
        "client_msg_id": "e43d6766-b333-48c2-ab17-b76c08e10667",
        "type": "message",
        "text": "Ok thanks guys!",
        "user": "UV76CQTB4",
        "ts": "1585588214.111200",
        "team": "TUU48M0T1",
        "user_team": "TUU48M0T1",
        "source_team": "TUU48M0T1",
        "user_profile": {
            "avatar_hash": "07668a20a751",
            "image_72": "https:\/\/avatars.slack-edge.com\/2020-03-17\/993297059666_07668a20a751afe52104_72.png",
            "first_name": "",
            "real_name": "Julie Legault",
            "display_name": "Julie Legault",
            "team": "TUU48M0T1",
            "name": "julie",
            "is_restricted": false,
            "is_ultra_restricted": false
        },
        "blocks": [
            {
                "type": "rich_text",
                "block_id": "hch\/J",
                "elements": [
                    {
                        "type": "rich_text_section",
                        "elements": [
                            {
                                "type": "text",
                                "text": "Ok thanks guys!"
                            }
                        ]
                    }
                ]
            }
        ],
        "thread_ts": "1585586358.110200",
        "parent_user_id": "UV76CQTB4"
    },
    {
        "client_msg_id": "70a4a75d-6cb2-4205-900a-262dfa2c5465",
        "type": "message",
        "text": "I can assist if needed",
        "user": "U010Q3372P3",
        "ts": "1585590986.112000",
        "team": "TUU48M0T1",
        "user_team": "TUU48M0T1",
        "source_team": "TUU48M0T1",
        "user_profile": {
            "avatar_hash": "95066184973b",
            "image_72": "https:\/\/avatars.slack-edge.com\/2020-03-30\/1036274198128_95066184973b1de50d1a_72.png",
            "first_name": "Kathryn",
            "real_name": "Kathryn Rowe",
            "display_name": "Kathryn Rowe",
            "team": "TUU48M0T1",
            "name": "kathryn.rowe",
            "is_restricted": false,
            "is_ultra_restricted": false
        },
        "blocks": [
            {
                "type": "rich_text",
                "block_id": "XZL",
                "elements": [
                    {
                        "type": "rich_text_section",
                        "elements": [
                            {
                                "type": "text",
                                "text": "I can assist if needed"
                            }
                        ]
                    }
                ]
            }
        ],
        "thread_ts": "1585504752.100900",
        "parent_user_id": "UV0QTJCMT"
    },
    {
        "client_msg_id": "62C42C46-DF80-4414-8F91-A21013C482EB",
        "type": "message",
        "text": "<@UV2SC7ZE3> could you and <@U010Q3372P3> touch base? the press kit is quite a big ask so i’m assuming some help wouldn’t hurt :))",
        "user": "UV0QTJCMT",
        "ts": "1585596028.113500",
        "team": "TUU48M0T1",
        "user_team": "TUU48M0T1",
        "source_team": "TUU48M0T1",
        "user_profile": {
            "avatar_hash": "06a6ae8f69d1",
            "image_72": "https:\/\/avatars.slack-edge.com\/2020-04-13\/1060635499315_06a6ae8f69d18f1ad464_72.png",
            "first_name": "Katherine",
            "real_name": "Katherine Holo",
            "display_name": "Kat Holo - Co-Organizer of OpenCOVID19",
            "team": "TUU48M0T1",
            "name": "katherineh245",
            "is_restricted": false,
            "is_ultra_restricted": false
        },
        "blocks": [
            {
                "type": "rich_text",
                "block_id": "ZiAQr",
                "elements": [
                    {
                        "type": "rich_text_section",
                        "elements": [
                            {
                                "type": "user",
                                "user_id": "UV2SC7ZE3"
                            },
                            {
                                "type": "text",
                                "text": " could you and "
                            },
                            {
                                "type": "user",
                                "user_id": "U010Q3372P3"
                            },
                            {
                                "type": "text",
                                "text": " touch base? the press kit is quite a big ask so i’m assuming some help wouldn’t hurt :))"
                            }
                        ]
                    }
                ]
            }
        ],
        "thread_ts": "1585504752.100900",
        "parent_user_id": "UV0QTJCMT"
    },
    {
        "client_msg_id": "433b1b9d-3dc1-41e0-a4ae-af080cb4d1a5",
        "type": "message",
        "text": "You bet, I'm able to set up a Zoom, let me know if there's another way you'd prefer to connect.",
        "user": "U010Q3372P3",
        "ts": "1585597197.113700",
        "team": "TUU48M0T1",
        "user_team": "TUU48M0T1",
        "source_team": "TUU48M0T1",
        "user_profile": {
            "avatar_hash": "95066184973b",
            "image_72": "https:\/\/avatars.slack-edge.com\/2020-03-30\/1036274198128_95066184973b1de50d1a_72.png",
            "first_name": "Kathryn",
            "real_name": "Kathryn Rowe",
            "display_name": "Kathryn Rowe",
            "team": "TUU48M0T1",
            "name": "kathryn.rowe",
            "is_restricted": false,
            "is_ultra_restricted": false
        },
        "blocks": [
            {
                "type": "rich_text",
                "block_id": "b1Xbw",
                "elements": [
                    {
                        "type": "rich_text_section",
                        "elements": [
                            {
                                "type": "text",
                                "text": "You bet, I'm able to set up a Zoom, let me know if there's another way you'd prefer to connect."
                            }
                        ]
                    }
                ]
            }
        ],
        "thread_ts": "1585504752.100900",
        "parent_user_id": "UV0QTJCMT"
    },
    {
        "client_msg_id": "2d9f310e-5471-4061-aa20-a3ae9d5a4154",
        "type": "message",
        "text": "<@UV2SC7ZE3> I have a conflicting call tomorrow. Sorry about that. Please let me know what I can do. Like what to do with the information we collected, how to get the \"needs\" out there both internally and externally etc. I think that's what seemed most important as <@U010APQC76J> has indicated from whatever we've collected.",
        "user": "UV0PCSG58",
        "ts": "1585605661.115300",
        "team": "TUU48M0T1",
        "user_team": "TUU48M0T1",
        "source_team": "TUU48M0T1",
        "user_profile": {
            "avatar_hash": "f39dcc98ce27",
            "image_72": "https:\/\/avatars.slack-edge.com\/2020-03-25\/1026668986768_f39dcc98ce2701046e27_72.jpg",
            "first_name": "",
            "real_name": "emilym",
            "display_name": "emilym",
            "team": "TUU48M0T1",
            "name": "emonosson",
            "is_restricted": false,
            "is_ultra_restricted": false
        },
        "blocks": [
            {
                "type": "rich_text",
                "block_id": "WK8i7",
                "elements": [
                    {
                        "type": "rich_text_section",
                        "elements": [
                            {
                                "type": "user",
                                "user_id": "UV2SC7ZE3"
                            },
                            {
                                "type": "text",
                                "text": " I have a conflicting call tomorrow. Sorry about that. Please let me know what I can do. Like what to do with the information we collected, how to get the \"needs\" out there both internally and externally etc. I think that's what seemed most important as "
                            },
                            {
                                "type": "user",
                                "user_id": "U010APQC76J"
                            },
                            {
                                "type": "text",
                                "text": " has indicated from whatever we've collected."
                            }
                        ]
                    }
                ]
            }
        ],
        "thread_ts": "1585605661.115300",
        "reply_count": 1,
        "reply_users_count": 1,
        "latest_reply": "1585606283.115600",
        "reply_users": [
            "UV2SC7ZE3"
        ],
        "replies": [
            {
                "user": "UV2SC7ZE3",
                "ts": "1585606283.115600"
            }
        ],
        "subscribed": false
    },
    {
        "client_msg_id": "fa2dcdd8-2c31-437a-90ae-abdcc7c9e73b",
        "type": "message",
        "text": "Awesome! I don't know if I will be able to get to the press kit today. Great that you have zoom <@U010Q3372P3>. We have a comms team meeting at 6 pm Central European Time tomorrow. Hopefully you can make it! And we can talk more  about the press kit then.",
        "user": "UV2SC7ZE3",
        "ts": "1585605980.115400",
        "team": "TUU48M0T1",
        "user_team": "TUU48M0T1",
        "source_team": "TUU48M0T1",
        "user_profile": {
            "avatar_hash": "d28dd0d076e8",
            "image_72": "https:\/\/avatars.slack-edge.com\/2020-03-14\/987873094258_d28dd0d076e8fa9a8409_72.png",
            "first_name": "David",
            "real_name": "David Lu",
            "display_name": "David Lu",
            "team": "TUU48M0T1",
            "name": "ludavidyi",
            "is_restricted": false,
            "is_ultra_restricted": false
        },
        "blocks": [
            {
                "type": "rich_text",
                "block_id": "Uxe1z",
                "elements": [
                    {
                        "type": "rich_text_section",
                        "elements": [
                            {
                                "type": "text",
                                "text": "Awesome! I don't know if I will be able to get to the press kit today. Great that you have zoom "
                            },
                            {
                                "type": "user",
                                "user_id": "U010Q3372P3"
                            },
                            {
                                "type": "text",
                                "text": ". We have a comms team meeting at 6 pm Central European Time tomorrow. Hopefully you can make it! And we can talk more  about the press kit then."
                            }
                        ]
                    }
                ]
            }
        ],
        "thread_ts": "1585504752.100900",
        "parent_user_id": "UV0QTJCMT"
    },
    {
        "client_msg_id": "776f6b31-e43e-4eb0-8dfc-60a33b91f7e6",
        "type": "message",
        "text": "No worries! Thanks for collecting the information! We'll make sure to update you on any key takeaways from the meeting. I'll make sure to bring that up at the meeting tomorrow.",
        "user": "UV2SC7ZE3",
        "ts": "1585606283.115600",
        "team": "TUU48M0T1",
        "user_team": "TUU48M0T1",
        "source_team": "TUU48M0T1",
        "user_profile": {
            "avatar_hash": "d28dd0d076e8",
            "image_72": "https:\/\/avatars.slack-edge.com\/2020-03-14\/987873094258_d28dd0d076e8fa9a8409_72.png",
            "first_name": "David",
            "real_name": "David Lu",
            "display_name": "David Lu",
            "team": "TUU48M0T1",
            "name": "ludavidyi",
            "is_restricted": false,
            "is_ultra_restricted": false
        },
        "edited": {
            "user": "UV2SC7ZE3",
            "ts": "1585606314.000000"
        },
        "blocks": [
            {
                "type": "rich_text",
                "block_id": "DXPDm",
                "elements": [
                    {
                        "type": "rich_text_section",
                        "elements": [
                            {
                                "type": "text",
                                "text": "No worries! Thanks for collecting the information! We'll make sure to update you on any key takeaways from the meeting. I'll make sure to bring that up at the meeting tomorrow."
                            }
                        ]
                    }
                ]
            }
        ],
        "thread_ts": "1585605661.115300",
        "parent_user_id": "UV0PCSG58"
    },
    {
        "client_msg_id": "5af59088-dca1-47e6-ad62-89d76c2e5b2b",
        "type": "message",
        "text": "<@UV2SC7ZE3> could you invite me? my email <mailto:kathryn.rowe@roweintermedia.com|kathryn.rowe@roweintermedia.com>",
        "user": "U010Q3372P3",
        "ts": "1585606797.115900",
        "team": "TUU48M0T1",
        "user_team": "TUU48M0T1",
        "source_team": "TUU48M0T1",
        "user_profile": {
            "avatar_hash": "95066184973b",
            "image_72": "https:\/\/avatars.slack-edge.com\/2020-03-30\/1036274198128_95066184973b1de50d1a_72.png",
            "first_name": "Kathryn",
            "real_name": "Kathryn Rowe",
            "display_name": "Kathryn Rowe",
            "team": "TUU48M0T1",
            "name": "kathryn.rowe",
            "is_restricted": false,
            "is_ultra_restricted": false
        },
        "blocks": [
            {
                "type": "rich_text",
                "block_id": "yW1x",
                "elements": [
                    {
                        "type": "rich_text_section",
                        "elements": [
                            {
                                "type": "user",
                                "user_id": "UV2SC7ZE3"
                            },
                            {
                                "type": "text",
                                "text": " could you invite me? my email "
                            },
                            {
                                "type": "link",
                                "url": "mailto:kathryn.rowe@roweintermedia.com",
                                "text": "kathryn.rowe@roweintermedia.com"
                            }
                        ]
                    }
                ]
            }
        ],
        "thread_ts": "1585504752.100900",
        "parent_user_id": "UV0QTJCMT"
    },
    {
        "client_msg_id": "15845f09-348f-473a-993e-67735fd6bbee",
        "type": "message",
        "text": "Here is the google cal link: <https:\/\/calendar.google.com\/calendar\/b\/0\/r?cid=c2xpZmZxNmUwN2lpcHVoMHI5cW1nMjhtMWdAZ3JvdXAuY2FsZW5kYXIuZ29vZ2xlLmNvbQ>",
        "user": "UV2SC7ZE3",
        "ts": "1585608240.116200",
        "team": "TUU48M0T1",
        "user_team": "TUU48M0T1",
        "source_team": "TUU48M0T1",
        "user_profile": {
            "avatar_hash": "d28dd0d076e8",
            "image_72": "https:\/\/avatars.slack-edge.com\/2020-03-14\/987873094258_d28dd0d076e8fa9a8409_72.png",
            "first_name": "David",
            "real_name": "David Lu",
            "display_name": "David Lu",
            "team": "TUU48M0T1",
            "name": "ludavidyi",
            "is_restricted": false,
            "is_ultra_restricted": false
        },
        "attachments": [
            {
                "title": "Google Calendar",
                "title_link": "https:\/\/calendar.google.com\/calendar\/b\/0\/r?cid=c2xpZmZxNmUwN2lpcHVoMHI5cW1nMjhtMWdAZ3JvdXAuY2FsZW5kYXIuZ29vZ2xlLmNvbQ",
                "text": "With Google's free online calendar, it’s easy to keep track of life’s important events all in one place.",
                "fallback": "Google Calendar",
                "from_url": "https:\/\/calendar.google.com\/calendar\/b\/0\/r?cid=c2xpZmZxNmUwN2lpcHVoMHI5cW1nMjhtMWdAZ3JvdXAuY2FsZW5kYXIuZ29vZ2xlLmNvbQ",
                "service_icon": "https:\/\/accounts.google.com\/favicon.ico",
                "service_name": "accounts.google.com",
                "id": 1,
                "original_url": "https:\/\/calendar.google.com\/calendar\/b\/0\/r?cid=c2xpZmZxNmUwN2lpcHVoMHI5cW1nMjhtMWdAZ3JvdXAuY2FsZW5kYXIuZ29vZ2xlLmNvbQ"
            }
        ],
        "blocks": [
            {
                "type": "rich_text",
                "block_id": "Y9C0",
                "elements": [
                    {
                        "type": "rich_text_section",
                        "elements": [
                            {
                                "type": "text",
                                "text": "Here is the google cal link: "
                            },
                            {
                                "type": "link",
                                "url": "https:\/\/calendar.google.com\/calendar\/b\/0\/r?cid=c2xpZmZxNmUwN2lpcHVoMHI5cW1nMjhtMWdAZ3JvdXAuY2FsZW5kYXIuZ29vZ2xlLmNvbQ"
                            }
                        ]
                    }
                ]
            }
        ],
        "thread_ts": "1585504752.100900",
        "parent_user_id": "UV0QTJCMT"
    },
    {
        "client_msg_id": "37b507c8-32b6-43f5-866d-0f9ab5e8bb06",
        "type": "message",
        "text": "I think you can copy and paste to add it and view events",
        "user": "UV2SC7ZE3",
        "ts": "1585608251.116600",
        "team": "TUU48M0T1",
        "user_team": "TUU48M0T1",
        "source_team": "TUU48M0T1",
        "user_profile": {
            "avatar_hash": "d28dd0d076e8",
            "image_72": "https:\/\/avatars.slack-edge.com\/2020-03-14\/987873094258_d28dd0d076e8fa9a8409_72.png",
            "first_name": "David",
            "real_name": "David Lu",
            "display_name": "David Lu",
            "team": "TUU48M0T1",
            "name": "ludavidyi",
            "is_restricted": false,
            "is_ultra_restricted": false
        },
        "blocks": [
            {
                "type": "rich_text",
                "block_id": "1tK",
                "elements": [
                    {
                        "type": "rich_text_section",
                        "elements": [
                            {
                                "type": "text",
                                "text": "I think you can copy and paste to add it and view events"
                            }
                        ]
                    }
                ]
            }
        ],
        "thread_ts": "1585504752.100900",
        "parent_user_id": "UV0QTJCMT"
    },
    {
        "client_msg_id": "d6a59c9f-50be-4612-a276-8e235dcfa907",
        "type": "message",
        "text": "There is also a zoom link in the description of tomorrow's comms team event",
        "user": "UV2SC7ZE3",
        "ts": "1585608333.116800",
        "team": "TUU48M0T1",
        "user_team": "TUU48M0T1",
        "source_team": "TUU48M0T1",
        "user_profile": {
            "avatar_hash": "d28dd0d076e8",
            "image_72": "https:\/\/avatars.slack-edge.com\/2020-03-14\/987873094258_d28dd0d076e8fa9a8409_72.png",
            "first_name": "David",
            "real_name": "David Lu",
            "display_name": "David Lu",
            "team": "TUU48M0T1",
            "name": "ludavidyi",
            "is_restricted": false,
            "is_ultra_restricted": false
        },
        "blocks": [
            {
                "type": "rich_text",
                "block_id": "tyCh",
                "elements": [
                    {
                        "type": "rich_text_section",
                        "elements": [
                            {
                                "type": "text",
                                "text": "There is also a zoom link in the description of tomorrow's comms team event"
                            }
                        ]
                    }
                ]
            }
        ],
        "thread_ts": "1585504752.100900",
        "parent_user_id": "UV0QTJCMT"
    },
    {
        "client_msg_id": "7aeb33ab-c123-47e6-bae1-1800c246e9b7",
        "type": "message",
        "text": "The guidelines look fine except:\n1. They don't include LinkedIn\n2. There's no information about a posting schedule or scheduling software. \nHow do we\/you determine when something gets posted?",
        "user": "U0103LPAWQ4",
        "ts": "1585609967.117000",
        "team": "TUU48M0T1",
        "user_team": "TUU48M0T1",
        "source_team": "TUU48M0T1",
        "user_profile": {
            "avatar_hash": "7b345029e813",
            "image_72": "https:\/\/avatars.slack-edge.com\/2020-03-17\/1004213082549_7b345029e8137cbdc6b0_72.jpg",
            "first_name": "Bre",
            "real_name": "Bre",
            "display_name": "Bre",
            "team": "TUU48M0T1",
            "name": "info",
            "is_restricted": false,
            "is_ultra_restricted": false
        },
        "blocks": [
            {
                "type": "rich_text",
                "block_id": "d\/3c",
                "elements": [
                    {
                        "type": "rich_text_section",
                        "elements": [
                            {
                                "type": "text",
                                "text": "The guidelines look fine except:\n"
                            }
                        ]
                    },
                    {
                        "type": "rich_text_list",
                        "elements": [
                            {
                                "type": "rich_text_section",
                                "elements": [
                                    {
                                        "type": "text",
                                        "text": "They don't include LinkedIn"
                                    }
                                ]
                            },
                            {
                                "type": "rich_text_section",
                                "elements": [
                                    {
                                        "type": "text",
                                        "text": "There's no information about a posting schedule or scheduling software. "
                                    }
                                ]
                            }
                        ],
                        "style": "ordered",
                        "indent": 0
                    },
                    {
                        "type": "rich_text_section",
                        "elements": [
                            {
                                "type": "text",
                                "text": "How do we\/you determine when something gets posted?"
                            }
                        ]
                    }
                ]
            }
        ],
        "thread_ts": "1585532083.103200",
        "parent_user_id": "UV2SC7ZE3"
    },
    {
        "client_msg_id": "21764d6a-e006-494f-998c-25ecf801145d",
        "type": "message",
        "text": "thanks for the comments!",
        "user": "UV2SC7ZE3",
        "ts": "1585612778.117200",
        "team": "TUU48M0T1",
        "user_team": "TUU48M0T1",
        "source_team": "TUU48M0T1",
        "user_profile": {
            "avatar_hash": "d28dd0d076e8",
            "image_72": "https:\/\/avatars.slack-edge.com\/2020-03-14\/987873094258_d28dd0d076e8fa9a8409_72.png",
            "first_name": "David",
            "real_name": "David Lu",
            "display_name": "David Lu",
            "team": "TUU48M0T1",
            "name": "ludavidyi",
            "is_restricted": false,
            "is_ultra_restricted": false
        },
        "blocks": [
            {
                "type": "rich_text",
                "block_id": "OXOcZ",
                "elements": [
                    {
                        "type": "rich_text_section",
                        "elements": [
                            {
                                "type": "text",
                                "text": "thanks for the comments!"
                            }
                        ]
                    }
                ]
            }
        ],
        "thread_ts": "1585532083.103200",
        "parent_user_id": "UV2SC7ZE3"
    },
    {
        "client_msg_id": "8a9283c7-1043-40f2-87c9-5e3fead8d4cc",
        "type": "message",
        "text": "I think those are good points to discuss at our comms team meeting tomorrow.",
        "user": "UV2SC7ZE3",
        "ts": "1585612799.117400",
        "team": "TUU48M0T1",
        "user_team": "TUU48M0T1",
        "source_team": "TUU48M0T1",
        "user_profile": {
            "avatar_hash": "d28dd0d076e8",
            "image_72": "https:\/\/avatars.slack-edge.com\/2020-03-14\/987873094258_d28dd0d076e8fa9a8409_72.png",
            "first_name": "David",
            "real_name": "David Lu",
            "display_name": "David Lu",
            "team": "TUU48M0T1",
            "name": "ludavidyi",
            "is_restricted": false,
            "is_ultra_restricted": false
        },
        "blocks": [
            {
                "type": "rich_text",
                "block_id": "ZrBF",
                "elements": [
                    {
                        "type": "rich_text_section",
                        "elements": [
                            {
                                "type": "text",
                                "text": "I think those are good points to discuss at our comms team meeting tomorrow."
                            }
                        ]
                    }
                ]
            }
        ],
        "thread_ts": "1585532083.103200",
        "parent_user_id": "UV2SC7ZE3",
        "reactions": [
            {
                "name": "+1::skin-tone-4",
                "users": [
                    "U0103LPAWQ4"
                ],
                "count": 1
            }
        ]
    }
]