[
    {
        "type": "message",
        "text": "I just placed this order on amazon so I can play with prototypes similar to what is discussed here: <https:\/\/panvent.blogspot.com\/> In the coming days I might like to discuss ideas for simple 3D-printed parts to simply connect the fan to the mask etc. Or, honestly, these parts put together with duck tape might be better than nothing… Hospitals are already resorting to patch-work made-at-home solutions. <https:\/\/www.bloomberg.com\/news\/articles\/2020-03-18\/hospital-makes-face-masks-covid-19-shields-from-office-supplies>",
        "files": [
            {
                "id": "F010B0HC2AU",
                "created": 1584604383,
                "timestamp": 1584604383,
                "name": "Screen Shot 2020-03-19 at 2.jpg",
                "title": "Screen Shot 2020-03-19 at 2.jpg",
                "mimetype": "image\/jpeg",
                "filetype": "jpg",
                "pretty_type": "JPEG",
                "user": "UV8FL0JCA",
                "editable": false,
                "size": 193767,
                "mode": "hosted",
                "is_external": false,
                "external_type": "",
                "is_public": true,
                "public_url_shared": false,
                "display_as_bot": false,
                "username": "",
                "url_private": "https:\/\/files.slack.com\/files-pri\/TUU48M0T1-F010B0HC2AU\/screen_shot_2020-03-19_at_2.jpg?t=xoxe-980144714919-1106606678066-1105227127893-6f722bb664235052954ad46852628b64",
                "url_private_download": "https:\/\/files.slack.com\/files-pri\/TUU48M0T1-F010B0HC2AU\/download\/screen_shot_2020-03-19_at_2.jpg?t=xoxe-980144714919-1106606678066-1105227127893-6f722bb664235052954ad46852628b64",
                "thumb_64": "https:\/\/files.slack.com\/files-tmb\/TUU48M0T1-F010B0HC2AU-489823ea33\/screen_shot_2020-03-19_at_2_64.jpg?t=xoxe-980144714919-1106606678066-1105227127893-6f722bb664235052954ad46852628b64",
                "thumb_80": "https:\/\/files.slack.com\/files-tmb\/TUU48M0T1-F010B0HC2AU-489823ea33\/screen_shot_2020-03-19_at_2_80.jpg?t=xoxe-980144714919-1106606678066-1105227127893-6f722bb664235052954ad46852628b64",
                "thumb_360": "https:\/\/files.slack.com\/files-tmb\/TUU48M0T1-F010B0HC2AU-489823ea33\/screen_shot_2020-03-19_at_2_360.jpg?t=xoxe-980144714919-1106606678066-1105227127893-6f722bb664235052954ad46852628b64",
                "thumb_360_w": 360,
                "thumb_360_h": 274,
                "thumb_480": "https:\/\/files.slack.com\/files-tmb\/TUU48M0T1-F010B0HC2AU-489823ea33\/screen_shot_2020-03-19_at_2_480.jpg?t=xoxe-980144714919-1106606678066-1105227127893-6f722bb664235052954ad46852628b64",
                "thumb_480_w": 480,
                "thumb_480_h": 366,
                "thumb_160": "https:\/\/files.slack.com\/files-tmb\/TUU48M0T1-F010B0HC2AU-489823ea33\/screen_shot_2020-03-19_at_2_160.jpg?t=xoxe-980144714919-1106606678066-1105227127893-6f722bb664235052954ad46852628b64",
                "thumb_720": "https:\/\/files.slack.com\/files-tmb\/TUU48M0T1-F010B0HC2AU-489823ea33\/screen_shot_2020-03-19_at_2_720.jpg?t=xoxe-980144714919-1106606678066-1105227127893-6f722bb664235052954ad46852628b64",
                "thumb_720_w": 720,
                "thumb_720_h": 549,
                "thumb_800": "https:\/\/files.slack.com\/files-tmb\/TUU48M0T1-F010B0HC2AU-489823ea33\/screen_shot_2020-03-19_at_2_800.jpg?t=xoxe-980144714919-1106606678066-1105227127893-6f722bb664235052954ad46852628b64",
                "thumb_800_w": 800,
                "thumb_800_h": 610,
                "thumb_960": "https:\/\/files.slack.com\/files-tmb\/TUU48M0T1-F010B0HC2AU-489823ea33\/screen_shot_2020-03-19_at_2_960.jpg?t=xoxe-980144714919-1106606678066-1105227127893-6f722bb664235052954ad46852628b64",
                "thumb_960_w": 960,
                "thumb_960_h": 732,
                "thumb_1024": "https:\/\/files.slack.com\/files-tmb\/TUU48M0T1-F010B0HC2AU-489823ea33\/screen_shot_2020-03-19_at_2_1024.jpg?t=xoxe-980144714919-1106606678066-1105227127893-6f722bb664235052954ad46852628b64",
                "thumb_1024_w": 1024,
                "thumb_1024_h": 781,
                "image_exif_rotation": 1,
                "original_w": 1852,
                "original_h": 1412,
                "thumb_tiny": "AwAkADC+T+8IxxjOcmnLmkckMcj5NvOaB7EZ+lADuaXn2pMH1\/SjB9f0oARqao57\/nUmPWjAoAjLAPtyc+lOBOOhpGIJKkj8qBwf\/rUAOyfSjJ9P1pc+xpM+xoARs9iaRc56mlb8PxpFznt+RpAKUUknHJ7ilAx6\/nS0UwCiiigBCM0BQKWigD\/\/2Q==",
                "permalink": "https:\/\/open-covid19.slack.com\/files\/UV8FL0JCA\/F010B0HC2AU\/screen_shot_2020-03-19_at_2.jpg",
                "permalink_public": "https:\/\/slack-files.com\/TUU48M0T1-F010B0HC2AU-1e62a8e886",
                "is_starred": false,
                "has_rich_preview": false
            }
        ],
        "upload": true,
        "blocks": [
            {
                "type": "rich_text",
                "block_id": "n9i\/",
                "elements": [
                    {
                        "type": "rich_text_section",
                        "elements": [
                            {
                                "type": "text",
                                "text": "I just placed this order on amazon so I can play with prototypes similar to what is discussed here: "
                            },
                            {
                                "type": "link",
                                "url": "https:\/\/panvent.blogspot.com\/"
                            },
                            {
                                "type": "text",
                                "text": " In the coming days I might like to discuss ideas for simple 3D-printed parts to simply connect the fan to the mask etc. Or, honestly, these parts put together with duck tape might be better than nothing… Hospitals are already resorting to patch-work made-at-home solutions. "
                            },
                            {
                                "type": "link",
                                "url": "https:\/\/www.bloomberg.com\/news\/articles\/2020-03-18\/hospital-makes-face-masks-covid-19-shields-from-office-supplies"
                            }
                        ]
                    }
                ]
            }
        ],
        "user": "UV8FL0JCA",
        "display_as_bot": false,
        "ts": "1584604388.061700",
        "client_msg_id": "df4228e2-b165-45fa-b5f6-a28b727f99cd",
        "reactions": [
            {
                "name": "mask-parrot",
                "users": [
                    "UV7CJF9SN"
                ],
                "count": 1
            }
        ]
    },
    {
        "client_msg_id": "3c8f4027-3142-4b1d-9276-c33eae3452d7",
        "type": "message",
        "text": "Very interesting. A centrifugal fan might blow more air, but this promising.",
        "user": "UVBEDFNPJ",
        "ts": "1584605328.062600",
        "team": "TUU48M0T1",
        "user_team": "TUU48M0T1",
        "source_team": "TUU48M0T1",
        "user_profile": {
            "avatar_hash": "g283f55a73d8",
            "image_72": "https:\/\/secure.gravatar.com\/avatar\/283f55a73d87c092accdfe6d3073482d.jpg?s=72&d=https%3A%2F%2Fa.slack-edge.com%2Fdf10d%2Fimg%2Favatars%2Fava_0009-72.png",
            "first_name": "",
            "real_name": "Brent Picasso",
            "display_name": "Brent Picasso",
            "team": "TUU48M0T1",
            "name": "brent",
            "is_restricted": false,
            "is_ultra_restricted": false
        },
        "blocks": [
            {
                "type": "rich_text",
                "block_id": "Eh987",
                "elements": [
                    {
                        "type": "rich_text_section",
                        "elements": [
                            {
                                "type": "text",
                                "text": "Very interesting. A centrifugal fan might blow more air, but this promising."
                            }
                        ]
                    }
                ]
            }
        ]
    },
    {
        "client_msg_id": "273E32CB-3BA9-4CE1-B7E8-E21C9DBAA3BD",
        "type": "message",
        "text": "A first document draft for the Saturday meeting is online!",
        "user": "UV2P3AQEN",
        "ts": "1584607139.063900",
        "team": "TUU48M0T1",
        "user_team": "TUU48M0T1",
        "source_team": "TUU48M0T1",
        "user_profile": {
            "avatar_hash": "82d977ce9645",
            "image_72": "https:\/\/avatars.slack-edge.com\/2020-03-16\/1003452392327_82d977ce9645ebc30917_72.jpg",
            "first_name": "Antonio",
            "real_name": "Antonio Mangiapane",
            "display_name": "Antonio Mangiapane",
            "team": "TUU48M0T1",
            "name": "antonio.mangiapane29",
            "is_restricted": false,
            "is_ultra_restricted": false
        },
        "blocks": [
            {
                "type": "rich_text",
                "block_id": "17i",
                "elements": [
                    {
                        "type": "rich_text_section",
                        "elements": [
                            {
                                "type": "text",
                                "text": "A first document draft for the Saturday meeting is online!"
                            }
                        ]
                    }
                ]
            }
        ],
        "thread_ts": "1584421277.027900",
        "parent_user_id": "UV0QTJCMT",
        "reactions": [
            {
                "name": "+1",
                "users": [
                    "UV0QTJCMT"
                ],
                "count": 1
            }
        ]
    },
    {
        "client_msg_id": "e038664c-e831-4a7c-ae99-007cec5ee05e",
        "type": "message",
        "text": "Hi. for the ventilator project, this is the principle to develop right?\n<https:\/\/www.youtube.com\/watch?v=JFsQoapc75I>",
        "user": "U0109LRFM3Q",
        "ts": "1584621454.065000",
        "team": "TUU48M0T1",
        "user_team": "TUU48M0T1",
        "source_team": "TUU48M0T1",
        "user_profile": {
            "avatar_hash": "g8d0194a49b8",
            "image_72": "https:\/\/secure.gravatar.com\/avatar\/8d0194a49b8c9a543857eba6f2bc6217.jpg?s=72&d=https%3A%2F%2Fa.slack-edge.com%2Fdf10d%2Fimg%2Favatars%2Fava_0009-72.png",
            "first_name": "",
            "real_name": "Vicente Agosin Orellana",
            "display_name": "Vicente Agosin Orellana",
            "team": "TUU48M0T1",
            "name": "v.agosin.orellana",
            "is_restricted": false,
            "is_ultra_restricted": false
        },
        "attachments": [
            {
                "service_name": "YouTube",
                "service_url": "https:\/\/www.youtube.com\/",
                "title": "Oxygen generation by VPSA technology (Mahler AGS GmbH) | NEW",
                "title_link": "https:\/\/www.youtube.com\/watch?v=JFsQoapc75I",
                "author_name": "Mahler AGS GmbH",
                "author_link": "https:\/\/www.youtube.com\/channel\/UCjjygjRUdcafhLEuPv2BGHA",
                "thumb_url": "https:\/\/i.ytimg.com\/vi\/JFsQoapc75I\/hqdefault.jpg",
                "thumb_width": 480,
                "thumb_height": 360,
                "fallback": "YouTube Video: Oxygen generation by VPSA technology (Mahler AGS GmbH) | NEW",
                "video_html": "<iframe width=\"400\" height=\"225\" src=\"https:\/\/www.youtube.com\/embed\/JFsQoapc75I?feature=oembed&autoplay=1&iv_load_policy=3\" frameborder=\"0\" allow=\"accelerometer; autoplay; encrypted-media; gyroscope; picture-in-picture\" allowfullscreen><\/iframe>",
                "video_html_width": 400,
                "video_html_height": 225,
                "from_url": "https:\/\/www.youtube.com\/watch?v=JFsQoapc75I",
                "service_icon": "https:\/\/a.slack-edge.com\/80588\/img\/unfurl_icons\/youtube.png",
                "id": 1,
                "original_url": "https:\/\/www.youtube.com\/watch?v=JFsQoapc75I"
            }
        ],
        "blocks": [
            {
                "type": "rich_text",
                "block_id": "1Az",
                "elements": [
                    {
                        "type": "rich_text_section",
                        "elements": [
                            {
                                "type": "text",
                                "text": "Hi. for the ventilator project, this is the principle to develop right?\n"
                            },
                            {
                                "type": "link",
                                "url": "https:\/\/www.youtube.com\/watch?v=JFsQoapc75I"
                            }
                        ]
                    }
                ]
            }
        ]
    },
    {
        "client_msg_id": "16e7fbf6-e490-4b06-8bea-6e07587dbf8c",
        "type": "message",
        "text": "And this connects to the mask, and gives oxygen to the person?, yes?",
        "user": "U0109LRFM3Q",
        "ts": "1584621526.065800",
        "team": "TUU48M0T1",
        "user_team": "TUU48M0T1",
        "source_team": "TUU48M0T1",
        "user_profile": {
            "avatar_hash": "g8d0194a49b8",
            "image_72": "https:\/\/secure.gravatar.com\/avatar\/8d0194a49b8c9a543857eba6f2bc6217.jpg?s=72&d=https%3A%2F%2Fa.slack-edge.com%2Fdf10d%2Fimg%2Favatars%2Fava_0009-72.png",
            "first_name": "",
            "real_name": "Vicente Agosin Orellana",
            "display_name": "Vicente Agosin Orellana",
            "team": "TUU48M0T1",
            "name": "v.agosin.orellana",
            "is_restricted": false,
            "is_ultra_restricted": false
        },
        "blocks": [
            {
                "type": "rich_text",
                "block_id": "nXM\/",
                "elements": [
                    {
                        "type": "rich_text_section",
                        "elements": [
                            {
                                "type": "text",
                                "text": "And this connects to the mask, and gives oxygen to the person?, yes?"
                            }
                        ]
                    }
                ]
            }
        ]
    },
    {
        "client_msg_id": "c06d89d0-f837-42f9-8223-48b05bd90266",
        "type": "message",
        "text": "Hi. When i was small (im sure many people also did this), when someone had their lungs obstructed, they made you breath under boiling water with eucaliptus (the eucaliptus freed an active compound (i am not a biologist) that is good for the lungs.",
        "user": "U0109LRFM3Q",
        "ts": "1584624712.067900",
        "team": "TUU48M0T1",
        "user_team": "TUU48M0T1",
        "source_team": "TUU48M0T1",
        "user_profile": {
            "avatar_hash": "g8d0194a49b8",
            "image_72": "https:\/\/secure.gravatar.com\/avatar\/8d0194a49b8c9a543857eba6f2bc6217.jpg?s=72&d=https%3A%2F%2Fa.slack-edge.com%2Fdf10d%2Fimg%2Favatars%2Fava_0009-72.png",
            "first_name": "",
            "real_name": "Vicente Agosin Orellana",
            "display_name": "Vicente Agosin Orellana",
            "team": "TUU48M0T1",
            "name": "v.agosin.orellana",
            "is_restricted": false,
            "is_ultra_restricted": false
        },
        "blocks": [
            {
                "type": "rich_text",
                "block_id": "nefpt",
                "elements": [
                    {
                        "type": "rich_text_section",
                        "elements": [
                            {
                                "type": "text",
                                "text": "Hi. When i was small (im sure many people also did this), when someone had their lungs obstructed, they made you breath under boiling water with eucaliptus (the eucaliptus freed an active compound (i am not a biologist) that is good for the lungs."
                            }
                        ]
                    }
                ]
            }
        ]
    },
    {
        "client_msg_id": "e36ffea1-e01c-4ad9-9a4e-f1feeed450f3",
        "type": "message",
        "text": "Now, there is a machine call vaporizers (like this one: <https:\/\/volcanovaporizerz.com\/> ) that passes heat (at a desired temperature) over the weed you put on it (eucaliptus) and frees the active compund you are looking for. This machines are not so complex to build i think (electronics, etc...), so maybe this could be a project that can be done, and tested in the offered places, also I think it would not be expensive yo achive.",
        "user": "U0109LRFM3Q",
        "ts": "1584624878.070500",
        "team": "TUU48M0T1",
        "user_team": "TUU48M0T1",
        "source_team": "TUU48M0T1",
        "user_profile": {
            "avatar_hash": "g8d0194a49b8",
            "image_72": "https:\/\/secure.gravatar.com\/avatar\/8d0194a49b8c9a543857eba6f2bc6217.jpg?s=72&d=https%3A%2F%2Fa.slack-edge.com%2Fdf10d%2Fimg%2Favatars%2Fava_0009-72.png",
            "first_name": "",
            "real_name": "Vicente Agosin Orellana",
            "display_name": "Vicente Agosin Orellana",
            "team": "TUU48M0T1",
            "name": "v.agosin.orellana",
            "is_restricted": false,
            "is_ultra_restricted": false
        },
        "edited": {
            "user": "U0109LRFM3Q",
            "ts": "1584624889.000000"
        },
        "blocks": [
            {
                "type": "rich_text",
                "block_id": "+7D+",
                "elements": [
                    {
                        "type": "rich_text_section",
                        "elements": [
                            {
                                "type": "text",
                                "text": "Now, there is a machine call vaporizers (like this one: "
                            },
                            {
                                "type": "link",
                                "url": "https:\/\/volcanovaporizerz.com\/"
                            },
                            {
                                "type": "text",
                                "text": " ) that passes heat (at a desired temperature) over the weed you put on it (eucaliptus) and frees the active compund you are looking for. This machines are not so complex to build i think (electronics, etc...), so maybe this could be a project that can be done, and tested in the offered places, also I think it would not be expensive yo achive."
                            }
                        ]
                    }
                ]
            }
        ],
        "thread_ts": "1584624878.070500",
        "reply_count": 2,
        "reply_users_count": 2,
        "latest_reply": "1584625634.074400",
        "reply_users": [
            "U0106PLV8PJ",
            "U0109LRFM3Q"
        ],
        "replies": [
            {
                "user": "U0106PLV8PJ",
                "ts": "1584625082.072900"
            },
            {
                "user": "U0109LRFM3Q",
                "ts": "1584625634.074400"
            }
        ],
        "subscribed": false
    },
    {
        "client_msg_id": "75fb22ad-d6ba-4b73-8244-99f1daecbd3d",
        "type": "message",
        "text": "So a study can be done of which herbs to vaporize, at what temperatures, build the open source machines, etc...",
        "user": "U0109LRFM3Q",
        "ts": "1584624989.071600",
        "team": "TUU48M0T1",
        "user_team": "TUU48M0T1",
        "source_team": "TUU48M0T1",
        "user_profile": {
            "avatar_hash": "g8d0194a49b8",
            "image_72": "https:\/\/secure.gravatar.com\/avatar\/8d0194a49b8c9a543857eba6f2bc6217.jpg?s=72&d=https%3A%2F%2Fa.slack-edge.com%2Fdf10d%2Fimg%2Favatars%2Fava_0009-72.png",
            "first_name": "",
            "real_name": "Vicente Agosin Orellana",
            "display_name": "Vicente Agosin Orellana",
            "team": "TUU48M0T1",
            "name": "v.agosin.orellana",
            "is_restricted": false,
            "is_ultra_restricted": false
        },
        "blocks": [
            {
                "type": "rich_text",
                "block_id": "z285o",
                "elements": [
                    {
                        "type": "rich_text_section",
                        "elements": [
                            {
                                "type": "text",
                                "text": "So a study can be done of which herbs to vaporize, at what temperatures, build the open source machines, etc..."
                            }
                        ]
                    }
                ]
            }
        ]
    },
    {
        "client_msg_id": "eddf5df5-f189-4daf-b235-2ff285e7c05f",
        "type": "message",
        "text": "I think that the most energy-efficient way to proceed is guided by healthcare professionals, who already know what is needed",
        "user": "UV2P3AQEN",
        "ts": "1584624999.071900",
        "team": "TUU48M0T1",
        "user_team": "TUU48M0T1",
        "source_team": "TUU48M0T1",
        "user_profile": {
            "avatar_hash": "82d977ce9645",
            "image_72": "https:\/\/avatars.slack-edge.com\/2020-03-16\/1003452392327_82d977ce9645ebc30917_72.jpg",
            "first_name": "Antonio",
            "real_name": "Antonio Mangiapane",
            "display_name": "Antonio Mangiapane",
            "team": "TUU48M0T1",
            "name": "antonio.mangiapane29",
            "is_restricted": false,
            "is_ultra_restricted": false
        },
        "blocks": [
            {
                "type": "rich_text",
                "block_id": "RGk",
                "elements": [
                    {
                        "type": "rich_text_section",
                        "elements": [
                            {
                                "type": "text",
                                "text": "I think that the most energy-efficient way to proceed is guided by healthcare professionals, who already know what is needed"
                            }
                        ]
                    }
                ]
            }
        ]
    },
    {
        "client_msg_id": "18c635dd-7d36-4a43-8071-3b1dd4ba1f41",
        "type": "message",
        "text": "is true.",
        "user": "U0109LRFM3Q",
        "ts": "1584625020.072400",
        "team": "TUU48M0T1",
        "user_team": "TUU48M0T1",
        "source_team": "TUU48M0T1",
        "user_profile": {
            "avatar_hash": "g8d0194a49b8",
            "image_72": "https:\/\/secure.gravatar.com\/avatar\/8d0194a49b8c9a543857eba6f2bc6217.jpg?s=72&d=https%3A%2F%2Fa.slack-edge.com%2Fdf10d%2Fimg%2Favatars%2Fava_0009-72.png",
            "first_name": "",
            "real_name": "Vicente Agosin Orellana",
            "display_name": "Vicente Agosin Orellana",
            "team": "TUU48M0T1",
            "name": "v.agosin.orellana",
            "is_restricted": false,
            "is_ultra_restricted": false
        },
        "blocks": [
            {
                "type": "rich_text",
                "block_id": "1aa3h",
                "elements": [
                    {
                        "type": "rich_text_section",
                        "elements": [
                            {
                                "type": "text",
                                "text": "is true."
                            }
                        ]
                    }
                ]
            }
        ]
    },
    {
        "client_msg_id": "d2b8f01f-7553-4bd2-af31-1117da97916c",
        "type": "message",
        "text": "That being said, it's good to vent out possible projects and solutions to be discussed",
        "user": "UV2P3AQEN",
        "ts": "1584625026.072600",
        "team": "TUU48M0T1",
        "user_team": "TUU48M0T1",
        "source_team": "TUU48M0T1",
        "user_profile": {
            "avatar_hash": "82d977ce9645",
            "image_72": "https:\/\/avatars.slack-edge.com\/2020-03-16\/1003452392327_82d977ce9645ebc30917_72.jpg",
            "first_name": "Antonio",
            "real_name": "Antonio Mangiapane",
            "display_name": "Antonio Mangiapane",
            "team": "TUU48M0T1",
            "name": "antonio.mangiapane29",
            "is_restricted": false,
            "is_ultra_restricted": false
        },
        "blocks": [
            {
                "type": "rich_text",
                "block_id": "anp",
                "elements": [
                    {
                        "type": "rich_text_section",
                        "elements": [
                            {
                                "type": "text",
                                "text": "That being said, it's good to vent out possible projects and solutions to be discussed"
                            }
                        ]
                    }
                ]
            }
        ]
    },
    {
        "client_msg_id": "3710517b-08af-4915-a488-71ef464f33d0",
        "type": "message",
        "text": "yes, just putting it there",
        "user": "U0109LRFM3Q",
        "ts": "1584625040.072800",
        "team": "TUU48M0T1",
        "user_team": "TUU48M0T1",
        "source_team": "TUU48M0T1",
        "user_profile": {
            "avatar_hash": "g8d0194a49b8",
            "image_72": "https:\/\/secure.gravatar.com\/avatar\/8d0194a49b8c9a543857eba6f2bc6217.jpg?s=72&d=https%3A%2F%2Fa.slack-edge.com%2Fdf10d%2Fimg%2Favatars%2Fava_0009-72.png",
            "first_name": "",
            "real_name": "Vicente Agosin Orellana",
            "display_name": "Vicente Agosin Orellana",
            "team": "TUU48M0T1",
            "name": "v.agosin.orellana",
            "is_restricted": false,
            "is_ultra_restricted": false
        },
        "blocks": [
            {
                "type": "rich_text",
                "block_id": "geA",
                "elements": [
                    {
                        "type": "rich_text_section",
                        "elements": [
                            {
                                "type": "text",
                                "text": "yes, just putting it there"
                            }
                        ]
                    }
                ]
            }
        ]
    },
    {
        "client_msg_id": "fe711b57-4bc5-4d61-86c7-74551de32325",
        "type": "message",
        "text": "In India, this is an effective method to clear nasal congestion, and is recommended by all doctors.",
        "user": "U0106PLV8PJ",
        "ts": "1584625082.072900",
        "team": "TUU48M0T1",
        "user_team": "TUU48M0T1",
        "source_team": "TUU48M0T1",
        "user_profile": {
            "avatar_hash": "g2cfc1aee243",
            "image_72": "https:\/\/secure.gravatar.com\/avatar\/2cfc1aee24305a18a647efef16d68e02.jpg?s=72&d=https%3A%2F%2Fa.slack-edge.com%2Fdf10d%2Fimg%2Favatars%2Fava_0012-72.png",
            "first_name": "",
            "real_name": "Rupin Chheda",
            "display_name": "",
            "team": "TUU48M0T1",
            "name": "rupin.chheda",
            "is_restricted": false,
            "is_ultra_restricted": false
        },
        "blocks": [
            {
                "type": "rich_text",
                "block_id": "lN0Q",
                "elements": [
                    {
                        "type": "rich_text_section",
                        "elements": [
                            {
                                "type": "text",
                                "text": "In India, this is an effective method to clear nasal congestion, and is recommended by all doctors."
                            }
                        ]
                    }
                ]
            }
        ],
        "thread_ts": "1584624878.070500",
        "parent_user_id": "U0109LRFM3Q"
    },
    {
        "client_msg_id": "d32a5a28-4f74-4e04-a20d-09c0768df089",
        "type": "message",
        "text": "Yes, I think it might be something good, also something not so difficult and fast to achive (temperature control and ventilators). Thanks for the message.",
        "user": "U0109LRFM3Q",
        "ts": "1584625634.074400",
        "team": "TUU48M0T1",
        "user_team": "TUU48M0T1",
        "source_team": "TUU48M0T1",
        "user_profile": {
            "avatar_hash": "g8d0194a49b8",
            "image_72": "https:\/\/secure.gravatar.com\/avatar\/8d0194a49b8c9a543857eba6f2bc6217.jpg?s=72&d=https%3A%2F%2Fa.slack-edge.com%2Fdf10d%2Fimg%2Favatars%2Fava_0009-72.png",
            "first_name": "",
            "real_name": "Vicente Agosin Orellana",
            "display_name": "Vicente Agosin Orellana",
            "team": "TUU48M0T1",
            "name": "v.agosin.orellana",
            "is_restricted": false,
            "is_ultra_restricted": false
        },
        "blocks": [
            {
                "type": "rich_text",
                "block_id": "dQF",
                "elements": [
                    {
                        "type": "rich_text_section",
                        "elements": [
                            {
                                "type": "text",
                                "text": "Yes, I think it might be something good, also something not so difficult and fast to achive (temperature control and ventilators). Thanks for the message."
                            }
                        ]
                    }
                ]
            }
        ],
        "thread_ts": "1584624878.070500",
        "parent_user_id": "U0109LRFM3Q"
    },
    {
        "type": "message",
        "text": "200,000$ to develop a new ventilator design in Montreal\/Canada",
        "files": [
            {
                "id": "F010E0X657Y",
                "created": 1584625629,
                "timestamp": 1584625629,
                "name": "SmartSelect_20200319-093506_LinkedIn.jpg",
                "title": "SmartSelect_20200319-093506_LinkedIn.jpg",
                "mimetype": "image\/jpeg",
                "filetype": "jpg",
                "pretty_type": "JPEG",
                "user": "UV6870881",
                "editable": false,
                "size": 162505,
                "mode": "hosted",
                "is_external": false,
                "external_type": "",
                "is_public": true,
                "public_url_shared": false,
                "display_as_bot": false,
                "username": "",
                "url_private": "https:\/\/files.slack.com\/files-pri\/TUU48M0T1-F010E0X657Y\/smartselect_20200319-093506_linkedin.jpg?t=xoxe-980144714919-1106606678066-1105227127893-6f722bb664235052954ad46852628b64",
                "url_private_download": "https:\/\/files.slack.com\/files-pri\/TUU48M0T1-F010E0X657Y\/download\/smartselect_20200319-093506_linkedin.jpg?t=xoxe-980144714919-1106606678066-1105227127893-6f722bb664235052954ad46852628b64",
                "thumb_64": "https:\/\/files.slack.com\/files-tmb\/TUU48M0T1-F010E0X657Y-de2db08262\/smartselect_20200319-093506_linkedin_64.jpg?t=xoxe-980144714919-1106606678066-1105227127893-6f722bb664235052954ad46852628b64",
                "thumb_80": "https:\/\/files.slack.com\/files-tmb\/TUU48M0T1-F010E0X657Y-de2db08262\/smartselect_20200319-093506_linkedin_80.jpg?t=xoxe-980144714919-1106606678066-1105227127893-6f722bb664235052954ad46852628b64",
                "thumb_360": "https:\/\/files.slack.com\/files-tmb\/TUU48M0T1-F010E0X657Y-de2db08262\/smartselect_20200319-093506_linkedin_360.jpg?t=xoxe-980144714919-1106606678066-1105227127893-6f722bb664235052954ad46852628b64",
                "thumb_360_w": 240,
                "thumb_360_h": 360,
                "thumb_480": "https:\/\/files.slack.com\/files-tmb\/TUU48M0T1-F010E0X657Y-de2db08262\/smartselect_20200319-093506_linkedin_480.jpg?t=xoxe-980144714919-1106606678066-1105227127893-6f722bb664235052954ad46852628b64",
                "thumb_480_w": 320,
                "thumb_480_h": 480,
                "thumb_160": "https:\/\/files.slack.com\/files-tmb\/TUU48M0T1-F010E0X657Y-de2db08262\/smartselect_20200319-093506_linkedin_160.jpg?t=xoxe-980144714919-1106606678066-1105227127893-6f722bb664235052954ad46852628b64",
                "thumb_720": "https:\/\/files.slack.com\/files-tmb\/TUU48M0T1-F010E0X657Y-de2db08262\/smartselect_20200319-093506_linkedin_720.jpg?t=xoxe-980144714919-1106606678066-1105227127893-6f722bb664235052954ad46852628b64",
                "thumb_720_w": 480,
                "thumb_720_h": 720,
                "thumb_800": "https:\/\/files.slack.com\/files-tmb\/TUU48M0T1-F010E0X657Y-de2db08262\/smartselect_20200319-093506_linkedin_800.jpg?t=xoxe-980144714919-1106606678066-1105227127893-6f722bb664235052954ad46852628b64",
                "thumb_800_w": 800,
                "thumb_800_h": 1200,
                "thumb_960": "https:\/\/files.slack.com\/files-tmb\/TUU48M0T1-F010E0X657Y-de2db08262\/smartselect_20200319-093506_linkedin_960.jpg?t=xoxe-980144714919-1106606678066-1105227127893-6f722bb664235052954ad46852628b64",
                "thumb_960_w": 640,
                "thumb_960_h": 960,
                "thumb_1024": "https:\/\/files.slack.com\/files-tmb\/TUU48M0T1-F010E0X657Y-de2db08262\/smartselect_20200319-093506_linkedin_1024.jpg?t=xoxe-980144714919-1106606678066-1105227127893-6f722bb664235052954ad46852628b64",
                "thumb_1024_w": 682,
                "thumb_1024_h": 1024,
                "image_exif_rotation": 1,
                "original_w": 1071,
                "original_h": 1607,
                "thumb_tiny": "AwAwAB+\/\/E2W69vSlGB\/FSYyxwRml2H2oAXcPWlBB6UmweppQuOhNADCxyeaTcfWlI56N+VAXJx835UAJuPrT1bPWjZ7mgJg5yaAGE\/MeaM+9KRyev5UuzPf9KAG59\/1pyHt\/WjZ705VxQB\/\/9k=",
                "permalink": "https:\/\/open-covid19.slack.com\/files\/UV6870881\/F010E0X657Y\/smartselect_20200319-093506_linkedin.jpg",
                "permalink_public": "https:\/\/slack-files.com\/TUU48M0T1-F010E0X657Y-8c158293c4",
                "is_starred": false,
                "has_rich_preview": false
            }
        ],
        "upload": true,
        "blocks": [
            {
                "type": "rich_text",
                "block_id": "WV3",
                "elements": [
                    {
                        "type": "rich_text_section",
                        "elements": [
                            {
                                "type": "text",
                                "text": "200,000$ to develop a new ventilator design in Montreal\/Canada"
                            }
                        ]
                    }
                ]
            }
        ],
        "user": "UV6870881",
        "display_as_bot": false,
        "ts": "1584625635.074600",
        "edited": {
            "user": "UV6870881",
            "ts": "1584625766.000000"
        },
        "client_msg_id": "0c6fbb2b-52b8-4d93-9dd4-3e6a3cf1c054",
        "thread_ts": "1584625635.074600",
        "reply_count": 11,
        "reply_users_count": 4,
        "latest_reply": "1584779442.005900",
        "reply_users": [
            "UV8FL0JCA",
            "UV6870881",
            "U01081Y0TBP",
            "U010B4EJG2C"
        ],
        "replies": [
            {
                "user": "UV8FL0JCA",
                "ts": "1584629571.076400"
            },
            {
                "user": "UV6870881",
                "ts": "1584630118.078800"
            },
            {
                "user": "U01081Y0TBP",
                "ts": "1584646439.091800"
            },
            {
                "user": "U01081Y0TBP",
                "ts": "1584646520.092000"
            },
            {
                "user": "U01081Y0TBP",
                "ts": "1584646568.092200"
            },
            {
                "user": "UV6870881",
                "ts": "1584650734.093000"
            },
            {
                "user": "U010B4EJG2C",
                "ts": "1584696785.096700"
            },
            {
                "user": "U010B4EJG2C",
                "ts": "1584696787.096900"
            },
            {
                "user": "U010B4EJG2C",
                "ts": "1584696811.097100"
            },
            {
                "user": "U010B4EJG2C",
                "ts": "1584697004.097300"
            },
            {
                "user": "U01081Y0TBP",
                "ts": "1584779442.005900"
            }
        ],
        "subscribed": false
    },
    {
        "client_msg_id": "d45f2e84-3972-4e61-b27a-9db50d12201d",
        "type": "message",
        "text": "Thanks for sharing! Here’s the link that the shortURL unfurls to <https:\/\/www.agorize.com\/en\/challenges\/code-life-challenge>. I’m looking into signing up if anyone here is interested in forming a team",
        "user": "UV8FL0JCA",
        "ts": "1584629571.076400",
        "team": "TUU48M0T1",
        "user_team": "TUU48M0T1",
        "source_team": "TUU48M0T1",
        "user_profile": {
            "avatar_hash": "920c820f5900",
            "image_72": "https:\/\/avatars.slack-edge.com\/2020-03-17\/1009529536646_920c820f5900215fb339_72.jpg",
            "first_name": "Eric",
            "real_name": "Eric Chaves",
            "display_name": "Eric Chaves",
            "team": "TUU48M0T1",
            "name": "eric.chaves.llc",
            "is_restricted": false,
            "is_ultra_restricted": false
        },
        "attachments": [
            {
                "title": "Code Life Ventilator Challenge",
                "title_link": "https:\/\/www.agorize.com\/en\/challenges\/code-life-challenge",
                "text": "To design a low-cost, simple, easy-to-use and easy-to-build ventilator that can serve the COVID patients, in an emergency timeframe.",
                "fallback": "Code Life Ventilator Challenge",
                "thumb_url": "https:\/\/cdn.fs.agorize.com\/H1njdn44RK65nNBMuBny",
                "from_url": "https:\/\/www.agorize.com\/en\/challenges\/code-life-challenge",
                "thumb_width": 992,
                "thumb_height": 700,
                "service_name": "agorize.com",
                "id": 1,
                "original_url": "https:\/\/www.agorize.com\/en\/challenges\/code-life-challenge"
            }
        ],
        "blocks": [
            {
                "type": "rich_text",
                "block_id": "GNBex",
                "elements": [
                    {
                        "type": "rich_text_section",
                        "elements": [
                            {
                                "type": "text",
                                "text": "Thanks for sharing! Here’s the link that the shortURL unfurls to "
                            },
                            {
                                "type": "link",
                                "url": "https:\/\/www.agorize.com\/en\/challenges\/code-life-challenge"
                            },
                            {
                                "type": "text",
                                "text": ". I’m looking into signing up if anyone here is interested in forming a team"
                            }
                        ]
                    }
                ]
            }
        ],
        "thread_ts": "1584625635.074600",
        "parent_user_id": "UV6870881",
        "reactions": [
            {
                "name": "+1",
                "users": [
                    "U010B4EJG2C"
                ],
                "count": 1
            }
        ]
    },
    {
        "client_msg_id": "432543CE-F0F1-4677-A297-C3E690D39652",
        "type": "message",
        "text": "<@UV2P3AQEN> awesome! could you put the link to it in the channel?",
        "user": "UV0QTJCMT",
        "ts": "1584629905.077300",
        "team": "TUU48M0T1",
        "user_team": "TUU48M0T1",
        "source_team": "TUU48M0T1",
        "user_profile": {
            "avatar_hash": "06a6ae8f69d1",
            "image_72": "https:\/\/avatars.slack-edge.com\/2020-04-13\/1060635499315_06a6ae8f69d18f1ad464_72.png",
            "first_name": "Katherine",
            "real_name": "Katherine Holo",
            "display_name": "Kat Holo - Co-Organizer of OpenCOVID19",
            "team": "TUU48M0T1",
            "name": "katherineh245",
            "is_restricted": false,
            "is_ultra_restricted": false
        },
        "blocks": [
            {
                "type": "rich_text",
                "block_id": "c0NC",
                "elements": [
                    {
                        "type": "rich_text_section",
                        "elements": [
                            {
                                "type": "user",
                                "user_id": "UV2P3AQEN"
                            },
                            {
                                "type": "text",
                                "text": " awesome! could you put the link to it in the channel?"
                            }
                        ]
                    }
                ]
            }
        ],
        "thread_ts": "1584421277.027900",
        "parent_user_id": "UV0QTJCMT"
    },
    {
        "client_msg_id": "53614894-572e-44ce-9121-fb9ab9c8d229",
        "type": "message",
        "text": "Sure",
        "user": "UV2P3AQEN",
        "ts": "1584629932.077500",
        "team": "TUU48M0T1",
        "user_team": "TUU48M0T1",
        "source_team": "TUU48M0T1",
        "user_profile": {
            "avatar_hash": "82d977ce9645",
            "image_72": "https:\/\/avatars.slack-edge.com\/2020-03-16\/1003452392327_82d977ce9645ebc30917_72.jpg",
            "first_name": "Antonio",
            "real_name": "Antonio Mangiapane",
            "display_name": "Antonio Mangiapane",
            "team": "TUU48M0T1",
            "name": "antonio.mangiapane29",
            "is_restricted": false,
            "is_ultra_restricted": false
        },
        "blocks": [
            {
                "type": "rich_text",
                "block_id": "m+PAc",
                "elements": [
                    {
                        "type": "rich_text_section",
                        "elements": [
                            {
                                "type": "text",
                                "text": "Sure"
                            }
                        ]
                    }
                ]
            }
        ],
        "thread_ts": "1584421277.027900",
        "parent_user_id": "UV0QTJCMT"
    },
    {
        "client_msg_id": "ce16f772-0fca-4763-8a0b-45366c922bd1",
        "type": "message",
        "text": "<https:\/\/docs.google.com\/document\/d\/1VNKwRGm3Y8NJ5qnZLQKIwVndk4vAeZg57TohgwNhxls\/edit|https:\/\/docs.google.com\/document\/d\/1VNKwRGm3Y8NJ5qnZLQKIwVndk4vAeZg57TohgwNhxls\/edit>\n\nHello <!channel>, this is a first draft of the agenda doc for the call scheduled for Saturday!",
        "user": "UV2P3AQEN",
        "ts": "1584630057.078600",
        "team": "TUU48M0T1",
        "user_team": "TUU48M0T1",
        "source_team": "TUU48M0T1",
        "user_profile": {
            "avatar_hash": "82d977ce9645",
            "image_72": "https:\/\/avatars.slack-edge.com\/2020-03-16\/1003452392327_82d977ce9645ebc30917_72.jpg",
            "first_name": "Antonio",
            "real_name": "Antonio Mangiapane",
            "display_name": "Antonio Mangiapane",
            "team": "TUU48M0T1",
            "name": "antonio.mangiapane29",
            "is_restricted": false,
            "is_ultra_restricted": false
        },
        "edited": {
            "user": "UV2P3AQEN",
            "ts": "1584630341.000000"
        },
        "blocks": [
            {
                "type": "rich_text",
                "block_id": "UVcL",
                "elements": [
                    {
                        "type": "rich_text_section",
                        "elements": [
                            {
                                "type": "link",
                                "url": "https:\/\/docs.google.com\/document\/d\/1VNKwRGm3Y8NJ5qnZLQKIwVndk4vAeZg57TohgwNhxls\/edit",
                                "text": "https:\/\/docs.google.com\/document\/d\/1VNKwRGm3Y8NJ5qnZLQKIwVndk4vAeZg57TohgwNhxls\/edit"
                            },
                            {
                                "type": "text",
                                "text": "\n\nHello "
                            },
                            {
                                "type": "broadcast",
                                "range": "channel"
                            },
                            {
                                "type": "text",
                                "text": ", this is a first draft of the agenda doc for the call scheduled for Saturday!"
                            }
                        ]
                    }
                ]
            }
        ],
        "thread_ts": "1584630057.078600",
        "reply_count": 2,
        "reply_users_count": 2,
        "latest_reply": "1584635921.087300",
        "reply_users": [
            "U0106PLV8PJ",
            "UV2P3AQEN"
        ],
        "replies": [
            {
                "user": "U0106PLV8PJ",
                "ts": "1584632821.085900"
            },
            {
                "user": "UV2P3AQEN",
                "ts": "1584635921.087300"
            }
        ],
        "subscribed": false,
        "reactions": [
            {
                "name": "raised_hands",
                "users": [
                    "UV0QTJCMT",
                    "UV02WET96"
                ],
                "count": 2
            }
        ]
    },
    {
        "client_msg_id": "294a8b9f-a412-42e4-a129-5a743a5914d1",
        "type": "message",
        "text": "I am also interested, and have asked a couple of mechanical engineers if they would like to join, waiting on their replies",
        "user": "UV6870881",
        "ts": "1584630118.078800",
        "team": "TUU48M0T1",
        "user_team": "TUU48M0T1",
        "source_team": "TUU48M0T1",
        "user_profile": {
            "avatar_hash": "gbbbbcc3accd",
            "image_72": "https:\/\/secure.gravatar.com\/avatar\/bbbbcc3accdddb02dfb1c03a4a65b994.jpg?s=72&d=https%3A%2F%2Fa.slack-edge.com%2Fdf10d%2Fimg%2Favatars%2Fava_0011-72.png",
            "first_name": "Quant",
            "real_name": "Quant",
            "display_name": "",
            "team": "TUU48M0T1",
            "name": "admin",
            "is_restricted": false,
            "is_ultra_restricted": false
        },
        "blocks": [
            {
                "type": "rich_text",
                "block_id": "g2HR\/",
                "elements": [
                    {
                        "type": "rich_text_section",
                        "elements": [
                            {
                                "type": "text",
                                "text": "I am also interested, and have asked a couple of mechanical engineers if they would like to join, waiting on their replies"
                            }
                        ]
                    }
                ]
            }
        ],
        "thread_ts": "1584625635.074600",
        "parent_user_id": "UV6870881"
    },
    {
        "client_msg_id": "a7cc0ba1-f586-443e-8464-6134aa0b8e9f",
        "type": "message",
        "text": "<@UV8FL0JCA> Some so called hepa filters are actually not hepa filters so it would be good to do more checking.\nThe snorkel is a good idea for medical personnel but probably overkill for the population.\nAdding an arduino is overkill and will drain the battery for no reason. You could use direct connection or a power buck converter to convert to the power for fan. Probably a 9v battery will work perfect with a normal 12 v fan but arduino is totally unnecessary.\nIf you want to get fancy you could use a PWM modulator module <https:\/\/www.aliexpress.com\/item\/4000261017900.html?src=google&amp;src=google&amp;albch=shopping&amp;acnt=494-037-6276&amp;isdl=y&amp;slnk=&amp;plac=&amp;mtctp=&amp;albbt=Google_7_shopping&amp;aff_platform=google&amp;aff_short_key=UneMJZVf&amp;&amp;albagn=888888&amp;albcp=7386552844&amp;albag=80241711349&amp;trgt=743612850714&amp;crea=en4000261017900&amp;netw=u&amp;device=c&amp;gclid=CjwKCAjwsMzzBRACEiwAx4lLG4w0G0wcZR2ClyUSEsm-pNVYUqxVZa1_Hs9CUc7S5om1ZOFTuxRrExoC2IQQAvD_BwE&amp;gclsrc=aw.ds>  but I really don't see the need.\nIf you have a 3dprinter you might be able to print a propeller and reuse a cheap motor from an old printer, vcr etc.",
        "user": "U0103SR759U",
        "ts": "1584631621.085000",
        "team": "TUU48M0T1",
        "user_team": "TUU48M0T1",
        "source_team": "TUU48M0T1",
        "user_profile": {
            "avatar_hash": "g2694d379600",
            "image_72": "https:\/\/secure.gravatar.com\/avatar\/2694d3796008843d36d4b6ceff7f8660.jpg?s=72&d=https%3A%2F%2Fa.slack-edge.com%2Fdf10d%2Fimg%2Favatars%2Fava_0010-72.png",
            "first_name": "Adrian",
            "real_name": "Adrian Molecule",
            "display_name": "Adrian Molecule",
            "team": "TUU48M0T1",
            "name": "tada",
            "is_restricted": false,
            "is_ultra_restricted": false
        },
        "attachments": [
            {
                "service_name": "aliexpress.com",
                "title": "US $1.22 17% OFF|DC 2.8V 6V 30 1500MA 1.5A LED Driver Constant Current Adjustable Module PWM Control Board For 3V 3.3V 3.7V 4.5V 5V 6V LED Driver|Instrument Parts &amp; Accessories| |  - AliExpress",
                "title_link": "https:\/\/www.aliexpress.com\/item\/4000261017900.html?src=google&src=google&albch=shopping&acnt=494-037-6276&isdl=y&slnk=&plac=&mtctp=&albbt=Google_7_shopping&aff_platform=google&aff_short_key=UneMJZVf&&albagn=888888&albcp=7386552844&albag=80241711349&trgt=743612850714&crea=en4000261017900&netw=u&device=c&gclid=CjwKCAjwsMzzBRACEiwAx4lLG4w0G0wcZR2ClyUSEsm-pNVYUqxVZa1_Hs9CUc7S5om1ZOFTuxRrExoC2IQQAvD_BwE&gclsrc=aw.ds",
                "text": "Smarter Shopping, Better Living! <http:\/\/Aliexpress.com|Aliexpress.com>",
                "fallback": "aliexpress.com: US $1.22 17% OFF|DC 2.8V 6V 30 1500MA 1.5A LED Driver Constant Current Adjustable Module PWM Control Board For 3V 3.3V 3.7V 4.5V 5V 6V LED Driver|Instrument Parts &amp; Accessories| |  - AliExpress",
                "thumb_url": "https:\/\/ae01.alicdn.com\/kf\/Hd02532de775d449098153ff5d9450511v\/DC-2-8V-6V-30-1500MA-1-5A-LED-Driver-Constant-Current-Adjustable-Module-PWM-Control.jpg",
                "from_url": "https:\/\/www.aliexpress.com\/item\/4000261017900.html?src=google&src=google&albch=shopping&acnt=494-037-6276&isdl=y&slnk=&plac=&mtctp=&albbt=Google_7_shopping&aff_platform=google&aff_short_key=UneMJZVf&&albagn=888888&albcp=7386552844&albag=80241711349&trgt=743612850714&crea=en4000261017900&netw=u&device=c&gclid=CjwKCAjwsMzzBRACEiwAx4lLG4w0G0wcZR2ClyUSEsm-pNVYUqxVZa1_Hs9CUc7S5om1ZOFTuxRrExoC2IQQAvD_BwE&gclsrc=aw.ds",
                "thumb_width": 800,
                "thumb_height": 800,
                "service_icon": "http:\/\/ae01.alicdn.com\/images\/eng\/wholesale\/icon\/aliexpress.ico",
                "id": 1,
                "original_url": "https:\/\/www.aliexpress.com\/item\/4000261017900.html?src=google&amp;src=google&amp;albch=shopping&amp;acnt=494-037-6276&amp;isdl=y&amp;slnk=&amp;plac=&amp;mtctp=&amp;albbt=Google_7_shopping&amp;aff_platform=google&amp;aff_short_key=UneMJZVf&amp;&amp;albagn=888888&amp;albcp=7386552844&amp;albag=80241711349&amp;trgt=743612850714&amp;crea=en4000261017900&amp;netw=u&amp;device=c&amp;gclid=CjwKCAjwsMzzBRACEiwAx4lLG4w0G0wcZR2ClyUSEsm-pNVYUqxVZa1_Hs9CUc7S5om1ZOFTuxRrExoC2IQQAvD_BwE&amp;gclsrc=aw.ds"
            }
        ],
        "blocks": [
            {
                "type": "rich_text",
                "block_id": "RYY",
                "elements": [
                    {
                        "type": "rich_text_section",
                        "elements": [
                            {
                                "type": "user",
                                "user_id": "UV8FL0JCA"
                            },
                            {
                                "type": "text",
                                "text": " Some so called hepa filters are actually not hepa filters so it would be good to do more checking.\nThe snorkel is a good idea for medical personnel but probably overkill for the population.\nAdding an arduino is overkill and will drain the battery for no reason. You could use direct connection or a power buck converter to convert to the power for fan. Probably a 9v battery will work perfect with a normal 12 v fan but arduino is totally unnecessary.\nIf you want to get fancy you could use a PWM modulator module "
                            },
                            {
                                "type": "link",
                                "url": "https:\/\/www.aliexpress.com\/item\/4000261017900.html?src=google&src=google&albch=shopping&acnt=494-037-6276&isdl=y&slnk=&plac=&mtctp=&albbt=Google_7_shopping&aff_platform=google&aff_short_key=UneMJZVf&&albagn=888888&albcp=7386552844&albag=80241711349&trgt=743612850714&crea=en4000261017900&netw=u&device=c&gclid=CjwKCAjwsMzzBRACEiwAx4lLG4w0G0wcZR2ClyUSEsm-pNVYUqxVZa1_Hs9CUc7S5om1ZOFTuxRrExoC2IQQAvD_BwE&gclsrc=aw.ds"
                            },
                            {
                                "type": "text",
                                "text": "  but I really don't see the need.\nIf you have a 3dprinter you might be able to print a propeller and reuse a cheap motor from an old printer, vcr etc."
                            }
                        ]
                    }
                ]
            }
        ],
        "thread_ts": "1584631621.085000",
        "reply_count": 5,
        "reply_users_count": 3,
        "latest_reply": "1584666700.096300",
        "reply_users": [
            "UV8FL0JCA",
            "UVBEDFNPJ",
            "U0103SR759U"
        ],
        "replies": [
            {
                "user": "UV8FL0JCA",
                "ts": "1584632441.085700"
            },
            {
                "user": "UVBEDFNPJ",
                "ts": "1584646699.092400"
            },
            {
                "user": "U0103SR759U",
                "ts": "1584665958.095700"
            },
            {
                "user": "U0103SR759U",
                "ts": "1584665974.095900"
            },
            {
                "user": "U0103SR759U",
                "ts": "1584666700.096300"
            }
        ],
        "subscribed": false
    },
    {
        "client_msg_id": "4426d113-7ee7-45ba-bc53-74d23f93892e",
        "type": "message",
        "text": "Hey thanks. A couple thoughts back:\n• Thanks for the heads up about the Hepa filter issues. I’ll be careful about that. This first order is just for prototyping, so ill ensure i check before using for real.\n• Yes, I’m definitely thinking of this for medical professionals, not for everyday people.\n• Although it would be cool to use an arduino or something similar, I don’t think there’s time. At least not for a first version. And i don’t think it’s needed. The fan can be super weak and can be run with just a portable phone charger over usb. As I understand it, it only needs to be strong enough to pull air through a Hepa filter and ensure air moves in one direction - only leaking out of the mask and not in.\n• Thx!",
        "user": "UV8FL0JCA",
        "ts": "1584632441.085700",
        "team": "TUU48M0T1",
        "user_team": "TUU48M0T1",
        "source_team": "TUU48M0T1",
        "user_profile": {
            "avatar_hash": "920c820f5900",
            "image_72": "https:\/\/avatars.slack-edge.com\/2020-03-17\/1009529536646_920c820f5900215fb339_72.jpg",
            "first_name": "Eric",
            "real_name": "Eric Chaves",
            "display_name": "Eric Chaves",
            "team": "TUU48M0T1",
            "name": "eric.chaves.llc",
            "is_restricted": false,
            "is_ultra_restricted": false
        },
        "blocks": [
            {
                "type": "rich_text",
                "block_id": "mT6",
                "elements": [
                    {
                        "type": "rich_text_section",
                        "elements": [
                            {
                                "type": "text",
                                "text": "Hey thanks. A couple thoughts back:\n"
                            }
                        ]
                    },
                    {
                        "type": "rich_text_list",
                        "elements": [
                            {
                                "type": "rich_text_section",
                                "elements": [
                                    {
                                        "type": "text",
                                        "text": "Thanks for the heads up about the Hepa filter issues. I’ll be careful about that. This first order is just for prototyping, so ill ensure i check before using for real."
                                    }
                                ]
                            },
                            {
                                "type": "rich_text_section",
                                "elements": [
                                    {
                                        "type": "text",
                                        "text": "Yes, I’m definitely thinking of this for medical professionals, not for everyday people."
                                    }
                                ]
                            },
                            {
                                "type": "rich_text_section",
                                "elements": [
                                    {
                                        "type": "text",
                                        "text": "Although it would be cool to use an arduino or something similar, I don’t think there’s time. At least not for a first version. And i don’t think it’s needed. The fan can be super weak and can be run with just a portable phone charger over usb. As I understand it, it only needs to be strong enough to pull air through a Hepa filter and ensure air moves in one direction - only leaking out of the mask and not in."
                                    }
                                ]
                            },
                            {
                                "type": "rich_text_section",
                                "elements": [
                                    {
                                        "type": "text",
                                        "text": "Thx!"
                                    }
                                ]
                            }
                        ],
                        "style": "bullet",
                        "indent": 0
                    }
                ]
            }
        ],
        "thread_ts": "1584631621.085000",
        "parent_user_id": "U0103SR759U"
    },
    {
        "client_msg_id": "91935327-b914-4b0a-befd-e6d680b1b622",
        "type": "message",
        "text": "Can you please update the zoom link so i can block my calendar?",
        "user": "U0106PLV8PJ",
        "ts": "1584632821.085900",
        "team": "TUU48M0T1",
        "user_team": "TUU48M0T1",
        "source_team": "TUU48M0T1",
        "user_profile": {
            "avatar_hash": "g2cfc1aee243",
            "image_72": "https:\/\/secure.gravatar.com\/avatar\/2cfc1aee24305a18a647efef16d68e02.jpg?s=72&d=https%3A%2F%2Fa.slack-edge.com%2Fdf10d%2Fimg%2Favatars%2Fava_0012-72.png",
            "first_name": "",
            "real_name": "Rupin Chheda",
            "display_name": "",
            "team": "TUU48M0T1",
            "name": "rupin.chheda",
            "is_restricted": false,
            "is_ultra_restricted": false
        },
        "blocks": [
            {
                "type": "rich_text",
                "block_id": "ub12f",
                "elements": [
                    {
                        "type": "rich_text_section",
                        "elements": [
                            {
                                "type": "text",
                                "text": "Can you please update the zoom link so i can block my calendar?"
                            }
                        ]
                    }
                ]
            }
        ],
        "thread_ts": "1584630057.078600",
        "parent_user_id": "UV2P3AQEN"
    },
    {
        "client_msg_id": "24F9E5FB-4227-4DEA-BF3F-E223CC7DFF6D",
        "type": "message",
        "text": "I’m not sure there’s a link yet, unless it’s the same of the other calls. <@UV0QTJCMT> ",
        "user": "UV2P3AQEN",
        "ts": "1584635921.087300",
        "team": "TUU48M0T1",
        "user_team": "TUU48M0T1",
        "source_team": "TUU48M0T1",
        "user_profile": {
            "avatar_hash": "82d977ce9645",
            "image_72": "https:\/\/avatars.slack-edge.com\/2020-03-16\/1003452392327_82d977ce9645ebc30917_72.jpg",
            "first_name": "Antonio",
            "real_name": "Antonio Mangiapane",
            "display_name": "Antonio Mangiapane",
            "team": "TUU48M0T1",
            "name": "antonio.mangiapane29",
            "is_restricted": false,
            "is_ultra_restricted": false
        },
        "blocks": [
            {
                "type": "rich_text",
                "block_id": "DKEo",
                "elements": [
                    {
                        "type": "rich_text_section",
                        "elements": [
                            {
                                "type": "text",
                                "text": "I’m not sure there’s a link yet, unless it’s the same of the other calls. "
                            },
                            {
                                "type": "user",
                                "user_id": "UV0QTJCMT"
                            },
                            {
                                "type": "text",
                                "text": " "
                            }
                        ]
                    }
                ]
            }
        ],
        "thread_ts": "1584630057.078600",
        "parent_user_id": "UV2P3AQEN"
    },
    {
        "client_msg_id": "700ebc8d-62b7-417f-b935-b3eb9e3eeb1e",
        "type": "message",
        "text": "Is anyone here on the “Helpful Engineering” Slack group? I don’t have an invitation there. Could anyone advise on whether this proposal is useful or not? Is someone already taking immediate action on this? If not, do people agree that we should get something like this built and tested ASAP? I also tried to reach out to the author of <http:\/\/panvent.blogspot.com|panvent.blogspot.com>.\n\n*Helpful Engineering: Proposal for Emergency Gown + Ventilated Face Mask PPE*\n<https:\/\/docs.google.com\/document\/d\/1Up0P7cKOppwZvwqX6zzepljOLpnRJ_hpP1yqrdLodIk\/edit>\n\n*Edit: I got on the “Helpful Engineering” slack, thx.*",
        "user": "UV8FL0JCA",
        "ts": "1584641671.091400",
        "team": "TUU48M0T1",
        "user_team": "TUU48M0T1",
        "source_team": "TUU48M0T1",
        "user_profile": {
            "avatar_hash": "920c820f5900",
            "image_72": "https:\/\/avatars.slack-edge.com\/2020-03-17\/1009529536646_920c820f5900215fb339_72.jpg",
            "first_name": "Eric",
            "real_name": "Eric Chaves",
            "display_name": "Eric Chaves",
            "team": "TUU48M0T1",
            "name": "eric.chaves.llc",
            "is_restricted": false,
            "is_ultra_restricted": false
        },
        "edited": {
            "user": "UV8FL0JCA",
            "ts": "1584644248.000000"
        },
        "blocks": [
            {
                "type": "rich_text",
                "block_id": "OJe",
                "elements": [
                    {
                        "type": "rich_text_section",
                        "elements": [
                            {
                                "type": "text",
                                "text": "Is anyone here on the “Helpful Engineering” Slack group? I don’t have an invitation there. Could anyone advise on whether this proposal is useful or not? Is someone already taking immediate action on this? If not, do people agree that we should get something like this built and tested ASAP? I also tried to reach out to the author of "
                            },
                            {
                                "type": "link",
                                "url": "http:\/\/panvent.blogspot.com",
                                "text": "panvent.blogspot.com"
                            },
                            {
                                "type": "text",
                                "text": ".\n\n"
                            },
                            {
                                "type": "text",
                                "text": "Helpful Engineering: Proposal for Emergency Gown + Ventilated Face Mask PPE",
                                "style": {
                                    "bold": true
                                }
                            },
                            {
                                "type": "text",
                                "text": "\n"
                            },
                            {
                                "type": "link",
                                "url": "https:\/\/docs.google.com\/document\/d\/1Up0P7cKOppwZvwqX6zzepljOLpnRJ_hpP1yqrdLodIk\/edit"
                            },
                            {
                                "type": "text",
                                "text": "\n\n"
                            },
                            {
                                "type": "text",
                                "text": "Edit: I got on the “Helpful Engineering” slack, thx.",
                                "style": {
                                    "bold": true
                                }
                            }
                        ]
                    }
                ]
            }
        ]
    },
    {
        "client_msg_id": "218f425f-1934-468f-aea9-161d92a7afbe",
        "type": "message",
        "text": "I am also interested! I am an mechanical engineer as well, with experience with developing surgical instruments, orthotics and blood analyzers. No ventilators yet :(",
        "user": "U01081Y0TBP",
        "ts": "1584646439.091800",
        "team": "TUU48M0T1",
        "user_team": "TUU48M0T1",
        "source_team": "TUU48M0T1",
        "user_profile": {
            "avatar_hash": "60ec5b47107a",
            "image_72": "https:\/\/avatars.slack-edge.com\/2020-03-18\/995274181218_60ec5b47107a3bd2ca7d_72.jpg",
            "first_name": "Peter",
            "real_name": "Peter Kooren",
            "display_name": "Peter Kooren",
            "team": "TUU48M0T1",
            "name": "peterkooren",
            "is_restricted": false,
            "is_ultra_restricted": false
        },
        "blocks": [
            {
                "type": "rich_text",
                "block_id": "7pgcx",
                "elements": [
                    {
                        "type": "rich_text_section",
                        "elements": [
                            {
                                "type": "text",
                                "text": "I am also interested! I am an mechanical engineer as well, with experience with developing surgical instruments, orthotics and blood analyzers. No ventilators yet :("
                            }
                        ]
                    }
                ]
            }
        ],
        "thread_ts": "1584625635.074600",
        "parent_user_id": "UV6870881"
    },
    {
        "client_msg_id": "4d0f348a-ea07-47de-a5ff-4fc80fc57db4",
        "type": "message",
        "text": "I am not trapped at home though, I do still work roughly four days a week",
        "user": "U01081Y0TBP",
        "ts": "1584646520.092000",
        "team": "TUU48M0T1",
        "user_team": "TUU48M0T1",
        "source_team": "TUU48M0T1",
        "user_profile": {
            "avatar_hash": "60ec5b47107a",
            "image_72": "https:\/\/avatars.slack-edge.com\/2020-03-18\/995274181218_60ec5b47107a3bd2ca7d_72.jpg",
            "first_name": "Peter",
            "real_name": "Peter Kooren",
            "display_name": "Peter Kooren",
            "team": "TUU48M0T1",
            "name": "peterkooren",
            "is_restricted": false,
            "is_ultra_restricted": false
        },
        "blocks": [
            {
                "type": "rich_text",
                "block_id": "jdQ",
                "elements": [
                    {
                        "type": "rich_text_section",
                        "elements": [
                            {
                                "type": "text",
                                "text": "I am not trapped at home though, I do still work roughly four days a week"
                            }
                        ]
                    }
                ]
            }
        ],
        "thread_ts": "1584625635.074600",
        "parent_user_id": "UV6870881"
    },
    {
        "client_msg_id": "62f782ff-45c1-4ff8-a307-9b13064063bd",
        "type": "message",
        "text": "Did anyone find the requirements\/specs yet?",
        "user": "U01081Y0TBP",
        "ts": "1584646568.092200",
        "team": "TUU48M0T1",
        "user_team": "TUU48M0T1",
        "source_team": "TUU48M0T1",
        "user_profile": {
            "avatar_hash": "60ec5b47107a",
            "image_72": "https:\/\/avatars.slack-edge.com\/2020-03-18\/995274181218_60ec5b47107a3bd2ca7d_72.jpg",
            "first_name": "Peter",
            "real_name": "Peter Kooren",
            "display_name": "Peter Kooren",
            "team": "TUU48M0T1",
            "name": "peterkooren",
            "is_restricted": false,
            "is_ultra_restricted": false
        },
        "blocks": [
            {
                "type": "rich_text",
                "block_id": "9iB",
                "elements": [
                    {
                        "type": "rich_text_section",
                        "elements": [
                            {
                                "type": "text",
                                "text": "Did anyone find the requirements\/specs yet?"
                            }
                        ]
                    }
                ]
            }
        ],
        "thread_ts": "1584625635.074600",
        "parent_user_id": "UV6870881",
        "reactions": [
            {
                "name": "+1",
                "users": [
                    "U010B4EJG2C",
                    "UV6870881"
                ],
                "count": 2
            }
        ]
    },
    {
        "client_msg_id": "a1643425-fa18-4ca1-882e-5446b2965614",
        "type": "message",
        "text": "Found this for CPAP applications. Think it would have enough air flow for this mask \/ hood? <https:\/\/www.thecpapshop.com\/inline-bacteria-filter-for-cpap-bipap-1?adpos=&amp;scid=scplpSP-CPF&amp;sc_intid=SP-CPF&amp;gclid=EAIaIQobChMI9dDd6KSn6AIVFqvsCh2J_Q_TEAQYAyABEgLxs_D_BwE>",
        "user": "UVBEDFNPJ",
        "ts": "1584646699.092400",
        "team": "TUU48M0T1",
        "user_team": "TUU48M0T1",
        "source_team": "TUU48M0T1",
        "user_profile": {
            "avatar_hash": "g283f55a73d8",
            "image_72": "https:\/\/secure.gravatar.com\/avatar\/283f55a73d87c092accdfe6d3073482d.jpg?s=72&d=https%3A%2F%2Fa.slack-edge.com%2Fdf10d%2Fimg%2Favatars%2Fava_0009-72.png",
            "first_name": "",
            "real_name": "Brent Picasso",
            "display_name": "Brent Picasso",
            "team": "TUU48M0T1",
            "name": "brent",
            "is_restricted": false,
            "is_ultra_restricted": false
        },
        "attachments": [
            {
                "title": "Inline Bacteria Filter for CPAP units",
                "title_link": "https:\/\/www.thecpapshop.com\/inline-bacteria-filter-for-cpap-bipap-1?adpos=&scid=scplpSP-CPF&sc_intid=SP-CPF&gclid=EAIaIQobChMI9dDd6KSn6AIVFqvsCh2J_Q_TEAQYAyABEgLxs_D_BwE",
                "text": "Inline bacteria filters help stop viruses and bacteria that often plague CPAP and BiPAP users creating a clean airflow. The are easy to install and should not require re-calibration on most CPAP machines. Buy your CPAP machine filters from The CPAP Shop.",
                "fallback": "Inline Bacteria Filter for CPAP units",
                "image_url": "https:\/\/m1cdn.thecpapshop.com\/m1_prod\/catalog\/product\/i\/n\/inline.bacteria.cpap.filter.jpg?profile=Default",
                "from_url": "https:\/\/www.thecpapshop.com\/inline-bacteria-filter-for-cpap-bipap-1?adpos=&scid=scplpSP-CPF&sc_intid=SP-CPF&gclid=EAIaIQobChMI9dDd6KSn6AIVFqvsCh2J_Q_TEAQYAyABEgLxs_D_BwE",
                "image_width": 185,
                "image_height": 250,
                "image_bytes": 4733,
                "service_icon": "https:\/\/www.thecpapshop.com\/media\/favicon\/default\/favicon.gif",
                "service_name": "thecpapshop.com",
                "id": 1,
                "original_url": "https:\/\/www.thecpapshop.com\/inline-bacteria-filter-for-cpap-bipap-1?adpos=&amp;scid=scplpSP-CPF&amp;sc_intid=SP-CPF&amp;gclid=EAIaIQobChMI9dDd6KSn6AIVFqvsCh2J_Q_TEAQYAyABEgLxs_D_BwE"
            }
        ],
        "blocks": [
            {
                "type": "rich_text",
                "block_id": "EG5K3",
                "elements": [
                    {
                        "type": "rich_text_section",
                        "elements": [
                            {
                                "type": "text",
                                "text": "Found this for CPAP applications. Think it would have enough air flow for this mask \/ hood? "
                            },
                            {
                                "type": "link",
                                "url": "https:\/\/www.thecpapshop.com\/inline-bacteria-filter-for-cpap-bipap-1?adpos=&scid=scplpSP-CPF&sc_intid=SP-CPF&gclid=EAIaIQobChMI9dDd6KSn6AIVFqvsCh2J_Q_TEAQYAyABEgLxs_D_BwE"
                            }
                        ]
                    }
                ]
            }
        ],
        "thread_ts": "1584631621.085000",
        "parent_user_id": "U0103SR759U"
    },
    {
        "client_msg_id": "95ec9766-fecb-49fa-a940-add5ae29f5e9",
        "type": "message",
        "text": "Not yet but i have created a new channel with all the people in this thtead in it, lets brainstorm and work on this together! <#C010EVCBQP9|proj-dev-ventilator>",
        "user": "UV6870881",
        "ts": "1584650734.093000",
        "team": "TUU48M0T1",
        "user_team": "TUU48M0T1",
        "source_team": "TUU48M0T1",
        "user_profile": {
            "avatar_hash": "gbbbbcc3accd",
            "image_72": "https:\/\/secure.gravatar.com\/avatar\/bbbbcc3accdddb02dfb1c03a4a65b994.jpg?s=72&d=https%3A%2F%2Fa.slack-edge.com%2Fdf10d%2Fimg%2Favatars%2Fava_0011-72.png",
            "first_name": "Quant",
            "real_name": "Quant",
            "display_name": "",
            "team": "TUU48M0T1",
            "name": "admin",
            "is_restricted": false,
            "is_ultra_restricted": false
        },
        "edited": {
            "user": "UV6870881",
            "ts": "1584650747.000000"
        },
        "blocks": [
            {
                "type": "rich_text",
                "block_id": "dOm",
                "elements": [
                    {
                        "type": "rich_text_section",
                        "elements": [
                            {
                                "type": "text",
                                "text": "Not yet but i have created a new channel with all the people in this thtead in it, lets brainstorm and work on this together! "
                            },
                            {
                                "type": "channel",
                                "channel_id": "C010EVCBQP9"
                            }
                        ]
                    }
                ]
            }
        ],
        "thread_ts": "1584625635.074600",
        "parent_user_id": "UV6870881"
    },
    {
        "client_msg_id": "aa6b451a-1160-4d12-bd33-a3368e49bb5e",
        "type": "message",
        "text": "Hello. Here is a 3D printable mask, maybe could be use for the mask part.\n<https:\/\/copper3d.com\/hackthepandemic\/>",
        "user": "U0109LRFM3Q",
        "ts": "1584659084.093600",
        "team": "TUU48M0T1",
        "user_team": "TUU48M0T1",
        "source_team": "TUU48M0T1",
        "user_profile": {
            "avatar_hash": "g8d0194a49b8",
            "image_72": "https:\/\/secure.gravatar.com\/avatar\/8d0194a49b8c9a543857eba6f2bc6217.jpg?s=72&d=https%3A%2F%2Fa.slack-edge.com%2Fdf10d%2Fimg%2Favatars%2Fava_0009-72.png",
            "first_name": "",
            "real_name": "Vicente Agosin Orellana",
            "display_name": "Vicente Agosin Orellana",
            "team": "TUU48M0T1",
            "name": "v.agosin.orellana",
            "is_restricted": false,
            "is_ultra_restricted": false
        },
        "attachments": [
            {
                "service_name": "Copper 3D | Antibacterial 3D Printing",
                "title": "Hack the Pandemic - Copper 3D | Antibacterial 3D Printing",
                "title_link": "https:\/\/copper3d.com\/hackthepandemic\/",
                "fallback": "Copper 3D | Antibacterial 3D Printing: Hack the Pandemic - Copper 3D | Antibacterial 3D Printing",
                "image_url": "https:\/\/copper3d.com\/hackthepandemic\/wp-content\/plugins\/kingcomposer\/assets\/images\/get_start.jpg",
                "from_url": "https:\/\/copper3d.com\/hackthepandemic\/",
                "image_width": 500,
                "image_height": 250,
                "image_bytes": 143544,
                "id": 1,
                "original_url": "https:\/\/copper3d.com\/hackthepandemic\/"
            }
        ],
        "blocks": [
            {
                "type": "rich_text",
                "block_id": "l3oQ",
                "elements": [
                    {
                        "type": "rich_text_section",
                        "elements": [
                            {
                                "type": "text",
                                "text": "Hello. Here is a 3D printable mask, maybe could be use for the mask part.\n"
                            },
                            {
                                "type": "link",
                                "url": "https:\/\/copper3d.com\/hackthepandemic\/"
                            }
                        ]
                    }
                ]
            }
        ],
        "thread_ts": "1584659084.093600",
        "reply_count": 3,
        "reply_users_count": 2,
        "latest_reply": "1584714610.097600",
        "reply_users": [
            "UV0QTJCMT",
            "U0109LRFM3Q"
        ],
        "replies": [
            {
                "user": "UV0QTJCMT",
                "ts": "1584659309.094300"
            },
            {
                "user": "UV0QTJCMT",
                "ts": "1584659315.094600"
            },
            {
                "user": "U0109LRFM3Q",
                "ts": "1584714610.097600"
            }
        ],
        "subscribed": false
    },
    {
        "client_msg_id": "55448085-23C8-4A69-B70D-86D458E01C40",
        "type": "message",
        "text": "<@U0109LRFM3Q> could you share this with the <#C0104ANKV4L|proj-mask-team> channel? ",
        "user": "UV0QTJCMT",
        "ts": "1584659309.094300",
        "team": "TUU48M0T1",
        "user_team": "TUU48M0T1",
        "source_team": "TUU48M0T1",
        "user_profile": {
            "avatar_hash": "06a6ae8f69d1",
            "image_72": "https:\/\/avatars.slack-edge.com\/2020-04-13\/1060635499315_06a6ae8f69d18f1ad464_72.png",
            "first_name": "Katherine",
            "real_name": "Katherine Holo",
            "display_name": "Kat Holo - Co-Organizer of OpenCOVID19",
            "team": "TUU48M0T1",
            "name": "katherineh245",
            "is_restricted": false,
            "is_ultra_restricted": false
        },
        "blocks": [
            {
                "type": "rich_text",
                "block_id": "qt1V",
                "elements": [
                    {
                        "type": "rich_text_section",
                        "elements": [
                            {
                                "type": "user",
                                "user_id": "U0109LRFM3Q"
                            },
                            {
                                "type": "text",
                                "text": " could you share this with the "
                            },
                            {
                                "type": "channel",
                                "channel_id": "C0104ANKV4L"
                            },
                            {
                                "type": "text",
                                "text": " channel? "
                            }
                        ]
                    }
                ]
            }
        ],
        "thread_ts": "1584659084.093600",
        "parent_user_id": "U0109LRFM3Q"
    },
    {
        "client_msg_id": "4DB78832-57F7-4AF0-9B89-764F14C45543",
        "type": "message",
        "text": "(if you haven’t already) ",
        "user": "UV0QTJCMT",
        "ts": "1584659315.094600",
        "team": "TUU48M0T1",
        "user_team": "TUU48M0T1",
        "source_team": "TUU48M0T1",
        "user_profile": {
            "avatar_hash": "06a6ae8f69d1",
            "image_72": "https:\/\/avatars.slack-edge.com\/2020-04-13\/1060635499315_06a6ae8f69d18f1ad464_72.png",
            "first_name": "Katherine",
            "real_name": "Katherine Holo",
            "display_name": "Kat Holo - Co-Organizer of OpenCOVID19",
            "team": "TUU48M0T1",
            "name": "katherineh245",
            "is_restricted": false,
            "is_ultra_restricted": false
        },
        "blocks": [
            {
                "type": "rich_text",
                "block_id": "4+REt",
                "elements": [
                    {
                        "type": "rich_text_section",
                        "elements": [
                            {
                                "type": "text",
                                "text": "(if you haven’t already) "
                            }
                        ]
                    }
                ]
            }
        ],
        "thread_ts": "1584659084.093600",
        "parent_user_id": "U0109LRFM3Q"
    },
    {
        "client_msg_id": "83c9d0d8-d64d-486b-aee2-84370db52182",
        "type": "message",
        "text": "URGENT call for ppl in France with some knowledge or experience in *plasturgy* or *technical fabrics*. We need to get in touch with industrials asap, hopefully tomorrow Friday, to know their constraints and capabilities regarding *masks*. Groups in other jurisdictions are encouraged to do the same as well. Thx",
        "user": "UV8519NFK",
        "ts": "1584661865.095200",
        "team": "TUU48M0T1",
        "user_team": "TUU48M0T1",
        "source_team": "TUU48M0T1",
        "user_profile": {
            "avatar_hash": "63f8ab1a9517",
            "image_72": "https:\/\/avatars.slack-edge.com\/2020-03-16\/1006137856183_63f8ab1a95179e961ab1_72.jpg",
            "first_name": "David",
            "real_name": "David Canat",
            "display_name": "David Canat",
            "team": "TUU48M0T1",
            "name": "dcanat",
            "is_restricted": false,
            "is_ultra_restricted": false
        },
        "blocks": [
            {
                "type": "rich_text",
                "block_id": "6sYX",
                "elements": [
                    {
                        "type": "rich_text_section",
                        "elements": [
                            {
                                "type": "text",
                                "text": "URGENT call for ppl in France with some knowledge or experience in "
                            },
                            {
                                "type": "text",
                                "text": "plasturgy",
                                "style": {
                                    "bold": true
                                }
                            },
                            {
                                "type": "text",
                                "text": " or "
                            },
                            {
                                "type": "text",
                                "text": "technical fabrics",
                                "style": {
                                    "bold": true
                                }
                            },
                            {
                                "type": "text",
                                "text": ". We need to get in touch with industrials asap, hopefully tomorrow Friday, to know their constraints and capabilities regarding "
                            },
                            {
                                "type": "text",
                                "text": "masks",
                                "style": {
                                    "bold": true
                                }
                            },
                            {
                                "type": "text",
                                "text": ". Groups in other jurisdictions are encouraged to do the same as well. Thx"
                            }
                        ]
                    }
                ]
            }
        ],
        "reactions": [
            {
                "name": "+1",
                "users": [
                    "UV02WET96"
                ],
                "count": 1
            }
        ]
    },
    {
        "client_msg_id": "61C774CA-9065-4DC5-BDA7-43FA255EDB0A",
        "type": "message",
        "text": "<!channel> ^",
        "user": "UV0QTJCMT",
        "ts": "1584663923.095600",
        "team": "TUU48M0T1",
        "user_team": "TUU48M0T1",
        "source_team": "TUU48M0T1",
        "user_profile": {
            "avatar_hash": "06a6ae8f69d1",
            "image_72": "https:\/\/avatars.slack-edge.com\/2020-04-13\/1060635499315_06a6ae8f69d18f1ad464_72.png",
            "first_name": "Katherine",
            "real_name": "Katherine Holo",
            "display_name": "Kat Holo - Co-Organizer of OpenCOVID19",
            "team": "TUU48M0T1",
            "name": "katherineh245",
            "is_restricted": false,
            "is_ultra_restricted": false
        },
        "blocks": [
            {
                "type": "rich_text",
                "block_id": "dAP",
                "elements": [
                    {
                        "type": "rich_text_section",
                        "elements": [
                            {
                                "type": "broadcast",
                                "range": "channel"
                            },
                            {
                                "type": "text",
                                "text": " ^"
                            }
                        ]
                    }
                ]
            }
        ]
    },
    {
        "client_msg_id": "5fb96b47-2075-4311-968a-aa87b28a38f9",
        "type": "message",
        "text": "<@UVBEDFNPJ> interesting but I would be suspicious of that. Here are some resources: The *SARS*-*CoV-2* is a large sized virus (approximately 120 *nm* in diameter).\n<https:\/\/www.researchgate.net\/post\/Do_you_use_022um_or_045um_filter_when_making_lentivirus>",
        "user": "U0103SR759U",
        "ts": "1584665958.095700",
        "team": "TUU48M0T1",
        "user_team": "TUU48M0T1",
        "source_team": "TUU48M0T1",
        "user_profile": {
            "avatar_hash": "g2694d379600",
            "image_72": "https:\/\/secure.gravatar.com\/avatar\/2694d3796008843d36d4b6ceff7f8660.jpg?s=72&d=https%3A%2F%2Fa.slack-edge.com%2Fdf10d%2Fimg%2Favatars%2Fava_0010-72.png",
            "first_name": "Adrian",
            "real_name": "Adrian Molecule",
            "display_name": "Adrian Molecule",
            "team": "TUU48M0T1",
            "name": "tada",
            "is_restricted": false,
            "is_ultra_restricted": false
        },
        "blocks": [
            {
                "type": "rich_text",
                "block_id": "A0v",
                "elements": [
                    {
                        "type": "rich_text_section",
                        "elements": [
                            {
                                "type": "user",
                                "user_id": "UVBEDFNPJ"
                            },
                            {
                                "type": "text",
                                "text": " interesting but I would be suspicious of that. Here are some resources: The "
                            },
                            {
                                "type": "text",
                                "text": "SARS",
                                "style": {
                                    "bold": true
                                }
                            },
                            {
                                "type": "text",
                                "text": "-"
                            },
                            {
                                "type": "text",
                                "text": "CoV-2",
                                "style": {
                                    "bold": true
                                }
                            },
                            {
                                "type": "text",
                                "text": " is a large sized virus (approximately 120 "
                            },
                            {
                                "type": "text",
                                "text": "nm",
                                "style": {
                                    "bold": true
                                }
                            },
                            {
                                "type": "text",
                                "text": " in diameter).\n"
                            },
                            {
                                "type": "link",
                                "url": "https:\/\/www.researchgate.net\/post\/Do_you_use_022um_or_045um_filter_when_making_lentivirus"
                            }
                        ]
                    }
                ]
            }
        ],
        "thread_ts": "1584631621.085000",
        "parent_user_id": "U0103SR759U"
    },
    {
        "type": "message",
        "text": "and the best one is",
        "files": [
            {
                "id": "F0100PFLZDY",
                "created": 1584665971,
                "timestamp": 1584665971,
                "name": "image.png",
                "title": "image.png",
                "mimetype": "image\/png",
                "filetype": "png",
                "pretty_type": "PNG",
                "user": "U0103SR759U",
                "editable": false,
                "size": 42321,
                "mode": "hosted",
                "is_external": false,
                "external_type": "",
                "is_public": true,
                "public_url_shared": false,
                "display_as_bot": false,
                "username": "",
                "url_private": "https:\/\/files.slack.com\/files-pri\/TUU48M0T1-F0100PFLZDY\/image.png?t=xoxe-980144714919-1106606678066-1105227127893-6f722bb664235052954ad46852628b64",
                "url_private_download": "https:\/\/files.slack.com\/files-pri\/TUU48M0T1-F0100PFLZDY\/download\/image.png?t=xoxe-980144714919-1106606678066-1105227127893-6f722bb664235052954ad46852628b64",
                "thumb_64": "https:\/\/files.slack.com\/files-tmb\/TUU48M0T1-F0100PFLZDY-1ccbba6fcb\/image_64.png?t=xoxe-980144714919-1106606678066-1105227127893-6f722bb664235052954ad46852628b64",
                "thumb_80": "https:\/\/files.slack.com\/files-tmb\/TUU48M0T1-F0100PFLZDY-1ccbba6fcb\/image_80.png?t=xoxe-980144714919-1106606678066-1105227127893-6f722bb664235052954ad46852628b64",
                "thumb_360": "https:\/\/files.slack.com\/files-tmb\/TUU48M0T1-F0100PFLZDY-1ccbba6fcb\/image_360.png?t=xoxe-980144714919-1106606678066-1105227127893-6f722bb664235052954ad46852628b64",
                "thumb_360_w": 360,
                "thumb_360_h": 196,
                "thumb_160": "https:\/\/files.slack.com\/files-tmb\/TUU48M0T1-F0100PFLZDY-1ccbba6fcb\/image_160.png?t=xoxe-980144714919-1106606678066-1105227127893-6f722bb664235052954ad46852628b64",
                "image_exif_rotation": 1,
                "original_w": 480,
                "original_h": 261,
                "thumb_tiny": "AwAaADDRbOcf1qORioGCRUjKCcmo5to2gUIBnmMe9HmN60maM+1UIlQllJJNSADH\/wBeo4Sdh471IM96kYtQz545qao5e1NAQYPr+lLT8D0owPSmIWIYBwvf1qYUyP7p+tPqRn\/\/2Q==",
                "permalink": "https:\/\/open-covid19.slack.com\/files\/U0103SR759U\/F0100PFLZDY\/image.png",
                "permalink_public": "https:\/\/slack-files.com\/TUU48M0T1-F0100PFLZDY-f486daa975",
                "is_starred": false,
                "has_rich_preview": false
            }
        ],
        "upload": true,
        "blocks": [
            {
                "type": "rich_text",
                "block_id": "L35",
                "elements": [
                    {
                        "type": "rich_text_section",
                        "elements": [
                            {
                                "type": "text",
                                "text": "and the best one is"
                            }
                        ]
                    }
                ]
            }
        ],
        "user": "U0103SR759U",
        "display_as_bot": false,
        "ts": "1584665974.095900",
        "client_msg_id": "9266ea05-cb3b-4ea4-8850-925367283af4",
        "thread_ts": "1584631621.085000",
        "parent_user_id": "U0103SR759U"
    },
    {
        "client_msg_id": "cd55bcad-5ffd-4baf-9199-f30bd415fedf",
        "type": "message",
        "text": "also this article is pretty good: <https:\/\/www.sciencedirect.com\/topics\/engineering\/high-efficiency-particulate-air-filter>",
        "user": "U0103SR759U",
        "ts": "1584666700.096300",
        "team": "TUU48M0T1",
        "user_team": "TUU48M0T1",
        "source_team": "TUU48M0T1",
        "user_profile": {
            "avatar_hash": "g2694d379600",
            "image_72": "https:\/\/secure.gravatar.com\/avatar\/2694d3796008843d36d4b6ceff7f8660.jpg?s=72&d=https%3A%2F%2Fa.slack-edge.com%2Fdf10d%2Fimg%2Favatars%2Fava_0010-72.png",
            "first_name": "Adrian",
            "real_name": "Adrian Molecule",
            "display_name": "Adrian Molecule",
            "team": "TUU48M0T1",
            "name": "tada",
            "is_restricted": false,
            "is_ultra_restricted": false
        },
        "blocks": [
            {
                "type": "rich_text",
                "block_id": "FV8lH",
                "elements": [
                    {
                        "type": "rich_text_section",
                        "elements": [
                            {
                                "type": "text",
                                "text": "also this article is pretty good: "
                            },
                            {
                                "type": "link",
                                "url": "https:\/\/www.sciencedirect.com\/topics\/engineering\/high-efficiency-particulate-air-filter"
                            }
                        ]
                    }
                ]
            }
        ],
        "thread_ts": "1584631621.085000",
        "parent_user_id": "U0103SR759U"
    }
]