[
    {
        "client_msg_id": "8365a2c2-d84f-4d0a-99d6-9a6b71b1584e",
        "type": "message",
        "text": "<https:\/\/www.3dprintingmedia.network\/covid-19-3d-printed-valve-for-reanimation-device\/>",
        "user": "U0100AN3E9J",
        "ts": "1584345241.022800",
        "team": "TUU48M0T1",
        "user_team": "TUU48M0T1",
        "source_team": "TUU48M0T1",
        "user_profile": {
            "avatar_hash": "ga85b00f9b08",
            "image_72": "https:\/\/secure.gravatar.com\/avatar\/a85b00f9b0879618ac76e6aff39cfb7b.jpg?s=72&d=https%3A%2F%2Fa.slack-edge.com%2Fdf10d%2Fimg%2Favatars%2Fava_0008-72.png",
            "first_name": "Justin",
            "real_name": "Justin",
            "display_name": "",
            "team": "TUU48M0T1",
            "name": "alohadesignwork",
            "is_restricted": false,
            "is_ultra_restricted": false
        },
        "attachments": [
            {
                "service_name": "3D Printing Media Network",
                "title": "Italian hospital saves Covid-19 patients lives by 3D printing valves for reanimation devices",
                "title_link": "https:\/\/www.3dprintingmedia.network\/covid-19-3d-printed-valve-for-reanimation-device\/",
                "text": "Many have been asking what the implications of the current Covid-19 pandemic are going to be on additive manufacturing as an industry. The relationship between coronavirus and 3D printing is not entirely clear, mostly because we are very far from understanding what the long, medium and even short terms implications of the pandemic are going to be on global supply chains. Additive manufacturing may be able to play a role in helping to support industrial supply chains that are affected by limitations on traditional production and imports. One thing is for sure though: 3D printing can have an immediate beneficial",
                "fallback": "3D Printing Media Network: Italian hospital saves Covid-19 patients lives by 3D printing valves for reanimation devices",
                "image_url": "https:\/\/www.3dprintingmedia.network\/wp-content\/uploads\/2020\/03\/isinova-3d-print-e1584221514939.jpg",
                "ts": 1584222534,
                "from_url": "https:\/\/www.3dprintingmedia.network\/covid-19-3d-printed-valve-for-reanimation-device\/",
                "image_width": 326,
                "image_height": 250,
                "image_bytes": 63905,
                "service_icon": "https:\/\/www.3dprintingmedia.network\/wp-content\/uploads\/2020\/03\/cropped-favicon-7-180x180.png",
                "id": 1,
                "original_url": "https:\/\/www.3dprintingmedia.network\/covid-19-3d-printed-valve-for-reanimation-device\/"
            }
        ],
        "blocks": [
            {
                "type": "rich_text",
                "block_id": "x4l",
                "elements": [
                    {
                        "type": "rich_text_section",
                        "elements": [
                            {
                                "type": "link",
                                "url": "https:\/\/www.3dprintingmedia.network\/covid-19-3d-printed-valve-for-reanimation-device\/"
                            }
                        ]
                    }
                ]
            }
        ]
    },
    {
        "type": "message",
        "subtype": "channel_join",
        "ts": "1584354758.023100",
        "user": "UVDRADWTE",
        "text": "<@UVDRADWTE> has joined the channel"
    },
    {
        "type": "message",
        "subtype": "channel_join",
        "ts": "1584355854.023300",
        "user": "UV6870881",
        "text": "<@UV6870881> has joined the channel"
    },
    {
        "type": "message",
        "subtype": "channel_join",
        "ts": "1584358205.023500",
        "user": "U01016B7KPY",
        "text": "<@U01016B7KPY> has joined the channel"
    },
    {
        "client_msg_id": "88611e66-a44b-427c-9a29-d367226abac5",
        "type": "message",
        "text": "I also love Onshape! But don't know how much are we implicated with open knowledge\/opensource.\n\nAs we are supporting this kind of initiatives maybe we could think in some open-source alternative (openSCAD, freeCAD, KiCAD for PCB design...).\n\nI know that the collaborative features are amazing! and it's free, so it's up to you to decide if we are truly open source supporters or we just prefer to be practical over the ethic codes!",
        "user": "UV3URUKK5",
        "ts": "1584360206.023700",
        "team": "TUU48M0T1",
        "user_team": "TUU48M0T1",
        "source_team": "TUU48M0T1",
        "user_profile": {
            "avatar_hash": "64c99c2ed974",
            "image_72": "https:\/\/avatars.slack-edge.com\/2020-03-15\/1000999702004_64c99c2ed97497e08ca9_72.jpg",
            "first_name": "",
            "real_name": "Francisco Javier Quero",
            "display_name": "Francisco Javier Quero",
            "team": "TUU48M0T1",
            "name": "franxi2953",
            "is_restricted": false,
            "is_ultra_restricted": false
        },
        "edited": {
            "user": "UV3URUKK5",
            "ts": "1584360382.000000"
        },
        "blocks": [
            {
                "type": "rich_text",
                "block_id": "4eEk",
                "elements": [
                    {
                        "type": "rich_text_section",
                        "elements": [
                            {
                                "type": "text",
                                "text": "I also love Onshape! But don't know how much are we implicated with open knowledge\/opensource.\n\nAs we are supporting this kind of initiatives maybe we could think in some open-source alternative (openSCAD, freeCAD, KiCAD for PCB design...).\n\nI know that the collaborative features are amazing! and it's free, so it's up to you to decide if we are truly open source supporters or we just prefer to be practical over the ethic codes!"
                            }
                        ]
                    }
                ]
            }
        ],
        "thread_ts": "1584320016.019300",
        "parent_user_id": "U0100AN3E9J"
    },
    {
        "type": "message",
        "subtype": "channel_join",
        "ts": "1584361903.024100",
        "user": "UUYTLGUFL",
        "text": "<@UUYTLGUFL> has joined the channel"
    },
    {
        "type": "message",
        "subtype": "channel_join",
        "ts": "1584364191.024300",
        "user": "UV3T7JS4A",
        "text": "<@UV3T7JS4A> has joined the channel"
    },
    {
        "type": "message",
        "subtype": "channel_join",
        "ts": "1584377199.024500",
        "user": "U0105HLPPV4",
        "text": "<@U0105HLPPV4> has joined the channel"
    },
    {
        "type": "message",
        "subtype": "channel_join",
        "ts": "1584377733.024700",
        "user": "UV5EETE1Z",
        "text": "<@UV5EETE1Z> has joined the channel"
    },
    {
        "client_msg_id": "6b49af2c-952a-410d-a261-e348d80d94ab",
        "type": "message",
        "text": "Aloha Francisco-\nThanks for the response. Good points you bring up. At this moment, I can't commit too much time to this endeavor beyond checking in occasionally and providing what I can, so we will see how things will evolve\/emerge. :slightly_smiling_face: I guess whoever has the bandwidth to lead any development will have to make the call on that.",
        "user": "U0100AN3E9J",
        "ts": "1584384052.024800",
        "team": "TUU48M0T1",
        "user_team": "TUU48M0T1",
        "source_team": "TUU48M0T1",
        "user_profile": {
            "avatar_hash": "ga85b00f9b08",
            "image_72": "https:\/\/secure.gravatar.com\/avatar\/a85b00f9b0879618ac76e6aff39cfb7b.jpg?s=72&d=https%3A%2F%2Fa.slack-edge.com%2Fdf10d%2Fimg%2Favatars%2Fava_0008-72.png",
            "first_name": "Justin",
            "real_name": "Justin",
            "display_name": "",
            "team": "TUU48M0T1",
            "name": "alohadesignwork",
            "is_restricted": false,
            "is_ultra_restricted": false
        },
        "blocks": [
            {
                "type": "rich_text",
                "block_id": "qhU",
                "elements": [
                    {
                        "type": "rich_text_section",
                        "elements": [
                            {
                                "type": "text",
                                "text": "Aloha Francisco-\nThanks for the response. Good points you bring up. At this moment, I can't commit too much time to this endeavor beyond checking in occasionally and providing what I can, so we will see how things will evolve\/emerge. "
                            },
                            {
                                "type": "emoji",
                                "name": "slightly_smiling_face"
                            },
                            {
                                "type": "text",
                                "text": " I guess whoever has the bandwidth to lead any development will have to make the call on that."
                            }
                        ]
                    }
                ]
            }
        ],
        "thread_ts": "1584320016.019300",
        "parent_user_id": "U0100AN3E9J",
        "reactions": [
            {
                "name": "heart",
                "users": [
                    "UV3URUKK5"
                ],
                "count": 1
            }
        ]
    },
    {
        "type": "message",
        "subtype": "channel_join",
        "ts": "1584396728.025100",
        "user": "UVADMLUB0",
        "text": "<@UVADMLUB0> has joined the channel"
    },
    {
        "client_msg_id": "78aa4c26-a3ce-44c0-967a-8fd9bc53a926",
        "type": "message",
        "text": "<!channel> sent a similar message to the developer group, but i think it'd be great for this group to have a call this week to figure out everyone's skill sets, interests, and determine a purpose for this group and brainstorm possible hardware\/device-specific projects to work on. since this is a small group (for now) as compared to the developer group, *if you could respond to this thread with your location and what times (morning, afternoon, evening) on _friday_ and _saturday_ work for you*, that would be much appreciated!",
        "user": "UV0QTJCMT",
        "ts": "1584421277.027900",
        "team": "TUU48M0T1",
        "user_team": "TUU48M0T1",
        "source_team": "TUU48M0T1",
        "user_profile": {
            "avatar_hash": "06a6ae8f69d1",
            "image_72": "https:\/\/avatars.slack-edge.com\/2020-04-13\/1060635499315_06a6ae8f69d18f1ad464_72.png",
            "first_name": "Katherine",
            "real_name": "Katherine Holo",
            "display_name": "Kat Holo - Co-Organizer of OpenCOVID19",
            "team": "TUU48M0T1",
            "name": "katherineh245",
            "is_restricted": false,
            "is_ultra_restricted": false
        },
        "blocks": [
            {
                "type": "rich_text",
                "block_id": "Y6NTw",
                "elements": [
                    {
                        "type": "rich_text_section",
                        "elements": [
                            {
                                "type": "broadcast",
                                "range": "channel"
                            },
                            {
                                "type": "text",
                                "text": " sent a similar message to the developer group, but i think it'd be great for this group to have a call this week to figure out everyone's skill sets, interests, and determine a purpose for this group and brainstorm possible hardware\/device-specific projects to work on. since this is a small group (for now) as compared to the developer group, "
                            },
                            {
                                "type": "text",
                                "text": "if you could respond to this thread with your location and what times (morning, afternoon, evening) on ",
                                "style": {
                                    "bold": true
                                }
                            },
                            {
                                "type": "text",
                                "text": "friday ",
                                "style": {
                                    "bold": true,
                                    "italic": true
                                }
                            },
                            {
                                "type": "text",
                                "text": "and ",
                                "style": {
                                    "bold": true
                                }
                            },
                            {
                                "type": "text",
                                "text": "saturday ",
                                "style": {
                                    "bold": true,
                                    "italic": true
                                }
                            },
                            {
                                "type": "text",
                                "text": "work for you",
                                "style": {
                                    "bold": true
                                }
                            },
                            {
                                "type": "text",
                                "text": ", that would be much appreciated!"
                            }
                        ]
                    }
                ]
            }
        ],
        "thread_ts": "1584421277.027900",
        "reply_count": 21,
        "reply_users_count": 11,
        "latest_reply": "1584813424.008300",
        "reply_users": [
            "UV0QTJCMT",
            "UV2P3AQEN",
            "UV3URUKK5",
            "UVADMLUB0",
            "UV7CJF9SN",
            "UVA8VCCP5",
            "U0106PLV8PJ",
            "U0108C2Q332",
            "U0107NS25A4",
            "U0109G7NH0D",
            "UV8FL0JCA"
        ],
        "replies": [
            {
                "user": "UV0QTJCMT",
                "ts": "1584421315.028000"
            },
            {
                "user": "UV2P3AQEN",
                "ts": "1584437783.035300"
            },
            {
                "user": "UV3URUKK5",
                "ts": "1584451561.035800"
            },
            {
                "user": "UVADMLUB0",
                "ts": "1584454180.036100"
            },
            {
                "user": "UV7CJF9SN",
                "ts": "1584461953.038400"
            },
            {
                "user": "UVA8VCCP5",
                "ts": "1584508564.040200"
            },
            {
                "user": "UV0QTJCMT",
                "ts": "1584519318.043000"
            },
            {
                "user": "UV2P3AQEN",
                "ts": "1584527717.043400"
            },
            {
                "user": "U0106PLV8PJ",
                "ts": "1584529480.043600"
            },
            {
                "user": "U0108C2Q332",
                "ts": "1584537976.043900"
            },
            {
                "user": "U0107NS25A4",
                "ts": "1584544718.044400"
            },
            {
                "user": "UVA8VCCP5",
                "ts": "1584545739.045100"
            },
            {
                "user": "U0109G7NH0D",
                "ts": "1584553336.045800"
            },
            {
                "user": "UV2P3AQEN",
                "ts": "1584560636.046200"
            },
            {
                "user": "UV0QTJCMT",
                "ts": "1584561367.047900"
            },
            {
                "user": "UV8FL0JCA",
                "ts": "1584566967.048200"
            },
            {
                "user": "UV2P3AQEN",
                "ts": "1584607139.063900"
            },
            {
                "user": "UV0QTJCMT",
                "ts": "1584629905.077300"
            },
            {
                "user": "UV2P3AQEN",
                "ts": "1584629932.077500"
            },
            {
                "user": "U0108C2Q332",
                "ts": "1584812993.007500"
            },
            {
                "user": "UV2P3AQEN",
                "ts": "1584813424.008300"
            }
        ],
        "subscribed": false
    },
    {
        "client_msg_id": "d49e3182-100e-48fe-bde0-4b1547d11ca3",
        "type": "message",
        "text": "I'm based in Seattle, WA, USA and Friday afternoon and all of Saturday I'm available to call",
        "user": "UV0QTJCMT",
        "ts": "1584421315.028000",
        "team": "TUU48M0T1",
        "user_team": "TUU48M0T1",
        "source_team": "TUU48M0T1",
        "user_profile": {
            "avatar_hash": "06a6ae8f69d1",
            "image_72": "https:\/\/avatars.slack-edge.com\/2020-04-13\/1060635499315_06a6ae8f69d18f1ad464_72.png",
            "first_name": "Katherine",
            "real_name": "Katherine Holo",
            "display_name": "Kat Holo - Co-Organizer of OpenCOVID19",
            "team": "TUU48M0T1",
            "name": "katherineh245",
            "is_restricted": false,
            "is_ultra_restricted": false
        },
        "blocks": [
            {
                "type": "rich_text",
                "block_id": "sNOj",
                "elements": [
                    {
                        "type": "rich_text_section",
                        "elements": [
                            {
                                "type": "text",
                                "text": "I'm based in Seattle, WA, USA and Friday afternoon and all of Saturday I'm available to call"
                            }
                        ]
                    }
                ]
            }
        ],
        "thread_ts": "1584421277.027900",
        "parent_user_id": "UV0QTJCMT"
    },
    {
        "type": "message",
        "subtype": "channel_join",
        "ts": "1584424990.028300",
        "user": "U0106VDVAQ6",
        "text": "<@U0106VDVAQ6> has joined the channel"
    },
    {
        "client_msg_id": "1f232df7-59c2-4e38-8f30-ebb828aa9c95",
        "type": "message",
        "text": "Hi, together with 3 uni labs I'm testing printed masks, which is an emergency necessity in Belgium. We need knowledge on how to make the mask fit better, materials to use for printing that can be cleaned in autoclave, tissue filters that can be used. <https:\/\/cults3d.com\/en\/3d-model\/gadget\/mask-mask?fbclid=IwAR0CS1zEmX6sEWNoR1oGAmAeFecNEbC3jYZESjd0EaDraTp7vsjW2naRrlQ|https:\/\/cults3d.com\/en\/3d-model\/gadget\/mask-mask?fbclid=IwAR0CS1zEmX6sEWNoR1oGAmAeFecNEbC3jYZESjd0EaDraTp7vsjW2naRrlQ>",
        "user": "U0106VDVAQ6",
        "ts": "1584425207.031700",
        "team": "TUU48M0T1",
        "user_team": "TUU48M0T1",
        "source_team": "TUU48M0T1",
        "user_profile": {
            "avatar_hash": "gcb646d37b14",
            "image_72": "https:\/\/secure.gravatar.com\/avatar\/cb646d37b14b4cc616c4ac5cf95808ed.jpg?s=72&d=https%3A%2F%2Fa.slack-edge.com%2Fdf10d%2Fimg%2Favatars%2Fava_0009-72.png",
            "first_name": "",
            "real_name": "Evita",
            "display_name": "",
            "team": "TUU48M0T1",
            "name": "evi",
            "is_restricted": false,
            "is_ultra_restricted": false
        },
        "attachments": [
            {
                "service_name": "Cults.",
                "title": "Mask adapter, Surgery mask",
                "title_link": "https:\/\/cults3d.com\/en\/3d-model\/gadget\/mask-mask?fbclid=IwAR0CS1zEmX6sEWNoR1oGAmAeFecNEbC3jYZESjd0EaDraTp7vsjW2naRrlQ",
                "text": "If you cant buy a face mask try this.. (11 March 2020) Dust mask. V1.0 This product with total 3 parts Mask Body, Mask Cover, Mask pin Mask cloth: can use non woven cloth, Wet tissue, Napkin Liner, Cotton cloth, microfiber, etc as filter cloth. Assemble video in youtube : <https:\/\/www.youtube.com\/watch?v=zlUNBsXnAQ8> Precaution.. -Soak with cleaner entirely mask, after\/before when replacing the filter cloth. -Fit nicely. -if you print for kid or old folk, please take further precaution of their comfortable\/needed volume of air for breath(respiration) Keep in mind that, this is dust mask, filtration determine by cloth filter, 3Dprint quality and shape of your face . Keep hands clean (wash often), Avoid crowd, avoid hand touching face ------------------ Print for own use only, contact me for mass print (<mailto:mythonng@gmail.com|mythonng@gmail.com>) ------------------- <https:\/\/cults3d.com\/en\/3d-model\/gadget\/sample-of-mask-adapter-contour> Simple mask design (single piece) <https:\/\/cults3d.com\/en\/3d-model\/gadget\/simple-dust-mask-surgery-mask> Support and little push for my work <https:\/\/paypal.me\/ThonNg?locale.x=en_US> Thanks in advance! (After printed and used, if work, please help to spread in your social media, let them know they can get little help\/protection from this print product). .. and dont forget to like and stars",
                "fallback": "Cults.: Mask adapter, Surgery mask",
                "thumb_url": "https:\/\/files.cults3d.com\/uploaders\/14024477\/illustration-file\/c222e84f-bb10-4189-bcc3-6dbea4152aad\/Visual_large.png",
                "from_url": "https:\/\/cults3d.com\/en\/3d-model\/gadget\/mask-mask?fbclid=IwAR0CS1zEmX6sEWNoR1oGAmAeFecNEbC3jYZESjd0EaDraTp7vsjW2naRrlQ",
                "thumb_width": 516,
                "thumb_height": 516,
                "service_icon": "https:\/\/assets.cults3d.com\/assets\/favicons\/cults-8b86bca460ece165f3132f09fb73eadb48db60a34b7440caf6a8dbea60d43d26.ico",
                "id": 1,
                "original_url": "https:\/\/cults3d.com\/en\/3d-model\/gadget\/mask-mask?fbclid=IwAR0CS1zEmX6sEWNoR1oGAmAeFecNEbC3jYZESjd0EaDraTp7vsjW2naRrlQ"
            }
        ],
        "blocks": [
            {
                "type": "rich_text",
                "block_id": "EFz",
                "elements": [
                    {
                        "type": "rich_text_section",
                        "elements": [
                            {
                                "type": "text",
                                "text": "Hi, together with 3 uni labs I'm testing printed masks, which is an emergency necessity in Belgium. We need knowledge on how to make the mask fit better, materials to use for printing that can be cleaned in autoclave, tissue filters that can be used. "
                            },
                            {
                                "type": "link",
                                "url": "https:\/\/cults3d.com\/en\/3d-model\/gadget\/mask-mask?fbclid=IwAR0CS1zEmX6sEWNoR1oGAmAeFecNEbC3jYZESjd0EaDraTp7vsjW2naRrlQ",
                                "text": "https:\/\/cults3d.com\/en\/3d-model\/gadget\/mask-mask?fbclid=IwAR0CS1zEmX6sEWNoR1oGAmAeFecNEbC3jYZESjd0EaDraTp7vsjW2naRrlQ"
                            }
                        ]
                    }
                ]
            }
        ]
    },
    {
        "client_msg_id": "07230e0e-0a1e-4837-b124-2179532e4b01",
        "type": "message",
        "text": "What would you suggest in terms of the design here shared. I can send the files also.",
        "user": "U0106VDVAQ6",
        "ts": "1584425285.032900",
        "team": "TUU48M0T1",
        "user_team": "TUU48M0T1",
        "source_team": "TUU48M0T1",
        "user_profile": {
            "avatar_hash": "gcb646d37b14",
            "image_72": "https:\/\/secure.gravatar.com\/avatar\/cb646d37b14b4cc616c4ac5cf95808ed.jpg?s=72&d=https%3A%2F%2Fa.slack-edge.com%2Fdf10d%2Fimg%2Favatars%2Fava_0009-72.png",
            "first_name": "",
            "real_name": "Evita",
            "display_name": "",
            "team": "TUU48M0T1",
            "name": "evi",
            "is_restricted": false,
            "is_ultra_restricted": false
        },
        "blocks": [
            {
                "type": "rich_text",
                "block_id": "YD6",
                "elements": [
                    {
                        "type": "rich_text_section",
                        "elements": [
                            {
                                "type": "text",
                                "text": "What would you suggest in terms of the design here shared. I can send the files also."
                            }
                        ]
                    }
                ]
            }
        ]
    }
]