[
    {
        "client_msg_id": "a60e38bb-9a11-4ecd-be4e-44d233a2551a",
        "type": "message",
        "text": "That was our doubt all this time with the mammoth protocol... I think it's because they want to spread they DETECTR system. I think that their argument is to use CRISPR to get rid of all the lamp false positives, but as your both experiments are demonstrating, just to don't open the tubes is enough right?",
        "user": "UV3URUKK5",
        "ts": "1586607104.127800",
        "team": "TUU48M0T1",
        "user_team": "TUU48M0T1",
        "source_team": "TUU48M0T1",
        "user_profile": {
            "avatar_hash": "64c99c2ed974",
            "image_72": "https:\/\/avatars.slack-edge.com\/2020-03-15\/1000999702004_64c99c2ed97497e08ca9_72.jpg",
            "first_name": "",
            "real_name": "Francisco Javier Quero",
            "display_name": "Francisco Javier Quero",
            "team": "TUU48M0T1",
            "name": "franxi2953",
            "is_restricted": false,
            "is_ultra_restricted": false
        },
        "edited": {
            "user": "UV3URUKK5",
            "ts": "1586607126.000000"
        },
        "blocks": [
            {
                "type": "rich_text",
                "block_id": "FDKy",
                "elements": [
                    {
                        "type": "rich_text_section",
                        "elements": [
                            {
                                "type": "text",
                                "text": "That was our doubt all this time with the mammoth protocol... I think it's because they want to spread they DETECTR system. I think that their argument is to use CRISPR to get rid of all the lamp false positives, but as your both experiments are demonstrating, just to don't open the tubes is enough right?"
                            }
                        ]
                    }
                ]
            }
        ],
        "thread_ts": "1586566194.125600",
        "parent_user_id": "UV10KBUQG",
        "reactions": [
            {
                "name": "heavy_check_mark",
                "users": [
                    "UV10KBUQG",
                    "UVALZTQ58"
                ],
                "count": 2
            }
        ]
    },
    {
        "client_msg_id": "fe0909fb-941e-4630-90c1-42f35dd38484",
        "type": "message",
        "text": "That's my guess",
        "user": "UUPQGNNTV",
        "ts": "1586607180.128200",
        "team": "TUU48M0T1",
        "user_team": "TUU48M0T1",
        "source_team": "TUU48M0T1",
        "user_profile": {
            "avatar_hash": "c28127caf7eb",
            "image_72": "https:\/\/avatars.slack-edge.com\/2020-03-07\/989562470694_c28127caf7ebfe67df97_72.jpg",
            "first_name": "",
            "real_name": "Ellen Jorgensen",
            "display_name": "",
            "team": "TUU48M0T1",
            "name": "ejorgensen",
            "is_restricted": false,
            "is_ultra_restricted": false
        },
        "thread_ts": "1586566194.125600",
        "parent_user_id": "UV10KBUQG",
        "reactions": [
            {
                "name": "heavy_check_mark",
                "users": [
                    "UV10KBUQG"
                ],
                "count": 1
            }
        ]
    },
    {
        "client_msg_id": "4967bf67-1f36-4416-826d-f9c838023c66",
        "type": "message",
        "text": "as far i read (<https:\/\/www.fda.gov\/media\/134922\/download>) CDC qRT-PCR is reported by FDA to have a LOD between 1 and 10^0.5 copies\/uL. Still far from our results, but with a purification step from the sample (as the one they used) we could reach it, right?",
        "user": "UV3URUKK5",
        "ts": "1586607383.130400",
        "team": "TUU48M0T1",
        "user_team": "TUU48M0T1",
        "source_team": "TUU48M0T1",
        "user_profile": {
            "avatar_hash": "64c99c2ed974",
            "image_72": "https:\/\/avatars.slack-edge.com\/2020-03-15\/1000999702004_64c99c2ed97497e08ca9_72.jpg",
            "first_name": "",
            "real_name": "Francisco Javier Quero",
            "display_name": "Francisco Javier Quero",
            "team": "TUU48M0T1",
            "name": "franxi2953",
            "is_restricted": false,
            "is_ultra_restricted": false
        },
        "edited": {
            "user": "UV3URUKK5",
            "ts": "1586607518.000000"
        },
        "blocks": [
            {
                "type": "rich_text",
                "block_id": "YdV+=",
                "elements": [
                    {
                        "type": "rich_text_section",
                        "elements": [
                            {
                                "type": "text",
                                "text": "as far i read ("
                            },
                            {
                                "type": "link",
                                "url": "https:\/\/www.fda.gov\/media\/134922\/download"
                            },
                            {
                                "type": "text",
                                "text": ") CDC qRT-PCR is reported by FDA to have a LOD between 1 and 10^0.5 copies\/uL. Still far from our results, but with a purification step from the sample (as the one they used) we could reach it, right?"
                            }
                        ]
                    }
                ]
            }
        ],
        "thread_ts": "1586607383.130400",
        "reply_count": 3,
        "reply_users_count": 2,
        "latest_reply": "1586629143.140100",
        "reply_users": [
            "UV3URUKK5",
            "UV10KBUQG"
        ],
        "replies": [
            {
                "user": "UV3URUKK5",
                "ts": "1586607443.130500"
            },
            {
                "user": "UV10KBUQG",
                "ts": "1586629022.139800"
            },
            {
                "user": "UV10KBUQG",
                "ts": "1586629143.140100"
            }
        ],
        "subscribed": false,
        "reactions": [
            {
                "name": "+1",
                "users": [
                    "UUNGFHSV8",
                    "UV10KBUQG"
                ],
                "count": 2
            }
        ]
    },
    {
        "type": "message",
        "text": "",
        "files": [
            {
                "id": "F011P9QQUPP",
                "created": 1586607439,
                "timestamp": 1586607439,
                "name": "image.png",
                "title": "image.png",
                "mimetype": "image\/png",
                "filetype": "png",
                "pretty_type": "PNG",
                "user": "UV3URUKK5",
                "editable": false,
                "size": 54606,
                "mode": "hosted",
                "is_external": false,
                "external_type": "",
                "is_public": true,
                "public_url_shared": false,
                "display_as_bot": false,
                "username": "",
                "url_private": "https:\/\/files.slack.com\/files-pri\/TUU48M0T1-F011P9QQUPP\/image.png?t=xoxe-980144714919-1106606678066-1105227127893-6f722bb664235052954ad46852628b64",
                "url_private_download": "https:\/\/files.slack.com\/files-pri\/TUU48M0T1-F011P9QQUPP\/download\/image.png?t=xoxe-980144714919-1106606678066-1105227127893-6f722bb664235052954ad46852628b64",
                "thumb_64": "https:\/\/files.slack.com\/files-tmb\/TUU48M0T1-F011P9QQUPP-5bb6574cb6\/image_64.png?t=xoxe-980144714919-1106606678066-1105227127893-6f722bb664235052954ad46852628b64",
                "thumb_80": "https:\/\/files.slack.com\/files-tmb\/TUU48M0T1-F011P9QQUPP-5bb6574cb6\/image_80.png?t=xoxe-980144714919-1106606678066-1105227127893-6f722bb664235052954ad46852628b64",
                "thumb_360": "https:\/\/files.slack.com\/files-tmb\/TUU48M0T1-F011P9QQUPP-5bb6574cb6\/image_360.png?t=xoxe-980144714919-1106606678066-1105227127893-6f722bb664235052954ad46852628b64",
                "thumb_360_w": 360,
                "thumb_360_h": 101,
                "thumb_480": "https:\/\/files.slack.com\/files-tmb\/TUU48M0T1-F011P9QQUPP-5bb6574cb6\/image_480.png?t=xoxe-980144714919-1106606678066-1105227127893-6f722bb664235052954ad46852628b64",
                "thumb_480_w": 480,
                "thumb_480_h": 134,
                "thumb_160": "https:\/\/files.slack.com\/files-tmb\/TUU48M0T1-F011P9QQUPP-5bb6574cb6\/image_160.png?t=xoxe-980144714919-1106606678066-1105227127893-6f722bb664235052954ad46852628b64",
                "thumb_720": "https:\/\/files.slack.com\/files-tmb\/TUU48M0T1-F011P9QQUPP-5bb6574cb6\/image_720.png?t=xoxe-980144714919-1106606678066-1105227127893-6f722bb664235052954ad46852628b64",
                "thumb_720_w": 720,
                "thumb_720_h": 201,
                "image_exif_rotation": 1,
                "original_w": 783,
                "original_h": 219,
                "thumb_tiny": "AwANADDSYDqe1NAUjoKcRnvSbT6\/pQAg2kkYFNIO7AUY+lP2n1\/SjafX9KAGEMv3QPyqRc4560m0\/wB79KUA560Af\/\/Z",
                "permalink": "https:\/\/open-covid19.slack.com\/files\/UV3URUKK5\/F011P9QQUPP\/image.png",
                "permalink_public": "https:\/\/slack-files.com\/TUU48M0T1-F011P9QQUPP-2f707b67d5",
                "is_starred": false,
                "has_rich_preview": false
            }
        ],
        "upload": true,
        "user": "UV3URUKK5",
        "display_as_bot": false,
        "ts": "1586607443.130500",
        "client_msg_id": "b7270364-96d1-4d5f-a432-f7703ae63d01",
        "thread_ts": "1586607383.130400",
        "parent_user_id": "UV3URUKK5"
    },
    {
        "client_msg_id": "1EA21314-F8D1-4B79-BD6A-25BD89E0DE79",
        "type": "message",
        "text": "Hi All.\nGreat job you all are doing with this project!\n\n2 quick questions:\n\n1 - I think I heard <@UV1A22N3W> mention in the community call that the PH-based colorimetric approach of the NEB kit may be a barrier for Lyophilization. Would the LCV (Leuco Crystal Violet) dye used in the Penn-RAMP white paper be a valid alternative?\n\n2 - Anyone has some spare LAMP mixes and would be willing to resell it? Or, would be able to get me hands on some quickly (I will pay out of pocket). NEB’s reseller in Brazil is saying 30 days and charging a high markup.\n\nThanks a lot in advance!",
        "user": "U011CQ8C9GU",
        "ts": "1586628858.139700",
        "team": "TUU48M0T1",
        "user_team": "TUU48M0T1",
        "source_team": "TUU48M0T1",
        "user_profile": {
            "avatar_hash": "gdcb756e9933",
            "image_72": "https:\/\/secure.gravatar.com\/avatar\/dcb756e9933ef89b8ef8a41fa8474850.jpg?s=72&d=https%3A%2F%2Fa.slack-edge.com%2Fdf10d%2Fimg%2Favatars%2Fava_0017-72.png",
            "first_name": "",
            "real_name": "Tadeu Rocha",
            "display_name": "Tadeu Rocha",
            "team": "TUU48M0T1",
            "name": "tadeu.acr",
            "is_restricted": false,
            "is_ultra_restricted": false
        },
        "thread_ts": "1586628858.139700",
        "reply_count": 10,
        "reply_users_count": 4,
        "latest_reply": "1586850016.160000",
        "reply_users": [
            "UV3URUKK5",
            "UV1A22N3W",
            "U010DG4358Q",
            "UV7LUJG1Y"
        ],
        "replies": [
            {
                "user": "UV3URUKK5",
                "ts": "1586632655.140600"
            },
            {
                "user": "UV1A22N3W",
                "ts": "1586673353.142600"
            },
            {
                "user": "U010DG4358Q",
                "ts": "1586777314.143300"
            },
            {
                "user": "U010DG4358Q",
                "ts": "1586777317.143700"
            },
            {
                "user": "U010DG4358Q",
                "ts": "1586777937.144000"
            },
            {
                "user": "U010DG4358Q",
                "ts": "1586778510.144300"
            },
            {
                "user": "UV1A22N3W",
                "ts": "1586846858.156400"
            },
            {
                "user": "UV7LUJG1Y",
                "ts": "1586849851.159500"
            },
            {
                "user": "UV7LUJG1Y",
                "ts": "1586849899.159700"
            },
            {
                "user": "UV1A22N3W",
                "ts": "1586850016.160000"
            }
        ],
        "subscribed": false
    },
    {
        "client_msg_id": "5c9ce117-4a29-4f8b-926e-daf1722c6f01",
        "type": "message",
        "text": "Well, this is far from our results, but I guess other tests are being ok'd by the CDC for higher LODs.",
        "user": "UV10KBUQG",
        "ts": "1586629022.139800",
        "team": "TUU48M0T1",
        "user_team": "TUU48M0T1",
        "source_team": "TUU48M0T1",
        "user_profile": {
            "avatar_hash": "2deebbf6be3d",
            "image_72": "https:\/\/avatars.slack-edge.com\/2020-03-06\/976932190641_2deebbf6be3d17141d91_72.jpg",
            "first_name": "Sarah",
            "real_name": "Sarah Blossom Ware",
            "display_name": "Sarah Blossom Ware - BioBlaze Community Bio Lab",
            "team": "TUU48M0T1",
            "name": "ware.sarah",
            "is_restricted": false,
            "is_ultra_restricted": false
        },
        "blocks": [
            {
                "type": "rich_text",
                "block_id": "a3N",
                "elements": [
                    {
                        "type": "rich_text_section",
                        "elements": [
                            {
                                "type": "text",
                                "text": "Well, this is far from our results, but I guess other tests are being ok'd by the CDC for higher LODs."
                            }
                        ]
                    }
                ]
            }
        ],
        "thread_ts": "1586607383.130400",
        "parent_user_id": "UV3URUKK5"
    },
    {
        "client_msg_id": "20ce4693-fc1f-4310-b6b4-fb08755bbb7f",
        "type": "message",
        "text": "I will read about the purification step :slightly_smiling_face:",
        "user": "UV10KBUQG",
        "ts": "1586629143.140100",
        "team": "TUU48M0T1",
        "user_team": "TUU48M0T1",
        "source_team": "TUU48M0T1",
        "user_profile": {
            "avatar_hash": "2deebbf6be3d",
            "image_72": "https:\/\/avatars.slack-edge.com\/2020-03-06\/976932190641_2deebbf6be3d17141d91_72.jpg",
            "first_name": "Sarah",
            "real_name": "Sarah Blossom Ware",
            "display_name": "Sarah Blossom Ware - BioBlaze Community Bio Lab",
            "team": "TUU48M0T1",
            "name": "ware.sarah",
            "is_restricted": false,
            "is_ultra_restricted": false
        },
        "blocks": [
            {
                "type": "rich_text",
                "block_id": "6og",
                "elements": [
                    {
                        "type": "rich_text_section",
                        "elements": [
                            {
                                "type": "text",
                                "text": "I will read about the purification step "
                            },
                            {
                                "type": "emoji",
                                "name": "slightly_smiling_face"
                            }
                        ]
                    }
                ]
            }
        ],
        "thread_ts": "1586607383.130400",
        "parent_user_id": "UV3URUKK5"
    },
    {
        "client_msg_id": "586b0f2d-6bca-4339-a057-756479157957",
        "type": "message",
        "text": "The problem is not with the dye but with the glycerol present in the mix.",
        "user": "UV3URUKK5",
        "ts": "1586632655.140600",
        "team": "TUU48M0T1",
        "user_team": "TUU48M0T1",
        "source_team": "TUU48M0T1",
        "user_profile": {
            "avatar_hash": "64c99c2ed974",
            "image_72": "https:\/\/avatars.slack-edge.com\/2020-03-15\/1000999702004_64c99c2ed97497e08ca9_72.jpg",
            "first_name": "",
            "real_name": "Francisco Javier Quero",
            "display_name": "Francisco Javier Quero",
            "team": "TUU48M0T1",
            "name": "franxi2953",
            "is_restricted": false,
            "is_ultra_restricted": false
        },
        "edited": {
            "user": "UV3URUKK5",
            "ts": "1586632663.000000"
        },
        "blocks": [
            {
                "type": "rich_text",
                "block_id": "9x22+",
                "elements": [
                    {
                        "type": "rich_text_section",
                        "elements": [
                            {
                                "type": "text",
                                "text": "The problem is not with the dye but with the glycerol present in the mix."
                            }
                        ]
                    }
                ]
            }
        ],
        "thread_ts": "1586628858.139700",
        "parent_user_id": "U011CQ8C9GU",
        "reactions": [
            {
                "name": "+1",
                "users": [
                    "UV1A22N3W",
                    "U011CQ8C9GU"
                ],
                "count": 2
            }
        ]
    },
    {
        "client_msg_id": "16276231-A102-4E75-B67D-6B4F1A84A414",
        "type": "message",
        "text": "&amp; the fact that the mix is not very buffered- enzyme might not enjoy this... Guy has more exp w\/this",
        "user": "UV1A22N3W",
        "ts": "1586673353.142600",
        "team": "TUU48M0T1",
        "user_team": "TUU48M0T1",
        "source_team": "TUU48M0T1",
        "user_profile": {
            "avatar_hash": "71f827776ad6",
            "image_72": "https:\/\/avatars.slack-edge.com\/2020-03-09\/988125642964_71f827776ad610af05a2_72.jpg",
            "first_name": "",
            "real_name": "RachelA",
            "display_name": "RachelA",
            "team": "TUU48M0T1",
            "name": "raronoff",
            "is_restricted": false,
            "is_ultra_restricted": false
        },
        "blocks": [
            {
                "type": "rich_text",
                "block_id": "3at2S",
                "elements": [
                    {
                        "type": "rich_text_section",
                        "elements": [
                            {
                                "type": "text",
                                "text": "& the fact that the mix is not very buffered- enzyme might not enjoy this... Guy has more exp w\/this"
                            }
                        ]
                    }
                ]
            }
        ],
        "thread_ts": "1586628858.139700",
        "parent_user_id": "U011CQ8C9GU"
    }
]