[
    {
        "client_msg_id": "590e3aa0-bfc5-4c24-9f8c-f217139c71cc",
        "type": "message",
        "text": "Why do you need it? to test the high fidelity method? we missed this paper to, havent read it yet:<https:\/\/www.clinicalmicrobiologyandinfection.com\/article\/S1198-743X(20)30186-5\/pdf>",
        "user": "UV7LUJG1Y",
        "ts": "1587452751.454200",
        "team": "TUU48M0T1",
        "user_team": "TUU48M0T1",
        "source_team": "TUU48M0T1",
        "user_profile": {
            "avatar_hash": "048307b17644",
            "image_72": "https:\/\/avatars.slack-edge.com\/2020-04-04\/1043242365313_048307b17644844abd87_72.jpg",
            "first_name": "",
            "real_name": "Guy Aidelberg",
            "display_name": "Guy Aidelberg",
            "team": "TUU48M0T1",
            "name": "guyaidelberg",
            "is_restricted": false,
            "is_ultra_restricted": false
        },
        "blocks": [
            {
                "type": "rich_text",
                "block_id": "qsfJ",
                "elements": [
                    {
                        "type": "rich_text_section",
                        "elements": [
                            {
                                "type": "text",
                                "text": "Why do you need it? to test the high fidelity method? we missed this paper to, havent read it yet:"
                            },
                            {
                                "type": "link",
                                "url": "https:\/\/www.clinicalmicrobiologyandinfection.com\/article\/S1198-743X(20)30186-5\/pdf"
                            }
                        ]
                    }
                ]
            }
        ],
        "thread_ts": "1587451870.454100",
        "parent_user_id": "UV1A22N3W"
    },
    {
        "client_msg_id": "e1d9824f-cf7e-41f4-859f-3df95877aae4",
        "type": "message",
        "text": "yes, Q5 for that was what I thought. but RQ1 DNase (or which!?) for the RNA tests - I have two sets coming for cellular mRNAs...  good you found another paper, but no time to read more now though...",
        "user": "UV1A22N3W",
        "ts": "1587452901.454400",
        "team": "TUU48M0T1",
        "user_team": "TUU48M0T1",
        "source_team": "TUU48M0T1",
        "user_profile": {
            "avatar_hash": "71f827776ad6",
            "image_72": "https:\/\/avatars.slack-edge.com\/2020-03-09\/988125642964_71f827776ad610af05a2_72.jpg",
            "first_name": "",
            "real_name": "RachelA",
            "display_name": "RachelA",
            "team": "TUU48M0T1",
            "name": "raronoff",
            "is_restricted": false,
            "is_ultra_restricted": false
        },
        "blocks": [
            {
                "type": "rich_text",
                "block_id": "80z",
                "elements": [
                    {
                        "type": "rich_text_section",
                        "elements": [
                            {
                                "type": "text",
                                "text": "yes, Q5 for that was what I thought. but RQ1 DNase (or which!?) for the RNA tests - I have two sets coming for cellular mRNAs...  good you found another paper, but no time to read more now though..."
                            }
                        ]
                    }
                ]
            }
        ],
        "thread_ts": "1587451870.454100",
        "parent_user_id": "UV1A22N3W"
    },
    {
        "client_msg_id": "a7c917f1-5318-4a01-8699-1df764111ff7",
        "type": "message",
        "text": "have to pour plates too, I believe, for the plasmid N control.  Amp??",
        "user": "UV1A22N3W",
        "ts": "1587452926.454600",
        "team": "TUU48M0T1",
        "user_team": "TUU48M0T1",
        "source_team": "TUU48M0T1",
        "user_profile": {
            "avatar_hash": "71f827776ad6",
            "image_72": "https:\/\/avatars.slack-edge.com\/2020-03-09\/988125642964_71f827776ad610af05a2_72.jpg",
            "first_name": "",
            "real_name": "RachelA",
            "display_name": "RachelA",
            "team": "TUU48M0T1",
            "name": "raronoff",
            "is_restricted": false,
            "is_ultra_restricted": false
        },
        "blocks": [
            {
                "type": "rich_text",
                "block_id": "dnst\/",
                "elements": [
                    {
                        "type": "rich_text_section",
                        "elements": [
                            {
                                "type": "text",
                                "text": "have to pour plates too, I believe, for the plasmid N control.  Amp??"
                            }
                        ]
                    }
                ]
            }
        ],
        "thread_ts": "1587451870.454100",
        "parent_user_id": "UV1A22N3W"
    },
    {
        "client_msg_id": "5b9120a8-abfe-4f6d-af85-7d33e57bd67c",
        "type": "message",
        "text": "will check",
        "user": "UV1A22N3W",
        "ts": "1587452930.454800",
        "team": "TUU48M0T1",
        "user_team": "TUU48M0T1",
        "source_team": "TUU48M0T1",
        "user_profile": {
            "avatar_hash": "71f827776ad6",
            "image_72": "https:\/\/avatars.slack-edge.com\/2020-03-09\/988125642964_71f827776ad610af05a2_72.jpg",
            "first_name": "",
            "real_name": "RachelA",
            "display_name": "RachelA",
            "team": "TUU48M0T1",
            "name": "raronoff",
            "is_restricted": false,
            "is_ultra_restricted": false
        },
        "blocks": [
            {
                "type": "rich_text",
                "block_id": "azXP",
                "elements": [
                    {
                        "type": "rich_text_section",
                        "elements": [
                            {
                                "type": "text",
                                "text": "will check"
                            }
                        ]
                    }
                ]
            }
        ],
        "thread_ts": "1587451870.454100",
        "parent_user_id": "UV1A22N3W"
    },
    {
        "type": "message",
        "subtype": "bot_message",
        "text": "Cesar VALENCIA GALLARDO just joined Do-It-Together SARS CoV-2 Detective!",
        "ts": "1587453599.455000",
        "bot_id": "B011ND7QSG7",
        "attachments": [
            {
                "author_name": "From:Do-It-Together SARS CoV-2 Detective",
                "fallback": "Someone joined an object!",
                "text": "Senior Scientist and Entrepreneur, current cohort member at Entrepreneur First. I hold a Ph.D. in Sc[...]",
                "title": "Cesar VALENCIA GALLARDO",
                "footer": "Just One Giant Lab",
                "id": 1,
                "title_link": "https:\/\/app.jogl.io\/user\/3121",
                "author_link": "https:\/\/app.jogl.io\/project\/3121",
                "footer_icon": "https:\/\/app.jogl.io\/favicon.ico",
                "color": "36a64f",
                "fields": [
                    {
                        "title": "Skills",
                        "value": " Biochemistry,  Microbiology, Molecular Biology   , Arduino, GPS",
                        "short": true
                    }
                ]
            }
        ]
    },
    {
        "client_msg_id": "a5338e86-acc4-4b71-9706-094612a3e364",
        "type": "message",
        "text": "<https:\/\/www.ncbi.nlm.nih.gov\/pmc\/articles\/PMC6923652\/>",
        "user": "UV7LUJG1Y",
        "ts": "1587466821.455600",
        "team": "TUU48M0T1",
        "user_team": "TUU48M0T1",
        "source_team": "TUU48M0T1",
        "user_profile": {
            "avatar_hash": "048307b17644",
            "image_72": "https:\/\/avatars.slack-edge.com\/2020-04-04\/1043242365313_048307b17644844abd87_72.jpg",
            "first_name": "",
            "real_name": "Guy Aidelberg",
            "display_name": "Guy Aidelberg",
            "team": "TUU48M0T1",
            "name": "guyaidelberg",
            "is_restricted": false,
            "is_ultra_restricted": false
        },
        "attachments": [
            {
                "service_name": "PubMed Central (PMC)",
                "title": "GLAPD: Whole Genome Based LAMP Primer Design for a Set of Target Genomes",
                "title_link": "https:\/\/www.ncbi.nlm.nih.gov\/pmc\/articles\/PMC6923652\/",
                "text": "Loop-mediated isothermal amplification (LAMP) technology has been applied in a wide range of fields such as detection of foodborne bacteria and clinical pathogens due to its simplicity and efficiency. However, existing LAMP primer designing systems require ...",
                "fallback": "PubMed Central (PMC): GLAPD: Whole Genome Based LAMP Primer Design for a Set of Target Genomes",
                "thumb_url": "https:\/\/www.ncbi.nlm.nih.gov\/corehtml\/pmc\/pmcgifs\/pmc-logo-share.png",
                "from_url": "https:\/\/www.ncbi.nlm.nih.gov\/pmc\/articles\/PMC6923652\/",
                "thumb_width": 1200,
                "thumb_height": 630,
                "service_icon": "http:\/\/www.ncbi.nlm.nih.gov\/favicon.ico",
                "id": 1,
                "original_url": "https:\/\/www.ncbi.nlm.nih.gov\/pmc\/articles\/PMC6923652\/"
            }
        ],
        "blocks": [
            {
                "type": "rich_text",
                "block_id": "FwCJ",
                "elements": [
                    {
                        "type": "rich_text_section",
                        "elements": [
                            {
                                "type": "link",
                                "url": "https:\/\/www.ncbi.nlm.nih.gov\/pmc\/articles\/PMC6923652\/"
                            }
                        ]
                    }
                ]
            }
        ]
    },
    {
        "client_msg_id": "41c3311f-8006-45b1-9fcf-5ff86f0dd05c",
        "type": "message",
        "text": "It's amp",
        "user": "UV10KBUQG",
        "ts": "1587509222.456000",
        "team": "TUU48M0T1",
        "user_team": "TUU48M0T1",
        "source_team": "TUU48M0T1",
        "user_profile": {
            "avatar_hash": "2deebbf6be3d",
            "image_72": "https:\/\/avatars.slack-edge.com\/2020-03-06\/976932190641_2deebbf6be3d17141d91_72.jpg",
            "first_name": "Sarah",
            "real_name": "Sarah Blossom Ware",
            "display_name": "Sarah Blossom Ware - BioBlaze Community Bio Lab",
            "team": "TUU48M0T1",
            "name": "ware.sarah",
            "is_restricted": false,
            "is_ultra_restricted": false
        },
        "blocks": [
            {
                "type": "rich_text",
                "block_id": "NRv",
                "elements": [
                    {
                        "type": "rich_text_section",
                        "elements": [
                            {
                                "type": "text",
                                "text": "It's amp"
                            }
                        ]
                    }
                ]
            }
        ],
        "thread_ts": "1587451870.454100",
        "parent_user_id": "UV1A22N3W"
    },
    {
        "client_msg_id": "390F2D17-26EB-41E7-AACF-1715D10639BD",
        "type": "message",
        "text": "thx, Sarah!  &amp; the RTx <@U010LNECEHE> do you do separate rxn first or all together?",
        "user": "UV1A22N3W",
        "ts": "1587537529.457600",
        "team": "TUU48M0T1",
        "user_team": "TUU48M0T1",
        "source_team": "TUU48M0T1",
        "user_profile": {
            "avatar_hash": "71f827776ad6",
            "image_72": "https:\/\/avatars.slack-edge.com\/2020-03-09\/988125642964_71f827776ad610af05a2_72.jpg",
            "first_name": "",
            "real_name": "RachelA",
            "display_name": "RachelA",
            "team": "TUU48M0T1",
            "name": "raronoff",
            "is_restricted": false,
            "is_ultra_restricted": false
        },
        "blocks": [
            {
                "type": "rich_text",
                "block_id": "nmz",
                "elements": [
                    {
                        "type": "rich_text_section",
                        "elements": [
                            {
                                "type": "text",
                                "text": "thx, Sarah!  & the RTx "
                            },
                            {
                                "type": "user",
                                "user_id": "U010LNECEHE"
                            },
                            {
                                "type": "text",
                                "text": " do you do separate rxn first or all together?"
                            }
                        ]
                    }
                ]
            }
        ],
        "thread_ts": "1587451870.454100",
        "parent_user_id": "UV1A22N3W"
    }
]