[
    {
        "client_msg_id": "8437a608-6a4d-4651-bebc-00a7a14a2e79",
        "type": "message",
        "text": "sounds like we will have a good control primer set with GAPDH (spanning intron, so controlling for RNA extraction)",
        "user": "UV1A22N3W",
        "ts": "1585641992.024200",
        "team": "TUU48M0T1",
        "user_team": "TUU48M0T1",
        "source_team": "TUU48M0T1",
        "user_profile": {
            "avatar_hash": "71f827776ad6",
            "image_72": "https:\/\/avatars.slack-edge.com\/2020-03-09\/988125642964_71f827776ad610af05a2_72.jpg",
            "first_name": "",
            "real_name": "RachelA",
            "display_name": "RachelA",
            "team": "TUU48M0T1",
            "name": "raronoff",
            "is_restricted": false,
            "is_ultra_restricted": false
        },
        "blocks": [
            {
                "type": "rich_text",
                "block_id": "DnWw",
                "elements": [
                    {
                        "type": "rich_text_section",
                        "elements": [
                            {
                                "type": "text",
                                "text": "sounds like we will have a good control primer set with GAPDH (spanning intron, so controlling for RNA extraction)"
                            }
                        ]
                    }
                ]
            }
        ]
    }
]