[
    {
        "type": "message",
        "subtype": "channel_name",
        "ts": "1587933136.000100",
        "user": "U010YT4BM34",
        "text": "<@U010YT4BM34> has renamed the channel from \"proj-cov19-open-automated-dispenser\" to \"proj-cov-19community-kits\"",
        "old_name": "proj-cov19-open-automated-dispenser",
        "name": "proj-cov-19community-kits"
    }
]