[
    {
        "client_msg_id": "b37d9582-5122-48d2-8c70-0abc0936af81",
        "type": "message",
        "text": "Here’s a COVID19 detection protocol using a nested LAMP reaction that doesn’t require opening the tube and claims to be 10-100 times more sensitive than RT-qPCR or normal LAMP <https:\/\/chemrxiv.org\/articles\/A_Single_and_Two-Stage_Closed-Tube_Molecular_Test_for_the_2019_Novel_Coronavirus_COVID-19_at_Home_Clinic_and_Points_of_Entry\/11860137\/1>",
        "user": "UUNGFHSV8",
        "ts": "1585146676.000200",
        "team": "TUU48M0T1",
        "user_team": "TUU48M0T1",
        "source_team": "TUU48M0T1",
        "user_profile": {
            "avatar_hash": "1c55ee32397a",
            "image_72": "https:\/\/avatars.slack-edge.com\/2020-03-07\/987349161984_1c55ee32397a85a87ec4_72.png",
            "first_name": "Isaac",
            "real_name": "Isaac Larkin",
            "display_name": "Isaac Larkin",
            "team": "TUU48M0T1",
            "name": "eyesmo",
            "is_restricted": false,
            "is_ultra_restricted": false
        },
        "attachments": [
            {
                "service_name": "figshare",
                "title": "A Single and Two-Stage, Closed-Tube, Molecular Test for the 2019 Novel Coronavirus (COVID-19) at Home, Clinic, and Points of Entry",
                "title_link": "https:\/\/chemrxiv.org\/articles\/A_Single_and_Two-Stage_Closed-Tube_Molecular_Test_for_the_2019_Novel_Coronavirus_COVID-19_at_Home_Clinic_and_Points_of_Entry\/11860137\/1",
                "text": "The 2019 novel coronavirus (COVID-19) is a newly emerged strain that has never been found in humans before. At present, the laboratory-based reverse transcription-polymerase chain reaction (RT-PCR) is the main method to confirm COVID-19 infection. The intensification of the COVID-19 epidemic overwhelms limited clinical resources in particular, but not only, in developing countries, resulting in many patients not being tested for the infection and in large queues of potentially infected individuals waiting to be tested while providing a breeding ground for the disease. We describe here a rapid, highly sensitive, point-of-care, molecular test amenable for use at home, in the clinic, and at points of entry by minimally trained individuals and with minimal instrumentation. Our test is based on loop mediated isothermal amplification (COVID-19 LAMP) and for higher sensitivity on nested nucleic acid, two stage isothermal amplification (COVID-19 Penn-RAMP). Both tests can be carried out in closed tubes with either fluorescence or colorimetric (e.g., leuco crystal violet LCV) detection. COVID-19 LAMP performs on par with COVID-19 RT-PCR. COVID-19 RAMP has 10 fold better sensitivity than COVID-19 LAMP and COVID-19 RT-PCR when testing purified targets and 100 times better sensitivity than COVID-19 LAMP and COVID-19 RT-PCR when testing rapidly prepared sample mimics. Due to fortunate scarcity of COVID-19 infections in the USA, we were not able to test our assays and methods with patient samples. We hope that such tests will be carried out by colleagues in impacted countries. Our Closed-Tube Penn-RAMP has the potential to significantly reduce false negatives while being amenable to use with minimal instrumentation and training.",
                "fallback": "figshare: A Single and Two-Stage, Closed-Tube, Molecular Test for the 2019 Novel Coronavirus (COVID-19) at Home, Clinic, and Points of Entry",
                "from_url": "https:\/\/chemrxiv.org\/articles\/A_Single_and_Two-Stage_Closed-Tube_Molecular_Test_for_the_2019_Novel_Coronavirus_COVID-19_at_Home_Clinic_and_Points_of_Entry\/11860137\/1",
                "service_icon": "http:\/\/website-p-eu.figstatic.com\/assets\/086fda4fe9430a35935ed4a3d2ad37fdd446f4af\/public\/global\/favicon\/apple-touch-icon-57x57.png",
                "id": 1,
                "original_url": "https:\/\/chemrxiv.org\/articles\/A_Single_and_Two-Stage_Closed-Tube_Molecular_Test_for_the_2019_Novel_Coronavirus_COVID-19_at_Home_Clinic_and_Points_of_Entry\/11860137\/1"
            }
        ],
        "blocks": [
            {
                "type": "rich_text",
                "block_id": "f\/=4J",
                "elements": [
                    {
                        "type": "rich_text_section",
                        "elements": [
                            {
                                "type": "text",
                                "text": "Here’s a COVID19 detection protocol using a nested LAMP reaction that doesn’t require opening the tube and claims to be 10-100 times more sensitive than RT-qPCR or normal LAMP "
                            },
                            {
                                "type": "link",
                                "url": "https:\/\/chemrxiv.org\/articles\/A_Single_and_Two-Stage_Closed-Tube_Molecular_Test_for_the_2019_Novel_Coronavirus_COVID-19_at_Home_Clinic_and_Points_of_Entry\/11860137\/1"
                            }
                        ]
                    }
                ]
            }
        ]
    },
    {
        "client_msg_id": "7f1e3c99-05d2-460f-8bed-b173900312b5",
        "type": "message",
        "text": "It’s apparently in the process of being replicated by biohackers at Biofoundary in Australia",
        "user": "UUNGFHSV8",
        "ts": "1585146704.000900",
        "team": "TUU48M0T1",
        "user_team": "TUU48M0T1",
        "source_team": "TUU48M0T1",
        "user_profile": {
            "avatar_hash": "1c55ee32397a",
            "image_72": "https:\/\/avatars.slack-edge.com\/2020-03-07\/987349161984_1c55ee32397a85a87ec4_72.png",
            "first_name": "Isaac",
            "real_name": "Isaac Larkin",
            "display_name": "Isaac Larkin",
            "team": "TUU48M0T1",
            "name": "eyesmo",
            "is_restricted": false,
            "is_ultra_restricted": false
        },
        "blocks": [
            {
                "type": "rich_text",
                "block_id": "=St9a",
                "elements": [
                    {
                        "type": "rich_text_section",
                        "elements": [
                            {
                                "type": "text",
                                "text": "It’s apparently in the process of being replicated by biohackers at Biofoundary in Australia"
                            }
                        ]
                    }
                ]
            }
        ]
    },
    {
        "client_msg_id": "868ddeae-2578-4483-a794-f847f429bbbb",
        "type": "message",
        "text": "Keoni just said Ginkgo has made CoVs ORFs for yeast.  BioBlaze has a Y2H system.  Any ideas?",
        "user": "UUWSJTQ67",
        "ts": "1585158555.002100",
        "team": "TUU48M0T1",
        "user_team": "TUU48M0T1",
        "source_team": "TUU48M0T1",
        "user_profile": {
            "avatar_hash": "gde149e5dcc8",
            "image_72": "https:\/\/secure.gravatar.com\/avatar\/de149e5dcc80dc75132c77f4b3981257.jpg?s=72&d=https%3A%2F%2Fa.slack-edge.com%2Fdf10d%2Fimg%2Favatars%2Fava_0019-72.png",
            "first_name": "",
            "real_name": "Michael Valipour",
            "display_name": "Michael Valipour",
            "team": "TUU48M0T1",
            "name": "michael.valipour",
            "is_restricted": false,
            "is_ultra_restricted": false
        },
        "edited": {
            "user": "UUWSJTQ67",
            "ts": "1585158610.000000"
        },
        "blocks": [
            {
                "type": "rich_text",
                "block_id": "wMz",
                "elements": [
                    {
                        "type": "rich_text_section",
                        "elements": [
                            {
                                "type": "text",
                                "text": "Keoni just said Ginkgo has made CoVs ORFs for yeast.  BioBlaze has a Y2H system.  Any ideas?"
                            }
                        ]
                    }
                ]
            }
        ]
    }
]