[
    {
        "type": "message",
        "text": "FYI - this is a list of some 3D printer volunteers in Chicago. Anyone else already organizing an out reach with them? Any other 3D printer lists you know about?\n\nThe two most promising things to print right now seem to be these. It seems to me that we might as well have people start printing them asap. Anyone have any funds to throw into the effort?\n• <https:\/\/copper3d.com\/hackthepandemic\/>\n• <https:\/\/www.prusaprinters.org\/prints\/25857-prusa-protective-face-shield-rc1>",
        "files": [
            {
                "id": "F010D03D70C",
                "created": 1584660662,
                "timestamp": 1584660662,
                "name": "image.png",
                "title": "image.png",
                "mimetype": "image\/png",
                "filetype": "png",
                "pretty_type": "PNG",
                "user": "UV8FL0JCA",
                "editable": false,
                "size": 344420,
                "mode": "hosted",
                "is_external": false,
                "external_type": "",
                "is_public": true,
                "public_url_shared": false,
                "display_as_bot": false,
                "username": "",
                "url_private": "https:\/\/files.slack.com\/files-pri\/TUU48M0T1-F010D03D70C\/image.png?t=xoxe-980144714919-1133254701825-1120841107731-daf595b5a7d6c9028b0b02a925032e36",
                "url_private_download": "https:\/\/files.slack.com\/files-pri\/TUU48M0T1-F010D03D70C\/download\/image.png?t=xoxe-980144714919-1133254701825-1120841107731-daf595b5a7d6c9028b0b02a925032e36",
                "thumb_64": "https:\/\/files.slack.com\/files-tmb\/TUU48M0T1-F010D03D70C-823e5a39ad\/image_64.png?t=xoxe-980144714919-1133254701825-1120841107731-daf595b5a7d6c9028b0b02a925032e36",
                "thumb_80": "https:\/\/files.slack.com\/files-tmb\/TUU48M0T1-F010D03D70C-823e5a39ad\/image_80.png?t=xoxe-980144714919-1133254701825-1120841107731-daf595b5a7d6c9028b0b02a925032e36",
                "thumb_360": "https:\/\/files.slack.com\/files-tmb\/TUU48M0T1-F010D03D70C-823e5a39ad\/image_360.png?t=xoxe-980144714919-1133254701825-1120841107731-daf595b5a7d6c9028b0b02a925032e36",
                "thumb_360_w": 360,
                "thumb_360_h": 97,
                "thumb_480": "https:\/\/files.slack.com\/files-tmb\/TUU48M0T1-F010D03D70C-823e5a39ad\/image_480.png?t=xoxe-980144714919-1133254701825-1120841107731-daf595b5a7d6c9028b0b02a925032e36",
                "thumb_480_w": 480,
                "thumb_480_h": 130,
                "thumb_160": "https:\/\/files.slack.com\/files-tmb\/TUU48M0T1-F010D03D70C-823e5a39ad\/image_160.png?t=xoxe-980144714919-1133254701825-1120841107731-daf595b5a7d6c9028b0b02a925032e36",
                "thumb_720": "https:\/\/files.slack.com\/files-tmb\/TUU48M0T1-F010D03D70C-823e5a39ad\/image_720.png?t=xoxe-980144714919-1133254701825-1120841107731-daf595b5a7d6c9028b0b02a925032e36",
                "thumb_720_w": 720,
                "thumb_720_h": 195,
                "thumb_800": "https:\/\/files.slack.com\/files-tmb\/TUU48M0T1-F010D03D70C-823e5a39ad\/image_800.png?t=xoxe-980144714919-1133254701825-1120841107731-daf595b5a7d6c9028b0b02a925032e36",
                "thumb_800_w": 800,
                "thumb_800_h": 217,
                "thumb_960": "https:\/\/files.slack.com\/files-tmb\/TUU48M0T1-F010D03D70C-823e5a39ad\/image_960.png?t=xoxe-980144714919-1133254701825-1120841107731-daf595b5a7d6c9028b0b02a925032e36",
                "thumb_960_w": 960,
                "thumb_960_h": 260,
                "thumb_1024": "https:\/\/files.slack.com\/files-tmb\/TUU48M0T1-F010D03D70C-823e5a39ad\/image_1024.png?t=xoxe-980144714919-1133254701825-1120841107731-daf595b5a7d6c9028b0b02a925032e36",
                "thumb_1024_w": 1024,
                "thumb_1024_h": 277,
                "image_exif_rotation": 1,
                "original_w": 2858,
                "original_h": 774,
                "thumb_tiny": "AwAMADCzCi+Snyj7vpUvlr\/dX8qFQIgAzwMU4c80ANMaDGEX8qNicfIv5U+gjpQAzy1xwi5+lKEj6FVz9KcOKMfNmgD\/2Q==",
                "permalink": "https:\/\/open-covid19.slack.com\/files\/UV8FL0JCA\/F010D03D70C\/image.png",
                "permalink_public": "https:\/\/slack-files.com\/TUU48M0T1-F010D03D70C-4658623a66",
                "is_starred": false,
                "has_rich_preview": false
            }
        ],
        "upload": true,
        "blocks": [
            {
                "type": "rich_text",
                "block_id": "v28a",
                "elements": [
                    {
                        "type": "rich_text_section",
                        "elements": [
                            {
                                "type": "text",
                                "text": "FYI - this is a list of some 3D printer volunteers in Chicago. Anyone else already organizing an out reach with them? Any other 3D printer lists you know about?\n\nThe two most promising things to print right now seem to be these. It seems to me that we might as well have people start printing them asap. Anyone have any funds to throw into the effort?\n"
                            }
                        ]
                    },
                    {
                        "type": "rich_text_list",
                        "style": "bullet",
                        "indent": 0,
                        "elements": [
                            {
                                "type": "rich_text_section",
                                "elements": [
                                    {
                                        "type": "link",
                                        "url": "https:\/\/copper3d.com\/hackthepandemic\/"
                                    }
                                ]
                            },
                            {
                                "type": "rich_text_section",
                                "elements": [
                                    {
                                        "type": "link",
                                        "url": "https:\/\/www.prusaprinters.org\/prints\/25857-prusa-protective-face-shield-rc1"
                                    }
                                ]
                            }
                        ]
                    }
                ]
            }
        ],
        "user": "UV8FL0JCA",
        "display_as_bot": false,
        "ts": "1584660670.002600",
        "client_msg_id": "3b38152b-830a-4cf5-a0ae-c37385c4d8b9"
    },
    {
        "client_msg_id": "DCDBD4AD-BD20-4723-8CF3-B2A740D90CE9",
        "type": "message",
        "text": "Other important things to print are magnetic tube racks for RNA purification. Designs can be found at bomb.bio",
        "user": "UUNGFHSV8",
        "ts": "1584664152.001500",
        "team": "TUU48M0T1",
        "user_team": "TUU48M0T1",
        "source_team": "TUU48M0T1",
        "user_profile": {
            "avatar_hash": "1c55ee32397a",
            "image_72": "https:\/\/avatars.slack-edge.com\/2020-03-07\/987349161984_1c55ee32397a85a87ec4_72.png",
            "first_name": "Isaac",
            "real_name": "Isaac Larkin",
            "display_name": "Isaac Larkin",
            "team": "TUU48M0T1",
            "name": "eyesmo",
            "is_restricted": false,
            "is_ultra_restricted": false
        },
        "blocks": [
            {
                "type": "rich_text",
                "block_id": "FVU",
                "elements": [
                    {
                        "type": "rich_text_section",
                        "elements": [
                            {
                                "type": "text",
                                "text": "Other important things to print are magnetic tube racks for RNA purification. Designs can be found at bomb.bio"
                            }
                        ]
                    }
                ]
            }
        ],
        "reactions": [
            {
                "name": "+1",
                "users": [
                    "UV10KBUQG",
                    "UV78JAX0S"
                ],
                "count": 2
            }
        ]
    },
    {
        "client_msg_id": "80a584ab-bf1e-420a-a208-702a0fba4623",
        "type": "message",
        "text": "<@UV8FL0JCA> welcome! Sarah here from BioBlaze\/ChiTown Bio. In West Chicago (farcwest suburb) we are working on environmental testing for SARS-CoV-2 and also on replicating the Mammoth DETECTR protocol for rapid diagnosis of humans. Feel free to call or visit: <tel:4798717151|479-871-7151>",
        "user": "UV10KBUQG",
        "ts": "1584664459.001600",
        "team": "TUU48M0T1",
        "user_team": "TUU48M0T1",
        "source_team": "TUU48M0T1",
        "user_profile": {
            "avatar_hash": "2deebbf6be3d",
            "image_72": "https:\/\/avatars.slack-edge.com\/2020-03-06\/976932190641_2deebbf6be3d17141d91_72.jpg",
            "first_name": "Sarah",
            "real_name": "Sarah Blossom Ware",
            "display_name": "Sarah Blossom Ware - BioBlaze Community Bio Lab",
            "team": "TUU48M0T1",
            "name": "ware.sarah",
            "is_restricted": false,
            "is_ultra_restricted": false
        },
        "blocks": [
            {
                "type": "rich_text",
                "block_id": "9yR\/I",
                "elements": [
                    {
                        "type": "rich_text_section",
                        "elements": [
                            {
                                "type": "user",
                                "user_id": "UV8FL0JCA"
                            },
                            {
                                "type": "text",
                                "text": " welcome! Sarah here from BioBlaze\/ChiTown Bio. In West Chicago (farcwest suburb) we are working on environmental testing for SARS-CoV-2 and also on replicating the Mammoth DETECTR protocol for rapid diagnosis of humans. Feel free to call or visit: "
                            },
                            {
                                "type": "link",
                                "url": "tel:4798717151",
                                "text": "479-871-7151"
                            }
                        ]
                    }
                ]
            }
        ],
        "thread_ts": "1584563376.008000",
        "parent_user_id": "UV8FL0JCA"
    },
    {
        "client_msg_id": "aeb40ae2-fd2b-4810-9fad-1125a0d0f47a",
        "type": "message",
        "text": "<@UUWSJTQ67> just saw this, but yes, Justin is Gabe's friend :)",
        "user": "UV10KBUQG",
        "ts": "1584675820.000100",
        "team": "TUU48M0T1",
        "user_team": "TUU48M0T1",
        "source_team": "TUU48M0T1",
        "user_profile": {
            "avatar_hash": "2deebbf6be3d",
            "image_72": "https:\/\/avatars.slack-edge.com\/2020-03-06\/976932190641_2deebbf6be3d17141d91_72.jpg",
            "first_name": "Sarah",
            "real_name": "Sarah Blossom Ware",
            "display_name": "Sarah Blossom Ware - BioBlaze Community Bio Lab",
            "team": "TUU48M0T1",
            "name": "ware.sarah",
            "is_restricted": false,
            "is_ultra_restricted": false
        },
        "blocks": [
            {
                "type": "rich_text",
                "block_id": "GLW",
                "elements": [
                    {
                        "type": "rich_text_section",
                        "elements": [
                            {
                                "type": "user",
                                "user_id": "UUWSJTQ67"
                            },
                            {
                                "type": "text",
                                "text": " just saw this, but yes, Justin is Gabe's friend :)"
                            }
                        ]
                    }
                ]
            }
        ],
        "thread_ts": "1584554542.001300",
        "parent_user_id": "UUWSJTQ67"
    },
    {
        "client_msg_id": "7064395c-42c8-46fc-a9e8-fb33bfb760c1",
        "type": "message",
        "text": "<@UV78JAX0S>  <@U01009BMH52>  Khalid, you're not wrong, but this one cloning step away requires a lot of components. There would need to be a plasmid with the RnP gene, a restriction enzyme that will precisely cut both the plasmid with the nearly full sequence and the random plasmid with the RnP gene, plus the enzyme ligase,  all in an environment specific to the exact environment needed to keep the sequences from degrading.",
        "user": "UV10KBUQG",
        "ts": "1584676265.000300",
        "team": "TUU48M0T1",
        "user_team": "TUU48M0T1",
        "source_team": "TUU48M0T1",
        "user_profile": {
            "avatar_hash": "2deebbf6be3d",
            "image_72": "https:\/\/avatars.slack-edge.com\/2020-03-06\/976932190641_2deebbf6be3d17141d91_72.jpg",
            "first_name": "Sarah",
            "real_name": "Sarah Blossom Ware",
            "display_name": "Sarah Blossom Ware - BioBlaze Community Bio Lab",
            "team": "TUU48M0T1",
            "name": "ware.sarah",
            "is_restricted": false,
            "is_ultra_restricted": false
        },
        "edited": {
            "user": "UV10KBUQG",
            "ts": "1584676288.000000"
        },
        "blocks": [
            {
                "type": "rich_text",
                "block_id": "Ac3I",
                "elements": [
                    {
                        "type": "rich_text_section",
                        "elements": [
                            {
                                "type": "user",
                                "user_id": "UV78JAX0S"
                            },
                            {
                                "type": "text",
                                "text": "  "
                            },
                            {
                                "type": "user",
                                "user_id": "U01009BMH52"
                            },
                            {
                                "type": "text",
                                "text": "  Khalid, you're not wrong, but this one cloning step away requires a lot of components. There would need to be a plasmid with the RnP gene, a restriction enzyme that will precisely cut both the plasmid with the nearly full sequence and the random plasmid with the RnP gene, plus the enzyme ligase,  all in an environment specific to the exact environment needed to keep the sequences from degrading."
                            }
                        ]
                    }
                ]
            }
        ],
        "thread_ts": "1584494031.007700",
        "parent_user_id": "UV78JAX0S"
    }
]