[
    {
        "type": "message",
        "text": "is there a process for addressing this?",
        "user": "UV0QTJCMT",
        "ts": "1586416980.304400",
        "team": "TUU48M0T1",
        "user_team": "TUU48M0T1",
        "source_team": "TUU48M0T1",
        "user_profile": {
            "avatar_hash": "06a6ae8f69d1",
            "image_72": "https:\/\/avatars.slack-edge.com\/2020-04-13\/1060635499315_06a6ae8f69d18f1ad464_72.png",
            "first_name": "Katherine",
            "real_name": "Katherine Holo",
            "display_name": "Kat Holo - Co-Organizer of OpenCOVID19",
            "team": "TUU48M0T1",
            "name": "katherineh245",
            "is_restricted": false,
            "is_ultra_restricted": false
        },
        "attachments": [
            {
                "fallback": "[April 9th, 2020 12:05 AM] raronoff: not sure if this is where to put this, two points about our funding process: 1) the template sections and the 'additional info' ones to fill in on the 'front side JOGL' don't match so well. We managed, but improvised...  Also 2) for review, some of us think it is not very ethical if people are reviewing the projects they are in, or in competition with, when they are in the running for the funds.  (somehow I am in basically 4 of the diagnostics ones... :slightly_smiling_face:  Maybe in time for the next round 1 can be fixed and 2 can be discussed further?",
                "ts": "1586415959.007700",
                "author_id": "UV1A22N3W",
                "author_subname": "RachelA",
                "channel_id": "CV474R31U",
                "channel_name": "prgm-funding-team",
                "is_msg_unfurl": true,
                "is_thread_root_unfurl": true,
                "text": "not sure if this is where to put this, two points about our funding process: 1) the template sections and the 'additional info' ones to fill in on the 'front side JOGL' don't match so well. We managed, but improvised...  Also 2) for review, some of us think it is not very ethical if people are reviewing the projects they are in, or in competition with, when they are in the running for the funds.  (somehow I am in basically 4 of the diagnostics ones... :slightly_smiling_face:  Maybe in time for the next round 1 can be fixed and 2 can be discussed further?",
                "author_name": "RachelA",
                "author_link": "https:\/\/open-covid19.slack.com\/team\/UV1A22N3W",
                "author_icon": "https:\/\/avatars.slack-edge.com\/2020-03-09\/988125642964_71f827776ad610af05a2_48.jpg",
                "mrkdwn_in": [
                    "text"
                ],
                "color": "D0D0D0",
                "from_url": "https:\/\/open-covid19.slack.com\/archives\/CV474R31U\/p1586415959007700?thread_ts=1586415959007700&cid=CV474R31U",
                "is_share": true,
                "footer": "Thread in #prgm-funding-team"
            }
        ]
    },
    {
        "client_msg_id": "C41E01CF-8DA8-4DFB-B04F-387C38A585C7",
        "type": "message",
        "text": "We added little questions to see if they’re in a team or reviewing their own work.. hopefully they tell the truth. The template needs updating! We will have to do something about the additional info thing. ",
        "user": "UV0RRGB6H",
        "ts": "1586423337.306300",
        "team": "TUU48M0T1",
        "user_team": "TUU48M0T1",
        "source_team": "TUU48M0T1",
        "user_profile": {
            "avatar_hash": "48d4ab64c90c",
            "image_72": "https:\/\/avatars.slack-edge.com\/2020-03-26\/1029789176912_48d4ab64c90c03f3af4a_72.jpg",
            "first_name": "",
            "real_name": "Chris LB Graham",
            "display_name": "",
            "team": "TUU48M0T1",
            "name": "chris.graham",
            "is_restricted": false,
            "is_ultra_restricted": false
        },
        "blocks": [
            {
                "type": "rich_text",
                "block_id": "Sjy\/4",
                "elements": [
                    {
                        "type": "rich_text_section",
                        "elements": [
                            {
                                "type": "text",
                                "text": "We added little questions to see if they’re in a team or reviewing their own work.. hopefully they tell the truth. The template needs updating! We will have to do something about the additional info thing. "
                            }
                        ]
                    }
                ]
            }
        ],
        "reactions": [
            {
                "name": "+1",
                "users": [
                    "UV0QTJCMT"
                ],
                "count": 1
            }
        ]
    },
    {
        "client_msg_id": "D30D0687-CEC4-4567-A455-C4B3D855D2EF",
        "type": "message",
        "text": "If they’re in the team then their review won’t have much impact on the score ",
        "user": "UV0RRGB6H",
        "ts": "1586423353.306800",
        "team": "TUU48M0T1",
        "user_team": "TUU48M0T1",
        "source_team": "TUU48M0T1",
        "user_profile": {
            "avatar_hash": "48d4ab64c90c",
            "image_72": "https:\/\/avatars.slack-edge.com\/2020-03-26\/1029789176912_48d4ab64c90c03f3af4a_72.jpg",
            "first_name": "",
            "real_name": "Chris LB Graham",
            "display_name": "",
            "team": "TUU48M0T1",
            "name": "chris.graham",
            "is_restricted": false,
            "is_ultra_restricted": false
        },
        "blocks": [
            {
                "type": "rich_text",
                "block_id": "6N2p",
                "elements": [
                    {
                        "type": "rich_text_section",
                        "elements": [
                            {
                                "type": "text",
                                "text": "If they’re in the team then their review won’t have much impact on the score "
                            }
                        ]
                    }
                ]
            }
        ]
    },
    {
        "client_msg_id": "93925c8b-fcfb-4758-a5fc-10bb71e11ac9",
        "type": "message",
        "text": "We had a meeting, and the result was to schedule another Peer review meeting saturday at 5pm UTC i think?  possibly 4pm UTC",
        "user": "UV0RRGB6H",
        "ts": "1586426160.307400",
        "team": "TUU48M0T1",
        "user_team": "TUU48M0T1",
        "source_team": "TUU48M0T1",
        "user_profile": {
            "avatar_hash": "48d4ab64c90c",
            "image_72": "https:\/\/avatars.slack-edge.com\/2020-03-26\/1029789176912_48d4ab64c90c03f3af4a_72.jpg",
            "first_name": "",
            "real_name": "Chris LB Graham",
            "display_name": "",
            "team": "TUU48M0T1",
            "name": "chris.graham",
            "is_restricted": false,
            "is_ultra_restricted": false
        },
        "blocks": [
            {
                "type": "rich_text",
                "block_id": "cricT",
                "elements": [
                    {
                        "type": "rich_text_section",
                        "elements": [
                            {
                                "type": "text",
                                "text": "We had a meeting, and the result was to schedule another Peer review meeting saturday at 5pm UTC i think?  possibly 4pm UTC"
                            }
                        ]
                    }
                ]
            }
        ]
    },
    {
        "client_msg_id": "91bc717e-8853-46b3-a21a-7c131261aa4e",
        "type": "message",
        "text": "We can change the templates quickly,  they need aligning with what exists on the platform change for wave two anyway.. apparently its hard to change the code here though so the template may be the thing to change. :slightly_smiling_face: This could be the major change for wave 2?",
        "user": "UV0RRGB6H",
        "ts": "1586426251.308900",
        "team": "TUU48M0T1",
        "user_team": "TUU48M0T1",
        "source_team": "TUU48M0T1",
        "user_profile": {
            "avatar_hash": "48d4ab64c90c",
            "image_72": "https:\/\/avatars.slack-edge.com\/2020-03-26\/1029789176912_48d4ab64c90c03f3af4a_72.jpg",
            "first_name": "",
            "real_name": "Chris LB Graham",
            "display_name": "",
            "team": "TUU48M0T1",
            "name": "chris.graham",
            "is_restricted": false,
            "is_ultra_restricted": false
        },
        "blocks": [
            {
                "type": "rich_text",
                "block_id": "3KJeE",
                "elements": [
                    {
                        "type": "rich_text_section",
                        "elements": [
                            {
                                "type": "text",
                                "text": "We can change the templates quickly,  they need aligning with what exists on the platform change for wave two anyway.. apparently its hard to change the code here though so the template may be the thing to change. "
                            },
                            {
                                "type": "emoji",
                                "name": "slightly_smiling_face"
                            },
                            {
                                "type": "text",
                                "text": " This could be the major change for wave 2?"
                            }
                        ]
                    }
                ]
            }
        ]
    },
    {
        "client_msg_id": "bed2f413-20ca-466f-a39d-c456c99ba2a0",
        "type": "message",
        "text": "We are also thinking of introducing a requirement to review others projects as part of applying for funding,  this could be in application form.",
        "user": "UV0RRGB6H",
        "ts": "1586426299.309900",
        "team": "TUU48M0T1",
        "user_team": "TUU48M0T1",
        "source_team": "TUU48M0T1",
        "user_profile": {
            "avatar_hash": "48d4ab64c90c",
            "image_72": "https:\/\/avatars.slack-edge.com\/2020-03-26\/1029789176912_48d4ab64c90c03f3af4a_72.jpg",
            "first_name": "",
            "real_name": "Chris LB Graham",
            "display_name": "",
            "team": "TUU48M0T1",
            "name": "chris.graham",
            "is_restricted": false,
            "is_ultra_restricted": false
        },
        "blocks": [
            {
                "type": "rich_text",
                "block_id": "SZPH",
                "elements": [
                    {
                        "type": "rich_text_section",
                        "elements": [
                            {
                                "type": "text",
                                "text": "We are also thinking of introducing a requirement to review others projects as part of applying for funding,  this could be in application form."
                            }
                        ]
                    }
                ]
            }
        ]
    },
    {
        "client_msg_id": "cb62fc4d-f750-4757-9a34-ea650addb084",
        "type": "message",
        "text": "Also missed this message! Sorry! I see the next one is Saturday at 5pm Paris time, is that right? I can join that one.",
        "user": "U011B6VLM2A",
        "ts": "1586431661.310000",
        "team": "TUU48M0T1",
        "user_team": "TUU48M0T1",
        "source_team": "TUU48M0T1",
        "user_profile": {
            "avatar_hash": "4231dc598cfc",
            "image_72": "https:\/\/avatars.slack-edge.com\/2020-04-02\/1044784558839_4231dc598cfc2e59c4c4_72.jpg",
            "first_name": "Alix",
            "real_name": "Alix Mains",
            "display_name": "Alix Mains - JOGL Coordinator",
            "team": "TUU48M0T1",
            "name": "alixhmains",
            "is_restricted": false,
            "is_ultra_restricted": false
        },
        "blocks": [
            {
                "type": "rich_text",
                "block_id": "8mHZ",
                "elements": [
                    {
                        "type": "rich_text_section",
                        "elements": [
                            {
                                "type": "text",
                                "text": "Also missed this message! Sorry! I see the next one is Saturday at 5pm Paris time, is that right? I can join that one."
                            }
                        ]
                    }
                ]
            }
        ],
        "thread_ts": "1586354591.292600",
        "parent_user_id": "UV02WET96"
    },
    {
        "client_msg_id": "756bd14f-72b7-4767-9d12-b04553636f8e",
        "type": "message",
        "text": "Someone contacted me yesterday and said he reviewed the NEB LAMP proposal but said I should have asked for a clear budget.  At first I was so confused because our budget breaks item down item by item with vendor and catalog # and cost.  I then realized the only thing he read was the About page for the project.  He did not click on any links to documents in our About info and also did not click on the Documents tab to find the budgets.  I then added photos of the budgets to the actual About info in the funding section. <@UUPQGNNTV>",
        "user": "UV10KBUQG",
        "ts": "1586443520.314400",
        "team": "TUU48M0T1",
        "user_team": "TUU48M0T1",
        "source_team": "TUU48M0T1",
        "user_profile": {
            "avatar_hash": "2deebbf6be3d",
            "image_72": "https:\/\/avatars.slack-edge.com\/2020-03-06\/976932190641_2deebbf6be3d17141d91_72.jpg",
            "first_name": "Sarah",
            "real_name": "Sarah Blossom Ware",
            "display_name": "Sarah Blossom Ware - BioBlaze Community Bio Lab",
            "team": "TUU48M0T1",
            "name": "ware.sarah",
            "is_restricted": false,
            "is_ultra_restricted": false
        },
        "edited": {
            "user": "UV10KBUQG",
            "ts": "1586443631.000000"
        },
        "blocks": [
            {
                "type": "rich_text",
                "block_id": "kO9",
                "elements": [
                    {
                        "type": "rich_text_section",
                        "elements": [
                            {
                                "type": "text",
                                "text": "Someone contacted me yesterday and said he reviewed the NEB LAMP proposal but said I should have asked for a clear budget.  At first I was so confused because our budget breaks item down item by item with vendor and catalog # and cost.  I then realized the only thing he read was the About page for the project.  He did not click on any links to documents in our About info and also did not click on the Documents tab to find the budgets.  I then added photos of the budgets to the actual About info in the funding section. "
                            },
                            {
                                "type": "user",
                                "user_id": "UUPQGNNTV"
                            }
                        ]
                    }
                ]
            }
        ]
    },
    {
        "client_msg_id": "8B50EE80-22AE-47F6-8DD6-BA2915D7BF97",
        "type": "message",
        "text": "Hmm. I came across this too. I’ll change the form to remind the reviewer to check the project documents now, and for future iterations ",
        "user": "UV0RRGB6H",
        "ts": "1586443783.315700",
        "team": "TUU48M0T1",
        "user_team": "TUU48M0T1",
        "source_team": "TUU48M0T1",
        "user_profile": {
            "avatar_hash": "48d4ab64c90c",
            "image_72": "https:\/\/avatars.slack-edge.com\/2020-03-26\/1029789176912_48d4ab64c90c03f3af4a_72.jpg",
            "first_name": "",
            "real_name": "Chris LB Graham",
            "display_name": "",
            "team": "TUU48M0T1",
            "name": "chris.graham",
            "is_restricted": false,
            "is_ultra_restricted": false
        },
        "blocks": [
            {
                "type": "rich_text",
                "block_id": "JcC",
                "elements": [
                    {
                        "type": "rich_text_section",
                        "elements": [
                            {
                                "type": "text",
                                "text": "Hmm. I came across this too. I’ll change the form to remind the reviewer to check the project documents now, and for future iterations "
                            }
                        ]
                    }
                ]
            }
        ],
        "reactions": [
            {
                "name": "+1",
                "users": [
                    "U0119SR5LMT"
                ],
                "count": 1
            }
        ]
    }
]