[
    {
        "client_msg_id": "fd229ea8-0001-4e5d-b1c9-fc37d2eacb73",
        "type": "message",
        "text": "Hi Julie, I'm a virologist and found a few points in which I can contribute (I did a PhD on enveloped viruses like coronavirus, focused on viral entry) so if you want we can discuss at some point this week.",
        "user": "U012G0X589F",
        "ts": "1588584153.032700",
        "team": "TUU48M0T1",
        "user_team": "TUU48M0T1",
        "source_team": "TUU48M0T1",
        "user_profile": {
            "avatar_hash": "geedc4e2d6eb",
            "image_72": "https:\/\/secure.gravatar.com\/avatar\/eedc4e2d6eb67843d8dbd043fb8db9d7.jpg?s=72&d=https%3A%2F%2Fa.slack-edge.com%2Fdf10d%2Fimg%2Favatars%2Fava_0013-72.png",
            "first_name": "",
            "real_name": "Eugenia Covernton",
            "display_name": "Eugenia Covernton",
            "team": "TUU48M0T1",
            "name": "eugenia.covernton",
            "is_restricted": false,
            "is_ultra_restricted": false
        },
        "blocks": [
            {
                "type": "rich_text",
                "block_id": "5PO",
                "elements": [
                    {
                        "type": "rich_text_section",
                        "elements": [
                            {
                                "type": "text",
                                "text": "Hi Julie, I'm a virologist and found a few points in which I can contribute (I did a PhD on enveloped viruses like coronavirus, focused on viral entry) so if you want we can discuss at some point this week."
                            }
                        ]
                    }
                ]
            }
        ],
        "thread_ts": "1588536495.032400",
        "parent_user_id": "U013NQG86SC",
        "reactions": [
            {
                "name": "heart_eyes",
                "users": [
                    "UV9V03C8Y"
                ],
                "count": 1
            },
            {
                "name": "+1",
                "users": [
                    "U013NQG86SC"
                ],
                "count": 1
            }
        ]
    },
    {
        "client_msg_id": "81767a34-f896-4336-9e97-df06274ea832",
        "type": "message",
        "text": "Hi <@U013NQG86SC>! Will come back to you with a list of potential contributors asap. In the meantime, you can explore profiles by skills and see you could match best your needs, and contact them! Another option if you're looking for a sort of peer-review\/feedback on your project is to submit it to the project-review as part of the grant application (look for it in the annoucement channel): it provides you with feedback, and even microgrants!\nGood luck! And let's stay in touch",
        "user": "UV9V03C8Y",
        "ts": "1588592083.033000",
        "team": "TUU48M0T1",
        "user_team": "TUU48M0T1",
        "source_team": "TUU48M0T1",
        "user_profile": {
            "avatar_hash": "177697fb7b8f",
            "image_72": "https:\/\/avatars.slack-edge.com\/2020-03-12\/996126178096_177697fb7b8ffa57649c_72.jpg",
            "first_name": "Camille",
            "real_name": "Camille Masselot - JOGL Program coordinator",
            "display_name": "Camille Masselot - JOGL coordinator",
            "team": "TUU48M0T1",
            "name": "masselot.camille",
            "is_restricted": false,
            "is_ultra_restricted": false
        },
        "edited": {
            "user": "UV9V03C8Y",
            "ts": "1588592126.000000"
        },
        "blocks": [
            {
                "type": "rich_text",
                "block_id": "48EW",
                "elements": [
                    {
                        "type": "rich_text_section",
                        "elements": [
                            {
                                "type": "text",
                                "text": "Hi "
                            },
                            {
                                "type": "user",
                                "user_id": "U013NQG86SC"
                            },
                            {
                                "type": "text",
                                "text": "! Will come back to you with a list of potential contributors asap. In the meantime, you can explore profiles by skills and see you could match best your needs, and contact them! Another option if you're looking for a sort of peer-review\/feedback on your project is to submit it to the project-review as part of the grant application (look for it in the annoucement channel): it provides you with feedback, and even microgrants!\nGood luck! And let's stay in touch"
                            }
                        ]
                    }
                ]
            }
        ],
        "thread_ts": "1588536495.032400",
        "parent_user_id": "U013NQG86SC",
        "reactions": [
            {
                "name": "+1",
                "users": [
                    "U011B6VLM2A"
                ],
                "count": 1
            }
        ]
    },
    {
        "client_msg_id": "0ef277e1-f743-4bda-9e83-6353eea0b80e",
        "type": "message",
        "text": "Camille Masselot I thank you for your support ! I will just do as you say as I need teammates for this I am only a student here !",
        "user": "U013NQG86SC",
        "ts": "1588592317.033400",
        "team": "TUU48M0T1",
        "user_team": "TUU48M0T1",
        "source_team": "TUU48M0T1",
        "user_profile": {
            "avatar_hash": "gd07e00ae4f0",
            "image_72": "https:\/\/secure.gravatar.com\/avatar\/d07e00ae4f063cdc6f134e2da33a600f.jpg?s=72&d=https%3A%2F%2Fa.slack-edge.com%2Fdf10d%2Fimg%2Favatars%2Fava_0013-72.png",
            "first_name": "",
            "real_name": "JT95",
            "display_name": "JT95",
            "team": "TUU48M0T1",
            "name": "julietrinh95",
            "is_restricted": false,
            "is_ultra_restricted": false
        },
        "blocks": [
            {
                "type": "rich_text",
                "block_id": "oT9j",
                "elements": [
                    {
                        "type": "rich_text_section",
                        "elements": [
                            {
                                "type": "text",
                                "text": "Camille Masselot I thank you for your support ! I will just do as you say as I need teammates for this I am only a student here !"
                            }
                        ]
                    }
                ]
            }
        ],
        "thread_ts": "1588536495.032400",
        "parent_user_id": "U013NQG86SC",
        "reactions": [
            {
                "name": "pray",
                "users": [
                    "UV9V03C8Y"
                ],
                "count": 1
            }
        ]
    },
    {
        "type": "message",
        "text": "Also go to the <#C01001T20RJ|chlg-treatment> channel and you can post something there. Feel free to browse projects which are similar on JOGL or on this Single Source of Truth available on the <#C01311KN2M6|billboard> channel: <https:\/\/open-covid19.slack.com\/files\/UV9V03C8Y\/F012H7SRQG4\/master-file_opencovid19>",
        "files": [
            {
                "id": "F012H7SRQG4",
                "created": 1587566757,
                "timestamp": 1587566757,
                "name": "Master-file_Opencovid19",
                "title": "Single Source of Truth -- Opencovid19",
                "mimetype": "application\/vnd.google-apps.spreadsheet",
                "filetype": "gsheet",
                "pretty_type": "GSuite Spreadsheet",
                "user": "UV9V03C8Y",
                "editable": false,
                "size": 515125,
                "mode": "external",
                "is_external": true,
                "external_type": "gdrive",
                "is_public": true,
                "public_url_shared": false,
                "display_as_bot": false,
                "username": "",
                "url_private": "https:\/\/docs.google.com\/spreadsheets\/d\/1gnka4rNOkY5DIgoUx5SkIMlFlKZEBTbj8aAIwvYuLuY\/edit#gid=1655667408",
                "thumb_64": "https:\/\/files.slack.com\/files-tmb\/TUU48M0T1-F012H7SRQG4-36955a1ab6\/master-file_opencovid19_64.png?t=xoxe-980144714919-1106606678066-1105227127893-6f722bb664235052954ad46852628b64",
                "thumb_80": "https:\/\/files.slack.com\/files-tmb\/TUU48M0T1-F012H7SRQG4-36955a1ab6\/master-file_opencovid19_80.png?t=xoxe-980144714919-1106606678066-1105227127893-6f722bb664235052954ad46852628b64",
                "thumb_360": "https:\/\/files.slack.com\/files-tmb\/TUU48M0T1-F012H7SRQG4-36955a1ab6\/master-file_opencovid19_360.png?t=xoxe-980144714919-1106606678066-1105227127893-6f722bb664235052954ad46852628b64",
                "thumb_360_w": 254,
                "thumb_360_h": 360,
                "thumb_480": "https:\/\/files.slack.com\/files-tmb\/TUU48M0T1-F012H7SRQG4-36955a1ab6\/master-file_opencovid19_480.png?t=xoxe-980144714919-1106606678066-1105227127893-6f722bb664235052954ad46852628b64",
                "thumb_480_w": 339,
                "thumb_480_h": 480,
                "thumb_160": "https:\/\/files.slack.com\/files-tmb\/TUU48M0T1-F012H7SRQG4-36955a1ab6\/master-file_opencovid19_160.png?t=xoxe-980144714919-1106606678066-1105227127893-6f722bb664235052954ad46852628b64",
                "thumb_720": "https:\/\/files.slack.com\/files-tmb\/TUU48M0T1-F012H7SRQG4-36955a1ab6\/master-file_opencovid19_720.png?t=xoxe-980144714919-1106606678066-1105227127893-6f722bb664235052954ad46852628b64",
                "thumb_720_w": 509,
                "thumb_720_h": 720,
                "thumb_800": "https:\/\/files.slack.com\/files-tmb\/TUU48M0T1-F012H7SRQG4-36955a1ab6\/master-file_opencovid19_800.png?t=xoxe-980144714919-1106606678066-1105227127893-6f722bb664235052954ad46852628b64",
                "thumb_800_w": 800,
                "thumb_800_h": 1132,
                "thumb_960": "https:\/\/files.slack.com\/files-tmb\/TUU48M0T1-F012H7SRQG4-36955a1ab6\/master-file_opencovid19_960.png?t=xoxe-980144714919-1106606678066-1105227127893-6f722bb664235052954ad46852628b64",
                "thumb_960_w": 678,
                "thumb_960_h": 960,
                "thumb_1024": "https:\/\/files.slack.com\/files-tmb\/TUU48M0T1-F012H7SRQG4-36955a1ab6\/master-file_opencovid19_1024.png?t=xoxe-980144714919-1106606678066-1105227127893-6f722bb664235052954ad46852628b64",
                "thumb_1024_w": 724,
                "thumb_1024_h": 1024,
                "image_exif_rotation": 1,
                "original_w": 1024,
                "original_h": 1449,
                "thumb_tiny": "AwAwACHQcvu+VkA9xTSZezx\/kf8AGnnG6g9KAuMPm\/3o\/wDvk\/40q+buG5kx6Af\/AF6ce1LQO4tFFFAhpxuoPAoIO7\/69B6c0CEPanCm9hThQAtFFFAxDnPX9KQ9P\/rUuOaCKBCelKKMH2oxQAtFFFAz\/9k=",
                "permalink": "https:\/\/open-covid19.slack.com\/files\/UV9V03C8Y\/F012H7SRQG4\/master-file_opencovid19",
                "is_starred": false,
                "external_id": "1gnka4rNOkY5DIgoUx5SkIMlFlKZEBTbj8aAIwvYuLuY",
                "external_url": "https:\/\/docs.google.com\/spreadsheets\/d\/1gnka4rNOkY5DIgoUx5SkIMlFlKZEBTbj8aAIwvYuLuY\/edit#gid=1655667408",
                "has_rich_preview": true
            }
        ],
        "upload": false,
        "blocks": [
            {
                "type": "rich_text",
                "block_id": "fqu",
                "elements": [
                    {
                        "type": "rich_text_section",
                        "elements": [
                            {
                                "type": "text",
                                "text": "Also go to the "
                            },
                            {
                                "type": "channel",
                                "channel_id": "C01001T20RJ"
                            },
                            {
                                "type": "text",
                                "text": " channel and you can post something there. Feel free to browse projects which are similar on JOGL or on this Single Source of Truth available on the "
                            },
                            {
                                "type": "channel",
                                "channel_id": "C01311KN2M6"
                            },
                            {
                                "type": "text",
                                "text": " channel: "
                            },
                            {
                                "type": "link",
                                "url": "https:\/\/open-covid19.slack.com\/files\/UV9V03C8Y\/F012H7SRQG4\/master-file_opencovid19"
                            }
                        ]
                    }
                ]
            }
        ],
        "user": "UV9V03C8Y",
        "display_as_bot": false,
        "x_files": [
            "F012H7SRQG4"
        ],
        "ts": "1588593588.033800",
        "client_msg_id": "c75cfd8f-46ba-4636-9ead-680d9fb4c95f",
        "thread_ts": "1588536495.032400",
        "parent_user_id": "U013NQG86SC"
    },
    {
        "client_msg_id": "2e8c8df0-aaa6-4b97-9fbe-629d25f4a453",
        "type": "message",
        "text": "<@U0137HD742Y>",
        "user": "U011D6K9RH6",
        "ts": "1588631638.035000",
        "team": "TUU48M0T1",
        "user_team": "TUU48M0T1",
        "source_team": "TUU48M0T1",
        "user_profile": {
            "avatar_hash": "85c5155708e4",
            "image_72": "https:\/\/avatars.slack-edge.com\/2020-04-02\/1033600589794_85c5155708e4e6cfa61f_72.jpg",
            "first_name": "George",
            "real_name": "George Elerick",
            "display_name": "George Elerick",
            "team": "TUU48M0T1",
            "name": "george",
            "is_restricted": false,
            "is_ultra_restricted": false
        },
        "blocks": [
            {
                "type": "rich_text",
                "block_id": "hZx",
                "elements": [
                    {
                        "type": "rich_text_section",
                        "elements": [
                            {
                                "type": "user",
                                "user_id": "U0137HD742Y"
                            }
                        ]
                    }
                ]
            }
        ]
    }
]