[
    {
        "type": "message",
        "subtype": "channel_join",
        "ts": "1587410964.000200",
        "user": "UV9V03C8Y",
        "text": "<@UV9V03C8Y> has joined the channel"
    },
    {
        "type": "message",
        "subtype": "channel_purpose",
        "ts": "1587410965.000300",
        "user": "UV9V03C8Y",
        "text": "<@UV9V03C8Y> set the channel purpose: Focus on improving onboarding for the Opencovid19 initiative",
        "purpose": "Focus on improving onboarding for the Opencovid19 initiative"
    },
    {
        "type": "message",
        "subtype": "channel_join",
        "ts": "1587411030.000500",
        "user": "UV87UQ37A",
        "text": "<@UV87UQ37A> has joined the channel",
        "inviter": "UV9V03C8Y"
    },
    {
        "type": "message",
        "subtype": "channel_join",
        "ts": "1587411030.000700",
        "user": "UV2SC7ZE3",
        "text": "<@UV2SC7ZE3> has joined the channel",
        "inviter": "UV9V03C8Y"
    },
    {
        "type": "message",
        "subtype": "channel_join",
        "ts": "1587411030.000900",
        "user": "U011D8T1Z61",
        "text": "<@U011D8T1Z61> has joined the channel",
        "inviter": "UV9V03C8Y"
    },
    {
        "type": "message",
        "subtype": "channel_join",
        "ts": "1587411030.001100",
        "user": "U0101DKUALV",
        "text": "<@U0101DKUALV> has joined the channel",
        "inviter": "UV9V03C8Y"
    },
    {
        "type": "message",
        "subtype": "channel_join",
        "ts": "1587411030.001300",
        "user": "U010Q3372P3",
        "text": "<@U010Q3372P3> has joined the channel",
        "inviter": "UV9V03C8Y"
    },
    {
        "type": "message",
        "subtype": "channel_join",
        "ts": "1587411031.001500",
        "user": "U011B6VLM2A",
        "text": "<@U011B6VLM2A> has joined the channel",
        "inviter": "UV9V03C8Y"
    },
    {
        "type": "message",
        "subtype": "channel_join",
        "ts": "1587411031.001700",
        "user": "U0103LPAWQ4",
        "text": "<@U0103LPAWQ4> has joined the channel",
        "inviter": "UV9V03C8Y"
    },
    {
        "type": "message",
        "subtype": "channel_join",
        "ts": "1587411031.001900",
        "user": "UV02WET96",
        "text": "<@UV02WET96> has joined the channel",
        "inviter": "UV9V03C8Y"
    },
    {
        "type": "message",
        "subtype": "channel_join",
        "ts": "1587411031.002100",
        "user": "UV85V64SD",
        "text": "<@UV85V64SD> has joined the channel",
        "inviter": "UV9V03C8Y"
    },
    {
        "type": "message",
        "subtype": "channel_join",
        "ts": "1587411031.002300",
        "user": "UVC9WMA7N",
        "text": "<@UVC9WMA7N> has joined the channel",
        "inviter": "UV9V03C8Y"
    },
    {
        "type": "message",
        "subtype": "channel_join",
        "ts": "1587411039.002500",
        "user": "UV0QTJCMT",
        "text": "<@UV0QTJCMT> has joined the channel",
        "inviter": "UV9V03C8Y"
    },
    {
        "client_msg_id": "3158089e-10bb-47dc-9e27-a4f118383c29",
        "type": "message",
        "text": "Hi everyone!\nThis is where we are taking notes of our meetings: <https:\/\/docs.google.com\/document\/d\/136k4NXlj9v7BMb9E9l4MGWznvhh09W9o1z2wfB2N4ZI\/edit#|Onboarding Meeting Minutes>\n\nHere is the list of the working documents:\n• <https:\/\/docs.google.com\/document\/d\/1h0Zu-Q_c71FUlyh66rAPcNR1s7ASOatY2oicsaedzsk\/edit|Onboarding document>\n• <https:\/\/drive.google.com\/open?id=1rSFmGdFS7A4ckYSQ1PCt9qmbrhfeagpqNr1gydELGlg|Greetbot message>\n• <https:\/\/docs.google.com\/document\/d\/1-HBlYk90BVpMT5i6MNMbtrQ9QQL9Vu7amFW4WEHggdQ\/edit#heading=h.g1vuif6i4y73|FAQ>\n• <https:\/\/drive.google.com\/open?id=1KWeTDe6JkAizTZSVu4j5sqxf1ZpuQZbRY_pTgB-0R-w|Onboarding workflow>\nAnd all the documents mentioning onboarding:\n• <https:\/\/docs.google.com\/document\/d\/1h0Zu-Q_c71FUlyh66rAPcNR1s7ASOatY2oicsaedzsk\/edit|Onboarding document>\n• <https:\/\/docs.google.com\/spreadsheets\/d\/1CZSZcbVbtfAOdJZtWTsXpIjk4wA6P6Href2TgaIBiX0\/edit#gid=0|List of pain points to solve>\n• <https:\/\/docs.google.com\/spreadsheets\/d\/12gwA5Mpccjgcss15HX2DUYDjJ1ku0k_ZXNMsXNLBL00\/edit#gid=0|Master task management>\n• <https:\/\/docs.google.com\/document\/d\/1TDDpepQYorDm9FNa0_UZe_tFbFOhrwC6R8P5YtY8pj4\/edit#|Onboarding process review>\n• <https:\/\/docs.google.com\/document\/d\/1XieaaUdIHxG5uciTS6Tu9jhPOniBMc1hL5uV6JCqSe0\/edit|Governance part 2 >\n• <https:\/\/drive.google.com\/open?id=1rSFmGdFS7A4ckYSQ1PCt9qmbrhfeagpqNr1gydELGlg|Greetbot message>",
        "user": "UV9V03C8Y",
        "ts": "1587411332.004400",
        "team": "TUU48M0T1",
        "user_team": "TUU48M0T1",
        "source_team": "TUU48M0T1",
        "user_profile": {
            "avatar_hash": "177697fb7b8f",
            "image_72": "https:\/\/avatars.slack-edge.com\/2020-03-12\/996126178096_177697fb7b8ffa57649c_72.jpg",
            "first_name": "Camille",
            "real_name": "Camille Masselot - JOGL Program coordinator",
            "display_name": "Camille Masselot - JOGL coordinator",
            "team": "TUU48M0T1",
            "name": "masselot.camille",
            "is_restricted": false,
            "is_ultra_restricted": false
        },
        "blocks": [
            {
                "type": "rich_text",
                "block_id": "wXc",
                "elements": [
                    {
                        "type": "rich_text_section",
                        "elements": [
                            {
                                "type": "text",
                                "text": "Hi everyone!\nThis is where we are taking notes of our meetings: "
                            },
                            {
                                "type": "link",
                                "url": "https:\/\/docs.google.com\/document\/d\/136k4NXlj9v7BMb9E9l4MGWznvhh09W9o1z2wfB2N4ZI\/edit#",
                                "text": "Onboarding Meeting Minutes"
                            },
                            {
                                "type": "text",
                                "text": "\n\nHere is the list of the working documents:\n"
                            }
                        ]
                    },
                    {
                        "type": "rich_text_list",
                        "elements": [
                            {
                                "type": "rich_text_section",
                                "elements": [
                                    {
                                        "type": "link",
                                        "url": "https:\/\/docs.google.com\/document\/d\/1h0Zu-Q_c71FUlyh66rAPcNR1s7ASOatY2oicsaedzsk\/edit",
                                        "text": "Onboarding document"
                                    }
                                ]
                            },
                            {
                                "type": "rich_text_section",
                                "elements": [
                                    {
                                        "type": "link",
                                        "url": "https:\/\/drive.google.com\/open?id=1rSFmGdFS7A4ckYSQ1PCt9qmbrhfeagpqNr1gydELGlg",
                                        "text": "Greetbot message"
                                    }
                                ]
                            },
                            {
                                "type": "rich_text_section",
                                "elements": [
                                    {
                                        "type": "link",
                                        "url": "https:\/\/docs.google.com\/document\/d\/1-HBlYk90BVpMT5i6MNMbtrQ9QQL9Vu7amFW4WEHggdQ\/edit#heading=h.g1vuif6i4y73",
                                        "text": "FAQ"
                                    }
                                ]
                            },
                            {
                                "type": "rich_text_section",
                                "elements": [
                                    {
                                        "type": "link",
                                        "url": "https:\/\/drive.google.com\/open?id=1KWeTDe6JkAizTZSVu4j5sqxf1ZpuQZbRY_pTgB-0R-w",
                                        "text": "Onboarding workflow"
                                    }
                                ]
                            }
                        ],
                        "style": "bullet",
                        "indent": 0
                    },
                    {
                        "type": "rich_text_section",
                        "elements": [
                            {
                                "type": "text",
                                "text": "\nAnd all the documents mentioning onboarding:\n"
                            }
                        ]
                    },
                    {
                        "type": "rich_text_list",
                        "elements": [
                            {
                                "type": "rich_text_section",
                                "elements": [
                                    {
                                        "type": "link",
                                        "url": "https:\/\/docs.google.com\/document\/d\/1h0Zu-Q_c71FUlyh66rAPcNR1s7ASOatY2oicsaedzsk\/edit",
                                        "text": "Onboarding document"
                                    }
                                ]
                            },
                            {
                                "type": "rich_text_section",
                                "elements": [
                                    {
                                        "type": "link",
                                        "url": "https:\/\/docs.google.com\/spreadsheets\/d\/1CZSZcbVbtfAOdJZtWTsXpIjk4wA6P6Href2TgaIBiX0\/edit#gid=0",
                                        "text": "List of pain points to solve"
                                    }
                                ]
                            },
                            {
                                "type": "rich_text_section",
                                "elements": [
                                    {
                                        "type": "link",
                                        "url": "https:\/\/docs.google.com\/spreadsheets\/d\/12gwA5Mpccjgcss15HX2DUYDjJ1ku0k_ZXNMsXNLBL00\/edit#gid=0",
                                        "text": "Master task management"
                                    }
                                ]
                            },
                            {
                                "type": "rich_text_section",
                                "elements": [
                                    {
                                        "type": "link",
                                        "url": "https:\/\/docs.google.com\/document\/d\/1TDDpepQYorDm9FNa0_UZe_tFbFOhrwC6R8P5YtY8pj4\/edit#",
                                        "text": "Onboarding process review"
                                    }
                                ]
                            },
                            {
                                "type": "rich_text_section",
                                "elements": [
                                    {
                                        "type": "link",
                                        "url": "https:\/\/docs.google.com\/document\/d\/1XieaaUdIHxG5uciTS6Tu9jhPOniBMc1hL5uV6JCqSe0\/edit",
                                        "text": "Governance part 2 "
                                    }
                                ]
                            },
                            {
                                "type": "rich_text_section",
                                "elements": [
                                    {
                                        "type": "link",
                                        "url": "https:\/\/drive.google.com\/open?id=1rSFmGdFS7A4ckYSQ1PCt9qmbrhfeagpqNr1gydELGlg",
                                        "text": "Greetbot message"
                                    }
                                ]
                            }
                        ],
                        "style": "bullet",
                        "indent": 0
                    }
                ]
            }
        ]
    },
    {
        "client_msg_id": "98cdb070-98c9-4ac2-a2bd-0dfef09e075c",
        "type": "message",
        "text": "*Objective 1: Have a MVP of a \"good onboarding\" by the next Community call, Wednesday 22nd of April*\nThis includes the following items:\n• Revised version of the onboarding document\n• Revised version of the initial form\n• Workflow (put in a nice visual, and later a video) for orientation of people\n• FAQ\n• Master file with all projects, and useful links (to forms for instance)\n• \"Static channel\" gathering all these core documents",
        "user": "UV9V03C8Y",
        "ts": "1587411682.010000",
        "team": "TUU48M0T1",
        "user_team": "TUU48M0T1",
        "source_team": "TUU48M0T1",
        "user_profile": {
            "avatar_hash": "177697fb7b8f",
            "image_72": "https:\/\/avatars.slack-edge.com\/2020-03-12\/996126178096_177697fb7b8ffa57649c_72.jpg",
            "first_name": "Camille",
            "real_name": "Camille Masselot - JOGL Program coordinator",
            "display_name": "Camille Masselot - JOGL coordinator",
            "team": "TUU48M0T1",
            "name": "masselot.camille",
            "is_restricted": false,
            "is_ultra_restricted": false
        },
        "edited": {
            "user": "UV9V03C8Y",
            "ts": "1587411690.000000"
        },
        "blocks": [
            {
                "type": "rich_text",
                "block_id": "eGQ9",
                "elements": [
                    {
                        "type": "rich_text_section",
                        "elements": [
                            {
                                "type": "text",
                                "text": "Objective 1: Have a MVP of a \"good onboarding\" by the next Community call, Wednesday 22nd of April",
                                "style": {
                                    "bold": true
                                }
                            },
                            {
                                "type": "text",
                                "text": "\nThis includes the following items:\n"
                            }
                        ]
                    },
                    {
                        "type": "rich_text_list",
                        "elements": [
                            {
                                "type": "rich_text_section",
                                "elements": [
                                    {
                                        "type": "text",
                                        "text": "Revised version of the onboarding document"
                                    }
                                ]
                            },
                            {
                                "type": "rich_text_section",
                                "elements": [
                                    {
                                        "type": "text",
                                        "text": "Revised version of the initial form"
                                    }
                                ]
                            },
                            {
                                "type": "rich_text_section",
                                "elements": [
                                    {
                                        "type": "text",
                                        "text": "Workflow (put in a nice visual, and later a video) for orientation of people"
                                    }
                                ]
                            },
                            {
                                "type": "rich_text_section",
                                "elements": [
                                    {
                                        "type": "text",
                                        "text": "FAQ"
                                    }
                                ]
                            },
                            {
                                "type": "rich_text_section",
                                "elements": [
                                    {
                                        "type": "text",
                                        "text": "Master file with all projects, and useful links (to forms for instance)"
                                    }
                                ]
                            },
                            {
                                "type": "rich_text_section",
                                "elements": [
                                    {
                                        "type": "text",
                                        "text": "\"Static channel\" gathering all these core documents"
                                    }
                                ]
                            }
                        ],
                        "style": "bullet",
                        "indent": 0
                    }
                ]
            }
        ]
    },
    {
        "type": "message",
        "text": "*Stage of advancement:* \n\n*Here is the To Do we are working on. Feel free to volunteer some of your time on the FAQ for instance.* \n\n*On the onboarding Document:*\n• Update the initial form: see Robbie’s form [David Lu - in progress]\n• Add questions asking for experts\/mentors (cf students)\n• Eliminate redundancy when people create their profiles \n• Update program organization [Camille - in progress]\n• FIll what Manu has done with Holaspirit - [Camille wrote to Manu to be admin]*\n• List a Slack channel*\n• Update leadership sections, roles [Camille, not priority]\n• Link to the governance document (clean version of the groups)\n• Design a <https:\/\/docs.google.com\/drawings\/d\/1KWeTDe6JkAizTZSVu4j5sqxf1ZpuQZbRY_pTgB-0R-w\/edit|workflow> (similar to Co-Immune): Camille [done]\n• Revise workflow [Camille - in progress]\n• Give the workflow to designers for nice visualization\n• Ask Bre if she would be willing to make a video out of it\n• Welcome walk through the Slack \n• Maybe shorters videos \/ tutorials\n• Joining project or projects: replaced by workflow\n• Link the FAQ\n• Add information about contact if people have questions: slack prgm-questions-support-feedback \n• Take each item action (of the workflow, but others as well if needed) and list a set a very simple action to follow → share it with people motivated \n*Other onboarding activities:*\n• Automatically add people to the prgm-question-support-feedback channel [Camille - done]\n• Add people to the prgm-support-question-feedback channel [Camille - is it possible?]\n• Check out what greet bot is “doing” or not: sending a message to new people arrives [Michelle - it’s working]\n• Add the Drive root link to the greetbot message:\n• FAQ [Michelle lead, ask for collaboration]: Camille: Answer the JOGL section ; Camille: list questions from the workflow ; Michelle: Slack + other \n• Work on definition [Alix, Victoria : can we have something ready by wednesday?]\n• Masterfile: containing everything [Camille + Alix?]",
        "files": [
            {
                "id": "F012BQ4HCV7",
                "mode": "tombstone"
            }
        ],
        "upload": false,
        "blocks": [
            {
                "type": "rich_text",
                "block_id": "x\/r",
                "elements": [
                    {
                        "type": "rich_text_section",
                        "elements": [
                            {
                                "type": "text",
                                "text": "Stage of advancement: ",
                                "style": {
                                    "bold": true
                                }
                            },
                            {
                                "type": "text",
                                "text": "\n\n"
                            },
                            {
                                "type": "text",
                                "text": "Here is the To Do we are working on. Feel free to volunteer some of your time on the FAQ for instance. ",
                                "style": {
                                    "bold": true
                                }
                            },
                            {
                                "type": "text",
                                "text": "\n\n"
                            },
                            {
                                "type": "text",
                                "text": "On the onboarding Document:",
                                "style": {
                                    "bold": true
                                }
                            },
                            {
                                "type": "text",
                                "text": "\n"
                            }
                        ]
                    },
                    {
                        "type": "rich_text_list",
                        "style": "bullet",
                        "indent": 0,
                        "elements": [
                            {
                                "type": "rich_text_section",
                                "elements": [
                                    {
                                        "type": "text",
                                        "text": "Update the initial form: see Robbie’s form [David Lu - in progress]"
                                    }
                                ]
                            },
                            {
                                "type": "rich_text_section",
                                "elements": [
                                    {
                                        "type": "text",
                                        "text": "Add questions asking for experts\/mentors (cf students)"
                                    }
                                ]
                            },
                            {
                                "type": "rich_text_section",
                                "elements": [
                                    {
                                        "type": "text",
                                        "text": "Eliminate redundancy when people create their profiles "
                                    }
                                ]
                            },
                            {
                                "type": "rich_text_section",
                                "elements": [
                                    {
                                        "type": "text",
                                        "text": "Update program organization [Camille - in progress]"
                                    }
                                ]
                            },
                            {
                                "type": "rich_text_section",
                                "elements": [
                                    {
                                        "type": "text",
                                        "text": "FIll what Manu has done with Holaspirit - [Camille wrote to Manu to be admin]*"
                                    }
                                ]
                            },
                            {
                                "type": "rich_text_section",
                                "elements": [
                                    {
                                        "type": "text",
                                        "text": "List a Slack channel*"
                                    }
                                ]
                            },
                            {
                                "type": "rich_text_section",
                                "elements": [
                                    {
                                        "type": "text",
                                        "text": "Update leadership sections, roles [Camille, not priority]"
                                    }
                                ]
                            },
                            {
                                "type": "rich_text_section",
                                "elements": [
                                    {
                                        "type": "text",
                                        "text": "Link to the governance document (clean version of the groups)"
                                    }
                                ]
                            },
                            {
                                "type": "rich_text_section",
                                "elements": [
                                    {
                                        "type": "text",
                                        "text": "Design a "
                                    },
                                    {
                                        "type": "link",
                                        "url": "https:\/\/docs.google.com\/drawings\/d\/1KWeTDe6JkAizTZSVu4j5sqxf1ZpuQZbRY_pTgB-0R-w\/edit",
                                        "text": "workflow"
                                    },
                                    {
                                        "type": "text",
                                        "text": " (similar to Co-Immune): Camille [done]"
                                    }
                                ]
                            },
                            {
                                "type": "rich_text_section",
                                "elements": [
                                    {
                                        "type": "text",
                                        "text": "Revise workflow [Camille - in progress]"
                                    }
                                ]
                            },
                            {
                                "type": "rich_text_section",
                                "elements": [
                                    {
                                        "type": "text",
                                        "text": "Give the workflow to designers for nice visualization"
                                    }
                                ]
                            },
                            {
                                "type": "rich_text_section",
                                "elements": [
                                    {
                                        "type": "text",
                                        "text": "Ask Bre if she would be willing to make a video out of it"
                                    }
                                ]
                            },
                            {
                                "type": "rich_text_section",
                                "elements": [
                                    {
                                        "type": "text",
                                        "text": "Welcome walk through the Slack "
                                    }
                                ]
                            },
                            {
                                "type": "rich_text_section",
                                "elements": [
                                    {
                                        "type": "text",
                                        "text": "Maybe shorters videos \/ tutorials"
                                    }
                                ]
                            },
                            {
                                "type": "rich_text_section",
                                "elements": [
                                    {
                                        "type": "text",
                                        "text": "Joining project or projects: replaced by workflow"
                                    }
                                ]
                            },
                            {
                                "type": "rich_text_section",
                                "elements": [
                                    {
                                        "type": "text",
                                        "text": "Link the FAQ"
                                    }
                                ]
                            },
                            {
                                "type": "rich_text_section",
                                "elements": [
                                    {
                                        "type": "text",
                                        "text": "Add information about contact if people have questions: slack prgm-questions-support-feedback "
                                    }
                                ]
                            },
                            {
                                "type": "rich_text_section",
                                "elements": [
                                    {
                                        "type": "text",
                                        "text": "Take each item action (of the workflow, but others as well if needed) and list a set a very simple action to follow → share it with people motivated "
                                    }
                                ]
                            }
                        ]
                    },
                    {
                        "type": "rich_text_section",
                        "elements": [
                            {
                                "type": "text",
                                "text": "\n"
                            },
                            {
                                "type": "text",
                                "text": "Other onboarding activities:",
                                "style": {
                                    "bold": true
                                }
                            },
                            {
                                "type": "text",
                                "text": "\n"
                            }
                        ]
                    },
                    {
                        "type": "rich_text_list",
                        "style": "bullet",
                        "indent": 0,
                        "elements": [
                            {
                                "type": "rich_text_section",
                                "elements": [
                                    {
                                        "type": "text",
                                        "text": "Automatically add people to the prgm-question-support-feedback channel [Camille - done]"
                                    }
                                ]
                            },
                            {
                                "type": "rich_text_section",
                                "elements": [
                                    {
                                        "type": "text",
                                        "text": "Add people to the prgm-support-question-feedback channel [Camille - is it possible?]"
                                    }
                                ]
                            },
                            {
                                "type": "rich_text_section",
                                "elements": [
                                    {
                                        "type": "text",
                                        "text": "Check out what greet bot is “doing” or not: sending a message to new people arrives [Michelle - it’s working]"
                                    }
                                ]
                            },
                            {
                                "type": "rich_text_section",
                                "elements": [
                                    {
                                        "type": "text",
                                        "text": "Add the Drive root link to the greetbot message:"
                                    }
                                ]
                            },
                            {
                                "type": "rich_text_section",
                                "elements": [
                                    {
                                        "type": "text",
                                        "text": "FAQ [Michelle lead, ask for collaboration]: Camille: Answer the JOGL section ; Camille: list questions from the workflow ; Michelle: Slack + other "
                                    }
                                ]
                            },
                            {
                                "type": "rich_text_section",
                                "elements": [
                                    {
                                        "type": "text",
                                        "text": "Work on definition [Alix, Victoria : can we have something ready by wednesday?]"
                                    }
                                ]
                            },
                            {
                                "type": "rich_text_section",
                                "elements": [
                                    {
                                        "type": "text",
                                        "text": "Masterfile: containing everything [Camille + Alix?]"
                                    }
                                ]
                            }
                        ]
                    }
                ]
            }
        ],
        "user": "UV9V03C8Y",
        "display_as_bot": false,
        "x_files": [
            "F012BQ4HCV7"
        ],
        "ts": "1587411890.013000",
        "client_msg_id": "f92a58cf-3438-43be-b4f4-ac579f669507"
    }
]