[
    {
        "type": "message",
        "subtype": "channel_join",
        "ts": "1588152626.000200",
        "user": "U011B6VLM2A",
        "text": "<@U011B6VLM2A> has joined the channel"
    },
    {
        "client_msg_id": "8866488a-aca8-46a1-995e-ee69478a9c7c",
        "type": "message",
        "text": "*Hello @ channel*!\nI’m working on the coordination team and implementing a new Slack tool: User Groups. We’re looking to identify the main Project Lead(s) for each project, and add them to the Project Leads user group so that they can be easily contacted.\n*Who should I add from this project? <@U010DG4358Q>?*\nThanks!!",
        "user": "U011B6VLM2A",
        "ts": "1588152646.000500",
        "team": "TUU48M0T1",
        "user_team": "TUU48M0T1",
        "source_team": "TUU48M0T1",
        "user_profile": {
            "avatar_hash": "4231dc598cfc",
            "image_72": "https:\/\/avatars.slack-edge.com\/2020-04-02\/1044784558839_4231dc598cfc2e59c4c4_72.jpg",
            "first_name": "Alix",
            "real_name": "Alix Mains",
            "display_name": "Alix Mains - JOGL Coordinator",
            "team": "TUU48M0T1",
            "name": "alixhmains",
            "is_restricted": false,
            "is_ultra_restricted": false
        },
        "blocks": [
            {
                "type": "rich_text",
                "block_id": "J=Q9Y",
                "elements": [
                    {
                        "type": "rich_text_section",
                        "elements": [
                            {
                                "type": "text",
                                "text": "Hello @ channel",
                                "style": {
                                    "bold": true
                                }
                            },
                            {
                                "type": "text",
                                "text": "!\nI’m working on the coordination team and implementing a new Slack tool: User Groups. We’re looking to identify the main Project Lead(s) for each project, and add them to the Project Leads user group so that they can be easily contacted.\n"
                            },
                            {
                                "type": "text",
                                "text": "Who should I add from this project? ",
                                "style": {
                                    "bold": true
                                }
                            },
                            {
                                "type": "user",
                                "user_id": "U010DG4358Q",
                                "style": {
                                    "bold": true
                                }
                            },
                            {
                                "type": "text",
                                "text": "?",
                                "style": {
                                    "bold": true
                                }
                            },
                            {
                                "type": "text",
                                "text": "\nThanks!!"
                            }
                        ]
                    }
                ]
            }
        ]
    },
    {
        "client_msg_id": "966f1dd0-1655-4466-b4b1-5442c45e4f4a",
        "type": "message",
        "text": "Hello. Currently I am the only one who is using this page but I expect more material added soon. We have been experiencing some technical delays getting started because of delayed shipping of materials.",
        "user": "U010DG4358Q",
        "ts": "1588173866.000900",
        "team": "TUU48M0T1",
        "user_team": "TUU48M0T1",
        "source_team": "TUU48M0T1",
        "user_profile": {
            "avatar_hash": "80e278cd989c",
            "image_72": "https:\/\/avatars.slack-edge.com\/2020-04-13\/1057906664754_80e278cd989cdea6fcc7_72.png",
            "first_name": "swedishmadscientist",
            "real_name": "swedishmadscientist",
            "display_name": "swedishmadscientist",
            "team": "TUU48M0T1",
            "name": "antoniolamb",
            "is_restricted": false,
            "is_ultra_restricted": false
        },
        "blocks": [
            {
                "type": "rich_text",
                "block_id": "1mGLN",
                "elements": [
                    {
                        "type": "rich_text_section",
                        "elements": [
                            {
                                "type": "text",
                                "text": "Hello. Currently I am the only one who is using this page but I expect more material added soon. We have been experiencing some technical delays getting started because of delayed shipping of materials."
                            }
                        ]
                    }
                ]
            }
        ]
    }
]