[
    {
        "client_msg_id": "f659f234-60e8-425f-951f-dc9a0b2e0509",
        "type": "message",
        "text": "Hi all, Nice to meet you and join you here. In response to Covid, I’m working on local impact and responsiveness in rural communities in Africa.  Coming from social impact space with geopolitical background and lots of different interests and experiences.\nLooking forward to discovering how I can engage and be of help to what you are.",
        "user": "U013EQ95FNV",
        "ts": "1588768437.054000",
        "team": "TUU48M0T1",
        "user_team": "TUU48M0T1",
        "source_team": "TUU48M0T1",
        "user_profile": {
            "avatar_hash": "g8040021eb97",
            "image_72": "https:\/\/secure.gravatar.com\/avatar\/8040021eb9736a388277eaa70ca32824.jpg?s=72&d=https%3A%2F%2Fa.slack-edge.com%2Fdf10d%2Fimg%2Favatars%2Fava_0017-72.png",
            "first_name": "",
            "real_name": "Anna",
            "display_name": "Anna",
            "team": "TUU48M0T1",
            "name": "annateresakopacz",
            "is_restricted": false,
            "is_ultra_restricted": false
        },
        "blocks": [
            {
                "type": "rich_text",
                "block_id": "wsaH+",
                "elements": [
                    {
                        "type": "rich_text_section",
                        "elements": [
                            {
                                "type": "text",
                                "text": "Hi all, Nice to meet you and join you here. In response to Covid, I’m working on local impact and responsiveness in rural communities in Africa.  Coming from social impact space with geopolitical background and lots of different interests and experiences.\nLooking forward to discovering how I can engage and be of help to what you are."
                            }
                        ]
                    }
                ]
            }
        ],
        "thread_ts": "1588768437.054000",
        "reply_count": 4,
        "reply_users_count": 2,
        "latest_reply": "1588936792.059500",
        "reply_users": [
            "UG400K8TS",
            "U013EQ95FNV"
        ],
        "replies": [
            {
                "user": "UG400K8TS",
                "ts": "1588769699.054500"
            },
            {
                "user": "U013EQ95FNV",
                "ts": "1588770541.055500"
            },
            {
                "user": "UG400K8TS",
                "ts": "1588936724.059100"
            },
            {
                "user": "U013EQ95FNV",
                "ts": "1588936792.059500"
            }
        ],
        "subscribed": false,
        "reactions": [
            {
                "name": "+1",
                "users": [
                    "UV9V03C8Y",
                    "UG400K8TS",
                    "UV02WET96"
                ],
                "count": 3
            }
        ]
    },
    {
        "type": "message",
        "subtype": "thread_broadcast",
        "text": "Hi Anna, nice to e-meet you here.\nMembers of the AfricArXiv team and wider community had previously shared resources and infos under CC-BY license and Open Access at <https:\/\/zenodo.org\/communities\/africarxiv\/> (a scholarly repository).\n\nWe are planning to set up JOGL projects to grow some of those initiatives further and for wider  discoverability and usability.",
        "user": "UG400K8TS",
        "ts": "1588769699.054500",
        "thread_ts": "1588768437.054000",
        "root": {
            "client_msg_id": "f659f234-60e8-425f-951f-dc9a0b2e0509",
            "type": "message",
            "text": "Hi all, Nice to meet you and join you here. In response to Covid, I’m working on local impact and responsiveness in rural communities in Africa.  Coming from social impact space with geopolitical background and lots of different interests and experiences.\nLooking forward to discovering how I can engage and be of help to what you are.",
            "user": "U013EQ95FNV",
            "ts": "1588768437.054000",
            "team": "TUU48M0T1",
            "blocks": [
                {
                    "type": "rich_text",
                    "block_id": "wsaH+",
                    "elements": [
                        {
                            "type": "rich_text_section",
                            "elements": [
                                {
                                    "type": "text",
                                    "text": "Hi all, Nice to meet you and join you here. In response to Covid, I’m working on local impact and responsiveness in rural communities in Africa.  Coming from social impact space with geopolitical background and lots of different interests and experiences.\nLooking forward to discovering how I can engage and be of help to what you are."
                                }
                            ]
                        }
                    ]
                }
            ],
            "thread_ts": "1588768437.054000",
            "reply_count": 4,
            "reply_users_count": 2,
            "latest_reply": "1588936792.059500",
            "reply_users": [
                "UG400K8TS",
                "U013EQ95FNV"
            ],
            "subscribed": false
        },
        "blocks": [
            {
                "type": "rich_text",
                "block_id": "pAI",
                "elements": [
                    {
                        "type": "rich_text_section",
                        "elements": [
                            {
                                "type": "text",
                                "text": "Hi Anna, nice to e-meet you here.\nMembers of the AfricArXiv team and wider community had previously shared resources and infos under CC-BY license and Open Access at "
                            },
                            {
                                "type": "link",
                                "url": "https:\/\/zenodo.org\/communities\/africarxiv\/"
                            },
                            {
                                "type": "text",
                                "text": " (a scholarly repository).\n\nWe are planning to set up JOGL projects to grow some of those initiatives further and for wider  discoverability and usability."
                            }
                        ]
                    }
                ]
            }
        ],
        "client_msg_id": "8ecef08f-8bc9-4116-a606-94796eee640d"
    },
    {
        "client_msg_id": "7B664EEA-7ABD-495D-A3EB-81CDF52B263C",
        "type": "message",
        "text": "Welcome <@U013EQ95FNV> :) ",
        "user": "UV02WET96",
        "ts": "1588770205.055100",
        "team": "TUU48M0T1",
        "user_team": "TUU48M0T1",
        "source_team": "TUU48M0T1",
        "user_profile": {
            "avatar_hash": "a99c74a194f8",
            "image_72": "https:\/\/avatars.slack-edge.com\/2020-03-07\/975708504851_a99c74a194f86715ca7d_72.png",
            "first_name": "Thomas",
            "real_name": "Thomas Landrain",
            "display_name": "Thomas Landrain - JOGL CoFounder \/ CEO",
            "team": "TUU48M0T1",
            "name": "thomas",
            "is_restricted": false,
            "is_ultra_restricted": false
        },
        "blocks": [
            {
                "type": "rich_text",
                "block_id": "Ix37w",
                "elements": [
                    {
                        "type": "rich_text_section",
                        "elements": [
                            {
                                "type": "text",
                                "text": "Welcome "
                            },
                            {
                                "type": "user",
                                "user_id": "U013EQ95FNV"
                            },
                            {
                                "type": "text",
                                "text": " :) "
                            }
                        ]
                    }
                ]
            }
        ],
        "reactions": [
            {
                "name": "+1",
                "users": [
                    "U013EQ95FNV"
                ],
                "count": 1
            }
        ]
    },
    {
        "client_msg_id": "c87bd217-4461-42de-8ee3-46cac1119968",
        "type": "message",
        "text": "Thank you <@UG400K8TS> This is an incredible source of information that can further and accelerate the local progress. Will do what I can to contribute. Any other suggestions as to where to get involved is greatly welcomed!",
        "user": "U013EQ95FNV",
        "ts": "1588770541.055500",
        "team": "TUU48M0T1",
        "user_team": "TUU48M0T1",
        "source_team": "TUU48M0T1",
        "user_profile": {
            "avatar_hash": "g8040021eb97",
            "image_72": "https:\/\/secure.gravatar.com\/avatar\/8040021eb9736a388277eaa70ca32824.jpg?s=72&d=https%3A%2F%2Fa.slack-edge.com%2Fdf10d%2Fimg%2Favatars%2Fava_0017-72.png",
            "first_name": "",
            "real_name": "Anna",
            "display_name": "Anna",
            "team": "TUU48M0T1",
            "name": "annateresakopacz",
            "is_restricted": false,
            "is_ultra_restricted": false
        },
        "blocks": [
            {
                "type": "rich_text",
                "block_id": "izdWJ",
                "elements": [
                    {
                        "type": "rich_text_section",
                        "elements": [
                            {
                                "type": "text",
                                "text": "Thank you "
                            },
                            {
                                "type": "user",
                                "user_id": "UG400K8TS"
                            },
                            {
                                "type": "text",
                                "text": " This is an incredible source of information that can further and accelerate the local progress. Will do what I can to contribute. Any other suggestions as to where to get involved is greatly welcomed!"
                            }
                        ]
                    }
                ]
            }
        ],
        "thread_ts": "1588768437.054000",
        "parent_user_id": "U013EQ95FNV"
    },
    {
        "type": "message",
        "text": "*<!channel> * Dear all, *if you have a project on JOGL*, please use this document to *indicate any updates* you’d like to share during our *Global Community call happening in 1 hour! <https:\/\/us02web.zoom.us\/j\/7804345815>*\nThanks a lot and take care :raised_hands:\n\n :point_right: <https:\/\/docs.google.com\/document\/d\/14wSi_AG7mduWY3IrkUGpUdFJAB-Dnxrh5RmFuxTt2D0\/edit>",
        "files": [
            {
                "id": "F01357PU350",
                "created": 1588774560,
                "timestamp": 1588774560,
                "name": "2020-05-06 Tenth Global Community Call - OpenCovid19",
                "title": "2020-05-06 Tenth Global Community Call - OpenCovid19",
                "mimetype": "application\/vnd.google-apps.document",
                "filetype": "gdoc",
                "pretty_type": "GSuite Document",
                "user": "U011B6VLM2A",
                "editable": false,
                "size": 2240,
                "mode": "external",
                "is_external": true,
                "external_type": "gdrive",
                "is_public": true,
                "public_url_shared": false,
                "display_as_bot": false,
                "username": "",
                "url_private": "https:\/\/docs.google.com\/document\/d\/14wSi_AG7mduWY3IrkUGpUdFJAB-Dnxrh5RmFuxTt2D0\/edit",
                "thumb_64": "https:\/\/files.slack.com\/files-tmb\/TUU48M0T1-F01357PU350-fc46c9690c\/2020-05-06_tenth_global_community_call_-_opencovid19_64.png?t=xoxe-980144714919-1133254701825-1120841107731-daf595b5a7d6c9028b0b02a925032e36",
                "thumb_80": "https:\/\/files.slack.com\/files-tmb\/TUU48M0T1-F01357PU350-fc46c9690c\/2020-05-06_tenth_global_community_call_-_opencovid19_80.png?t=xoxe-980144714919-1133254701825-1120841107731-daf595b5a7d6c9028b0b02a925032e36",
                "thumb_360": "https:\/\/files.slack.com\/files-tmb\/TUU48M0T1-F01357PU350-fc46c9690c\/2020-05-06_tenth_global_community_call_-_opencovid19_360.png?t=xoxe-980144714919-1133254701825-1120841107731-daf595b5a7d6c9028b0b02a925032e36",
                "thumb_360_w": 278,
                "thumb_360_h": 360,
                "thumb_480": "https:\/\/files.slack.com\/files-tmb\/TUU48M0T1-F01357PU350-fc46c9690c\/2020-05-06_tenth_global_community_call_-_opencovid19_480.png?t=xoxe-980144714919-1133254701825-1120841107731-daf595b5a7d6c9028b0b02a925032e36",
                "thumb_480_w": 371,
                "thumb_480_h": 480,
                "thumb_160": "https:\/\/files.slack.com\/files-tmb\/TUU48M0T1-F01357PU350-fc46c9690c\/2020-05-06_tenth_global_community_call_-_opencovid19_160.png?t=xoxe-980144714919-1133254701825-1120841107731-daf595b5a7d6c9028b0b02a925032e36",
                "thumb_720": "https:\/\/files.slack.com\/files-tmb\/TUU48M0T1-F01357PU350-fc46c9690c\/2020-05-06_tenth_global_community_call_-_opencovid19_720.png?t=xoxe-980144714919-1133254701825-1120841107731-daf595b5a7d6c9028b0b02a925032e36",
                "thumb_720_w": 557,
                "thumb_720_h": 720,
                "thumb_800": "https:\/\/files.slack.com\/files-tmb\/TUU48M0T1-F01357PU350-fc46c9690c\/2020-05-06_tenth_global_community_call_-_opencovid19_800.png?t=xoxe-980144714919-1133254701825-1120841107731-daf595b5a7d6c9028b0b02a925032e36",
                "thumb_800_w": 800,
                "thumb_800_h": 1035,
                "thumb_960": "https:\/\/files.slack.com\/files-tmb\/TUU48M0T1-F01357PU350-fc46c9690c\/2020-05-06_tenth_global_community_call_-_opencovid19_960.png?t=xoxe-980144714919-1133254701825-1120841107731-daf595b5a7d6c9028b0b02a925032e36",
                "thumb_960_w": 742,
                "thumb_960_h": 960,
                "thumb_1024": "https:\/\/files.slack.com\/files-tmb\/TUU48M0T1-F01357PU350-fc46c9690c\/2020-05-06_tenth_global_community_call_-_opencovid19_1024.png?t=xoxe-980144714919-1133254701825-1120841107731-daf595b5a7d6c9028b0b02a925032e36",
                "thumb_1024_w": 791,
                "thumb_1024_h": 1024,
                "image_exif_rotation": 1,
                "original_w": 800,
                "original_h": 1035,
                "thumb_tiny": "AwAwACXTppkQEgsAR156Upz2xUZxuJ2rnuaAJNy\/3h+dKCD0NRbv9lacpOPlC\/nQA+iiigBCQOtNOD0z+VObkdcUzb70AG0+p\/Kngcd6QYxySaUY7UALRRRQAjdKjxnoKlpNooARV5\/+tTuKTaKMCgBaKKKAP\/\/Z",
                "permalink": "https:\/\/open-covid19.slack.com\/files\/U011B6VLM2A\/F01357PU350\/2020-05-06_tenth_global_community_call_-_opencovid19",
                "is_starred": false,
                "external_id": "14wSi_AG7mduWY3IrkUGpUdFJAB-Dnxrh5RmFuxTt2D0",
                "external_url": "https:\/\/docs.google.com\/document\/d\/14wSi_AG7mduWY3IrkUGpUdFJAB-Dnxrh5RmFuxTt2D0\/edit",
                "has_rich_preview": true
            }
        ],
        "upload": false,
        "blocks": [
            {
                "type": "rich_text",
                "block_id": "Fk16z",
                "elements": [
                    {
                        "type": "rich_text_section",
                        "elements": [
                            {
                                "type": "broadcast",
                                "range": "channel",
                                "style": {
                                    "bold": true
                                }
                            },
                            {
                                "type": "text",
                                "text": " ",
                                "style": {
                                    "bold": true
                                }
                            },
                            {
                                "type": "text",
                                "text": " Dear all, "
                            },
                            {
                                "type": "text",
                                "text": "if you have a project on JOGL",
                                "style": {
                                    "bold": true
                                }
                            },
                            {
                                "type": "text",
                                "text": ", please use this document to "
                            },
                            {
                                "type": "text",
                                "text": "indicate any updates",
                                "style": {
                                    "bold": true
                                }
                            },
                            {
                                "type": "text",
                                "text": " you’d like to share during our "
                            },
                            {
                                "type": "text",
                                "text": "Global Community call happening in 1 hour! ",
                                "style": {
                                    "bold": true
                                }
                            },
                            {
                                "type": "link",
                                "url": "https:\/\/us02web.zoom.us\/j\/7804345815",
                                "style": {
                                    "bold": true
                                }
                            },
                            {
                                "type": "text",
                                "text": "\nThanks a lot and take care "
                            },
                            {
                                "type": "emoji",
                                "name": "raised_hands"
                            },
                            {
                                "type": "text",
                                "text": "\n\n "
                            },
                            {
                                "type": "emoji",
                                "name": "point_right"
                            },
                            {
                                "type": "text",
                                "text": " "
                            },
                            {
                                "type": "link",
                                "url": "https:\/\/docs.google.com\/document\/d\/14wSi_AG7mduWY3IrkUGpUdFJAB-Dnxrh5RmFuxTt2D0\/edit"
                            }
                        ]
                    }
                ]
            }
        ],
        "user": "UV9V03C8Y",
        "display_as_bot": false,
        "x_files": [
            "F01357PU350"
        ],
        "team": "TUU48M0T1",
        "ts": "1588776896.056000",
        "client_msg_id": "5b7167f0-5a9c-4124-bab7-b97949759711",
        "user_team": "TUU48M0T1",
        "source_team": "TUU48M0T1",
        "user_profile": {
            "avatar_hash": "177697fb7b8f",
            "image_72": "https:\/\/avatars.slack-edge.com\/2020-03-12\/996126178096_177697fb7b8ffa57649c_72.jpg",
            "first_name": "Camille",
            "real_name": "Camille Masselot - JOGL Program coordinator",
            "display_name": "Camille Masselot - JOGL coordinator",
            "team": "TUU48M0T1",
            "name": "masselot.camille",
            "is_restricted": false,
            "is_ultra_restricted": false
        },
        "reactions": [
            {
                "name": "+1",
                "users": [
                    "UG400K8TS"
                ],
                "count": 1
            }
        ]
    }
]