[
    {
        "client_msg_id": "23a55bc5-88ff-4589-99dd-030525e133f1",
        "type": "message",
        "text": "Hi <!channel>! Anyone joining the MIT covid19 hackathon starting now?",
        "user": "UV9V03C8Y",
        "ts": "1588352789.038700",
        "team": "TUU48M0T1",
        "user_team": "TUU48M0T1",
        "source_team": "TUU48M0T1",
        "user_profile": {
            "avatar_hash": "177697fb7b8f",
            "image_72": "https:\/\/avatars.slack-edge.com\/2020-03-12\/996126178096_177697fb7b8ffa57649c_72.jpg",
            "first_name": "Camille",
            "real_name": "Camille Masselot - JOGL Program coordinator",
            "display_name": "Camille Masselot - JOGL coordinator",
            "team": "TUU48M0T1",
            "name": "masselot.camille",
            "is_restricted": false,
            "is_ultra_restricted": false
        },
        "blocks": [
            {
                "type": "rich_text",
                "block_id": "6ku",
                "elements": [
                    {
                        "type": "rich_text_section",
                        "elements": [
                            {
                                "type": "text",
                                "text": "Hi "
                            },
                            {
                                "type": "broadcast",
                                "range": "channel"
                            },
                            {
                                "type": "text",
                                "text": "! Anyone joining the MIT covid19 hackathon starting now?"
                            }
                        ]
                    }
                ]
            }
        ]
    },
    {
        "client_msg_id": "cff69a36-360c-429c-850b-5f9858782ea9",
        "type": "message",
        "text": "Hello! I'm just now joining this channel and I am excited to see what I can learn or how I can contribute! :slightly_smiling_face:",
        "user": "U01342HB9QU",
        "ts": "1588387064.039400",
        "team": "TUU48M0T1",
        "user_team": "TUU48M0T1",
        "source_team": "TUU48M0T1",
        "user_profile": {
            "avatar_hash": "e818c50c19f3",
            "image_72": "https:\/\/avatars.slack-edge.com\/2020-05-12\/1120292054770_e818c50c19f388521daf_72.png",
            "first_name": "Fujr",
            "real_name": "Fujr Ibrahim",
            "display_name": "Fujr Ibrahim",
            "team": "TUU48M0T1",
            "name": "fibrahim1",
            "is_restricted": false,
            "is_ultra_restricted": false
        },
        "blocks": [
            {
                "type": "rich_text",
                "block_id": "GNQdE",
                "elements": [
                    {
                        "type": "rich_text_section",
                        "elements": [
                            {
                                "type": "text",
                                "text": "Hello! I'm just now joining this channel and I am excited to see what I can learn or how I can contribute! "
                            },
                            {
                                "type": "emoji",
                                "name": "slightly_smiling_face"
                            }
                        ]
                    }
                ]
            }
        ]
    },
    {
        "client_msg_id": "fbc7979b-774c-465d-8731-f6b101aab4ca",
        "type": "message",
        "text": "I'm a biotech student with a background in data science and I work on a lot of microbiology\/genetics related research on and off my campus",
        "user": "U01342HB9QU",
        "ts": "1588387122.040200",
        "team": "TUU48M0T1",
        "user_team": "TUU48M0T1",
        "source_team": "TUU48M0T1",
        "user_profile": {
            "avatar_hash": "e818c50c19f3",
            "image_72": "https:\/\/avatars.slack-edge.com\/2020-05-12\/1120292054770_e818c50c19f388521daf_72.png",
            "first_name": "Fujr",
            "real_name": "Fujr Ibrahim",
            "display_name": "Fujr Ibrahim",
            "team": "TUU48M0T1",
            "name": "fibrahim1",
            "is_restricted": false,
            "is_ultra_restricted": false
        },
        "blocks": [
            {
                "type": "rich_text",
                "block_id": "f6T",
                "elements": [
                    {
                        "type": "rich_text_section",
                        "elements": [
                            {
                                "type": "text",
                                "text": "I'm a biotech student with a background in data science and I work on a lot of microbiology\/genetics related research on and off my campus"
                            }
                        ]
                    }
                ]
            }
        ]
    }
]