[
    {
        "type": "message",
        "subtype": "channel_join",
        "ts": "1585745068.006100",
        "user": "U0115U5P1B6",
        "text": "<@U0115U5P1B6> has joined the channel"
    },
    {
        "client_msg_id": "f2d66f89-df08-4f89-aac4-c2b0aeff0f60",
        "type": "message",
        "text": "Hey everyone, looking forward to our global community call. Pease use this agenda to indicate what you’d like to speak about during the call:\n<https:\/\/docs.google.com\/document\/d\/1H0v-5KD1eATfnkD1U_XnoxfCT-BLIKl7sD3-tL1lmMQ\/edit>\nThanks!",
        "user": "UV02WET96",
        "ts": "1585754545.006300",
        "team": "TUU48M0T1",
        "user_team": "TUU48M0T1",
        "source_team": "TUU48M0T1",
        "user_profile": {
            "avatar_hash": "a99c74a194f8",
            "image_72": "https:\/\/avatars.slack-edge.com\/2020-03-07\/975708504851_a99c74a194f86715ca7d_72.png",
            "first_name": "Thomas",
            "real_name": "Thomas Landrain",
            "display_name": "Thomas Landrain - JOGL CoFounder \/ CEO",
            "team": "TUU48M0T1",
            "name": "thomas",
            "is_restricted": false,
            "is_ultra_restricted": false
        },
        "blocks": [
            {
                "type": "rich_text",
                "block_id": "kJj",
                "elements": [
                    {
                        "type": "rich_text_section",
                        "elements": [
                            {
                                "type": "text",
                                "text": "Hey everyone, looking forward to our global community call. Pease use this agenda to indicate what you’d like to speak about during the call:\n"
                            },
                            {
                                "type": "link",
                                "url": "https:\/\/docs.google.com\/document\/d\/1H0v-5KD1eATfnkD1U_XnoxfCT-BLIKl7sD3-tL1lmMQ\/edit"
                            },
                            {
                                "type": "text",
                                "text": "\nThanks!"
                            }
                        ]
                    }
                ]
            }
        ]
    },
    {
        "type": "message",
        "subtype": "channel_join",
        "ts": "1585759519.006600",
        "user": "UV5CCJ9RC",
        "text": "<@UV5CCJ9RC> has joined the channel"
    },
    {
        "type": "message",
        "subtype": "channel_join",
        "ts": "1585759567.006800",
        "user": "UUPQGNNTV",
        "text": "<@UUPQGNNTV> has joined the channel"
    },
    {
        "type": "message",
        "subtype": "channel_join",
        "ts": "1585763188.007000",
        "user": "U0117K6R72Q",
        "text": "<@U0117K6R72Q> has joined the channel"
    }
]