[
    {
        "type": "message",
        "subtype": "channel_join",
        "ts": "1586589597.000200",
        "user": "U011XCJJ7KK",
        "text": "<@U011XCJJ7KK> has joined the channel"
    },
    {
        "client_msg_id": "385a5e2a-2feb-424b-b004-d88f62522958",
        "type": "message",
        "text": "Social distancing is ultimately about creating physical distance between people who don't live together. At the community level, it means closing schools and workplaces and canceling events like concerts and Broadway shows. For individuals, it means keeping six feet of distance between you and others while in public and avoiding physical contact with people who do not share your home. Although schools, offices and businesses already had shut down to slow the spread of coronavirus, the park was packed in Boston, according to the New York Times. Peoples walk in groups close to each other even if there is very large ground surface area. This is because it is very hard to program ourselves to keep the 6 feet distance instantly even if it meant life and death. So we need some kind of monitoring mechanism that helps us keep our distance with strangers while we are walking on street or doing other tasks.\nThis project is about building a digital distance control mechanism that ensures our social distancing preventing us from exposing or being exposed to the coronavirus. This is done by using our smart phones. Where ever we are, we always carry our phone. Most of us these days carry smart phones. On our smart phones we install an application called digital distancing control. This application is a proximity sensor that detects when multiple smart phones are near each other less than 6 feet just like we use file sharing applications like Xender. When this application detects smart phone less than 6 feet, it consistently makes warning sound until there is at least 6 feet distance apart. This will program our selves because the more people use this the louder the sound is going to be because every one's phone will make sound. We may carry two smart phones at a time but this system will not create a false signal because the system generates signals for smart devices having the application installed and we do not need to install on our every smart device but just the one we carry at all time.",
        "user": "U011XCJJ7KK",
        "ts": "1586589981.000400",
        "team": "TUU48M0T1",
        "user_team": "TUU48M0T1",
        "source_team": "TUU48M0T1",
        "user_profile": {
            "avatar_hash": "a14335872167",
            "image_72": "https:\/\/avatars.slack-edge.com\/2020-04-10\/1052948616998_a1433587216787500a0e_72.jpg",
            "first_name": "Anteneh",
            "real_name": "Anteneh Gashaw",
            "display_name": "",
            "team": "TUU48M0T1",
            "name": "antenh.g",
            "is_restricted": false,
            "is_ultra_restricted": false
        },
        "blocks": [
            {
                "type": "rich_text",
                "block_id": "i0C",
                "elements": [
                    {
                        "type": "rich_text_section",
                        "elements": [
                            {
                                "type": "text",
                                "text": "Social distancing is ultimately about creating physical distance between people who don't live together. At the community level, it means closing schools and workplaces and canceling events like concerts and Broadway shows. For individuals, it means keeping six feet of distance between you and others while in public and avoiding physical contact with people who do not share your home. Although schools, offices and businesses already had shut down to slow the spread of coronavirus, the park was packed in Boston, according to the New York Times. Peoples walk in groups close to each other even if there is very large ground surface area. This is because it is very hard to program ourselves to keep the 6 feet distance instantly even if it meant life and death. So we need some kind of monitoring mechanism that helps us keep our distance with strangers while we are walking on street or doing other tasks.\nThis project is about building a digital distance control mechanism that ensures our social distancing preventing us from exposing or being exposed to the coronavirus. This is done by using our smart phones. Where ever we are, we always carry our phone. Most of us these days carry smart phones. On our smart phones we install an application called digital distancing control. This application is a proximity sensor that detects when multiple smart phones are near each other less than 6 feet just like we use file sharing applications like Xender. When this application detects smart phone less than 6 feet, it consistently makes warning sound until there is at least 6 feet distance apart. This will program our selves because the more people use this the louder the sound is going to be because every one's phone will make sound. We may carry two smart phones at a time but this system will not create a false signal because the system generates signals for smart devices having the application installed and we do not need to install on our every smart device but just the one we carry at all time."
                            }
                        ]
                    }
                ]
            }
        ]
    }
]