[
    {
        "client_msg_id": "0ea3120e-515a-4ef6-ad0c-4c8d88fabb43",
        "type": "message",
        "text": "We started from this model: <https:\/\/cults3d.com\/en\/3d-model\/gadget\/mask-mask?fbclid=IwAR0CS1zEmX6sEWNoR1oGAmAeFecNEbC3jYZESjd0EaDraTp7vsjW2naRrlQ>",
        "user": "U0106VDVAQ6",
        "ts": "1584428732.000500",
        "team": "TUU48M0T1",
        "user_team": "TUU48M0T1",
        "source_team": "TUU48M0T1",
        "user_profile": {
            "avatar_hash": "gcb646d37b14",
            "image_72": "https:\/\/secure.gravatar.com\/avatar\/cb646d37b14b4cc616c4ac5cf95808ed.jpg?s=72&d=https%3A%2F%2Fa.slack-edge.com%2Fdf10d%2Fimg%2Favatars%2Fava_0009-72.png",
            "first_name": "",
            "real_name": "Evita",
            "display_name": "",
            "team": "TUU48M0T1",
            "name": "evi",
            "is_restricted": false,
            "is_ultra_restricted": false
        },
        "attachments": [
            {
                "service_name": "Cults.",
                "title": "Mask adapter, Surgery mask",
                "title_link": "https:\/\/cults3d.com\/en\/3d-model\/gadget\/mask-mask?fbclid=IwAR0CS1zEmX6sEWNoR1oGAmAeFecNEbC3jYZESjd0EaDraTp7vsjW2naRrlQ",
                "text": "If you cant buy a face mask try this.. (11 March 2020) Dust mask. V1.0 This product with total 3 parts Mask Body, Mask Cover, Mask pin Mask cloth: can use non woven cloth, Wet tissue, Napkin Liner, Cotton cloth, microfiber, etc as filter cloth. Assemble video in youtube : <https:\/\/www.youtube.com\/watch?v=zlUNBsXnAQ8> Precaution.. -Soak with cleaner entirely mask, after\/before when replacing the filter cloth. -Fit nicely. -if you print for kid or old folk, please take further precaution of their comfortable\/needed volume of air for breath(respiration) Keep in mind that, this is dust mask, filtration determine by cloth filter, 3Dprint quality and shape of your face . Keep hands clean (wash often), Avoid crowd, avoid hand touching face ------------------ Print for own use only, contact me for mass print (<mailto:mythonng@gmail.com|mythonng@gmail.com>) ------------------- <https:\/\/cults3d.com\/en\/3d-model\/gadget\/sample-of-mask-adapter-contour> Simple mask design (single piece) <https:\/\/cults3d.com\/en\/3d-model\/gadget\/simple-dust-mask-surgery-mask> Support and little push for my work <https:\/\/paypal.me\/ThonNg?locale.x=en_US> Thanks in advance! (After printed and used, if work, please help to spread in your social media, let them know they can get little help\/protection from this print product). .. and dont forget to like and stars",
                "fallback": "Cults.: Mask adapter, Surgery mask",
                "thumb_url": "https:\/\/files.cults3d.com\/uploaders\/14024477\/illustration-file\/c222e84f-bb10-4189-bcc3-6dbea4152aad\/Visual_large.png",
                "from_url": "https:\/\/cults3d.com\/en\/3d-model\/gadget\/mask-mask?fbclid=IwAR0CS1zEmX6sEWNoR1oGAmAeFecNEbC3jYZESjd0EaDraTp7vsjW2naRrlQ",
                "thumb_width": 516,
                "thumb_height": 516,
                "service_icon": "https:\/\/assets.cults3d.com\/assets\/favicons\/cults-8b86bca460ece165f3132f09fb73eadb48db60a34b7440caf6a8dbea60d43d26.ico",
                "id": 1,
                "original_url": "https:\/\/cults3d.com\/en\/3d-model\/gadget\/mask-mask?fbclid=IwAR0CS1zEmX6sEWNoR1oGAmAeFecNEbC3jYZESjd0EaDraTp7vsjW2naRrlQ"
            }
        ],
        "blocks": [
            {
                "type": "rich_text",
                "block_id": "chyw",
                "elements": [
                    {
                        "type": "rich_text_section",
                        "elements": [
                            {
                                "type": "text",
                                "text": "We started from this model: "
                            },
                            {
                                "type": "link",
                                "url": "https:\/\/cults3d.com\/en\/3d-model\/gadget\/mask-mask?fbclid=IwAR0CS1zEmX6sEWNoR1oGAmAeFecNEbC3jYZESjd0EaDraTp7vsjW2naRrlQ"
                            }
                        ]
                    }
                ]
            }
        ]
    },
    {
        "client_msg_id": "8868f1a3-0d73-4ad3-bed9-cf92df1ac87f",
        "type": "message",
        "text": "I will send the files for testing here in a minute.",
        "user": "U0106VDVAQ6",
        "ts": "1584428746.001000",
        "team": "TUU48M0T1",
        "user_team": "TUU48M0T1",
        "source_team": "TUU48M0T1",
        "user_profile": {
            "avatar_hash": "gcb646d37b14",
            "image_72": "https:\/\/secure.gravatar.com\/avatar\/cb646d37b14b4cc616c4ac5cf95808ed.jpg?s=72&d=https%3A%2F%2Fa.slack-edge.com%2Fdf10d%2Fimg%2Favatars%2Fava_0009-72.png",
            "first_name": "",
            "real_name": "Evita",
            "display_name": "",
            "team": "TUU48M0T1",
            "name": "evi",
            "is_restricted": false,
            "is_ultra_restricted": false
        },
        "blocks": [
            {
                "type": "rich_text",
                "block_id": "i7KS",
                "elements": [
                    {
                        "type": "rich_text_section",
                        "elements": [
                            {
                                "type": "text",
                                "text": "I will send the files for testing here in a minute."
                            }
                        ]
                    }
                ]
            }
        ]
    },
    {
        "client_msg_id": "5a188c47-c314-4365-ae1c-0e6c8c7dd5b4",
        "type": "message",
        "text": "these are the issues:\n1. the material must be strong enough to deal with 180°C for desinfectation in autoclave\n2. the mask must fit the face as much as possible. People have different faces. So we need a flexible ring or other way to close it \n3. the filter must be at least P2. We need a mass production object we can maybe reuse. Maybe Coffee filters? Cotton? \n4. The design must be ready for faster printing to raise the production scale",
        "user": "U0106VDVAQ6",
        "ts": "1584428950.004400",
        "team": "TUU48M0T1",
        "user_team": "TUU48M0T1",
        "source_team": "TUU48M0T1",
        "user_profile": {
            "avatar_hash": "gcb646d37b14",
            "image_72": "https:\/\/secure.gravatar.com\/avatar\/cb646d37b14b4cc616c4ac5cf95808ed.jpg?s=72&d=https%3A%2F%2Fa.slack-edge.com%2Fdf10d%2Fimg%2Favatars%2Fava_0009-72.png",
            "first_name": "",
            "real_name": "Evita",
            "display_name": "",
            "team": "TUU48M0T1",
            "name": "evi",
            "is_restricted": false,
            "is_ultra_restricted": false
        },
        "blocks": [
            {
                "type": "rich_text",
                "block_id": "kqntg",
                "elements": [
                    {
                        "type": "rich_text_section",
                        "elements": [
                            {
                                "type": "text",
                                "text": "these are the issues:\n"
                            }
                        ]
                    },
                    {
                        "type": "rich_text_list",
                        "elements": [
                            {
                                "type": "rich_text_section",
                                "elements": [
                                    {
                                        "type": "text",
                                        "text": "the material must be strong enough to deal with 180°C for desinfectation in autoclave"
                                    }
                                ]
                            },
                            {
                                "type": "rich_text_section",
                                "elements": [
                                    {
                                        "type": "text",
                                        "text": "the mask must fit the face as much as possible. People have different faces. So we need a flexible ring or other way to close it "
                                    }
                                ]
                            },
                            {
                                "type": "rich_text_section",
                                "elements": [
                                    {
                                        "type": "text",
                                        "text": "the filter must be at least P2. We need a mass production object we can maybe reuse. Maybe Coffee filters? Cotton? "
                                    }
                                ]
                            },
                            {
                                "type": "rich_text_section",
                                "elements": [
                                    {
                                        "type": "text",
                                        "text": "The design must be ready for faster printing to raise the production scale"
                                    }
                                ]
                            }
                        ],
                        "style": "ordered",
                        "indent": 0
                    }
                ]
            }
        ]
    },
    {
        "client_msg_id": "42664170-42e9-4cfd-9ada-664f92f74db9",
        "type": "message",
        "text": "<@U0104S3L14M> <@UV8PE2FDF>",
        "user": "U0106VDVAQ6",
        "ts": "1584435940.004800",
        "team": "TUU48M0T1",
        "user_team": "TUU48M0T1",
        "source_team": "TUU48M0T1",
        "user_profile": {
            "avatar_hash": "gcb646d37b14",
            "image_72": "https:\/\/secure.gravatar.com\/avatar\/cb646d37b14b4cc616c4ac5cf95808ed.jpg?s=72&d=https%3A%2F%2Fa.slack-edge.com%2Fdf10d%2Fimg%2Favatars%2Fava_0009-72.png",
            "first_name": "",
            "real_name": "Evita",
            "display_name": "",
            "team": "TUU48M0T1",
            "name": "evi",
            "is_restricted": false,
            "is_ultra_restricted": false
        },
        "blocks": [
            {
                "type": "rich_text",
                "block_id": "7b\/g",
                "elements": [
                    {
                        "type": "rich_text_section",
                        "elements": [
                            {
                                "type": "user",
                                "user_id": "U0104S3L14M"
                            },
                            {
                                "type": "text",
                                "text": " "
                            },
                            {
                                "type": "user",
                                "user_id": "UV8PE2FDF"
                            }
                        ]
                    }
                ]
            }
        ]
    },
    {
        "type": "message",
        "subtype": "channel_join",
        "ts": "1584436116.005000",
        "user": "UUP8XJTH8",
        "text": "<@UUP8XJTH8> has joined the channel"
    },
    {
        "type": "message",
        "subtype": "channel_join",
        "ts": "1584436230.005200",
        "user": "UV02WET96",
        "text": "<@UV02WET96> has joined the channel"
    },
    {
        "type": "message",
        "subtype": "channel_join",
        "ts": "1584436419.005400",
        "user": "U0104S3L14M",
        "text": "<@U0104S3L14M> has joined the channel"
    },
    {
        "client_msg_id": "ea398d2f-ac6e-4fca-b1af-bf14a0c785b8",
        "type": "message",
        "text": "I got new information about the tissue. the norm is EN14683. And nobody really knows what other tissue has that norm.. or where we can find it. So the question is: can we test existing material or can we use other material and ‘prove’ it’s the same quality?",
        "user": "U0106VDVAQ6",
        "ts": "1584437337.006900",
        "team": "TUU48M0T1",
        "user_team": "TUU48M0T1",
        "source_team": "TUU48M0T1",
        "user_profile": {
            "avatar_hash": "gcb646d37b14",
            "image_72": "https:\/\/secure.gravatar.com\/avatar\/cb646d37b14b4cc616c4ac5cf95808ed.jpg?s=72&d=https%3A%2F%2Fa.slack-edge.com%2Fdf10d%2Fimg%2Favatars%2Fava_0009-72.png",
            "first_name": "",
            "real_name": "Evita",
            "display_name": "",
            "team": "TUU48M0T1",
            "name": "evi",
            "is_restricted": false,
            "is_ultra_restricted": false
        },
        "blocks": [
            {
                "type": "rich_text",
                "block_id": "AFCn",
                "elements": [
                    {
                        "type": "rich_text_section",
                        "elements": [
                            {
                                "type": "text",
                                "text": "I got new information about the tissue. the norm is EN14683. And nobody really knows what other tissue has that norm.. or where we can find it. So the question is: can we test existing material or can we use other material and ‘prove’ it’s the same quality?"
                            }
                        ]
                    }
                ]
            }
        ]
    },
    {
        "client_msg_id": "84e3f2c6-1ebd-44dd-b989-e0cdf4fe4400",
        "type": "message",
        "text": "<@U0106VDVAQ6> masks are short in supply here in Pakistan as well and I was reading up on this very issue a couple of days back.\n\nThese guys have some pretty solid data as to the materials you can use. \n<https:\/\/smartairfilters.com\/en\/blog\/best-materials-make-diy-face-mask-virus\/|https:\/\/smartairfilters.com\/en\/blog\/best-materials-make-diy-face-mask-virus\/>",
        "user": "UUP8XJTH8",
        "ts": "1584437959.008900",
        "team": "TUU48M0T1",
        "user_team": "TUU48M0T1",
        "source_team": "TUU48M0T1",
        "user_profile": {
            "avatar_hash": "551563ed5769",
            "image_72": "https:\/\/avatars.slack-edge.com\/2020-03-09\/990308488310_551563ed5769d8569a8f_72.jpg",
            "first_name": "",
            "real_name": "Muhammad Ismail",
            "display_name": "Muhammad Ismail",
            "team": "TUU48M0T1",
            "name": "ismail",
            "is_restricted": false,
            "is_ultra_restricted": false
        },
        "attachments": [
            {
                "service_name": "Smart Air Filters",
                "title": "What are the Best Materials for Making a DIY Face Mask? - Smart Air Filters",
                "title_link": "https:\/\/smartairfilters.com\/en\/blog\/best-materials-make-diy-face-mask-virus\/",
                "text": "With masks sold out during the coronavirus outbreak, many people will have to make do with what scientists claim is “the last resort”: the DIY face mask. Data shows that DIY and homemade masks are effective at capturing viruses. But if forced to make our own mask, what material is best suited to make a …",
                "fallback": "Smart Air Filters: What are the Best Materials for Making a DIY Face Mask? - Smart Air Filters",
                "thumb_url": "https:\/\/smartairfilters.com\/wordpress\/wp-content\/uploads\/2020\/03\/Best-material-for-making-DIY-masks-to-capture-viruses.jpg",
                "ts": 1583639069,
                "from_url": "https:\/\/smartairfilters.com\/en\/blog\/best-materials-make-diy-face-mask-virus\/",
                "thumb_width": 900,
                "thumb_height": 500,
                "service_icon": "https:\/\/smartairfilters.com\/favicon.ico",
                "id": 1,
                "original_url": "https:\/\/smartairfilters.com\/en\/blog\/best-materials-make-diy-face-mask-virus\/"
            }
        ],
        "blocks": [
            {
                "type": "rich_text",
                "block_id": "DgSqp",
                "elements": [
                    {
                        "type": "rich_text_section",
                        "elements": [
                            {
                                "type": "user",
                                "user_id": "U0106VDVAQ6"
                            },
                            {
                                "type": "text",
                                "text": " masks are short in supply here in Pakistan as well and I was reading up on this very issue a couple of days back.\n\nThese guys have some pretty solid data as to the materials you can use. \n"
                            },
                            {
                                "type": "link",
                                "url": "https:\/\/smartairfilters.com\/en\/blog\/best-materials-make-diy-face-mask-virus\/",
                                "text": "https:\/\/smartairfilters.com\/en\/blog\/best-materials-make-diy-face-mask-virus\/"
                            }
                        ]
                    }
                ]
            }
        ]
    },
    {
        "client_msg_id": "45c0fdde-cbb9-42a7-9655-bc264f0800e8",
        "type": "message",
        "text": "yes, I saw that! Thanks, we will look into that more profound.. Maybe we should just forget the norms for now",
        "user": "U0106VDVAQ6",
        "ts": "1584438019.009700",
        "team": "TUU48M0T1",
        "user_team": "TUU48M0T1",
        "source_team": "TUU48M0T1",
        "user_profile": {
            "avatar_hash": "gcb646d37b14",
            "image_72": "https:\/\/secure.gravatar.com\/avatar\/cb646d37b14b4cc616c4ac5cf95808ed.jpg?s=72&d=https%3A%2F%2Fa.slack-edge.com%2Fdf10d%2Fimg%2Favatars%2Fava_0009-72.png",
            "first_name": "",
            "real_name": "Evita",
            "display_name": "",
            "team": "TUU48M0T1",
            "name": "evi",
            "is_restricted": false,
            "is_ultra_restricted": false
        },
        "blocks": [
            {
                "type": "rich_text",
                "block_id": "p28h",
                "elements": [
                    {
                        "type": "rich_text_section",
                        "elements": [
                            {
                                "type": "text",
                                "text": "yes, I saw that! Thanks, we will look into that more profound.. Maybe we should just forget the norms for now"
                            }
                        ]
                    }
                ]
            }
        ]
    },
    {
        "type": "message",
        "text": "",
        "files": [
            {
                "id": "FV7LUFBB5",
                "created": 1584438049,
                "timestamp": 1584438049,
                "name": "MaskBodyL.stl",
                "title": "MaskBodyL.stl",
                "mimetype": "application\/octet-stream",
                "filetype": "binary",
                "pretty_type": "Binary",
                "user": "U0106VDVAQ6",
                "editable": false,
                "size": 1366784,
                "mode": "hosted",
                "is_external": false,
                "external_type": "",
                "is_public": true,
                "public_url_shared": false,
                "display_as_bot": false,
                "username": "",
                "url_private": "https:\/\/files.slack.com\/files-pri\/TUU48M0T1-FV7LUFBB5\/maskbodyl.stl?t=xoxe-980144714919-1106606678066-1105227127893-6f722bb664235052954ad46852628b64",
                "url_private_download": "https:\/\/files.slack.com\/files-pri\/TUU48M0T1-FV7LUFBB5\/download\/maskbodyl.stl?t=xoxe-980144714919-1106606678066-1105227127893-6f722bb664235052954ad46852628b64",
                "permalink": "https:\/\/open-covid19.slack.com\/files\/U0106VDVAQ6\/FV7LUFBB5\/maskbodyl.stl",
                "permalink_public": "https:\/\/slack-files.com\/TUU48M0T1-FV7LUFBB5-57b2396d45",
                "is_starred": false,
                "has_rich_preview": false
            },
            {
                "id": "F01055QPUKF",
                "created": 1584438049,
                "timestamp": 1584438049,
                "name": "MaskCover.stl",
                "title": "MaskCover.stl",
                "mimetype": "application\/octet-stream",
                "filetype": "binary",
                "pretty_type": "Binary",
                "user": "U0106VDVAQ6",
                "editable": false,
                "size": 953084,
                "mode": "hosted",
                "is_external": false,
                "external_type": "",
                "is_public": true,
                "public_url_shared": false,
                "display_as_bot": false,
                "username": "",
                "url_private": "https:\/\/files.slack.com\/files-pri\/TUU48M0T1-F01055QPUKF\/maskcover.stl?t=xoxe-980144714919-1106606678066-1105227127893-6f722bb664235052954ad46852628b64",
                "url_private_download": "https:\/\/files.slack.com\/files-pri\/TUU48M0T1-F01055QPUKF\/download\/maskcover.stl?t=xoxe-980144714919-1106606678066-1105227127893-6f722bb664235052954ad46852628b64",
                "permalink": "https:\/\/open-covid19.slack.com\/files\/U0106VDVAQ6\/F01055QPUKF\/maskcover.stl",
                "permalink_public": "https:\/\/slack-files.com\/TUU48M0T1-F01055QPUKF-9e57ad95af",
                "is_starred": false,
                "has_rich_preview": false
            },
            {
                "id": "F0105560YQY",
                "created": 1584438049,
                "timestamp": 1584438049,
                "name": "MaskCover2.stl",
                "title": "MaskCover2.stl",
                "mimetype": "application\/octet-stream",
                "filetype": "binary",
                "pretty_type": "Binary",
                "user": "U0106VDVAQ6",
                "editable": false,
                "size": 990884,
                "mode": "hosted",
                "is_external": false,
                "external_type": "",
                "is_public": true,
                "public_url_shared": false,
                "display_as_bot": false,
                "username": "",
                "url_private": "https:\/\/files.slack.com\/files-pri\/TUU48M0T1-F0105560YQY\/maskcover2.stl?t=xoxe-980144714919-1106606678066-1105227127893-6f722bb664235052954ad46852628b64",
                "url_private_download": "https:\/\/files.slack.com\/files-pri\/TUU48M0T1-F0105560YQY\/download\/maskcover2.stl?t=xoxe-980144714919-1106606678066-1105227127893-6f722bb664235052954ad46852628b64",
                "permalink": "https:\/\/open-covid19.slack.com\/files\/U0106VDVAQ6\/F0105560YQY\/maskcover2.stl",
                "permalink_public": "https:\/\/slack-files.com\/TUU48M0T1-F0105560YQY-145c15aeeb",
                "is_starred": false,
                "has_rich_preview": false
            },
            {
                "id": "FV6BFC3GS",
                "created": 1584438049,
                "timestamp": 1584438049,
                "name": "MaskBody.stl",
                "title": "MaskBody.stl",
                "mimetype": "application\/octet-stream",
                "filetype": "binary",
                "pretty_type": "Binary",
                "user": "U0106VDVAQ6",
                "editable": false,
                "size": 1366884,
                "mode": "hosted",
                "is_external": false,
                "external_type": "",
                "is_public": true,
                "public_url_shared": false,
                "display_as_bot": false,
                "username": "",
                "url_private": "https:\/\/files.slack.com\/files-pri\/TUU48M0T1-FV6BFC3GS\/maskbody.stl?t=xoxe-980144714919-1106606678066-1105227127893-6f722bb664235052954ad46852628b64",
                "url_private_download": "https:\/\/files.slack.com\/files-pri\/TUU48M0T1-FV6BFC3GS\/download\/maskbody.stl?t=xoxe-980144714919-1106606678066-1105227127893-6f722bb664235052954ad46852628b64",
                "permalink": "https:\/\/open-covid19.slack.com\/files\/U0106VDVAQ6\/FV6BFC3GS\/maskbody.stl",
                "permalink_public": "https:\/\/slack-files.com\/TUU48M0T1-FV6BFC3GS-0f81cc47d7",
                "is_starred": false,
                "has_rich_preview": false
            },
            {
                "id": "F01055615EC",
                "created": 1584438049,
                "timestamp": 1584438049,
                "name": "MaskBodyH.stl",
                "title": "MaskBodyH.stl",
                "mimetype": "application\/octet-stream",
                "filetype": "binary",
                "pretty_type": "Binary",
                "user": "U0106VDVAQ6",
                "editable": false,
                "size": 1366984,
                "mode": "hosted",
                "is_external": false,
                "external_type": "",
                "is_public": true,
                "public_url_shared": false,
                "display_as_bot": false,
                "username": "",
                "url_private": "https:\/\/files.slack.com\/files-pri\/TUU48M0T1-F01055615EC\/maskbodyh.stl?t=xoxe-980144714919-1106606678066-1105227127893-6f722bb664235052954ad46852628b64",
                "url_private_download": "https:\/\/files.slack.com\/files-pri\/TUU48M0T1-F01055615EC\/download\/maskbodyh.stl?t=xoxe-980144714919-1106606678066-1105227127893-6f722bb664235052954ad46852628b64",
                "permalink": "https:\/\/open-covid19.slack.com\/files\/U0106VDVAQ6\/F01055615EC\/maskbodyh.stl",
                "permalink_public": "https:\/\/slack-files.com\/TUU48M0T1-F01055615EC-7ccd1021ca",
                "is_starred": false,
                "has_rich_preview": false
            },
            {
                "id": "F01055QPZD3",
                "created": 1584438049,
                "timestamp": 1584438049,
                "name": "MaskPin.stl",
                "title": "MaskPin.stl",
                "mimetype": "application\/octet-stream",
                "filetype": "binary",
                "pretty_type": "Binary",
                "user": "U0106VDVAQ6",
                "editable": false,
                "size": 3884,
                "mode": "hosted",
                "is_external": false,
                "external_type": "",
                "is_public": true,
                "public_url_shared": false,
                "display_as_bot": false,
                "username": "",
                "url_private": "https:\/\/files.slack.com\/files-pri\/TUU48M0T1-F01055QPZD3\/maskpin.stl?t=xoxe-980144714919-1106606678066-1105227127893-6f722bb664235052954ad46852628b64",
                "url_private_download": "https:\/\/files.slack.com\/files-pri\/TUU48M0T1-F01055QPZD3\/download\/maskpin.stl?t=xoxe-980144714919-1106606678066-1105227127893-6f722bb664235052954ad46852628b64",
                "permalink": "https:\/\/open-covid19.slack.com\/files\/U0106VDVAQ6\/F01055QPZD3\/maskpin.stl",
                "permalink_public": "https:\/\/slack-files.com\/TUU48M0T1-F01055QPZD3-e9a90ed9bd",
                "is_starred": false,
                "has_rich_preview": false
            }
        ],
        "upload": true,
        "user": "U0106VDVAQ6",
        "ts": "1584438057.009800",
        "client_msg_id": "0ca3992e-63c2-42ed-9dfd-c626ab626a96"
    },
    {
        "client_msg_id": "95f00817-79c1-4342-a3ad-f44893540d74",
        "type": "message",
        "text": "I just send the files of the one we are printing",
        "user": "U0106VDVAQ6",
        "ts": "1584438098.011400",
        "team": "TUU48M0T1",
        "user_team": "TUU48M0T1",
        "source_team": "TUU48M0T1",
        "user_profile": {
            "avatar_hash": "gcb646d37b14",
            "image_72": "https:\/\/secure.gravatar.com\/avatar\/cb646d37b14b4cc616c4ac5cf95808ed.jpg?s=72&d=https%3A%2F%2Fa.slack-edge.com%2Fdf10d%2Fimg%2Favatars%2Fava_0009-72.png",
            "first_name": "",
            "real_name": "Evita",
            "display_name": "",
            "team": "TUU48M0T1",
            "name": "evi",
            "is_restricted": false,
            "is_ultra_restricted": false
        },
        "blocks": [
            {
                "type": "rich_text",
                "block_id": "bUvp",
                "elements": [
                    {
                        "type": "rich_text_section",
                        "elements": [
                            {
                                "type": "text",
                                "text": "I just send the files of the one we are printing"
                            }
                        ]
                    }
                ]
            }
        ]
    },
    {
        "client_msg_id": "a666b3bb-b57c-4ada-a04c-f18d28e51605",
        "type": "message",
        "text": "we need adjustments to the fitting here, or flexible material to print",
        "user": "U0106VDVAQ6",
        "ts": "1584438117.011900",
        "team": "TUU48M0T1",
        "user_team": "TUU48M0T1",
        "source_team": "TUU48M0T1",
        "user_profile": {
            "avatar_hash": "gcb646d37b14",
            "image_72": "https:\/\/secure.gravatar.com\/avatar\/cb646d37b14b4cc616c4ac5cf95808ed.jpg?s=72&d=https%3A%2F%2Fa.slack-edge.com%2Fdf10d%2Fimg%2Favatars%2Fava_0009-72.png",
            "first_name": "",
            "real_name": "Evita",
            "display_name": "",
            "team": "TUU48M0T1",
            "name": "evi",
            "is_restricted": false,
            "is_ultra_restricted": false
        },
        "blocks": [
            {
                "type": "rich_text",
                "block_id": "OVC",
                "elements": [
                    {
                        "type": "rich_text_section",
                        "elements": [
                            {
                                "type": "text",
                                "text": "we need adjustments to the fitting here, or flexible material to print"
                            }
                        ]
                    }
                ]
            }
        ],
        "thread_ts": "1584438117.011900",
        "reply_count": 1,
        "reply_users_count": 1,
        "latest_reply": "1584691287.119400",
        "reply_users": [
            "UVA46RKLY"
        ],
        "replies": [
            {
                "user": "UVA46RKLY",
                "ts": "1584691287.119400"
            }
        ],
        "subscribed": false
    },
    {
        "client_msg_id": "0942733c-e77d-4687-aa8b-c5beda76fd99",
        "type": "message",
        "text": "ninjaflex?",
        "user": "U0106VDVAQ6",
        "ts": "1584438122.012100",
        "team": "TUU48M0T1",
        "user_team": "TUU48M0T1",
        "source_team": "TUU48M0T1",
        "user_profile": {
            "avatar_hash": "gcb646d37b14",
            "image_72": "https:\/\/secure.gravatar.com\/avatar\/cb646d37b14b4cc616c4ac5cf95808ed.jpg?s=72&d=https%3A%2F%2Fa.slack-edge.com%2Fdf10d%2Fimg%2Favatars%2Fava_0009-72.png",
            "first_name": "",
            "real_name": "Evita",
            "display_name": "",
            "team": "TUU48M0T1",
            "name": "evi",
            "is_restricted": false,
            "is_ultra_restricted": false
        },
        "blocks": [
            {
                "type": "rich_text",
                "block_id": "nmo",
                "elements": [
                    {
                        "type": "rich_text_section",
                        "elements": [
                            {
                                "type": "text",
                                "text": "ninjaflex?"
                            }
                        ]
                    }
                ]
            }
        ]
    },
    {
        "client_msg_id": "04b0c745-a98a-442e-a160-ccab4a0f8459",
        "type": "message",
        "text": "I have 0 CAD experience plus dunno with which tool I'll be able to open those files",
        "user": "UUP8XJTH8",
        "ts": "1584438161.013000",
        "team": "TUU48M0T1",
        "user_team": "TUU48M0T1",
        "source_team": "TUU48M0T1",
        "user_profile": {
            "avatar_hash": "551563ed5769",
            "image_72": "https:\/\/avatars.slack-edge.com\/2020-03-09\/990308488310_551563ed5769d8569a8f_72.jpg",
            "first_name": "",
            "real_name": "Muhammad Ismail",
            "display_name": "Muhammad Ismail",
            "team": "TUU48M0T1",
            "name": "ismail",
            "is_restricted": false,
            "is_ultra_restricted": false
        },
        "blocks": [
            {
                "type": "rich_text",
                "block_id": "C1VP",
                "elements": [
                    {
                        "type": "rich_text_section",
                        "elements": [
                            {
                                "type": "text",
                                "text": "I have 0 CAD experience plus dunno with which tool I'll be able to open those files"
                            }
                        ]
                    }
                ]
            }
        ]
    },
    {
        "client_msg_id": "d05fb76b-116d-4564-8787-8df739b73efe",
        "type": "message",
        "text": "oh, .. in CURA",
        "user": "U0106VDVAQ6",
        "ts": "1584438173.013200",
        "team": "TUU48M0T1",
        "user_team": "TUU48M0T1",
        "source_team": "TUU48M0T1",
        "user_profile": {
            "avatar_hash": "gcb646d37b14",
            "image_72": "https:\/\/secure.gravatar.com\/avatar\/cb646d37b14b4cc616c4ac5cf95808ed.jpg?s=72&d=https%3A%2F%2Fa.slack-edge.com%2Fdf10d%2Fimg%2Favatars%2Fava_0009-72.png",
            "first_name": "",
            "real_name": "Evita",
            "display_name": "",
            "team": "TUU48M0T1",
            "name": "evi",
            "is_restricted": false,
            "is_ultra_restricted": false
        },
        "blocks": [
            {
                "type": "rich_text",
                "block_id": "KqyN",
                "elements": [
                    {
                        "type": "rich_text_section",
                        "elements": [
                            {
                                "type": "text",
                                "text": "oh, .. in CURA"
                            }
                        ]
                    }
                ]
            }
        ]
    },
    {
        "client_msg_id": "564e0f1f-71c3-4445-9fbd-013b33242d68",
        "type": "message",
        "text": "open source prep for 3D printing",
        "user": "U0106VDVAQ6",
        "ts": "1584438187.013600",
        "team": "TUU48M0T1",
        "user_team": "TUU48M0T1",
        "source_team": "TUU48M0T1",
        "user_profile": {
            "avatar_hash": "gcb646d37b14",
            "image_72": "https:\/\/secure.gravatar.com\/avatar\/cb646d37b14b4cc616c4ac5cf95808ed.jpg?s=72&d=https%3A%2F%2Fa.slack-edge.com%2Fdf10d%2Fimg%2Favatars%2Fava_0009-72.png",
            "first_name": "",
            "real_name": "Evita",
            "display_name": "",
            "team": "TUU48M0T1",
            "name": "evi",
            "is_restricted": false,
            "is_ultra_restricted": false
        },
        "blocks": [
            {
                "type": "rich_text",
                "block_id": "XVVW",
                "elements": [
                    {
                        "type": "rich_text_section",
                        "elements": [
                            {
                                "type": "text",
                                "text": "open source prep for 3D printing"
                            }
                        ]
                    }
                ]
            }
        ]
    },
    {
        "client_msg_id": "a7c2a5f4-caf4-408f-a6f4-ed6c28b85958",
        "type": "message",
        "text": "Thanks! I'll take a look when I'm at the computer",
        "user": "UUP8XJTH8",
        "ts": "1584438201.014300",
        "team": "TUU48M0T1",
        "user_team": "TUU48M0T1",
        "source_team": "TUU48M0T1",
        "user_profile": {
            "avatar_hash": "551563ed5769",
            "image_72": "https:\/\/avatars.slack-edge.com\/2020-03-09\/990308488310_551563ed5769d8569a8f_72.jpg",
            "first_name": "",
            "real_name": "Muhammad Ismail",
            "display_name": "Muhammad Ismail",
            "team": "TUU48M0T1",
            "name": "ismail",
            "is_restricted": false,
            "is_ultra_restricted": false
        },
        "blocks": [
            {
                "type": "rich_text",
                "block_id": "4DsN",
                "elements": [
                    {
                        "type": "rich_text_section",
                        "elements": [
                            {
                                "type": "text",
                                "text": "Thanks! I'll take a look when I'm at the computer"
                            }
                        ]
                    }
                ]
            }
        ]
    },
    {
        "client_msg_id": "1887ab12-4e30-4b71-9be0-9897c6745f10",
        "type": "message",
        "text": "or if you like to adjust, any OS 3D modeling will do",
        "user": "U0106VDVAQ6",
        "ts": "1584438209.014600",
        "team": "TUU48M0T1",
        "user_team": "TUU48M0T1",
        "source_team": "TUU48M0T1",
        "user_profile": {
            "avatar_hash": "gcb646d37b14",
            "image_72": "https:\/\/secure.gravatar.com\/avatar\/cb646d37b14b4cc616c4ac5cf95808ed.jpg?s=72&d=https%3A%2F%2Fa.slack-edge.com%2Fdf10d%2Fimg%2Favatars%2Fava_0009-72.png",
            "first_name": "",
            "real_name": "Evita",
            "display_name": "",
            "team": "TUU48M0T1",
            "name": "evi",
            "is_restricted": false,
            "is_ultra_restricted": false
        },
        "blocks": [
            {
                "type": "rich_text",
                "block_id": "x8p4u",
                "elements": [
                    {
                        "type": "rich_text_section",
                        "elements": [
                            {
                                "type": "text",
                                "text": "or if you like to adjust, any OS 3D modeling will do"
                            }
                        ]
                    }
                ]
            }
        ]
    },
    {
        "client_msg_id": "33AFDD61-384D-4402-81C2-AC0C05417CA5",
        "type": "message",
        "text": "Try to use threads as much as possible on slack to condense conversations :ok_hand:",
        "user": "UV02WET96",
        "ts": "1584438275.015600",
        "team": "TUU48M0T1",
        "user_team": "TUU48M0T1",
        "source_team": "TUU48M0T1",
        "user_profile": {
            "avatar_hash": "a99c74a194f8",
            "image_72": "https:\/\/avatars.slack-edge.com\/2020-03-07\/975708504851_a99c74a194f86715ca7d_72.png",
            "first_name": "Thomas",
            "real_name": "Thomas Landrain",
            "display_name": "Thomas Landrain - JOGL CoFounder \/ CEO",
            "team": "TUU48M0T1",
            "name": "thomas",
            "is_restricted": false,
            "is_ultra_restricted": false
        },
        "blocks": [
            {
                "type": "rich_text",
                "block_id": "wBxG",
                "elements": [
                    {
                        "type": "rich_text_section",
                        "elements": [
                            {
                                "type": "text",
                                "text": "Try to use threads as much as possible on slack to condense conversations "
                            },
                            {
                                "type": "emoji",
                                "name": "ok_hand"
                            }
                        ]
                    }
                ]
            }
        ]
    },
    {
        "client_msg_id": "3417B326-4A2E-4631-91AE-FE64D51F0365",
        "type": "message",
        "text": "I’ve found the following link but it’s in a French. \nAn hospital have created a protocol to makes its own masks\n\n<https:\/\/www.cnews.fr\/france\/2020-03-17\/le-chu-de-grenoble-montre-son-personnel-comment-fabriquer-ses-propres-masques|https:\/\/www.cnews.fr\/france\/2020-03-17\/le-chu-de-grenoble-montre-son-personnel-comment-fabriquer-ses-propres-masques>",
        "user": "UV02WET96",
        "ts": "1584438663.017000",
        "team": "TUU48M0T1",
        "user_team": "TUU48M0T1",
        "source_team": "TUU48M0T1",
        "user_profile": {
            "avatar_hash": "a99c74a194f8",
            "image_72": "https:\/\/avatars.slack-edge.com\/2020-03-07\/975708504851_a99c74a194f86715ca7d_72.png",
            "first_name": "Thomas",
            "real_name": "Thomas Landrain",
            "display_name": "Thomas Landrain - JOGL CoFounder \/ CEO",
            "team": "TUU48M0T1",
            "name": "thomas",
            "is_restricted": false,
            "is_ultra_restricted": false
        },
        "attachments": [
            {
                "service_name": "www.cnews.fr",
                "title": "Le CHU de Grenoble montre à son personnel comment fabriquer ses propres masques",
                "title_link": "https:\/\/www.cnews.fr\/france\/2020-03-17\/le-chu-de-grenoble-montre-son-personnel-comment-fabriquer-ses-propres-masques",
                "text": "Un document édité par le CHU de Grenoble montre au personnel comment fabriquer des masques pour se protéger. Le document (voir ci dessous), daté du 13 mars, indique exactement au personnel du service d'urgence du CHU de Grenoble les étapes pour faire son propre masque en tissu. Un patron est disponible en annexe, pour guider le personnel. Ce dernier a également la charge de le nettoyer quotidiennement à 30°C.",
                "fallback": "www.cnews.fr: Le CHU de Grenoble montre à son personnel comment fabriquer ses propres masques",
                "image_url": "https:\/\/static.cnews.fr\/sites\/default\/files\/0001_5e6f481020806_0.jpg",
                "from_url": "https:\/\/www.cnews.fr\/france\/2020-03-17\/le-chu-de-grenoble-montre-son-personnel-comment-fabriquer-ses-propres-masques",
                "image_width": 445,
                "image_height": 250,
                "image_bytes": 55985,
                "service_icon": "https:\/\/www.cnews.fr\/sites\/all\/themes\/directmatinv4\/apple-touch-icon-144x144.png",
                "id": 1,
                "original_url": "https:\/\/www.cnews.fr\/france\/2020-03-17\/le-chu-de-grenoble-montre-son-personnel-comment-fabriquer-ses-propres-masques"
            }
        ],
        "blocks": [
            {
                "type": "rich_text",
                "block_id": "oBn",
                "elements": [
                    {
                        "type": "rich_text_section",
                        "elements": [
                            {
                                "type": "text",
                                "text": "I’ve found the following link but it’s in a French. \n"
                            },
                            {
                                "type": "text",
                                "text": "An hospital have created a protocol to makes its own masks\n\n"
                            },
                            {
                                "type": "link",
                                "url": "https:\/\/www.cnews.fr\/france\/2020-03-17\/le-chu-de-grenoble-montre-son-personnel-comment-fabriquer-ses-propres-masques",
                                "text": "https:\/\/www.cnews.fr\/france\/2020-03-17\/le-chu-de-grenoble-montre-son-personnel-comment-fabriquer-ses-propres-masques"
                            }
                        ]
                    }
                ]
            }
        ],
        "thread_ts": "1584438663.017000",
        "reply_count": 1,
        "reply_users_count": 1,
        "latest_reply": "1584440667.017200",
        "reply_users": [
            "UUP8XJTH8"
        ],
        "replies": [
            {
                "user": "UUP8XJTH8",
                "ts": "1584440667.017200"
            }
        ],
        "subscribed": false
    },
    {
        "client_msg_id": "6670208b-cdd6-4d7f-8955-de573172cd43",
        "type": "message",
        "text": "Google translate to the rescue",
        "user": "UUP8XJTH8",
        "ts": "1584440667.017200",
        "team": "TUU48M0T1",
        "user_team": "TUU48M0T1",
        "source_team": "TUU48M0T1",
        "user_profile": {
            "avatar_hash": "551563ed5769",
            "image_72": "https:\/\/avatars.slack-edge.com\/2020-03-09\/990308488310_551563ed5769d8569a8f_72.jpg",
            "first_name": "",
            "real_name": "Muhammad Ismail",
            "display_name": "Muhammad Ismail",
            "team": "TUU48M0T1",
            "name": "ismail",
            "is_restricted": false,
            "is_ultra_restricted": false
        },
        "blocks": [
            {
                "type": "rich_text",
                "block_id": "9nQ",
                "elements": [
                    {
                        "type": "rich_text_section",
                        "elements": [
                            {
                                "type": "text",
                                "text": "Google translate to the rescue"
                            }
                        ]
                    }
                ]
            }
        ],
        "thread_ts": "1584438663.017000",
        "parent_user_id": "UV02WET96"
    },
    {
        "type": "message",
        "subtype": "channel_join",
        "ts": "1584459564.017500",
        "user": "U0101FU08P7",
        "text": "<@U0101FU08P7> has joined the channel"
    },
    {
        "type": "message",
        "subtype": "channel_join",
        "ts": "1584461691.017700",
        "user": "UV7CJF9SN",
        "text": "<@UV7CJF9SN> has joined the channel"
    },
    {
        "type": "message",
        "subtype": "channel_join",
        "ts": "1584468575.017900",
        "user": "UUX34JPLH",
        "text": "<@UUX34JPLH> has joined the channel"
    },
    {
        "type": "message",
        "subtype": "channel_join",
        "ts": "1584469868.018100",
        "user": "U0108GAETPZ",
        "text": "<@U0108GAETPZ> has joined the channel"
    },
    {
        "type": "message",
        "subtype": "channel_join",
        "ts": "1584472173.018300",
        "user": "UV852BSMN",
        "text": "<@UV852BSMN> has joined the channel"
    },
    {
        "type": "message",
        "subtype": "channel_join",
        "ts": "1584483592.018500",
        "user": "U0100AN3E9J",
        "text": "<@U0100AN3E9J> has joined the channel"
    },
    {
        "type": "message",
        "subtype": "channel_join",
        "ts": "1584484123.018700",
        "user": "UV5EETE1Z",
        "text": "<@UV5EETE1Z> has joined the channel"
    },
    {
        "type": "message",
        "subtype": "channel_join",
        "ts": "1584485955.018900",
        "user": "UV2P3AQEN",
        "text": "<@UV2P3AQEN> has joined the channel"
    },
    {
        "client_msg_id": "d95dcf6b-7150-43eb-9f41-ac284df4402d",
        "type": "message",
        "text": "Hello, just throwing my two cents. In my experience, due to the 180 °C requirement, nylon (either PA 12 or PA 6,6) could be a good candidate, along with PEEK. It usually needs to be charged with either glass fibre or carbon fibre to be printable. I'm currently working in a company that prints large objects using these materials, and the behaviour is quite good. If need be, I can provide a list of suppliers. I don't know about medical implications of water absorption, if that's the case this additional requirement would narrow the choice down.\nBesides that, if 3D modeling is required, just let me know.",
        "user": "UV2P3AQEN",
        "ts": "1584486618.023400",
        "team": "TUU48M0T1",
        "user_team": "TUU48M0T1",
        "source_team": "TUU48M0T1",
        "user_profile": {
            "avatar_hash": "82d977ce9645",
            "image_72": "https:\/\/avatars.slack-edge.com\/2020-03-16\/1003452392327_82d977ce9645ebc30917_72.jpg",
            "first_name": "Antonio",
            "real_name": "Antonio Mangiapane",
            "display_name": "Antonio Mangiapane",
            "team": "TUU48M0T1",
            "name": "antonio.mangiapane29",
            "is_restricted": false,
            "is_ultra_restricted": false
        },
        "blocks": [
            {
                "type": "rich_text",
                "block_id": "VP0",
                "elements": [
                    {
                        "type": "rich_text_section",
                        "elements": [
                            {
                                "type": "text",
                                "text": "Hello, just throwing my two cents. In my experience, due to the 180 °C requirement, nylon (either PA 12 or PA 6,6) could be a good candidate, along with PEEK. It usually needs to be charged with either glass fibre or carbon fibre to be printable. I'm currently working in a company that prints large objects using these materials, and the behaviour is quite good. If need be, I can provide a list of suppliers. I don't know about medical implications of water absorption, if that's the case this additional requirement would narrow the choice down.\nBesides that, if 3D modeling is required, just let me know."
                            }
                        ]
                    }
                ]
            }
        ]
    },
    {
        "type": "message",
        "subtype": "channel_join",
        "ts": "1584497629.023600",
        "user": "U0107HK54S1",
        "text": "<@U0107HK54S1> has joined the channel"
    },
    {
        "type": "message",
        "text": "Dear all, here is our update.",
        "files": [
            {
                "id": "F0109MT8TT9",
                "created": 1584514315,
                "timestamp": 1584514315,
                "name": "fe8737a5-adf2-4f40-a7ec-4644e509ad18.jpeg",
                "title": "fe8737a5-adf2-4f40-a7ec-4644e509ad18.jpeg",
                "mimetype": "image\/jpeg",
                "filetype": "jpg",
                "pretty_type": "JPEG",
                "user": "U0106VDVAQ6",
                "editable": false,
                "size": 25407,
                "mode": "hosted",
                "is_external": false,
                "external_type": "",
                "is_public": true,
                "public_url_shared": false,
                "display_as_bot": false,
                "username": "",
                "url_private": "https:\/\/files.slack.com\/files-pri\/TUU48M0T1-F0109MT8TT9\/fe8737a5-adf2-4f40-a7ec-4644e509ad18.jpeg?t=xoxe-980144714919-1106606678066-1105227127893-6f722bb664235052954ad46852628b64",
                "url_private_download": "https:\/\/files.slack.com\/files-pri\/TUU48M0T1-F0109MT8TT9\/download\/fe8737a5-adf2-4f40-a7ec-4644e509ad18.jpeg?t=xoxe-980144714919-1106606678066-1105227127893-6f722bb664235052954ad46852628b64",
                "thumb_64": "https:\/\/files.slack.com\/files-tmb\/TUU48M0T1-F0109MT8TT9-f735e7b29a\/fe8737a5-adf2-4f40-a7ec-4644e509ad18_64.jpg?t=xoxe-980144714919-1106606678066-1105227127893-6f722bb664235052954ad46852628b64",
                "thumb_80": "https:\/\/files.slack.com\/files-tmb\/TUU48M0T1-F0109MT8TT9-f735e7b29a\/fe8737a5-adf2-4f40-a7ec-4644e509ad18_80.jpg?t=xoxe-980144714919-1106606678066-1105227127893-6f722bb664235052954ad46852628b64",
                "thumb_360": "https:\/\/files.slack.com\/files-tmb\/TUU48M0T1-F0109MT8TT9-f735e7b29a\/fe8737a5-adf2-4f40-a7ec-4644e509ad18_360.jpg?t=xoxe-980144714919-1106606678066-1105227127893-6f722bb664235052954ad46852628b64",
                "thumb_360_w": 240,
                "thumb_360_h": 320,
                "thumb_160": "https:\/\/files.slack.com\/files-tmb\/TUU48M0T1-F0109MT8TT9-f735e7b29a\/fe8737a5-adf2-4f40-a7ec-4644e509ad18_160.jpg?t=xoxe-980144714919-1106606678066-1105227127893-6f722bb664235052954ad46852628b64",
                "image_exif_rotation": 1,
                "original_w": 240,
                "original_h": 320,
                "thumb_tiny": "AwAwACSnEWjk3DqKknRXXzo+h+8PQ0rYnUugxJj5l9fcVDDKYn5GVPDLQAEYUA9e9WLX5ULEct0qKaMBwUO5G5HtV1QjHahzj0HSkxojLNnoKNze1SFMGk2e9SMoRxyM42A59RU8qMzqsqAOOrjoadaoQXkzxnaKsy7WXnbkdM076isV0jHAXJqV0SMAAMzt0XcaaJfKB4XJ6HdSLKixNJu3Oep7ihu4JEiWyBfmAY9zS+RF\/cFVlvQowQWPrS\/b1\/uH86VmPQit5dhMZOA3f3q8GDKoypOOhqpJZc5jbj0NN2XCLgruH509BaltoYyp3xbef4Tiovs0LA7XK\/UU2O4KjG4of7rDIqYSoRl025\/iTkflTAgbT5M8OpFJ\/Z0v95a0BNERxIv4mjzY\/wDnov50CP\/Z",
                "permalink": "https:\/\/open-covid19.slack.com\/files\/U0106VDVAQ6\/F0109MT8TT9\/fe8737a5-adf2-4f40-a7ec-4644e509ad18.jpeg",
                "permalink_public": "https:\/\/slack-files.com\/TUU48M0T1-F0109MT8TT9-094721f507",
                "is_starred": false,
                "has_rich_preview": false
            }
        ],
        "upload": true,
        "blocks": [
            {
                "type": "rich_text",
                "block_id": "dpVBA",
                "elements": [
                    {
                        "type": "rich_text_section",
                        "elements": [
                            {
                                "type": "text",
                                "text": "Dear all, here is our update."
                            }
                        ]
                    }
                ]
            }
        ],
        "user": "U0106VDVAQ6",
        "display_as_bot": false,
        "ts": "1584514319.023900",
        "client_msg_id": "989e0082-7904-485a-a8cb-72d57a15ffb9"
    },
    {
        "type": "message",
        "text": "",
        "files": [
            {
                "id": "FVAC1NHCK",
                "created": 1584514323,
                "timestamp": 1584514323,
                "name": "image006.jpeg",
                "title": "image006.jpeg",
                "mimetype": "image\/jpeg",
                "filetype": "jpg",
                "pretty_type": "JPEG",
                "user": "U0106VDVAQ6",
                "editable": false,
                "size": 18185,
                "mode": "hosted",
                "is_external": false,
                "external_type": "",
                "is_public": true,
                "public_url_shared": false,
                "display_as_bot": false,
                "username": "",
                "url_private": "https:\/\/files.slack.com\/files-pri\/TUU48M0T1-FVAC1NHCK\/image006.jpeg?t=xoxe-980144714919-1106606678066-1105227127893-6f722bb664235052954ad46852628b64",
                "url_private_download": "https:\/\/files.slack.com\/files-pri\/TUU48M0T1-FVAC1NHCK\/download\/image006.jpeg?t=xoxe-980144714919-1106606678066-1105227127893-6f722bb664235052954ad46852628b64",
                "thumb_64": "https:\/\/files.slack.com\/files-tmb\/TUU48M0T1-FVAC1NHCK-d26c914cd6\/image006_64.jpg?t=xoxe-980144714919-1106606678066-1105227127893-6f722bb664235052954ad46852628b64",
                "thumb_80": "https:\/\/files.slack.com\/files-tmb\/TUU48M0T1-FVAC1NHCK-d26c914cd6\/image006_80.jpg?t=xoxe-980144714919-1106606678066-1105227127893-6f722bb664235052954ad46852628b64",
                "thumb_360": "https:\/\/files.slack.com\/files-tmb\/TUU48M0T1-FVAC1NHCK-d26c914cd6\/image006_360.jpg?t=xoxe-980144714919-1106606678066-1105227127893-6f722bb664235052954ad46852628b64",
                "thumb_360_w": 320,
                "thumb_360_h": 240,
                "thumb_160": "https:\/\/files.slack.com\/files-tmb\/TUU48M0T1-FVAC1NHCK-d26c914cd6\/image006_160.jpg?t=xoxe-980144714919-1106606678066-1105227127893-6f722bb664235052954ad46852628b64",
                "image_exif_rotation": 1,
                "original_w": 320,
                "original_h": 240,
                "thumb_tiny": "AwAkADCbmloxS4oAb+NA+tLigAUAKKKMUuKAFwPWjK+tVtx9aQk0AWSyCk8xB2qsTTS1AFozL6U03CjsKqlqYTQBZpD0paQ9KBDGNRmpGqM0AJSUtJQM\/9k=",
                "permalink": "https:\/\/open-covid19.slack.com\/files\/U0106VDVAQ6\/FVAC1NHCK\/image006.jpeg",
                "permalink_public": "https:\/\/slack-files.com\/TUU48M0T1-FVAC1NHCK-d8476d6c80",
                "is_starred": false,
                "has_rich_preview": false
            }
        ],
        "upload": true,
        "user": "U0106VDVAQ6",
        "display_as_bot": false,
        "ts": "1584514325.024200",
        "client_msg_id": "b7baf4ce-e15a-4fa1-b734-e38042aa2b2b"
    },
    {
        "client_msg_id": "31fdd784-6139-44b7-9ef7-7562d194827f",
        "type": "message",
        "text": "the design is made in PA and PU softer part to close mask and face surface. Now a flexible textile is used with a rubber. This we want to change today into a ring that holds the cloth, but were also the clips for the ribbens are connected, so it holds everything together.",
        "user": "U0106VDVAQ6",
        "ts": "1584514430.026500",
        "team": "TUU48M0T1",
        "user_team": "TUU48M0T1",
        "source_team": "TUU48M0T1",
        "user_profile": {
            "avatar_hash": "gcb646d37b14",
            "image_72": "https:\/\/secure.gravatar.com\/avatar\/cb646d37b14b4cc616c4ac5cf95808ed.jpg?s=72&d=https%3A%2F%2Fa.slack-edge.com%2Fdf10d%2Fimg%2Favatars%2Fava_0009-72.png",
            "first_name": "",
            "real_name": "Evita",
            "display_name": "",
            "team": "TUU48M0T1",
            "name": "evi",
            "is_restricted": false,
            "is_ultra_restricted": false
        },
        "blocks": [
            {
                "type": "rich_text",
                "block_id": "VZiH=",
                "elements": [
                    {
                        "type": "rich_text_section",
                        "elements": [
                            {
                                "type": "text",
                                "text": "the design is made in PA and PU softer part to close mask and face surface. Now a flexible textile is used with a rubber. This we want to change today into a ring that holds the cloth, but were also the clips for the ribbens are connected, so it holds everything together."
                            }
                        ]
                    }
                ]
            }
        ]
    },
    {
        "client_msg_id": "577ad256-093b-4f45-a098-b0dc5cb4c906",
        "type": "message",
        "text": "next phase is to add clips or screw on the ring to hold a filterchamber for the filter shown in picture 2",
        "user": "U0106VDVAQ6",
        "ts": "1584514468.027300",
        "team": "TUU48M0T1",
        "user_team": "TUU48M0T1",
        "source_team": "TUU48M0T1",
        "user_profile": {
            "avatar_hash": "gcb646d37b14",
            "image_72": "https:\/\/secure.gravatar.com\/avatar\/cb646d37b14b4cc616c4ac5cf95808ed.jpg?s=72&d=https%3A%2F%2Fa.slack-edge.com%2Fdf10d%2Fimg%2Favatars%2Fava_0009-72.png",
            "first_name": "",
            "real_name": "Evita",
            "display_name": "",
            "team": "TUU48M0T1",
            "name": "evi",
            "is_restricted": false,
            "is_ultra_restricted": false
        },
        "blocks": [
            {
                "type": "rich_text",
                "block_id": "YC73n",
                "elements": [
                    {
                        "type": "rich_text_section",
                        "elements": [
                            {
                                "type": "text",
                                "text": "next phase is to add clips or screw on the ring to hold a filterchamber for the filter shown in picture 2"
                            }
                        ]
                    }
                ]
            }
        ]
    },
    {
        "client_msg_id": "61470bc7-f00e-4018-a67d-ab7088f233b6",
        "type": "message",
        "text": "this is a filter that is certified for virus protection.",
        "user": "U0106VDVAQ6",
        "ts": "1584514510.028100",
        "team": "TUU48M0T1",
        "user_team": "TUU48M0T1",
        "source_team": "TUU48M0T1",
        "user_profile": {
            "avatar_hash": "gcb646d37b14",
            "image_72": "https:\/\/secure.gravatar.com\/avatar\/cb646d37b14b4cc616c4ac5cf95808ed.jpg?s=72&d=https%3A%2F%2Fa.slack-edge.com%2Fdf10d%2Fimg%2Favatars%2Fava_0009-72.png",
            "first_name": "",
            "real_name": "Evita",
            "display_name": "",
            "team": "TUU48M0T1",
            "name": "evi",
            "is_restricted": false,
            "is_ultra_restricted": false
        },
        "blocks": [
            {
                "type": "rich_text",
                "block_id": "AEotc",
                "elements": [
                    {
                        "type": "rich_text_section",
                        "elements": [
                            {
                                "type": "text",
                                "text": "this is a filter that is certified for virus protection."
                            }
                        ]
                    }
                ]
            }
        ]
    },
    {
        "client_msg_id": "b0c16155-475d-441d-8b1b-e64b31777248",
        "type": "message",
        "text": "2 challenges: 1. can we design the chamber in a way there is no air passing ? 2. is there another accessible cloth to use in version 1",
        "user": "U0106VDVAQ6",
        "ts": "1584514576.029100",
        "team": "TUU48M0T1",
        "user_team": "TUU48M0T1",
        "source_team": "TUU48M0T1",
        "user_profile": {
            "avatar_hash": "gcb646d37b14",
            "image_72": "https:\/\/secure.gravatar.com\/avatar\/cb646d37b14b4cc616c4ac5cf95808ed.jpg?s=72&d=https%3A%2F%2Fa.slack-edge.com%2Fdf10d%2Fimg%2Favatars%2Fava_0009-72.png",
            "first_name": "",
            "real_name": "Evita",
            "display_name": "",
            "team": "TUU48M0T1",
            "name": "evi",
            "is_restricted": false,
            "is_ultra_restricted": false
        },
        "blocks": [
            {
                "type": "rich_text",
                "block_id": "1nGSn",
                "elements": [
                    {
                        "type": "rich_text_section",
                        "elements": [
                            {
                                "type": "text",
                                "text": "2 challenges: 1. can we design the chamber in a way there is no air passing ? 2. is there another accessible cloth to use in version 1"
                            }
                        ]
                    }
                ]
            }
        ]
    },
    {
        "client_msg_id": "6d22de51-4f14-4b23-94e1-07a2fe2fa780",
        "type": "message",
        "text": "more on our web page, but in dutch..",
        "user": "U0106VDVAQ6",
        "ts": "1584514595.029400",
        "team": "TUU48M0T1",
        "user_team": "TUU48M0T1",
        "source_team": "TUU48M0T1",
        "user_profile": {
            "avatar_hash": "gcb646d37b14",
            "image_72": "https:\/\/secure.gravatar.com\/avatar\/cb646d37b14b4cc616c4ac5cf95808ed.jpg?s=72&d=https%3A%2F%2Fa.slack-edge.com%2Fdf10d%2Fimg%2Favatars%2Fava_0009-72.png",
            "first_name": "",
            "real_name": "Evita",
            "display_name": "",
            "team": "TUU48M0T1",
            "name": "evi",
            "is_restricted": false,
            "is_ultra_restricted": false
        },
        "blocks": [
            {
                "type": "rich_text",
                "block_id": "B3n",
                "elements": [
                    {
                        "type": "rich_text_section",
                        "elements": [
                            {
                                "type": "text",
                                "text": "more on our web page, but in dutch.."
                            }
                        ]
                    }
                ]
            }
        ]
    },
    {
        "client_msg_id": "c9f316fc-7d81-4192-8f70-5ab3c6a735cd",
        "type": "message",
        "text": "<https:\/\/timelab.org\/covid19_masks-oproep\/>",
        "user": "U0106VDVAQ6",
        "ts": "1584514597.029600",
        "team": "TUU48M0T1",
        "user_team": "TUU48M0T1",
        "source_team": "TUU48M0T1",
        "user_profile": {
            "avatar_hash": "gcb646d37b14",
            "image_72": "https:\/\/secure.gravatar.com\/avatar\/cb646d37b14b4cc616c4ac5cf95808ed.jpg?s=72&d=https%3A%2F%2Fa.slack-edge.com%2Fdf10d%2Fimg%2Favatars%2Fava_0009-72.png",
            "first_name": "",
            "real_name": "Evita",
            "display_name": "",
            "team": "TUU48M0T1",
            "name": "evi",
            "is_restricted": false,
            "is_ultra_restricted": false
        },
        "attachments": [
            {
                "title": "COVID19_masks - OPROEP -",
                "title_link": "https:\/\/timelab.org\/covid19_masks-oproep\/",
                "text": "Er is een prangend tekort aan mondmaskers voor onze hulpverleners. Een cargo met nieuwe mondmaskers raakt het land niet binnen. …",
                "fallback": "COVID19_masks - OPROEP -",
                "image_url": "https:\/\/timelab.org\/wp-content\/uploads\/2020\/03\/mask.png",
                "image_width": 250,
                "image_height": 250,
                "ts": 1584344091,
                "from_url": "https:\/\/timelab.org\/covid19_masks-oproep\/",
                "image_bytes": 421942,
                "service_name": "timelab.org",
                "id": 1,
                "original_url": "https:\/\/timelab.org\/covid19_masks-oproep\/"
            }
        ],
        "blocks": [
            {
                "type": "rich_text",
                "block_id": "1u5",
                "elements": [
                    {
                        "type": "rich_text_section",
                        "elements": [
                            {
                                "type": "link",
                                "url": "https:\/\/timelab.org\/covid19_masks-oproep\/"
                            }
                        ]
                    }
                ]
            }
        ]
    },
    {
        "client_msg_id": "f9c69f6d-b919-4d3c-9bf1-6960c5ce962a",
        "type": "message",
        "text": "please, makers, if you know how to design in 3D or want to test prints on your DIY printers, please enter our group! the clock is ticking!",
        "user": "U0106VDVAQ6",
        "ts": "1584514710.030700",
        "team": "TUU48M0T1",
        "user_team": "TUU48M0T1",
        "source_team": "TUU48M0T1",
        "user_profile": {
            "avatar_hash": "gcb646d37b14",
            "image_72": "https:\/\/secure.gravatar.com\/avatar\/cb646d37b14b4cc616c4ac5cf95808ed.jpg?s=72&d=https%3A%2F%2Fa.slack-edge.com%2Fdf10d%2Fimg%2Favatars%2Fava_0009-72.png",
            "first_name": "",
            "real_name": "Evita",
            "display_name": "",
            "team": "TUU48M0T1",
            "name": "evi",
            "is_restricted": false,
            "is_ultra_restricted": false
        },
        "blocks": [
            {
                "type": "rich_text",
                "block_id": "0DB",
                "elements": [
                    {
                        "type": "rich_text_section",
                        "elements": [
                            {
                                "type": "text",
                                "text": "please, makers, if you know how to design in 3D or want to test prints on your DIY printers, please enter our group! the clock is ticking!"
                            }
                        ]
                    }
                ]
            }
        ],
        "thread_ts": "1584514710.030700",
        "reply_count": 1,
        "reply_users_count": 1,
        "latest_reply": "1584549726.031100",
        "reply_users": [
            "UVBLWGLQ3"
        ],
        "replies": [
            {
                "user": "UVBLWGLQ3",
                "ts": "1584549726.031100"
            }
        ],
        "subscribed": false
    }
]