[
    {
        "type": "message",
        "subtype": "channel_join",
        "ts": "1585939711.113000",
        "user": "U011CCCTPFF",
        "text": "<@U011CCCTPFF> has joined the channel",
        "inviter": "UV02WET96"
    },
    {
        "client_msg_id": "f9495af8-b7fd-4df3-a49b-c5d754629380",
        "type": "message",
        "text": "ucsf in San Francisco - she said the whole staff is doing some version of this now.",
        "user": "U0105KZPEJF",
        "ts": "1585955917.113300",
        "team": "TUU48M0T1",
        "user_team": "TUU48M0T1",
        "source_team": "TUU48M0T1",
        "user_profile": {
            "avatar_hash": "gee6beb8148c",
            "image_72": "https:\/\/secure.gravatar.com\/avatar\/ee6beb8148cc650119898869bbaf9592.jpg?s=72&d=https%3A%2F%2Fa.slack-edge.com%2Fdf10d%2Fimg%2Favatars%2Fava_0019-72.png",
            "first_name": "",
            "real_name": "jeremy",
            "display_name": "jeremy",
            "team": "TUU48M0T1",
            "name": "jeremy.llewellyn",
            "is_restricted": false,
            "is_ultra_restricted": false
        },
        "blocks": [
            {
                "type": "rich_text",
                "block_id": "O0k",
                "elements": [
                    {
                        "type": "rich_text_section",
                        "elements": [
                            {
                                "type": "text",
                                "text": "ucsf in San Francisco - she said the whole staff is doing some version of this now."
                            }
                        ]
                    }
                ]
            }
        ],
        "thread_ts": "1584911317.251600",
        "parent_user_id": "U0103AWRSMV"
    },
    {
        "type": "message",
        "text": "I assume you've heard of #Masks4All?\n<https:\/\/twitter.com\/hashtag\/Masks4All?src=hashtag_click>",
        "files": [
            {
                "id": "F011EHB44PN",
                "created": 1585976281,
                "timestamp": 1585976281,
                "name": "Masks4All - Spock and Kirk bros - Apr 3.png",
                "title": "Masks4All - Spock and Kirk bros - Apr 3.png",
                "mimetype": "image\/png",
                "filetype": "png",
                "pretty_type": "PNG",
                "user": "UV0CX49QB",
                "editable": false,
                "size": 402310,
                "mode": "hosted",
                "is_external": false,
                "external_type": "",
                "is_public": true,
                "public_url_shared": false,
                "display_as_bot": false,
                "username": "",
                "url_private": "https:\/\/files.slack.com\/files-pri\/TUU48M0T1-F011EHB44PN\/masks4all_-_spock_and_kirk_bros_-_apr_3.png?t=xoxe-980144714919-1106606678066-1105227127893-6f722bb664235052954ad46852628b64",
                "url_private_download": "https:\/\/files.slack.com\/files-pri\/TUU48M0T1-F011EHB44PN\/download\/masks4all_-_spock_and_kirk_bros_-_apr_3.png?t=xoxe-980144714919-1106606678066-1105227127893-6f722bb664235052954ad46852628b64",
                "thumb_64": "https:\/\/files.slack.com\/files-tmb\/TUU48M0T1-F011EHB44PN-8a16a6d4b5\/masks4all_-_spock_and_kirk_bros_-_apr_3_64.png?t=xoxe-980144714919-1106606678066-1105227127893-6f722bb664235052954ad46852628b64",
                "thumb_80": "https:\/\/files.slack.com\/files-tmb\/TUU48M0T1-F011EHB44PN-8a16a6d4b5\/masks4all_-_spock_and_kirk_bros_-_apr_3_80.png?t=xoxe-980144714919-1106606678066-1105227127893-6f722bb664235052954ad46852628b64",
                "thumb_360": "https:\/\/files.slack.com\/files-tmb\/TUU48M0T1-F011EHB44PN-8a16a6d4b5\/masks4all_-_spock_and_kirk_bros_-_apr_3_360.png?t=xoxe-980144714919-1106606678066-1105227127893-6f722bb664235052954ad46852628b64",
                "thumb_360_w": 360,
                "thumb_360_h": 180,
                "thumb_480": "https:\/\/files.slack.com\/files-tmb\/TUU48M0T1-F011EHB44PN-8a16a6d4b5\/masks4all_-_spock_and_kirk_bros_-_apr_3_480.png?t=xoxe-980144714919-1106606678066-1105227127893-6f722bb664235052954ad46852628b64",
                "thumb_480_w": 480,
                "thumb_480_h": 240,
                "thumb_160": "https:\/\/files.slack.com\/files-tmb\/TUU48M0T1-F011EHB44PN-8a16a6d4b5\/masks4all_-_spock_and_kirk_bros_-_apr_3_160.png?t=xoxe-980144714919-1106606678066-1105227127893-6f722bb664235052954ad46852628b64",
                "thumb_720": "https:\/\/files.slack.com\/files-tmb\/TUU48M0T1-F011EHB44PN-8a16a6d4b5\/masks4all_-_spock_and_kirk_bros_-_apr_3_720.png?t=xoxe-980144714919-1106606678066-1105227127893-6f722bb664235052954ad46852628b64",
                "thumb_720_w": 720,
                "thumb_720_h": 360,
                "thumb_800": "https:\/\/files.slack.com\/files-tmb\/TUU48M0T1-F011EHB44PN-8a16a6d4b5\/masks4all_-_spock_and_kirk_bros_-_apr_3_800.png?t=xoxe-980144714919-1106606678066-1105227127893-6f722bb664235052954ad46852628b64",
                "thumb_800_w": 800,
                "thumb_800_h": 400,
                "thumb_960": "https:\/\/files.slack.com\/files-tmb\/TUU48M0T1-F011EHB44PN-8a16a6d4b5\/masks4all_-_spock_and_kirk_bros_-_apr_3_960.png?t=xoxe-980144714919-1106606678066-1105227127893-6f722bb664235052954ad46852628b64",
                "thumb_960_w": 960,
                "thumb_960_h": 480,
                "thumb_1024": "https:\/\/files.slack.com\/files-tmb\/TUU48M0T1-F011EHB44PN-8a16a6d4b5\/masks4all_-_spock_and_kirk_bros_-_apr_3_1024.png?t=xoxe-980144714919-1106606678066-1105227127893-6f722bb664235052954ad46852628b64",
                "thumb_1024_w": 1024,
                "thumb_1024_h": 512,
                "image_exif_rotation": 1,
                "original_w": 2048,
                "original_h": 1024,
                "thumb_tiny": "AwAYADC7c3At0DEEknAA7022uTMSGQoR696S9A2Kx\/haktADlhjHTil1C\/QmMhB\/1bUqyZOGUr7mkLSZ4QfnSE5I81FAzwSe9BNwmlMYwql29BTopRIp4II4IPUVXvTsZW4x05qW2X5S5GC\/Jp2e5V0TEA9aAAOlFFAAfak69RS0UAIQD1GaXpRRQB\/\/2Q==",
                "permalink": "https:\/\/open-covid19.slack.com\/files\/UV0CX49QB\/F011EHB44PN\/masks4all_-_spock_and_kirk_bros_-_apr_3.png",
                "permalink_public": "https:\/\/slack-files.com\/TUU48M0T1-F011EHB44PN-2edf188426",
                "is_starred": false,
                "has_rich_preview": false
            }
        ],
        "upload": true,
        "blocks": [
            {
                "type": "rich_text",
                "block_id": "igT=",
                "elements": [
                    {
                        "type": "rich_text_section",
                        "elements": [
                            {
                                "type": "text",
                                "text": "I assume you've heard of #Masks4All?\n"
                            },
                            {
                                "type": "link",
                                "url": "https:\/\/twitter.com\/hashtag\/Masks4All?src=hashtag_click"
                            }
                        ]
                    }
                ]
            }
        ],
        "user": "UV0CX49QB",
        "display_as_bot": false,
        "ts": "1585976286.113600",
        "client_msg_id": "84439c8b-878a-4b18-937d-18cb90b45ebd",
        "reactions": [
            {
                "name": "+1",
                "users": [
                    "U0100AN3E9J"
                ],
                "count": 1
            }
        ]
    }
]