[
    {
        "client_msg_id": "ACE46374-E53C-43F6-9B67-5CD26FCAAB48",
        "type": "message",
        "text": "Hi all,\nI apologize because I have a very bad English. That why I prefer to write in French so that everyone translates more effectively in their native language\n\nJ’ai dessiné plusieurs modèles de support de filtre pour les masque Easybreath.\nIl y a deux modèles endurcis, un modèle déporté par tuyaux spiralé de diamètre 40 et deux modèles allégés.\n\nLe dossier en ligne comprend en autre une analyse par compteur de particule du filtre karcher vc3.\n\nJ’ai choisi ce type de filtre pour leur efficacité, leur capacité et le format cylindrique apportant une facilité d’étanchéité et de modification de format.\n\nCes filtres sont facile à obtenir. \n\nCependant des doutes techniques reste à lever sur ce dispositif.\n\nLes points sont les suivants :\n\n• Effectuer un test de filtration avec compteur de particules sur le filtre Dyson\n• Évaluer l’efficacité de la valve d’expiration ( a la base conçu pour fonctionner avec une contrepression du à la présence d’eau)\n• En fonctionne du résultat précédent, éventuellement renforcer la performance du dispositif expiratoire.\n• Évaluer la durée d’utilisation d’un filtre\n• Évaluer sont efficacité après lavage et désinfection \n• En fonction du résultat précédent, évaluer la durée de vie du filtre \/ nb de cycle de nettoyage.\n\nJe n’ai pas l’équipement et les compétences pour évaluer ces points de doutes.\n\nVous trouverez ci joint le lien pour trouver les fichiers\n\nAmicalement à tous\nJérôme \n\n\n<https:\/\/www.thingiverse.com\/thing:4253678|https:\/\/www.thingiverse.com\/thing:4253678>",
        "user": "U011DLSJC9K",
        "ts": "1586200879.139600",
        "team": "TUU48M0T1",
        "user_team": "TUU48M0T1",
        "source_team": "TUU48M0T1",
        "user_profile": {
            "avatar_hash": "g8078045116f",
            "image_72": "https:\/\/secure.gravatar.com\/avatar\/8078045116f26ef159c59327dd713e4f.jpg?s=72&d=https%3A%2F%2Fa.slack-edge.com%2Fdf10d%2Fimg%2Favatars%2Fava_0004-72.png",
            "first_name": "Jerome",
            "real_name": "Jerome",
            "display_name": "",
            "team": "TUU48M0T1",
            "name": "bontemps.j",
            "is_restricted": false,
            "is_ultra_restricted": false
        },
        "edited": {
            "user": "U011DLSJC9K",
            "ts": "1586202442.000000"
        },
        "attachments": [
            {
                "title": "HEPA  EASYBREATH DECATLON COVID19 by JEBON",
                "title_link": "https:\/\/www.thingiverse.com\/thing:4253678",
                "text": "Adaptation filtres HEPA disponibles sur masque EasyBreath Décathlon Version original ce jour Ajout du modèle allégé pour filtre Dyson DC08 Ajout du modèle allégé pour filtre Marcher VC3 Ajout Test du filtre VC3 par compteur de particules aéroportées MET ONE 3400 Merci Laurent B d'avoir partager ces résultats de test Ajout de notions de propriété industrielle générales. Pour le filtre Karcher, pièce repère PC0D et PC34 Uniquement. Les autres pièces sont conçues pour le filtre Dyson DC08 Translate all text before using the files Responsabilités Le matériel et le développement de cette solution n’ont pas été testés et n’ont pas obtenu d’agréments pour cette application. Leurs utilisations peuvent potentiellement comporter des risques qui n’ont pas été recensés ni évalués. Des analyses et essais plus poussés doivent être effectués pour une utilisation en toute sécurité. Ces documents sont partagés dans un but de travail communautaire uniquement. En aucun cas la responsabilité de l’auteur ou de thingiverse ne pourrait être engagée pour tous dommages, peu importe leurs natures. En imprimant et utilisant ces données, vous engagez votre seule responsabilité concernant la fabrication et\/ou l’utilisation, qu’elle soit llicite ou non. Pour tout besoin en protection respiratoire, veuillez utiliser du matériel testé et agréé. Propriété industrielle Les modèles de pièce référencés sur cette page sont déposés sous licence commun creative - attribution - sans utilisation commerciale - avec modifications autorisées sous réserve de les partager ou les exploiter sous les mêmes conditions de licence. Pour toutes personnes physiques ou morales qui souhaiteraient déposer un brevet de propriété industrielle, national ou international, sur un adaptateur de filtre monté sur masque de snorkeling, sachez qu’une étude préliminaire de liberté d’exploitation a relevé des antériorités datant de 2019 supprimant de fait le caractère de brevetabilité de ce genre de produit. Ce genre d’adaptateur font partie du domaine publique. (Sauf dans le cas d’un brevet déposé antérieurement a la date précitée non relevé par l’étude préliminaire) Please be aware that this device may not be 100% effective and I am not in any way responsible for what you might use it for or what this device may or may not protect against. Although it might be effective as a last resort protection against CBRN attacks is not to be considered as an \"war gas mask\" or as a war weapon but as a proof of concept. Always use proper certified protection equipment when working in an environment with hazardous chemicals or chemical warfare, you are responsible for your actions. Merci FrenchCivilian pour le texte",
                "fallback": "HEPA  EASYBREATH DECATLON COVID19 by JEBON",
                "thumb_url": "https:\/\/cdn.thingiverse.com\/assets\/0c\/44\/ea\/d3\/ed\/featured_preview_plan_de_montage_mod%C3%A8lev3_atester.jpg",
                "from_url": "https:\/\/www.thingiverse.com\/thing:4253678",
                "thumb_width": 628,
                "thumb_height": 472,
                "service_icon": "https:\/\/cdn.thingiverse.com\/site\/img\/favicons\/apple-touch-icon-57x57.png",
                "service_name": "thingiverse.com",
                "id": 1,
                "original_url": "https:\/\/www.thingiverse.com\/thing:4253678"
            }
        ],
        "blocks": [
            {
                "type": "rich_text",
                "block_id": "onsnI",
                "elements": [
                    {
                        "type": "rich_text_section",
                        "elements": [
                            {
                                "type": "text",
                                "text": "Hi all,\nI apologize because I have a very bad English. That why I prefer to write in French so that everyone translates more effectively in their native language\n\nJ’ai dessiné plusieurs modèles de support de filtre pour les masque Easybreath.\nIl y a deux modèles endurcis, un modèle déporté par tuyaux spiralé de diamètre 40 et deux modèles allégés.\n\nLe dossier en ligne comprend en autre une analyse par compteur de particule du filtre karcher vc3.\n\nJ’ai choisi ce type de filtre pour leur efficacité, leur capacité et le format cylindrique apportant une facilité d’étanchéité et de modification de format.\n\nCes filtres sont facile à obtenir. \n\nCependant des doutes techniques reste à lever sur ce dispositif.\n\nLes points sont les suivants :\n\n"
                            }
                        ]
                    },
                    {
                        "type": "rich_text_list",
                        "elements": [
                            {
                                "type": "rich_text_section",
                                "elements": [
                                    {
                                        "type": "text",
                                        "text": "Effectuer un test de filtration avec compteur de particules sur le filtre Dyson"
                                    }
                                ]
                            },
                            {
                                "type": "rich_text_section",
                                "elements": [
                                    {
                                        "type": "text",
                                        "text": "Évaluer l’efficacité de la valve d’expiration ( a la base conçu pour fonctionner avec une contrepression du à la présence d’eau)"
                                    }
                                ]
                            },
                            {
                                "type": "rich_text_section",
                                "elements": [
                                    {
                                        "type": "text",
                                        "text": "En fonctionne du résultat précédent, éventuellement renforcer la performance du dispositif expiratoire."
                                    }
                                ]
                            },
                            {
                                "type": "rich_text_section",
                                "elements": [
                                    {
                                        "type": "text",
                                        "text": "Évaluer la durée d’utilisation d’un filtre"
                                    }
                                ]
                            },
                            {
                                "type": "rich_text_section",
                                "elements": [
                                    {
                                        "type": "text",
                                        "text": "Évaluer sont efficacité après lavage et désinfection "
                                    }
                                ]
                            },
                            {
                                "type": "rich_text_section",
                                "elements": [
                                    {
                                        "type": "text",
                                        "text": "En fonction du résultat précédent, évaluer la durée de vie du filtre \/ nb de cycle de nettoyage."
                                    }
                                ]
                            }
                        ],
                        "style": "bullet",
                        "indent": 0
                    },
                    {
                        "type": "rich_text_section",
                        "elements": [
                            {
                                "type": "text",
                                "text": "\n\nJe n’ai pas l’équipement et les compétences pour évaluer ces points de doutes.\n\nVous trouverez ci joint le lien pour trouver les fichiers\n\nAmicalement à tous\nJérôme \n\n\n"
                            },
                            {
                                "type": "link",
                                "url": "https:\/\/www.thingiverse.com\/thing:4253678",
                                "text": "https:\/\/www.thingiverse.com\/thing:4253678"
                            }
                        ]
                    }
                ]
            }
        ],
        "thread_ts": "1586200879.139600",
        "reply_count": 11,
        "reply_users_count": 2,
        "latest_reply": "1586459365.171600",
        "reply_users": [
            "U0111TMRPF0",
            "U011DLSJC9K"
        ],
        "replies": [
            {
                "user": "U0111TMRPF0",
                "ts": "1586203931.140100"
            },
            {
                "user": "U011DLSJC9K",
                "ts": "1586205813.143400"
            },
            {
                "user": "U011DLSJC9K",
                "ts": "1586205910.145300"
            },
            {
                "user": "U0111TMRPF0",
                "ts": "1586207838.145800"
            },
            {
                "user": "U0111TMRPF0",
                "ts": "1586207891.146000"
            },
            {
                "user": "U0111TMRPF0",
                "ts": "1586207959.146200"
            },
            {
                "user": "U0111TMRPF0",
                "ts": "1586207982.146400"
            },
            {
                "user": "U0111TMRPF0",
                "ts": "1586207983.146600"
            },
            {
                "user": "U0111TMRPF0",
                "ts": "1586209920.146900"
            },
            {
                "user": "U011DLSJC9K",
                "ts": "1586244508.155000"
            },
            {
                "user": "U011DLSJC9K",
                "ts": "1586459365.171600"
            }
        ],
        "subscribed": false,
        "reactions": [
            {
                "name": "heart",
                "users": [
                    "U010G3HSC9X"
                ],
                "count": 1
            }
        ]
    },
    {
        "client_msg_id": "eaf85411-2e5f-470b-84b8-a36ebbcf5246",
        "type": "message",
        "text": "Merci pour le partage, notamment sur la partie filtration, avec le groupe Entraide Makers - Covid, nous sommes en train de soumettre un masque reprenant des filtre d'habitacle au polyphénole. Quel serait le protocole de désinfection que tu préconiserai pour les filtre? chaleur seche? As tu prévu une étanchéité périphérique du filte? Etanchéité entre les élément imprimé? Nous avons fais des tests d'etanchéité sur nos masques et il apparait que pour atteindre les critères de l'EN402, on a du sceller au mastic",
        "user": "U0111TMRPF0",
        "ts": "1586203931.140100",
        "team": "TUU48M0T1",
        "user_team": "TUU48M0T1",
        "source_team": "TUU48M0T1",
        "user_profile": {
            "avatar_hash": "ge0c28c41723",
            "image_72": "https:\/\/secure.gravatar.com\/avatar\/e0c28c417237f3fc3e728afc06a16a9c.jpg?s=72&d=https%3A%2F%2Fa.slack-edge.com%2Fdf10d%2Fimg%2Favatars%2Fava_0006-72.png",
            "first_name": "",
            "real_name": "petitmanu",
            "display_name": "petitmanu",
            "team": "TUU48M0T1",
            "name": "pelegrinma",
            "is_restricted": false,
            "is_ultra_restricted": false
        },
        "blocks": [
            {
                "type": "rich_text",
                "block_id": "hifv",
                "elements": [
                    {
                        "type": "rich_text_section",
                        "elements": [
                            {
                                "type": "text",
                                "text": "Merci pour le partage, notamment sur la partie filtration, avec le groupe Entraide Makers - Covid, nous sommes en train de soumettre un masque reprenant des filtre d'habitacle au polyphénole. Quel serait le protocole de désinfection que tu préconiserai pour les filtre? chaleur seche? As tu prévu une étanchéité périphérique du filte? Etanchéité entre les élément imprimé? Nous avons fais des tests d'etanchéité sur nos masques et il apparait que pour atteindre les critères de l'EN402, on a du sceller au mastic"
                            }
                        ]
                    }
                ]
            }
        ],
        "thread_ts": "1586200879.139600",
        "parent_user_id": "U011DLSJC9K"
    },
    {
        "type": "message",
        "text": "Pour le filtre en tanin je n’ai aucune idée, il faudrait se rapprocher des fabricants ou de chimiste. Pour les plastiques, il y a eu une étude intéressante concernant la désinfection des matières imprimables.\n",
        "files": [
            {
                "id": "F011FE1KX2R",
                "created": 1586205804,
                "timestamp": 1586205804,
                "name": "Image d’iOS.jpg",
                "title": "Image d’iOS",
                "mimetype": "image\/jpeg",
                "filetype": "jpg",
                "pretty_type": "JPEG",
                "user": "U011DLSJC9K",
                "editable": false,
                "size": 346922,
                "mode": "hosted",
                "is_external": false,
                "external_type": "",
                "is_public": true,
                "public_url_shared": false,
                "display_as_bot": false,
                "username": "",
                "url_private": "https:\/\/files.slack.com\/files-pri\/TUU48M0T1-F011FE1KX2R\/image_d___ios.jpg?t=xoxe-980144714919-1106606678066-1105227127893-6f722bb664235052954ad46852628b64",
                "url_private_download": "https:\/\/files.slack.com\/files-pri\/TUU48M0T1-F011FE1KX2R\/download\/image_d___ios.jpg?t=xoxe-980144714919-1106606678066-1105227127893-6f722bb664235052954ad46852628b64",
                "thumb_64": "https:\/\/files.slack.com\/files-tmb\/TUU48M0T1-F011FE1KX2R-bf1678d796\/image_d___ios_64.jpg?t=xoxe-980144714919-1106606678066-1105227127893-6f722bb664235052954ad46852628b64",
                "thumb_80": "https:\/\/files.slack.com\/files-tmb\/TUU48M0T1-F011FE1KX2R-bf1678d796\/image_d___ios_80.jpg?t=xoxe-980144714919-1106606678066-1105227127893-6f722bb664235052954ad46852628b64",
                "thumb_360": "https:\/\/files.slack.com\/files-tmb\/TUU48M0T1-F011FE1KX2R-bf1678d796\/image_d___ios_360.jpg?t=xoxe-980144714919-1106606678066-1105227127893-6f722bb664235052954ad46852628b64",
                "thumb_360_w": 360,
                "thumb_360_h": 255,
                "thumb_480": "https:\/\/files.slack.com\/files-tmb\/TUU48M0T1-F011FE1KX2R-bf1678d796\/image_d___ios_480.jpg?t=xoxe-980144714919-1106606678066-1105227127893-6f722bb664235052954ad46852628b64",
                "thumb_480_w": 480,
                "thumb_480_h": 339,
                "thumb_160": "https:\/\/files.slack.com\/files-tmb\/TUU48M0T1-F011FE1KX2R-bf1678d796\/image_d___ios_160.jpg?t=xoxe-980144714919-1106606678066-1105227127893-6f722bb664235052954ad46852628b64",
                "thumb_720": "https:\/\/files.slack.com\/files-tmb\/TUU48M0T1-F011FE1KX2R-bf1678d796\/image_d___ios_720.jpg?t=xoxe-980144714919-1106606678066-1105227127893-6f722bb664235052954ad46852628b64",
                "thumb_720_w": 720,
                "thumb_720_h": 509,
                "thumb_800": "https:\/\/files.slack.com\/files-tmb\/TUU48M0T1-F011FE1KX2R-bf1678d796\/image_d___ios_800.jpg?t=xoxe-980144714919-1106606678066-1105227127893-6f722bb664235052954ad46852628b64",
                "thumb_800_w": 800,
                "thumb_800_h": 566,
                "thumb_960": "https:\/\/files.slack.com\/files-tmb\/TUU48M0T1-F011FE1KX2R-bf1678d796\/image_d___ios_960.jpg?t=xoxe-980144714919-1106606678066-1105227127893-6f722bb664235052954ad46852628b64",
                "thumb_960_w": 960,
                "thumb_960_h": 679,
                "thumb_1024": "https:\/\/files.slack.com\/files-tmb\/TUU48M0T1-F011FE1KX2R-bf1678d796\/image_d___ios_1024.jpg?t=xoxe-980144714919-1106606678066-1105227127893-6f722bb664235052954ad46852628b64",
                "thumb_1024_w": 1024,
                "thumb_1024_h": 724,
                "image_exif_rotation": 1,
                "original_w": 1861,
                "original_h": 1316,
                "thumb_tiny": "AwAhADDSLAU0tnp+lRzMVI471ErserZ+gxUSnYdtLk+4+9G4+9RFgM9ceuaawJH3mA9qXtARZDEdaUOCcd6pIHDtnIHYnvVoffXimpXG1YbKjM5xIVHpgU1ImA65\/AVMQc9KAp9qbjcVyMKRzg59cUjIGOSvPrgVPjjqaTBqeTzAjWPHbP5U8LyCRS7T607FUo2EFFFFUAUUUUAFFFFAH\/\/Z",
                "permalink": "https:\/\/open-covid19.slack.com\/files\/U011DLSJC9K\/F011FE1KX2R\/image_d___ios.jpg",
                "permalink_public": "https:\/\/slack-files.com\/TUU48M0T1-F011FE1KX2R-296176b51b",
                "is_starred": false,
                "has_rich_preview": false
            }
        ],
        "upload": true,
        "blocks": [
            {
                "type": "rich_text",
                "block_id": "db0Ys",
                "elements": [
                    {
                        "type": "rich_text_section",
                        "elements": [
                            {
                                "type": "text",
                                "text": "Pour le filtre en tanin je n’ai aucune idée, il faudrait se rapprocher des fabricants ou de chimiste. Pour les plastiques, il y a eu une étude intéressante concernant la désinfection des matières imprimables.\n"
                            }
                        ]
                    }
                ]
            }
        ],
        "user": "U011DLSJC9K",
        "display_as_bot": false,
        "ts": "1586205813.143400",
        "client_msg_id": "E6016907-2ADC-435D-AFE2-D27D07585A67",
        "thread_ts": "1586200879.139600",
        "parent_user_id": "U011DLSJC9K",
        "subtype": "thread_broadcast",
        "root": {
            "client_msg_id": "ACE46374-E53C-43F6-9B67-5CD26FCAAB48",
            "type": "message",
            "text": "Hi all,\nI apologize because I have a very bad English. That why I prefer to write in French so that everyone translates more effectively in their native language\n\nJ’ai dessiné plusieurs modèles de support de filtre pour les masque Easybreath.\nIl y a deux modèles endurcis, un modèle déporté par tuyaux spiralé de diamètre 40 et deux modèles allégés.\n\nLe dossier en ligne comprend en autre une analyse par compteur de particule du filtre karcher vc3.\n\nJ’ai choisi ce type de filtre pour leur efficacité, leur capacité et le format cylindrique apportant une facilité d’étanchéité et de modification de format.\n\nCes filtres sont facile à obtenir. \n\nCependant des doutes techniques reste à lever sur ce dispositif.\n\nLes points sont les suivants :\n\n• Effectuer un test de filtration avec compteur de particules sur le filtre Dyson\n• Évaluer l’efficacité de la valve d’expiration ( a la base conçu pour fonctionner avec une contrepression du à la présence d’eau)\n• En fonctionne du résultat précédent, éventuellement renforcer la performance du dispositif expiratoire.\n• Évaluer la durée d’utilisation d’un filtre\n• Évaluer sont efficacité après lavage et désinfection \n• En fonction du résultat précédent, évaluer la durée de vie du filtre \/ nb de cycle de nettoyage.\n\nJe n’ai pas l’équipement et les compétences pour évaluer ces points de doutes.\n\nVous trouverez ci joint le lien pour trouver les fichiers\n\nAmicalement à tous\nJérôme \n\n\n<https:\/\/www.thingiverse.com\/thing:4253678|https:\/\/www.thingiverse.com\/thing:4253678>",
            "user": "U011DLSJC9K",
            "ts": "1586200879.139600",
            "team": "TUU48M0T1",
            "edited": {
                "user": "U011DLSJC9K",
                "ts": "1586202442.000000"
            },
            "attachments": [
                {
                    "title": "HEPA  EASYBREATH DECATLON COVID19 by JEBON",
                    "title_link": "https:\/\/www.thingiverse.com\/thing:4253678",
                    "text": "Adaptation filtres HEPA disponibles sur masque EasyBreath Décathlon Version original ce jour Ajout du modèle allégé pour filtre Dyson DC08 Ajout du modèle allégé pour filtre Marcher VC3 Ajout Test du filtre VC3 par compteur de particules aéroportées MET ONE 3400 Merci Laurent B d'avoir partager ces résultats de test Ajout de notions de propriété industrielle générales. Pour le filtre Karcher, pièce repère PC0D et PC34 Uniquement. Les autres pièces sont conçues pour le filtre Dyson DC08 Translate all text before using the files Responsabilités Le matériel et le développement de cette solution n’ont pas été testés et n’ont pas obtenu d’agréments pour cette application. Leurs utilisations peuvent potentiellement comporter des risques qui n’ont pas été recensés ni évalués. Des analyses et essais plus poussés doivent être effectués pour une utilisation en toute sécurité. Ces documents sont partagés dans un but de travail communautaire uniquement. En aucun cas la responsabilité de l’auteur ou de thingiverse ne pourrait être engagée pour tous dommages, peu importe leurs natures. En imprimant et utilisant ces données, vous engagez votre seule responsabilité concernant la fabrication et\/ou l’utilisation, qu’elle soit llicite ou non. Pour tout besoin en protection respiratoire, veuillez utiliser du matériel testé et agréé. Propriété industrielle Les modèles de pièce référencés sur cette page sont déposés sous licence commun creative - attribution - sans utilisation commerciale - avec modifications autorisées sous réserve de les partager ou les exploiter sous les mêmes conditions de licence. Pour toutes personnes physiques ou morales qui souhaiteraient déposer un brevet de propriété industrielle, national ou international, sur un adaptateur de filtre monté sur masque de snorkeling, sachez qu’une étude préliminaire de liberté d’exploitation a relevé des antériorités datant de 2019 supprimant de fait le caractère de brevetabilité de ce genre de produit. Ce genre d’adaptateur font partie du domaine publique. (Sauf dans le cas d’un brevet déposé antérieurement a la date précitée non relevé par l’étude préliminaire) Please be aware that this device may not be 100% effective and I am not in any way responsible for what you might use it for or what this device may or may not protect against. Although it might be effective as a last resort protection against CBRN attacks is not to be considered as an \"war gas mask\" or as a war weapon but as a proof of concept. Always use proper certified protection equipment when working in an environment with hazardous chemicals or chemical warfare, you are responsible for your actions. Merci FrenchCivilian pour le texte",
                    "fallback": "HEPA  EASYBREATH DECATLON COVID19 by JEBON",
                    "thumb_url": "https:\/\/cdn.thingiverse.com\/assets\/0c\/44\/ea\/d3\/ed\/featured_preview_plan_de_montage_mod%C3%A8lev3_atester.jpg",
                    "from_url": "https:\/\/www.thingiverse.com\/thing:4253678",
                    "thumb_width": 628,
                    "thumb_height": 472,
                    "service_icon": "https:\/\/cdn.thingiverse.com\/site\/img\/favicons\/apple-touch-icon-57x57.png",
                    "service_name": "thingiverse.com",
                    "id": 1,
                    "original_url": "https:\/\/www.thingiverse.com\/thing:4253678"
                }
            ],
            "blocks": [
                {
                    "type": "rich_text",
                    "block_id": "onsnI",
                    "elements": [
                        {
                            "type": "rich_text_section",
                            "elements": [
                                {
                                    "type": "text",
                                    "text": "Hi all,\nI apologize because I have a very bad English. That why I prefer to write in French so that everyone translates more effectively in their native language\n\nJ’ai dessiné plusieurs modèles de support de filtre pour les masque Easybreath.\nIl y a deux modèles endurcis, un modèle déporté par tuyaux spiralé de diamètre 40 et deux modèles allégés.\n\nLe dossier en ligne comprend en autre une analyse par compteur de particule du filtre karcher vc3.\n\nJ’ai choisi ce type de filtre pour leur efficacité, leur capacité et le format cylindrique apportant une facilité d’étanchéité et de modification de format.\n\nCes filtres sont facile à obtenir. \n\nCependant des doutes techniques reste à lever sur ce dispositif.\n\nLes points sont les suivants :\n\n"
                                }
                            ]
                        },
                        {
                            "type": "rich_text_list",
                            "elements": [
                                {
                                    "type": "rich_text_section",
                                    "elements": [
                                        {
                                            "type": "text",
                                            "text": "Effectuer un test de filtration avec compteur de particules sur le filtre Dyson"
                                        }
                                    ]
                                },
                                {
                                    "type": "rich_text_section",
                                    "elements": [
                                        {
                                            "type": "text",
                                            "text": "Évaluer l’efficacité de la valve d’expiration ( a la base conçu pour fonctionner avec une contrepression du à la présence d’eau)"
                                        }
                                    ]
                                },
                                {
                                    "type": "rich_text_section",
                                    "elements": [
                                        {
                                            "type": "text",
                                            "text": "En fonctionne du résultat précédent, éventuellement renforcer la performance du dispositif expiratoire."
                                        }
                                    ]
                                },
                                {
                                    "type": "rich_text_section",
                                    "elements": [
                                        {
                                            "type": "text",
                                            "text": "Évaluer la durée d’utilisation d’un filtre"
                                        }
                                    ]
                                },
                                {
                                    "type": "rich_text_section",
                                    "elements": [
                                        {
                                            "type": "text",
                                            "text": "Évaluer sont efficacité après lavage et désinfection "
                                        }
                                    ]
                                },
                                {
                                    "type": "rich_text_section",
                                    "elements": [
                                        {
                                            "type": "text",
                                            "text": "En fonction du résultat précédent, évaluer la durée de vie du filtre \/ nb de cycle de nettoyage."
                                        }
                                    ]
                                }
                            ],
                            "style": "bullet",
                            "indent": 0
                        },
                        {
                            "type": "rich_text_section",
                            "elements": [
                                {
                                    "type": "text",
                                    "text": "\n\nJe n’ai pas l’équipement et les compétences pour évaluer ces points de doutes.\n\nVous trouverez ci joint le lien pour trouver les fichiers\n\nAmicalement à tous\nJérôme \n\n\n"
                                },
                                {
                                    "type": "link",
                                    "url": "https:\/\/www.thingiverse.com\/thing:4253678",
                                    "text": "https:\/\/www.thingiverse.com\/thing:4253678"
                                }
                            ]
                        }
                    ]
                }
            ],
            "thread_ts": "1586200879.139600",
            "reply_count": 11,
            "reply_users_count": 2,
            "latest_reply": "1586459365.171600",
            "reply_users": [
                "U0111TMRPF0",
                "U011DLSJC9K"
            ],
            "subscribed": false
        },
        "reactions": [
            {
                "name": "+1",
                "users": [
                    "U0113U9LCKW"
                ],
                "count": 1
            }
        ]
    },
    {
        "client_msg_id": "0DC7AFDA-1B99-44FB-B78F-7BDE084E69BD",
        "type": "message",
        "text": "Sans étude supplémentaire, je pense que le chaleur sèche est la meilleure option pour le filtre. Reste à étudier l’efficacité et la dégradation à chaque cycle.\nPour l’étanchéité, j’ai créé un joint au mastic ou silicone dentaire sur le seul plan de joint nécessaire. C’est un des avantages d’utiliser un filtre à forme ronde qui permet une certaine facilité dans la mise en œuvre de l’étanchéité.",
        "user": "U011DLSJC9K",
        "ts": "1586205910.145300",
        "team": "TUU48M0T1",
        "user_team": "TUU48M0T1",
        "source_team": "TUU48M0T1",
        "user_profile": {
            "avatar_hash": "g8078045116f",
            "image_72": "https:\/\/secure.gravatar.com\/avatar\/8078045116f26ef159c59327dd713e4f.jpg?s=72&d=https%3A%2F%2Fa.slack-edge.com%2Fdf10d%2Fimg%2Favatars%2Fava_0004-72.png",
            "first_name": "Jerome",
            "real_name": "Jerome",
            "display_name": "",
            "team": "TUU48M0T1",
            "name": "bontemps.j",
            "is_restricted": false,
            "is_ultra_restricted": false
        },
        "edited": {
            "user": "U011DLSJC9K",
            "ts": "1586206246.000000"
        },
        "blocks": [
            {
                "type": "rich_text",
                "block_id": "ApD",
                "elements": [
                    {
                        "type": "rich_text_section",
                        "elements": [
                            {
                                "type": "text",
                                "text": "Sans étude supplémentaire, je pense que le chaleur sèche est la meilleure option pour le filtre. Reste à étudier l’efficacité et la dégradation à chaque cycle.\nPour l’étanchéité, j’ai créé un joint au mastic ou silicone dentaire sur le seul plan de joint nécessaire. C’est un des avantages d’utiliser un filtre à forme ronde qui permet une certaine facilité dans la mise en œuvre de l’étanchéité."
                            }
                        ]
                    }
                ]
            }
        ],
        "thread_ts": "1586200879.139600",
        "parent_user_id": "U011DLSJC9K"
    },
    {
        "client_msg_id": "5a0a46e8-3ec7-4e93-8d4e-0085d768bdee",
        "type": "message",
        "text": "oui j'ai vu après coup, et l'étanchéité entre les pièces 3D, mastic aussi (je te le conseille fortement) ton masque rentre dans la norme EN402 soit une fuite de 0.3mbar en 1 minute avec une aspiration de 7.5mb",
        "user": "U0111TMRPF0",
        "ts": "1586207838.145800",
        "team": "TUU48M0T1",
        "user_team": "TUU48M0T1",
        "source_team": "TUU48M0T1",
        "user_profile": {
            "avatar_hash": "ge0c28c41723",
            "image_72": "https:\/\/secure.gravatar.com\/avatar\/e0c28c417237f3fc3e728afc06a16a9c.jpg?s=72&d=https%3A%2F%2Fa.slack-edge.com%2Fdf10d%2Fimg%2Favatars%2Fava_0006-72.png",
            "first_name": "",
            "real_name": "petitmanu",
            "display_name": "petitmanu",
            "team": "TUU48M0T1",
            "name": "pelegrinma",
            "is_restricted": false,
            "is_ultra_restricted": false
        },
        "blocks": [
            {
                "type": "rich_text",
                "block_id": "oDH",
                "elements": [
                    {
                        "type": "rich_text_section",
                        "elements": [
                            {
                                "type": "text",
                                "text": "oui j'ai vu après coup, et l'étanchéité entre les pièces 3D, mastic aussi (je te le conseille fortement) ton masque rentre dans la norme EN402 soit une fuite de 0.3mbar en 1 minute avec une aspiration de 7.5mb"
                            }
                        ]
                    }
                ]
            }
        ],
        "thread_ts": "1586200879.139600",
        "parent_user_id": "U011DLSJC9K"
    },
    {
        "client_msg_id": "490f8b0c-d739-4b8a-9269-64c018dd07b3",
        "type": "message",
        "text": "Si mes souvenir de mécaflux sont bon, cela correspond à à une colonne d'eau de 7.6cm avec une variation de 3mm en une minute",
        "user": "U0111TMRPF0",
        "ts": "1586207891.146000",
        "team": "TUU48M0T1",
        "user_team": "TUU48M0T1",
        "source_team": "TUU48M0T1",
        "user_profile": {
            "avatar_hash": "ge0c28c41723",
            "image_72": "https:\/\/secure.gravatar.com\/avatar\/e0c28c417237f3fc3e728afc06a16a9c.jpg?s=72&d=https%3A%2F%2Fa.slack-edge.com%2Fdf10d%2Fimg%2Favatars%2Fava_0006-72.png",
            "first_name": "",
            "real_name": "petitmanu",
            "display_name": "petitmanu",
            "team": "TUU48M0T1",
            "name": "pelegrinma",
            "is_restricted": false,
            "is_ultra_restricted": false
        },
        "blocks": [
            {
                "type": "rich_text",
                "block_id": "f\/G",
                "elements": [
                    {
                        "type": "rich_text_section",
                        "elements": [
                            {
                                "type": "text",
                                "text": "Si mes souvenir de mécaflux sont bon, cela correspond à à une colonne d'eau de 7.6cm avec une variation de 3mm en une minute"
                            }
                        ]
                    }
                ]
            }
        ],
        "thread_ts": "1586200879.139600",
        "parent_user_id": "U011DLSJC9K"
    },
    {
        "client_msg_id": "a0996ae0-39db-4c1d-990d-b266bdcde615",
        "type": "message",
        "text": "pour la désinfection des plastiques, la javel efficace mais pas top au niveau dermatho, je conseille plus le glutharaldéide (stéranios ou surfanios)",
        "user": "U0111TMRPF0",
        "ts": "1586207959.146200",
        "team": "TUU48M0T1",
        "user_team": "TUU48M0T1",
        "source_team": "TUU48M0T1",
        "user_profile": {
            "avatar_hash": "ge0c28c41723",
            "image_72": "https:\/\/secure.gravatar.com\/avatar\/e0c28c417237f3fc3e728afc06a16a9c.jpg?s=72&d=https%3A%2F%2Fa.slack-edge.com%2Fdf10d%2Fimg%2Favatars%2Fava_0006-72.png",
            "first_name": "",
            "real_name": "petitmanu",
            "display_name": "petitmanu",
            "team": "TUU48M0T1",
            "name": "pelegrinma",
            "is_restricted": false,
            "is_ultra_restricted": false
        },
        "blocks": [
            {
                "type": "rich_text",
                "block_id": "Th1wx",
                "elements": [
                    {
                        "type": "rich_text_section",
                        "elements": [
                            {
                                "type": "text",
                                "text": "pour la désinfection des plastiques, la javel efficace mais pas top au niveau dermatho, je conseille plus le glutharaldéide (stéranios ou surfanios)"
                            }
                        ]
                    }
                ]
            }
        ],
        "thread_ts": "1586200879.139600",
        "parent_user_id": "U011DLSJC9K"
    },
    {
        "client_msg_id": "f99ba27d-02fd-4ef8-8c23-b9f69452dc2f",
        "type": "message",
        "text": "ma bible",
        "user": "U0111TMRPF0",
        "ts": "1586207982.146400",
        "team": "TUU48M0T1",
        "user_team": "TUU48M0T1",
        "source_team": "TUU48M0T1",
        "user_profile": {
            "avatar_hash": "ge0c28c41723",
            "image_72": "https:\/\/secure.gravatar.com\/avatar\/e0c28c417237f3fc3e728afc06a16a9c.jpg?s=72&d=https%3A%2F%2Fa.slack-edge.com%2Fdf10d%2Fimg%2Favatars%2Fava_0006-72.png",
            "first_name": "",
            "real_name": "petitmanu",
            "display_name": "petitmanu",
            "team": "TUU48M0T1",
            "name": "pelegrinma",
            "is_restricted": false,
            "is_ultra_restricted": false
        },
        "blocks": [
            {
                "type": "rich_text",
                "block_id": "7iL",
                "elements": [
                    {
                        "type": "rich_text_section",
                        "elements": [
                            {
                                "type": "text",
                                "text": "ma bible"
                            }
                        ]
                    }
                ]
            }
        ],
        "thread_ts": "1586200879.139600",
        "parent_user_id": "U011DLSJC9K"
    },
    {
        "client_msg_id": "73ceb5dc-b938-4691-82de-a15b3f7e7631",
        "type": "message",
        "text": "<https:\/\/books.google.fr\/books?id=qSk0DwAAQBAJ&amp;pg=PA445&amp;lpg=PA445&amp;dq=R%C3%A9sistance+PLA+formaldehyde&amp;source=bl&amp;ots=LYhNX8CbEg&amp;sig=ACfU3U1UF3Mw_Za4QPzbuOD0t4QTSpP5gg&amp;hl=fr&amp;sa=X&amp;ved=2ahUKEwj_q-CQhcfoAhVIUxoKHe7_Ceg4ChDoATABegQICxAB#v=onepage&amp;q&amp;f=false>",
        "user": "U0111TMRPF0",
        "ts": "1586207983.146600",
        "team": "TUU48M0T1",
        "user_team": "TUU48M0T1",
        "source_team": "TUU48M0T1",
        "user_profile": {
            "avatar_hash": "ge0c28c41723",
            "image_72": "https:\/\/secure.gravatar.com\/avatar\/e0c28c417237f3fc3e728afc06a16a9c.jpg?s=72&d=https%3A%2F%2Fa.slack-edge.com%2Fdf10d%2Fimg%2Favatars%2Fava_0006-72.png",
            "first_name": "",
            "real_name": "petitmanu",
            "display_name": "petitmanu",
            "team": "TUU48M0T1",
            "name": "pelegrinma",
            "is_restricted": false,
            "is_ultra_restricted": false
        },
        "attachments": [
            {
                "service_name": "Google Books",
                "title": "The Effect of Sterilization on Plastics and Elastomers",
                "title_link": "https:\/\/books.google.fr\/books?id=qSk0DwAAQBAJ&pg=PA445&lpg=PA445&dq=R%C3%A9sistance+PLA+formaldehyde&source=bl&ots=LYhNX8CbEg&sig=ACfU3U1UF3Mw_Za4QPzbuOD0t4QTSpP5gg&hl=fr&sa=X&ved=2ahUKEwj_q-CQhcfoAhVIUxoKHe7_Ceg4ChDoATABegQICxAB#v=onepage&q&f=false",
                "text": "The Effect of Sterilization Methods on Plastics and Elastomers, Fourth Edition brings together a wide range of essential data on the sterilization of plastics and elastomers, thus enabling engineers to make optimal material choices and design decisions. The data tables in this book enable engineers and scientists to select the right materials and sterilization method for a given product or application. The book is a unique and essential reference for anybody working with plastic materials that are likely to be exposed to sterilization methods, be it in medical device or packaging development, food packaging or other applications. Presents essential data and practical guidance for engineers and scientists working with plastics in applications that require sterile packaging and equipmentUpdated edition removes obsolete data, updates manufacturers, verifies data accuracy, and adds new plastics materials for comparisonProvides essential information and guidance for FDA submissions required for new medical devices",
                "fallback": "Google Books: The Effect of Sterilization on Plastics and Elastomers",
                "from_url": "https:\/\/books.google.fr\/books?id=qSk0DwAAQBAJ&pg=PA445&lpg=PA445&dq=R%C3%A9sistance+PLA+formaldehyde&source=bl&ots=LYhNX8CbEg&sig=ACfU3U1UF3Mw_Za4QPzbuOD0t4QTSpP5gg&hl=fr&sa=X&ved=2ahUKEwj_q-CQhcfoAhVIUxoKHe7_Ceg4ChDoATABegQICxAB#v=onepage&q&f=false",
                "thumb_url": "https:\/\/books.google.fr\/books\/content?id=qSk0DwAAQBAJ&printsec=frontcover&img=1&zoom=1&edge=curl&imgtk=AFLRE71jaJZ88D3smz2ZI5v82OaGspFvq-b-fBeZevy184_CYXPsfioaF1w-A93t2nY_DUNG5o5-CfO6vXNeCAAcFMaIXVcp96XeXaYJr45cF8vUqHtPkXT1OGRuJ09TLBfDEjON-O9z",
                "thumb_width": 128,
                "thumb_height": 171,
                "service_icon": "https:\/\/books.google.fr\/favicon.ico",
                "id": 1,
                "original_url": "https:\/\/books.google.fr\/books?id=qSk0DwAAQBAJ&amp;pg=PA445&amp;lpg=PA445&amp;dq=R%C3%A9sistance+PLA+formaldehyde&amp;source=bl&amp;ots=LYhNX8CbEg&amp;sig=ACfU3U1UF3Mw_Za4QPzbuOD0t4QTSpP5gg&amp;hl=fr&amp;sa=X&amp;ved=2ahUKEwj_q-CQhcfoAhVIUxoKHe7_Ceg4ChDoATABegQICxAB#v=onepage&amp;q&amp;f=false"
            }
        ],
        "blocks": [
            {
                "type": "rich_text",
                "block_id": "5y0ou",
                "elements": [
                    {
                        "type": "rich_text_section",
                        "elements": [
                            {
                                "type": "link",
                                "url": "https:\/\/books.google.fr\/books?id=qSk0DwAAQBAJ&pg=PA445&lpg=PA445&dq=R%C3%A9sistance+PLA+formaldehyde&source=bl&ots=LYhNX8CbEg&sig=ACfU3U1UF3Mw_Za4QPzbuOD0t4QTSpP5gg&hl=fr&sa=X&ved=2ahUKEwj_q-CQhcfoAhVIUxoKHe7_Ceg4ChDoATABegQICxAB#v=onepage&q&f=false"
                            }
                        ]
                    }
                ]
            }
        ],
        "thread_ts": "1586200879.139600",
        "parent_user_id": "U011DLSJC9K"
    },
    {
        "client_msg_id": "0493d520-4f4a-4258-814d-86ce7a944c6b",
        "type": "message",
        "text": "par contre si tu es ok viens discuter en mp,",
        "user": "U0111TMRPF0",
        "ts": "1586209920.146900",
        "team": "TUU48M0T1",
        "user_team": "TUU48M0T1",
        "source_team": "TUU48M0T1",
        "user_profile": {
            "avatar_hash": "ge0c28c41723",
            "image_72": "https:\/\/secure.gravatar.com\/avatar\/e0c28c417237f3fc3e728afc06a16a9c.jpg?s=72&d=https%3A%2F%2Fa.slack-edge.com%2Fdf10d%2Fimg%2Favatars%2Fava_0006-72.png",
            "first_name": "",
            "real_name": "petitmanu",
            "display_name": "petitmanu",
            "team": "TUU48M0T1",
            "name": "pelegrinma",
            "is_restricted": false,
            "is_ultra_restricted": false
        },
        "blocks": [
            {
                "type": "rich_text",
                "block_id": "K2k",
                "elements": [
                    {
                        "type": "rich_text_section",
                        "elements": [
                            {
                                "type": "text",
                                "text": "par contre si tu es ok viens discuter en mp,"
                            }
                        ]
                    }
                ]
            }
        ],
        "thread_ts": "1586200879.139600",
        "parent_user_id": "U011DLSJC9K"
    },
    {
        "type": "message",
        "text": "",
        "files": [
            {
                "id": "F011FQP75BP",
                "created": 1586226820,
                "timestamp": 1586226820,
                "name": "exploded_view.avi",
                "title": "exploded_view.avi",
                "mimetype": "application\/octet-stream",
                "filetype": "binary",
                "pretty_type": "Binary",
                "user": "UVADMLUB0",
                "editable": false,
                "size": 16020460,
                "mode": "hosted",
                "is_external": false,
                "external_type": "",
                "is_public": true,
                "public_url_shared": false,
                "display_as_bot": false,
                "username": "",
                "url_private": "https:\/\/files.slack.com\/files-pri\/TUU48M0T1-F011FQP75BP\/exploded_view.avi?t=xoxe-980144714919-1106606678066-1105227127893-6f722bb664235052954ad46852628b64",
                "url_private_download": "https:\/\/files.slack.com\/files-pri\/TUU48M0T1-F011FQP75BP\/download\/exploded_view.avi?t=xoxe-980144714919-1106606678066-1105227127893-6f722bb664235052954ad46852628b64",
                "thumb_64": "https:\/\/files.slack.com\/files-tmb\/TUU48M0T1-F011FQP75BP-2f23c83810\/exploded_view_64.png?t=xoxe-980144714919-1106606678066-1105227127893-6f722bb664235052954ad46852628b64",
                "thumb_80": "https:\/\/files.slack.com\/files-tmb\/TUU48M0T1-F011FQP75BP-2f23c83810\/exploded_view_80.png?t=xoxe-980144714919-1106606678066-1105227127893-6f722bb664235052954ad46852628b64",
                "thumb_360": "https:\/\/files.slack.com\/files-tmb\/TUU48M0T1-F011FQP75BP-2f23c83810\/exploded_view_360.png?t=xoxe-980144714919-1106606678066-1105227127893-6f722bb664235052954ad46852628b64",
                "thumb_360_w": 360,
                "thumb_360_h": 203,
                "thumb_480": "https:\/\/files.slack.com\/files-tmb\/TUU48M0T1-F011FQP75BP-2f23c83810\/exploded_view_480.png?t=xoxe-980144714919-1106606678066-1105227127893-6f722bb664235052954ad46852628b64",
                "thumb_480_w": 480,
                "thumb_480_h": 270,
                "thumb_160": "https:\/\/files.slack.com\/files-tmb\/TUU48M0T1-F011FQP75BP-2f23c83810\/exploded_view_160.png?t=xoxe-980144714919-1106606678066-1105227127893-6f722bb664235052954ad46852628b64",
                "thumb_720": "https:\/\/files.slack.com\/files-tmb\/TUU48M0T1-F011FQP75BP-2f23c83810\/exploded_view_720.png?t=xoxe-980144714919-1106606678066-1105227127893-6f722bb664235052954ad46852628b64",
                "thumb_720_w": 720,
                "thumb_720_h": 405,
                "thumb_800": "https:\/\/files.slack.com\/files-tmb\/TUU48M0T1-F011FQP75BP-2f23c83810\/exploded_view_800.png?t=xoxe-980144714919-1106606678066-1105227127893-6f722bb664235052954ad46852628b64",
                "thumb_800_w": 800,
                "thumb_800_h": 450,
                "thumb_960": "https:\/\/files.slack.com\/files-tmb\/TUU48M0T1-F011FQP75BP-2f23c83810\/exploded_view_960.png?t=xoxe-980144714919-1106606678066-1105227127893-6f722bb664235052954ad46852628b64",
                "thumb_960_w": 960,
                "thumb_960_h": 540,
                "thumb_1024": "https:\/\/files.slack.com\/files-tmb\/TUU48M0T1-F011FQP75BP-2f23c83810\/exploded_view_1024.png?t=xoxe-980144714919-1106606678066-1105227127893-6f722bb664235052954ad46852628b64",
                "thumb_1024_w": 1024,
                "thumb_1024_h": 576,
                "image_exif_rotation": 1,
                "original_w": 1280,
                "original_h": 720,
                "permalink": "https:\/\/open-covid19.slack.com\/files\/UVADMLUB0\/F011FQP75BP\/exploded_view.avi",
                "permalink_public": "https:\/\/slack-files.com\/TUU48M0T1-F011FQP75BP-83246d2518",
                "is_starred": false,
                "has_rich_preview": false
            }
        ],
        "upload": true,
        "user": "UVADMLUB0",
        "display_as_bot": false,
        "ts": "1586226837.147300",
        "client_msg_id": "5ec10958-388f-472d-9818-84ef44f01724"
    },
    {
        "type": "message",
        "text": "",
        "files": [
            {
                "id": "F011RRXUQBS",
                "created": 1586226841,
                "timestamp": 1586226841,
                "name": "Isometric view.PNG",
                "title": "Isometric view.PNG",
                "mimetype": "image\/png",
                "filetype": "png",
                "pretty_type": "PNG",
                "user": "UVADMLUB0",
                "editable": false,
                "size": 259813,
                "mode": "hosted",
                "is_external": false,
                "external_type": "",
                "is_public": true,
                "public_url_shared": true,
                "display_as_bot": false,
                "username": "",
                "url_private": "https:\/\/files.slack.com\/files-pri\/TUU48M0T1-F011RRXUQBS\/isometric_view.png?t=xoxe-980144714919-1106606678066-1105227127893-6f722bb664235052954ad46852628b64",
                "url_private_download": "https:\/\/files.slack.com\/files-pri\/TUU48M0T1-F011RRXUQBS\/download\/isometric_view.png?t=xoxe-980144714919-1106606678066-1105227127893-6f722bb664235052954ad46852628b64",
                "thumb_64": "https:\/\/files.slack.com\/files-tmb\/TUU48M0T1-F011RRXUQBS-5184a18b82\/isometric_view_64.png?t=xoxe-980144714919-1106606678066-1105227127893-6f722bb664235052954ad46852628b64",
                "thumb_80": "https:\/\/files.slack.com\/files-tmb\/TUU48M0T1-F011RRXUQBS-5184a18b82\/isometric_view_80.png?t=xoxe-980144714919-1106606678066-1105227127893-6f722bb664235052954ad46852628b64",
                "thumb_360": "https:\/\/files.slack.com\/files-tmb\/TUU48M0T1-F011RRXUQBS-5184a18b82\/isometric_view_360.png?t=xoxe-980144714919-1106606678066-1105227127893-6f722bb664235052954ad46852628b64",
                "thumb_360_w": 360,
                "thumb_360_h": 343,
                "thumb_480": "https:\/\/files.slack.com\/files-tmb\/TUU48M0T1-F011RRXUQBS-5184a18b82\/isometric_view_480.png?t=xoxe-980144714919-1106606678066-1105227127893-6f722bb664235052954ad46852628b64",
                "thumb_480_w": 480,
                "thumb_480_h": 457,
                "thumb_160": "https:\/\/files.slack.com\/files-tmb\/TUU48M0T1-F011RRXUQBS-5184a18b82\/isometric_view_160.png?t=xoxe-980144714919-1106606678066-1105227127893-6f722bb664235052954ad46852628b64",
                "thumb_720": "https:\/\/files.slack.com\/files-tmb\/TUU48M0T1-F011RRXUQBS-5184a18b82\/isometric_view_720.png?t=xoxe-980144714919-1106606678066-1105227127893-6f722bb664235052954ad46852628b64",
                "thumb_720_w": 720,
                "thumb_720_h": 686,
                "image_exif_rotation": 1,
                "original_w": 735,
                "original_h": 700,
                "thumb_tiny": "AwAtADDTpGcLjJ61V1B2SNcE4J5qss5IAJyB69qANSopJwjYAye9RLdqIwMfN0qHOec1MnbYuEU9y+jB1DDoaWqtvKFbaTwatU07oUlZlLU\/9Un1rP7\/AI1p38TyxDYM4PNZhGDg8UyRyue\/NSq\/oeKr9qcnX8KVh3sWlAK5ByR1q1ayFsoecdKqxROygjGD3Jq7BEIweQWPXFSlqU2rEtQzW0cw+YYb1FTUVZBkz2kkPONy+oqFev4VuVXks43bI+U98UAR28bBYyBkEVbAA6ChFCIFXoOKWgD\/2Q==",
                "permalink": "https:\/\/open-covid19.slack.com\/files\/UVADMLUB0\/F011RRXUQBS\/isometric_view.png",
                "permalink_public": "https:\/\/slack-files.com\/TUU48M0T1-F011RRXUQBS-65151b4ca8",
                "is_starred": false,
                "has_rich_preview": false
            },
            {
                "id": "F0118KT6X7U",
                "created": 1586226842,
                "timestamp": 1586226842,
                "name": "Isometric cutout view.PNG",
                "title": "Isometric cutout view.PNG",
                "mimetype": "image\/png",
                "filetype": "png",
                "pretty_type": "PNG",
                "user": "UVADMLUB0",
                "editable": false,
                "size": 214061,
                "mode": "hosted",
                "is_external": false,
                "external_type": "",
                "is_public": true,
                "public_url_shared": false,
                "display_as_bot": false,
                "username": "",
                "url_private": "https:\/\/files.slack.com\/files-pri\/TUU48M0T1-F0118KT6X7U\/isometric_cutout_view.png?t=xoxe-980144714919-1106606678066-1105227127893-6f722bb664235052954ad46852628b64",
                "url_private_download": "https:\/\/files.slack.com\/files-pri\/TUU48M0T1-F0118KT6X7U\/download\/isometric_cutout_view.png?t=xoxe-980144714919-1106606678066-1105227127893-6f722bb664235052954ad46852628b64",
                "thumb_64": "https:\/\/files.slack.com\/files-tmb\/TUU48M0T1-F0118KT6X7U-5f331f947d\/isometric_cutout_view_64.png?t=xoxe-980144714919-1106606678066-1105227127893-6f722bb664235052954ad46852628b64",
                "thumb_80": "https:\/\/files.slack.com\/files-tmb\/TUU48M0T1-F0118KT6X7U-5f331f947d\/isometric_cutout_view_80.png?t=xoxe-980144714919-1106606678066-1105227127893-6f722bb664235052954ad46852628b64",
                "thumb_360": "https:\/\/files.slack.com\/files-tmb\/TUU48M0T1-F0118KT6X7U-5f331f947d\/isometric_cutout_view_360.png?t=xoxe-980144714919-1106606678066-1105227127893-6f722bb664235052954ad46852628b64",
                "thumb_360_w": 346,
                "thumb_360_h": 360,
                "thumb_480": "https:\/\/files.slack.com\/files-tmb\/TUU48M0T1-F0118KT6X7U-5f331f947d\/isometric_cutout_view_480.png?t=xoxe-980144714919-1106606678066-1105227127893-6f722bb664235052954ad46852628b64",
                "thumb_480_w": 462,
                "thumb_480_h": 480,
                "thumb_160": "https:\/\/files.slack.com\/files-tmb\/TUU48M0T1-F0118KT6X7U-5f331f947d\/isometric_cutout_view_160.png?t=xoxe-980144714919-1106606678066-1105227127893-6f722bb664235052954ad46852628b64",
                "image_exif_rotation": 1,
                "original_w": 634,
                "original_h": 659,
                "thumb_tiny": "AwAwAC7TopkzmOJmAyRVJLx8kkhge3pQBfBBzg9KWqkMo35B475qxJIEXOeewoAbLOsfYk+1Sg5AOMVnbybiMY3fNk1o0k7lSViK6\/493rGBI6Gtm6\/493rGHSmSSrJ69qlVmPJzVYc5qdOBjOaTGty9ZqBGX7setWKqWUnBjPbkVboWwPcjnQyQsq9TWO8bRnDDFblNkjSRcOM0xGIO9WEjLAYBqWaxZTmLkHtVm3gMcYD9fSgCBLdmwRx71dUYUAnOB1paKSVht3P\/2Q==",
                "permalink": "https:\/\/open-covid19.slack.com\/files\/UVADMLUB0\/F0118KT6X7U\/isometric_cutout_view.png",
                "permalink_public": "https:\/\/slack-files.com\/TUU48M0T1-F0118KT6X7U-9a2413bdb4",
                "is_starred": false,
                "has_rich_preview": false
            },
            {
                "id": "F011FQPE5LM",
                "created": 1586226842,
                "timestamp": 1586226842,
                "name": "Cutout view.PNG",
                "title": "Cutout view.PNG",
                "mimetype": "image\/png",
                "filetype": "png",
                "pretty_type": "PNG",
                "user": "UVADMLUB0",
                "editable": false,
                "size": 234197,
                "mode": "hosted",
                "is_external": false,
                "external_type": "",
                "is_public": true,
                "public_url_shared": false,
                "display_as_bot": false,
                "username": "",
                "url_private": "https:\/\/files.slack.com\/files-pri\/TUU48M0T1-F011FQPE5LM\/cutout_view.png?t=xoxe-980144714919-1106606678066-1105227127893-6f722bb664235052954ad46852628b64",
                "url_private_download": "https:\/\/files.slack.com\/files-pri\/TUU48M0T1-F011FQPE5LM\/download\/cutout_view.png?t=xoxe-980144714919-1106606678066-1105227127893-6f722bb664235052954ad46852628b64",
                "thumb_64": "https:\/\/files.slack.com\/files-tmb\/TUU48M0T1-F011FQPE5LM-adbc4d31dc\/cutout_view_64.png?t=xoxe-980144714919-1106606678066-1105227127893-6f722bb664235052954ad46852628b64",
                "thumb_80": "https:\/\/files.slack.com\/files-tmb\/TUU48M0T1-F011FQPE5LM-adbc4d31dc\/cutout_view_80.png?t=xoxe-980144714919-1106606678066-1105227127893-6f722bb664235052954ad46852628b64",
                "thumb_360": "https:\/\/files.slack.com\/files-tmb\/TUU48M0T1-F011FQPE5LM-adbc4d31dc\/cutout_view_360.png?t=xoxe-980144714919-1106606678066-1105227127893-6f722bb664235052954ad46852628b64",
                "thumb_360_w": 336,
                "thumb_360_h": 360,
                "thumb_480": "https:\/\/files.slack.com\/files-tmb\/TUU48M0T1-F011FQPE5LM-adbc4d31dc\/cutout_view_480.png?t=xoxe-980144714919-1106606678066-1105227127893-6f722bb664235052954ad46852628b64",
                "thumb_480_w": 449,
                "thumb_480_h": 480,
                "thumb_160": "https:\/\/files.slack.com\/files-tmb\/TUU48M0T1-F011FQPE5LM-adbc4d31dc\/cutout_view_160.png?t=xoxe-980144714919-1106606678066-1105227127893-6f722bb664235052954ad46852628b64",
                "thumb_720": "https:\/\/files.slack.com\/files-tmb\/TUU48M0T1-F011FQPE5LM-adbc4d31dc\/cutout_view_720.png?t=xoxe-980144714919-1106606678066-1105227127893-6f722bb664235052954ad46852628b64",
                "thumb_720_w": 673,
                "thumb_720_h": 720,
                "image_exif_rotation": 1,
                "original_w": 741,
                "original_h": 793,
                "thumb_tiny": "AwAwACzToqO4ZkjyvXNNt3ZlJc5INAE1RTzCJM\/xHoKdJIEGSeKzZ5GlYsfwpN2Glc0LZ2eIFjk5qWq9m26M\/nVihbA1ZkN1\/qemeRVJpthK7R69au3f+p6Z5FUxAHycqPbNMRGZmY7cYBoI4qQ2+3LZBx700kAVnI0hsOtpNh+nX6VpA5GRWRGCXLdq04DmFc1UWKS6jbvmHpnkVVVeM8DntVu4QvFgDPIpLeParBl796ZBUZTgntUYAOQRzWk8atgbRjPNQSWmeUNJplJ2IFQsQo6mtBVCqFHQCoreIoMv96pqIqwSlc\/\/2Q==",
                "permalink": "https:\/\/open-covid19.slack.com\/files\/UVADMLUB0\/F011FQPE5LM\/cutout_view.png",
                "permalink_public": "https:\/\/slack-files.com\/TUU48M0T1-F011FQPE5LM-26b1ad3fd2",
                "is_starred": false,
                "has_rich_preview": false
            }
        ],
        "upload": true,
        "user": "UVADMLUB0",
        "ts": "1586226847.147600",
        "client_msg_id": "24ccabe1-8279-4649-ac35-c52886439b1c"
    },
    {
        "client_msg_id": "95927ac3-4628-46ee-a7d2-7c233554b1eb",
        "type": "message",
        "text": "This is the mask design we've developed and are making molds for to produce.  Original concepts were borrowed from Che-Wai Wang of Helpful Engineering and modified by <@U0109B6RAJ0> of our lab.",
        "user": "UVADMLUB0",
        "ts": "1586226909.149600",
        "team": "TUU48M0T1",
        "user_team": "TUU48M0T1",
        "source_team": "TUU48M0T1",
        "user_profile": {
            "avatar_hash": "14179705705a",
            "image_72": "https:\/\/avatars.slack-edge.com\/2020-03-11\/981468022482_14179705705a94b3db16_72.jpg",
            "first_name": "Bill",
            "real_name": "Bill Slavin",
            "display_name": "Bill Slavin- Executive Director, Indie Lab",
            "team": "TUU48M0T1",
            "name": "bill",
            "is_restricted": false,
            "is_ultra_restricted": false
        },
        "edited": {
            "user": "UVADMLUB0",
            "ts": "1586226978.000000"
        },
        "blocks": [
            {
                "type": "rich_text",
                "block_id": "D6lH6",
                "elements": [
                    {
                        "type": "rich_text_section",
                        "elements": [
                            {
                                "type": "text",
                                "text": "This is the mask design we've developed and are making molds for to produce.  Original concepts were borrowed from Che-Wai Wang of Helpful Engineering and modified by "
                            },
                            {
                                "type": "user",
                                "user_id": "U0109B6RAJ0"
                            },
                            {
                                "type": "text",
                                "text": " of our lab."
                            }
                        ]
                    }
                ]
            }
        ]
    },
    {
        "type": "message",
        "text": "",
        "files": [
            {
                "id": "F011JQMLLMA",
                "created": 1586227051,
                "timestamp": 1586227051,
                "name": "STL Files.zip",
                "title": "STL Files.zip",
                "mimetype": "application\/zip",
                "filetype": "zip",
                "pretty_type": "Zip",
                "user": "UVADMLUB0",
                "editable": false,
                "size": 2424812,
                "mode": "hosted",
                "is_external": false,
                "external_type": "",
                "is_public": true,
                "public_url_shared": false,
                "display_as_bot": false,
                "username": "",
                "url_private": "https:\/\/files.slack.com\/files-pri\/TUU48M0T1-F011JQMLLMA\/stl_files.zip?t=xoxe-980144714919-1106606678066-1105227127893-6f722bb664235052954ad46852628b64",
                "url_private_download": "https:\/\/files.slack.com\/files-pri\/TUU48M0T1-F011JQMLLMA\/download\/stl_files.zip?t=xoxe-980144714919-1106606678066-1105227127893-6f722bb664235052954ad46852628b64",
                "permalink": "https:\/\/open-covid19.slack.com\/files\/UVADMLUB0\/F011JQMLLMA\/stl_files.zip",
                "permalink_public": "https:\/\/slack-files.com\/TUU48M0T1-F011JQMLLMA-4f5b4d3d23",
                "is_starred": false,
                "has_rich_preview": false
            }
        ],
        "upload": true,
        "user": "UVADMLUB0",
        "display_as_bot": false,
        "ts": "1586227055.150000",
        "client_msg_id": "92782e04-5a0c-412f-a043-0cf4d7351c74",
        "reactions": [
            {
                "name": "+1",
                "users": [
                    "U011DLSJC9K"
                ],
                "count": 1
            }
        ]
    }
]