[
    {
        "client_msg_id": "0FDF9706-8BD9-4149-B383-444C42854062",
        "type": "message",
        "text": "Bonjour Manu, je ne sais pas aujourd’hui si le masque respect toutes les exigences de l’EN402 .\nPar contre le masque décathlon a évidemment subi une panoplie de test dont un extrait est visible ici\n\n<https:\/\/www.subea.fr\/blog\/normes-et-tests-menes-sur-le-masque-easybreath-tp_6076|https:\/\/www.subea.fr\/blog\/normes-et-tests-menes-sur-le-masque-easybreath-tp_6076>\n\nC’est une des raisons pour laquelle je suis partie sur ce type de masque qui a déjà bénéficié d’étude et développement qui serait trop long à effectuer ce jour en partant de 0.\n\nOui on peut mp sans problème ",
        "user": "U011DLSJC9K",
        "ts": "1586244508.155000",
        "team": "TUU48M0T1",
        "user_team": "TUU48M0T1",
        "source_team": "TUU48M0T1",
        "user_profile": {
            "avatar_hash": "g8078045116f",
            "image_72": "https:\/\/secure.gravatar.com\/avatar\/8078045116f26ef159c59327dd713e4f.jpg?s=72&d=https%3A%2F%2Fa.slack-edge.com%2Fdf10d%2Fimg%2Favatars%2Fava_0004-72.png",
            "first_name": "Jerome",
            "real_name": "Jerome",
            "display_name": "",
            "team": "TUU48M0T1",
            "name": "bontemps.j",
            "is_restricted": false,
            "is_ultra_restricted": false
        },
        "attachments": [
            {
                "service_name": "Subea",
                "title": "Normes et tests menés sur le masque Easybreath",
                "title_link": "https:\/\/www.subea.fr\/blog\/normes-et-tests-menes-sur-le-masque-easybreath-tp_6076",
                "text": "L’Easybreath est le premier masque intégral de snorkeling pour voir et respirer dans l’eau aussi facilement que sur terre. Après vous avoir partagé les coulisses de sa conception et de son industrialisation, voici un zoom sur les différents tests menés sur notre masque Easybreath, lui garantissant un niveau de qualité et de sécurité optimal.",
                "fallback": "Subea: Normes et tests menés sur le masque Easybreath",
                "thumb_url": "https:\/\/contents.mediadecathlon.com\/s689525\/640x0\/17cr7\/tests-easybreath-inpp-marseille-normes-certifications-tb.jpg?k=e741119e5c833f62eda85ab81298defb",
                "ts": 1532681020,
                "from_url": "https:\/\/www.subea.fr\/blog\/normes-et-tests-menes-sur-le-masque-easybreath-tp_6076",
                "thumb_width": 640,
                "thumb_height": 263,
                "service_icon": "https:\/\/www.subea.fr\/sites\/subea\/themes\/subea\/favicon\/apple-touch-icon.png",
                "id": 1,
                "original_url": "https:\/\/www.subea.fr\/blog\/normes-et-tests-menes-sur-le-masque-easybreath-tp_6076"
            }
        ],
        "blocks": [
            {
                "type": "rich_text",
                "block_id": "yJe",
                "elements": [
                    {
                        "type": "rich_text_section",
                        "elements": [
                            {
                                "type": "text",
                                "text": "Bonjour Manu, je ne sais pas aujourd’hui si le masque respect toutes les exigences de l’EN402 .\nPar contre le masque décathlon a évidemment subi une panoplie de test dont un extrait est visible ici\n\n"
                            },
                            {
                                "type": "link",
                                "url": "https:\/\/www.subea.fr\/blog\/normes-et-tests-menes-sur-le-masque-easybreath-tp_6076",
                                "text": "https:\/\/www.subea.fr\/blog\/normes-et-tests-menes-sur-le-masque-easybreath-tp_6076"
                            },
                            {
                                "type": "text",
                                "text": "\n"
                            },
                            {
                                "type": "text",
                                "text": "\n"
                            },
                            {
                                "type": "text",
                                "text": "C’est une des raisons pour laquelle je suis partie sur ce type de masque qui a déjà bénéficié d’étude et développement qui serait trop long à effectuer ce jour en partant de 0.\n"
                            },
                            {
                                "type": "text",
                                "text": "\n"
                            },
                            {
                                "type": "text",
                                "text": "Oui on peut mp sans problème "
                            }
                        ]
                    }
                ]
            }
        ],
        "thread_ts": "1586200879.139600",
        "parent_user_id": "U011DLSJC9K"
    },
    {
        "client_msg_id": "2BF6229C-30D8-490E-9FE6-EBEDD03F0398",
        "type": "message",
        "text": "Looks great! Thanks <@UVADMLUB0> could you add it to the list of designs? ",
        "user": "UV02WET96",
        "ts": "1586252470.157200",
        "team": "TUU48M0T1",
        "user_team": "TUU48M0T1",
        "source_team": "TUU48M0T1",
        "user_profile": {
            "avatar_hash": "a99c74a194f8",
            "image_72": "https:\/\/avatars.slack-edge.com\/2020-03-07\/975708504851_a99c74a194f86715ca7d_72.png",
            "first_name": "Thomas",
            "real_name": "Thomas Landrain",
            "display_name": "Thomas Landrain - JOGL CoFounder \/ CEO",
            "team": "TUU48M0T1",
            "name": "thomas",
            "is_restricted": false,
            "is_ultra_restricted": false
        },
        "blocks": [
            {
                "type": "rich_text",
                "block_id": "JrLu",
                "elements": [
                    {
                        "type": "rich_text_section",
                        "elements": [
                            {
                                "type": "text",
                                "text": "Looks great! Thanks "
                            },
                            {
                                "type": "user",
                                "user_id": "UVADMLUB0"
                            },
                            {
                                "type": "text",
                                "text": " could you add it to the list of designs? "
                            }
                        ]
                    }
                ]
            }
        ]
    },
    {
        "client_msg_id": "D4EBE321-1CB3-442E-89A7-C5803E175F5A",
        "type": "message",
        "text": "Here are the results of the tests made on different textile associations by the DGA (Ministry of Defense)",
        "user": "U0106NJNM17",
        "ts": "1586297038.160100",
        "team": "TUU48M0T1",
        "user_team": "TUU48M0T1",
        "source_team": "TUU48M0T1",
        "user_profile": {
            "avatar_hash": "gc09b413a2fb",
            "image_72": "https:\/\/secure.gravatar.com\/avatar\/c09b413a2fb05b3c1097e14a64b9092c.jpg?s=72&d=https%3A%2F%2Fa.slack-edge.com%2Fdf10d%2Fimg%2Favatars%2Fava_0000-72.png",
            "first_name": "",
            "real_name": "Guillaume Tassin",
            "display_name": "",
            "team": "TUU48M0T1",
            "name": "guillaume.tassin",
            "is_restricted": false,
            "is_ultra_restricted": false
        },
        "blocks": [
            {
                "type": "rich_text",
                "block_id": "+ql",
                "elements": [
                    {
                        "type": "rich_text_section",
                        "elements": [
                            {
                                "type": "text",
                                "text": "Here are the results of the tests made on different textile associations by the DGA (Ministry of Defense)"
                            }
                        ]
                    }
                ]
            }
        ]
    },
    {
        "type": "message",
        "text": "",
        "files": [
            {
                "id": "F011KG2J23T",
                "created": 1586296938,
                "timestamp": 1586296938,
                "name": "BASE-DE-DONNEES-MATIERES-SUR-RESULTATS-ANTI-PROJECTIONS-1eravril2020.pdf",
                "title": "BASE-DE-DONNEES-MATIERES-SUR-RESULTATS-ANTI-PROJECTIONS-1eravril2020",
                "mimetype": "application\/pdf",
                "filetype": "pdf",
                "pretty_type": "PDF",
                "user": "U0106NJNM17",
                "editable": false,
                "size": 126300,
                "mode": "hosted",
                "is_external": false,
                "external_type": "",
                "is_public": true,
                "public_url_shared": false,
                "display_as_bot": false,
                "username": "",
                "url_private": "https:\/\/files.slack.com\/files-pri\/TUU48M0T1-F011KG2J23T\/base-de-donnees-matieres-sur-resultats-anti-projections-1eravril2020.pdf?t=xoxe-980144714919-1106606678066-1105227127893-6f722bb664235052954ad46852628b64",
                "url_private_download": "https:\/\/files.slack.com\/files-pri\/TUU48M0T1-F011KG2J23T\/download\/base-de-donnees-matieres-sur-resultats-anti-projections-1eravril2020.pdf?t=xoxe-980144714919-1106606678066-1105227127893-6f722bb664235052954ad46852628b64",
                "thumb_pdf": "https:\/\/files.slack.com\/files-tmb\/TUU48M0T1-F011KG2J23T-01f0187b96\/base-de-donnees-matieres-sur-resultats-anti-projections-1eravril2020_thumb_pdf.png?t=xoxe-980144714919-1106606678066-1105227127893-6f722bb664235052954ad46852628b64",
                "thumb_pdf_w": 909,
                "thumb_pdf_h": 1286,
                "permalink": "https:\/\/open-covid19.slack.com\/files\/U0106NJNM17\/F011KG2J23T\/base-de-donnees-matieres-sur-resultats-anti-projections-1eravril2020.pdf",
                "permalink_public": "https:\/\/slack-files.com\/TUU48M0T1-F011KG2J23T-e823c419e5",
                "is_starred": false,
                "has_rich_preview": false
            }
        ],
        "upload": false,
        "user": "U0106NJNM17",
        "display_as_bot": false,
        "ts": "1586297047.160200",
        "thread_ts": "1586297047.160200",
        "reply_count": 9,
        "reply_users_count": 4,
        "latest_reply": "1586811372.180700",
        "reply_users": [
            "U010HTBUHS9",
            "U0106NJNM17",
            "U010QDQ5GR2",
            "U010G3HSC9X"
        ],
        "replies": [
            {
                "user": "U010HTBUHS9",
                "ts": "1586299524.160400"
            },
            {
                "user": "U0106NJNM17",
                "ts": "1586362578.163100"
            },
            {
                "user": "U0106NJNM17",
                "ts": "1586419553.167100"
            },
            {
                "user": "U010QDQ5GR2",
                "ts": "1586474367.174100"
            },
            {
                "user": "U010QDQ5GR2",
                "ts": "1586474445.174300"
            },
            {
                "user": "U010QDQ5GR2",
                "ts": "1586474459.174700"
            },
            {
                "user": "U010QDQ5GR2",
                "ts": "1586474472.174900"
            },
            {
                "user": "U0106NJNM17",
                "ts": "1586542805.175700"
            },
            {
                "user": "U010G3HSC9X",
                "ts": "1586811372.180700"
            }
        ],
        "subscribed": false,
        "reactions": [
            {
                "name": "+1",
                "users": [
                    "U010Z0DUPS4",
                    "U010G3HSC9X"
                ],
                "count": 2
            },
            {
                "name": "raised_hands",
                "users": [
                    "U011LQ49GLW"
                ],
                "count": 1
            }
        ]
    },
    {
        "client_msg_id": "884b1dae-56d7-456f-9a19-3f759d31a1bd",
        "type": "message",
        "text": "A little embarassing but is it possible for someone to do a translation?",
        "user": "U010HTBUHS9",
        "ts": "1586299524.160400",
        "team": "TUU48M0T1",
        "user_team": "TUU48M0T1",
        "source_team": "TUU48M0T1",
        "user_profile": {
            "avatar_hash": "e7bdbebff0d9",
            "image_72": "https:\/\/avatars.slack-edge.com\/2020-03-22\/1017951251813_e7bdbebff0d9ad1e8f12_72.jpg",
            "first_name": "",
            "real_name": "Adam Arabian",
            "display_name": "Adam Arabian",
            "team": "TUU48M0T1",
            "name": "adam.arabian",
            "is_restricted": false,
            "is_ultra_restricted": false
        },
        "blocks": [
            {
                "type": "rich_text",
                "block_id": "PUFVT",
                "elements": [
                    {
                        "type": "rich_text_section",
                        "elements": [
                            {
                                "type": "text",
                                "text": "A little embarassing but is it possible for someone to do a translation?"
                            }
                        ]
                    }
                ]
            }
        ],
        "thread_ts": "1586297047.160200",
        "parent_user_id": "U0106NJNM17"
    }
]