[
    {
        "client_msg_id": "CF990739-0A66-49E8-8496-ADCD92273569",
        "type": "message",
        "text": "<@UV9V03C8Y> ",
        "user": "U0106NJNM17",
        "ts": "1586419553.167100",
        "team": "TUU48M0T1",
        "user_team": "TUU48M0T1",
        "source_team": "TUU48M0T1",
        "user_profile": {
            "avatar_hash": "gc09b413a2fb",
            "image_72": "https:\/\/secure.gravatar.com\/avatar\/c09b413a2fb05b3c1097e14a64b9092c.jpg?s=72&d=https%3A%2F%2Fa.slack-edge.com%2Fdf10d%2Fimg%2Favatars%2Fava_0000-72.png",
            "first_name": "",
            "real_name": "Guillaume Tassin",
            "display_name": "",
            "team": "TUU48M0T1",
            "name": "guillaume.tassin",
            "is_restricted": false,
            "is_ultra_restricted": false
        },
        "blocks": [
            {
                "type": "rich_text",
                "block_id": "gDXP",
                "elements": [
                    {
                        "type": "rich_text_section",
                        "elements": [
                            {
                                "type": "user",
                                "user_id": "UV9V03C8Y"
                            },
                            {
                                "type": "text",
                                "text": " "
                            }
                        ]
                    }
                ]
            }
        ],
        "thread_ts": "1586297047.160200",
        "parent_user_id": "U0106NJNM17"
    },
    {
        "client_msg_id": "6AB0A959-C826-42D4-A7C8-79BE1595B771",
        "type": "message",
        "text": "Bonjour Manu, j’ai effectué le test d’étanchéité du porte filtre comme on en avait parlé et je n’ai pas pu relever de variation. J’ai laissé le banc de test pendant une heure et la variation Max été de moins d’un millimètre. Certainement de l’évaporation. \nA bientôt \nJérôme ",
        "user": "U011DLSJC9K",
        "ts": "1586459365.171600",
        "team": "TUU48M0T1",
        "user_team": "TUU48M0T1",
        "source_team": "TUU48M0T1",
        "user_profile": {
            "avatar_hash": "g8078045116f",
            "image_72": "https:\/\/secure.gravatar.com\/avatar\/8078045116f26ef159c59327dd713e4f.jpg?s=72&d=https%3A%2F%2Fa.slack-edge.com%2Fdf10d%2Fimg%2Favatars%2Fava_0004-72.png",
            "first_name": "Jerome",
            "real_name": "Jerome",
            "display_name": "",
            "team": "TUU48M0T1",
            "name": "bontemps.j",
            "is_restricted": false,
            "is_ultra_restricted": false
        },
        "blocks": [
            {
                "type": "rich_text",
                "block_id": "9ahj",
                "elements": [
                    {
                        "type": "rich_text_section",
                        "elements": [
                            {
                                "type": "text",
                                "text": "Bonjour Manu, j’ai effectué le test d’étanchéité du porte filtre comme on en avait parlé et je n’ai pas pu relever de variation. J’ai laissé le banc de test pendant une heure et la variation Max été de moins d’un millimètre. Certainement de l’évaporation. \nA bientôt \nJérôme "
                            }
                        ]
                    }
                ]
            }
        ],
        "thread_ts": "1586200879.139600",
        "parent_user_id": "U011DLSJC9K"
    },
    {
        "client_msg_id": "898e01e5-c890-477e-9b6d-dee6980b2102",
        "type": "message",
        "text": "for english speakers <@U011DLSJC9K> asked:\n\nHi is there a clear plan of action with defined tasks that would allow volunteers to work on clear actionables ? (Drafts to model, electronic schematics to make, software, etc)",
        "user": "UVC9WMA7N",
        "ts": "1586463622.173300",
        "team": "TUU48M0T1",
        "user_team": "TUU48M0T1",
        "source_team": "TUU48M0T1",
        "user_profile": {
            "avatar_hash": "56d14d58ed53",
            "image_72": "https:\/\/avatars.slack-edge.com\/2020-03-13\/998337892660_56d14d58ed537e6e4654_72.png",
            "first_name": "Leo",
            "real_name": "Leo Blondel",
            "display_name": "Leo Blondel - JOGL CoFounder \/ CTO",
            "team": "TUU48M0T1",
            "name": "leo",
            "is_restricted": false,
            "is_ultra_restricted": false
        },
        "blocks": [
            {
                "type": "rich_text",
                "block_id": "zVuT8",
                "elements": [
                    {
                        "type": "rich_text_section",
                        "elements": [
                            {
                                "type": "text",
                                "text": "for english speakers "
                            },
                            {
                                "type": "user",
                                "user_id": "U011DLSJC9K"
                            },
                            {
                                "type": "text",
                                "text": " asked:\n\nHi is there a clear plan of action with defined tasks that would allow volunteers to work on clear actionables ? (Drafts to model, electronic schematics to make, software, etc)"
                            }
                        ]
                    }
                ]
            }
        ],
        "thread_ts": "1586463622.173300",
        "reply_count": 2,
        "reply_users_count": 2,
        "latest_reply": "1586471587.173900",
        "reply_users": [
            "U011DLSJC9K",
            "UVC9WMA7N"
        ],
        "replies": [
            {
                "user": "U011DLSJC9K",
                "ts": "1586465369.173700"
            },
            {
                "user": "UVC9WMA7N",
                "ts": "1586471587.173900"
            }
        ],
        "subscribed": false,
        "reactions": [
            {
                "name": "heart",
                "users": [
                    "U010G3HSC9X"
                ],
                "count": 1
            }
        ]
    },
    {
        "client_msg_id": "9CD42AFB-108F-47B1-B1BD-0FED83275550",
        "type": "message",
        "text": "Merci Léo ",
        "user": "U011DLSJC9K",
        "ts": "1586465369.173700",
        "team": "TUU48M0T1",
        "user_team": "TUU48M0T1",
        "source_team": "TUU48M0T1",
        "user_profile": {
            "avatar_hash": "g8078045116f",
            "image_72": "https:\/\/secure.gravatar.com\/avatar\/8078045116f26ef159c59327dd713e4f.jpg?s=72&d=https%3A%2F%2Fa.slack-edge.com%2Fdf10d%2Fimg%2Favatars%2Fava_0004-72.png",
            "first_name": "Jerome",
            "real_name": "Jerome",
            "display_name": "",
            "team": "TUU48M0T1",
            "name": "bontemps.j",
            "is_restricted": false,
            "is_ultra_restricted": false
        },
        "blocks": [
            {
                "type": "rich_text",
                "block_id": "SFxmy",
                "elements": [
                    {
                        "type": "rich_text_section",
                        "elements": [
                            {
                                "type": "text",
                                "text": "Merci Léo "
                            }
                        ]
                    }
                ]
            }
        ],
        "thread_ts": "1586463622.173300",
        "parent_user_id": "UVC9WMA7N"
    },
    {
        "client_msg_id": "01ce907f-5e46-4f2c-b30f-bd78c86e576b",
        "type": "message",
        "text": "J'ajoute <@UV02WET96> A la conversation qui suit ce projet plus que moi ! Je sais que les gens en etait a la validation des designs mais je ne sais pas ce qui en est ressortie",
        "user": "UVC9WMA7N",
        "ts": "1586471587.173900",
        "team": "TUU48M0T1",
        "user_team": "TUU48M0T1",
        "source_team": "TUU48M0T1",
        "user_profile": {
            "avatar_hash": "56d14d58ed53",
            "image_72": "https:\/\/avatars.slack-edge.com\/2020-03-13\/998337892660_56d14d58ed537e6e4654_72.png",
            "first_name": "Leo",
            "real_name": "Leo Blondel",
            "display_name": "Leo Blondel - JOGL CoFounder \/ CTO",
            "team": "TUU48M0T1",
            "name": "leo",
            "is_restricted": false,
            "is_ultra_restricted": false
        },
        "blocks": [
            {
                "type": "rich_text",
                "block_id": "oRp",
                "elements": [
                    {
                        "type": "rich_text_section",
                        "elements": [
                            {
                                "type": "text",
                                "text": "J'ajoute "
                            },
                            {
                                "type": "user",
                                "user_id": "UV02WET96"
                            },
                            {
                                "type": "text",
                                "text": " A la conversation qui suit ce projet plus que moi ! Je sais que les gens en etait a la validation des designs mais je ne sais pas ce qui en est ressortie"
                            }
                        ]
                    }
                ]
            }
        ],
        "thread_ts": "1586463622.173300",
        "parent_user_id": "UVC9WMA7N"
    },
    {
        "client_msg_id": "be8b2948-04d8-4ff7-9d55-b20d3b81d2ae",
        "type": "message",
        "text": "I would be great",
        "user": "U010QDQ5GR2",
        "ts": "1586474367.174100",
        "team": "TUU48M0T1",
        "user_team": "TUU48M0T1",
        "source_team": "TUU48M0T1",
        "user_profile": {
            "avatar_hash": "ge9072055c1e",
            "image_72": "https:\/\/secure.gravatar.com\/avatar\/e9072055c1e4473558296e77a6dcdcfd.jpg?s=72&d=https%3A%2F%2Fa.slack-edge.com%2Fdf10d%2Fimg%2Favatars%2Fava_0012-72.png",
            "first_name": "",
            "real_name": "emmanouiltsampalas",
            "display_name": "emmanouiltsampalas",
            "team": "TUU48M0T1",
            "name": "manolis.tsampalas",
            "is_restricted": false,
            "is_ultra_restricted": false
        },
        "blocks": [
            {
                "type": "rich_text",
                "block_id": "\/dT7Z",
                "elements": [
                    {
                        "type": "rich_text_section",
                        "elements": [
                            {
                                "type": "text",
                                "text": "I would be great"
                            }
                        ]
                    }
                ]
            }
        ],
        "thread_ts": "1586297047.160200",
        "parent_user_id": "U0106NJNM17"
    },
    {
        "type": "message",
        "text": "",
        "files": [
            {
                "id": "F011URTKQGH",
                "created": 1586474443,
                "timestamp": 1586474443,
                "name": "BASE-DE-DONNEES-MATIERES-SUR-RESULTATS-ANTI-PROJECTIONS-1eravril2020.fr.en.pdf",
                "title": "BASE-DE-DONNEES-MATIERES-SUR-RESULTATS-ANTI-PROJECTIONS-1eravril2020.fr.en.pdf",
                "mimetype": "application\/pdf",
                "filetype": "pdf",
                "pretty_type": "PDF",
                "user": "U010QDQ5GR2",
                "editable": false,
                "size": 221389,
                "mode": "hosted",
                "is_external": false,
                "external_type": "",
                "is_public": true,
                "public_url_shared": false,
                "display_as_bot": false,
                "username": "",
                "url_private": "https:\/\/files.slack.com\/files-pri\/TUU48M0T1-F011URTKQGH\/base-de-donnees-matieres-sur-resultats-anti-projections-1eravril2020.fr.en.pdf?t=xoxe-980144714919-1106606678066-1105227127893-6f722bb664235052954ad46852628b64",
                "url_private_download": "https:\/\/files.slack.com\/files-pri\/TUU48M0T1-F011URTKQGH\/download\/base-de-donnees-matieres-sur-resultats-anti-projections-1eravril2020.fr.en.pdf?t=xoxe-980144714919-1106606678066-1105227127893-6f722bb664235052954ad46852628b64",
                "thumb_pdf": "https:\/\/files.slack.com\/files-tmb\/TUU48M0T1-F011URTKQGH-5d59cacae8\/base-de-donnees-matieres-sur-resultats-anti-projections-1eravril2020.fr.en_thumb_pdf.png?t=xoxe-980144714919-1106606678066-1105227127893-6f722bb664235052954ad46852628b64",
                "thumb_pdf_w": 909,
                "thumb_pdf_h": 1286,
                "permalink": "https:\/\/open-covid19.slack.com\/files\/U010QDQ5GR2\/F011URTKQGH\/base-de-donnees-matieres-sur-resultats-anti-projections-1eravril2020.fr.en.pdf",
                "permalink_public": "https:\/\/slack-files.com\/TUU48M0T1-F011URTKQGH-720a8faa0c",
                "is_starred": false,
                "has_rich_preview": false
            }
        ],
        "upload": true,
        "user": "U010QDQ5GR2",
        "display_as_bot": false,
        "ts": "1586474445.174300",
        "client_msg_id": "8ade1d1a-a471-4279-9737-531d7d3cc655",
        "thread_ts": "1586297047.160200",
        "parent_user_id": "U0106NJNM17",
        "reactions": [
            {
                "name": "+1",
                "users": [
                    "U010G3HSC9X"
                ],
                "count": 1
            }
        ]
    },
    {
        "client_msg_id": "50844bee-bc95-439d-bd6d-03ce6adb55a3",
        "type": "message",
        "text": "for the moment i made an auto translated pdf",
        "user": "U010QDQ5GR2",
        "ts": "1586474459.174700",
        "team": "TUU48M0T1",
        "user_team": "TUU48M0T1",
        "source_team": "TUU48M0T1",
        "user_profile": {
            "avatar_hash": "ge9072055c1e",
            "image_72": "https:\/\/secure.gravatar.com\/avatar\/e9072055c1e4473558296e77a6dcdcfd.jpg?s=72&d=https%3A%2F%2Fa.slack-edge.com%2Fdf10d%2Fimg%2Favatars%2Fava_0012-72.png",
            "first_name": "",
            "real_name": "emmanouiltsampalas",
            "display_name": "emmanouiltsampalas",
            "team": "TUU48M0T1",
            "name": "manolis.tsampalas",
            "is_restricted": false,
            "is_ultra_restricted": false
        },
        "blocks": [
            {
                "type": "rich_text",
                "block_id": "+9SX=",
                "elements": [
                    {
                        "type": "rich_text_section",
                        "elements": [
                            {
                                "type": "text",
                                "text": "for the moment i made an auto translated pdf"
                            }
                        ]
                    }
                ]
            }
        ],
        "thread_ts": "1586297047.160200",
        "parent_user_id": "U0106NJNM17"
    },
    {
        "client_msg_id": "f4f8fa99-b315-4f98-b2bd-e1149f65abbd",
        "type": "message",
        "text": "havent even checked it hope it helps",
        "user": "U010QDQ5GR2",
        "ts": "1586474472.174900",
        "team": "TUU48M0T1",
        "user_team": "TUU48M0T1",
        "source_team": "TUU48M0T1",
        "user_profile": {
            "avatar_hash": "ge9072055c1e",
            "image_72": "https:\/\/secure.gravatar.com\/avatar\/e9072055c1e4473558296e77a6dcdcfd.jpg?s=72&d=https%3A%2F%2Fa.slack-edge.com%2Fdf10d%2Fimg%2Favatars%2Fava_0012-72.png",
            "first_name": "",
            "real_name": "emmanouiltsampalas",
            "display_name": "emmanouiltsampalas",
            "team": "TUU48M0T1",
            "name": "manolis.tsampalas",
            "is_restricted": false,
            "is_ultra_restricted": false
        },
        "blocks": [
            {
                "type": "rich_text",
                "block_id": "edD3g",
                "elements": [
                    {
                        "type": "rich_text_section",
                        "elements": [
                            {
                                "type": "text",
                                "text": "havent even checked it hope it helps"
                            }
                        ]
                    }
                ]
            }
        ],
        "thread_ts": "1586297047.160200",
        "parent_user_id": "U0106NJNM17",
        "reactions": [
            {
                "name": "+1",
                "users": [
                    "U0106NJNM17"
                ],
                "count": 1
            }
        ]
    }
]