[
    {
        "type": "message",
        "subtype": "channel_join",
        "ts": "1584345513.000200",
        "user": "UVC88S53R",
        "text": "<@UVC88S53R> has joined the channel"
    },
    {
        "type": "message",
        "subtype": "channel_join",
        "ts": "1584356307.000200",
        "user": "UV6870881",
        "text": "<@UV6870881> has joined the channel"
    },
    {
        "type": "message",
        "subtype": "channel_join",
        "ts": "1584358196.000400",
        "user": "U01016B7KPY",
        "text": "<@U01016B7KPY> has joined the channel"
    },
    {
        "type": "message",
        "subtype": "channel_join",
        "ts": "1584359267.000600",
        "user": "UV4EY2049",
        "text": "<@UV4EY2049> has joined the channel"
    },
    {
        "client_msg_id": "1de644b9-bdfe-44f2-a064-71e5c78659b7",
        "type": "message",
        "text": "Hi, I have an idea and I wondered if I could suggest it? My son and I have been through temporary phases of being  extremely prone to viral infections. In my son's case, a series of gastro and respiratory infections was caused by iron deficiency anaemia. In my case a series of cold viral infections stopped when I raised my vitamin D levels very dramatically by sun exposure. I wondered if it would make sense to distribute home testing kits for these two deficiencies, so that COVID survivors could gives us some data about how vit D and iron levels influence survival? (Sorry if this is obvious to others. I'm not sure how much this area is known.) Thanks!",
        "user": "U01016B7KPY",
        "ts": "1584359675.005900",
        "team": "TUU48M0T1",
        "user_team": "TUU48M0T1",
        "source_team": "TUU48M0T1",
        "user_profile": {
            "avatar_hash": "9a7d8bed69ad",
            "image_72": "https:\/\/avatars.slack-edge.com\/2020-03-13\/1001221150774_9a7d8bed69ad082201d0_72.jpg",
            "first_name": "",
            "real_name": "Jennifer Deegan",
            "display_name": "Jennifer Deegan",
            "team": "TUU48M0T1",
            "name": "jendeegan",
            "is_restricted": false,
            "is_ultra_restricted": false
        },
        "edited": {
            "user": "U01016B7KPY",
            "ts": "1584360524.000000"
        },
        "blocks": [
            {
                "type": "rich_text",
                "block_id": "qRPn3",
                "elements": [
                    {
                        "type": "rich_text_section",
                        "elements": [
                            {
                                "type": "text",
                                "text": "Hi, I have an idea and I wondered if I could suggest it? My son and I have been through temporary phases of being  extremely prone to viral infections. In my son's case, a series of gastro and respiratory infections was caused by iron deficiency anaemia. In my case a series of cold viral infections stopped when I raised my vitamin D levels very dramatically by sun exposure. I wondered if it would make sense to distribute home testing kits for these two deficiencies, so that COVID survivors could gives us some data about how vit D and iron levels influence survival? (Sorry if this is obvious to others. I'm not sure how much this area is known.) Thanks!"
                            }
                        ]
                    }
                ]
            }
        ],
        "thread_ts": "1584359675.005900",
        "reply_count": 2,
        "reply_users_count": 2,
        "latest_reply": "1584360617.006300",
        "reply_users": [
            "UV6870881",
            "U01016B7KPY"
        ],
        "replies": [
            {
                "user": "UV6870881",
                "ts": "1584360332.006000"
            },
            {
                "user": "U01016B7KPY",
                "ts": "1584360617.006300"
            }
        ],
        "subscribed": false
    },
    {
        "client_msg_id": "c2d166db-7556-42d1-b2e4-f58ec3f4691b",
        "type": "message",
        "text": "I believe its standard protocol at hospitals to boost your vitamin C and D levels once you have a viral infection, not certain though, any Doctor here can correct me",
        "user": "UV6870881",
        "ts": "1584360332.006000",
        "team": "TUU48M0T1",
        "user_team": "TUU48M0T1",
        "source_team": "TUU48M0T1",
        "user_profile": {
            "avatar_hash": "gbbbbcc3accd",
            "image_72": "https:\/\/secure.gravatar.com\/avatar\/bbbbcc3accdddb02dfb1c03a4a65b994.jpg?s=72&d=https%3A%2F%2Fa.slack-edge.com%2Fdf10d%2Fimg%2Favatars%2Fava_0011-72.png",
            "first_name": "Quant",
            "real_name": "Quant",
            "display_name": "",
            "team": "TUU48M0T1",
            "name": "admin",
            "is_restricted": false,
            "is_ultra_restricted": false
        },
        "blocks": [
            {
                "type": "rich_text",
                "block_id": "LL7qE",
                "elements": [
                    {
                        "type": "rich_text_section",
                        "elements": [
                            {
                                "type": "text",
                                "text": "I believe its standard protocol at hospitals to boost your vitamin C and D levels once you have a viral infection, not certain though, any Doctor here can correct me"
                            }
                        ]
                    }
                ]
            }
        ],
        "thread_ts": "1584359675.005900",
        "parent_user_id": "U01016B7KPY"
    },
    {
        "client_msg_id": "1e047a84-7cd4-4c4c-86bf-4981e98c1290",
        "type": "message",
        "text": "That's interesting. I'm just wondering because if vit D is implicated, then that is an easy way to boost the resistance of the population, especially with summer on the way in the northern hemisphere.",
        "user": "U01016B7KPY",
        "ts": "1584360617.006300",
        "team": "TUU48M0T1",
        "user_team": "TUU48M0T1",
        "source_team": "TUU48M0T1",
        "user_profile": {
            "avatar_hash": "9a7d8bed69ad",
            "image_72": "https:\/\/avatars.slack-edge.com\/2020-03-13\/1001221150774_9a7d8bed69ad082201d0_72.jpg",
            "first_name": "",
            "real_name": "Jennifer Deegan",
            "display_name": "Jennifer Deegan",
            "team": "TUU48M0T1",
            "name": "jendeegan",
            "is_restricted": false,
            "is_ultra_restricted": false
        },
        "blocks": [
            {
                "type": "rich_text",
                "block_id": "5U5A+",
                "elements": [
                    {
                        "type": "rich_text_section",
                        "elements": [
                            {
                                "type": "text",
                                "text": "That's interesting. I'm just wondering because if vit D is implicated, then that is an easy way to boost the resistance of the population, especially with summer on the way in the northern hemisphere."
                            }
                        ]
                    }
                ]
            }
        ],
        "thread_ts": "1584359675.005900",
        "parent_user_id": "U01016B7KPY"
    },
    {
        "type": "message",
        "subtype": "channel_join",
        "ts": "1584391602.006600",
        "user": "U01067SK4ES",
        "text": "<@U01067SK4ES> has joined the channel"
    },
    {
        "type": "message",
        "subtype": "channel_join",
        "ts": "1584393785.006800",
        "user": "UV20M5HGQ",
        "text": "<@UV20M5HGQ> has joined the channel"
    },
    {
        "type": "message",
        "subtype": "channel_join",
        "ts": "1584417949.007600",
        "user": "UV76M0QQ3",
        "text": "<@UV76M0QQ3> has joined the channel"
    },
    {
        "type": "message",
        "subtype": "channel_join",
        "ts": "1584424617.007800",
        "user": "U0106VDVAQ6",
        "text": "<@U0106VDVAQ6> has joined the channel"
    },
    {
        "client_msg_id": "500e7811-e4f1-4e45-a7aa-cd64fbe7984d",
        "type": "message",
        "text": "Hi, i'm new here. I run a makerspace in Belgium. We have an emergency in our country because masks are running out in hospitals. Together with researchers from school labs we are testing reusable printed masks. I was wondering if it is OK to invite my colleague makers and set a channel for dev_masks. We are doing tests right now and are gathering data for material and cleaning.",
        "user": "U0106VDVAQ6",
        "ts": "1584424905.012600",
        "team": "TUU48M0T1",
        "user_team": "TUU48M0T1",
        "source_team": "TUU48M0T1",
        "user_profile": {
            "avatar_hash": "gcb646d37b14",
            "image_72": "https:\/\/secure.gravatar.com\/avatar\/cb646d37b14b4cc616c4ac5cf95808ed.jpg?s=72&d=https%3A%2F%2Fa.slack-edge.com%2Fdf10d%2Fimg%2Favatars%2Fava_0009-72.png",
            "first_name": "",
            "real_name": "Evita",
            "display_name": "",
            "team": "TUU48M0T1",
            "name": "evi",
            "is_restricted": false,
            "is_ultra_restricted": false
        },
        "blocks": [
            {
                "type": "rich_text",
                "block_id": "KNL",
                "elements": [
                    {
                        "type": "rich_text_section",
                        "elements": [
                            {
                                "type": "text",
                                "text": "Hi, i'm new here. I run a makerspace in Belgium. We have an emergency in our country because masks are running out in hospitals. Together with researchers from school labs we are testing reusable printed masks. I was wondering if it is OK to invite my colleague makers and set a channel for dev_masks. We are doing tests right now and are gathering data for material and cleaning."
                            }
                        ]
                    }
                ]
            }
        ],
        "thread_ts": "1584424905.012600",
        "reply_count": 4,
        "reply_users_count": 3,
        "latest_reply": "1584468987.014400",
        "reply_users": [
            "UV0QTJCMT",
            "U0106VDVAQ6",
            "UV6870881"
        ],
        "replies": [
            {
                "user": "UV0QTJCMT",
                "ts": "1584425100.012800"
            },
            {
                "user": "UV0QTJCMT",
                "ts": "1584425111.013000"
            },
            {
                "user": "U0106VDVAQ6",
                "ts": "1584425324.013200"
            },
            {
                "user": "UV6870881",
                "ts": "1584468987.014400"
            }
        ],
        "subscribed": false,
        "reactions": [
            {
                "name": "+1",
                "users": [
                    "UV0QTJCMT",
                    "UV6870881"
                ],
                "count": 2
            }
        ]
    },
    {
        "client_msg_id": "e98a2a6a-029b-4b58-8686-808cd185b050",
        "type": "message",
        "text": "<@U0106VDVAQ6> that'd be amazing and an awesome idea!! if you could name it # proj-mask-team that'd be great! (and then have any additionally channels for your group be proj-mask-xx)",
        "user": "UV0QTJCMT",
        "ts": "1584425100.012800",
        "team": "TUU48M0T1",
        "user_team": "TUU48M0T1",
        "source_team": "TUU48M0T1",
        "user_profile": {
            "avatar_hash": "06a6ae8f69d1",
            "image_72": "https:\/\/avatars.slack-edge.com\/2020-04-13\/1060635499315_06a6ae8f69d18f1ad464_72.png",
            "first_name": "Katherine",
            "real_name": "Katherine Holo",
            "display_name": "Kat Holo - Co-Organizer of OpenCOVID19",
            "team": "TUU48M0T1",
            "name": "katherineh245",
            "is_restricted": false,
            "is_ultra_restricted": false
        },
        "blocks": [
            {
                "type": "rich_text",
                "block_id": "6z=",
                "elements": [
                    {
                        "type": "rich_text_section",
                        "elements": [
                            {
                                "type": "user",
                                "user_id": "U0106VDVAQ6"
                            },
                            {
                                "type": "text",
                                "text": " that'd be amazing and an awesome idea!! if you could name it # proj-mask-team that'd be great! (and then have any additionally channels for your group be proj-mask-xx)"
                            }
                        ]
                    }
                ]
            }
        ],
        "thread_ts": "1584424905.012600",
        "parent_user_id": "U0106VDVAQ6"
    },
    {
        "client_msg_id": "8f5ab79a-d4f6-446c-8d5f-89b28757a35f",
        "type": "message",
        "text": "and feel free to have them join the slack!",
        "user": "UV0QTJCMT",
        "ts": "1584425111.013000",
        "team": "TUU48M0T1",
        "user_team": "TUU48M0T1",
        "source_team": "TUU48M0T1",
        "user_profile": {
            "avatar_hash": "06a6ae8f69d1",
            "image_72": "https:\/\/avatars.slack-edge.com\/2020-04-13\/1060635499315_06a6ae8f69d18f1ad464_72.png",
            "first_name": "Katherine",
            "real_name": "Katherine Holo",
            "display_name": "Kat Holo - Co-Organizer of OpenCOVID19",
            "team": "TUU48M0T1",
            "name": "katherineh245",
            "is_restricted": false,
            "is_ultra_restricted": false
        },
        "blocks": [
            {
                "type": "rich_text",
                "block_id": "=WV4",
                "elements": [
                    {
                        "type": "rich_text_section",
                        "elements": [
                            {
                                "type": "text",
                                "text": "and feel free to have them join the slack!"
                            }
                        ]
                    }
                ]
            }
        ],
        "thread_ts": "1584424905.012600",
        "parent_user_id": "U0106VDVAQ6"
    },
    {
        "client_msg_id": "4795ccc5-1854-4db0-ba8d-287f75f6f52f",
        "type": "message",
        "text": "Great! I'm on it",
        "user": "U0106VDVAQ6",
        "ts": "1584425324.013200",
        "team": "TUU48M0T1",
        "user_team": "TUU48M0T1",
        "source_team": "TUU48M0T1",
        "user_profile": {
            "avatar_hash": "gcb646d37b14",
            "image_72": "https:\/\/secure.gravatar.com\/avatar\/cb646d37b14b4cc616c4ac5cf95808ed.jpg?s=72&d=https%3A%2F%2Fa.slack-edge.com%2Fdf10d%2Fimg%2Favatars%2Fava_0009-72.png",
            "first_name": "",
            "real_name": "Evita",
            "display_name": "",
            "team": "TUU48M0T1",
            "name": "evi",
            "is_restricted": false,
            "is_ultra_restricted": false
        },
        "blocks": [
            {
                "type": "rich_text",
                "block_id": "I73",
                "elements": [
                    {
                        "type": "rich_text_section",
                        "elements": [
                            {
                                "type": "text",
                                "text": "Great! I'm on it"
                            }
                        ]
                    }
                ]
            }
        ],
        "thread_ts": "1584424905.012600",
        "parent_user_id": "U0106VDVAQ6",
        "reactions": [
            {
                "name": "clap",
                "users": [
                    "UV0QTJCMT"
                ],
                "count": 1
            }
        ]
    }
]