[
    {
        "type": "message",
        "subtype": "channel_join",
        "ts": "1584982030.000200",
        "user": "UV85V64SD",
        "text": "<@UV85V64SD> has joined the channel"
    },
    {
        "type": "message",
        "subtype": "channel_purpose",
        "ts": "1584982031.000300",
        "user": "UV85V64SD",
        "text": "<@UV85V64SD> set the channel purpose: Working group on implementing recommendation systems for the community on JOGL",
        "purpose": "Working group on implementing recommendation systems for the community on JOGL"
    },
    {
        "type": "message",
        "subtype": "channel_join",
        "ts": "1584982040.000500",
        "user": "UVC9WMA7N",
        "text": "<@UVC9WMA7N> has joined the channel",
        "inviter": "UV85V64SD"
    },
    {
        "type": "message",
        "subtype": "channel_join",
        "ts": "1584982040.000700",
        "user": "U010734498S",
        "text": "<@U010734498S> has joined the channel",
        "inviter": "UV85V64SD"
    },
    {
        "type": "message",
        "subtype": "channel_purpose",
        "ts": "1584982077.000800",
        "user": "UV85V64SD",
        "text": "<@UV85V64SD> set the channel purpose: Working group on implementing recommendation systems for the feed and notifications on JOGL",
        "purpose": "Working group on implementing recommendation systems for the feed and notifications on JOGL"
    }
]