[
    {
        "client_msg_id": "7bbddc46-65af-4029-a9c5-d8eb4b72001d",
        "type": "message",
        "text": "<@U01113Y1PLP> That looks great ! I'll do my best to have this ready for you by the end of the day.\n\nOnly issue is going to be that your Database will be quite empty for testing ... So I will output you a CSV that you'll have to dump into a Postgress if that's ok with you ?",
        "user": "UVC9WMA7N",
        "ts": "1586341035.032200",
        "team": "TUU48M0T1",
        "user_team": "TUU48M0T1",
        "source_team": "TUU48M0T1",
        "user_profile": {
            "avatar_hash": "56d14d58ed53",
            "image_72": "https:\/\/avatars.slack-edge.com\/2020-03-13\/998337892660_56d14d58ed537e6e4654_72.png",
            "first_name": "Leo",
            "real_name": "Leo Blondel",
            "display_name": "Leo Blondel - JOGL CoFounder \/ CTO",
            "team": "TUU48M0T1",
            "name": "leo",
            "is_restricted": false,
            "is_ultra_restricted": false
        },
        "blocks": [
            {
                "type": "rich_text",
                "block_id": "8rf",
                "elements": [
                    {
                        "type": "rich_text_section",
                        "elements": [
                            {
                                "type": "user",
                                "user_id": "U01113Y1PLP"
                            },
                            {
                                "type": "text",
                                "text": " That looks great ! I'll do my best to have this ready for you by the end of the day.\n\nOnly issue is going to be that your Database will be quite empty for testing ... So I will output you a CSV that you'll have to dump into a Postgress if that's ok with you ?"
                            }
                        ]
                    }
                ]
            }
        ]
    },
    {
        "client_msg_id": "ba3c8ab1-f6ba-4ad3-91aa-52d704e14db1",
        "type": "message",
        "text": "That sound great yes <@UVC9WMA7N> !",
        "user": "U01113Y1PLP",
        "ts": "1586342781.033100",
        "team": "TUU48M0T1",
        "user_team": "TUU48M0T1",
        "source_team": "TUU48M0T1",
        "user_profile": {
            "avatar_hash": "09f91663be3c",
            "image_72": "https:\/\/avatars.slack-edge.com\/2020-03-28\/1033063469301_09f91663be3c4c21e257_72.png",
            "first_name": "Luis",
            "real_name": "Luis Arias",
            "display_name": "Luis Arias",
            "team": "TUU48M0T1",
            "name": "luis603",
            "is_restricted": false,
            "is_ultra_restricted": false
        },
        "blocks": [
            {
                "type": "rich_text",
                "block_id": "dpEj1",
                "elements": [
                    {
                        "type": "rich_text_section",
                        "elements": [
                            {
                                "type": "text",
                                "text": "That sound great yes "
                            },
                            {
                                "type": "user",
                                "user_id": "UVC9WMA7N"
                            },
                            {
                                "type": "text",
                                "text": " !"
                            }
                        ]
                    }
                ]
            }
        ]
    },
    {
        "client_msg_id": "829b3687-1ab8-43c8-be23-acfbbbc26241",
        "type": "message",
        "text": "<@U01113Y1PLP> <@UVC9WMA7N> HINPy is now Apache 2 lic.",
        "user": "U010734498S",
        "ts": "1586345905.033800",
        "team": "TUU48M0T1",
        "user_team": "TUU48M0T1",
        "source_team": "TUU48M0T1",
        "user_profile": {
            "avatar_hash": "g85cae5734da",
            "image_72": "https:\/\/secure.gravatar.com\/avatar\/85cae5734dae69539dca99aa96ef691f.jpg?s=72&d=https%3A%2F%2Fa.slack-edge.com%2Fdf10d%2Fimg%2Favatars%2Fava_0011-72.png",
            "first_name": "",
            "real_name": "pedro ramaciotti",
            "display_name": "pedro ramaciotti",
            "team": "TUU48M0T1",
            "name": "pedro.ramaciotti",
            "is_restricted": false,
            "is_ultra_restricted": false
        },
        "blocks": [
            {
                "type": "rich_text",
                "block_id": "uTK",
                "elements": [
                    {
                        "type": "rich_text_section",
                        "elements": [
                            {
                                "type": "user",
                                "user_id": "U01113Y1PLP"
                            },
                            {
                                "type": "text",
                                "text": " "
                            },
                            {
                                "type": "user",
                                "user_id": "UVC9WMA7N"
                            },
                            {
                                "type": "text",
                                "text": " HINPy is now Apache 2 lic."
                            }
                        ]
                    }
                ]
            }
        ],
        "reactions": [
            {
                "name": "exploding_head",
                "users": [
                    "U01113Y1PLP",
                    "UVC9WMA7N"
                ],
                "count": 2
            }
        ]
    },
    {
        "client_msg_id": "3969309c-ddc1-4983-bc24-79e42ff49338",
        "type": "message",
        "text": "<@UV85V64SD> <@UVC9WMA7N> <@U01113Y1PLP> I put a PR for an expansion of our usage of hinpy from content based to collaborative filtering (CF). Using some meta-paths we can we can put CF into the mix of scores\/recommendations simply. I made an example using the function make_project_recos.",
        "user": "U010734498S",
        "ts": "1586347362.037100",
        "team": "TUU48M0T1",
        "user_team": "TUU48M0T1",
        "source_team": "TUU48M0T1",
        "user_profile": {
            "avatar_hash": "g85cae5734da",
            "image_72": "https:\/\/secure.gravatar.com\/avatar\/85cae5734dae69539dca99aa96ef691f.jpg?s=72&d=https%3A%2F%2Fa.slack-edge.com%2Fdf10d%2Fimg%2Favatars%2Fava_0011-72.png",
            "first_name": "",
            "real_name": "pedro ramaciotti",
            "display_name": "pedro ramaciotti",
            "team": "TUU48M0T1",
            "name": "pedro.ramaciotti",
            "is_restricted": false,
            "is_ultra_restricted": false
        },
        "blocks": [
            {
                "type": "rich_text",
                "block_id": "ZYw7",
                "elements": [
                    {
                        "type": "rich_text_section",
                        "elements": [
                            {
                                "type": "user",
                                "user_id": "UV85V64SD"
                            },
                            {
                                "type": "text",
                                "text": " "
                            },
                            {
                                "type": "user",
                                "user_id": "UVC9WMA7N"
                            },
                            {
                                "type": "text",
                                "text": " "
                            },
                            {
                                "type": "user",
                                "user_id": "U01113Y1PLP"
                            },
                            {
                                "type": "text",
                                "text": " I put a PR for an expansion of our usage of hinpy from content based to collaborative filtering (CF). Using some meta-paths we can we can put CF into the mix of scores\/recommendations simply. I made an example using the function make_project_recos."
                            }
                        ]
                    }
                ]
            }
        ],
        "reactions": [
            {
                "name": "+1",
                "users": [
                    "UVC9WMA7N"
                ],
                "count": 1
            }
        ]
    },
    {
        "type": "message",
        "subtype": "channel_join",
        "ts": "1586361102.037600",
        "user": "U0108UAAUQM",
        "text": "<@U0108UAAUQM> has joined the channel"
    }
]