[
    {
        "client_msg_id": "b4396604-55cd-4685-80cb-5cff33d0e04e",
        "type": "message",
        "text": "A little PR to review when you have time <@UVC9WMA7N> <https:\/\/gitlab.com\/JOGL\/jogl-recsys\/-\/merge_requests\/11>",
        "user": "U01113Y1PLP",
        "ts": "1587486402.002700",
        "team": "TUU48M0T1",
        "user_team": "TUU48M0T1",
        "source_team": "TUU48M0T1",
        "user_profile": {
            "avatar_hash": "09f91663be3c",
            "image_72": "https:\/\/avatars.slack-edge.com\/2020-03-28\/1033063469301_09f91663be3c4c21e257_72.png",
            "first_name": "Luis",
            "real_name": "Luis Arias",
            "display_name": "Luis Arias",
            "team": "TUU48M0T1",
            "name": "luis603",
            "is_restricted": false,
            "is_ultra_restricted": false
        },
        "attachments": [
            {
                "service_name": "GitLab",
                "title": "Cleaner python module and source command line options (!11) · Merge Requests · Just One Giant Lab \/ jogl-recsys",
                "title_link": "https:\/\/gitlab.com\/JOGL\/jogl-recsys\/-\/merge_requests\/11",
                "text": "This PR creates the `jogl.recsys` python module and moves code there. A command line option using the '-s' or '--source' flag allows specifying the source of network data: `api`, `csv`...",
                "fallback": "GitLab: Cleaner python module and source command line options (!11) · Merge Requests · Just One Giant Lab \/ jogl-recsys",
                "thumb_url": "https:\/\/assets.gitlab-static.net\/assets\/gitlab_logo-7ae504fe4f68fdebb3c2034e36621930cd36ea87924c11ff65dbcb8ed50dca58.png",
                "fields": [
                    {
                        "title": "Author",
                        "value": "Luis Arias",
                        "short": true
                    },
                    {
                        "title": "Assignee",
                        "value": "Luis Arias",
                        "short": true
                    }
                ],
                "from_url": "https:\/\/gitlab.com\/JOGL\/jogl-recsys\/-\/merge_requests\/11",
                "thumb_width": 128,
                "thumb_height": 128,
                "service_icon": "https:\/\/assets.gitlab-static.net\/assets\/touch-icon-iphone-5a9cee0e8a51212e70b90c87c12f382c428870c0ff67d1eb034d884b78d2dae7.png",
                "id": 1,
                "original_url": "https:\/\/gitlab.com\/JOGL\/jogl-recsys\/-\/merge_requests\/11"
            }
        ],
        "blocks": [
            {
                "type": "rich_text",
                "block_id": "yvAo8",
                "elements": [
                    {
                        "type": "rich_text_section",
                        "elements": [
                            {
                                "type": "text",
                                "text": "A little PR to review when you have time "
                            },
                            {
                                "type": "user",
                                "user_id": "UVC9WMA7N"
                            },
                            {
                                "type": "text",
                                "text": " "
                            },
                            {
                                "type": "link",
                                "url": "https:\/\/gitlab.com\/JOGL\/jogl-recsys\/-\/merge_requests\/11"
                            }
                        ]
                    }
                ]
            }
        ],
        "thread_ts": "1587486402.002700",
        "reply_count": 2,
        "reply_users_count": 2,
        "latest_reply": "1587541603.000100",
        "reply_users": [
            "U010RE1NDCG",
            "U01113Y1PLP"
        ],
        "replies": [
            {
                "user": "U010RE1NDCG",
                "ts": "1587495989.003000"
            },
            {
                "user": "U01113Y1PLP",
                "ts": "1587541603.000100"
            }
        ],
        "subscribed": false
    },
    {
        "client_msg_id": "b40ea9cf-7847-46f2-bbd2-8983831a6172",
        "type": "message",
        "text": "I was bored so I did a tiny review too. :smile:",
        "user": "U010RE1NDCG",
        "ts": "1587495989.003000",
        "team": "TUU48M0T1",
        "user_team": "TUU48M0T1",
        "source_team": "TUU48M0T1",
        "user_profile": {
            "avatar_hash": "9b536de47814",
            "image_72": "https:\/\/avatars.slack-edge.com\/2020-03-27\/1033593346022_9b536de4781429680ea1_72.jpg",
            "first_name": "",
            "real_name": "Prashant Sinha",
            "display_name": "",
            "team": "TUU48M0T1",
            "name": "prashant",
            "is_restricted": false,
            "is_ultra_restricted": false
        },
        "blocks": [
            {
                "type": "rich_text",
                "block_id": "Q4l",
                "elements": [
                    {
                        "type": "rich_text_section",
                        "elements": [
                            {
                                "type": "text",
                                "text": "I was bored so I did a tiny review too. "
                            },
                            {
                                "type": "emoji",
                                "name": "smile"
                            }
                        ]
                    }
                ]
            }
        ],
        "thread_ts": "1587486402.002700",
        "parent_user_id": "U01113Y1PLP"
    }
]