[
    {
        "client_msg_id": "d338b44a-808f-4ba5-8905-34f938b9d533",
        "type": "message",
        "text": "<@U010734498S> <@U01113Y1PLP> bumping into this in my daily arxiv readings: <https:\/\/arxiv.org\/abs\/2004.13715>",
        "user": "UV85V64SD",
        "ts": "1588234334.007500",
        "team": "TUU48M0T1",
        "user_team": "TUU48M0T1",
        "source_team": "TUU48M0T1",
        "user_profile": {
            "avatar_hash": "1e73a651bdfe",
            "image_72": "https:\/\/avatars.slack-edge.com\/2020-03-16\/1004297548853_1e73a651bdfef2c41501_72.jpg",
            "first_name": "Marc",
            "real_name": "Marc Santolini",
            "display_name": "Marc Santolini - JOGL CoFounder \/ CSO",
            "team": "TUU48M0T1",
            "name": "marc.santolini",
            "is_restricted": false,
            "is_ultra_restricted": false
        },
        "attachments": [
            {
                "service_name": "arXiv.org",
                "title": "Privacy-Preserving Recommender Systems Challenge on Twitter's...",
                "title_link": "https:\/\/arxiv.org\/abs\/2004.13715",
                "text": "Recommender systems constitute the core engine of most social network platforms nowadays, aiming to maximize user satisfaction along with other key business objectives. Twitter is no exception....",
                "fallback": "arXiv.org: Privacy-Preserving Recommender Systems Challenge on Twitter's...",
                "from_url": "https:\/\/arxiv.org\/abs\/2004.13715",
                "service_icon": "https:\/\/static.arxiv.org\/static\/browse\/0.3.0\/images\/icons\/favicon.ico",
                "id": 1,
                "original_url": "https:\/\/arxiv.org\/abs\/2004.13715"
            }
        ],
        "blocks": [
            {
                "type": "rich_text",
                "block_id": "0qRN5",
                "elements": [
                    {
                        "type": "rich_text_section",
                        "elements": [
                            {
                                "type": "user",
                                "user_id": "U010734498S"
                            },
                            {
                                "type": "text",
                                "text": " "
                            },
                            {
                                "type": "user",
                                "user_id": "U01113Y1PLP"
                            },
                            {
                                "type": "text",
                                "text": " bumping into this in my daily arxiv readings: "
                            },
                            {
                                "type": "link",
                                "url": "https:\/\/arxiv.org\/abs\/2004.13715"
                            }
                        ]
                    }
                ]
            }
        ],
        "thread_ts": "1588234334.007500",
        "reply_count": 2,
        "reply_users_count": 2,
        "latest_reply": "1588248328.022500",
        "reply_users": [
            "U01113Y1PLP",
            "UV85V64SD"
        ],
        "replies": [
            {
                "user": "U01113Y1PLP",
                "ts": "1588240463.022300"
            },
            {
                "user": "UV85V64SD",
                "ts": "1588248328.022500"
            }
        ],
        "subscribed": false
    },
    {
        "client_msg_id": "f47b28d0-98bc-4349-8fb1-4fe59229ce1a",
        "type": "message",
        "text": "Privacy-Preserving Recommender Systems Challenge on Twitter’s Home Timeline\n<https:\/\/arxiv.org\/search\/cs?searchtype=author&amp;query=Belli%2C+L|Luca Belli>, <https:\/\/arxiv.org\/search\/cs?searchtype=author&amp;query=Ktena%2C+S+I|Sofia Ira Ktena>, <https:\/\/arxiv.org\/search\/cs?searchtype=author&amp;query=Tejani%2C+A|Alykhan Tejani>, <https:\/\/arxiv.org\/search\/cs?searchtype=author&amp;query=Lung-Yut-Fon%2C+A|Alexandre Lung-Yut-Fon>, <https:\/\/arxiv.org\/search\/cs?searchtype=author&amp;query=Portman%2C+F|Frank Portman>, <https:\/\/arxiv.org\/search\/cs?searchtype=author&amp;query=Zhu%2C+X|Xiao Zhu>, <https:\/\/arxiv.org\/search\/cs?searchtype=author&amp;query=Xie%2C+Y|Yuanpu Xie>, <https:\/\/arxiv.org\/search\/cs?searchtype=author&amp;query=Gupta%2C+A|Akshay Gupta>, <https:\/\/arxiv.org\/search\/cs?searchtype=author&amp;query=Bronstein%2C+M|Michael Bronstein>, <https:\/\/arxiv.org\/search\/cs?searchtype=author&amp;query=Deli%C4%87%2C+A|Amra Delić>, <https:\/\/arxiv.org\/search\/cs?searchtype=author&amp;query=Sottocornola%2C+G|Gabriele Sottocornola>, <https:\/\/arxiv.org\/search\/cs?searchtype=author&amp;query=Anelli%2C+W|Walter Anelli>, <https:\/\/arxiv.org\/search\/cs?searchtype=author&amp;query=Andrade%2C+N|Nazareno Andrade>, <https:\/\/arxiv.org\/search\/cs?searchtype=author&amp;query=Smith%2C+J|Jessie Smith>, <https:\/\/arxiv.org\/search\/cs?searchtype=author&amp;query=Shi%2C+W|Wenzhe Shi>\n&gt; Recommender systems constitute the core engine of most social network platforms nowadays, aiming to maximize user satisfaction along with other key business objectives. Twitter is no exception. Despite the fact that Twitter data has been extensively used to understand socioeconomic and political phenomena and user behaviour, the implicit feedback provided by users on Tweets through their engagements on the Home Timeline has only been explored to a limited extent. At the same time, there is a lack of large-scale public social network datasets that would enable the scientific community to both benchmark and build more powerful and comprehensive models that tailor content to user interests. By releasing an original dataset of 160 million Tweets along with engagement information, Twitter aims to address exactly that. During this release, special attention is drawn on maintaining compliance with existing privacy laws. Apart from user privacy, this paper touches on the key challenges faced by researchers and professionals striving to predict user engagements. It further describes the key aspects of the RecSys 2020 Challenge that was organized by ACM RecSys in partnership with Twitter using this dataset.\n",
        "user": "UV85V64SD",
        "ts": "1588234344.007800",
        "team": "TUU48M0T1",
        "user_team": "TUU48M0T1",
        "source_team": "TUU48M0T1",
        "user_profile": {
            "avatar_hash": "1e73a651bdfe",
            "image_72": "https:\/\/avatars.slack-edge.com\/2020-03-16\/1004297548853_1e73a651bdfef2c41501_72.jpg",
            "first_name": "Marc",
            "real_name": "Marc Santolini",
            "display_name": "Marc Santolini - JOGL CoFounder \/ CSO",
            "team": "TUU48M0T1",
            "name": "marc.santolini",
            "is_restricted": false,
            "is_ultra_restricted": false
        },
        "blocks": [
            {
                "type": "rich_text",
                "block_id": "lU4",
                "elements": [
                    {
                        "type": "rich_text_section",
                        "elements": [
                            {
                                "type": "text",
                                "text": "Privacy-Preserving Recommender Systems Challenge on Twitter’s Home Timeline\n"
                            },
                            {
                                "type": "link",
                                "url": "https:\/\/arxiv.org\/search\/cs?searchtype=author&query=Belli%2C+L",
                                "text": "Luca Belli"
                            },
                            {
                                "type": "text",
                                "text": ", "
                            },
                            {
                                "type": "link",
                                "url": "https:\/\/arxiv.org\/search\/cs?searchtype=author&query=Ktena%2C+S+I",
                                "text": "Sofia Ira Ktena"
                            },
                            {
                                "type": "text",
                                "text": ", "
                            },
                            {
                                "type": "link",
                                "url": "https:\/\/arxiv.org\/search\/cs?searchtype=author&query=Tejani%2C+A",
                                "text": "Alykhan Tejani"
                            },
                            {
                                "type": "text",
                                "text": ", "
                            },
                            {
                                "type": "link",
                                "url": "https:\/\/arxiv.org\/search\/cs?searchtype=author&query=Lung-Yut-Fon%2C+A",
                                "text": "Alexandre Lung-Yut-Fon"
                            },
                            {
                                "type": "text",
                                "text": ", "
                            },
                            {
                                "type": "link",
                                "url": "https:\/\/arxiv.org\/search\/cs?searchtype=author&query=Portman%2C+F",
                                "text": "Frank Portman"
                            },
                            {
                                "type": "text",
                                "text": ", "
                            },
                            {
                                "type": "link",
                                "url": "https:\/\/arxiv.org\/search\/cs?searchtype=author&query=Zhu%2C+X",
                                "text": "Xiao Zhu"
                            },
                            {
                                "type": "text",
                                "text": ", "
                            },
                            {
                                "type": "link",
                                "url": "https:\/\/arxiv.org\/search\/cs?searchtype=author&query=Xie%2C+Y",
                                "text": "Yuanpu Xie"
                            },
                            {
                                "type": "text",
                                "text": ", "
                            },
                            {
                                "type": "link",
                                "url": "https:\/\/arxiv.org\/search\/cs?searchtype=author&query=Gupta%2C+A",
                                "text": "Akshay Gupta"
                            },
                            {
                                "type": "text",
                                "text": ", "
                            },
                            {
                                "type": "link",
                                "url": "https:\/\/arxiv.org\/search\/cs?searchtype=author&query=Bronstein%2C+M",
                                "text": "Michael Bronstein"
                            },
                            {
                                "type": "text",
                                "text": ", "
                            },
                            {
                                "type": "link",
                                "url": "https:\/\/arxiv.org\/search\/cs?searchtype=author&query=Deli%C4%87%2C+A",
                                "text": "Amra Delić"
                            },
                            {
                                "type": "text",
                                "text": ", "
                            },
                            {
                                "type": "link",
                                "url": "https:\/\/arxiv.org\/search\/cs?searchtype=author&query=Sottocornola%2C+G",
                                "text": "Gabriele Sottocornola"
                            },
                            {
                                "type": "text",
                                "text": ", "
                            },
                            {
                                "type": "link",
                                "url": "https:\/\/arxiv.org\/search\/cs?searchtype=author&query=Anelli%2C+W",
                                "text": "Walter Anelli"
                            },
                            {
                                "type": "text",
                                "text": ", "
                            },
                            {
                                "type": "link",
                                "url": "https:\/\/arxiv.org\/search\/cs?searchtype=author&query=Andrade%2C+N",
                                "text": "Nazareno Andrade"
                            },
                            {
                                "type": "text",
                                "text": ", "
                            },
                            {
                                "type": "link",
                                "url": "https:\/\/arxiv.org\/search\/cs?searchtype=author&query=Smith%2C+J",
                                "text": "Jessie Smith"
                            },
                            {
                                "type": "text",
                                "text": ", "
                            },
                            {
                                "type": "link",
                                "url": "https:\/\/arxiv.org\/search\/cs?searchtype=author&query=Shi%2C+W",
                                "text": "Wenzhe Shi"
                            },
                            {
                                "type": "text",
                                "text": "\n"
                            }
                        ]
                    },
                    {
                        "type": "rich_text_quote",
                        "elements": [
                            {
                                "type": "text",
                                "text": "Recommender systems constitute the core engine of most social network platforms nowadays, aiming to maximize user satisfaction along with other key business objectives. Twitter is no exception. Despite the fact that Twitter data has been extensively used to understand socioeconomic and political phenomena and user behaviour, the implicit feedback provided by users on Tweets through their engagements on the Home Timeline has only been explored to a limited extent. At the same time, there is a lack of large-scale public social network datasets that would enable the scientific community to both benchmark and build more powerful and comprehensive models that tailor content to user interests. By releasing an original dataset of 160 million Tweets along with engagement information, Twitter aims to address exactly that. During this release, special attention is drawn on maintaining compliance with existing privacy laws. Apart from user privacy, this paper touches on the key challenges faced by researchers and professionals striving to predict user engagements. It further describes the key aspects of the RecSys 2020 Challenge that was organized by ACM RecSys in partnership with Twitter using this dataset."
                            }
                        ]
                    },
                    {
                        "type": "rich_text_section",
                        "elements": []
                    }
                ]
            }
        ]
    },
    {
        "client_msg_id": "04504ead-665d-49cb-bf5f-82aacc0cabfd",
        "type": "message",
        "text": "haven’t followed the RecSys challenge but looks like it would be interesting to haver a look",
        "user": "UV85V64SD",
        "ts": "1588234363.008300",
        "team": "TUU48M0T1",
        "user_team": "TUU48M0T1",
        "source_team": "TUU48M0T1",
        "user_profile": {
            "avatar_hash": "1e73a651bdfe",
            "image_72": "https:\/\/avatars.slack-edge.com\/2020-03-16\/1004297548853_1e73a651bdfef2c41501_72.jpg",
            "first_name": "Marc",
            "real_name": "Marc Santolini",
            "display_name": "Marc Santolini - JOGL CoFounder \/ CSO",
            "team": "TUU48M0T1",
            "name": "marc.santolini",
            "is_restricted": false,
            "is_ultra_restricted": false
        },
        "blocks": [
            {
                "type": "rich_text",
                "block_id": "iW=0h",
                "elements": [
                    {
                        "type": "rich_text_section",
                        "elements": [
                            {
                                "type": "text",
                                "text": "haven’t followed the RecSys challenge but looks like it would be interesting to haver a look"
                            }
                        ]
                    }
                ]
            }
        ]
    },
    {
        "client_msg_id": "c1401ae1-29de-4266-8917-0d34d4b5bd17",
        "type": "message",
        "text": "also I wonder how we will benchmark compare to these guys",
        "user": "UV85V64SD",
        "ts": "1588234378.008700",
        "team": "TUU48M0T1",
        "user_team": "TUU48M0T1",
        "source_team": "TUU48M0T1",
        "user_profile": {
            "avatar_hash": "1e73a651bdfe",
            "image_72": "https:\/\/avatars.slack-edge.com\/2020-03-16\/1004297548853_1e73a651bdfef2c41501_72.jpg",
            "first_name": "Marc",
            "real_name": "Marc Santolini",
            "display_name": "Marc Santolini - JOGL CoFounder \/ CSO",
            "team": "TUU48M0T1",
            "name": "marc.santolini",
            "is_restricted": false,
            "is_ultra_restricted": false
        },
        "blocks": [
            {
                "type": "rich_text",
                "block_id": "ZgTFw",
                "elements": [
                    {
                        "type": "rich_text_section",
                        "elements": [
                            {
                                "type": "text",
                                "text": "also I wonder how we will benchmark compare to these guys"
                            }
                        ]
                    }
                ]
            }
        ]
    },
    {
        "client_msg_id": "a45e493f-f811-4c39-8af0-6ebe2dcac843",
        "type": "message",
        "text": "i mean if we can get something good on 160 million tweets, that would be a great start :slightly_smiling_face:",
        "user": "UV85V64SD",
        "ts": "1588234399.009300",
        "team": "TUU48M0T1",
        "user_team": "TUU48M0T1",
        "source_team": "TUU48M0T1",
        "user_profile": {
            "avatar_hash": "1e73a651bdfe",
            "image_72": "https:\/\/avatars.slack-edge.com\/2020-03-16\/1004297548853_1e73a651bdfef2c41501_72.jpg",
            "first_name": "Marc",
            "real_name": "Marc Santolini",
            "display_name": "Marc Santolini - JOGL CoFounder \/ CSO",
            "team": "TUU48M0T1",
            "name": "marc.santolini",
            "is_restricted": false,
            "is_ultra_restricted": false
        },
        "blocks": [
            {
                "type": "rich_text",
                "block_id": "HBZF",
                "elements": [
                    {
                        "type": "rich_text_section",
                        "elements": [
                            {
                                "type": "text",
                                "text": "i mean if we can get something good on 160 million tweets, that would be a great start "
                            },
                            {
                                "type": "emoji",
                                "name": "slightly_smiling_face"
                            }
                        ]
                    }
                ]
            }
        ]
    },
    {
        "client_msg_id": "cf37fb09-205b-44cf-9ffc-4fc23dc45a67",
        "type": "message",
        "text": "merci <@U01113Y1PLP> :slightly_smiling_face:",
        "user": "UV85V64SD",
        "ts": "1588234412.009400",
        "team": "TUU48M0T1",
        "user_team": "TUU48M0T1",
        "source_team": "TUU48M0T1",
        "user_profile": {
            "avatar_hash": "1e73a651bdfe",
            "image_72": "https:\/\/avatars.slack-edge.com\/2020-03-16\/1004297548853_1e73a651bdfef2c41501_72.jpg",
            "first_name": "Marc",
            "real_name": "Marc Santolini",
            "display_name": "Marc Santolini - JOGL CoFounder \/ CSO",
            "team": "TUU48M0T1",
            "name": "marc.santolini",
            "is_restricted": false,
            "is_ultra_restricted": false
        },
        "blocks": [
            {
                "type": "rich_text",
                "block_id": "SvoYr",
                "elements": [
                    {
                        "type": "rich_text_section",
                        "elements": [
                            {
                                "type": "text",
                                "text": "merci "
                            },
                            {
                                "type": "user",
                                "user_id": "U01113Y1PLP"
                            },
                            {
                                "type": "text",
                                "text": " "
                            },
                            {
                                "type": "emoji",
                                "name": "slightly_smiling_face"
                            }
                        ]
                    }
                ]
            }
        ],
        "thread_ts": "1588176247.006400",
        "parent_user_id": "U01113Y1PLP"
    },
    {
        "client_msg_id": "47d58651-5f4b-4561-a8a0-1ddff7e475b7",
        "type": "message",
        "text": "also <@UVC9WMA7N> might interest you",
        "user": "UV85V64SD",
        "ts": "1588234478.009800",
        "team": "TUU48M0T1",
        "user_team": "TUU48M0T1",
        "source_team": "TUU48M0T1",
        "user_profile": {
            "avatar_hash": "1e73a651bdfe",
            "image_72": "https:\/\/avatars.slack-edge.com\/2020-03-16\/1004297548853_1e73a651bdfef2c41501_72.jpg",
            "first_name": "Marc",
            "real_name": "Marc Santolini",
            "display_name": "Marc Santolini - JOGL CoFounder \/ CSO",
            "team": "TUU48M0T1",
            "name": "marc.santolini",
            "is_restricted": false,
            "is_ultra_restricted": false
        },
        "blocks": [
            {
                "type": "rich_text",
                "block_id": "NqN",
                "elements": [
                    {
                        "type": "rich_text_section",
                        "elements": [
                            {
                                "type": "text",
                                "text": "also "
                            },
                            {
                                "type": "user",
                                "user_id": "UVC9WMA7N"
                            },
                            {
                                "type": "text",
                                "text": " might interest you"
                            }
                        ]
                    }
                ]
            }
        ]
    },
    {
        "client_msg_id": "c1084847-7a14-405b-8f40-4b4f23904499",
        "type": "message",
        "text": "thinking, in the longer run, once we have recsys running and a good pipeline, why not try out our own recsys challenge :slightly_smiling_face:",
        "user": "UV85V64SD",
        "ts": "1588234517.010700",
        "team": "TUU48M0T1",
        "user_team": "TUU48M0T1",
        "source_team": "TUU48M0T1",
        "user_profile": {
            "avatar_hash": "1e73a651bdfe",
            "image_72": "https:\/\/avatars.slack-edge.com\/2020-03-16\/1004297548853_1e73a651bdfef2c41501_72.jpg",
            "first_name": "Marc",
            "real_name": "Marc Santolini",
            "display_name": "Marc Santolini - JOGL CoFounder \/ CSO",
            "team": "TUU48M0T1",
            "name": "marc.santolini",
            "is_restricted": false,
            "is_ultra_restricted": false
        },
        "blocks": [
            {
                "type": "rich_text",
                "block_id": "f2DDO",
                "elements": [
                    {
                        "type": "rich_text_section",
                        "elements": [
                            {
                                "type": "text",
                                "text": "thinking, in the longer run, once we have recsys running and a good pipeline, why not try out our own recsys challenge "
                            },
                            {
                                "type": "emoji",
                                "name": "slightly_smiling_face"
                            }
                        ]
                    }
                ]
            }
        ],
        "thread_ts": "1588234517.010700",
        "reply_count": 1,
        "reply_users_count": 1,
        "latest_reply": "1588331331.022900",
        "reply_users": [
            "UVC9WMA7N"
        ],
        "replies": [
            {
                "user": "UVC9WMA7N",
                "ts": "1588331331.022900"
            }
        ],
        "subscribed": false,
        "reactions": [
            {
                "name": "sunglasses",
                "users": [
                    "U01113Y1PLP",
                    "UVC9WMA7N"
                ],
                "count": 2
            }
        ]
    },
    {
        "client_msg_id": "80ba6c7a-e59d-4a1b-b359-519c92faa68a",
        "type": "message",
        "text": "I have computed performance metrics on the HINPy-based RS underlying JOGL-RS, but for other datasets. The same performance metrics are built in HINPy, to be tested with JOGL whenever we want. They are in reviewing. As it is now in the JOGL engine, the RS takes guidance on the the meta-path we have chosen. There is no parameter optimization performed for maximizing objectives. But we could pursue something like that in the future.",
        "user": "U010734498S",
        "ts": "1588235494.014800",
        "team": "TUU48M0T1",
        "user_team": "TUU48M0T1",
        "source_team": "TUU48M0T1",
        "user_profile": {
            "avatar_hash": "g85cae5734da",
            "image_72": "https:\/\/secure.gravatar.com\/avatar\/85cae5734dae69539dca99aa96ef691f.jpg?s=72&d=https%3A%2F%2Fa.slack-edge.com%2Fdf10d%2Fimg%2Favatars%2Fava_0011-72.png",
            "first_name": "",
            "real_name": "pedro ramaciotti",
            "display_name": "pedro ramaciotti",
            "team": "TUU48M0T1",
            "name": "pedro.ramaciotti",
            "is_restricted": false,
            "is_ultra_restricted": false
        },
        "blocks": [
            {
                "type": "rich_text",
                "block_id": "YEcSa",
                "elements": [
                    {
                        "type": "rich_text_section",
                        "elements": [
                            {
                                "type": "text",
                                "text": "I have computed performance metrics on the HINPy-based RS underlying JOGL-RS, but for other datasets. The same performance metrics are built in HINPy, to be tested with JOGL whenever we want. They are in reviewing. As it is now in the JOGL engine, the RS takes guidance on the the meta-path we have chosen. There is no parameter optimization performed for maximizing objectives. But we could pursue something like that in the future."
                            }
                        ]
                    }
                ]
            }
        ]
    },
    {
        "client_msg_id": "4d2208e0-cc77-497a-bda4-8351b8a819a0",
        "type": "message",
        "text": "It would be very interesting to launch a recsys challenge, as we would be able to set objectives. Recsys community self aligns around different metrics that emerge from time to time, which are very ML-inspired. Most papers are experiments showing how to marginally improve some prediction accuracy metric. There a lot of room for interesting cases with other metrics that make sense from the context (JOGL), more related to a system's functioning than to user experience.",
        "user": "U010734498S",
        "ts": "1588237204.017900",
        "team": "TUU48M0T1",
        "user_team": "TUU48M0T1",
        "source_team": "TUU48M0T1",
        "user_profile": {
            "avatar_hash": "g85cae5734da",
            "image_72": "https:\/\/secure.gravatar.com\/avatar\/85cae5734dae69539dca99aa96ef691f.jpg?s=72&d=https%3A%2F%2Fa.slack-edge.com%2Fdf10d%2Fimg%2Favatars%2Fava_0011-72.png",
            "first_name": "",
            "real_name": "pedro ramaciotti",
            "display_name": "pedro ramaciotti",
            "team": "TUU48M0T1",
            "name": "pedro.ramaciotti",
            "is_restricted": false,
            "is_ultra_restricted": false
        },
        "blocks": [
            {
                "type": "rich_text",
                "block_id": "4qA",
                "elements": [
                    {
                        "type": "rich_text_section",
                        "elements": [
                            {
                                "type": "text",
                                "text": "It would be very interesting to launch a recsys challenge, as we would be able to set objectives. Recsys community self aligns around different metrics that emerge from time to time, which are very ML-inspired. Most papers are experiments showing how to marginally improve some prediction accuracy metric. There a lot of room for interesting cases with other metrics that make sense from the context (JOGL), more related to a system's functioning than to user experience."
                            }
                        ]
                    }
                ]
            }
        ]
    },
    {
        "client_msg_id": "9552940d-3e40-4e5b-8f8d-4c7988bd65bd",
        "type": "message",
        "text": "agreed <@U010734498S> - actually could you show some of these performance metrics in next week’s meetup?",
        "user": "UV85V64SD",
        "ts": "1588238145.018500",
        "team": "TUU48M0T1",
        "user_team": "TUU48M0T1",
        "source_team": "TUU48M0T1",
        "user_profile": {
            "avatar_hash": "1e73a651bdfe",
            "image_72": "https:\/\/avatars.slack-edge.com\/2020-03-16\/1004297548853_1e73a651bdfef2c41501_72.jpg",
            "first_name": "Marc",
            "real_name": "Marc Santolini",
            "display_name": "Marc Santolini - JOGL CoFounder \/ CSO",
            "team": "TUU48M0T1",
            "name": "marc.santolini",
            "is_restricted": false,
            "is_ultra_restricted": false
        },
        "blocks": [
            {
                "type": "rich_text",
                "block_id": "rpF",
                "elements": [
                    {
                        "type": "rich_text_section",
                        "elements": [
                            {
                                "type": "text",
                                "text": "agreed "
                            },
                            {
                                "type": "user",
                                "user_id": "U010734498S"
                            },
                            {
                                "type": "text",
                                "text": " - actually could you show some of these performance metrics in next week’s meetup?"
                            }
                        ]
                    }
                ]
            }
        ]
    },
    {
        "client_msg_id": "bbef9781-cdab-4667-b167-279dfba1b46b",
        "type": "message",
        "text": "Sure. There was also talk about a presentation about the theoretical support for HINPy, but it was scheduled for Monday the 11th, right?",
        "user": "U010734498S",
        "ts": "1588238329.019600",
        "team": "TUU48M0T1",
        "user_team": "TUU48M0T1",
        "source_team": "TUU48M0T1",
        "user_profile": {
            "avatar_hash": "g85cae5734da",
            "image_72": "https:\/\/secure.gravatar.com\/avatar\/85cae5734dae69539dca99aa96ef691f.jpg?s=72&d=https%3A%2F%2Fa.slack-edge.com%2Fdf10d%2Fimg%2Favatars%2Fava_0011-72.png",
            "first_name": "",
            "real_name": "pedro ramaciotti",
            "display_name": "pedro ramaciotti",
            "team": "TUU48M0T1",
            "name": "pedro.ramaciotti",
            "is_restricted": false,
            "is_ultra_restricted": false
        },
        "blocks": [
            {
                "type": "rich_text",
                "block_id": "hO=L",
                "elements": [
                    {
                        "type": "rich_text_section",
                        "elements": [
                            {
                                "type": "text",
                                "text": "Sure. There was also talk about a presentation about the theoretical support for HINPy, but it was scheduled for Monday the 11th, right?"
                            }
                        ]
                    }
                ]
            }
        ]
    },
    {
        "client_msg_id": "f54ea2ce-d936-4c54-89b4-a6a662d2ead8",
        "type": "message",
        "text": "so the idea was to involve Thomas and Camille at some point in how we should craft the notifications. Actually Monday 4th I might be taken until 6pm with another meeting for the whole day, so yes - keeping 11th in mind would be best.",
        "user": "UV85V64SD",
        "ts": "1588238713.021600",
        "team": "TUU48M0T1",
        "user_team": "TUU48M0T1",
        "source_team": "TUU48M0T1",
        "user_profile": {
            "avatar_hash": "1e73a651bdfe",
            "image_72": "https:\/\/avatars.slack-edge.com\/2020-03-16\/1004297548853_1e73a651bdfef2c41501_72.jpg",
            "first_name": "Marc",
            "real_name": "Marc Santolini",
            "display_name": "Marc Santolini - JOGL CoFounder \/ CSO",
            "team": "TUU48M0T1",
            "name": "marc.santolini",
            "is_restricted": false,
            "is_ultra_restricted": false
        },
        "blocks": [
            {
                "type": "rich_text",
                "block_id": "HMMi",
                "elements": [
                    {
                        "type": "rich_text_section",
                        "elements": [
                            {
                                "type": "text",
                                "text": "so the idea was to involve Thomas and Camille at some point in how we should craft the notifications. Actually Monday 4th I might be taken until 6pm with another meeting for the whole day, so yes - keeping 11th in mind would be best."
                            }
                        ]
                    }
                ]
            }
        ]
    },
    {
        "client_msg_id": "8fd9288a-c31a-406d-be76-048d3b10c447",
        "type": "message",
        "text": "Ok for the 11th then.",
        "user": "U010734498S",
        "ts": "1588240160.022100",
        "team": "TUU48M0T1",
        "user_team": "TUU48M0T1",
        "source_team": "TUU48M0T1",
        "user_profile": {
            "avatar_hash": "g85cae5734da",
            "image_72": "https:\/\/secure.gravatar.com\/avatar\/85cae5734dae69539dca99aa96ef691f.jpg?s=72&d=https%3A%2F%2Fa.slack-edge.com%2Fdf10d%2Fimg%2Favatars%2Fava_0011-72.png",
            "first_name": "",
            "real_name": "pedro ramaciotti",
            "display_name": "pedro ramaciotti",
            "team": "TUU48M0T1",
            "name": "pedro.ramaciotti",
            "is_restricted": false,
            "is_ultra_restricted": false
        },
        "blocks": [
            {
                "type": "rich_text",
                "block_id": "8za1k",
                "elements": [
                    {
                        "type": "rich_text_section",
                        "elements": [
                            {
                                "type": "text",
                                "text": "Ok for the 11th then."
                            }
                        ]
                    }
                ]
            }
        ]
    },
    {
        "client_msg_id": "67c43e0d-f62b-4638-be7c-dbcd3f3a2798",
        "type": "message",
        "text": "Wow thanks!  Will schedule studying this right away.",
        "user": "U01113Y1PLP",
        "ts": "1588240463.022300",
        "team": "TUU48M0T1",
        "user_team": "TUU48M0T1",
        "source_team": "TUU48M0T1",
        "user_profile": {
            "avatar_hash": "09f91663be3c",
            "image_72": "https:\/\/avatars.slack-edge.com\/2020-03-28\/1033063469301_09f91663be3c4c21e257_72.png",
            "first_name": "Luis",
            "real_name": "Luis Arias",
            "display_name": "Luis Arias",
            "team": "TUU48M0T1",
            "name": "luis603",
            "is_restricted": false,
            "is_ultra_restricted": false
        },
        "blocks": [
            {
                "type": "rich_text",
                "block_id": "MGIqe",
                "elements": [
                    {
                        "type": "rich_text_section",
                        "elements": [
                            {
                                "type": "text",
                                "text": "Wow thanks!  Will schedule studying this right away."
                            }
                        ]
                    }
                ]
            }
        ],
        "thread_ts": "1588234334.007500",
        "parent_user_id": "UV85V64SD"
    },
    {
        "client_msg_id": "e0475f18-55c5-4640-87cf-9103ae0d87df",
        "type": "message",
        "text": "yes, i barely begin to scratch the surface of this world but this look like it would be a good entrance point to latest advances :slightly_smiling_face:",
        "user": "UV85V64SD",
        "ts": "1588248328.022500",
        "team": "TUU48M0T1",
        "user_team": "TUU48M0T1",
        "source_team": "TUU48M0T1",
        "user_profile": {
            "avatar_hash": "1e73a651bdfe",
            "image_72": "https:\/\/avatars.slack-edge.com\/2020-03-16\/1004297548853_1e73a651bdfef2c41501_72.jpg",
            "first_name": "Marc",
            "real_name": "Marc Santolini",
            "display_name": "Marc Santolini - JOGL CoFounder \/ CSO",
            "team": "TUU48M0T1",
            "name": "marc.santolini",
            "is_restricted": false,
            "is_ultra_restricted": false
        },
        "blocks": [
            {
                "type": "rich_text",
                "block_id": "ufc2j",
                "elements": [
                    {
                        "type": "rich_text_section",
                        "elements": [
                            {
                                "type": "text",
                                "text": "yes, i barely begin to scratch the surface of this world but this look like it would be a good entrance point to latest advances "
                            },
                            {
                                "type": "emoji",
                                "name": "slightly_smiling_face"
                            }
                        ]
                    }
                ]
            }
        ],
        "thread_ts": "1588234334.007500",
        "parent_user_id": "UV85V64SD"
    }
]