[
    {
        "client_msg_id": "8b547a9d-08bc-4746-9eb9-727eeb8c8b6c",
        "type": "message",
        "text": "Does anyone have any ideea where I could buy a ventilator?",
        "user": "UVCT4AT54",
        "ts": "1585725910.239300",
        "team": "TUU48M0T1",
        "user_team": "TUU48M0T1",
        "source_team": "TUU48M0T1",
        "user_profile": {
            "avatar_hash": "deae325ec149",
            "image_72": "https:\/\/avatars.slack-edge.com\/2020-03-13\/999319371812_deae325ec1496af7deb8_72.jpg",
            "first_name": "",
            "real_name": "Adrian Pascu",
            "display_name": "Adrian Pascu",
            "team": "TUU48M0T1",
            "name": "ionut.cepleanu",
            "is_restricted": false,
            "is_ultra_restricted": false
        },
        "blocks": [
            {
                "type": "rich_text",
                "block_id": "UKxop",
                "elements": [
                    {
                        "type": "rich_text_section",
                        "elements": [
                            {
                                "type": "text",
                                "text": "Does anyone have any ideea where I could buy a ventilator?"
                            }
                        ]
                    }
                ]
            }
        ]
    },
    {
        "client_msg_id": "ce389ce1-e827-4d1d-9853-15f2426c8884",
        "type": "message",
        "text": "Need a serious company with all ISO requirements!",
        "user": "UVCT4AT54",
        "ts": "1585725932.239800",
        "team": "TUU48M0T1",
        "user_team": "TUU48M0T1",
        "source_team": "TUU48M0T1",
        "user_profile": {
            "avatar_hash": "deae325ec149",
            "image_72": "https:\/\/avatars.slack-edge.com\/2020-03-13\/999319371812_deae325ec1496af7deb8_72.jpg",
            "first_name": "",
            "real_name": "Adrian Pascu",
            "display_name": "Adrian Pascu",
            "team": "TUU48M0T1",
            "name": "ionut.cepleanu",
            "is_restricted": false,
            "is_ultra_restricted": false
        },
        "blocks": [
            {
                "type": "rich_text",
                "block_id": "l2ap4",
                "elements": [
                    {
                        "type": "rich_text_section",
                        "elements": [
                            {
                                "type": "text",
                                "text": "Need a serious company with all ISO requirements!"
                            }
                        ]
                    }
                ]
            }
        ]
    },
    {
        "type": "message",
        "subtype": "bot_message",
        "text": "Nǐ hǎo <@U0116SY1761> :flag-cn:",
        "ts": "1585738487.240100",
        "username": "GreetBot",
        "bot_id": "B0100JVEKUG"
    },
    {
        "type": "message",
        "subtype": "bot_message",
        "text": "Habari <@U010U7XP8P4> :flag-tz:",
        "ts": "1585740573.241100",
        "username": "GreetBot",
        "bot_id": "B0100JVEKUG"
    },
    {
        "type": "message",
        "subtype": "bot_message",
        "text": "Habari <@U01173XTTJ4> :flag-tz:",
        "ts": "1585743355.241600",
        "username": "GreetBot",
        "bot_id": "B0100JVEKUG"
    },
    {
        "type": "message",
        "subtype": "bot_message",
        "text": "Namaste <@U010X6JPVKK> :flag-in:",
        "ts": "1585746067.242100",
        "username": "GreetBot",
        "bot_id": "B0100JVEKUG"
    },
    {
        "type": "message",
        "subtype": "bot_message",
        "text": "Hola <@U0119C7AK0W> :flag-es:",
        "ts": "1585751553.242500",
        "username": "GreetBot",
        "bot_id": "B0100JVEKUG"
    },
    {
        "client_msg_id": "dddfe65b-381b-4ff4-b925-e0cbd905d9d8",
        "type": "message",
        "text": "hi everyone, I am working in a neuroscience institute in Paris and we re trying to better use the expertise and staff of academia in order to boost testing in the parisian hospitals overwhelmed now and not able to run testing in a systematic manner on their employees in contact with patients. I am interested in helping the steps of RNA extraction that is time consuming &amp; find alternative testing methods to make the process efficient, cheap and fast (RPA, RT-LAMP or NEAR)",
        "user": "U0116SY1761",
        "ts": "1585751734.244700",
        "team": "TUU48M0T1",
        "user_team": "TUU48M0T1",
        "source_team": "TUU48M0T1",
        "user_profile": {
            "avatar_hash": "g181d1b5a6db",
            "image_72": "https:\/\/secure.gravatar.com\/avatar\/181d1b5a6dbcb25ed8580b726e45cdc9.jpg?s=72&d=https%3A%2F%2Fa.slack-edge.com%2Fdf10d%2Fimg%2Favatars%2Fava_0003-72.png",
            "first_name": "",
            "real_name": "Claire Wyart",
            "display_name": "Claire Wyart",
            "team": "TUU48M0T1",
            "name": "claire.wyart",
            "is_restricted": false,
            "is_ultra_restricted": false
        },
        "blocks": [
            {
                "type": "rich_text",
                "block_id": "ZTr",
                "elements": [
                    {
                        "type": "rich_text_section",
                        "elements": [
                            {
                                "type": "text",
                                "text": "hi everyone, I am working in a neuroscience institute in Paris and we re trying to better use the expertise and staff of academia in order to boost testing in the parisian hospitals overwhelmed now and not able to run testing in a systematic manner on their employees in contact with patients. I am interested in helping the steps of RNA extraction that is time consuming & find alternative testing methods to make the process efficient, cheap and fast (RPA, RT-LAMP or NEAR)"
                            }
                        ]
                    }
                ]
            }
        ],
        "reactions": [
            {
                "name": "wave",
                "users": [
                    "UV02WET96"
                ],
                "count": 1
            },
            {
                "name": "raised_hands",
                "users": [
                    "UV9V03C8Y"
                ],
                "count": 1
            }
        ]
    },
    {
        "client_msg_id": "6A3182D1-F525-4667-9B65-901C9CEBBE4C",
        "type": "message",
        "text": "Check <http:\/\/Wemunity.org|Wemunity.org> - we might need your help. ",
        "user": "UUZHHJVGR",
        "ts": "1585752102.246900",
        "team": "TUU48M0T1",
        "user_team": "TUU48M0T1",
        "source_team": "TUU48M0T1",
        "user_profile": {
            "avatar_hash": "g0ee24c7b3fc",
            "image_72": "https:\/\/secure.gravatar.com\/avatar\/0ee24c7b3fc49038e2cb6c68aeb8f41b.jpg?s=72&d=https%3A%2F%2Fa.slack-edge.com%2Fdf10d%2Fimg%2Favatars%2Fava_0022-72.png",
            "first_name": "",
            "real_name": "Anders Waage Nilsen",
            "display_name": "Anders Waage Nilsen",
            "team": "TUU48M0T1",
            "name": "waagenilsen",
            "is_restricted": false,
            "is_ultra_restricted": false
        },
        "blocks": [
            {
                "type": "rich_text",
                "block_id": "+pE",
                "elements": [
                    {
                        "type": "rich_text_section",
                        "elements": [
                            {
                                "type": "text",
                                "text": "Check "
                            },
                            {
                                "type": "link",
                                "url": "http:\/\/Wemunity.org",
                                "text": "Wemunity.org"
                            },
                            {
                                "type": "text",
                                "text": " - we might need your help. "
                            }
                        ]
                    }
                ]
            }
        ],
        "thread_ts": "1585606001.205600",
        "parent_user_id": "U0114RYKXU7"
    },
    {
        "type": "message",
        "subtype": "bot_message",
        "text": "Cześć <@U0119HL9LDV> :flag-pl:",
        "ts": "1585752204.248100",
        "username": "GreetBot",
        "bot_id": "B0100JVEKUG"
    },
    {
        "client_msg_id": "52d911e0-4520-473a-a737-3ed4da1eacf7",
        "type": "message",
        "text": "Hello everyone. This is Aditya Sakare from Mumbai,India. I am pursuing Biomedical engineering. I am looking forward to join the group project which can help to fight with COVID -19 virus. \nSkills: Electronics, Data analytics, machine learning, application development",
        "user": "U01028XMJA3",
        "ts": "1585752255.248400",
        "team": "TUU48M0T1",
        "user_team": "TUU48M0T1",
        "source_team": "TUU48M0T1",
        "user_profile": {
            "avatar_hash": "gdd8bea24253",
            "image_72": "https:\/\/secure.gravatar.com\/avatar\/dd8bea242535cbba1052cada44ee2243.jpg?s=72&d=https%3A%2F%2Fa.slack-edge.com%2Fdf10d%2Fimg%2Favatars%2Fava_0022-72.png",
            "first_name": "",
            "real_name": "Aditya Sakare",
            "display_name": "",
            "team": "TUU48M0T1",
            "name": "aditya.sakare16",
            "is_restricted": false,
            "is_ultra_restricted": false
        },
        "blocks": [
            {
                "type": "rich_text",
                "block_id": "PVX",
                "elements": [
                    {
                        "type": "rich_text_section",
                        "elements": [
                            {
                                "type": "text",
                                "text": "Hello everyone. This is Aditya Sakare from Mumbai,India. I am pursuing Biomedical engineering. I am looking forward to join the group project which can help to fight with COVID -19 virus. \nSkills: Electronics, Data analytics, machine learning, application development"
                            }
                        ]
                    }
                ]
            }
        ],
        "reactions": [
            {
                "name": "wave",
                "users": [
                    "UV02WET96",
                    "U0117K6R72Q",
                    "UV9V03C8Y"
                ],
                "count": 3
            }
        ]
    },
    {
        "type": "message",
        "subtype": "bot_message",
        "text": "Hallå <@U010W2Z4MMZ> :flag-se:",
        "ts": "1585752335.248700",
        "username": "GreetBot",
        "bot_id": "B0100JVEKUG"
    },
    {
        "client_msg_id": "054a3386-a0c5-4c13-9be0-80d2434f9ed5",
        "type": "message",
        "text": "Hello\n\nWe have a project started and still looking for collaborators. The team is getting pretty strong. I thought you might be able and interested to contribute.\nFor convenience and clarity I added all the links to the main project page so we only need to know the one link.<http:\/\/specyal.com\/diybio\/bioreactor.html>\n\nUnder that we linked our general document, the slack address, the JOGL address, the proposal document etc.\n\nOne Link to rule them ALL\n\nWe will use Slack for communication so please join us in Slack for chat like communication.",
        "user": "U0103SR759U",
        "ts": "1585757039.249400",
        "team": "TUU48M0T1",
        "user_team": "TUU48M0T1",
        "source_team": "TUU48M0T1",
        "user_profile": {
            "avatar_hash": "g2694d379600",
            "image_72": "https:\/\/secure.gravatar.com\/avatar\/2694d3796008843d36d4b6ceff7f8660.jpg?s=72&d=https%3A%2F%2Fa.slack-edge.com%2Fdf10d%2Fimg%2Favatars%2Fava_0010-72.png",
            "first_name": "Adrian",
            "real_name": "Adrian Molecule",
            "display_name": "Adrian Molecule",
            "team": "TUU48M0T1",
            "name": "tada",
            "is_restricted": false,
            "is_ultra_restricted": false
        },
        "attachments": [
            {
                "title": "Ottawa Bio Science - Bioreactor",
                "title_link": "http:\/\/specyal.com\/diybio\/bioreactor.html",
                "text": "Ottawa DIYBio",
                "fallback": "Ottawa Bio Science - Bioreactor",
                "from_url": "http:\/\/specyal.com\/diybio\/bioreactor.html",
                "service_name": "specyal.com",
                "id": 1,
                "original_url": "http:\/\/specyal.com\/diybio\/bioreactor.html"
            }
        ],
        "blocks": [
            {
                "type": "rich_text",
                "block_id": "sVA",
                "elements": [
                    {
                        "type": "rich_text_section",
                        "elements": [
                            {
                                "type": "text",
                                "text": "Hello\n\nWe have a project started and still looking for collaborators. The team is getting pretty strong. I thought you might be able and interested to contribute.\nFor convenience and clarity I added all the links to the main project page so we only need to know the one link."
                            },
                            {
                                "type": "link",
                                "url": "http:\/\/specyal.com\/diybio\/bioreactor.html"
                            },
                            {
                                "type": "text",
                                "text": "\n\nUnder that we linked our general document, the slack address, the JOGL address, the proposal document etc.\n\nOne Link to rule them ALL\n\nWe will use Slack for communication so please join us in Slack for chat like communication."
                            }
                        ]
                    }
                ]
            }
        ],
        "reactions": [
            {
                "name": "+1::skin-tone-4",
                "users": [
                    "U0103LPAWQ4"
                ],
                "count": 1
            }
        ]
    },
    {
        "client_msg_id": "5ed41645-c8e3-4fcc-8245-fccfea141e6a",
        "type": "message",
        "text": "Come introduce yourself i nthe global community call now :slightly_smiling_face:",
        "user": "UV02WET96",
        "ts": "1585757073.249900",
        "team": "TUU48M0T1",
        "user_team": "TUU48M0T1",
        "source_team": "TUU48M0T1",
        "user_profile": {
            "avatar_hash": "a99c74a194f8",
            "image_72": "https:\/\/avatars.slack-edge.com\/2020-03-07\/975708504851_a99c74a194f86715ca7d_72.png",
            "first_name": "Thomas",
            "real_name": "Thomas Landrain",
            "display_name": "Thomas Landrain - JOGL CoFounder \/ CEO",
            "team": "TUU48M0T1",
            "name": "thomas",
            "is_restricted": false,
            "is_ultra_restricted": false
        },
        "blocks": [
            {
                "type": "rich_text",
                "block_id": "6dIPw",
                "elements": [
                    {
                        "type": "rich_text_section",
                        "elements": [
                            {
                                "type": "text",
                                "text": "Come introduce yourself i nthe global community call now "
                            },
                            {
                                "type": "emoji",
                                "name": "slightly_smiling_face"
                            }
                        ]
                    }
                ]
            }
        ]
    },
    {
        "client_msg_id": "b8115efd-fc51-4d58-b60c-7862f60820a7",
        "type": "message",
        "text": "Hey folks *@everyone*  :wave::mask:\nOur next community call for the OpenCovid19 initiative is <https:\/\/www.facebook.com\/hashtag\/today?source=feed_text&amp;epa=HASHTAG|#today> 6pm Paris (CET) time - in 90min…\n:point_right: <http:\/\/zoom.us\/j\/7804345815?fbclid=IwAR1uk_a2w_IFQo3gQ287FEUJ0Jwc2wc7Bd4cNMaYebL7qfFfIbGL4f7nHTw|zoom.us\/j\/7804345815>\nPlease join us to share your latest advancements or find out about how to help :slightly_smiling_face:",
        "user": "UV02WET96",
        "ts": "1585757087.250100",
        "team": "TUU48M0T1",
        "user_team": "TUU48M0T1",
        "source_team": "TUU48M0T1",
        "user_profile": {
            "avatar_hash": "a99c74a194f8",
            "image_72": "https:\/\/avatars.slack-edge.com\/2020-03-07\/975708504851_a99c74a194f86715ca7d_72.png",
            "first_name": "Thomas",
            "real_name": "Thomas Landrain",
            "display_name": "Thomas Landrain - JOGL CoFounder \/ CEO",
            "team": "TUU48M0T1",
            "name": "thomas",
            "is_restricted": false,
            "is_ultra_restricted": false
        },
        "edited": {
            "user": "UV02WET96",
            "ts": "1585757096.000000"
        },
        "blocks": [
            {
                "type": "rich_text",
                "block_id": "GQ=x",
                "elements": [
                    {
                        "type": "rich_text_section",
                        "elements": [
                            {
                                "type": "text",
                                "text": "Hey folks "
                            },
                            {
                                "type": "text",
                                "text": "@everyone",
                                "style": {
                                    "bold": true
                                }
                            },
                            {
                                "type": "text",
                                "text": "  "
                            },
                            {
                                "type": "emoji",
                                "name": "wave"
                            },
                            {
                                "type": "emoji",
                                "name": "mask"
                            },
                            {
                                "type": "text",
                                "text": "\nOur next community call for the OpenCovid19 initiative is "
                            },
                            {
                                "type": "link",
                                "url": "https:\/\/www.facebook.com\/hashtag\/today?source=feed_text&epa=HASHTAG",
                                "text": "#today"
                            },
                            {
                                "type": "text",
                                "text": " 6pm Paris (CET) time - in 90min…\n"
                            },
                            {
                                "type": "emoji",
                                "name": "point_right"
                            },
                            {
                                "type": "text",
                                "text": " "
                            },
                            {
                                "type": "link",
                                "url": "http:\/\/zoom.us\/j\/7804345815?fbclid=IwAR1uk_a2w_IFQo3gQ287FEUJ0Jwc2wc7Bd4cNMaYebL7qfFfIbGL4f7nHTw",
                                "text": "zoom.us\/j\/7804345815"
                            },
                            {
                                "type": "text",
                                "text": "\nPlease join us to share your latest advancements or find out about how to help "
                            },
                            {
                                "type": "emoji",
                                "name": "slightly_smiling_face"
                            }
                        ]
                    }
                ]
            }
        ],
        "thread_ts": "1585757087.250100",
        "reply_count": 1,
        "reply_users_count": 1,
        "latest_reply": "1585763296.251800",
        "reply_users": [
            "U0101DKUALV"
        ],
        "replies": [
            {
                "user": "U0101DKUALV",
                "ts": "1585763296.251800"
            }
        ],
        "subscribed": false
    },
    {
        "type": "message",
        "subtype": "bot_message",
        "text": "Dobryy den’ <@U01181TG37X> :flag-ua:",
        "ts": "1585762358.250600",
        "username": "GreetBot",
        "bot_id": "B0100JVEKUG"
    },
    {
        "type": "message",
        "subtype": "bot_message",
        "text": "Hérete <@U0117K6R72Q> :flag-gr:",
        "ts": "1585762907.250900",
        "username": "GreetBot",
        "bot_id": "B0100JVEKUG"
    },
    {
        "client_msg_id": "09AEA268-3AC5-4705-85E4-89F9074511E1",
        "type": "message",
        "text": "Hi, I’m william a Radiologist from Uganda. ",
        "user": "U0117K6R72Q",
        "ts": "1585763115.251700",
        "team": "TUU48M0T1",
        "user_team": "TUU48M0T1",
        "source_team": "TUU48M0T1",
        "user_profile": {
            "avatar_hash": "g392fa287fb0",
            "image_72": "https:\/\/secure.gravatar.com\/avatar\/392fa287fb0e22fba144bd6a1e029dc0.jpg?s=72&d=https%3A%2F%2Fa.slack-edge.com%2Fdf10d%2Fimg%2Favatars%2Fava_0004-72.png",
            "first_name": "Dr.",
            "real_name": "Dr. William K Olwit",
            "display_name": "drwill",
            "team": "TUU48M0T1",
            "name": "williamkaen",
            "is_restricted": false,
            "is_ultra_restricted": false
        },
        "blocks": [
            {
                "type": "rich_text",
                "block_id": "Vcd",
                "elements": [
                    {
                        "type": "rich_text_section",
                        "elements": [
                            {
                                "type": "text",
                                "text": "Hi, I’m william a Radiologist from Uganda. "
                            }
                        ]
                    }
                ]
            }
        ],
        "thread_ts": "1585763115.251700",
        "reply_count": 1,
        "reply_users_count": 1,
        "latest_reply": "1585781774.254300",
        "reply_users": [
            "UV02WET96"
        ],
        "replies": [
            {
                "user": "UV02WET96",
                "ts": "1585781774.254300"
            }
        ],
        "subscribed": false,
        "reactions": [
            {
                "name": "wave",
                "users": [
                    "UV02WET96"
                ],
                "count": 1
            },
            {
                "name": "heart",
                "users": [
                    "UV9V03C8Y"
                ],
                "count": 1
            }
        ]
    },
    {
        "client_msg_id": "608e9945-19f1-473e-adfa-e122c73624fd",
        "type": "message",
        "text": "Ack, I ignored my Google calendar and forgot Daylight Savings Time happened for Europe recently.... Looking forward to next week!",
        "user": "U0101DKUALV",
        "ts": "1585763296.251800",
        "team": "TUU48M0T1",
        "user_team": "TUU48M0T1",
        "source_team": "TUU48M0T1",
        "user_profile": {
            "avatar_hash": "b0aee06ed3e5",
            "image_72": "https:\/\/avatars.slack-edge.com\/2020-04-22\/1072886325190_b0aee06ed3e501ebdf56_72.png",
            "first_name": "",
            "real_name": "Pauline Chane",
            "display_name": "Pauline Chane",
            "team": "TUU48M0T1",
            "name": "pauline.chane",
            "is_restricted": false,
            "is_ultra_restricted": false
        },
        "blocks": [
            {
                "type": "rich_text",
                "block_id": "a5o",
                "elements": [
                    {
                        "type": "rich_text_section",
                        "elements": [
                            {
                                "type": "text",
                                "text": "Ack, I ignored my Google calendar and forgot Daylight Savings Time happened for Europe recently.... Looking forward to next week!"
                            }
                        ]
                    }
                ]
            }
        ],
        "thread_ts": "1585757087.250100",
        "parent_user_id": "UV02WET96"
    },
    {
        "client_msg_id": "6ef9c0ba-ed52-417f-81f3-b8ccc1a5df55",
        "type": "message",
        "text": "ok lets see what's up",
        "user": "U010RE9CWUW",
        "ts": "1585766862.252100",
        "team": "TUU48M0T1",
        "user_team": "TUU48M0T1",
        "source_team": "TUU48M0T1",
        "user_profile": {
            "avatar_hash": "g9bb97ee1ccb",
            "image_72": "https:\/\/secure.gravatar.com\/avatar\/9bb97ee1ccb747c1e108cf7b9d48e7d2.jpg?s=72&d=https%3A%2F%2Fa.slack-edge.com%2Fdf10d%2Fimg%2Favatars%2Fava_0016-72.png",
            "first_name": "",
            "real_name": "Žarko Asen",
            "display_name": "",
            "team": "TUU48M0T1",
            "name": "asenzz",
            "is_restricted": false,
            "is_ultra_restricted": false
        },
        "blocks": [
            {
                "type": "rich_text",
                "block_id": "LBikK",
                "elements": [
                    {
                        "type": "rich_text_section",
                        "elements": [
                            {
                                "type": "text",
                                "text": "ok lets see what's up"
                            }
                        ]
                    }
                ]
            }
        ],
        "thread_ts": "1585085338.424200",
        "parent_user_id": "U010RE9CWUW"
    },
    {
        "client_msg_id": "0d3f5c59-c0c1-4c5d-9415-b9c72d99ed3c",
        "type": "message",
        "text": "Hi all, I'm interested in practice guidelines and I'm very alarmed at the blanket ban on methylprednisone. Practice guidelines generally tell doctors not to use it which is dangerous because people in hyperinflammatory states need it. More to follow. Opinion may be changing but the faster it changes the more lives to save. Here's one practice guideline that said not to use it a month ago: <https:\/\/emcrit.org\/wp-content\/uploads\/2020\/03\/COVID-19-EMCrit-Project3-16.pdf> and the most recent version says it may help especially in those who develop hyperinflammation. <https:\/\/emcrit.org\/ibcc\/covid19\/>. My very VERY rough notes are here (<https:\/\/docs.google.com\/document\/d\/1pYvFIeIFk2KZ1YyL7WQDw5xAALPFzaNyX6V4d9DZQ3U\/edit?usp=sharing>) for anyone interested. I'm not a good writer, but I want to write newspapers and professional orgs to change practice guidelines because right now they are set to hurt people because docs are told NOT to use life-saving medicine.",
        "user": "U01181TG37X",
        "ts": "1585769856.252400",
        "team": "TUU48M0T1",
        "user_team": "TUU48M0T1",
        "source_team": "TUU48M0T1",
        "user_profile": {
            "avatar_hash": "gd289e036ea7",
            "image_72": "https:\/\/secure.gravatar.com\/avatar\/d289e036ea7edb5e2f513ff27eacc080.jpg?s=72&d=https%3A%2F%2Fa.slack-edge.com%2Fdf10d%2Fimg%2Favatars%2Fava_0006-72.png",
            "first_name": "",
            "real_name": "Mary Paniscus",
            "display_name": "Mary Paniscus",
            "team": "TUU48M0T1",
            "name": "marypaniscus",
            "is_restricted": false,
            "is_ultra_restricted": false
        },
        "attachments": [
            {
                "service_name": "EMCrit Project",
                "title": "COVID-19 - EMCrit Project",
                "title_link": "https:\/\/emcrit.org\/ibcc\/covid19\/",
                "text": " Last updated 3\/29 CONTENTS Basic biology Infection control Transmission Personal protective equipment (PPE) Diagnosis Signs &amp; symptoms Labs Imaging CXR &amp; CT scan Lung ultrasonography General approach to imaging Bronchoscopy Diagnostic approach for admitted patients Treatment: General protocols Protocol for hypoxemic, non-intubated patients Protocol for intubated patients Treatment: Specific anti-viral &amp; immunosuppressive therapies Anti-viral therapies …",
                "fallback": "EMCrit Project: COVID-19 - EMCrit Project",
                "image_url": "https:\/\/i1.wp.com\/emcrit.org\/wp-content\/uploads\/2020\/03\/coronatopbrief.jpg?fit=1000%2C240&ssl=1",
                "image_width": 1000,
                "image_height": 240,
                "from_url": "https:\/\/emcrit.org\/ibcc\/covid19\/",
                "image_bytes": 15298,
                "service_icon": "https:\/\/emcrit.org\/wp-content\/themes\/magazine-pro\/images\/favicon.ico",
                "id": 1,
                "original_url": "https:\/\/emcrit.org\/ibcc\/covid19\/"
            }
        ],
        "blocks": [
            {
                "type": "rich_text",
                "block_id": "tHUO",
                "elements": [
                    {
                        "type": "rich_text_section",
                        "elements": [
                            {
                                "type": "text",
                                "text": "Hi all, I'm interested in practice guidelines and I'm very alarmed at the blanket ban on methylprednisone. Practice guidelines generally tell doctors not to use it which is dangerous because people in hyperinflammatory states need it. More to follow. Opinion may be changing but the faster it changes the more lives to save. Here's one practice guideline that said not to use it a month ago: "
                            },
                            {
                                "type": "link",
                                "url": "https:\/\/emcrit.org\/wp-content\/uploads\/2020\/03\/COVID-19-EMCrit-Project3-16.pdf"
                            },
                            {
                                "type": "text",
                                "text": " and the most recent version says it may help especially in those who develop hyperinflammation. "
                            },
                            {
                                "type": "link",
                                "url": "https:\/\/emcrit.org\/ibcc\/covid19\/"
                            },
                            {
                                "type": "text",
                                "text": ". My very VERY rough notes are here ("
                            },
                            {
                                "type": "link",
                                "url": "https:\/\/docs.google.com\/document\/d\/1pYvFIeIFk2KZ1YyL7WQDw5xAALPFzaNyX6V4d9DZQ3U\/edit?usp=sharing"
                            },
                            {
                                "type": "text",
                                "text": ") for anyone interested. I'm not a good writer, but I want to write newspapers and professional orgs to change practice guidelines because right now they are set to hurt people because docs are told NOT to use life-saving medicine."
                            }
                        ]
                    }
                ]
            }
        ]
    },
    {
        "type": "message",
        "subtype": "bot_message",
        "text": "Habari <@U010X289003> :flag-tz:",
        "ts": "1585771926.252900",
        "username": "GreetBot",
        "bot_id": "B0100JVEKUG"
    },
    {
        "type": "message",
        "subtype": "bot_message",
        "text": "Hérete <@U010XCGM3JP> :flag-gr:",
        "ts": "1585779588.253200",
        "username": "GreetBot",
        "bot_id": "B0100JVEKUG"
    },
    {
        "type": "message",
        "subtype": "bot_message",
        "text": "Sawadi Kap <@U0118A1U6MS> :flag-th:",
        "ts": "1585779680.253600",
        "username": "GreetBot",
        "bot_id": "B0100JVEKUG"
    },
    {
        "client_msg_id": "4a7daa70-1405-4cb8-96c9-aad14c28432f",
        "type": "message",
        "text": "Hi everyone, glad to be a part of this!",
        "user": "U010XCGM3JP",
        "ts": "1585779690.253800",
        "team": "TUU48M0T1",
        "user_team": "TUU48M0T1",
        "source_team": "TUU48M0T1",
        "user_profile": {
            "avatar_hash": "g05e6161964e",
            "image_72": "https:\/\/secure.gravatar.com\/avatar\/05e6161964e331529690e4ea3c129ecb.jpg?s=72&d=https%3A%2F%2Fa.slack-edge.com%2Fdf10d%2Fimg%2Favatars%2Fava_0002-72.png",
            "first_name": "",
            "real_name": "Lorenzo",
            "display_name": "Lorenzo",
            "team": "TUU48M0T1",
            "name": "lorenzo.fornari",
            "is_restricted": false,
            "is_ultra_restricted": false
        },
        "blocks": [
            {
                "type": "rich_text",
                "block_id": "eGmaD",
                "elements": [
                    {
                        "type": "rich_text_section",
                        "elements": [
                            {
                                "type": "text",
                                "text": "Hi everyone, glad to be a part of this!"
                            }
                        ]
                    }
                ]
            }
        ],
        "reactions": [
            {
                "name": "wave",
                "users": [
                    "UV02WET96",
                    "UV2SC7ZE3"
                ],
                "count": 2
            }
        ]
    },
    {
        "type": "message",
        "subtype": "bot_message",
        "text": "Habari <@U010XCPKSE7> :flag-tz:",
        "ts": "1585779785.254100",
        "username": "GreetBot",
        "bot_id": "B0100JVEKUG"
    },
    {
        "client_msg_id": "ad01d1bb-af02-4a31-b3db-a1bde6e68761",
        "type": "message",
        "text": "Great to see you here William! :slightly_smiling_face:\nYou should check the <#C0115JPGF0D|chlg-data-analysis-simulation> and <#C0114N5M8TF|opencovid19-africa> channels",
        "user": "UV02WET96",
        "ts": "1585781774.254300",
        "team": "TUU48M0T1",
        "user_team": "TUU48M0T1",
        "source_team": "TUU48M0T1",
        "user_profile": {
            "avatar_hash": "a99c74a194f8",
            "image_72": "https:\/\/avatars.slack-edge.com\/2020-03-07\/975708504851_a99c74a194f86715ca7d_72.png",
            "first_name": "Thomas",
            "real_name": "Thomas Landrain",
            "display_name": "Thomas Landrain - JOGL CoFounder \/ CEO",
            "team": "TUU48M0T1",
            "name": "thomas",
            "is_restricted": false,
            "is_ultra_restricted": false
        },
        "blocks": [
            {
                "type": "rich_text",
                "block_id": "mY4C",
                "elements": [
                    {
                        "type": "rich_text_section",
                        "elements": [
                            {
                                "type": "text",
                                "text": "Great to see you here William! "
                            },
                            {
                                "type": "emoji",
                                "name": "slightly_smiling_face"
                            },
                            {
                                "type": "text",
                                "text": "\nYou should check the "
                            },
                            {
                                "type": "channel",
                                "channel_id": "C0115JPGF0D"
                            },
                            {
                                "type": "text",
                                "text": " and "
                            },
                            {
                                "type": "channel",
                                "channel_id": "C0114N5M8TF"
                            },
                            {
                                "type": "text",
                                "text": " channels"
                            }
                        ]
                    }
                ]
            }
        ],
        "thread_ts": "1585763115.251700",
        "parent_user_id": "U0117K6R72Q"
    },
    {
        "client_msg_id": "cecbbf93-17ea-4dbc-a51b-0c3ff973997d",
        "type": "message",
        "text": "Hello from Canada!!:wave:",
        "user": "U010Q3G4MDF",
        "ts": "1585785627.255000",
        "team": "TUU48M0T1",
        "user_team": "TUU48M0T1",
        "source_team": "TUU48M0T1",
        "user_profile": {
            "avatar_hash": "6491cecebbee",
            "image_72": "https:\/\/avatars.slack-edge.com\/2020-04-01\/1029339031538_6491cecebbeeed99b757_72.png",
            "first_name": "Angela",
            "real_name": "Angela Peebles",
            "display_name": "Angela Peebles",
            "team": "TUU48M0T1",
            "name": "angelapeebles2018",
            "is_restricted": false,
            "is_ultra_restricted": false
        },
        "blocks": [
            {
                "type": "rich_text",
                "block_id": "TUdO",
                "elements": [
                    {
                        "type": "rich_text_section",
                        "elements": [
                            {
                                "type": "text",
                                "text": "Hello from Canada!!"
                            },
                            {
                                "type": "emoji",
                                "name": "wave"
                            }
                        ]
                    }
                ]
            }
        ]
    },
    {
        "type": "message",
        "subtype": "bot_message",
        "text": "Sawadi Kap <@U010WDTJA90> :flag-th:",
        "ts": "1585791571.255500",
        "username": "GreetBot",
        "bot_id": "B0100JVEKUG"
    },
    {
        "type": "message",
        "subtype": "bot_message",
        "text": "Guten tag <@U0118T0THTP> :flag-de:",
        "ts": "1585794845.255900",
        "username": "GreetBot",
        "bot_id": "B0100JVEKUG"
    },
    {
        "type": "message",
        "subtype": "bot_message",
        "text": "Sawadi Kap <@U010XUF2L9Z> :flag-th:",
        "ts": "1585801821.256200",
        "username": "GreetBot",
        "bot_id": "B0100JVEKUG"
    }
]