[
    {
        "type": "message",
        "subtype": "bot_message",
        "text": "Cześć <@U012R8TDBGT> :flag-pl:",
        "ts": "1588152422.090400",
        "username": "GreetBot",
        "bot_id": "B0100JVEKUG"
    },
    {
        "type": "message",
        "subtype": "bot_message",
        "text": "Dobryy den’ <@U012PSB1A1K> :flag-ua:",
        "ts": "1588158770.090600",
        "username": "GreetBot",
        "bot_id": "B0100JVEKUG"
    },
    {
        "type": "message",
        "subtype": "bot_message",
        "text": "Namaste <@U012AKH7763> :flag-in:",
        "ts": "1588162957.090800",
        "username": "GreetBot",
        "bot_id": "B0100JVEKUG"
    },
    {
        "client_msg_id": "b6e735ca-f0bd-464f-89fc-b52967bc4583",
        "type": "message",
        "text": "Hi everyone! I'm based in South London, I'd like to help assembling 3d printed masks, who shall I contact?",
        "user": "U012AKH7763",
        "ts": "1588163448.092500",
        "team": "TUU48M0T1",
        "user_team": "TUU48M0T1",
        "source_team": "TUU48M0T1",
        "user_profile": {
            "avatar_hash": "g606283bb152",
            "image_72": "https:\/\/secure.gravatar.com\/avatar\/606283bb152215048aea6bdb56a83bd0.jpg?s=72&d=https%3A%2F%2Fa.slack-edge.com%2Fdf10d%2Fimg%2Favatars%2Fava_0020-72.png",
            "first_name": "",
            "real_name": "Giuliana LS",
            "display_name": "Giuliana LS",
            "team": "TUU48M0T1",
            "name": "giuliana.britishcounc",
            "is_restricted": false,
            "is_ultra_restricted": false
        },
        "blocks": [
            {
                "type": "rich_text",
                "block_id": "4hr",
                "elements": [
                    {
                        "type": "rich_text_section",
                        "elements": [
                            {
                                "type": "text",
                                "text": "Hi everyone! I'm based in South London, I'd like to help assembling 3d printed masks, who shall I contact?"
                            }
                        ]
                    }
                ]
            }
        ],
        "thread_ts": "1588163448.092500",
        "reply_count": 5,
        "reply_users_count": 3,
        "latest_reply": "1588682293.109300",
        "reply_users": [
            "UV02WET96",
            "U012AKH7763",
            "U011B6VLM2A"
        ],
        "replies": [
            {
                "user": "UV02WET96",
                "ts": "1588164612.094100"
            },
            {
                "user": "U012AKH7763",
                "ts": "1588171035.094400"
            },
            {
                "user": "U012AKH7763",
                "ts": "1588678497.108700"
            },
            {
                "user": "U011B6VLM2A",
                "ts": "1588680884.109000"
            },
            {
                "user": "U012AKH7763",
                "ts": "1588682293.109300"
            }
        ],
        "subscribed": false,
        "reactions": [
            {
                "name": "wave",
                "users": [
                    "UV02WET96",
                    "U012JRY6Q4A"
                ],
                "count": 2
            }
        ]
    },
    {
        "client_msg_id": "1C66BD84-D17D-4619-B8BF-5CACE9C6268C",
        "type": "message",
        "text": "Hi Giuliana, welcome :) \nYou should check the 3D printed masks projects on the JOGL platform and propose your help :+1:",
        "user": "UV02WET96",
        "ts": "1588164612.094100",
        "team": "TUU48M0T1",
        "user_team": "TUU48M0T1",
        "source_team": "TUU48M0T1",
        "user_profile": {
            "avatar_hash": "a99c74a194f8",
            "image_72": "https:\/\/avatars.slack-edge.com\/2020-03-07\/975708504851_a99c74a194f86715ca7d_72.png",
            "first_name": "Thomas",
            "real_name": "Thomas Landrain",
            "display_name": "Thomas Landrain - JOGL CoFounder \/ CEO",
            "team": "TUU48M0T1",
            "name": "thomas",
            "is_restricted": false,
            "is_ultra_restricted": false
        },
        "blocks": [
            {
                "type": "rich_text",
                "block_id": "Ilui0",
                "elements": [
                    {
                        "type": "rich_text_section",
                        "elements": [
                            {
                                "type": "text",
                                "text": "Hi Giuliana, welcome :) \nYou should check the 3D printed masks projects on the JOGL platform and propose your help "
                            },
                            {
                                "type": "emoji",
                                "name": "+1"
                            }
                        ]
                    }
                ]
            }
        ],
        "thread_ts": "1588163448.092500",
        "parent_user_id": "U012AKH7763"
    },
    {
        "client_msg_id": "aebc2ac7-411c-4216-85e0-8299b6e78e72",
        "type": "message",
        "text": "Thanks Thomas",
        "user": "U012AKH7763",
        "ts": "1588171035.094400",
        "team": "TUU48M0T1",
        "user_team": "TUU48M0T1",
        "source_team": "TUU48M0T1",
        "user_profile": {
            "avatar_hash": "g606283bb152",
            "image_72": "https:\/\/secure.gravatar.com\/avatar\/606283bb152215048aea6bdb56a83bd0.jpg?s=72&d=https%3A%2F%2Fa.slack-edge.com%2Fdf10d%2Fimg%2Favatars%2Fava_0020-72.png",
            "first_name": "",
            "real_name": "Giuliana LS",
            "display_name": "Giuliana LS",
            "team": "TUU48M0T1",
            "name": "giuliana.britishcounc",
            "is_restricted": false,
            "is_ultra_restricted": false
        },
        "blocks": [
            {
                "type": "rich_text",
                "block_id": "s51mM",
                "elements": [
                    {
                        "type": "rich_text_section",
                        "elements": [
                            {
                                "type": "text",
                                "text": "Thanks Thomas"
                            }
                        ]
                    }
                ]
            }
        ],
        "thread_ts": "1588163448.092500",
        "parent_user_id": "U012AKH7763"
    },
    {
        "type": "message",
        "subtype": "bot_message",
        "text": "Cześć <@U012K7JSL7Q> :flag-pl:",
        "ts": "1588175895.094700",
        "username": "GreetBot",
        "bot_id": "B0100JVEKUG"
    },
    {
        "type": "message",
        "subtype": "bot_message",
        "text": "Ohayo <@U012Y8AJMBN> :flag-jp:",
        "ts": "1588178186.095000",
        "username": "GreetBot",
        "bot_id": "B0100JVEKUG"
    },
    {
        "type": "message",
        "subtype": "bot_message",
        "text": "Marhaba <@U0134PD5AMP> :flag-eg:",
        "ts": "1588179628.095200",
        "username": "GreetBot",
        "bot_id": "B0100JVEKUG"
    },
    {
        "client_msg_id": "6aac9c71-a2dc-4f63-988b-a0109b56ab3a",
        "type": "message",
        "text": "Hello All!",
        "user": "U0134PD5AMP",
        "ts": "1588180240.095400",
        "team": "TUU48M0T1",
        "user_team": "TUU48M0T1",
        "source_team": "TUU48M0T1",
        "user_profile": {
            "avatar_hash": "4cb6ecaea5e4",
            "image_72": "https:\/\/avatars.slack-edge.com\/2020-04-29\/1092833134645_4cb6ecaea5e4dfbf517b_72.jpg",
            "first_name": "Chris",
            "real_name": "Chris Slavik",
            "display_name": "Chris Slavik",
            "team": "TUU48M0T1",
            "name": "cslav7",
            "is_restricted": false,
            "is_ultra_restricted": false
        },
        "blocks": [
            {
                "type": "rich_text",
                "block_id": "IH3",
                "elements": [
                    {
                        "type": "rich_text_section",
                        "elements": [
                            {
                                "type": "text",
                                "text": "Hello All!"
                            }
                        ]
                    }
                ]
            }
        ],
        "reactions": [
            {
                "name": "wave",
                "users": [
                    "UV02WET96",
                    "U012JRY6Q4A",
                    "U011G0QGFN3"
                ],
                "count": 3
            }
        ]
    },
    {
        "client_msg_id": "e3b2c37f-7956-471c-bdda-f0393848e687",
        "type": "message",
        "text": "Chris here from Niagara Falls, Canada.",
        "user": "U0134PD5AMP",
        "ts": "1588180267.095700",
        "team": "TUU48M0T1",
        "user_team": "TUU48M0T1",
        "source_team": "TUU48M0T1",
        "user_profile": {
            "avatar_hash": "4cb6ecaea5e4",
            "image_72": "https:\/\/avatars.slack-edge.com\/2020-04-29\/1092833134645_4cb6ecaea5e4dfbf517b_72.jpg",
            "first_name": "Chris",
            "real_name": "Chris Slavik",
            "display_name": "Chris Slavik",
            "team": "TUU48M0T1",
            "name": "cslav7",
            "is_restricted": false,
            "is_ultra_restricted": false
        },
        "blocks": [
            {
                "type": "rich_text",
                "block_id": "Xbz",
                "elements": [
                    {
                        "type": "rich_text_section",
                        "elements": [
                            {
                                "type": "text",
                                "text": "Chris here from Niagara Falls, Canada."
                            }
                        ]
                    }
                ]
            }
        ]
    },
    {
        "type": "message",
        "subtype": "bot_message",
        "text": "Guten tag <@U012YDF5XEG> :flag-de:",
        "ts": "1588182033.096000",
        "username": "GreetBot",
        "bot_id": "B0100JVEKUG"
    },
    {
        "type": "message",
        "subtype": "bot_message",
        "text": "Sawadi Kap <@U012R3F0PBP> :flag-th:",
        "ts": "1588186837.096300",
        "username": "GreetBot",
        "bot_id": "B0100JVEKUG"
    },
    {
        "type": "message",
        "subtype": "bot_message",
        "text": "Guten tag <@U012SNWMF7U> :flag-de:",
        "ts": "1588193816.096500",
        "username": "GreetBot",
        "bot_id": "B0100JVEKUG"
    },
    {
        "type": "message",
        "subtype": "bot_message",
        "text": "Dobryy den’ <@U012SQJGMGS> :flag-ua:",
        "ts": "1588195270.096700",
        "username": "GreetBot",
        "bot_id": "B0100JVEKUG"
    },
    {
        "type": "message",
        "subtype": "bot_message",
        "text": "Nǐ hǎo <@U012RP2DPB7> :flag-cn:",
        "ts": "1588208374.096900",
        "username": "GreetBot",
        "bot_id": "B0100JVEKUG"
    },
    {
        "type": "message",
        "subtype": "bot_message",
        "text": "Ohayo <@U012ZLAE5MJ> :flag-jp:",
        "ts": "1588229351.097100",
        "username": "GreetBot",
        "bot_id": "B0100JVEKUG"
    },
    {
        "client_msg_id": "5704E09D-4DAC-426A-AFFC-D4C3350ADF36",
        "type": "message",
        "text": "My name is Servane CLAUDEL, I am part of the <http:\/\/printers-solidaires.ch|printers-solidaires.ch> group. To introduce quickly myself I have a Ph-D micro technique sciences physique pour l'ingénieur from UTBM, MBA IE business School and 3 Prusa printers MK3 at home. \n\n<http:\/\/Printers-solidaires.ch|Printers-solidaires.ch> have produced with volunteers makers more than 2200 face shield in 3D that we give for free to front-liners.\n\nContact me if you have an open source mindset &amp; would like to volunteer ! \n\nAlso looking on HEPA filtering system experts ",
        "user": "U012ZLAE5MJ",
        "ts": "1588229408.098300",
        "team": "TUU48M0T1",
        "user_team": "TUU48M0T1",
        "source_team": "TUU48M0T1",
        "user_profile": {
            "avatar_hash": "g25a89f1a764",
            "image_72": "https:\/\/secure.gravatar.com\/avatar\/25a89f1a7644c9ad6eacff2df324debf.jpg?s=72&d=https%3A%2F%2Fa.slack-edge.com%2Fdf10d%2Fimg%2Favatars%2Fava_0025-72.png",
            "first_name": "",
            "real_name": "Servane Printers-solidaires.ch",
            "display_name": "",
            "team": "TUU48M0T1",
            "name": "printerssolidaires.ch",
            "is_restricted": false,
            "is_ultra_restricted": false
        },
        "edited": {
            "user": "U012ZLAE5MJ",
            "ts": "1588386128.000000"
        },
        "blocks": [
            {
                "type": "rich_text",
                "block_id": "0XSj",
                "elements": [
                    {
                        "type": "rich_text_section",
                        "elements": [
                            {
                                "type": "text",
                                "text": "My name is Servane CLAUDEL, I am part of the "
                            },
                            {
                                "type": "link",
                                "url": "http:\/\/printers-solidaires.ch",
                                "text": "printers-solidaires.ch"
                            },
                            {
                                "type": "text",
                                "text": " group. To introduce quickly myself I have a Ph-D micro technique sciences physique pour l'ingénieur from UTBM, MBA IE business School and 3 Prusa printers MK3 at home. \n\n"
                            },
                            {
                                "type": "link",
                                "url": "http:\/\/Printers-solidaires.ch",
                                "text": "Printers-solidaires.ch"
                            },
                            {
                                "type": "text",
                                "text": " have produced with volunteers makers more than 2200 face shield in 3D that we give for free to front-liners.\n\nContact me if you have an open source mindset & would like to volunteer ! \n\n"
                            },
                            {
                                "type": "text",
                                "text": "Also looking on HEPA filtering system experts "
                            }
                        ]
                    }
                ]
            }
        ],
        "reactions": [
            {
                "name": "wave",
                "users": [
                    "UV02WET96",
                    "U011G0QGFN3"
                ],
                "count": 2
            },
            {
                "name": "+1",
                "users": [
                    "U010W2Z4MMZ"
                ],
                "count": 1
            }
        ]
    },
    {
        "client_msg_id": "7CA0C1BD-E277-40C1-AE93-5541543DE7D3",
        "type": "message",
        "text": "Is there a group working on HEPA filtering air ?",
        "user": "U012ZLAE5MJ",
        "ts": "1588229482.098500",
        "team": "TUU48M0T1",
        "user_team": "TUU48M0T1",
        "source_team": "TUU48M0T1",
        "user_profile": {
            "avatar_hash": "g25a89f1a764",
            "image_72": "https:\/\/secure.gravatar.com\/avatar\/25a89f1a7644c9ad6eacff2df324debf.jpg?s=72&d=https%3A%2F%2Fa.slack-edge.com%2Fdf10d%2Fimg%2Favatars%2Fava_0025-72.png",
            "first_name": "",
            "real_name": "Servane Printers-solidaires.ch",
            "display_name": "",
            "team": "TUU48M0T1",
            "name": "printerssolidaires.ch",
            "is_restricted": false,
            "is_ultra_restricted": false
        },
        "blocks": [
            {
                "type": "rich_text",
                "block_id": "Bk1O",
                "elements": [
                    {
                        "type": "rich_text_section",
                        "elements": [
                            {
                                "type": "text",
                                "text": "Is there a group working on HEPA filtering air ?"
                            }
                        ]
                    }
                ]
            }
        ]
    }
]