[
    {
        "type": "message",
        "subtype": "bot_message",
        "text": "Cześć <@U011RS1D06L> :flag-pl:",
        "ts": "1586503015.425800",
        "username": "GreetBot",
        "bot_id": "B0100JVEKUG"
    },
    {
        "type": "message",
        "subtype": "bot_message",
        "text": "Bonjour <@U0126BVUWTA> :flag-fr:",
        "ts": "1586514138.426000",
        "username": "GreetBot",
        "bot_id": "B0100JVEKUG"
    },
    {
        "type": "message",
        "subtype": "bot_message",
        "text": "Dobryy den’ <@U011VTSJTPB> :flag-ua:",
        "ts": "1586514724.426200",
        "username": "GreetBot",
        "bot_id": "B0100JVEKUG"
    },
    {
        "type": "message",
        "subtype": "bot_message",
        "text": "Hérete <@U0126EXGWQY> :flag-gr:",
        "ts": "1586517635.426400",
        "username": "GreetBot",
        "bot_id": "B0100JVEKUG"
    },
    {
        "client_msg_id": "a124075c-496d-46f0-8f5a-fbf98ad80bec",
        "type": "message",
        "text": "<!channel> *Hi Guys, if you can lend any help to reviewing our current projects please give a hand! every review really helps,*  and takes roughly 10mins. :stopwatch:\n\n*The review process closes this weekend and we need more reviews!* so the earlier the better. The reviews will help decide who gets grants from JOGL!\n\n*Heres how to help.*\n\n*1.   Please find the links to our <https:\/\/docs.google.com\/spreadsheets\/d\/1CQATJl-tyllZyqfHpJqHHe03wxIOEkKPKEdWoCGu-OA\/edit?usp=sharing|grant proposals in this spreadsheet>  *:page_facing_up:\n*2.   Review each project using <https:\/\/forms.gle\/fkMCxjhXKURwXkoK9|this form>*:writing_hand:\n\n*Thank you everyone!!*\n\n*Feel free to share these links! and help gather reviewers.*",
        "user": "UV0RRGB6H",
        "ts": "1586522000.430500",
        "team": "TUU48M0T1",
        "user_team": "TUU48M0T1",
        "source_team": "TUU48M0T1",
        "user_profile": {
            "avatar_hash": "48d4ab64c90c",
            "image_72": "https:\/\/avatars.slack-edge.com\/2020-03-26\/1029789176912_48d4ab64c90c03f3af4a_72.jpg",
            "first_name": "",
            "real_name": "Chris LB Graham",
            "display_name": "",
            "team": "TUU48M0T1",
            "name": "chris.graham",
            "is_restricted": false,
            "is_ultra_restricted": false
        },
        "edited": {
            "user": "UV0RRGB6H",
            "ts": "1586522969.000000"
        },
        "blocks": [
            {
                "type": "rich_text",
                "block_id": "W1j",
                "elements": [
                    {
                        "type": "rich_text_section",
                        "elements": [
                            {
                                "type": "broadcast",
                                "range": "channel"
                            },
                            {
                                "type": "text",
                                "text": " "
                            },
                            {
                                "type": "text",
                                "text": "Hi Guys, if you can lend any help to reviewing our current projects please give a hand! every review really helps,",
                                "style": {
                                    "bold": true
                                }
                            },
                            {
                                "type": "text",
                                "text": "  and takes roughly 10mins. "
                            },
                            {
                                "type": "emoji",
                                "name": "stopwatch"
                            },
                            {
                                "type": "text",
                                "text": "\n\n"
                            },
                            {
                                "type": "text",
                                "text": "The review process closes this weekend and we need more reviews!",
                                "style": {
                                    "bold": true
                                }
                            },
                            {
                                "type": "text",
                                "text": " so the earlier the better. The reviews will help decide who gets grants from JOGL!\n\n"
                            },
                            {
                                "type": "text",
                                "text": "Heres how to help.",
                                "style": {
                                    "bold": true
                                }
                            },
                            {
                                "type": "text",
                                "text": "\n\n"
                            },
                            {
                                "type": "text",
                                "text": "1.   Please find the links to our ",
                                "style": {
                                    "bold": true
                                }
                            },
                            {
                                "type": "link",
                                "url": "https:\/\/docs.google.com\/spreadsheets\/d\/1CQATJl-tyllZyqfHpJqHHe03wxIOEkKPKEdWoCGu-OA\/edit?usp=sharing",
                                "text": "grant proposals in this spreadsheet",
                                "style": {
                                    "bold": true
                                }
                            },
                            {
                                "type": "text",
                                "text": "  ",
                                "style": {
                                    "bold": true
                                }
                            },
                            {
                                "type": "emoji",
                                "name": "page_facing_up",
                                "style": {
                                    "bold": true
                                }
                            },
                            {
                                "type": "text",
                                "text": "\n"
                            },
                            {
                                "type": "text",
                                "text": "2.   Review each project using ",
                                "style": {
                                    "bold": true
                                }
                            },
                            {
                                "type": "link",
                                "url": "https:\/\/forms.gle\/fkMCxjhXKURwXkoK9",
                                "text": "this form",
                                "style": {
                                    "bold": true
                                }
                            },
                            {
                                "type": "emoji",
                                "name": "writing_hand",
                                "style": {
                                    "bold": true
                                }
                            },
                            {
                                "type": "text",
                                "text": "\n\n"
                            },
                            {
                                "type": "text",
                                "text": "Thank you everyone!!",
                                "style": {
                                    "bold": true
                                }
                            },
                            {
                                "type": "text",
                                "text": "\n\n"
                            },
                            {
                                "type": "text",
                                "text": "Feel free to share these links! and help gather reviewers.",
                                "style": {
                                    "bold": true
                                }
                            }
                        ]
                    }
                ]
            }
        ],
        "reactions": [
            {
                "name": "+1",
                "users": [
                    "U010B412MF1",
                    "UV02WET96",
                    "U010BMYLX36"
                ],
                "count": 3
            },
            {
                "name": "heart",
                "users": [
                    "U0119SR5LMT",
                    "UV02WET96"
                ],
                "count": 2
            }
        ]
    },
    {
        "client_msg_id": "b08ada9c-8a11-4abc-9f55-55b1bc5ca1d8",
        "type": "message",
        "text": "<@UV85V64SD> where do you announce data related challenges in slack?\n\n<@UV9V03C8Y>?",
        "user": "U010B412MF1",
        "ts": "1586522899.431200",
        "team": "TUU48M0T1",
        "user_team": "TUU48M0T1",
        "source_team": "TUU48M0T1",
        "user_profile": {
            "avatar_hash": "218d963a797f",
            "image_72": "https:\/\/avatars.slack-edge.com\/2020-03-19\/1013072792629_218d963a797fbf4410c0_72.png",
            "first_name": "",
            "real_name": "liu",
            "display_name": "liu",
            "team": "TUU48M0T1",
            "name": "liubov.tupikina",
            "is_restricted": false,
            "is_ultra_restricted": false
        },
        "blocks": [
            {
                "type": "rich_text",
                "block_id": "11V5",
                "elements": [
                    {
                        "type": "rich_text_section",
                        "elements": [
                            {
                                "type": "user",
                                "user_id": "UV85V64SD"
                            },
                            {
                                "type": "text",
                                "text": " where do you announce data related challenges in slack?\n\n"
                            },
                            {
                                "type": "user",
                                "user_id": "UV9V03C8Y"
                            },
                            {
                                "type": "text",
                                "text": "?"
                            }
                        ]
                    }
                ]
            }
        ],
        "thread_ts": "1586363116.405100"
    },
    {
        "client_msg_id": "fac04f7c-099c-43d8-a2e8-a09a31e6c2cf",
        "type": "message",
        "text": "I mean the challenge you mentioned above on jogl. Tnx. So that i could send it to @david and others",
        "user": "U010B412MF1",
        "ts": "1586522969.431500",
        "team": "TUU48M0T1",
        "user_team": "TUU48M0T1",
        "source_team": "TUU48M0T1",
        "user_profile": {
            "avatar_hash": "218d963a797f",
            "image_72": "https:\/\/avatars.slack-edge.com\/2020-03-19\/1013072792629_218d963a797fbf4410c0_72.png",
            "first_name": "",
            "real_name": "liu",
            "display_name": "liu",
            "team": "TUU48M0T1",
            "name": "liubov.tupikina",
            "is_restricted": false,
            "is_ultra_restricted": false
        },
        "blocks": [
            {
                "type": "rich_text",
                "block_id": "Pfe6",
                "elements": [
                    {
                        "type": "rich_text_section",
                        "elements": [
                            {
                                "type": "text",
                                "text": "I mean the challenge you mentioned above on jogl. Tnx. So that i could send it to @david and others"
                            }
                        ]
                    }
                ]
            }
        ],
        "thread_ts": "1586363116.405100"
    },
    {
        "type": "message",
        "subtype": "bot_message",
        "text": "Hérete <@U011JJUR0AJ> :flag-gr:",
        "ts": "1586523734.431900",
        "username": "GreetBot",
        "bot_id": "B0100JVEKUG"
    },
    {
        "client_msg_id": "501a756e-f09a-4890-af01-087aee57271f",
        "type": "message",
        "text": "This is here <@U010B412MF1> <https:\/\/app.jogl.io\/challenge\/opencovid19-data>",
        "user": "UV85V64SD",
        "ts": "1586524846.432000",
        "team": "TUU48M0T1",
        "user_team": "TUU48M0T1",
        "source_team": "TUU48M0T1",
        "user_profile": {
            "avatar_hash": "1e73a651bdfe",
            "image_72": "https:\/\/avatars.slack-edge.com\/2020-03-16\/1004297548853_1e73a651bdfef2c41501_72.jpg",
            "first_name": "Marc",
            "real_name": "Marc Santolini",
            "display_name": "Marc Santolini - JOGL CoFounder \/ CSO",
            "team": "TUU48M0T1",
            "name": "marc.santolini",
            "is_restricted": false,
            "is_ultra_restricted": false
        },
        "attachments": [
            {
                "title": "JOGL - Just One Giant Lab",
                "title_link": "https:\/\/app.jogl.io\/challenge\/opencovid19-data",
                "text": "JOGL helps sync humanity onto solving our most important social &amp; environmental problems using open science, responsible innovation &amp; continuous learning.",
                "fallback": "JOGL - Just One Giant Lab",
                "thumb_url": "https:\/\/app.jogl.io\/planet.jpg",
                "from_url": "https:\/\/app.jogl.io\/challenge\/opencovid19-data",
                "thumb_width": 2049,
                "thumb_height": 1011,
                "service_icon": "https:\/\/app.jogl.io\/favicon.ico",
                "service_name": "app.jogl.io",
                "id": 1,
                "original_url": "https:\/\/app.jogl.io\/challenge\/opencovid19-data"
            }
        ],
        "blocks": [
            {
                "type": "rich_text",
                "block_id": "+fy",
                "elements": [
                    {
                        "type": "rich_text_section",
                        "elements": [
                            {
                                "type": "text",
                                "text": "This is here "
                            },
                            {
                                "type": "user",
                                "user_id": "U010B412MF1"
                            },
                            {
                                "type": "text",
                                "text": " "
                            },
                            {
                                "type": "link",
                                "url": "https:\/\/app.jogl.io\/challenge\/opencovid19-data"
                            }
                        ]
                    }
                ]
            }
        ],
        "thread_ts": "1586363116.405100"
    },
    {
        "client_msg_id": "addf26a3-af3f-4922-b1f2-9d858bb70efc",
        "type": "message",
        "text": "Ok",
        "user": "U010B412MF1",
        "ts": "1586525358.432400",
        "team": "TUU48M0T1",
        "user_team": "TUU48M0T1",
        "source_team": "TUU48M0T1",
        "user_profile": {
            "avatar_hash": "218d963a797f",
            "image_72": "https:\/\/avatars.slack-edge.com\/2020-03-19\/1013072792629_218d963a797fbf4410c0_72.png",
            "first_name": "",
            "real_name": "liu",
            "display_name": "liu",
            "team": "TUU48M0T1",
            "name": "liubov.tupikina",
            "is_restricted": false,
            "is_ultra_restricted": false
        },
        "blocks": [
            {
                "type": "rich_text",
                "block_id": "oRh",
                "elements": [
                    {
                        "type": "rich_text_section",
                        "elements": [
                            {
                                "type": "text",
                                "text": "Ok"
                            }
                        ]
                    }
                ]
            }
        ],
        "thread_ts": "1586363116.405100"
    },
    {
        "client_msg_id": "9ab407f0-0d5d-4c36-806e-6c7de343a1d7",
        "type": "message",
        "text": "Hi! I am part of a US non-profit initiative to protect medical staff against Covid-19. Please share this link. Thanks <https:\/\/www.protectcovidstaff.com\/>",
        "user": "U011H1K1JBY",
        "ts": "1586531221.433900",
        "team": "TUU48M0T1",
        "user_team": "TUU48M0T1",
        "source_team": "TUU48M0T1",
        "user_profile": {
            "avatar_hash": "g5d8bdb7ace4",
            "image_72": "https:\/\/secure.gravatar.com\/avatar\/5d8bdb7ace40948e5edfb54a4fa20e2f.jpg?s=72&d=https%3A%2F%2Fa.slack-edge.com%2Fdf10d%2Fimg%2Favatars%2Fava_0026-72.png",
            "first_name": "",
            "real_name": "Marie Tremblay",
            "display_name": "Marie Tremblay",
            "team": "TUU48M0T1",
            "name": "marie.tremblay",
            "is_restricted": false,
            "is_ultra_restricted": false
        },
        "attachments": [
            {
                "service_name": "ProtectCovidStaff",
                "title": "Home | Protect Covid staff",
                "title_link": "https:\/\/www.protectcovidstaff.com\/",
                "text": "An ad hoc volunteer group who are trying to “close the gaps” in the provision of life-saving Personal Protective Equipment (PPE) to front line medical staff to help combat the spread of COVID-19.",
                "fallback": "ProtectCovidStaff: Home | Protect Covid staff",
                "image_url": "https:\/\/static.wixstatic.com\/media\/3de527_705c79695f40425d8c3ad2e62dcaf8ce~mv2.jpg\/v1\/fill\/w_6096,h_1777,al_c\/3de527_705c79695f40425d8c3ad2e62dcaf8ce~mv2.jpg",
                "image_width": 858,
                "image_height": 250,
                "from_url": "https:\/\/www.protectcovidstaff.com\/",
                "image_bytes": 1620682,
                "service_icon": "https:\/\/static.wixstatic.com\/media\/3de527_eb665979df044495acf769ec5a15ddad%7Emv2.png\/v1\/fill\/w_32%2Ch_32%2Clg_1%2Cusm_0.66_1.00_0.01\/3de527_eb665979df044495acf769ec5a15ddad%7Emv2.png",
                "id": 1,
                "original_url": "https:\/\/www.protectcovidstaff.com\/"
            }
        ],
        "blocks": [
            {
                "type": "rich_text",
                "block_id": "4ixX\/",
                "elements": [
                    {
                        "type": "rich_text_section",
                        "elements": [
                            {
                                "type": "text",
                                "text": "Hi! I am part of a US non-profit initiative to protect medical staff against Covid-19. Please share this link. Thanks "
                            },
                            {
                                "type": "link",
                                "url": "https:\/\/www.protectcovidstaff.com\/"
                            }
                        ]
                    }
                ]
            }
        ],
        "reactions": [
            {
                "name": "wave",
                "users": [
                    "U010Q3372P3",
                    "UV9V03C8Y",
                    "UV02WET96"
                ],
                "count": 3
            }
        ]
    },
    {
        "type": "message",
        "subtype": "bot_message",
        "text": "Guten tag <@U011JHWPRRB> :flag-de:",
        "ts": "1586541923.434200",
        "username": "GreetBot",
        "bot_id": "B0100JVEKUG"
    },
    {
        "type": "message",
        "subtype": "bot_message",
        "text": "Nǐ hǎo <@U011XCJJ7KK> :flag-cn:",
        "ts": "1586546580.434600",
        "username": "GreetBot",
        "bot_id": "B0100JVEKUG"
    },
    {
        "client_msg_id": "4d1a192c-a2b3-4d97-b4fe-aa1325135862",
        "type": "message",
        "text": "Hello, I have 17 solutions for the Coronavirus which you can see via My MIT Coronavirus challenge link\n<https:\/\/solve.mit.edu\/challenges\/health-security-pandemics\/solutions\/21752|https:\/\/solve.mit.edu\/challenges\/health-security-pandemics\/solutions\/21752>\n<https:\/\/solve.mit.edu\/challenges\/health-security-pandemics\/solutions\/20816|https:\/\/solve.mit.edu\/challenges\/health-security-pandemics\/solutions\/20816> \n<https:\/\/solve.mit.edu\/challenges\/health-security-pandemics\/solutions\/21295|https:\/\/solve.mit.edu\/challenges\/health-security-pandemics\/solutions\/21295> \n<https:\/\/solve.mit.edu\/challenges\/health-security-pandemics\/solutions\/20404|https:\/\/solve.mit.edu\/challenges\/health-security-pandemics\/solutions\/20404> \n<https:\/\/solve.mit.edu\/challenges\/health-security-pandemics\/solutions\/20037|https:\/\/solve.mit.edu\/challenges\/health-security-pandemics\/solutions\/20037> \n<https:\/\/solve.mit.edu\/challenges\/health-security-pandemics\/solutions\/19817|https:\/\/solve.mit.edu\/challenges\/health-security-pandemics\/solutions\/19817> \n<https:\/\/solve.mit.edu\/challenges\/health-security-pandemics\/solutions\/19875|https:\/\/solve.mit.edu\/challenges\/health-security-pandemics\/solutions\/19875> \n<https:\/\/solve.mit.edu\/challenges\/health-security-pandemics\/solutions\/19737|https:\/\/solve.mit.edu\/challenges\/health-security-pandemics\/solutions\/19737> \n<https:\/\/solve.mit.edu\/challenges\/health-security-pandemics\/solutions\/19715|https:\/\/solve.mit.edu\/challenges\/health-security-pandemics\/solutions\/19715> \n<https:\/\/solve.mit.edu\/challenges\/health-security-pandemics\/solutions\/19673|https:\/\/solve.mit.edu\/challenges\/health-security-pandemics\/solutions\/19673> \n<https:\/\/solve.mit.edu\/challenges\/health-security-pandemics\/solutions\/19658|https:\/\/solve.mit.edu\/challenges\/health-security-pandemics\/solutions\/19658> \n<https:\/\/solve.mit.edu\/challenges\/health-security-pandemics\/solutions\/19611|https:\/\/solve.mit.edu\/challenges\/health-security-pandemics\/solutions\/19611> \n<https:\/\/solve.mit.edu\/challenges\/health-security-pandemics\/solutions\/19521|https:\/\/solve.mit.edu\/challenges\/health-security-pandemics\/solutions\/19521> \n<https:\/\/solve.mit.edu\/challenges\/health-security-pandemics\/solutions\/19420|https:\/\/solve.mit.edu\/challenges\/health-security-pandemics\/solutions\/19420> \n<https:\/\/solve.mit.edu\/challenges\/health-security-pandemics\/solutions\/19324|https:\/\/solve.mit.edu\/challenges\/health-security-pandemics\/solutions\/19324>  \n<https:\/\/solve.mit.edu\/challenges\/health-security-pandemics\/solutions\/19521|https:\/\/solve.mit.edu\/challenges\/health-security-pandemics\/solutions\/19521>",
        "user": "U011XCJJ7KK",
        "ts": "1586546952.434900",
        "team": "TUU48M0T1",
        "user_team": "TUU48M0T1",
        "source_team": "TUU48M0T1",
        "user_profile": {
            "avatar_hash": "a14335872167",
            "image_72": "https:\/\/avatars.slack-edge.com\/2020-04-10\/1052948616998_a1433587216787500a0e_72.jpg",
            "first_name": "Anteneh",
            "real_name": "Anteneh Gashaw",
            "display_name": "",
            "team": "TUU48M0T1",
            "name": "antenh.g",
            "is_restricted": false,
            "is_ultra_restricted": false
        },
        "blocks": [
            {
                "type": "rich_text",
                "block_id": "lOWD",
                "elements": [
                    {
                        "type": "rich_text_section",
                        "elements": [
                            {
                                "type": "text",
                                "text": "Hello, I have 17 solutions for the Coronavirus which you can see via My MIT Coronavirus challenge link\n"
                            },
                            {
                                "type": "link",
                                "url": "https:\/\/solve.mit.edu\/challenges\/health-security-pandemics\/solutions\/21752",
                                "text": "https:\/\/solve.mit.edu\/challenges\/health-security-pandemics\/solutions\/21752"
                            },
                            {
                                "type": "text",
                                "text": "\n"
                            },
                            {
                                "type": "link",
                                "url": "https:\/\/solve.mit.edu\/challenges\/health-security-pandemics\/solutions\/20816",
                                "text": "https:\/\/solve.mit.edu\/challenges\/health-security-pandemics\/solutions\/20816"
                            },
                            {
                                "type": "text",
                                "text": " \n"
                            },
                            {
                                "type": "link",
                                "url": "https:\/\/solve.mit.edu\/challenges\/health-security-pandemics\/solutions\/21295",
                                "text": "https:\/\/solve.mit.edu\/challenges\/health-security-pandemics\/solutions\/21295"
                            },
                            {
                                "type": "text",
                                "text": " \n"
                            },
                            {
                                "type": "link",
                                "url": "https:\/\/solve.mit.edu\/challenges\/health-security-pandemics\/solutions\/20404",
                                "text": "https:\/\/solve.mit.edu\/challenges\/health-security-pandemics\/solutions\/20404"
                            },
                            {
                                "type": "text",
                                "text": " \n"
                            },
                            {
                                "type": "link",
                                "url": "https:\/\/solve.mit.edu\/challenges\/health-security-pandemics\/solutions\/20037",
                                "text": "https:\/\/solve.mit.edu\/challenges\/health-security-pandemics\/solutions\/20037"
                            },
                            {
                                "type": "text",
                                "text": " \n"
                            },
                            {
                                "type": "link",
                                "url": "https:\/\/solve.mit.edu\/challenges\/health-security-pandemics\/solutions\/19817",
                                "text": "https:\/\/solve.mit.edu\/challenges\/health-security-pandemics\/solutions\/19817"
                            },
                            {
                                "type": "text",
                                "text": " \n"
                            },
                            {
                                "type": "link",
                                "url": "https:\/\/solve.mit.edu\/challenges\/health-security-pandemics\/solutions\/19875",
                                "text": "https:\/\/solve.mit.edu\/challenges\/health-security-pandemics\/solutions\/19875"
                            },
                            {
                                "type": "text",
                                "text": " \n"
                            },
                            {
                                "type": "link",
                                "url": "https:\/\/solve.mit.edu\/challenges\/health-security-pandemics\/solutions\/19737",
                                "text": "https:\/\/solve.mit.edu\/challenges\/health-security-pandemics\/solutions\/19737"
                            },
                            {
                                "type": "text",
                                "text": " \n"
                            },
                            {
                                "type": "link",
                                "url": "https:\/\/solve.mit.edu\/challenges\/health-security-pandemics\/solutions\/19715",
                                "text": "https:\/\/solve.mit.edu\/challenges\/health-security-pandemics\/solutions\/19715"
                            },
                            {
                                "type": "text",
                                "text": " \n"
                            },
                            {
                                "type": "link",
                                "url": "https:\/\/solve.mit.edu\/challenges\/health-security-pandemics\/solutions\/19673",
                                "text": "https:\/\/solve.mit.edu\/challenges\/health-security-pandemics\/solutions\/19673"
                            },
                            {
                                "type": "text",
                                "text": " \n"
                            },
                            {
                                "type": "link",
                                "url": "https:\/\/solve.mit.edu\/challenges\/health-security-pandemics\/solutions\/19658",
                                "text": "https:\/\/solve.mit.edu\/challenges\/health-security-pandemics\/solutions\/19658"
                            },
                            {
                                "type": "text",
                                "text": " \n"
                            },
                            {
                                "type": "link",
                                "url": "https:\/\/solve.mit.edu\/challenges\/health-security-pandemics\/solutions\/19611",
                                "text": "https:\/\/solve.mit.edu\/challenges\/health-security-pandemics\/solutions\/19611"
                            },
                            {
                                "type": "text",
                                "text": " \n"
                            },
                            {
                                "type": "link",
                                "url": "https:\/\/solve.mit.edu\/challenges\/health-security-pandemics\/solutions\/19521",
                                "text": "https:\/\/solve.mit.edu\/challenges\/health-security-pandemics\/solutions\/19521"
                            },
                            {
                                "type": "text",
                                "text": " \n"
                            },
                            {
                                "type": "link",
                                "url": "https:\/\/solve.mit.edu\/challenges\/health-security-pandemics\/solutions\/19420",
                                "text": "https:\/\/solve.mit.edu\/challenges\/health-security-pandemics\/solutions\/19420"
                            },
                            {
                                "type": "text",
                                "text": " \n"
                            },
                            {
                                "type": "link",
                                "url": "https:\/\/solve.mit.edu\/challenges\/health-security-pandemics\/solutions\/19324",
                                "text": "https:\/\/solve.mit.edu\/challenges\/health-security-pandemics\/solutions\/19324"
                            },
                            {
                                "type": "text",
                                "text": "  \n"
                            },
                            {
                                "type": "link",
                                "url": "https:\/\/solve.mit.edu\/challenges\/health-security-pandemics\/solutions\/19521",
                                "text": "https:\/\/solve.mit.edu\/challenges\/health-security-pandemics\/solutions\/19521"
                            }
                        ]
                    }
                ]
            }
        ],
        "reactions": [
            {
                "name": "+1",
                "users": [
                    "UUWPKNE2E",
                    "U011D8T1Z61"
                ],
                "count": 2
            }
        ]
    },
    {
        "type": "message",
        "subtype": "bot_message",
        "text": "Namaste <@U011MJK2K43> :flag-in:",
        "ts": "1586548367.435100",
        "username": "GreetBot",
        "bot_id": "B0100JVEKUG"
    },
    {
        "type": "message",
        "subtype": "bot_message",
        "text": "Marhaba <@U011LRK6UV8> :flag-eg:",
        "ts": "1586551642.435400",
        "username": "GreetBot",
        "bot_id": "B0100JVEKUG"
    }
]