[
    {
        "type": "message",
        "subtype": "bot_message",
        "text": "Sawadi Kap <@U011DB95VPY> :flag-th:",
        "ts": "1586073363.340000",
        "username": "GreetBot",
        "bot_id": "B0100JVEKUG"
    },
    {
        "type": "message",
        "subtype": "bot_message",
        "text": "Hérete <@U011B5424FR> :flag-gr:",
        "ts": "1586077182.340400",
        "username": "GreetBot",
        "bot_id": "B0100JVEKUG"
    },
    {
        "type": "message",
        "subtype": "bot_message",
        "text": "Cześć <@U011A3NSWL9> :flag-pl:",
        "ts": "1586079616.340700",
        "username": "GreetBot",
        "bot_id": "B0100JVEKUG"
    },
    {
        "type": "message",
        "subtype": "bot_message",
        "text": "Namaste <@U0114ERCC10> :flag-in:",
        "ts": "1586081089.341000",
        "username": "GreetBot",
        "bot_id": "B0100JVEKUG"
    },
    {
        "type": "message",
        "subtype": "bot_message",
        "text": "Namaste <@U0114GRKMGS> :flag-in:",
        "ts": "1586088490.341400",
        "username": "GreetBot",
        "bot_id": "B0100JVEKUG"
    },
    {
        "type": "message",
        "subtype": "bot_message",
        "text": "Hola <@U011DGAK561> :flag-es:",
        "ts": "1586092034.341700",
        "username": "GreetBot",
        "bot_id": "B0100JVEKUG"
    },
    {
        "type": "message",
        "subtype": "bot_message",
        "text": "Hola <@U011A8S06AD> :flag-es:",
        "ts": "1586094029.342000",
        "username": "GreetBot",
        "bot_id": "B0100JVEKUG"
    },
    {
        "type": "message",
        "subtype": "bot_message",
        "text": "Dobryy den’ <@U011FGW893N> :flag-ua:",
        "ts": "1586095107.342300",
        "username": "GreetBot",
        "bot_id": "B0100JVEKUG"
    },
    {
        "type": "message",
        "subtype": "bot_message",
        "text": "Hérete <@U011LHM20HW> :flag-gr:",
        "ts": "1586095436.342600",
        "username": "GreetBot",
        "bot_id": "B0100JVEKUG"
    },
    {
        "type": "message",
        "subtype": "bot_message",
        "text": "Ciao <@U011DENRMFG> :flag-it:",
        "ts": "1586098763.343000",
        "username": "GreetBot",
        "bot_id": "B0100JVEKUG"
    },
    {
        "type": "message",
        "subtype": "bot_message",
        "text": "Guten tag <@U011FJ9GDT6> :flag-de:",
        "ts": "1586099412.344200",
        "username": "GreetBot",
        "bot_id": "B0100JVEKUG"
    },
    {
        "client_msg_id": "724857e8-889e-4109-808f-c21fa37f4b19",
        "type": "message",
        "text": "Welcome <@U0119U5N3T3>!",
        "user": "UV02WET96",
        "ts": "1586099451.344500",
        "team": "TUU48M0T1",
        "user_team": "TUU48M0T1",
        "source_team": "TUU48M0T1",
        "user_profile": {
            "avatar_hash": "a99c74a194f8",
            "image_72": "https:\/\/avatars.slack-edge.com\/2020-03-07\/975708504851_a99c74a194f86715ca7d_72.png",
            "first_name": "Thomas",
            "real_name": "Thomas Landrain",
            "display_name": "Thomas Landrain - JOGL CoFounder \/ CEO",
            "team": "TUU48M0T1",
            "name": "thomas",
            "is_restricted": false,
            "is_ultra_restricted": false
        },
        "blocks": [
            {
                "type": "rich_text",
                "block_id": "a3Y",
                "elements": [
                    {
                        "type": "rich_text_section",
                        "elements": [
                            {
                                "type": "text",
                                "text": "Welcome "
                            },
                            {
                                "type": "user",
                                "user_id": "U0119U5N3T3"
                            },
                            {
                                "type": "text",
                                "text": "!"
                            }
                        ]
                    }
                ]
            }
        ],
        "thread_ts": "1586063151.339500",
        "parent_user_id": "U0119U5N3T3"
    },
    {
        "type": "message",
        "subtype": "bot_message",
        "text": "Hérete <@U011FK9GA5A> :flag-gr:",
        "ts": "1586103029.345000",
        "username": "GreetBot",
        "bot_id": "B0100JVEKUG"
    },
    {
        "type": "message",
        "subtype": "bot_message",
        "text": "Hola <@U011B7UDG6T> :flag-es:",
        "ts": "1586104318.345300",
        "username": "GreetBot",
        "bot_id": "B0100JVEKUG"
    },
    {
        "type": "message",
        "subtype": "bot_message",
        "text": "Hola <@U0115U8LPSP> :flag-es:",
        "ts": "1586104883.345600",
        "username": "GreetBot",
        "bot_id": "B0100JVEKUG"
    },
    {
        "type": "message",
        "subtype": "bot_message",
        "text": "Marhaba <@U011DFJ370E> :flag-eg:",
        "ts": "1586105803.346100",
        "username": "GreetBot",
        "bot_id": "B0100JVEKUG"
    },
    {
        "type": "message",
        "subtype": "bot_message",
        "text": "Habari <@U011B7X7KBR> :flag-tz:",
        "ts": "1586106872.346400",
        "username": "GreetBot",
        "bot_id": "B0100JVEKUG"
    },
    {
        "type": "message",
        "subtype": "bot_message",
        "text": "Olá <@U011FLRK0A0> :flag-pt:",
        "ts": "1586108471.346700",
        "username": "GreetBot",
        "bot_id": "B0100JVEKUG"
    },
    {
        "type": "message",
        "subtype": "bot_message",
        "text": "Hola <@U011DKQFE4D> :flag-es:",
        "ts": "1586110693.347000",
        "username": "GreetBot",
        "bot_id": "B0100JVEKUG"
    },
    {
        "type": "message",
        "subtype": "bot_message",
        "text": "Hola <@U01161SFCNP> :flag-es:",
        "ts": "1586114042.347300",
        "username": "GreetBot",
        "bot_id": "B0100JVEKUG"
    },
    {
        "type": "message",
        "subtype": "bot_message",
        "text": "Nǐ hǎo <@U011B87DK4P> :flag-cn:",
        "ts": "1586116133.347600",
        "username": "GreetBot",
        "bot_id": "B0100JVEKUG"
    },
    {
        "type": "message",
        "subtype": "bot_message",
        "text": "Hérete <@U011DLSJC9K> :flag-gr:",
        "ts": "1586116728.347900",
        "username": "GreetBot",
        "bot_id": "B0100JVEKUG"
    },
    {
        "type": "message",
        "subtype": "bot_message",
        "text": "Annyeong <@U011LTQQBDW> :flag-kr:",
        "ts": "1586119665.348200",
        "username": "GreetBot",
        "bot_id": "B0100JVEKUG"
    },
    {
        "type": "message",
        "subtype": "bot_message",
        "text": "Namaste <@U011DHQ3Z4N> :flag-in:",
        "ts": "1586126496.348700",
        "username": "GreetBot",
        "bot_id": "B0100JVEKUG"
    },
    {
        "client_msg_id": "cf97f787-a689-4214-bf37-74dbb2533c18",
        "type": "message",
        "text": "Hi everyone. I'm a french developer :flag-fr:  , I want to help",
        "user": "U011DHQ3Z4N",
        "ts": "1586126597.349800",
        "team": "TUU48M0T1",
        "user_team": "TUU48M0T1",
        "source_team": "TUU48M0T1",
        "user_profile": {
            "avatar_hash": "9c2df3eda61a",
            "image_72": "https:\/\/avatars.slack-edge.com\/2020-04-06\/1055034589984_9c2df3eda61abd3aae93_72.jpg",
            "first_name": "",
            "real_name": "Guillaume Gautreau",
            "display_name": "Guillaume Gautreau",
            "team": "TUU48M0T1",
            "name": "guillaume",
            "is_restricted": false,
            "is_ultra_restricted": false
        },
        "blocks": [
            {
                "type": "rich_text",
                "block_id": "gSK",
                "elements": [
                    {
                        "type": "rich_text_section",
                        "elements": [
                            {
                                "type": "text",
                                "text": "Hi everyone. I'm a french developer "
                            },
                            {
                                "type": "emoji",
                                "name": "flag-fr"
                            },
                            {
                                "type": "text",
                                "text": "  , I want to help"
                            }
                        ]
                    }
                ]
            }
        ],
        "thread_ts": "1586126597.349800",
        "reply_count": 1,
        "reply_users_count": 1,
        "latest_reply": "1586188861.363300",
        "reply_users": [
            "U010FUDNKHB"
        ],
        "replies": [
            {
                "user": "U010FUDNKHB",
                "ts": "1586188861.363300"
            }
        ],
        "subscribed": false,
        "reactions": [
            {
                "name": "wave",
                "users": [
                    "UV02WET96",
                    "U010FUDNKHB"
                ],
                "count": 2
            }
        ]
    },
    {
        "client_msg_id": "c54cd84a-aadf-45c0-b8a4-254175409898",
        "type": "message",
        "text": "Hi, I'm Yuki, normally based in Switzerland\/UK. Currenlty stuck in Thailand. I'm building a start-up for indoor air monitors <http:\/\/www.sora.care|www.sora.care>, might adapt it for awareness of transmission of bacteria\/virus. Will have access to a 3D printer in 2 days, currently building respirator masks according to stanford's prakash lab's designs and developments.\n• Background in Mechanical engineering  ",
        "user": "U010BGHV36J",
        "ts": "1586148689.352300",
        "team": "TUU48M0T1",
        "user_team": "TUU48M0T1",
        "source_team": "TUU48M0T1",
        "user_profile": {
            "avatar_hash": "gc93c1284f56",
            "image_72": "https:\/\/secure.gravatar.com\/avatar\/c93c1284f560e0690776852d3f5c0747.jpg?s=72&d=https%3A%2F%2Fa.slack-edge.com%2Fdf10d%2Fimg%2Favatars%2Fava_0023-72.png",
            "first_name": "",
            "real_name": "Yuki M",
            "display_name": "Yuki M",
            "team": "TUU48M0T1",
            "name": "yuki.machida",
            "is_restricted": false,
            "is_ultra_restricted": false
        },
        "blocks": [
            {
                "type": "rich_text",
                "block_id": "3Px",
                "elements": [
                    {
                        "type": "rich_text_section",
                        "elements": [
                            {
                                "type": "text",
                                "text": "Hi, I'm Yuki, normally based in Switzerland\/UK. Currenlty stuck in Thailand. I'm building a start-up for indoor air monitors "
                            },
                            {
                                "type": "link",
                                "url": "http:\/\/www.sora.care",
                                "text": "www.sora.care"
                            },
                            {
                                "type": "text",
                                "text": ", might adapt it for awareness of transmission of bacteria\/virus. Will have access to a 3D printer in 2 days, currently building respirator masks according to stanford's prakash lab's designs and developments.\n"
                            }
                        ]
                    },
                    {
                        "type": "rich_text_list",
                        "elements": [
                            {
                                "type": "rich_text_section",
                                "elements": [
                                    {
                                        "type": "text",
                                        "text": "Background in Mechanical engineering  "
                                    }
                                ]
                            }
                        ],
                        "style": "bullet",
                        "indent": 0
                    }
                ]
            }
        ],
        "thread_ts": "1586148689.352300",
        "reply_count": 1,
        "reply_users_count": 1,
        "latest_reply": "1586148824.352400",
        "reply_users": [
            "U010BGHV36J"
        ],
        "replies": [
            {
                "user": "U010BGHV36J",
                "ts": "1586148824.352400"
            }
        ],
        "subscribed": false,
        "reactions": [
            {
                "name": "wave",
                "users": [
                    "UV02WET96"
                ],
                "count": 1
            }
        ]
    },
    {
        "client_msg_id": "a6310452-25f7-45c4-be69-0d81b86dcb96",
        "type": "message",
        "text": "Will be sending out masks to southern parts of poorer regions of thailand where there is low resources.\n\nanyone else in #thailand?",
        "user": "U010BGHV36J",
        "ts": "1586148824.352400",
        "team": "TUU48M0T1",
        "user_team": "TUU48M0T1",
        "source_team": "TUU48M0T1",
        "user_profile": {
            "avatar_hash": "gc93c1284f56",
            "image_72": "https:\/\/secure.gravatar.com\/avatar\/c93c1284f560e0690776852d3f5c0747.jpg?s=72&d=https%3A%2F%2Fa.slack-edge.com%2Fdf10d%2Fimg%2Favatars%2Fava_0023-72.png",
            "first_name": "",
            "real_name": "Yuki M",
            "display_name": "Yuki M",
            "team": "TUU48M0T1",
            "name": "yuki.machida",
            "is_restricted": false,
            "is_ultra_restricted": false
        },
        "blocks": [
            {
                "type": "rich_text",
                "block_id": "Ljn1",
                "elements": [
                    {
                        "type": "rich_text_section",
                        "elements": [
                            {
                                "type": "text",
                                "text": "Will be sending out masks to southern parts of poorer regions of thailand where there is low resources.\n\nanyone else in #thailand?"
                            }
                        ]
                    }
                ]
            }
        ],
        "thread_ts": "1586148689.352300",
        "parent_user_id": "U010BGHV36J",
        "reactions": [
            {
                "name": "+1",
                "users": [
                    "UV1A22N3W"
                ],
                "count": 1
            }
        ]
    }
]