[
    {
        "type": "message",
        "subtype": "bot_message",
        "text": "Olá <@U013EQ95FNV> :flag-pt:",
        "ts": "1588673453.108600",
        "username": "GreetBot",
        "bot_id": "B0100JVEKUG"
    },
    {
        "type": "message",
        "subtype": "thread_broadcast",
        "text": "Hi Thomas, I'm having issue finding the jogl platform. Is there a link? Sorry, I'm new to slack and totally clueless...",
        "user": "U012AKH7763",
        "ts": "1588678497.108700",
        "thread_ts": "1588163448.092500",
        "root": {
            "client_msg_id": "b6e735ca-f0bd-464f-89fc-b52967bc4583",
            "type": "message",
            "text": "Hi everyone! I'm based in South London, I'd like to help assembling 3d printed masks, who shall I contact?",
            "user": "U012AKH7763",
            "ts": "1588163448.092500",
            "team": "TUU48M0T1",
            "blocks": [
                {
                    "type": "rich_text",
                    "block_id": "4hr",
                    "elements": [
                        {
                            "type": "rich_text_section",
                            "elements": [
                                {
                                    "type": "text",
                                    "text": "Hi everyone! I'm based in South London, I'd like to help assembling 3d printed masks, who shall I contact?"
                                }
                            ]
                        }
                    ]
                }
            ],
            "thread_ts": "1588163448.092500",
            "reply_count": 5,
            "reply_users_count": 3,
            "latest_reply": "1588682293.109300",
            "reply_users": [
                "UV02WET96",
                "U012AKH7763",
                "U011B6VLM2A"
            ],
            "subscribed": false
        },
        "blocks": [
            {
                "type": "rich_text",
                "block_id": "+CZ",
                "elements": [
                    {
                        "type": "rich_text_section",
                        "elements": [
                            {
                                "type": "text",
                                "text": "Hi Thomas, I'm having issue finding the jogl platform. Is there a link? Sorry, I'm new to slack and totally clueless..."
                            }
                        ]
                    }
                ]
            }
        ],
        "client_msg_id": "79445379-d022-4325-9728-67ecace1988d"
    },
    {
        "client_msg_id": "dfa089fd-e2ef-4e24-adb0-e51cde764d77",
        "type": "message",
        "text": "Hi <@U012AKH7763> — here’s the link to the JOGL platform: <https:\/\/app.jogl.io\/program\/opencovid19\/> On there you browse through the list of project needs and find projects that need 3D printers and see how you can help!",
        "user": "U011B6VLM2A",
        "ts": "1588680884.109000",
        "team": "TUU48M0T1",
        "user_team": "TUU48M0T1",
        "source_team": "TUU48M0T1",
        "user_profile": {
            "avatar_hash": "4231dc598cfc",
            "image_72": "https:\/\/avatars.slack-edge.com\/2020-04-02\/1044784558839_4231dc598cfc2e59c4c4_72.jpg",
            "first_name": "Alix",
            "real_name": "Alix Mains",
            "display_name": "Alix Mains - JOGL Coordinator",
            "team": "TUU48M0T1",
            "name": "alixhmains",
            "is_restricted": false,
            "is_ultra_restricted": false
        },
        "attachments": [
            {
                "service_name": "JOGL - Just One Giant Lab",
                "title": "OpenCovid19 Initiative | JOGL",
                "title_link": "https:\/\/app.jogl.io\/program\/opencovid19\/",
                "text": "The goal of the OpenCovid19 initiative as a program is to collectively develop open-source and low-cost tools and methodologies that are safe and easy to use to fight the COVID-19 pandemic. Anyone can play a role!",
                "fallback": "JOGL - Just One Giant Lab: OpenCovid19 Initiative | JOGL",
                "thumb_url": "https:\/\/jogl-backend.herokuapp.com\/rails\/active_storage\/representations\/eyJfcmFpbHMiOnsibWVzc2FnZSI6IkJBaHBBcjhEIiwiZXhwIjpudWxsLCJwdXIiOiJibG9iX2lkIn19--3bf40baddfa48d2ce90f483103cd0ea8e20cdce8\/eyJfcmFpbHMiOnsibWVzc2FnZSI6IkJBaDdCam9MY21WemFYcGxTU0lOTkRBd2VEUXdNRjRHT2daRlZBPT0iLCJleHAiOm51bGwsInB1ciI6InZhcmlhdGlvbiJ9fQ==--a35f8ec586c78dc9d1bd1b8dff57088b517bdd00\/bannie%CC%80re%20Open%20Covid%20V1-04.png",
                "from_url": "https:\/\/app.jogl.io\/program\/opencovid19\/",
                "thumb_width": 1238,
                "thumb_height": 400,
                "service_icon": "https:\/\/app.jogl.io\/images\/favicon.ico",
                "id": 1,
                "original_url": "https:\/\/app.jogl.io\/program\/opencovid19\/"
            }
        ],
        "blocks": [
            {
                "type": "rich_text",
                "block_id": "yD=a",
                "elements": [
                    {
                        "type": "rich_text_section",
                        "elements": [
                            {
                                "type": "text",
                                "text": "Hi "
                            },
                            {
                                "type": "user",
                                "user_id": "U012AKH7763"
                            },
                            {
                                "type": "text",
                                "text": " — here’s the link to the JOGL platform: "
                            },
                            {
                                "type": "link",
                                "url": "https:\/\/app.jogl.io\/program\/opencovid19\/"
                            },
                            {
                                "type": "text",
                                "text": " On there you browse through the list of project needs and find projects that need 3D printers and see how you can help!"
                            }
                        ]
                    }
                ]
            }
        ],
        "thread_ts": "1588163448.092500",
        "parent_user_id": "U012AKH7763"
    },
    {
        "client_msg_id": "95f64a38-866c-4b0d-8eef-d82b1f3defad",
        "type": "message",
        "text": "Thanks Alix",
        "user": "U012AKH7763",
        "ts": "1588682293.109300",
        "team": "TUU48M0T1",
        "user_team": "TUU48M0T1",
        "source_team": "TUU48M0T1",
        "user_profile": {
            "avatar_hash": "g606283bb152",
            "image_72": "https:\/\/secure.gravatar.com\/avatar\/606283bb152215048aea6bdb56a83bd0.jpg?s=72&d=https%3A%2F%2Fa.slack-edge.com%2Fdf10d%2Fimg%2Favatars%2Fava_0020-72.png",
            "first_name": "",
            "real_name": "Giuliana LS",
            "display_name": "Giuliana LS",
            "team": "TUU48M0T1",
            "name": "giuliana.britishcounc",
            "is_restricted": false,
            "is_ultra_restricted": false
        },
        "blocks": [
            {
                "type": "rich_text",
                "block_id": "NG4",
                "elements": [
                    {
                        "type": "rich_text_section",
                        "elements": [
                            {
                                "type": "text",
                                "text": "Thanks Alix"
                            }
                        ]
                    }
                ]
            }
        ],
        "thread_ts": "1588163448.092500",
        "parent_user_id": "U012AKH7763"
    },
    {
        "type": "message",
        "subtype": "bot_message",
        "text": "Namaste <@U012MMGH7L7> :flag-in:",
        "ts": "1588682607.109600",
        "username": "GreetBot",
        "bot_id": "B0100JVEKUG"
    },
    {
        "client_msg_id": "b4b37270-2581-4f3a-ab52-feee3b9234fc",
        "type": "message",
        "text": "Hi Julie there. I am a new member on jogl ! I need some coordinators and experts (clinicians, data scientists, researchers, virologists, epidemiologists) to look into my project for validation. It is about combination treatment on sars-coV2 infection. The project is already posted on jogl. Thank you for your help I need teammates ! Here is the link to the project : <https:\/\/app.jogl.io\/project\/231>",
        "user": "U013NQG86SC",
        "ts": "1588687696.109800",
        "team": "TUU48M0T1",
        "user_team": "TUU48M0T1",
        "source_team": "TUU48M0T1",
        "user_profile": {
            "avatar_hash": "gd07e00ae4f0",
            "image_72": "https:\/\/secure.gravatar.com\/avatar\/d07e00ae4f063cdc6f134e2da33a600f.jpg?s=72&d=https%3A%2F%2Fa.slack-edge.com%2Fdf10d%2Fimg%2Favatars%2Fava_0013-72.png",
            "first_name": "",
            "real_name": "JT95",
            "display_name": "JT95",
            "team": "TUU48M0T1",
            "name": "julietrinh95",
            "is_restricted": false,
            "is_ultra_restricted": false
        },
        "attachments": [
            {
                "service_name": "JOGL - Just One Giant Lab",
                "title": "Combination entry blokers (rh(s)-ACE2) + a7nachR inhibitor | JOGL",
                "title_link": "https:\/\/app.jogl.io\/project\/231",
                "text": "Review of litterature and RD research of a7nachR inhibitor or building new molecules of interest, maybe it is the solution to this crisis !",
                "fallback": "JOGL - Just One Giant Lab: Combination entry blokers (rh(s)-ACE2) + a7nachR inhibitor | JOGL",
                "thumb_url": "https:\/\/app.jogl.io\/images\/default\/default-project.jpg",
                "from_url": "https:\/\/app.jogl.io\/project\/231",
                "thumb_width": 1667,
                "thumb_height": 1000,
                "service_icon": "https:\/\/app.jogl.io\/images\/favicon.ico",
                "id": 1,
                "original_url": "https:\/\/app.jogl.io\/project\/231"
            }
        ],
        "blocks": [
            {
                "type": "rich_text",
                "block_id": "QJ5g",
                "elements": [
                    {
                        "type": "rich_text_section",
                        "elements": [
                            {
                                "type": "text",
                                "text": "Hi Julie there. I am a new member on jogl ! I need some coordinators and experts (clinicians, data scientists, researchers, virologists, epidemiologists) to look into my project for validation. It is about combination treatment on sars-coV2 infection. The project is already posted on jogl. Thank you for your help I need teammates ! Here is the link to the project : "
                            },
                            {
                                "type": "link",
                                "url": "https:\/\/app.jogl.io\/project\/231"
                            }
                        ]
                    }
                ]
            }
        ],
        "thread_ts": "1588687696.109800",
        "reply_count": 1,
        "reply_users_count": 1,
        "latest_reply": "1588698254.110100",
        "reply_users": [
            "UV02WET96"
        ],
        "replies": [
            {
                "user": "UV02WET96",
                "ts": "1588698254.110100"
            }
        ],
        "subscribed": false,
        "reactions": [
            {
                "name": "wave",
                "users": [
                    "UV02WET96",
                    "U011D8T1Z61"
                ],
                "count": 2
            }
        ]
    },
    {
        "client_msg_id": "d6a5ea7b-49c1-481a-b23e-cd8c8c5555b9",
        "type": "message",
        "text": "Hi Julie! Welcome :slightly_smiling_face:\nYou should definitely check the <#C01001T20RJ|chlg-treatment> <#CUNGN9LAE|research> channels\nThanks for being here!",
        "user": "UV02WET96",
        "ts": "1588698254.110100",
        "team": "TUU48M0T1",
        "user_team": "TUU48M0T1",
        "source_team": "TUU48M0T1",
        "user_profile": {
            "avatar_hash": "a99c74a194f8",
            "image_72": "https:\/\/avatars.slack-edge.com\/2020-03-07\/975708504851_a99c74a194f86715ca7d_72.png",
            "first_name": "Thomas",
            "real_name": "Thomas Landrain",
            "display_name": "Thomas Landrain - JOGL CoFounder \/ CEO",
            "team": "TUU48M0T1",
            "name": "thomas",
            "is_restricted": false,
            "is_ultra_restricted": false
        },
        "blocks": [
            {
                "type": "rich_text",
                "block_id": "bMw",
                "elements": [
                    {
                        "type": "rich_text_section",
                        "elements": [
                            {
                                "type": "text",
                                "text": "Hi Julie! Welcome "
                            },
                            {
                                "type": "emoji",
                                "name": "slightly_smiling_face"
                            },
                            {
                                "type": "text",
                                "text": "\nYou should definitely check the "
                            },
                            {
                                "type": "channel",
                                "channel_id": "C01001T20RJ"
                            },
                            {
                                "type": "text",
                                "text": " "
                            },
                            {
                                "type": "channel",
                                "channel_id": "CUNGN9LAE"
                            },
                            {
                                "type": "text",
                                "text": " channels\nThanks for being here!"
                            }
                        ]
                    }
                ]
            }
        ],
        "thread_ts": "1588687696.109800",
        "parent_user_id": "U013NQG86SC"
    },
    {
        "type": "message",
        "text": ":boom::boom:*Hi everyone! <!channel>*\n\n*We have a brand new Onboarding document!* :point_right:* <https:\/\/docs.google.com\/document\/d\/1h0Zu-Q_c71FUlyh66rAPcNR1s7ASOatY2oicsaedzsk\/edit#|Opencovid19 onboarding>*\nIt comes with a LOT of useful links and tips! Check it out!",
        "files": [
            {
                "id": "F0100J2CQE4",
                "created": 1584208130,
                "timestamp": 1584208130,
                "name": "OpenCovid19 Onboarding Doc",
                "title": "OpenCovid19 Program Onboarding Doc",
                "mimetype": "application\/vnd.google-apps.document",
                "filetype": "gdoc",
                "pretty_type": "GSuite Document",
                "user": "UV0QTJCMT",
                "editable": false,
                "size": 226,
                "mode": "external",
                "is_external": true,
                "external_type": "gdrive",
                "is_public": true,
                "public_url_shared": false,
                "display_as_bot": false,
                "username": "",
                "url_private": "https:\/\/docs.google.com\/document\/d\/1h0Zu-Q_c71FUlyh66rAPcNR1s7ASOatY2oicsaedzsk\/edit#",
                "thumb_64": "https:\/\/files.slack.com\/files-tmb\/TUU48M0T1-F0100J2CQE4-d2b1c28edd\/opencovid19_onboarding_doc_64.png?t=xoxe-980144714919-1133254701825-1120841107731-daf595b5a7d6c9028b0b02a925032e36",
                "thumb_80": "https:\/\/files.slack.com\/files-tmb\/TUU48M0T1-F0100J2CQE4-d2b1c28edd\/opencovid19_onboarding_doc_80.png?t=xoxe-980144714919-1133254701825-1120841107731-daf595b5a7d6c9028b0b02a925032e36",
                "thumb_360": "https:\/\/files.slack.com\/files-tmb\/TUU48M0T1-F0100J2CQE4-d2b1c28edd\/opencovid19_onboarding_doc_360.png?t=xoxe-980144714919-1133254701825-1120841107731-daf595b5a7d6c9028b0b02a925032e36",
                "thumb_360_w": 278,
                "thumb_360_h": 360,
                "thumb_480": "https:\/\/files.slack.com\/files-tmb\/TUU48M0T1-F0100J2CQE4-d2b1c28edd\/opencovid19_onboarding_doc_480.png?t=xoxe-980144714919-1133254701825-1120841107731-daf595b5a7d6c9028b0b02a925032e36",
                "thumb_480_w": 371,
                "thumb_480_h": 480,
                "thumb_160": "https:\/\/files.slack.com\/files-tmb\/TUU48M0T1-F0100J2CQE4-d2b1c28edd\/opencovid19_onboarding_doc_160.png?t=xoxe-980144714919-1133254701825-1120841107731-daf595b5a7d6c9028b0b02a925032e36",
                "thumb_720": "https:\/\/files.slack.com\/files-tmb\/TUU48M0T1-F0100J2CQE4-d2b1c28edd\/opencovid19_onboarding_doc_720.png?t=xoxe-980144714919-1133254701825-1120841107731-daf595b5a7d6c9028b0b02a925032e36",
                "thumb_720_w": 557,
                "thumb_720_h": 720,
                "thumb_800": "https:\/\/files.slack.com\/files-tmb\/TUU48M0T1-F0100J2CQE4-d2b1c28edd\/opencovid19_onboarding_doc_800.png?t=xoxe-980144714919-1133254701825-1120841107731-daf595b5a7d6c9028b0b02a925032e36",
                "thumb_800_w": 800,
                "thumb_800_h": 1035,
                "thumb_960": "https:\/\/files.slack.com\/files-tmb\/TUU48M0T1-F0100J2CQE4-d2b1c28edd\/opencovid19_onboarding_doc_960.png?t=xoxe-980144714919-1133254701825-1120841107731-daf595b5a7d6c9028b0b02a925032e36",
                "thumb_960_w": 742,
                "thumb_960_h": 960,
                "thumb_1024": "https:\/\/files.slack.com\/files-tmb\/TUU48M0T1-F0100J2CQE4-d2b1c28edd\/opencovid19_onboarding_doc_1024.png?t=xoxe-980144714919-1133254701825-1120841107731-daf595b5a7d6c9028b0b02a925032e36",
                "thumb_1024_w": 791,
                "thumb_1024_h": 1024,
                "image_exif_rotation": 1,
                "original_w": 800,
                "original_h": 1035,
                "thumb_tiny": "AwAwACXTJAGSQB70xnUqQHAPbkU5unf8s0zPv\/47QAvmAdSv\/fVO3r\/eHPvTBz\/EPxWlC89R+AoAfRRRQAjdKZg+hp7AEVGE+lAC4\/2TShfb9aVeKdQAUUUUAIwyOlR4UdSPyqWgjIxQAwFR3FOUg9DmjaM55\/OloAKKKKAP\/9k=",
                "permalink": "https:\/\/open-covid19.slack.com\/files\/UV0QTJCMT\/F0100J2CQE4\/opencovid19_onboarding_doc",
                "is_starred": false,
                "external_id": "1h0Zu-Q_c71FUlyh66rAPcNR1s7ASOatY2oicsaedzsk",
                "external_url": "https:\/\/docs.google.com\/document\/d\/1h0Zu-Q_c71FUlyh66rAPcNR1s7ASOatY2oicsaedzsk\/edit#",
                "has_rich_preview": true
            }
        ],
        "upload": false,
        "blocks": [
            {
                "type": "rich_text",
                "block_id": "lpgG7",
                "elements": [
                    {
                        "type": "rich_text_section",
                        "elements": [
                            {
                                "type": "emoji",
                                "name": "boom"
                            },
                            {
                                "type": "emoji",
                                "name": "boom"
                            },
                            {
                                "type": "text",
                                "text": "Hi everyone! ",
                                "style": {
                                    "bold": true
                                }
                            },
                            {
                                "type": "broadcast",
                                "range": "channel",
                                "style": {
                                    "bold": true
                                }
                            },
                            {
                                "type": "text",
                                "text": "\n\n"
                            },
                            {
                                "type": "text",
                                "text": "We have a brand new Onboarding document! ",
                                "style": {
                                    "bold": true
                                }
                            },
                            {
                                "type": "emoji",
                                "name": "point_right",
                                "style": {
                                    "bold": true
                                }
                            },
                            {
                                "type": "text",
                                "text": " ",
                                "style": {
                                    "bold": true
                                }
                            },
                            {
                                "type": "link",
                                "url": "https:\/\/docs.google.com\/document\/d\/1h0Zu-Q_c71FUlyh66rAPcNR1s7ASOatY2oicsaedzsk\/edit#",
                                "text": "Opencovid19 onboarding",
                                "style": {
                                    "bold": true
                                }
                            },
                            {
                                "type": "text",
                                "text": "\nIt comes with a LOT of useful links and tips! Check it out!"
                            }
                        ]
                    }
                ]
            }
        ],
        "user": "UV9V03C8Y",
        "display_as_bot": false,
        "x_files": [
            "F0100J2CQE4"
        ],
        "ts": "1588709239.111500",
        "client_msg_id": "6d48c287-14e3-45ce-897f-8e029fbe30a5",
        "reactions": [
            {
                "name": "+1",
                "users": [
                    "U011B6VLM2A"
                ],
                "count": 1
            },
            {
                "name": "heart",
                "users": [
                    "U011D8T1Z61",
                    "U011B6VLM2A"
                ],
                "count": 2
            }
        ]
    }
]