[
    {
        "type": "message",
        "subtype": "bot_message",
        "text": "Nǐ hǎo <@U010ZKWTTKJ> :flag-cn:",
        "ts": "1585467059.162700",
        "username": "GreetBot",
        "bot_id": "B0100JVEKUG"
    },
    {
        "type": "message",
        "subtype": "bot_message",
        "text": "Guten tag <@U010ZNQKV32> :flag-de:",
        "ts": "1585480035.163100",
        "username": "GreetBot",
        "bot_id": "B0100JVEKUG"
    },
    {
        "type": "message",
        "subtype": "bot_message",
        "text": "Habari <@U010PN4GWPK> :flag-tz:",
        "ts": "1585480792.163400",
        "username": "GreetBot",
        "bot_id": "B0100JVEKUG"
    },
    {
        "type": "message",
        "subtype": "bot_message",
        "text": "Habari <@U010N9A2F0B> :flag-tz:",
        "ts": "1585481829.163700",
        "username": "GreetBot",
        "bot_id": "B0100JVEKUG"
    },
    {
        "type": "message",
        "subtype": "bot_message",
        "text": "Nǐ hǎo <@U0111SBAU87> :flag-cn:",
        "ts": "1585490838.164100",
        "username": "GreetBot",
        "bot_id": "B0100JVEKUG"
    },
    {
        "type": "message",
        "subtype": "bot_message",
        "text": "Hola <@U010ZRW9NN4> :flag-es:",
        "ts": "1585492281.164400",
        "username": "GreetBot",
        "bot_id": "B0100JVEKUG"
    },
    {
        "type": "message",
        "subtype": "bot_message",
        "text": "Hallå <@U010M4350US> :flag-se:",
        "ts": "1585494761.164800",
        "username": "GreetBot",
        "bot_id": "B0100JVEKUG"
    },
    {
        "type": "message",
        "subtype": "bot_message",
        "text": "Olá <@U0111PA1JKG> :flag-pt:",
        "ts": "1585495245.165100",
        "username": "GreetBot",
        "bot_id": "B0100JVEKUG"
    },
    {
        "type": "message",
        "subtype": "bot_message",
        "text": "Bonjour <@U010NGH70TV> :flag-fr:",
        "ts": "1585508523.165600",
        "username": "GreetBot",
        "bot_id": "B0100JVEKUG"
    },
    {
        "type": "message",
        "subtype": "bot_message",
        "text": "Dobryy den’ <@U0111TMRPF0> :flag-ua:",
        "ts": "1585511628.165900",
        "username": "GreetBot",
        "bot_id": "B0100JVEKUG"
    },
    {
        "type": "message",
        "subtype": "bot_message",
        "text": "Sawadi Kap <@U010XEY5Q6L> :flag-th:",
        "ts": "1585511754.166000",
        "username": "GreetBot",
        "bot_id": "B0100JVEKUG"
    },
    {
        "type": "message",
        "subtype": "bot_message",
        "text": "Dobryy den’ <@U010Q1JH9FT> :flag-ua:",
        "ts": "1585513977.166200",
        "username": "GreetBot",
        "bot_id": "B0100JVEKUG"
    },
    {
        "client_msg_id": "109c84ee-6072-4e0c-980a-b50c740a9be7",
        "type": "message",
        "text": "Hi, I'm Samira. Undergraduate academic background in molecular biology, but have primarily been working in software engineering (mostly lab automation) for the past 5 years. Interested in any projects that I can usefully contribute to (most of my recent expertise is in software, I'd also feel comfortable reviewing literature, my wet lab skills are rusty and so I wouldn't want to be relied on there). Based in Oakland, California, USA.",
        "user": "U0107S120EM",
        "ts": "1585515608.170300",
        "team": "TUU48M0T1",
        "user_team": "TUU48M0T1",
        "source_team": "TUU48M0T1",
        "user_profile": {
            "avatar_hash": "g18deeb76c7a",
            "image_72": "https:\/\/secure.gravatar.com\/avatar\/18deeb76c7adf2e0f3abdea09c0970da.jpg?s=72&d=https%3A%2F%2Fa.slack-edge.com%2Fdf10d%2Fimg%2Favatars%2Fava_0025-72.png",
            "first_name": "",
            "real_name": "Samira N",
            "display_name": "Samira N",
            "team": "TUU48M0T1",
            "name": "samira.nedungadi",
            "is_restricted": false,
            "is_ultra_restricted": false
        },
        "edited": {
            "user": "U0107S120EM",
            "ts": "1585515621.000000"
        },
        "blocks": [
            {
                "type": "rich_text",
                "block_id": "gHl",
                "elements": [
                    {
                        "type": "rich_text_section",
                        "elements": [
                            {
                                "type": "text",
                                "text": "Hi, I'm Samira. Undergraduate academic background in molecular biology, but have primarily been working in software engineering (mostly lab automation) for the past 5 years. Interested in any projects that I can usefully contribute to (most of my recent expertise is in software, I'd also feel comfortable reviewing literature, my wet lab skills are rusty and so I wouldn't want to be relied on there). Based in Oakland, California, USA."
                            }
                        ]
                    }
                ]
            }
        ],
        "reactions": [
            {
                "name": "wave",
                "users": [
                    "U010HGKFDNE",
                    "U010Z3UR6S1",
                    "UV02WET96"
                ],
                "count": 3
            }
        ]
    },
    {
        "type": "message",
        "subtype": "bot_message",
        "text": "Nǐ hǎo <@U010Q3372P3> :flag-cn:",
        "ts": "1585520179.171000",
        "username": "GreetBot",
        "bot_id": "B0100JVEKUG"
    },
    {
        "client_msg_id": "f3dd20de-473c-4c74-b316-d5f94482279c",
        "type": "message",
        "text": "Hi everyone, I'm Kathryn, based in Chicago, IL USA, I have laboratory, web, healthcare and marketing skills, please feel free to use my 30 years of experience for what you need.",
        "user": "U010Q3372P3",
        "ts": "1585520371.172400",
        "team": "TUU48M0T1",
        "user_team": "TUU48M0T1",
        "source_team": "TUU48M0T1",
        "user_profile": {
            "avatar_hash": "95066184973b",
            "image_72": "https:\/\/avatars.slack-edge.com\/2020-03-30\/1036274198128_95066184973b1de50d1a_72.png",
            "first_name": "Kathryn",
            "real_name": "Kathryn Rowe",
            "display_name": "Kathryn Rowe",
            "team": "TUU48M0T1",
            "name": "kathryn.rowe",
            "is_restricted": false,
            "is_ultra_restricted": false
        },
        "blocks": [
            {
                "type": "rich_text",
                "block_id": "qsgKT",
                "elements": [
                    {
                        "type": "rich_text_section",
                        "elements": [
                            {
                                "type": "text",
                                "text": "Hi everyone, I'm Kathryn, based in Chicago, IL USA, I have laboratory, web, healthcare and marketing skills, please feel free to use my 30 years of experience for what you need."
                            }
                        ]
                    }
                ]
            }
        ],
        "reactions": [
            {
                "name": "wave",
                "users": [
                    "U010HGKFDNE",
                    "UUNGFHSV8",
                    "UV02WET96"
                ],
                "count": 3
            }
        ]
    },
    {
        "type": "message",
        "subtype": "bot_message",
        "text": "Hallå <@U010Q3G4MDF> :flag-se:",
        "ts": "1585521613.173100",
        "username": "GreetBot",
        "bot_id": "B0100JVEKUG",
        "reactions": [
            {
                "name": "grinning",
                "users": [
                    "U010Q3G4MDF"
                ],
                "count": 1
            }
        ]
    },
    {
        "type": "message",
        "subtype": "bot_message",
        "text": "Hérete <@U01104GQW8Y> :flag-gr:",
        "ts": "1585528705.173400",
        "username": "GreetBot",
        "bot_id": "B0100JVEKUG"
    },
    {
        "type": "message",
        "subtype": "bot_message",
        "text": "Habari <@U010NPVDXGB> :flag-tz:",
        "ts": "1585534246.173800",
        "username": "GreetBot",
        "bot_id": "B0100JVEKUG"
    },
    {
        "type": "message",
        "subtype": "bot_message",
        "text": "Hallå <@U01109N3VCG> :flag-se:",
        "ts": "1585535837.174100",
        "username": "GreetBot",
        "bot_id": "B0100JVEKUG"
    },
    {
        "type": "message",
        "subtype": "bot_message",
        "text": "Annyeong <@U010Q8W9A5P> :flag-kr:",
        "ts": "1585535999.174400",
        "username": "GreetBot",
        "bot_id": "B0100JVEKUG"
    },
    {
        "type": "message",
        "subtype": "bot_message",
        "text": "Namaste <@U0110DA5GKS> :flag-in:",
        "ts": "1585544448.181200",
        "username": "GreetBot",
        "bot_id": "B0100JVEKUG"
    },
    {
        "type": "message",
        "subtype": "bot_message",
        "text": "Cześć <@U0110DDL56U> :flag-pl:",
        "ts": "1585544645.181500",
        "username": "GreetBot",
        "bot_id": "B0100JVEKUG"
    },
    {
        "client_msg_id": "d463190a-4025-4bbe-a46a-37586b8c6626",
        "type": "message",
        "text": "Costa Rica",
        "user": "U0110DDL56U",
        "ts": "1585544678.181700",
        "team": "TUU48M0T1",
        "user_team": "TUU48M0T1",
        "source_team": "TUU48M0T1",
        "user_profile": {
            "avatar_hash": "g6bf341379ab",
            "image_72": "https:\/\/secure.gravatar.com\/avatar\/6bf341379abdc42443450b6486744bb8.jpg?s=72&d=https%3A%2F%2Fa.slack-edge.com%2Fdf10d%2Fimg%2Favatars%2Fava_0026-72.png",
            "first_name": "",
            "real_name": "katherine jarq",
            "display_name": "katherine jarq",
            "team": "TUU48M0T1",
            "name": "jarquins86",
            "is_restricted": false,
            "is_ultra_restricted": false
        },
        "blocks": [
            {
                "type": "rich_text",
                "block_id": "HZ8",
                "elements": [
                    {
                        "type": "rich_text_section",
                        "elements": [
                            {
                                "type": "text",
                                "text": "Costa Rica"
                            }
                        ]
                    }
                ]
            }
        ]
    }
]