[
    {
        "type": "message",
        "subtype": "bot_message",
        "text": "Bonjour <@U011WSPEDGU> :flag-fr:",
        "ts": "1586769231.463400",
        "username": "GreetBot",
        "bot_id": "B0100JVEKUG"
    },
    {
        "type": "message",
        "subtype": "bot_message",
        "text": "Ohayo <@U012BAZK4TS> :flag-jp:",
        "ts": "1586769975.463600",
        "username": "GreetBot",
        "bot_id": "B0100JVEKUG"
    },
    {
        "client_msg_id": "819252a0-12eb-4c3c-b7c8-07ab25021307",
        "type": "message",
        "text": "I'm Polish-German :wink:",
        "user": "U011CLVJMQX",
        "ts": "1586773947.463700",
        "team": "TUU48M0T1",
        "user_team": "TUU48M0T1",
        "source_team": "TUU48M0T1",
        "user_profile": {
            "avatar_hash": "g4aba3616047",
            "image_72": "https:\/\/secure.gravatar.com\/avatar\/4aba3616047410f5bf6118588d544768.jpg?s=72&d=https%3A%2F%2Fa.slack-edge.com%2Fdf10d%2Fimg%2Favatars%2Fava_0022-72.png",
            "first_name": "",
            "real_name": "Kathrin Hadasch",
            "display_name": "Kathrin Hadasch",
            "team": "TUU48M0T1",
            "name": "khada",
            "is_restricted": false,
            "is_ultra_restricted": false
        },
        "blocks": [
            {
                "type": "rich_text",
                "block_id": "4Jtus",
                "elements": [
                    {
                        "type": "rich_text_section",
                        "elements": [
                            {
                                "type": "text",
                                "text": "I'm Polish-German "
                            },
                            {
                                "type": "emoji",
                                "name": "wink"
                            }
                        ]
                    }
                ]
            }
        ],
        "thread_ts": "1586691722.451400"
    },
    {
        "client_msg_id": "3e33b680-8c21-4895-a8b7-79555baf59b9",
        "type": "message",
        "text": "<@UV02WET96>?",
        "user": "UUWPKNE2E",
        "ts": "1586788683.464100",
        "team": "TUU48M0T1",
        "user_team": "TUU48M0T1",
        "source_team": "TUU48M0T1",
        "user_profile": {
            "avatar_hash": "f620efd9688e",
            "image_72": "https:\/\/avatars.slack-edge.com\/2020-03-12\/997456647751_f620efd9688ed753ecfc_72.jpg",
            "first_name": "Luca",
            "real_name": "Luca Haenel",
            "display_name": "Luca Haenel - JOGL Developer",
            "team": "TUU48M0T1",
            "name": "luca.haenel",
            "is_restricted": false,
            "is_ultra_restricted": false
        },
        "blocks": [
            {
                "type": "rich_text",
                "block_id": "X1F",
                "elements": [
                    {
                        "type": "rich_text_section",
                        "elements": [
                            {
                                "type": "user",
                                "user_id": "UV02WET96"
                            },
                            {
                                "type": "text",
                                "text": "?"
                            }
                        ]
                    }
                ]
            }
        ],
        "thread_ts": "1586662376.449600",
        "parent_user_id": "U011D3TGYA1"
    },
    {
        "client_msg_id": "db0ecea4-7bd1-4e51-be9c-8847f00fa3ac",
        "type": "message",
        "text": "Hello <@U011D3TGYA1> Bienvenu!\nSi vous avez des designs validés; n’hesitez pas à les mettre sur JOGL.",
        "user": "UV02WET96",
        "ts": "1586788826.464300",
        "team": "TUU48M0T1",
        "user_team": "TUU48M0T1",
        "source_team": "TUU48M0T1",
        "user_profile": {
            "avatar_hash": "a99c74a194f8",
            "image_72": "https:\/\/avatars.slack-edge.com\/2020-03-07\/975708504851_a99c74a194f86715ca7d_72.png",
            "first_name": "Thomas",
            "real_name": "Thomas Landrain",
            "display_name": "Thomas Landrain - JOGL CoFounder \/ CEO",
            "team": "TUU48M0T1",
            "name": "thomas",
            "is_restricted": false,
            "is_ultra_restricted": false
        },
        "blocks": [
            {
                "type": "rich_text",
                "block_id": "xjd",
                "elements": [
                    {
                        "type": "rich_text_section",
                        "elements": [
                            {
                                "type": "text",
                                "text": "Hello "
                            },
                            {
                                "type": "user",
                                "user_id": "U011D3TGYA1"
                            },
                            {
                                "type": "text",
                                "text": " Bienvenu!\nSi vous avez des designs validés; n’hesitez pas à les mettre sur JOGL."
                            }
                        ]
                    }
                ]
            }
        ],
        "thread_ts": "1586662376.449600",
        "parent_user_id": "U011D3TGYA1"
    },
    {
        "type": "message",
        "subtype": "bot_message",
        "text": "Guten tag <@U012CCYGG48> :flag-de:",
        "ts": "1586793673.464700",
        "username": "GreetBot",
        "bot_id": "B0100JVEKUG"
    },
    {
        "type": "message",
        "subtype": "bot_message",
        "text": "Hérete <@U011R307NH3> :flag-gr:",
        "ts": "1586802615.464900",
        "username": "GreetBot",
        "bot_id": "B0100JVEKUG"
    },
    {
        "type": "message",
        "subtype": "bot_message",
        "text": "Ciao <@U011Y788MEY> :flag-it:",
        "ts": "1586809554.465400",
        "username": "GreetBot",
        "bot_id": "B0100JVEKUG"
    },
    {
        "type": "message",
        "subtype": "bot_message",
        "text": "Hallå <@U011Y83JJ04> :flag-se:",
        "ts": "1586810539.465700",
        "username": "GreetBot",
        "bot_id": "B0100JVEKUG"
    },
    {
        "type": "message",
        "subtype": "bot_message",
        "text": "Olá <@U012DU78Q6L> :flag-pt:",
        "ts": "1586818668.466000",
        "username": "GreetBot",
        "bot_id": "B0100JVEKUG"
    },
    {
        "type": "message",
        "subtype": "bot_message",
        "text": "Nǐ hǎo <@U0123D6FZ41> :flag-cn:",
        "ts": "1586821341.466200",
        "username": "GreetBot",
        "bot_id": "B0100JVEKUG"
    },
    {
        "client_msg_id": "06c16cd1-3ff1-4c27-900d-9630619b143e",
        "type": "message",
        "text": "Hello everyone! I’m Aman Choudhri, an 11th grade high school student in New York. I’m an aspiring data scientist with research experience interning at Mount Sinai and I’m passionate about using technology to improve and save human lives. I’m excited to learn more and would love to get involved in any way that I can. For more info, <https:\/\/www.linkedin.com\/in\/aman-choudhri\/|this is my LinkedIn profile>. I look forward to working with you!",
        "user": "U011CNRLYDV",
        "ts": "1586824840.467300",
        "team": "TUU48M0T1",
        "user_team": "TUU48M0T1",
        "source_team": "TUU48M0T1",
        "user_profile": {
            "avatar_hash": "gb8ec4756a87",
            "image_72": "https:\/\/secure.gravatar.com\/avatar\/b8ec4756a87cabc6bca9c96546b6e639.jpg?s=72&d=https%3A%2F%2Fa.slack-edge.com%2Fdf10d%2Fimg%2Favatars%2Fava_0022-72.png",
            "first_name": "",
            "real_name": "Aman Choudhri",
            "display_name": "Aman Choudhri",
            "team": "TUU48M0T1",
            "name": "amanchoudhri",
            "is_restricted": false,
            "is_ultra_restricted": false
        },
        "blocks": [
            {
                "type": "rich_text",
                "block_id": "0fDn",
                "elements": [
                    {
                        "type": "rich_text_section",
                        "elements": [
                            {
                                "type": "text",
                                "text": "Hello everyone! I’m Aman Choudhri, an 11th grade high school student in New York. I’m an aspiring data scientist with research experience interning at Mount Sinai and I’m passionate about using technology to improve and save human lives. I’m excited to learn more and would love to get involved in any way that I can. For more info, "
                            },
                            {
                                "type": "link",
                                "url": "https:\/\/www.linkedin.com\/in\/aman-choudhri\/",
                                "text": "this is my LinkedIn profile"
                            },
                            {
                                "type": "text",
                                "text": ". I look forward to working with you!"
                            }
                        ]
                    }
                ]
            }
        ],
        "reactions": [
            {
                "name": "wave",
                "users": [
                    "UV02WET96",
                    "U010Q3372P3"
                ],
                "count": 2
            },
            {
                "name": "+1",
                "users": [
                    "U010W2Z4MMZ"
                ],
                "count": 1
            }
        ]
    }
]