[
    {
        "client_msg_id": "a90b8d90-2485-4f0e-90de-cdf7acf39aff",
        "type": "message",
        "text": "Hi, I’m a physicist working in France. I have experience writing code (Python) to control lab instruments, to automate measurements, and to analyze and visualize large amounts of data.",
        "user": "U011D6Q3JJJ",
        "ts": "1586158654.354700",
        "team": "TUU48M0T1",
        "user_team": "TUU48M0T1",
        "source_team": "TUU48M0T1",
        "user_profile": {
            "avatar_hash": "fc3733cb3cfc",
            "image_72": "https:\/\/avatars.slack-edge.com\/2020-04-06\/1047820098118_fc3733cb3cfc3a7b93bc_72.jpg",
            "first_name": "",
            "real_name": "Daniel Flanigan",
            "display_name": "",
            "team": "TUU48M0T1",
            "name": "daniel.isaiah.flaniga",
            "is_restricted": false,
            "is_ultra_restricted": false
        },
        "blocks": [
            {
                "type": "rich_text",
                "block_id": "NKmx",
                "elements": [
                    {
                        "type": "rich_text_section",
                        "elements": [
                            {
                                "type": "text",
                                "text": "Hi, I’m a physicist working in France. I have experience writing code (Python) to control lab instruments, to automate measurements, and to analyze and visualize large amounts of data."
                            }
                        ]
                    }
                ]
            }
        ],
        "reactions": [
            {
                "name": "wave",
                "users": [
                    "UV02WET96"
                ],
                "count": 1
            },
            {
                "name": "+1",
                "users": [
                    "U011EJX7MB8"
                ],
                "count": 1
            }
        ]
    },
    {
        "type": "message",
        "subtype": "bot_message",
        "text": "Namaste <@U011BA58RTR> :flag-in:",
        "ts": "1586162798.355000",
        "username": "GreetBot",
        "bot_id": "B0100JVEKUG"
    },
    {
        "type": "message",
        "subtype": "bot_message",
        "text": "Olá <@U0115R9V9CJ> :flag-pt:",
        "ts": "1586164198.355300",
        "username": "GreetBot",
        "bot_id": "B0100JVEKUG"
    },
    {
        "type": "message",
        "subtype": "bot_message",
        "text": "Marhaba <@U011BAD8A5V> :flag-eg:",
        "ts": "1586165652.355700",
        "username": "GreetBot",
        "bot_id": "B0100JVEKUG"
    },
    {
        "type": "message",
        "subtype": "bot_message",
        "text": "Marhaba <@U011DTQ085U> :flag-eg:",
        "ts": "1586167323.356300",
        "username": "GreetBot",
        "bot_id": "B0100JVEKUG"
    },
    {
        "type": "message",
        "subtype": "bot_message",
        "text": "Annyeong <@U011DTUTKHU> :flag-kr:",
        "ts": "1586167665.356700",
        "username": "GreetBot",
        "bot_id": "B0100JVEKUG"
    },
    {
        "client_msg_id": "271294f5-4f3d-4851-a886-5b2979da3f04",
        "type": "message",
        "text": "Please, have a look at Covid-19 Museum projet, we are currently looking for web designers. <mailto:contact@covid19.museum|contact@covid19.museum>",
        "user": "U011BAD8A5V",
        "ts": "1586167993.356800",
        "team": "TUU48M0T1",
        "user_team": "TUU48M0T1",
        "source_team": "TUU48M0T1",
        "user_profile": {
            "avatar_hash": "cc2342c6b5e4",
            "image_72": "https:\/\/avatars.slack-edge.com\/2020-04-15\/1050435442151_cc2342c6b5e4ed35a60a_72.png",
            "first_name": "Yves",
            "real_name": "Yves Rozenholc",
            "display_name": "Yves - Covid19 Museum",
            "team": "TUU48M0T1",
            "name": "contact",
            "is_restricted": false,
            "is_ultra_restricted": false
        },
        "blocks": [
            {
                "type": "rich_text",
                "block_id": "nGwj",
                "elements": [
                    {
                        "type": "rich_text_section",
                        "elements": [
                            {
                                "type": "text",
                                "text": "Please, have a look at Covid-19 Museum projet, we are currently looking for web designers. "
                            },
                            {
                                "type": "link",
                                "url": "mailto:contact@covid19.museum",
                                "text": "contact@covid19.museum"
                            }
                        ]
                    }
                ]
            }
        ],
        "thread_ts": "1584836342.288800",
        "parent_user_id": "U01073YMBS5"
    },
    {
        "client_msg_id": "3d143c72-1f04-437b-b837-7cab444082f4",
        "type": "message",
        "text": "Please, Rémi, visit Covid-19 Museum projet, we are currently looking for web designers and data-managers. <mailto:contact@covid19.museum|contact@covid19.museum>",
        "user": "U011BAD8A5V",
        "ts": "1586168195.357000",
        "team": "TUU48M0T1",
        "user_team": "TUU48M0T1",
        "source_team": "TUU48M0T1",
        "user_profile": {
            "avatar_hash": "cc2342c6b5e4",
            "image_72": "https:\/\/avatars.slack-edge.com\/2020-04-15\/1050435442151_cc2342c6b5e4ed35a60a_72.png",
            "first_name": "Yves",
            "real_name": "Yves Rozenholc",
            "display_name": "Yves - Covid19 Museum",
            "team": "TUU48M0T1",
            "name": "contact",
            "is_restricted": false,
            "is_ultra_restricted": false
        },
        "blocks": [
            {
                "type": "rich_text",
                "block_id": "fNuFh",
                "elements": [
                    {
                        "type": "rich_text_section",
                        "elements": [
                            {
                                "type": "text",
                                "text": "Please, Rémi, visit Covid-19 Museum projet, we are currently looking for web designers and data-managers. "
                            },
                            {
                                "type": "link",
                                "url": "mailto:contact@covid19.museum",
                                "text": "contact@covid19.museum"
                            }
                        ]
                    }
                ]
            }
        ],
        "thread_ts": "1584917825.331500",
        "parent_user_id": "U010HSZFE4V"
    },
    {
        "type": "message",
        "subtype": "bot_message",
        "text": "Nǐ hǎo <@U0116129SQJ> :flag-cn:",
        "ts": "1586168336.357400",
        "username": "GreetBot",
        "bot_id": "B0100JVEKUG"
    },
    {
        "client_msg_id": "8ee16068-44f6-481a-8e57-221bdbda634c",
        "type": "message",
        "text": "Salut tout le monde, je suis développeur java\/jee full stack, je veux bien aider sur le projet s'il y a la possibilité",
        "user": "U011DTQ085U",
        "ts": "1586168857.358800",
        "team": "TUU48M0T1",
        "user_team": "TUU48M0T1",
        "source_team": "TUU48M0T1",
        "user_profile": {
            "avatar_hash": "gd03c3b0b26c",
            "image_72": "https:\/\/secure.gravatar.com\/avatar\/d03c3b0b26c8740707948c5a19fe590e.jpg?s=72&d=https%3A%2F%2Fa.slack-edge.com%2Fdf10d%2Fimg%2Favatars%2Fava_0017-72.png",
            "first_name": "ELKARIMI",
            "real_name": "ELKARIMI",
            "display_name": "ELKARIMI",
            "team": "TUU48M0T1",
            "name": "said.elkarimi",
            "is_restricted": false,
            "is_ultra_restricted": false
        },
        "blocks": [
            {
                "type": "rich_text",
                "block_id": "sJE",
                "elements": [
                    {
                        "type": "rich_text_section",
                        "elements": [
                            {
                                "type": "text",
                                "text": "Salut tout le monde, je suis développeur java\/jee full stack, je veux bien aider sur le projet s'il y a la possibilité"
                            }
                        ]
                    }
                ]
            }
        ],
        "reactions": [
            {
                "name": "wave",
                "users": [
                    "UV02WET96"
                ],
                "count": 1
            },
            {
                "name": "+1",
                "users": [
                    "U011EJX7MB8"
                ],
                "count": 1
            }
        ]
    },
    {
        "type": "message",
        "subtype": "bot_message",
        "text": "Olá <@U01176DUPC3> :flag-pt:",
        "ts": "1586168901.359100",
        "username": "GreetBot",
        "bot_id": "B0100JVEKUG"
    },
    {
        "client_msg_id": "e8a2ebac-95b8-47f4-8e6a-27dfb055558b",
        "type": "message",
        "text": "Hi everyone, I'm actually the founder of the projet Covid-19 Museum. Everyone has seen already the amount of objects in reaction with covid-19 (image, text, media, interview, etc). The project aims at developing a relational database together with its web access both for input and visualization to gather all this information and develop the future electronic museum of the covid-19. A museum, filled in a participative way by any contributor, dedicated to memory of the moment but also to help future didactic understanding and future analysis. It is the first time that we have the opportunity to create and fill a museum in real time. Don't miss the opportunity to help the development of this platform. <mailto:contact@covid19.museum|contact@covid19.museum>",
        "user": "U011BAD8A5V",
        "ts": "1586169711.359500",
        "team": "TUU48M0T1",
        "user_team": "TUU48M0T1",
        "source_team": "TUU48M0T1",
        "user_profile": {
            "avatar_hash": "cc2342c6b5e4",
            "image_72": "https:\/\/avatars.slack-edge.com\/2020-04-15\/1050435442151_cc2342c6b5e4ed35a60a_72.png",
            "first_name": "Yves",
            "real_name": "Yves Rozenholc",
            "display_name": "Yves - Covid19 Museum",
            "team": "TUU48M0T1",
            "name": "contact",
            "is_restricted": false,
            "is_ultra_restricted": false
        },
        "edited": {
            "user": "U011BAD8A5V",
            "ts": "1586170399.000000"
        },
        "blocks": [
            {
                "type": "rich_text",
                "block_id": "qEW",
                "elements": [
                    {
                        "type": "rich_text_section",
                        "elements": [
                            {
                                "type": "text",
                                "text": "Hi everyone, I'm actually the founder of the projet Covid-19 Museum. Everyone has seen already the amount of objects in reaction with covid-19 (image, text, media, interview, etc). The project aims at developing a relational database together with its web access both for input and visualization to gather all this information and develop the future electronic museum of the covid-19. A museum, filled in a participative way by any contributor, dedicated to memory of the moment but also to help future didactic understanding and future analysis. It is the first time that we have the opportunity to create and fill a museum in real time. Don't miss the opportunity to help the development of this platform. "
                            },
                            {
                                "type": "link",
                                "url": "mailto:contact@covid19.museum",
                                "text": "contact@covid19.museum"
                            }
                        ]
                    }
                ]
            }
        ],
        "thread_ts": "1586169711.359500",
        "reply_count": 1,
        "reply_users_count": 1,
        "latest_reply": "1586288904.391300",
        "reply_users": [
            "U010B412MF1"
        ],
        "replies": [
            {
                "user": "U010B412MF1",
                "ts": "1586288904.391300"
            }
        ],
        "subscribed": false,
        "reactions": [
            {
                "name": "wave",
                "users": [
                    "UV02WET96",
                    "U010B412MF1"
                ],
                "count": 2
            }
        ]
    },
    {
        "client_msg_id": "534c66d6-369c-450f-bcd0-cc6cf943bea3",
        "type": "message",
        "text": "Join our project Covid-19 Museum",
        "user": "U011BAD8A5V",
        "ts": "1586170422.360000",
        "team": "TUU48M0T1",
        "user_team": "TUU48M0T1",
        "source_team": "TUU48M0T1",
        "user_profile": {
            "avatar_hash": "cc2342c6b5e4",
            "image_72": "https:\/\/avatars.slack-edge.com\/2020-04-15\/1050435442151_cc2342c6b5e4ed35a60a_72.png",
            "first_name": "Yves",
            "real_name": "Yves Rozenholc",
            "display_name": "Yves - Covid19 Museum",
            "team": "TUU48M0T1",
            "name": "contact",
            "is_restricted": false,
            "is_ultra_restricted": false
        },
        "blocks": [
            {
                "type": "rich_text",
                "block_id": "exB",
                "elements": [
                    {
                        "type": "rich_text_section",
                        "elements": [
                            {
                                "type": "text",
                                "text": "Join our project Covid-19 Museum"
                            }
                        ]
                    }
                ]
            }
        ]
    },
    {
        "client_msg_id": "c0a9ee00-1a21-48e9-8d41-a2f68c3c9007",
        "type": "message",
        "text": "<https:\/\/app.jogl.io\/project\/175>",
        "user": "U011BAD8A5V",
        "ts": "1586170893.360500",
        "team": "TUU48M0T1",
        "user_team": "TUU48M0T1",
        "source_team": "TUU48M0T1",
        "user_profile": {
            "avatar_hash": "cc2342c6b5e4",
            "image_72": "https:\/\/avatars.slack-edge.com\/2020-04-15\/1050435442151_cc2342c6b5e4ed35a60a_72.png",
            "first_name": "Yves",
            "real_name": "Yves Rozenholc",
            "display_name": "Yves - Covid19 Museum",
            "team": "TUU48M0T1",
            "name": "contact",
            "is_restricted": false,
            "is_ultra_restricted": false
        },
        "attachments": [
            {
                "title": "JOGL - Just One Giant Lab",
                "title_link": "https:\/\/app.jogl.io\/project\/175",
                "text": "JOGL helps sync humanity onto solving our most important social &amp; environmental problems using open science, responsible innovation &amp; continuous learning.",
                "fallback": "JOGL - Just One Giant Lab",
                "thumb_url": "https:\/\/app.jogl.io\/planet.jpg",
                "from_url": "https:\/\/app.jogl.io\/project\/175",
                "thumb_width": 2049,
                "thumb_height": 1011,
                "service_icon": "https:\/\/app.jogl.io\/favicon.ico",
                "service_name": "app.jogl.io",
                "id": 1,
                "original_url": "https:\/\/app.jogl.io\/project\/175"
            }
        ],
        "blocks": [
            {
                "type": "rich_text",
                "block_id": "jWY",
                "elements": [
                    {
                        "type": "rich_text_section",
                        "elements": [
                            {
                                "type": "link",
                                "url": "https:\/\/app.jogl.io\/project\/175"
                            }
                        ]
                    }
                ]
            }
        ]
    },
    {
        "client_msg_id": "1b56a048-dac3-48d8-9547-f4d83dd3cd57",
        "type": "message",
        "text": "<#C011GJCQLLU|proj-covid19-museum>",
        "user": "U011BAD8A5V",
        "ts": "1586170923.360800",
        "team": "TUU48M0T1",
        "user_team": "TUU48M0T1",
        "source_team": "TUU48M0T1",
        "user_profile": {
            "avatar_hash": "cc2342c6b5e4",
            "image_72": "https:\/\/avatars.slack-edge.com\/2020-04-15\/1050435442151_cc2342c6b5e4ed35a60a_72.png",
            "first_name": "Yves",
            "real_name": "Yves Rozenholc",
            "display_name": "Yves - Covid19 Museum",
            "team": "TUU48M0T1",
            "name": "contact",
            "is_restricted": false,
            "is_ultra_restricted": false
        },
        "blocks": [
            {
                "type": "rich_text",
                "block_id": "gnqNq",
                "elements": [
                    {
                        "type": "rich_text_section",
                        "elements": [
                            {
                                "type": "channel",
                                "channel_id": "C011GJCQLLU"
                            }
                        ]
                    }
                ]
            }
        ]
    },
    {
        "type": "message",
        "subtype": "bot_message",
        "text": "Annyeong <@U011GPZE02G> :flag-kr:",
        "ts": "1586171879.361200",
        "username": "GreetBot",
        "bot_id": "B0100JVEKUG"
    },
    {
        "client_msg_id": "7603157e-25c6-41e3-9b75-fb3d1e895e1f",
        "type": "message",
        "text": "Hi Michelle, with your experience and passion, have a look at <#C011GJCQLLU|proj-covid19-museum> and the associated JogL project <https:\/\/app.jogl.io\/project\/175>",
        "user": "U011BAD8A5V",
        "ts": "1586174105.361300",
        "team": "TUU48M0T1",
        "user_team": "TUU48M0T1",
        "source_team": "TUU48M0T1",
        "user_profile": {
            "avatar_hash": "cc2342c6b5e4",
            "image_72": "https:\/\/avatars.slack-edge.com\/2020-04-15\/1050435442151_cc2342c6b5e4ed35a60a_72.png",
            "first_name": "Yves",
            "real_name": "Yves Rozenholc",
            "display_name": "Yves - Covid19 Museum",
            "team": "TUU48M0T1",
            "name": "contact",
            "is_restricted": false,
            "is_ultra_restricted": false
        },
        "blocks": [
            {
                "type": "rich_text",
                "block_id": "2Ojs",
                "elements": [
                    {
                        "type": "rich_text_section",
                        "elements": [
                            {
                                "type": "text",
                                "text": "Hi Michelle, with your experience and passion, have a look at "
                            },
                            {
                                "type": "channel",
                                "channel_id": "C011GJCQLLU"
                            },
                            {
                                "type": "text",
                                "text": " and the associated JogL project "
                            },
                            {
                                "type": "link",
                                "url": "https:\/\/app.jogl.io\/project\/175"
                            }
                        ]
                    }
                ]
            }
        ],
        "thread_ts": "1586038903.325500",
        "parent_user_id": "U011D8T1Z61"
    },
    {
        "client_msg_id": "d142f96f-071d-4d7b-a403-80c69b1a370f",
        "type": "message",
        "text": "if you want more info",
        "user": "U011BAD8A5V",
        "ts": "1586174207.361600",
        "team": "TUU48M0T1",
        "user_team": "TUU48M0T1",
        "source_team": "TUU48M0T1",
        "user_profile": {
            "avatar_hash": "cc2342c6b5e4",
            "image_72": "https:\/\/avatars.slack-edge.com\/2020-04-15\/1050435442151_cc2342c6b5e4ed35a60a_72.png",
            "first_name": "Yves",
            "real_name": "Yves Rozenholc",
            "display_name": "Yves - Covid19 Museum",
            "team": "TUU48M0T1",
            "name": "contact",
            "is_restricted": false,
            "is_ultra_restricted": false
        },
        "blocks": [
            {
                "type": "rich_text",
                "block_id": "gOmk",
                "elements": [
                    {
                        "type": "rich_text_section",
                        "elements": [
                            {
                                "type": "text",
                                "text": "if you want more info"
                            }
                        ]
                    }
                ]
            }
        ],
        "thread_ts": "1586038903.325500",
        "parent_user_id": "U011D8T1Z61"
    },
    {
        "type": "message",
        "subtype": "bot_message",
        "text": "Ciao <@U011NMUSN56> :flag-it:",
        "ts": "1586175247.362100",
        "username": "GreetBot",
        "bot_id": "B0100JVEKUG"
    },
    {
        "type": "message",
        "subtype": "bot_message",
        "text": "Habari <@U011EHELDLM> :flag-tz:",
        "ts": "1586178689.362400",
        "username": "GreetBot",
        "bot_id": "B0100JVEKUG"
    },
    {
        "type": "message",
        "subtype": "bot_message",
        "text": "Dobryy den’ <@U0116EPFAJE> :flag-ua:",
        "ts": "1586179151.362700",
        "username": "GreetBot",
        "bot_id": "B0100JVEKUG"
    },
    {
        "type": "message",
        "subtype": "bot_message",
        "text": "Marhaba <@U0116PLEP6E> :flag-eg:",
        "ts": "1586183961.363100",
        "username": "GreetBot",
        "bot_id": "B0100JVEKUG"
    },
    {
        "client_msg_id": "ca59c688-b2d7-4886-b80f-ab2a29ae4432",
        "type": "message",
        "text": "Hello! What’s your specialty?",
        "user": "U010FUDNKHB",
        "ts": "1586188861.363300",
        "team": "TUU48M0T1",
        "user_team": "TUU48M0T1",
        "source_team": "TUU48M0T1",
        "user_profile": {
            "avatar_hash": "g8498e0303c7",
            "image_72": "https:\/\/secure.gravatar.com\/avatar\/8498e0303c78c6441d73314629a44fb0.jpg?s=72&d=https%3A%2F%2Fa.slack-edge.com%2Fdf10d%2Fimg%2Favatars%2Fava_0006-72.png",
            "first_name": "",
            "real_name": "Kori Roys",
            "display_name": "Kori Roys",
            "team": "TUU48M0T1",
            "name": "kori",
            "is_restricted": false,
            "is_ultra_restricted": false
        },
        "blocks": [
            {
                "type": "rich_text",
                "block_id": "HTL",
                "elements": [
                    {
                        "type": "rich_text_section",
                        "elements": [
                            {
                                "type": "text",
                                "text": "Hello! What’s your specialty?"
                            }
                        ]
                    }
                ]
            }
        ],
        "thread_ts": "1586126597.349800",
        "parent_user_id": "U011DHQ3Z4N"
    },
    {
        "type": "message",
        "subtype": "bot_message",
        "text": "Sawadi Kap <@U01188XCK19> :flag-th:",
        "ts": "1586189686.363700",
        "username": "GreetBot",
        "bot_id": "B0100JVEKUG"
    },
    {
        "client_msg_id": "ebe8fe5d-1876-4f37-a72a-297dbe2ef4fd",
        "type": "message",
        "text": "hé !",
        "user": "U01188XCK19",
        "ts": "1586189696.363900",
        "team": "TUU48M0T1",
        "user_team": "TUU48M0T1",
        "source_team": "TUU48M0T1",
        "user_profile": {
            "avatar_hash": "gd85edfb45fa",
            "image_72": "https:\/\/secure.gravatar.com\/avatar\/d85edfb45fa87b47ea33da26228d07dd.jpg?s=72&d=https%3A%2F%2Fa.slack-edge.com%2Fdf10d%2Fimg%2Favatars%2Fava_0011-72.png",
            "first_name": "",
            "real_name": "wolf arthur",
            "display_name": "wolf arthur",
            "team": "TUU48M0T1",
            "name": "wolf.arthur",
            "is_restricted": false,
            "is_ultra_restricted": false
        },
        "blocks": [
            {
                "type": "rich_text",
                "block_id": "tiv=8",
                "elements": [
                    {
                        "type": "rich_text_section",
                        "elements": [
                            {
                                "type": "text",
                                "text": "hé !"
                            }
                        ]
                    }
                ]
            }
        ]
    },
    {
        "type": "message",
        "subtype": "bot_message",
        "text": "Hallå <@U011E9Z2UF8> :flag-se:",
        "ts": "1586190481.364200",
        "username": "GreetBot",
        "bot_id": "B0100JVEKUG"
    },
    {
        "type": "message",
        "subtype": "bot_message",
        "text": "Habari <@U011HNEMU9J> :flag-tz:",
        "ts": "1586192069.364500",
        "username": "GreetBot",
        "bot_id": "B0100JVEKUG"
    },
    {
        "type": "message",
        "subtype": "bot_message",
        "text": "Habari <@U011J62JFHS> :flag-tz:",
        "ts": "1586202465.365100",
        "username": "GreetBot",
        "bot_id": "B0100JVEKUG"
    },
    {
        "type": "message",
        "subtype": "bot_message",
        "text": "Hola <@U0117TTQP18> :flag-es:",
        "ts": "1586204335.365400",
        "username": "GreetBot",
        "bot_id": "B0100JVEKUG"
    },
    {
        "client_msg_id": "0e540a9f-84a7-4742-9303-2a7b197c3ee3",
        "type": "message",
        "text": "Spanish Channel please enter <#C011FLGK6CC|opencovid19-spanish>",
        "user": "U0115G1A03D",
        "ts": "1586208793.366000",
        "team": "TUU48M0T1",
        "user_team": "TUU48M0T1",
        "source_team": "TUU48M0T1",
        "user_profile": {
            "avatar_hash": "4daeacf08e50",
            "image_72": "https:\/\/avatars.slack-edge.com\/2020-04-04\/1038340161250_4daeacf08e50360875bc_72.png",
            "first_name": "",
            "real_name": "Pablo Díaz",
            "display_name": "Pablo Díaz",
            "team": "TUU48M0T1",
            "name": "pablo.diazv",
            "is_restricted": false,
            "is_ultra_restricted": false
        },
        "blocks": [
            {
                "type": "rich_text",
                "block_id": "oU3Oo",
                "elements": [
                    {
                        "type": "rich_text_section",
                        "elements": [
                            {
                                "type": "text",
                                "text": "Spanish Channel please enter "
                            },
                            {
                                "type": "channel",
                                "channel_id": "C011FLGK6CC"
                            }
                        ]
                    }
                ]
            }
        ],
        "thread_ts": "1586208793.366000",
        "reply_count": 2,
        "reply_users_count": 1,
        "latest_reply": "1586293292.396800",
        "reply_users": [
            "U0115G1A03D"
        ],
        "replies": [
            {
                "user": "U0115G1A03D",
                "ts": "1586292260.396600"
            },
            {
                "user": "U0115G1A03D",
                "ts": "1586293292.396800"
            }
        ],
        "subscribed": false
    },
    {
        "type": "message",
        "subtype": "bot_message",
        "text": "Guten tag <@U011EJX7MB8> :flag-de:",
        "ts": "1586208924.366300",
        "username": "GreetBot",
        "bot_id": "B0100JVEKUG"
    },
    {
        "client_msg_id": "81545a97-36ad-4c9d-ad14-292e25b977ff",
        "type": "message",
        "text": "Hi everyone, I am a 22 yo belgian engineering student (Master at UCLouvain) and we developed a website for Belgium to bring together 3D modeling experts (engineers, professors, designers, students, researchers, ...) with hospitals. We have already gathered more than 80 people ready to work. Do not hesitate to get in touch with us. Alexis Barbarin",
        "user": "U011EJX7MB8",
        "ts": "1586209243.367600",
        "team": "TUU48M0T1",
        "user_team": "TUU48M0T1",
        "source_team": "TUU48M0T1",
        "user_profile": {
            "avatar_hash": "465e7739eb70",
            "image_72": "https:\/\/avatars.slack-edge.com\/2020-04-06\/1059251864032_465e7739eb70536cf097_72.jpg",
            "first_name": "Alexis",
            "real_name": "Alexis Barbarin",
            "display_name": "Alexis Barbarin",
            "team": "TUU48M0T1",
            "name": "alexisbarbarin",
            "is_restricted": false,
            "is_ultra_restricted": false
        },
        "blocks": [
            {
                "type": "rich_text",
                "block_id": "REQ",
                "elements": [
                    {
                        "type": "rich_text_section",
                        "elements": [
                            {
                                "type": "text",
                                "text": "Hi everyone, I am a 22 yo belgian engineering student (Master at UCLouvain) and we developed a website for Belgium to bring together 3D modeling experts (engineers, professors, designers, students, researchers, ...) with hospitals. We have already gathered more than 80 people ready to work. Do not hesitate to get in touch with us. Alexis Barbarin"
                            }
                        ]
                    }
                ]
            }
        ],
        "thread_ts": "1586209243.367600",
        "reply_count": 5,
        "reply_users_count": 3,
        "latest_reply": "1586409734.417900",
        "reply_users": [
            "UV02WET96",
            "U011EJX7MB8",
            "U011HNEMU9J"
        ],
        "replies": [
            {
                "user": "UV02WET96",
                "ts": "1586252216.379200"
            },
            {
                "user": "U011EJX7MB8",
                "ts": "1586252894.379500"
            },
            {
                "user": "UV02WET96",
                "ts": "1586253254.380800"
            },
            {
                "user": "U011EJX7MB8",
                "ts": "1586253902.381100"
            },
            {
                "user": "U011HNEMU9J",
                "ts": "1586409734.417900"
            }
        ],
        "subscribed": false,
        "reactions": [
            {
                "name": "wave",
                "users": [
                    "UV02WET96"
                ],
                "count": 1
            }
        ]
    },
    {
        "client_msg_id": "5c1fd8f1-317d-4d2d-9ae1-b20c68b05e92",
        "type": "message",
        "text": "for people who speak French, this is the website : <https:\/\/www.pcom3d.be\/>",
        "user": "U011EJX7MB8",
        "ts": "1586209487.368000",
        "team": "TUU48M0T1",
        "user_team": "TUU48M0T1",
        "source_team": "TUU48M0T1",
        "user_profile": {
            "avatar_hash": "465e7739eb70",
            "image_72": "https:\/\/avatars.slack-edge.com\/2020-04-06\/1059251864032_465e7739eb70536cf097_72.jpg",
            "first_name": "Alexis",
            "real_name": "Alexis Barbarin",
            "display_name": "Alexis Barbarin",
            "team": "TUU48M0T1",
            "name": "alexisbarbarin",
            "is_restricted": false,
            "is_ultra_restricted": false
        },
        "blocks": [
            {
                "type": "rich_text",
                "block_id": "t4J",
                "elements": [
                    {
                        "type": "rich_text_section",
                        "elements": [
                            {
                                "type": "text",
                                "text": "for people who speak French, this is the website : "
                            },
                            {
                                "type": "link",
                                "url": "https:\/\/www.pcom3d.be\/"
                            }
                        ]
                    }
                ]
            }
        ]
    },
    {
        "type": "message",
        "subtype": "bot_message",
        "text": "Annyeong <@U011R8E6F32> :flag-kr:",
        "ts": "1586210022.368300",
        "username": "GreetBot",
        "bot_id": "B0100JVEKUG"
    },
    {
        "type": "message",
        "subtype": "bot_message",
        "text": "Bonjour <@U011F096MNV> :flag-fr:",
        "ts": "1586210685.368600",
        "username": "GreetBot",
        "bot_id": "B0100JVEKUG"
    },
    {
        "type": "message",
        "subtype": "bot_message",
        "text": "Dobryy den’ <@U011JGHK5AQ> :flag-ua:",
        "ts": "1586213140.368900",
        "username": "GreetBot",
        "bot_id": "B0100JVEKUG"
    },
    {
        "client_msg_id": "fb9a6867-d79f-4846-93c4-4c68471e6096",
        "type": "message",
        "text": "Hi all, I'm French, I can develop scripts, web page, transform documents, extract data, test tools, find project, writing doc, translate english&lt;-&gt;frenc, .... By sitting at home",
        "user": "U011JGHK5AQ",
        "ts": "1586213507.370700",
        "team": "TUU48M0T1",
        "user_team": "TUU48M0T1",
        "source_team": "TUU48M0T1",
        "user_profile": {
            "avatar_hash": "g86b7faab3b6",
            "image_72": "https:\/\/secure.gravatar.com\/avatar\/86b7faab3b6b88ee3de74ef40df84c98.jpg?s=72&d=https%3A%2F%2Fa.slack-edge.com%2Fdf10d%2Fimg%2Favatars%2Fava_0016-72.png",
            "first_name": "",
            "real_name": "Guillaume Rehm",
            "display_name": "Guillaume Rehm",
            "team": "TUU48M0T1",
            "name": "guillaume.rehm",
            "is_restricted": false,
            "is_ultra_restricted": false
        },
        "blocks": [
            {
                "type": "rich_text",
                "block_id": "1Lf",
                "elements": [
                    {
                        "type": "rich_text_section",
                        "elements": [
                            {
                                "type": "text",
                                "text": "Hi all, I'm French, I can develop scripts, web page, transform documents, extract data, test tools, find project, writing doc, translate english<->frenc, .... By sitting at home"
                            }
                        ]
                    }
                ]
            }
        ],
        "reactions": [
            {
                "name": "+1",
                "users": [
                    "U011EJX7MB8"
                ],
                "count": 1
            },
            {
                "name": "wave",
                "users": [
                    "UV02WET96"
                ],
                "count": 1
            }
        ]
    },
    {
        "type": "message",
        "subtype": "bot_message",
        "text": "Nǐ hǎo <@U0119D7U2SX> :flag-cn:",
        "ts": "1586213526.371000",
        "username": "GreetBot",
        "bot_id": "B0100JVEKUG"
    },
    {
        "type": "message",
        "subtype": "bot_message",
        "text": "Ohayo <@U011FPD1QLV> :flag-jp:",
        "ts": "1586223277.371900",
        "username": "GreetBot",
        "bot_id": "B0100JVEKUG"
    },
    {
        "type": "message",
        "subtype": "bot_message",
        "text": "Nǐ hǎo <@U0119S5AU3D> :flag-cn:",
        "ts": "1586232757.372400",
        "username": "GreetBot",
        "bot_id": "B0100JVEKUG"
    }
]