[
    {
        "client_msg_id": "a8332d3c-012b-4be7-aee8-f8572eedf058",
        "type": "message",
        "text": "Maybe If you design the test for conserved regions probably you will have more chances of detecting other betacoronavirus. I think that are the high mutation rate areas the ones that characterize this viruses and make them infect humans instead of pangolins or produce more virulence.",
        "user": "UV3URUKK5",
        "ts": "1584628338.028000",
        "team": "TUU48M0T1",
        "user_team": "TUU48M0T1",
        "source_team": "TUU48M0T1",
        "user_profile": {
            "avatar_hash": "64c99c2ed974",
            "image_72": "https:\/\/avatars.slack-edge.com\/2020-03-15\/1000999702004_64c99c2ed97497e08ca9_72.jpg",
            "first_name": "",
            "real_name": "Francisco Javier Quero",
            "display_name": "Francisco Javier Quero",
            "team": "TUU48M0T1",
            "name": "franxi2953",
            "is_restricted": false,
            "is_ultra_restricted": false
        },
        "blocks": [
            {
                "type": "rich_text",
                "block_id": "9cF9",
                "elements": [
                    {
                        "type": "rich_text_section",
                        "elements": [
                            {
                                "type": "text",
                                "text": "Maybe If you design the test for conserved regions probably you will have more chances of detecting other betacoronavirus. I think that are the high mutation rate areas the ones that characterize this viruses and make them infect humans instead of pangolins or produce more virulence."
                            }
                        ]
                    }
                ]
            }
        ]
    },
    {
        "type": "message",
        "subtype": "channel_join",
        "ts": "1584632911.028200",
        "user": "UV1V637PU",
        "text": "<@UV1V637PU> has joined the channel",
        "reactions": [
            {
                "name": "the_horns",
                "users": [
                    "UUNGFHSV8",
                    "UV3URUKK5"
                ],
                "count": 2
            }
        ]
    },
    {
        "type": "message",
        "subtype": "channel_join",
        "ts": "1584637046.029000",
        "user": "UUPF597H9",
        "text": "<@UUPF597H9> has joined the channel"
    },
    {
        "type": "message",
        "subtype": "channel_join",
        "ts": "1584640416.031300",
        "user": "UV852BSMN",
        "text": "<@UV852BSMN> has joined the channel"
    },
    {
        "client_msg_id": "b9daa72d-6c20-4f63-a739-b1fef6b9413a",
        "type": "message",
        "text": "Hello freegenes homies",
        "user": "UV852BSMN",
        "ts": "1584640532.031600",
        "team": "TUU48M0T1",
        "user_team": "TUU48M0T1",
        "source_team": "TUU48M0T1",
        "user_profile": {
            "avatar_hash": "01f3edc1fc26",
            "image_72": "https:\/\/avatars.slack-edge.com\/2020-03-18\/1010241263264_01f3edc1fc26d34a5491_72.jpg",
            "first_name": "Ryan",
            "real_name": "Ryan Shea",
            "display_name": "Ryan Shea",
            "team": "TUU48M0T1",
            "name": "ryan",
            "is_restricted": false,
            "is_ultra_restricted": false
        },
        "blocks": [
            {
                "type": "rich_text",
                "block_id": "0dhcB",
                "elements": [
                    {
                        "type": "rich_text_section",
                        "elements": [
                            {
                                "type": "text",
                                "text": "Hello freegenes homies"
                            }
                        ]
                    }
                ]
            }
        ]
    },
    {
        "client_msg_id": "fc232595-0c2a-4b8b-adaf-588cda763abe",
        "type": "message",
        "text": "Welcome!",
        "user": "UV4Q15S5Q",
        "ts": "1584640560.031800",
        "team": "TUU48M0T1",
        "user_team": "TUU48M0T1",
        "source_team": "TUU48M0T1",
        "user_profile": {
            "avatar_hash": "gdbd3cc24b09",
            "image_72": "https:\/\/secure.gravatar.com\/avatar\/dbd3cc24b092b17d53c09de6bab7969c.jpg?s=72&d=https%3A%2F%2Fa.slack-edge.com%2Fdf10d%2Fimg%2Favatars%2Fava_0012-72.png",
            "first_name": "",
            "real_name": "Keoni Gandall",
            "display_name": "",
            "team": "TUU48M0T1",
            "name": "koeng101",
            "is_restricted": false,
            "is_ultra_restricted": false
        },
        "blocks": [
            {
                "type": "rich_text",
                "block_id": "JXdc",
                "elements": [
                    {
                        "type": "rich_text_section",
                        "elements": [
                            {
                                "type": "text",
                                "text": "Welcome!"
                            }
                        ]
                    }
                ]
            }
        ]
    },
    {
        "client_msg_id": "D9089648-0110-4B7D-9157-D3F60963B053",
        "type": "message",
        "text": "<!channel> Here’s a mostly filled-out spreadsheet of genes and oligos that would be potentially useful in diagnostic tests. If you can think of more, add them in! <https:\/\/docs.google.com\/spreadsheets\/d\/1lYLdxC06IWPYmppczr2O3mJPhZ10sAAQcBVoBv63ZBc\/edit?usp=sharing|https:\/\/docs.google.com\/spreadsheets\/d\/1lYLdxC06IWPYmppczr2O3mJPhZ10sAAQcBVoBv63ZBc\/edit?usp=sharing>",
        "user": "UUNGFHSV8",
        "ts": "1584640694.032000",
        "team": "TUU48M0T1",
        "user_team": "TUU48M0T1",
        "source_team": "TUU48M0T1",
        "user_profile": {
            "avatar_hash": "1c55ee32397a",
            "image_72": "https:\/\/avatars.slack-edge.com\/2020-03-07\/987349161984_1c55ee32397a85a87ec4_72.png",
            "first_name": "Isaac",
            "real_name": "Isaac Larkin",
            "display_name": "Isaac Larkin",
            "team": "TUU48M0T1",
            "name": "eyesmo",
            "is_restricted": false,
            "is_ultra_restricted": false
        },
        "blocks": [
            {
                "type": "rich_text",
                "block_id": "r4dA",
                "elements": [
                    {
                        "type": "rich_text_section",
                        "elements": [
                            {
                                "type": "broadcast",
                                "range": "channel"
                            },
                            {
                                "type": "text",
                                "text": " Here’s a mostly filled-out spreadsheet of genes and oligos that would be potentially useful in diagnostic tests. If you can think of more, add them in! "
                            },
                            {
                                "type": "link",
                                "url": "https:\/\/docs.google.com\/spreadsheets\/d\/1lYLdxC06IWPYmppczr2O3mJPhZ10sAAQcBVoBv63ZBc\/edit?usp=sharing",
                                "text": "https:\/\/docs.google.com\/spreadsheets\/d\/1lYLdxC06IWPYmppczr2O3mJPhZ10sAAQcBVoBv63ZBc\/edit?usp=sharing"
                            }
                        ]
                    }
                ]
            }
        ],
        "reactions": [
            {
                "name": "100",
                "users": [
                    "UUPF597H9",
                    "U01099UVAUA",
                    "UUUEFQW8N"
                ],
                "count": 3
            },
            {
                "name": "+1",
                "users": [
                    "U010PM50QAJ"
                ],
                "count": 1
            }
        ]
    },
    {
        "client_msg_id": "a52186c4-fc3a-40cb-8d87-a3650c2fd2de",
        "type": "message",
        "text": "Btw, isn’t this channel supposed to be named #proj-freegenes?",
        "user": "UV852BSMN",
        "ts": "1584641383.032500",
        "team": "TUU48M0T1",
        "user_team": "TUU48M0T1",
        "source_team": "TUU48M0T1",
        "user_profile": {
            "avatar_hash": "01f3edc1fc26",
            "image_72": "https:\/\/avatars.slack-edge.com\/2020-03-18\/1010241263264_01f3edc1fc26d34a5491_72.jpg",
            "first_name": "Ryan",
            "real_name": "Ryan Shea",
            "display_name": "Ryan Shea",
            "team": "TUU48M0T1",
            "name": "ryan",
            "is_restricted": false,
            "is_ultra_restricted": false
        },
        "edited": {
            "user": "UV852BSMN",
            "ts": "1584641402.000000"
        },
        "blocks": [
            {
                "type": "rich_text",
                "block_id": "5TF",
                "elements": [
                    {
                        "type": "rich_text_section",
                        "elements": [
                            {
                                "type": "text",
                                "text": "Btw, isn’t this channel supposed to be named #proj-freegenes?"
                            }
                        ]
                    }
                ]
            }
        ]
    },
    {
        "client_msg_id": "cc79cec5-3ecf-47d3-9df6-44af165359c4",
        "type": "message",
        "text": "And thanks <@UUNGFHSV8>!",
        "user": "UV852BSMN",
        "ts": "1584641389.032700",
        "team": "TUU48M0T1",
        "user_team": "TUU48M0T1",
        "source_team": "TUU48M0T1",
        "user_profile": {
            "avatar_hash": "01f3edc1fc26",
            "image_72": "https:\/\/avatars.slack-edge.com\/2020-03-18\/1010241263264_01f3edc1fc26d34a5491_72.jpg",
            "first_name": "Ryan",
            "real_name": "Ryan Shea",
            "display_name": "Ryan Shea",
            "team": "TUU48M0T1",
            "name": "ryan",
            "is_restricted": false,
            "is_ultra_restricted": false
        },
        "blocks": [
            {
                "type": "rich_text",
                "block_id": "2gZ",
                "elements": [
                    {
                        "type": "rich_text_section",
                        "elements": [
                            {
                                "type": "text",
                                "text": "And thanks "
                            },
                            {
                                "type": "user",
                                "user_id": "UUNGFHSV8"
                            },
                            {
                                "type": "text",
                                "text": "!"
                            }
                        ]
                    }
                ]
            }
        ]
    }
]