[
    {
        "type": "message",
        "subtype": "channel_join",
        "ts": "1584708705.033100",
        "user": "U01031ZQ7U3",
        "text": "<@U01031ZQ7U3> has joined the channel"
    },
    {
        "client_msg_id": "6170bce0-96c5-4097-8ebf-316f5d380663",
        "type": "message",
        "text": "One thing to consider that <@UV1V637PU> brought up on the Free Genes Discord: purification of the enzymes might not be necessary. Ellington lab and Jenny’s Open Bioeconomy lab have shown that freeze-dried cells that were induced to express enzymes of interest can work just like purified enzymes in many standard molecular biology reactions, including diagnostic tests <https:\/\/journals.plos.org\/plosone\/article?id=10.1371\/journal.pone.0201681>",
        "user": "UUNGFHSV8",
        "ts": "1584719977.034100",
        "team": "TUU48M0T1",
        "user_team": "TUU48M0T1",
        "source_team": "TUU48M0T1",
        "user_profile": {
            "avatar_hash": "1c55ee32397a",
            "image_72": "https:\/\/avatars.slack-edge.com\/2020-03-07\/987349161984_1c55ee32397a85a87ec4_72.png",
            "first_name": "Isaac",
            "real_name": "Isaac Larkin",
            "display_name": "Isaac Larkin",
            "team": "TUU48M0T1",
            "name": "eyesmo",
            "is_restricted": false,
            "is_ultra_restricted": false
        },
        "attachments": [
            {
                "title": "Cellular reagents for diagnostics and synthetic biology",
                "title_link": "https:\/\/journals.plos.org\/plosone\/article?id=10.1371\/journal.pone.0201681",
                "text": "We have found that the overproduction of enzymes in bacteria followed by their lyophilization leads to 'cellular reagents' that can be directly used to carry out numerous molecular biology reactions. We demonstrate the use of cellular reagents in a variety of molecular diagnostics, such as TaqMan qPCR with no diminution in sensitivity, and in synthetic biology cornerstones such as the Gibson assembly of DNA fragments, where new plasmids can be constructed solely based on adding cellular reagents. Cellular reagents have significantly reduced complexity and cost of production, storage and implementation, features that should facilitate accessibility and use in resource-poor conditions.",
                "fallback": "Cellular reagents for diagnostics and synthetic biology",
                "thumb_url": "https:\/\/journals.plos.org\/plosone\/article\/figure\/image?id=10.1371\/journal.pone.0201681.g007&size=inline",
                "from_url": "https:\/\/journals.plos.org\/plosone\/article?id=10.1371\/journal.pone.0201681",
                "thumb_width": 320,
                "thumb_height": 465,
                "service_icon": "https:\/\/journals.plos.org\/plosone\/resource\/img\/favicon.ico",
                "service_name": "journals.plos.org",
                "id": 1,
                "original_url": "https:\/\/journals.plos.org\/plosone\/article?id=10.1371\/journal.pone.0201681"
            }
        ],
        "blocks": [
            {
                "type": "rich_text",
                "block_id": "QxZN",
                "elements": [
                    {
                        "type": "rich_text_section",
                        "elements": [
                            {
                                "type": "text",
                                "text": "One thing to consider that "
                            },
                            {
                                "type": "user",
                                "user_id": "UV1V637PU"
                            },
                            {
                                "type": "text",
                                "text": " brought up on the Free Genes Discord: purification of the enzymes might not be necessary. Ellington lab and Jenny’s Open Bioeconomy lab have shown that freeze-dried cells that were induced to express enzymes of interest can work just like purified enzymes in many standard molecular biology reactions, including diagnostic tests "
                            },
                            {
                                "type": "link",
                                "url": "https:\/\/journals.plos.org\/plosone\/article?id=10.1371\/journal.pone.0201681"
                            }
                        ]
                    }
                ]
            }
        ],
        "thread_ts": "1584719977.034100",
        "reply_count": 6,
        "reply_users_count": 4,
        "latest_reply": "1584821700.037100",
        "reply_users": [
            "U010D014546",
            "UUNGFHSV8",
            "U0103SR759U",
            "UV1V637PU"
        ],
        "replies": [
            {
                "user": "U010D014546",
                "ts": "1584727600.034500"
            },
            {
                "user": "UUNGFHSV8",
                "ts": "1584727651.035200"
            },
            {
                "user": "U0103SR759U",
                "ts": "1584748460.035800"
            },
            {
                "user": "UV1V637PU",
                "ts": "1584820199.036100"
            },
            {
                "user": "UV1V637PU",
                "ts": "1584820246.036300"
            },
            {
                "user": "UV1V637PU",
                "ts": "1584821700.037100"
            }
        ],
        "subscribed": false,
        "reactions": [
            {
                "name": "love+bacteria",
                "users": [
                    "U010D014546"
                ],
                "count": 1
            },
            {
                "name": "+1",
                "users": [
                    "U0103SR759U"
                ],
                "count": 1
            }
        ]
    },
    {
        "type": "message",
        "subtype": "channel_join",
        "ts": "1584726787.034400",
        "user": "U010D014546",
        "text": "<@U010D014546> has joined the channel"
    },
    {
        "client_msg_id": "b479869e-995d-49c4-8ca8-a4be701a254b",
        "type": "message",
        "text": "<@UV1V637PU> Can you send me a link to the free gene discord server?",
        "user": "U010D014546",
        "ts": "1584727600.034500",
        "team": "TUU48M0T1",
        "user_team": "TUU48M0T1",
        "source_team": "TUU48M0T1",
        "user_profile": {
            "avatar_hash": "gf60ced8560b",
            "image_72": "https:\/\/secure.gravatar.com\/avatar\/f60ced8560b19f702db2ea35c88e3b39.jpg?s=72&d=https%3A%2F%2Fa.slack-edge.com%2Fdf10d%2Fimg%2Favatars%2Fava_0013-72.png",
            "first_name": "Alex",
            "real_name": "Alex Brown",
            "display_name": "Alex Brown",
            "team": "TUU48M0T1",
            "name": "abrown",
            "is_restricted": false,
            "is_ultra_restricted": false
        },
        "blocks": [
            {
                "type": "rich_text",
                "block_id": "mAD==",
                "elements": [
                    {
                        "type": "rich_text_section",
                        "elements": [
                            {
                                "type": "user",
                                "user_id": "UV1V637PU"
                            },
                            {
                                "type": "text",
                                "text": " Can you send me a link to the free gene discord server?"
                            }
                        ]
                    }
                ]
            }
        ],
        "thread_ts": "1584719977.034100",
        "parent_user_id": "UUNGFHSV8"
    },
    {
        "client_msg_id": "CAC8AC1B-EB02-4B4E-AC45-2CF54F22534A",
        "type": "message",
        "text": "I can do that, here’s a link <https:\/\/discord.gg\/ReE8AY|https:\/\/discord.gg\/ReE8AY>",
        "user": "UUNGFHSV8",
        "ts": "1584727651.035200",
        "team": "TUU48M0T1",
        "user_team": "TUU48M0T1",
        "source_team": "TUU48M0T1",
        "user_profile": {
            "avatar_hash": "1c55ee32397a",
            "image_72": "https:\/\/avatars.slack-edge.com\/2020-03-07\/987349161984_1c55ee32397a85a87ec4_72.png",
            "first_name": "Isaac",
            "real_name": "Isaac Larkin",
            "display_name": "Isaac Larkin",
            "team": "TUU48M0T1",
            "name": "eyesmo",
            "is_restricted": false,
            "is_ultra_restricted": false
        },
        "attachments": [
            {
                "service_name": "Discord",
                "title": "Join the FreeGenes Dev Discord Server!",
                "title_link": "https:\/\/discord.gg\/ReE8AY",
                "text": "Check out the FreeGenes Dev community on Discord - hang out with 50 other members and enjoy free voice and text chat.",
                "fallback": "Discord: Join the FreeGenes Dev Discord Server!",
                "from_url": "https:\/\/discord.gg\/ReE8AY",
                "thumb_url": "https:\/\/cdn.discordapp.com\/icons\/460891622855409677\/5f7940fa08f662f063a7dc156406b0a2.jpg?size=256",
                "thumb_width": 128,
                "thumb_height": 128,
                "id": 1,
                "original_url": "https:\/\/discord.gg\/ReE8AY"
            }
        ],
        "blocks": [
            {
                "type": "rich_text",
                "block_id": "xWgj",
                "elements": [
                    {
                        "type": "rich_text_section",
                        "elements": [
                            {
                                "type": "text",
                                "text": "I can do that, here’s a link "
                            },
                            {
                                "type": "link",
                                "url": "https:\/\/discord.gg\/ReE8AY",
                                "text": "https:\/\/discord.gg\/ReE8AY"
                            }
                        ]
                    }
                ]
            }
        ],
        "thread_ts": "1584719977.034100",
        "parent_user_id": "UUNGFHSV8"
    },
    {
        "type": "message",
        "subtype": "channel_join",
        "ts": "1584730468.035600",
        "user": "U0103SR759U",
        "text": "<@U0103SR759U> has joined the channel"
    },
    {
        "client_msg_id": "aaab9fd8-e00e-4e41-912d-85fa45e87692",
        "type": "message",
        "text": "That's pretty awsome. Not only the purification might be avoided but -80 fridges and transportation might also be avoided too. That would be huge if we could produce the reagents like that.",
        "user": "U0103SR759U",
        "ts": "1584748460.035800",
        "team": "TUU48M0T1",
        "user_team": "TUU48M0T1",
        "source_team": "TUU48M0T1",
        "user_profile": {
            "avatar_hash": "g2694d379600",
            "image_72": "https:\/\/secure.gravatar.com\/avatar\/2694d3796008843d36d4b6ceff7f8660.jpg?s=72&d=https%3A%2F%2Fa.slack-edge.com%2Fdf10d%2Fimg%2Favatars%2Fava_0010-72.png",
            "first_name": "Adrian",
            "real_name": "Adrian Molecule",
            "display_name": "Adrian Molecule",
            "team": "TUU48M0T1",
            "name": "tada",
            "is_restricted": false,
            "is_ultra_restricted": false
        },
        "blocks": [
            {
                "type": "rich_text",
                "block_id": "WofX",
                "elements": [
                    {
                        "type": "rich_text_section",
                        "elements": [
                            {
                                "type": "text",
                                "text": "That's pretty awsome. Not only the purification might be avoided but -80 fridges and transportation might also be avoided too. That would be huge if we could produce the reagents like that."
                            }
                        ]
                    }
                ]
            }
        ],
        "thread_ts": "1584719977.034100",
        "parent_user_id": "UUNGFHSV8"
    }
]