[
    {
        "client_msg_id": "e343b43a-8e25-4883-87ea-c4ddece1d151",
        "type": "message",
        "text": "great, I’ll see how to best put you two in touch regarding that! :slightly_smiling_face:",
        "user": "U52KBSW9X",
        "ts": "1585302219.055800",
        "team": "TUU48M0T1",
        "user_team": "T48QEEVTJ",
        "source_team": "T48QEEVTJ",
        "user_profile": {
            "avatar_hash": "079d4f4301af",
            "image_72": "https:\/\/avatars.slack-edge.com\/2019-07-28\/696974040114_079d4f4301af057e28c1_72.jpg",
            "first_name": "Bastian",
            "real_name": "Bastian Greshake Tzovaras",
            "display_name": "gedankenstuecke",
            "team": "T48QEEVTJ",
            "name": "gedankenstuecke",
            "is_restricted": false,
            "is_ultra_restricted": false
        },
        "blocks": [
            {
                "type": "rich_text",
                "block_id": "28U9W",
                "elements": [
                    {
                        "type": "rich_text_section",
                        "elements": [
                            {
                                "type": "text",
                                "text": "great, I’ll see how to best put you two in touch regarding that! "
                            },
                            {
                                "type": "emoji",
                                "name": "slightly_smiling_face"
                            }
                        ]
                    }
                ]
            }
        ],
        "thread_ts": "1585267902.049900",
        "parent_user_id": "U4A6D8F6J"
    },
    {
        "type": "message",
        "subtype": "thread_broadcast",
        "text": "I’ll probably not be able to look at this before saturday unfortunately. I have an all-day virtual workshop about the autistica project we hope to get on open humans soon today. So if anyone else who’s a python reader wants to look, that would be amazing!",
        "user": "U52KBSW9X",
        "ts": "1585302277.056000",
        "thread_ts": "1585269156.055400",
        "root": {
            "client_msg_id": "dd66c289-771e-4df7-818c-df97db4b8c12",
            "type": "message",
            "text": "Okay! I've added code to expose the data in the retrospective graphs – this might not be what people want, but…\n\n1. it was the most straightforward (because it's already computed)\n2. most intuitive\/matching what the project says will be publicly shared (i.e. data around events, _not_ \"all your fitbit data\" :wink: )\n\nPlus I worked out permissions stuff that we were going to need for public data endpoints. Hopefully. I'll leave this as a PR so <@U52KBSW9X> can review it :slightly_smiling_face:\n\n<https:\/\/github.com\/OpenHumans\/quantified-flu\/pull\/17|https:\/\/github.com\/OpenHumans\/quantified-flu\/pull\/17>\n\n:thinking_face: it's probably missing other stuff.\n\nlike, I'm realizing the public list could at least give event IDs so you have some sort of identifier for each one. but… I should go to our kids now, I'm sure my partner's waiting for some relief :slightly_smiling_face:",
            "user": "U4A6D8F6J",
            "ts": "1585269156.055400",
            "team": "TUU48M0T1",
            "user_team": "T48QEEVTJ",
            "source_team": "T48QEEVTJ",
            "user_profile": {
                "avatar_hash": "4dc43012615b",
                "image_72": "https:\/\/avatars.slack-edge.com\/2019-10-17\/801801580071_4dc43012615b2074c521_72.jpg",
                "first_name": "Mad",
                "real_name": "Mad Price Ball",
                "display_name": "madprime",
                "team": "T48QEEVTJ",
                "name": "madprime",
                "is_restricted": false,
                "is_ultra_restricted": false
            },
            "edited": {
                "user": "U4A6D8F6J",
                "ts": "1585277043.000000"
            },
            "blocks": [
                {
                    "type": "rich_text",
                    "block_id": "aebHI",
                    "elements": [
                        {
                            "type": "rich_text_section",
                            "elements": [
                                {
                                    "type": "text",
                                    "text": "Okay! I've added code to expose the data in the retrospective graphs – this might not be what people want, but…\n\n1. it was the most straightforward (because it's already computed)\n2. most intuitive\/matching what the project says will be publicly shared (i.e. data around events, "
                                },
                                {
                                    "type": "text",
                                    "text": "not",
                                    "style": {
                                        "italic": true
                                    }
                                },
                                {
                                    "type": "text",
                                    "text": " \"all your fitbit data\" "
                                },
                                {
                                    "type": "emoji",
                                    "name": "wink"
                                },
                                {
                                    "type": "text",
                                    "text": " )\n\nPlus I worked out permissions stuff that we were going to need for public data endpoints. Hopefully. I'll leave this as a PR so "
                                },
                                {
                                    "type": "user",
                                    "user_id": "U52KBSW9X"
                                },
                                {
                                    "type": "text",
                                    "text": " can review it "
                                },
                                {
                                    "type": "emoji",
                                    "name": "slightly_smiling_face"
                                },
                                {
                                    "type": "text",
                                    "text": "\n\n"
                                },
                                {
                                    "type": "link",
                                    "url": "https:\/\/github.com\/OpenHumans\/quantified-flu\/pull\/17",
                                    "text": "https:\/\/github.com\/OpenHumans\/quantified-flu\/pull\/17"
                                },
                                {
                                    "type": "text",
                                    "text": "\n\n"
                                },
                                {
                                    "type": "emoji",
                                    "name": "thinking_face"
                                },
                                {
                                    "type": "text",
                                    "text": " it's probably missing other stuff.\n\nlike, I'm realizing the public list could at least give event IDs so you have some sort of identifier for each one. but… I should go to our kids now, I'm sure my partner's waiting for some relief "
                                },
                                {
                                    "type": "emoji",
                                    "name": "slightly_smiling_face"
                                }
                            ]
                        }
                    ]
                }
            ],
            "thread_ts": "1585269156.055400",
            "reply_count": 3,
            "reply_users_count": 2,
            "latest_reply": "1585315020.059600",
            "reply_users": [
                "U52KBSW9X",
                "U4A6D8F6J"
            ],
            "subscribed": false
        },
        "blocks": [
            {
                "type": "rich_text",
                "block_id": "o=m",
                "elements": [
                    {
                        "type": "rich_text_section",
                        "elements": [
                            {
                                "type": "text",
                                "text": "I’ll probably not be able to look at this before saturday unfortunately. I have an all-day virtual workshop about the autistica project we hope to get on open humans soon today. So if anyone else who’s a python reader wants to look, that would be amazing!"
                            }
                        ]
                    }
                ]
            }
        ],
        "client_msg_id": "e0b51807-8d88-43f9-ab48-cdab676796cc"
    },
    {
        "client_msg_id": "dde09ee4-fa55-4116-acdb-cc614a69484b",
        "type": "message",
        "text": "<@UELJCMA12> Did you have any luck in adding the HR data after i added the scope? :slightly_smiling_face:",
        "user": "U52KBSW9X",
        "ts": "1585310048.056400",
        "team": "TUU48M0T1",
        "user_team": "T48QEEVTJ",
        "source_team": "T48QEEVTJ",
        "user_profile": {
            "avatar_hash": "079d4f4301af",
            "image_72": "https:\/\/avatars.slack-edge.com\/2019-07-28\/696974040114_079d4f4301af057e28c1_72.jpg",
            "first_name": "Bastian",
            "real_name": "Bastian Greshake Tzovaras",
            "display_name": "gedankenstuecke",
            "team": "T48QEEVTJ",
            "name": "gedankenstuecke",
            "is_restricted": false,
            "is_ultra_restricted": false
        },
        "blocks": [
            {
                "type": "rich_text",
                "block_id": "ZJTbV",
                "elements": [
                    {
                        "type": "rich_text_section",
                        "elements": [
                            {
                                "type": "user",
                                "user_id": "UELJCMA12"
                            },
                            {
                                "type": "text",
                                "text": " Did you have any luck in adding the HR data after i added the scope? "
                            },
                            {
                                "type": "emoji",
                                "name": "slightly_smiling_face"
                            }
                        ]
                    }
                ]
            }
        ],
        "thread_ts": "1585133253.005100",
        "parent_user_id": "U52KBSW9X"
    },
    {
        "client_msg_id": "aa804854-7b16-4c66-8588-d53203839c85",
        "type": "message",
        "text": "working on it. I asked Christopher to disconnect &amp; reconnect for the new scopes to take effect (i assume)",
        "user": "UELJCMA12",
        "ts": "1585310095.056600",
        "team": "TUU48M0T1",
        "user_team": "T48QEEVTJ",
        "source_team": "T48QEEVTJ",
        "user_profile": {
            "avatar_hash": "gea75ee33133",
            "image_72": "https:\/\/secure.gravatar.com\/avatar\/3ea75ee33133b9866bdb993e26e8da79.jpg?s=72&d=https%3A%2F%2Fa.slack-edge.com%2Fdf10d%2Fimg%2Favatars%2Fava_0004-72.png",
            "first_name": "",
            "real_name": "Ariadni-Karolina Alexiou",
            "display_name": "carolinux",
            "team": "T48QEEVTJ",
            "name": "carolinegr",
            "is_restricted": false,
            "is_ultra_restricted": false
        },
        "blocks": [
            {
                "type": "rich_text",
                "block_id": "h9TM",
                "elements": [
                    {
                        "type": "rich_text_section",
                        "elements": [
                            {
                                "type": "text",
                                "text": "working on it. I asked Christopher to disconnect & reconnect for the new scopes to take effect (i assume)"
                            }
                        ]
                    }
                ]
            }
        ],
        "thread_ts": "1585133253.005100",
        "parent_user_id": "U52KBSW9X",
        "reactions": [
            {
                "name": "heart",
                "users": [
                    "U52KBSW9X"
                ],
                "count": 1
            }
        ]
    },
    {
        "client_msg_id": "e9d6cdc9-3514-433a-b67a-c4a53358318d",
        "type": "message",
        "text": "The reconnect on my side is done :+1:",
        "user": "UPGELJS3T",
        "ts": "1585310131.056800",
        "team": "TUU48M0T1",
        "user_team": "T48QEEVTJ",
        "source_team": "T48QEEVTJ",
        "user_profile": {
            "avatar_hash": "2d11437649f8",
            "image_72": "https:\/\/avatars.slack-edge.com\/2020-03-18\/996753008531_2d11437649f8214e6ff5_72.jpg",
            "first_name": "Christopher",
            "real_name": "Christopher Wansing",
            "display_name": "Christopher Wansing",
            "team": "T48QEEVTJ",
            "name": "christopher.wansing",
            "is_restricted": false,
            "is_ultra_restricted": false
        },
        "blocks": [
            {
                "type": "rich_text",
                "block_id": "RZ+Q",
                "elements": [
                    {
                        "type": "rich_text_section",
                        "elements": [
                            {
                                "type": "text",
                                "text": "The reconnect on my side is done "
                            },
                            {
                                "type": "emoji",
                                "name": "+1"
                            }
                        ]
                    }
                ]
            }
        ],
        "thread_ts": "1585133253.005100",
        "parent_user_id": "U52KBSW9X",
        "reactions": [
            {
                "name": "heart",
                "users": [
                    "U52KBSW9X"
                ],
                "count": 1
            }
        ]
    },
    {
        "client_msg_id": "fa00e4c3-d05f-441a-9b5a-0923d1f7e24e",
        "type": "message",
        "text": "yep, i was about to write that it might be necessary :slightly_smiling_face:",
        "user": "U52KBSW9X",
        "ts": "1585310133.057000",
        "team": "TUU48M0T1",
        "user_team": "T48QEEVTJ",
        "source_team": "T48QEEVTJ",
        "user_profile": {
            "avatar_hash": "079d4f4301af",
            "image_72": "https:\/\/avatars.slack-edge.com\/2019-07-28\/696974040114_079d4f4301af057e28c1_72.jpg",
            "first_name": "Bastian",
            "real_name": "Bastian Greshake Tzovaras",
            "display_name": "gedankenstuecke",
            "team": "T48QEEVTJ",
            "name": "gedankenstuecke",
            "is_restricted": false,
            "is_ultra_restricted": false
        },
        "blocks": [
            {
                "type": "rich_text",
                "block_id": "+\/Qw",
                "elements": [
                    {
                        "type": "rich_text_section",
                        "elements": [
                            {
                                "type": "text",
                                "text": "yep, i was about to write that it might be necessary "
                            },
                            {
                                "type": "emoji",
                                "name": "slightly_smiling_face"
                            }
                        ]
                    }
                ]
            }
        ],
        "thread_ts": "1585133253.005100",
        "parent_user_id": "U52KBSW9X"
    },
    {
        "client_msg_id": "953eda67-628b-410c-9d66-dc572b2da876",
        "type": "message",
        "text": "perfect, you folks are amazing :slightly_smiling_face:",
        "user": "U52KBSW9X",
        "ts": "1585310143.057200",
        "team": "TUU48M0T1",
        "user_team": "T48QEEVTJ",
        "source_team": "T48QEEVTJ",
        "user_profile": {
            "avatar_hash": "079d4f4301af",
            "image_72": "https:\/\/avatars.slack-edge.com\/2019-07-28\/696974040114_079d4f4301af057e28c1_72.jpg",
            "first_name": "Bastian",
            "real_name": "Bastian Greshake Tzovaras",
            "display_name": "gedankenstuecke",
            "team": "T48QEEVTJ",
            "name": "gedankenstuecke",
            "is_restricted": false,
            "is_ultra_restricted": false
        },
        "blocks": [
            {
                "type": "rich_text",
                "block_id": "4hH",
                "elements": [
                    {
                        "type": "rich_text_section",
                        "elements": [
                            {
                                "type": "text",
                                "text": "perfect, you folks are amazing "
                            },
                            {
                                "type": "emoji",
                                "name": "slightly_smiling_face"
                            }
                        ]
                    }
                ]
            }
        ],
        "thread_ts": "1585133253.005100",
        "parent_user_id": "U52KBSW9X"
    },
    {
        "client_msg_id": "B748AE1D-AECC-41E8-AD14-29D451207DC5",
        "type": "message",
        "text": "Maybe I should just double check and merge? I think it’s probably too much to expect someone to dive in and comment so easily. :)",
        "user": "U4A6D8F6J",
        "ts": "1585314012.059400",
        "team": "TUU48M0T1",
        "user_team": "T48QEEVTJ",
        "source_team": "T48QEEVTJ",
        "user_profile": {
            "avatar_hash": "4dc43012615b",
            "image_72": "https:\/\/avatars.slack-edge.com\/2019-10-17\/801801580071_4dc43012615b2074c521_72.jpg",
            "first_name": "Mad",
            "real_name": "Mad Price Ball",
            "display_name": "madprime",
            "team": "T48QEEVTJ",
            "name": "madprime",
            "is_restricted": false,
            "is_ultra_restricted": false
        },
        "blocks": [
            {
                "type": "rich_text",
                "block_id": "Gh6N",
                "elements": [
                    {
                        "type": "rich_text_section",
                        "elements": [
                            {
                                "type": "text",
                                "text": "Maybe I should just double check and merge? I think it’s probably too much to expect someone to dive in and comment so easily. :)"
                            }
                        ]
                    }
                ]
            }
        ],
        "thread_ts": "1585269156.055400",
        "parent_user_id": "U4A6D8F6J"
    },
    {
        "client_msg_id": "1044ff32-ec14-4da3-865a-32e49cadb450",
        "type": "message",
        "text": "okay :slightly_smiling_face:",
        "user": "U52KBSW9X",
        "ts": "1585315020.059600",
        "team": "TUU48M0T1",
        "user_team": "T48QEEVTJ",
        "source_team": "T48QEEVTJ",
        "user_profile": {
            "avatar_hash": "079d4f4301af",
            "image_72": "https:\/\/avatars.slack-edge.com\/2019-07-28\/696974040114_079d4f4301af057e28c1_72.jpg",
            "first_name": "Bastian",
            "real_name": "Bastian Greshake Tzovaras",
            "display_name": "gedankenstuecke",
            "team": "T48QEEVTJ",
            "name": "gedankenstuecke",
            "is_restricted": false,
            "is_ultra_restricted": false
        },
        "blocks": [
            {
                "type": "rich_text",
                "block_id": "uVG",
                "elements": [
                    {
                        "type": "rich_text_section",
                        "elements": [
                            {
                                "type": "text",
                                "text": "okay "
                            },
                            {
                                "type": "emoji",
                                "name": "slightly_smiling_face"
                            }
                        ]
                    }
                ]
            }
        ],
        "thread_ts": "1585269156.055400",
        "parent_user_id": "U4A6D8F6J"
    },
    {
        "client_msg_id": "4e42b29b-07a4-4d4c-bd80-7358b5c12d5a",
        "type": "message",
        "text": "The main requests for wearable support we get: Apple Watch, Garmin devices &amp; Samsung Galaxy Watches. The first one is currently in development and might be ready soonish, fingers crossed",
        "user": "U52KBSW9X",
        "ts": "1585323628.061600",
        "team": "TUU48M0T1",
        "user_team": "T48QEEVTJ",
        "source_team": "T48QEEVTJ",
        "user_profile": {
            "avatar_hash": "079d4f4301af",
            "image_72": "https:\/\/avatars.slack-edge.com\/2019-07-28\/696974040114_079d4f4301af057e28c1_72.jpg",
            "first_name": "Bastian",
            "real_name": "Bastian Greshake Tzovaras",
            "display_name": "gedankenstuecke",
            "team": "T48QEEVTJ",
            "name": "gedankenstuecke",
            "is_restricted": false,
            "is_ultra_restricted": false
        },
        "blocks": [
            {
                "type": "rich_text",
                "block_id": "4i1N",
                "elements": [
                    {
                        "type": "rich_text_section",
                        "elements": [
                            {
                                "type": "text",
                                "text": "The main requests for wearable support we get: Apple Watch, Garmin devices & Samsung Galaxy Watches. The first one is currently in development and might be ready soonish, fingers crossed"
                            }
                        ]
                    }
                ]
            }
        ]
    },
    {
        "client_msg_id": "39566368-d0c9-4148-beda-e0d758533618",
        "type": "message",
        "text": "The Garmin devices are a bit tricky, as their API is locked off unless you apply for access with them. I just filled out their form to become a developer with them, let’s see.",
        "user": "U52KBSW9X",
        "ts": "1585323662.062300",
        "team": "TUU48M0T1",
        "user_team": "T48QEEVTJ",
        "source_team": "T48QEEVTJ",
        "user_profile": {
            "avatar_hash": "079d4f4301af",
            "image_72": "https:\/\/avatars.slack-edge.com\/2019-07-28\/696974040114_079d4f4301af057e28c1_72.jpg",
            "first_name": "Bastian",
            "real_name": "Bastian Greshake Tzovaras",
            "display_name": "gedankenstuecke",
            "team": "T48QEEVTJ",
            "name": "gedankenstuecke",
            "is_restricted": false,
            "is_ultra_restricted": false
        },
        "blocks": [
            {
                "type": "rich_text",
                "block_id": "eVJM",
                "elements": [
                    {
                        "type": "rich_text_section",
                        "elements": [
                            {
                                "type": "text",
                                "text": "The Garmin devices are a bit tricky, as their API is locked off unless you apply for access with them. I just filled out their form to become a developer with them, let’s see."
                            }
                        ]
                    }
                ]
            }
        ],
        "thread_ts": "1585323662.062300",
        "reply_count": 1,
        "reply_users_count": 1,
        "latest_reply": "1585332975.069500",
        "reply_users": [
            "U52KBSW9X"
        ],
        "replies": [
            {
                "user": "U52KBSW9X",
                "ts": "1585332975.069500"
            }
        ],
        "subscribed": false
    },
    {
        "client_msg_id": "4018320c-d4c7-4d71-9fc5-93513e51ba68",
        "type": "message",
        "text": "The Samsung Galaxy watches apparently have their own ‘Samsung Health’  thing, which is the same as the Apple Health app and would require an android app to export data from it. But there seem to be apps that allow export from Samsung Health to Google Fit. So our existing Google Fit integration might work, if we can add the HR data to it :slightly_smiling_face:",
        "user": "U52KBSW9X",
        "ts": "1585323700.063200",
        "team": "TUU48M0T1",
        "user_team": "T48QEEVTJ",
        "source_team": "T48QEEVTJ",
        "user_profile": {
            "avatar_hash": "079d4f4301af",
            "image_72": "https:\/\/avatars.slack-edge.com\/2019-07-28\/696974040114_079d4f4301af057e28c1_72.jpg",
            "first_name": "Bastian",
            "real_name": "Bastian Greshake Tzovaras",
            "display_name": "gedankenstuecke",
            "team": "T48QEEVTJ",
            "name": "gedankenstuecke",
            "is_restricted": false,
            "is_ultra_restricted": false
        },
        "edited": {
            "user": "U52KBSW9X",
            "ts": "1585323729.000000"
        },
        "blocks": [
            {
                "type": "rich_text",
                "block_id": "1tpaO",
                "elements": [
                    {
                        "type": "rich_text_section",
                        "elements": [
                            {
                                "type": "text",
                                "text": "The Samsung Galaxy watches apparently have their own ‘Samsung Health’  thing, which is the same as the Apple Health app and would require an android app to export data from it. But there seem to be apps that allow export from Samsung Health to Google Fit. So our existing Google Fit integration might work, if we can add the HR data to it "
                            },
                            {
                                "type": "emoji",
                                "name": "slightly_smiling_face"
                            }
                        ]
                    }
                ]
            }
        ]
    },
    {
        "client_msg_id": "dd191975-a445-43f0-abaa-49b6a531e2bf",
        "type": "message",
        "text": "some publicly available data now – you can explore on the site, and there's JSON endpoints to get raw data: <https:\/\/quantifiedflu.org\/retrospective\/public>",
        "user": "U4A6D8F6J",
        "ts": "1585323883.064600",
        "team": "TUU48M0T1",
        "user_team": "T48QEEVTJ",
        "source_team": "T48QEEVTJ",
        "user_profile": {
            "avatar_hash": "4dc43012615b",
            "image_72": "https:\/\/avatars.slack-edge.com\/2019-10-17\/801801580071_4dc43012615b2074c521_72.jpg",
            "first_name": "Mad",
            "real_name": "Mad Price Ball",
            "display_name": "madprime",
            "team": "T48QEEVTJ",
            "name": "madprime",
            "is_restricted": false,
            "is_ultra_restricted": false
        },
        "attachments": [
            {
                "title": "Quantified Flu",
                "title_link": "https:\/\/quantifiedflu.org\/retrospective\/public",
                "text": "Quantified Flu is a project to explore personal tracking and infectious disease",
                "fallback": "Quantified Flu",
                "from_url": "https:\/\/quantifiedflu.org\/retrospective\/public",
                "service_icon": "https:\/\/quantifiedflu.org\/static\/img\/favicon-32x32.ec5b54e60581.png",
                "service_name": "quantifiedflu.org",
                "id": 1,
                "original_url": "https:\/\/quantifiedflu.org\/retrospective\/public"
            }
        ],
        "blocks": [
            {
                "type": "rich_text",
                "block_id": "7tLA",
                "elements": [
                    {
                        "type": "rich_text_section",
                        "elements": [
                            {
                                "type": "text",
                                "text": "some publicly available data now – you can explore on the site, and there's JSON endpoints to get raw data: "
                            },
                            {
                                "type": "link",
                                "url": "https:\/\/quantifiedflu.org\/retrospective\/public"
                            }
                        ]
                    }
                ]
            }
        ],
        "thread_ts": "1585323883.064600",
        "reply_count": 19,
        "reply_users_count": 3,
        "latest_reply": "1585370763.078700",
        "reply_users": [
            "U4A6D8F6J",
            "U52KBSW9X",
            "ULHKLAAR2"
        ],
        "replies": [
            {
                "user": "U4A6D8F6J",
                "ts": "1585323960.064900"
            },
            {
                "user": "U52KBSW9X",
                "ts": "1585323965.065100"
            },
            {
                "user": "ULHKLAAR2",
                "ts": "1585368577.075000"
            },
            {
                "user": "ULHKLAAR2",
                "ts": "1585368641.075300"
            },
            {
                "user": "ULHKLAAR2",
                "ts": "1585368670.075500"
            },
            {
                "user": "ULHKLAAR2",
                "ts": "1585368716.075700"
            },
            {
                "user": "ULHKLAAR2",
                "ts": "1585368808.075900"
            },
            {
                "user": "U4A6D8F6J",
                "ts": "1585368853.076100"
            },
            {
                "user": "ULHKLAAR2",
                "ts": "1585368955.076400"
            },
            {
                "user": "U4A6D8F6J",
                "ts": "1585369008.076600"
            },
            {
                "user": "U4A6D8F6J",
                "ts": "1585369120.076800"
            },
            {
                "user": "ULHKLAAR2",
                "ts": "1585369959.077200"
            },
            {
                "user": "ULHKLAAR2",
                "ts": "1585370037.077400"
            },
            {
                "user": "ULHKLAAR2",
                "ts": "1585370120.077600"
            },
            {
                "user": "ULHKLAAR2",
                "ts": "1585370223.077800"
            },
            {
                "user": "ULHKLAAR2",
                "ts": "1585370249.078000"
            },
            {
                "user": "U4A6D8F6J",
                "ts": "1585370266.078200"
            },
            {
                "user": "ULHKLAAR2",
                "ts": "1585370489.078400"
            },
            {
                "user": "U4A6D8F6J",
                "ts": "1585370763.078700"
            }
        ],
        "subscribed": false,
        "reactions": [
            {
                "name": "+1",
                "users": [
                    "U52KBSW9X"
                ],
                "count": 1
            }
        ]
    },
    {
        "client_msg_id": "667c1f64-600b-4c80-be3a-52632a7b77e1",
        "type": "message",
        "text": "cc <@ULHKLAAR2> as FYI &amp; potential feedback :slightly_smiling_face:\n\nas noted in my PR, this is directly linking to the JSON used by graphs – so I wouldn't be surprised to hear it's less than ideal, but it was (at least) straightforward to implement. (And intuitive for individuals: the data that's visible is what's being shared.)",
        "user": "U4A6D8F6J",
        "ts": "1585323960.064900",
        "team": "TUU48M0T1",
        "user_team": "T48QEEVTJ",
        "source_team": "T48QEEVTJ",
        "user_profile": {
            "avatar_hash": "4dc43012615b",
            "image_72": "https:\/\/avatars.slack-edge.com\/2019-10-17\/801801580071_4dc43012615b2074c521_72.jpg",
            "first_name": "Mad",
            "real_name": "Mad Price Ball",
            "display_name": "madprime",
            "team": "T48QEEVTJ",
            "name": "madprime",
            "is_restricted": false,
            "is_ultra_restricted": false
        },
        "blocks": [
            {
                "type": "rich_text",
                "block_id": "aorg",
                "elements": [
                    {
                        "type": "rich_text_section",
                        "elements": [
                            {
                                "type": "text",
                                "text": "cc "
                            },
                            {
                                "type": "user",
                                "user_id": "ULHKLAAR2"
                            },
                            {
                                "type": "text",
                                "text": " as FYI & potential feedback "
                            },
                            {
                                "type": "emoji",
                                "name": "slightly_smiling_face"
                            },
                            {
                                "type": "text",
                                "text": "\n\nas noted in my PR, this is directly linking to the JSON used by graphs – so I wouldn't be surprised to hear it's less than ideal, but it was (at least) straightforward to implement. (And intuitive for individuals: the data that's visible is what's being shared.)"
                            }
                        ]
                    }
                ]
            }
        ],
        "thread_ts": "1585323883.064600",
        "parent_user_id": "U4A6D8F6J",
        "reactions": [
            {
                "name": "heart",
                "users": [
                    "ULHKLAAR2"
                ],
                "count": 1
            }
        ]
    },
    {
        "client_msg_id": "f7dc9288-6fc4-4e0a-ae3e-47e4bb13d7b3",
        "type": "message",
        "text": "nice!",
        "user": "U52KBSW9X",
        "ts": "1585323965.065100",
        "team": "TUU48M0T1",
        "user_team": "T48QEEVTJ",
        "source_team": "T48QEEVTJ",
        "user_profile": {
            "avatar_hash": "079d4f4301af",
            "image_72": "https:\/\/avatars.slack-edge.com\/2019-07-28\/696974040114_079d4f4301af057e28c1_72.jpg",
            "first_name": "Bastian",
            "real_name": "Bastian Greshake Tzovaras",
            "display_name": "gedankenstuecke",
            "team": "T48QEEVTJ",
            "name": "gedankenstuecke",
            "is_restricted": false,
            "is_ultra_restricted": false
        },
        "blocks": [
            {
                "type": "rich_text",
                "block_id": "MMJP",
                "elements": [
                    {
                        "type": "rich_text_section",
                        "elements": [
                            {
                                "type": "text",
                                "text": "nice!"
                            }
                        ]
                    }
                ]
            }
        ],
        "thread_ts": "1585323883.064600",
        "parent_user_id": "U4A6D8F6J"
    },
    {
        "type": "message",
        "subtype": "channel_join",
        "ts": "1585324959.065400",
        "user": "U010TPWBVRD",
        "text": "<@U010TPWBVRD> has joined the channel",
        "team": "TUU48M0T1"
    },
    {
        "client_msg_id": "7cc19cda-b7cb-4e8c-ac34-a0b1aac8aba6",
        "type": "message",
        "text": "<@U4AGJ7L87> just wanted to ping you to see if you might be able to implement those d3 graphs on the website for us :heart: :slightly_smiling_face:",
        "user": "U52KBSW9X",
        "ts": "1585326644.065600",
        "team": "TUU48M0T1",
        "user_team": "T48QEEVTJ",
        "source_team": "T48QEEVTJ",
        "user_profile": {
            "avatar_hash": "079d4f4301af",
            "image_72": "https:\/\/avatars.slack-edge.com\/2019-07-28\/696974040114_079d4f4301af057e28c1_72.jpg",
            "first_name": "Bastian",
            "real_name": "Bastian Greshake Tzovaras",
            "display_name": "gedankenstuecke",
            "team": "T48QEEVTJ",
            "name": "gedankenstuecke",
            "is_restricted": false,
            "is_ultra_restricted": false
        },
        "blocks": [
            {
                "type": "rich_text",
                "block_id": "EGKB",
                "elements": [
                    {
                        "type": "rich_text_section",
                        "elements": [
                            {
                                "type": "user",
                                "user_id": "U4AGJ7L87"
                            },
                            {
                                "type": "text",
                                "text": " just wanted to ping you to see if you might be able to implement those d3 graphs on the website for us "
                            },
                            {
                                "type": "emoji",
                                "name": "heart"
                            },
                            {
                                "type": "text",
                                "text": " "
                            },
                            {
                                "type": "emoji",
                                "name": "slightly_smiling_face"
                            }
                        ]
                    }
                ]
            }
        ],
        "thread_ts": "1585104612.000500",
        "parent_user_id": "U4AGJ7L87"
    },
    {
        "client_msg_id": "A0E80C05-4715-4FA9-A1EC-7EE8A665CDDD",
        "type": "message",
        "text": "I would love an open source symptom tracking\/logging mobile app that’s react native (and maybe using expo for easy development &amp; contribution?) that can deposit data into open humans.",
        "user": "U4A6D8F6J",
        "ts": "1585327349.067800",
        "team": "TUU48M0T1",
        "user_team": "T48QEEVTJ",
        "source_team": "T48QEEVTJ",
        "user_profile": {
            "avatar_hash": "4dc43012615b",
            "image_72": "https:\/\/avatars.slack-edge.com\/2019-10-17\/801801580071_4dc43012615b2074c521_72.jpg",
            "first_name": "Mad",
            "real_name": "Mad Price Ball",
            "display_name": "madprime",
            "team": "T48QEEVTJ",
            "name": "madprime",
            "is_restricted": false,
            "is_ultra_restricted": false
        },
        "blocks": [
            {
                "type": "rich_text",
                "block_id": "e\/a",
                "elements": [
                    {
                        "type": "rich_text_section",
                        "elements": [
                            {
                                "type": "text",
                                "text": "I would love an open source symptom tracking\/logging mobile app that’s react native (and maybe using expo for easy development & contribution?) that can deposit data into open humans."
                            }
                        ]
                    }
                ]
            }
        ],
        "thread_ts": "1585327349.067800",
        "reply_count": 2,
        "reply_users_count": 2,
        "latest_reply": "1585347258.074700",
        "reply_users": [
            "U52KBSW9X",
            "U010RP0P89L"
        ],
        "replies": [
            {
                "user": "U52KBSW9X",
                "ts": "1585340122.074200"
            },
            {
                "user": "U010RP0P89L",
                "ts": "1585347258.074700"
            }
        ],
        "subscribed": false,
        "reactions": [
            {
                "name": "+1::skin-tone-3",
                "users": [
                    "U49KHPBUJ",
                    "U52KBSW9X",
                    "U010RP0P89L"
                ],
                "count": 3
            }
        ]
    },
    {
        "client_msg_id": "daac4ac6-75c4-4383-9235-24bc9138ccfb",
        "type": "message",
        "text": "certainly a possibility, haven't found more time yet though :slightly_smiling_face:",
        "user": "U4AGJ7L87",
        "ts": "1585327561.067900",
        "team": "TUU48M0T1",
        "user_team": "T48QEEVTJ",
        "source_team": "T48QEEVTJ",
        "user_profile": {
            "avatar_hash": "g066561fa364",
            "image_72": "https:\/\/secure.gravatar.com\/avatar\/0066561fa3649531b915aba34caff0b8.jpg?s=72&d=https%3A%2F%2Fa.slack-edge.com%2Fdf10d%2Fimg%2Favatars%2Fava_0024-72.png",
            "first_name": "Beau",
            "real_name": "Beau Gunderson",
            "display_name": "beau",
            "team": "T48QEEVTJ",
            "name": "beau",
            "is_restricted": false,
            "is_ultra_restricted": false
        },
        "blocks": [
            {
                "type": "rich_text",
                "block_id": "25o",
                "elements": [
                    {
                        "type": "rich_text_section",
                        "elements": [
                            {
                                "type": "text",
                                "text": "certainly a possibility, haven't found more time yet though "
                            },
                            {
                                "type": "emoji",
                                "name": "slightly_smiling_face"
                            }
                        ]
                    }
                ]
            }
        ],
        "thread_ts": "1585104612.000500",
        "parent_user_id": "U4AGJ7L87"
    },
    {
        "client_msg_id": "dd576843-8249-430f-82bb-e4a88d148671",
        "type": "message",
        "text": "nice animated graphics from MIT Tech Review:\n<https:\/\/www.technologyreview.com\/s\/615414\/the-covid-19-pandemic-in-two-animated-charts\/>",
        "user": "U49KHPBUJ",
        "ts": "1585329641.068500",
        "team": "TUU48M0T1",
        "user_team": "T48QEEVTJ",
        "source_team": "T48QEEVTJ",
        "user_profile": {
            "avatar_hash": "gfeaaafc4cbf",
            "image_72": "https:\/\/secure.gravatar.com\/avatar\/5feaaafc4cbf208f50f9b2807fa791a9.jpg?s=72&d=https%3A%2F%2Fa.slack-edge.com%2Fdf10d%2Fimg%2Favatars%2Fava_0008-72.png",
            "first_name": "Ben",
            "real_name": "Ben Carr",
            "display_name": "benc",
            "team": "T48QEEVTJ",
            "name": "benc",
            "is_restricted": false,
            "is_ultra_restricted": false
        },
        "attachments": [
            {
                "service_name": "MIT Technology Review",
                "title": "The Covid-19 pandemic in two animated charts",
                "title_link": "https:\/\/www.technologyreview.com\/s\/615414\/the-covid-19-pandemic-in-two-animated-charts\/",
                "text": "Watch our visualization to see how confirmed cases outside China have exploded in recent weeks.",
                "fallback": "MIT Technology Review: The Covid-19 pandemic in two animated charts",
                "image_url": "https:\/\/www.technologyreview.com\/i\/images\/screen-shot-2020-03-27-at-9.48.21-am.png?sw=560&cx=0&cy=0&cw=2016&ch=1134",
                "from_url": "https:\/\/www.technologyreview.com\/s\/615414\/the-covid-19-pandemic-in-two-animated-charts\/",
                "image_width": 444,
                "image_height": 250,
                "image_bytes": 50790,
                "service_icon": "https:\/\/www.technologyreview.com\/favicon.ico?v=2",
                "id": 1,
                "original_url": "https:\/\/www.technologyreview.com\/s\/615414\/the-covid-19-pandemic-in-two-animated-charts\/"
            }
        ],
        "blocks": [
            {
                "type": "rich_text",
                "block_id": "X6j",
                "elements": [
                    {
                        "type": "rich_text_section",
                        "elements": [
                            {
                                "type": "text",
                                "text": "nice animated graphics from MIT Tech Review:\n"
                            },
                            {
                                "type": "link",
                                "url": "https:\/\/www.technologyreview.com\/s\/615414\/the-covid-19-pandemic-in-two-animated-charts\/"
                            }
                        ]
                    }
                ]
            }
        ]
    },
    {
        "client_msg_id": "3415ee71-92e1-4a30-9d93-e2c25a8df1f3",
        "type": "message",
        "text": "No worries, that’s what I assumed. Do you think there’s a chance you might get to it in the next few days? And would you mind me asking every few days as I know how easy things fall of my plate? :innocent: :smile:",
        "user": "U52KBSW9X",
        "ts": "1585331240.068800",
        "team": "TUU48M0T1",
        "user_team": "T48QEEVTJ",
        "source_team": "T48QEEVTJ",
        "user_profile": {
            "avatar_hash": "079d4f4301af",
            "image_72": "https:\/\/avatars.slack-edge.com\/2019-07-28\/696974040114_079d4f4301af057e28c1_72.jpg",
            "first_name": "Bastian",
            "real_name": "Bastian Greshake Tzovaras",
            "display_name": "gedankenstuecke",
            "team": "T48QEEVTJ",
            "name": "gedankenstuecke",
            "is_restricted": false,
            "is_ultra_restricted": false
        },
        "blocks": [
            {
                "type": "rich_text",
                "block_id": "OrAVQ",
                "elements": [
                    {
                        "type": "rich_text_section",
                        "elements": [
                            {
                                "type": "text",
                                "text": "No worries, that’s what I assumed. Do you think there’s a chance you might get to it in the next few days? And would you mind me asking every few days as I know how easy things fall of my plate? "
                            },
                            {
                                "type": "emoji",
                                "name": "innocent"
                            },
                            {
                                "type": "text",
                                "text": " "
                            },
                            {
                                "type": "emoji",
                                "name": "smile"
                            }
                        ]
                    }
                ]
            }
        ],
        "thread_ts": "1585104612.000500",
        "parent_user_id": "U4AGJ7L87"
    },
    {
        "client_msg_id": "94223a7b-8221-4ab0-8546-0caa1b196cba",
        "type": "message",
        "text": "i always appreciate being nudged :slightly_smiling_face:",
        "user": "U4AGJ7L87",
        "ts": "1585332721.069000",
        "team": "TUU48M0T1",
        "user_team": "T48QEEVTJ",
        "source_team": "T48QEEVTJ",
        "user_profile": {
            "avatar_hash": "g066561fa364",
            "image_72": "https:\/\/secure.gravatar.com\/avatar\/0066561fa3649531b915aba34caff0b8.jpg?s=72&d=https%3A%2F%2Fa.slack-edge.com%2Fdf10d%2Fimg%2Favatars%2Fava_0024-72.png",
            "first_name": "Beau",
            "real_name": "Beau Gunderson",
            "display_name": "beau",
            "team": "T48QEEVTJ",
            "name": "beau",
            "is_restricted": false,
            "is_ultra_restricted": false
        },
        "blocks": [
            {
                "type": "rich_text",
                "block_id": "V13",
                "elements": [
                    {
                        "type": "rich_text_section",
                        "elements": [
                            {
                                "type": "text",
                                "text": "i always appreciate being nudged "
                            },
                            {
                                "type": "emoji",
                                "name": "slightly_smiling_face"
                            }
                        ]
                    }
                ]
            }
        ],
        "thread_ts": "1585104612.000500",
        "parent_user_id": "U4AGJ7L87",
        "reactions": [
            {
                "name": "+1",
                "users": [
                    "U52KBSW9X"
                ],
                "count": 1
            }
        ]
    },
    {
        "client_msg_id": "387ce091-c117-40ba-bdbd-bb836515e195",
        "type": "message",
        "text": "perfect, will do, and thanks so much! :slightly_smiling_face:",
        "user": "U52KBSW9X",
        "ts": "1585332764.069300",
        "team": "TUU48M0T1",
        "user_team": "T48QEEVTJ",
        "source_team": "T48QEEVTJ",
        "user_profile": {
            "avatar_hash": "079d4f4301af",
            "image_72": "https:\/\/avatars.slack-edge.com\/2019-07-28\/696974040114_079d4f4301af057e28c1_72.jpg",
            "first_name": "Bastian",
            "real_name": "Bastian Greshake Tzovaras",
            "display_name": "gedankenstuecke",
            "team": "T48QEEVTJ",
            "name": "gedankenstuecke",
            "is_restricted": false,
            "is_ultra_restricted": false
        },
        "blocks": [
            {
                "type": "rich_text",
                "block_id": "63CCL",
                "elements": [
                    {
                        "type": "rich_text_section",
                        "elements": [
                            {
                                "type": "text",
                                "text": "perfect, will do, and thanks so much! "
                            },
                            {
                                "type": "emoji",
                                "name": "slightly_smiling_face"
                            }
                        ]
                    }
                ]
            }
        ],
        "thread_ts": "1585104612.000500",
        "parent_user_id": "U4AGJ7L87"
    },
    {
        "type": "message",
        "subtype": "thread_broadcast",
        "text": "okay, got approval from them to be a developer",
        "user": "U52KBSW9X",
        "ts": "1585332975.069500",
        "thread_ts": "1585323662.062300",
        "root": {
            "client_msg_id": "39566368-d0c9-4148-beda-e0d758533618",
            "type": "message",
            "text": "The Garmin devices are a bit tricky, as their API is locked off unless you apply for access with them. I just filled out their form to become a developer with them, let’s see.",
            "user": "U52KBSW9X",
            "ts": "1585323662.062300",
            "team": "TUU48M0T1",
            "user_team": "T48QEEVTJ",
            "source_team": "T48QEEVTJ",
            "user_profile": {
                "avatar_hash": "079d4f4301af",
                "image_72": "https:\/\/avatars.slack-edge.com\/2019-07-28\/696974040114_079d4f4301af057e28c1_72.jpg",
                "first_name": "Bastian",
                "real_name": "Bastian Greshake Tzovaras",
                "display_name": "gedankenstuecke",
                "team": "T48QEEVTJ",
                "name": "gedankenstuecke",
                "is_restricted": false,
                "is_ultra_restricted": false
            },
            "blocks": [
                {
                    "type": "rich_text",
                    "block_id": "eVJM",
                    "elements": [
                        {
                            "type": "rich_text_section",
                            "elements": [
                                {
                                    "type": "text",
                                    "text": "The Garmin devices are a bit tricky, as their API is locked off unless you apply for access with them. I just filled out their form to become a developer with them, let’s see."
                                }
                            ]
                        }
                    ]
                }
            ],
            "thread_ts": "1585323662.062300",
            "reply_count": 1,
            "reply_users_count": 1,
            "latest_reply": "1585332975.069500",
            "reply_users": [
                "U52KBSW9X"
            ],
            "subscribed": false
        },
        "blocks": [
            {
                "type": "rich_text",
                "block_id": "OmGtI",
                "elements": [
                    {
                        "type": "rich_text_section",
                        "elements": [
                            {
                                "type": "text",
                                "text": "okay, got approval from them to be a developer"
                            }
                        ]
                    }
                ]
            }
        ],
        "client_msg_id": "4cd219c2-4cc8-4429-839e-8a9e786d3ca8",
        "reactions": [
            {
                "name": "champagne",
                "users": [
                    "U49KHPBUJ",
                    "ULHKLAAR2"
                ],
                "count": 2
            }
        ]
    },
    {
        "client_msg_id": "125802b4-74be-434d-9df7-4a744ebadecc",
        "type": "message",
        "text": "Not sure if it's appropriate to ask but does anyone have a way to get discount on the Oura ring? I tend to lose wearables easily :disappointed:",
        "user": "U010RFV4VAB",
        "ts": "1585333651.072300",
        "team": "TUU48M0T1",
        "user_team": "T48QEEVTJ",
        "source_team": "T48QEEVTJ",
        "user_profile": {
            "avatar_hash": "0676c18c7fff",
            "image_72": "https:\/\/avatars.slack-edge.com\/2020-03-26\/1029278562789_0676c18c7fff7a094652_72.jpg",
            "first_name": "",
            "real_name": "husamia",
            "display_name": "husamia",
            "team": "T48QEEVTJ",
            "name": "ammar.husami",
            "is_restricted": false,
            "is_ultra_restricted": false
        },
        "blocks": [
            {
                "type": "rich_text",
                "block_id": "+\/ND",
                "elements": [
                    {
                        "type": "rich_text_section",
                        "elements": [
                            {
                                "type": "text",
                                "text": "Not sure if it's appropriate to ask but does anyone have a way to get discount on the Oura ring? I tend to lose wearables easily "
                            },
                            {
                                "type": "emoji",
                                "name": "disappointed"
                            }
                        ]
                    }
                ]
            }
        ],
        "thread_ts": "1585333651.072300",
        "reply_count": 3,
        "reply_users_count": 3,
        "latest_reply": "1585522421.097700",
        "reply_users": [
            "U52KBSW9X",
            "U49KHPBUJ",
            "ULHKLAAR2"
        ],
        "replies": [
            {
                "user": "U52KBSW9X",
                "ts": "1585334167.072500"
            },
            {
                "user": "U49KHPBUJ",
                "ts": "1585335613.072800"
            },
            {
                "user": "ULHKLAAR2",
                "ts": "1585522421.097700"
            }
        ],
        "subscribed": false
    },
    {
        "client_msg_id": "15ea3e80-a28f-4cb0-8ee4-b384924690b8",
        "type": "message",
        "text": "I found this on the Oura subreddit: <https:\/\/www.reddit.com\/r\/ouraring\/comments\/fpgp7v\/any_75_discounts_still_exist\/> The links seem to work!",
        "user": "U52KBSW9X",
        "ts": "1585334167.072500",
        "team": "TUU48M0T1",
        "user_team": "T48QEEVTJ",
        "source_team": "T48QEEVTJ",
        "user_profile": {
            "avatar_hash": "079d4f4301af",
            "image_72": "https:\/\/avatars.slack-edge.com\/2019-07-28\/696974040114_079d4f4301af057e28c1_72.jpg",
            "first_name": "Bastian",
            "real_name": "Bastian Greshake Tzovaras",
            "display_name": "gedankenstuecke",
            "team": "T48QEEVTJ",
            "name": "gedankenstuecke",
            "is_restricted": false,
            "is_ultra_restricted": false
        },
        "attachments": [
            {
                "service_name": "reddit",
                "title": "Any $75+ discounts still exist?",
                "title_link": "https:\/\/www.reddit.com\/r\/ouraring\/comments\/fpgp7v\/any_75_discounts_still_exist\/",
                "text": "I saw some older threads from 2019 showing there were discounts available but I don't even see any discount code field on their site anymore. Does...",
                "fallback": "reddit: Any $75+ discounts still exist?",
                "thumb_url": "https:\/\/www.redditstatic.com\/new-icon.png",
                "from_url": "https:\/\/www.reddit.com\/r\/ouraring\/comments\/fpgp7v\/any_75_discounts_still_exist\/",
                "thumb_width": 256,
                "thumb_height": 256,
                "service_icon": "http:\/\/www.redditstatic.com\/desktop2x\/img\/favicon\/apple-icon-57x57.png",
                "id": 1,
                "original_url": "https:\/\/www.reddit.com\/r\/ouraring\/comments\/fpgp7v\/any_75_discounts_still_exist\/"
            }
        ],
        "blocks": [
            {
                "type": "rich_text",
                "block_id": "5lVXR",
                "elements": [
                    {
                        "type": "rich_text_section",
                        "elements": [
                            {
                                "type": "text",
                                "text": "I found this on the Oura subreddit: "
                            },
                            {
                                "type": "link",
                                "url": "https:\/\/www.reddit.com\/r\/ouraring\/comments\/fpgp7v\/any_75_discounts_still_exist\/"
                            },
                            {
                                "type": "text",
                                "text": " The links seem to work!"
                            }
                        ]
                    }
                ]
            }
        ],
        "thread_ts": "1585333651.072300",
        "parent_user_id": "U010RFV4VAB"
    },
    {
        "client_msg_id": "5569e68d-1233-492d-a2da-346cb04b9d1a",
        "type": "message",
        "text": "nice <@U52KBSW9X> I’ve been trying to get them off eBay",
        "user": "U49KHPBUJ",
        "ts": "1585335613.072800",
        "team": "TUU48M0T1",
        "user_team": "T48QEEVTJ",
        "source_team": "T48QEEVTJ",
        "user_profile": {
            "avatar_hash": "gfeaaafc4cbf",
            "image_72": "https:\/\/secure.gravatar.com\/avatar\/5feaaafc4cbf208f50f9b2807fa791a9.jpg?s=72&d=https%3A%2F%2Fa.slack-edge.com%2Fdf10d%2Fimg%2Favatars%2Fava_0008-72.png",
            "first_name": "Ben",
            "real_name": "Ben Carr",
            "display_name": "benc",
            "team": "T48QEEVTJ",
            "name": "benc",
            "is_restricted": false,
            "is_ultra_restricted": false
        },
        "blocks": [
            {
                "type": "rich_text",
                "block_id": "UlCFb",
                "elements": [
                    {
                        "type": "rich_text_section",
                        "elements": [
                            {
                                "type": "text",
                                "text": "nice "
                            },
                            {
                                "type": "user",
                                "user_id": "U52KBSW9X"
                            },
                            {
                                "type": "text",
                                "text": " I’ve been trying to get them off eBay"
                            }
                        ]
                    }
                ]
            }
        ],
        "thread_ts": "1585333651.072300",
        "parent_user_id": "U010RFV4VAB"
    },
    {
        "client_msg_id": "1EC8D3A0-675B-4311-81F3-7C1F0A91F237",
        "type": "message",
        "text": "<@U010RP0P89L> do you think the cough detection crowd would be interested in that? Sounds like you’re close to that and already on the way to link to open humans in any case? :)",
        "user": "U52KBSW9X",
        "ts": "1585340122.074200",
        "team": "TUU48M0T1",
        "user_team": "T48QEEVTJ",
        "source_team": "T48QEEVTJ",
        "user_profile": {
            "avatar_hash": "079d4f4301af",
            "image_72": "https:\/\/avatars.slack-edge.com\/2019-07-28\/696974040114_079d4f4301af057e28c1_72.jpg",
            "first_name": "Bastian",
            "real_name": "Bastian Greshake Tzovaras",
            "display_name": "gedankenstuecke",
            "team": "T48QEEVTJ",
            "name": "gedankenstuecke",
            "is_restricted": false,
            "is_ultra_restricted": false
        },
        "blocks": [
            {
                "type": "rich_text",
                "block_id": "dGng",
                "elements": [
                    {
                        "type": "rich_text_section",
                        "elements": [
                            {
                                "type": "user",
                                "user_id": "U010RP0P89L"
                            },
                            {
                                "type": "text",
                                "text": " do you think the cough detection crowd would be interested in that? Sounds like you’re close to that and already on the way to link to open humans in any case? :)"
                            }
                        ]
                    }
                ]
            }
        ],
        "thread_ts": "1585327349.067800",
        "parent_user_id": "U4A6D8F6J"
    },
    {
        "client_msg_id": "e274e609-fc73-4332-a769-77356e0965b4",
        "type": "message",
        "text": "I would love to include it, if you <@U4A6D8F6J> has some kind of workflow in mind we can see how to fit it in the existing sketch. Today a guy released a nice video sketch of the App so we can review.",
        "user": "U010RP0P89L",
        "ts": "1585347258.074700",
        "team": "TUU48M0T1",
        "user_team": "T48QEEVTJ",
        "source_team": "T48QEEVTJ",
        "user_profile": {
            "avatar_hash": "g96f14063d73",
            "image_72": "https:\/\/secure.gravatar.com\/avatar\/96f14063d73cc7867772731f881de414.jpg?s=72&d=https%3A%2F%2Fa.slack-edge.com%2Fdf10d%2Fimg%2Favatars%2Fava_0009-72.png",
            "first_name": "",
            "real_name": "Hernán Morales Durand",
            "display_name": "Hernán Morales Durand",
            "team": "T48QEEVTJ",
            "name": "hernan.morales",
            "is_restricted": false,
            "is_ultra_restricted": false
        },
        "blocks": [
            {
                "type": "rich_text",
                "block_id": "sRgF",
                "elements": [
                    {
                        "type": "rich_text_section",
                        "elements": [
                            {
                                "type": "text",
                                "text": "I would love to include it, if you "
                            },
                            {
                                "type": "user",
                                "user_id": "U4A6D8F6J"
                            },
                            {
                                "type": "text",
                                "text": " has some kind of workflow in mind we can see how to fit it in the existing sketch. Today a guy released a nice video sketch of the App so we can review."
                            }
                        ]
                    }
                ]
            }
        ],
        "thread_ts": "1585327349.067800",
        "parent_user_id": "U4A6D8F6J"
    },
    {
        "client_msg_id": "0c919bcc-fc41-40dc-b577-359525c6cb9b",
        "type": "message",
        "text": "hey <@U4A6D8F6J>, just had a chance to look at this - thanks for the speedy development work, will start pinging the endpoint soon :slightly_smiling_face:",
        "user": "ULHKLAAR2",
        "ts": "1585368577.075000",
        "team": "TUU48M0T1",
        "user_team": "T48QEEVTJ",
        "source_team": "T48QEEVTJ",
        "user_profile": {
            "avatar_hash": "17dc2e416b5a",
            "image_72": "https:\/\/avatars.slack-edge.com\/2020-03-25\/1015056034675_17dc2e416b5aee22237b_72.jpg",
            "first_name": "Jason",
            "real_name": "Jason Jin",
            "display_name": "Jason Jin",
            "team": "T48QEEVTJ",
            "name": "jason",
            "is_restricted": false,
            "is_ultra_restricted": false
        },
        "blocks": [
            {
                "type": "rich_text",
                "block_id": "+Nq",
                "elements": [
                    {
                        "type": "rich_text_section",
                        "elements": [
                            {
                                "type": "text",
                                "text": "hey "
                            },
                            {
                                "type": "user",
                                "user_id": "U4A6D8F6J"
                            },
                            {
                                "type": "text",
                                "text": ", just had a chance to look at this - thanks for the speedy development work, will start pinging the endpoint soon "
                            },
                            {
                                "type": "emoji",
                                "name": "slightly_smiling_face"
                            }
                        ]
                    }
                ]
            }
        ],
        "thread_ts": "1585323883.064600",
        "parent_user_id": "U4A6D8F6J",
        "reactions": [
            {
                "name": "+1",
                "users": [
                    "U4A6D8F6J"
                ],
                "count": 1
            }
        ]
    },
    {
        "client_msg_id": "1b651769-73b7-4189-a031-67e7220d0269",
        "type": "message",
        "text": "so quick note - it may actually be best to expose more historical data, as a lot of these detection methods are looking at historic timeseries and measuring a \"baseline\"",
        "user": "ULHKLAAR2",
        "ts": "1585368641.075300",
        "team": "TUU48M0T1",
        "user_team": "T48QEEVTJ",
        "source_team": "T48QEEVTJ",
        "user_profile": {
            "avatar_hash": "17dc2e416b5a",
            "image_72": "https:\/\/avatars.slack-edge.com\/2020-03-25\/1015056034675_17dc2e416b5aee22237b_72.jpg",
            "first_name": "Jason",
            "real_name": "Jason Jin",
            "display_name": "Jason Jin",
            "team": "T48QEEVTJ",
            "name": "jason",
            "is_restricted": false,
            "is_ultra_restricted": false
        },
        "blocks": [
            {
                "type": "rich_text",
                "block_id": "ufm2",
                "elements": [
                    {
                        "type": "rich_text_section",
                        "elements": [
                            {
                                "type": "text",
                                "text": "so quick note - it may actually be best to expose more historical data, as a lot of these detection methods are looking at historic timeseries and measuring a \"baseline\""
                            }
                        ]
                    }
                ]
            }
        ],
        "thread_ts": "1585323883.064600",
        "parent_user_id": "U4A6D8F6J"
    },
    {
        "client_msg_id": "f7ab36b1-4036-4322-9766-ce028ff00582",
        "type": "message",
        "text": "that's how my current model works, and possibly how stanford's works as well (not sure about scripps), stanford's 2017 paper was all about longitudinal health data &amp; health outcomes",
        "user": "ULHKLAAR2",
        "ts": "1585368670.075500",
        "team": "TUU48M0T1",
        "user_team": "T48QEEVTJ",
        "source_team": "T48QEEVTJ",
        "user_profile": {
            "avatar_hash": "17dc2e416b5a",
            "image_72": "https:\/\/avatars.slack-edge.com\/2020-03-25\/1015056034675_17dc2e416b5aee22237b_72.jpg",
            "first_name": "Jason",
            "real_name": "Jason Jin",
            "display_name": "Jason Jin",
            "team": "T48QEEVTJ",
            "name": "jason",
            "is_restricted": false,
            "is_ultra_restricted": false
        },
        "edited": {
            "user": "ULHKLAAR2",
            "ts": "1585368865.000000"
        },
        "blocks": [
            {
                "type": "rich_text",
                "block_id": "\/SCd",
                "elements": [
                    {
                        "type": "rich_text_section",
                        "elements": [
                            {
                                "type": "text",
                                "text": "that's how my current model works, and possibly how stanford's works as well (not sure about scripps), stanford's 2017 paper was all about longitudinal health data & health outcomes"
                            }
                        ]
                    }
                ]
            }
        ],
        "thread_ts": "1585323883.064600",
        "parent_user_id": "U4A6D8F6J"
    },
    {
        "client_msg_id": "875bc329-8957-4ede-9977-ccb6fd335f78",
        "type": "message",
        "text": "i.e you need to know what normal looks like to detect bad event, and hard to know what normal looks like with small sample size, if that makes sense",
        "user": "ULHKLAAR2",
        "ts": "1585368716.075700",
        "team": "TUU48M0T1",
        "user_team": "T48QEEVTJ",
        "source_team": "T48QEEVTJ",
        "user_profile": {
            "avatar_hash": "17dc2e416b5a",
            "image_72": "https:\/\/avatars.slack-edge.com\/2020-03-25\/1015056034675_17dc2e416b5aee22237b_72.jpg",
            "first_name": "Jason",
            "real_name": "Jason Jin",
            "display_name": "Jason Jin",
            "team": "T48QEEVTJ",
            "name": "jason",
            "is_restricted": false,
            "is_ultra_restricted": false
        },
        "blocks": [
            {
                "type": "rich_text",
                "block_id": "xb2",
                "elements": [
                    {
                        "type": "rich_text_section",
                        "elements": [
                            {
                                "type": "text",
                                "text": "i.e you need to know what normal looks like to detect bad event, and hard to know what normal looks like with small sample size, if that makes sense"
                            }
                        ]
                    }
                ]
            }
        ],
        "thread_ts": "1585323883.064600",
        "parent_user_id": "U4A6D8F6J"
    },
    {
        "client_msg_id": "cad03fc1-871c-450a-b681-31489ff26cb7",
        "type": "message",
        "text": "understandably some users may not want to share that, so that can possibly be a privacy settings toggle, but i think the ideal data has both long periods of normalcy, as well as sick periods",
        "user": "ULHKLAAR2",
        "ts": "1585368808.075900",
        "team": "TUU48M0T1",
        "user_team": "T48QEEVTJ",
        "source_team": "T48QEEVTJ",
        "user_profile": {
            "avatar_hash": "17dc2e416b5a",
            "image_72": "https:\/\/avatars.slack-edge.com\/2020-03-25\/1015056034675_17dc2e416b5aee22237b_72.jpg",
            "first_name": "Jason",
            "real_name": "Jason Jin",
            "display_name": "Jason Jin",
            "team": "T48QEEVTJ",
            "name": "jason",
            "is_restricted": false,
            "is_ultra_restricted": false
        },
        "blocks": [
            {
                "type": "rich_text",
                "block_id": "u2o4B",
                "elements": [
                    {
                        "type": "rich_text_section",
                        "elements": [
                            {
                                "type": "text",
                                "text": "understandably some users may not want to share that, so that can possibly be a privacy settings toggle, but i think the ideal data has both long periods of normalcy, as well as sick periods"
                            }
                        ]
                    }
                ]
            }
        ],
        "thread_ts": "1585323883.064600",
        "parent_user_id": "U4A6D8F6J"
    },
    {
        "client_msg_id": "ac6d5477-8e58-4358-b880-912f6f179aed",
        "type": "message",
        "text": "<@ULHKLAAR2> yeah – I had a similar thought – and it'd be great to see it raised for others to see. To make this visible for others to comment on, maybe you could make a github issue? e.g., describing how much is desired for understanding baseline, maybe we can brainstorm what the best approach is",
        "user": "U4A6D8F6J",
        "ts": "1585368853.076100",
        "team": "TUU48M0T1",
        "user_team": "T48QEEVTJ",
        "source_team": "T48QEEVTJ",
        "user_profile": {
            "avatar_hash": "4dc43012615b",
            "image_72": "https:\/\/avatars.slack-edge.com\/2019-10-17\/801801580071_4dc43012615b2074c521_72.jpg",
            "first_name": "Mad",
            "real_name": "Mad Price Ball",
            "display_name": "madprime",
            "team": "T48QEEVTJ",
            "name": "madprime",
            "is_restricted": false,
            "is_ultra_restricted": false
        },
        "blocks": [
            {
                "type": "rich_text",
                "block_id": "=2E3h",
                "elements": [
                    {
                        "type": "rich_text_section",
                        "elements": [
                            {
                                "type": "user",
                                "user_id": "ULHKLAAR2"
                            },
                            {
                                "type": "text",
                                "text": " yeah – I had a similar thought – and it'd be great to see it raised for others to see. To make this visible for others to comment on, maybe you could make a github issue? e.g., describing how much is desired for understanding baseline, maybe we can brainstorm what the best approach is"
                            }
                        ]
                    }
                ]
            }
        ],
        "thread_ts": "1585323883.064600",
        "parent_user_id": "U4A6D8F6J"
    },
    {
        "client_msg_id": "96d9d838-aee3-4a7d-8fa4-7ba7cd1010b5",
        "type": "message",
        "text": "sure thing, ill create a quick issue - i personally think 3-6 months worth of data before an event might be necessary (just because of how much natural variability some of these metrics are gonna have), i imagine stanford may want even longer time horizon than that <@U010CUK2Q5Q>",
        "user": "ULHKLAAR2",
        "ts": "1585368955.076400",
        "team": "TUU48M0T1",
        "user_team": "T48QEEVTJ",
        "source_team": "T48QEEVTJ",
        "user_profile": {
            "avatar_hash": "17dc2e416b5a",
            "image_72": "https:\/\/avatars.slack-edge.com\/2020-03-25\/1015056034675_17dc2e416b5aee22237b_72.jpg",
            "first_name": "Jason",
            "real_name": "Jason Jin",
            "display_name": "Jason Jin",
            "team": "T48QEEVTJ",
            "name": "jason",
            "is_restricted": false,
            "is_ultra_restricted": false
        },
        "blocks": [
            {
                "type": "rich_text",
                "block_id": "q4\/p",
                "elements": [
                    {
                        "type": "rich_text_section",
                        "elements": [
                            {
                                "type": "text",
                                "text": "sure thing, ill create a quick issue - i personally think 3-6 months worth of data before an event might be necessary (just because of how much natural variability some of these metrics are gonna have), i imagine stanford may want even longer time horizon than that "
                            },
                            {
                                "type": "user",
                                "user_id": "U010CUK2Q5Q"
                            }
                        ]
                    }
                ]
            }
        ],
        "thread_ts": "1585323883.064600",
        "parent_user_id": "U4A6D8F6J"
    },
    {
        "client_msg_id": "560d18c3-8d2d-42e4-9db0-e84db0975c63",
        "type": "message",
        "text": "well, we shouldn't assume it's not possible – but let's start by describing what's wanted. :slightly_smiling_face:",
        "user": "U4A6D8F6J",
        "ts": "1585369008.076600",
        "team": "TUU48M0T1",
        "user_team": "T48QEEVTJ",
        "source_team": "T48QEEVTJ",
        "user_profile": {
            "avatar_hash": "4dc43012615b",
            "image_72": "https:\/\/avatars.slack-edge.com\/2019-10-17\/801801580071_4dc43012615b2074c521_72.jpg",
            "first_name": "Mad",
            "real_name": "Mad Price Ball",
            "display_name": "madprime",
            "team": "T48QEEVTJ",
            "name": "madprime",
            "is_restricted": false,
            "is_ultra_restricted": false
        },
        "blocks": [
            {
                "type": "rich_text",
                "block_id": "bsWiF",
                "elements": [
                    {
                        "type": "rich_text_section",
                        "elements": [
                            {
                                "type": "text",
                                "text": "well, we shouldn't assume it's not possible – but let's start by describing what's wanted. "
                            },
                            {
                                "type": "emoji",
                                "name": "slightly_smiling_face"
                            }
                        ]
                    }
                ]
            }
        ],
        "thread_ts": "1585323883.064600",
        "parent_user_id": "U4A6D8F6J"
    },
    {
        "client_msg_id": "9e4cce9b-3a99-431a-b9f9-f96389331229",
        "type": "message",
        "text": "(and… historic data is likely also muddied by likely containing illness events that _weren't_ remembered, or not remembered clearly enough to pinpoint a date. the positive control relies on memory, and the negative control is even worse.)",
        "user": "U4A6D8F6J",
        "ts": "1585369120.076800",
        "team": "TUU48M0T1",
        "user_team": "T48QEEVTJ",
        "source_team": "T48QEEVTJ",
        "user_profile": {
            "avatar_hash": "4dc43012615b",
            "image_72": "https:\/\/avatars.slack-edge.com\/2019-10-17\/801801580071_4dc43012615b2074c521_72.jpg",
            "first_name": "Mad",
            "real_name": "Mad Price Ball",
            "display_name": "madprime",
            "team": "T48QEEVTJ",
            "name": "madprime",
            "is_restricted": false,
            "is_ultra_restricted": false
        },
        "edited": {
            "user": "U4A6D8F6J",
            "ts": "1585369138.000000"
        },
        "blocks": [
            {
                "type": "rich_text",
                "block_id": "KkIjD",
                "elements": [
                    {
                        "type": "rich_text_section",
                        "elements": [
                            {
                                "type": "text",
                                "text": "(and… historic data is likely also muddied by likely containing illness events that "
                            },
                            {
                                "type": "text",
                                "text": "weren't",
                                "style": {
                                    "italic": true
                                }
                            },
                            {
                                "type": "text",
                                "text": " remembered, or not remembered clearly enough to pinpoint a date. the positive control relies on memory, and the negative control is even worse.)"
                            }
                        ]
                    }
                ]
            }
        ],
        "thread_ts": "1585323883.064600",
        "parent_user_id": "U4A6D8F6J"
    },
    {
        "client_msg_id": "9c841b98-a20f-4350-b092-ab28e4828aa3",
        "type": "message",
        "text": "yea so thats definitely an issue",
        "user": "ULHKLAAR2",
        "ts": "1585369959.077200",
        "team": "TUU48M0T1",
        "user_team": "T48QEEVTJ",
        "source_team": "T48QEEVTJ",
        "user_profile": {
            "avatar_hash": "17dc2e416b5a",
            "image_72": "https:\/\/avatars.slack-edge.com\/2020-03-25\/1015056034675_17dc2e416b5aee22237b_72.jpg",
            "first_name": "Jason",
            "real_name": "Jason Jin",
            "display_name": "Jason Jin",
            "team": "T48QEEVTJ",
            "name": "jason",
            "is_restricted": false,
            "is_ultra_restricted": false
        },
        "blocks": [
            {
                "type": "rich_text",
                "block_id": "TNR2k",
                "elements": [
                    {
                        "type": "rich_text_section",
                        "elements": [
                            {
                                "type": "text",
                                "text": "yea so thats definitely an issue"
                            }
                        ]
                    }
                ]
            }
        ],
        "thread_ts": "1585323883.064600",
        "parent_user_id": "U4A6D8F6J"
    },
    {
        "client_msg_id": "084d7cb5-96ff-426a-a4f8-b7ce141b37c2",
        "type": "message",
        "text": "although the nice thing about it is on average if you're a healthy person with no preexisting conditions, your baseline is healhy and it should be easy to pick apart sick events from that",
        "user": "ULHKLAAR2",
        "ts": "1585370037.077400",
        "team": "TUU48M0T1",
        "user_team": "T48QEEVTJ",
        "source_team": "T48QEEVTJ",
        "user_profile": {
            "avatar_hash": "17dc2e416b5a",
            "image_72": "https:\/\/avatars.slack-edge.com\/2020-03-25\/1015056034675_17dc2e416b5aee22237b_72.jpg",
            "first_name": "Jason",
            "real_name": "Jason Jin",
            "display_name": "Jason Jin",
            "team": "T48QEEVTJ",
            "name": "jason",
            "is_restricted": false,
            "is_ultra_restricted": false
        },
        "blocks": [
            {
                "type": "rich_text",
                "block_id": "m9j",
                "elements": [
                    {
                        "type": "rich_text_section",
                        "elements": [
                            {
                                "type": "text",
                                "text": "although the nice thing about it is on average if you're a healthy person with no preexisting conditions, your baseline is healhy and it should be easy to pick apart sick events from that"
                            }
                        ]
                    }
                ]
            }
        ],
        "thread_ts": "1585323883.064600",
        "parent_user_id": "U4A6D8F6J"
    },
    {
        "client_msg_id": "10f2f40e-03f8-4e1a-ac9d-c2963593af62",
        "type": "message",
        "text": "stanfords models understandably also considers a lot more factors such as genetics &amp; medical conditions as well, but i dont think that's data we can reasonably access in this project",
        "user": "ULHKLAAR2",
        "ts": "1585370120.077600",
        "team": "TUU48M0T1",
        "user_team": "T48QEEVTJ",
        "source_team": "T48QEEVTJ",
        "user_profile": {
            "avatar_hash": "17dc2e416b5a",
            "image_72": "https:\/\/avatars.slack-edge.com\/2020-03-25\/1015056034675_17dc2e416b5aee22237b_72.jpg",
            "first_name": "Jason",
            "real_name": "Jason Jin",
            "display_name": "Jason Jin",
            "team": "T48QEEVTJ",
            "name": "jason",
            "is_restricted": false,
            "is_ultra_restricted": false
        },
        "blocks": [
            {
                "type": "rich_text",
                "block_id": "FKA",
                "elements": [
                    {
                        "type": "rich_text_section",
                        "elements": [
                            {
                                "type": "text",
                                "text": "stanfords models understandably also considers a lot more factors such as genetics & medical conditions as well, but i dont think that's data we can reasonably access in this project"
                            }
                        ]
                    }
                ]
            }
        ],
        "thread_ts": "1585323883.064600",
        "parent_user_id": "U4A6D8F6J"
    },
    {
        "client_msg_id": "a11db588-4852-4be3-9531-6d868915f943",
        "type": "message",
        "text": "also - issues been created: <https:\/\/github.com\/OpenHumans\/quantified-flu\/issues\/18>, i don't think im able to add labels myself",
        "user": "ULHKLAAR2",
        "ts": "1585370223.077800",
        "team": "TUU48M0T1",
        "user_team": "T48QEEVTJ",
        "source_team": "T48QEEVTJ",
        "user_profile": {
            "avatar_hash": "17dc2e416b5a",
            "image_72": "https:\/\/avatars.slack-edge.com\/2020-03-25\/1015056034675_17dc2e416b5aee22237b_72.jpg",
            "first_name": "Jason",
            "real_name": "Jason Jin",
            "display_name": "Jason Jin",
            "team": "T48QEEVTJ",
            "name": "jason",
            "is_restricted": false,
            "is_ultra_restricted": false
        },
        "blocks": [
            {
                "type": "rich_text",
                "block_id": "04oO5",
                "elements": [
                    {
                        "type": "rich_text_section",
                        "elements": [
                            {
                                "type": "text",
                                "text": "also - issues been created: "
                            },
                            {
                                "type": "link",
                                "url": "https:\/\/github.com\/OpenHumans\/quantified-flu\/issues\/18"
                            },
                            {
                                "type": "text",
                                "text": ", i don't think im able to add labels myself"
                            }
                        ]
                    }
                ]
            }
        ],
        "thread_ts": "1585323883.064600",
        "parent_user_id": "U4A6D8F6J"
    },
    {
        "client_msg_id": "c65b8e94-5e60-42e8-9509-642b054a2c72",
        "type": "message",
        "text": "probably falls under enhancement &amp; strategy :slightly_smiling_face:",
        "user": "ULHKLAAR2",
        "ts": "1585370249.078000",
        "team": "TUU48M0T1",
        "user_team": "T48QEEVTJ",
        "source_team": "T48QEEVTJ",
        "user_profile": {
            "avatar_hash": "17dc2e416b5a",
            "image_72": "https:\/\/avatars.slack-edge.com\/2020-03-25\/1015056034675_17dc2e416b5aee22237b_72.jpg",
            "first_name": "Jason",
            "real_name": "Jason Jin",
            "display_name": "Jason Jin",
            "team": "T48QEEVTJ",
            "name": "jason",
            "is_restricted": false,
            "is_ultra_restricted": false
        },
        "blocks": [
            {
                "type": "rich_text",
                "block_id": "cmmNn",
                "elements": [
                    {
                        "type": "rich_text_section",
                        "elements": [
                            {
                                "type": "text",
                                "text": "probably falls under enhancement & strategy "
                            },
                            {
                                "type": "emoji",
                                "name": "slightly_smiling_face"
                            }
                        ]
                    }
                ]
            }
        ],
        "thread_ts": "1585323883.064600",
        "parent_user_id": "U4A6D8F6J"
    },
    {
        "client_msg_id": "1d547298-abab-4cbf-9194-2fbf07f592da",
        "type": "message",
        "text": "hah, well, we do have a lot of folks with genetic data – I used to be with the PGP, and Bastian co-founded openSNP, it attracts genetic data enthusiasts. but I don't expect genetic data to be relevant to this. and thanks for creating that!",
        "user": "U4A6D8F6J",
        "ts": "1585370266.078200",
        "team": "TUU48M0T1",
        "user_team": "T48QEEVTJ",
        "source_team": "T48QEEVTJ",
        "user_profile": {
            "avatar_hash": "4dc43012615b",
            "image_72": "https:\/\/avatars.slack-edge.com\/2019-10-17\/801801580071_4dc43012615b2074c521_72.jpg",
            "first_name": "Mad",
            "real_name": "Mad Price Ball",
            "display_name": "madprime",
            "team": "T48QEEVTJ",
            "name": "madprime",
            "is_restricted": false,
            "is_ultra_restricted": false
        },
        "blocks": [
            {
                "type": "rich_text",
                "block_id": "CisT+",
                "elements": [
                    {
                        "type": "rich_text_section",
                        "elements": [
                            {
                                "type": "text",
                                "text": "hah, well, we do have a lot of folks with genetic data – I used to be with the PGP, and Bastian co-founded openSNP, it attracts genetic data enthusiasts. but I don't expect genetic data to be relevant to this. and thanks for creating that!"
                            }
                        ]
                    }
                ]
            }
        ],
        "thread_ts": "1585323883.064600",
        "parent_user_id": "U4A6D8F6J",
        "reactions": [
            {
                "name": "dna",
                "users": [
                    "ULHKLAAR2"
                ],
                "count": 1
            }
        ]
    },
    {
        "client_msg_id": "531b3150-47f4-41c4-8ff9-a65ba02168a1",
        "type": "message",
        "text": "<@U010CUK2Q5Q> mentioned that stanford's algorithm has a multiomics angle, so i imagine they may eventually ask for genome data, just so you're prepared :stuck_out_tongue:",
        "user": "ULHKLAAR2",
        "ts": "1585370489.078400",
        "team": "TUU48M0T1",
        "user_team": "T48QEEVTJ",
        "source_team": "T48QEEVTJ",
        "user_profile": {
            "avatar_hash": "17dc2e416b5a",
            "image_72": "https:\/\/avatars.slack-edge.com\/2020-03-25\/1015056034675_17dc2e416b5aee22237b_72.jpg",
            "first_name": "Jason",
            "real_name": "Jason Jin",
            "display_name": "Jason Jin",
            "team": "T48QEEVTJ",
            "name": "jason",
            "is_restricted": false,
            "is_ultra_restricted": false
        },
        "blocks": [
            {
                "type": "rich_text",
                "block_id": "=tAKR",
                "elements": [
                    {
                        "type": "rich_text_section",
                        "elements": [
                            {
                                "type": "user",
                                "user_id": "U010CUK2Q5Q"
                            },
                            {
                                "type": "text",
                                "text": " mentioned that stanford's algorithm has a multiomics angle, so i imagine they may eventually ask for genome data, just so you're prepared "
                            },
                            {
                                "type": "emoji",
                                "name": "stuck_out_tongue"
                            }
                        ]
                    }
                ]
            }
        ],
        "thread_ts": "1585323883.064600",
        "parent_user_id": "U4A6D8F6J",
        "reactions": [
            {
                "name": "stuck_out_tongue",
                "users": [
                    "U4A6D8F6J"
                ],
                "count": 1
            }
        ]
    },
    {
        "client_msg_id": "2d94d3f2-fd03-473f-ab4d-c3449ff5f5c6",
        "type": "message",
        "text": "they'd be welcome to it. :smile:  I think I (and Bastian) may be in a bit of a \"ugh, genomes, that's so last decade\" phase. :wink:",
        "user": "U4A6D8F6J",
        "ts": "1585370763.078700",
        "team": "TUU48M0T1",
        "user_team": "T48QEEVTJ",
        "source_team": "T48QEEVTJ",
        "user_profile": {
            "avatar_hash": "4dc43012615b",
            "image_72": "https:\/\/avatars.slack-edge.com\/2019-10-17\/801801580071_4dc43012615b2074c521_72.jpg",
            "first_name": "Mad",
            "real_name": "Mad Price Ball",
            "display_name": "madprime",
            "team": "T48QEEVTJ",
            "name": "madprime",
            "is_restricted": false,
            "is_ultra_restricted": false
        },
        "blocks": [
            {
                "type": "rich_text",
                "block_id": "lccK",
                "elements": [
                    {
                        "type": "rich_text_section",
                        "elements": [
                            {
                                "type": "text",
                                "text": "they'd be welcome to it. "
                            },
                            {
                                "type": "emoji",
                                "name": "smile"
                            },
                            {
                                "type": "text",
                                "text": "  I think I (and Bastian) may be in a bit of a \"ugh, genomes, that's so last decade\" phase. "
                            },
                            {
                                "type": "emoji",
                                "name": "wink"
                            }
                        ]
                    }
                ]
            }
        ],
        "thread_ts": "1585323883.064600",
        "parent_user_id": "U4A6D8F6J"
    }
]