[
    {
        "client_msg_id": "14e5c0d1-1365-4f9e-979f-d74a394edd01",
        "type": "message",
        "text": "hey <@U012W5WERCY>, welcome! :wave:",
        "user": "U52KBSW9X",
        "ts": "1587478240.335700",
        "team": "TUU48M0T1",
        "user_team": "T48QEEVTJ",
        "source_team": "T48QEEVTJ",
        "user_profile": {
            "avatar_hash": "079d4f4301af",
            "image_72": "https:\/\/avatars.slack-edge.com\/2019-07-28\/696974040114_079d4f4301af057e28c1_72.jpg",
            "first_name": "Bastian",
            "real_name": "Bastian Greshake Tzovaras",
            "display_name": "gedankenstuecke",
            "team": "T48QEEVTJ",
            "name": "gedankenstuecke",
            "is_restricted": false,
            "is_ultra_restricted": false
        },
        "blocks": [
            {
                "type": "rich_text",
                "block_id": "pcvr",
                "elements": [
                    {
                        "type": "rich_text_section",
                        "elements": [
                            {
                                "type": "text",
                                "text": "hey "
                            },
                            {
                                "type": "user",
                                "user_id": "U012W5WERCY"
                            },
                            {
                                "type": "text",
                                "text": ", welcome! "
                            },
                            {
                                "type": "emoji",
                                "name": "wave"
                            }
                        ]
                    }
                ]
            }
        ]
    },
    {
        "client_msg_id": "2995bbe2-1c65-4e5a-8152-1f876b3f5749",
        "type": "message",
        "text": "Pulse Ox as a signal of disease severity before breathing problems develop: <https:\/\/www.nytimes.com\/2020\/04\/20\/opinion\/coronavirus-testing-pneumonia.html>",
        "user": "U4EFEMFS9",
        "ts": "1587489180.336300",
        "team": "TUU48M0T1",
        "user_team": "T48QEEVTJ",
        "source_team": "T48QEEVTJ",
        "user_profile": {
            "avatar_hash": "g182c4ed7b70",
            "image_72": "https:\/\/secure.gravatar.com\/avatar\/f182c4ed7b704c54e3c1d1984585e2db.jpg?s=72&d=https%3A%2F%2Fa.slack-edge.com%2Fdf10d%2Fimg%2Favatars%2Fava_0002-72.png",
            "first_name": "Gary",
            "real_name": "Gary Wolf",
            "display_name": "agaricus",
            "team": "T48QEEVTJ",
            "name": "agaricus",
            "is_restricted": false,
            "is_ultra_restricted": false
        },
        "attachments": [
            {
                "service_name": "The New York Times",
                "service_url": "https:\/\/www.nytimes.com",
                "title": "The Infection That’s Silently Killing Coronavirus Patients",
                "title_link": "https:\/\/www.nytimes.com\/2020\/04\/20\/opinion\/coronavirus-testing-pneumonia.html",
                "author_name": "By Richard Levitan",
                "thumb_url": "https:\/\/static01.nyt.com\/images\/2020\/04\/19\/opinion\/19levitan\/19levitan-mediumThreeByTwo440.jpg",
                "thumb_width": 440,
                "thumb_height": 293,
                "text": "This is what I learned during 10 days of treating Covid pneumonia at Bellevue Hospital.",
                "fallback": "The New York Times The Infection That’s Silently Killing Coronavirus Patients",
                "from_url": "https:\/\/www.nytimes.com\/2020\/04\/20\/opinion\/coronavirus-testing-pneumonia.html",
                "service_icon": "https:\/\/a.slack-edge.com\/80588\/img\/unfurl_icons\/nytimes.png",
                "id": 1,
                "original_url": "https:\/\/www.nytimes.com\/2020\/04\/20\/opinion\/coronavirus-testing-pneumonia.html"
            }
        ],
        "blocks": [
            {
                "type": "rich_text",
                "block_id": "vW6",
                "elements": [
                    {
                        "type": "rich_text_section",
                        "elements": [
                            {
                                "type": "text",
                                "text": "Pulse Ox as a signal of disease severity before breathing problems develop: "
                            },
                            {
                                "type": "link",
                                "url": "https:\/\/www.nytimes.com\/2020\/04\/20\/opinion\/coronavirus-testing-pneumonia.html"
                            }
                        ]
                    }
                ]
            }
        ],
        "thread_ts": "1587489180.336300",
        "reply_count": 8,
        "reply_users_count": 2,
        "latest_reply": "1587504664.354600",
        "reply_users": [
            "U4A6D8F6J",
            "U4EFEMFS9"
        ],
        "replies": [
            {
                "user": "U4A6D8F6J",
                "ts": "1587493705.337200"
            },
            {
                "user": "U4A6D8F6J",
                "ts": "1587494455.342200"
            },
            {
                "user": "U4A6D8F6J",
                "ts": "1587494608.342400"
            },
            {
                "user": "U4EFEMFS9",
                "ts": "1587503217.346200"
            },
            {
                "user": "U4A6D8F6J",
                "ts": "1587503607.348100"
            },
            {
                "user": "U4EFEMFS9",
                "ts": "1587504473.351300"
            },
            {
                "user": "U4EFEMFS9",
                "ts": "1587504516.352100"
            },
            {
                "user": "U4A6D8F6J",
                "ts": "1587504664.354600"
            }
        ],
        "subscribed": false
    },
    {
        "type": "message",
        "subtype": "channel_join",
        "ts": "1587493009.336600",
        "user": "UCJ8SS5GE",
        "text": "<@UCJ8SS5GE> has joined the channel",
        "team": "TUU48M0T1"
    },
    {
        "type": "message",
        "subtype": "thread_broadcast",
        "text": "I saw you\/QS shared Bob Troia's write-up too and it mentioned this! <https:\/\/www.quantifiedbob.com\/4-coronavirus-covid-19-symptoms-vital-signs\/>\n\nHe mentioned a high end device, but they come much cheaper.  I wonder whether there's some sense of device popularity or recommendations for pulse oximeters for self-tracking.",
        "user": "U4A6D8F6J",
        "ts": "1587493705.337200",
        "thread_ts": "1587489180.336300",
        "root": {
            "client_msg_id": "2995bbe2-1c65-4e5a-8152-1f876b3f5749",
            "type": "message",
            "text": "Pulse Ox as a signal of disease severity before breathing problems develop: <https:\/\/www.nytimes.com\/2020\/04\/20\/opinion\/coronavirus-testing-pneumonia.html>",
            "user": "U4EFEMFS9",
            "ts": "1587489180.336300",
            "team": "TUU48M0T1",
            "user_team": "T48QEEVTJ",
            "source_team": "T48QEEVTJ",
            "user_profile": {
                "avatar_hash": "g182c4ed7b70",
                "image_72": "https:\/\/secure.gravatar.com\/avatar\/f182c4ed7b704c54e3c1d1984585e2db.jpg?s=72&d=https%3A%2F%2Fa.slack-edge.com%2Fdf10d%2Fimg%2Favatars%2Fava_0002-72.png",
                "first_name": "Gary",
                "real_name": "Gary Wolf",
                "display_name": "agaricus",
                "team": "T48QEEVTJ",
                "name": "agaricus",
                "is_restricted": false,
                "is_ultra_restricted": false
            },
            "attachments": [
                {
                    "service_name": "The New York Times",
                    "service_url": "https:\/\/www.nytimes.com",
                    "title": "The Infection That’s Silently Killing Coronavirus Patients",
                    "title_link": "https:\/\/www.nytimes.com\/2020\/04\/20\/opinion\/coronavirus-testing-pneumonia.html",
                    "author_name": "By Richard Levitan",
                    "thumb_url": "https:\/\/static01.nyt.com\/images\/2020\/04\/19\/opinion\/19levitan\/19levitan-mediumThreeByTwo440.jpg",
                    "thumb_width": 440,
                    "thumb_height": 293,
                    "text": "This is what I learned during 10 days of treating Covid pneumonia at Bellevue Hospital.",
                    "fallback": "The New York Times The Infection That’s Silently Killing Coronavirus Patients",
                    "from_url": "https:\/\/www.nytimes.com\/2020\/04\/20\/opinion\/coronavirus-testing-pneumonia.html",
                    "service_icon": "https:\/\/a.slack-edge.com\/80588\/img\/unfurl_icons\/nytimes.png",
                    "id": 1,
                    "original_url": "https:\/\/www.nytimes.com\/2020\/04\/20\/opinion\/coronavirus-testing-pneumonia.html"
                }
            ],
            "blocks": [
                {
                    "type": "rich_text",
                    "block_id": "vW6",
                    "elements": [
                        {
                            "type": "rich_text_section",
                            "elements": [
                                {
                                    "type": "text",
                                    "text": "Pulse Ox as a signal of disease severity before breathing problems develop: "
                                },
                                {
                                    "type": "link",
                                    "url": "https:\/\/www.nytimes.com\/2020\/04\/20\/opinion\/coronavirus-testing-pneumonia.html"
                                }
                            ]
                        }
                    ]
                }
            ],
            "thread_ts": "1587489180.336300",
            "reply_count": 8,
            "reply_users_count": 2,
            "latest_reply": "1587504664.354600",
            "reply_users": [
                "U4A6D8F6J",
                "U4EFEMFS9"
            ],
            "subscribed": false
        },
        "attachments": [
            {
                "service_name": "Quantified Bob",
                "title": "Coronavirus\/COVID-19 Symptoms - 4 Key Vital Signs to Track",
                "title_link": "https:\/\/www.quantifiedbob.com\/4-coronavirus-covid-19-symptoms-vital-signs\/",
                "text": "These are important vital signs that can be monitored at home, based on coronavirus \/ COVID-19 symptoms and risk factors.",
                "fallback": "Quantified Bob: Coronavirus\/COVID-19 Symptoms - 4 Key Vital Signs to Track",
                "image_url": "https:\/\/www.quantifiedbob.com\/wp-content\/uploads\/2020\/04\/coronavirus-covid-home-tracking-featured.jpg",
                "image_width": 400,
                "image_height": 250,
                "ts": 1586226263,
                "from_url": "https:\/\/www.quantifiedbob.com\/4-coronavirus-covid-19-symptoms-vital-signs\/",
                "image_bytes": 345348,
                "service_icon": "https:\/\/cdn.shortpixel.ai\/spai\/q_glossy+ret_img\/https:\/\/www.quantifiedbob.com\/wp-content\/uploads\/2018\/12\/cropped-favicon-180x180.png",
                "id": 1,
                "original_url": "https:\/\/www.quantifiedbob.com\/4-coronavirus-covid-19-symptoms-vital-signs\/"
            }
        ],
        "blocks": [
            {
                "type": "rich_text",
                "block_id": "FMOBC",
                "elements": [
                    {
                        "type": "rich_text_section",
                        "elements": [
                            {
                                "type": "text",
                                "text": "I saw you\/QS shared Bob Troia's write-up too and it mentioned this! "
                            },
                            {
                                "type": "link",
                                "url": "https:\/\/www.quantifiedbob.com\/4-coronavirus-covid-19-symptoms-vital-signs\/"
                            },
                            {
                                "type": "text",
                                "text": "\n\nHe mentioned a high end device, but they come much cheaper.  I wonder whether there's some sense of device popularity or recommendations for pulse oximeters for self-tracking."
                            }
                        ]
                    }
                ]
            }
        ],
        "client_msg_id": "1d4ad8cc-b050-4be5-a07d-f0dda41541a8"
    },
    {
        "client_msg_id": "3bb1f770-861e-4ce7-9d2b-04ad719a573f",
        "type": "message",
        "text": "tagging <@U011XPQFU2E> – follow-up from the community call: <@U52KBSW9X> and I are trying to figure out how to expose data associated with symptom self-tracking, so that it can include wearable\/device data…\n\nThe main reason we want it available is to help folks contribute data visualizations – especially JS – that others could be using to make their self-tracking useful\/interesting\/insightful.\n\nI think our question was how to bin it in JSON, but we might be missing a meta\/larger concern (I think Carolina mentioned a standard we should be aware of!) –\n• bins according to the day of symptom self-tracking report (all the various data is reported on within that day)\n• bins according to data type (symptom self-tracking, oura heartrate, oura temp, fitbit heartrate), and within that always keyed by datetime stamp)",
        "user": "U4A6D8F6J",
        "ts": "1587493947.341900",
        "team": "TUU48M0T1",
        "user_team": "T48QEEVTJ",
        "source_team": "T48QEEVTJ",
        "user_profile": {
            "avatar_hash": "4dc43012615b",
            "image_72": "https:\/\/avatars.slack-edge.com\/2019-10-17\/801801580071_4dc43012615b2074c521_72.jpg",
            "first_name": "Mad",
            "real_name": "Mad Price Ball",
            "display_name": "madprime",
            "team": "T48QEEVTJ",
            "name": "madprime",
            "is_restricted": false,
            "is_ultra_restricted": false
        },
        "blocks": [
            {
                "type": "rich_text",
                "block_id": "Q7=5",
                "elements": [
                    {
                        "type": "rich_text_section",
                        "elements": [
                            {
                                "type": "text",
                                "text": "tagging "
                            },
                            {
                                "type": "user",
                                "user_id": "U011XPQFU2E"
                            },
                            {
                                "type": "text",
                                "text": " – follow-up from the community call: "
                            },
                            {
                                "type": "user",
                                "user_id": "U52KBSW9X"
                            },
                            {
                                "type": "text",
                                "text": " and I are trying to figure out how to expose data associated with symptom self-tracking, so that it can include wearable\/device data…\n\nThe main reason we want it available is to help folks contribute data visualizations – especially JS – that others could be using to make their self-tracking useful\/interesting\/insightful.\n\nI think our question was how to bin it in JSON, but we might be missing a meta\/larger concern (I think Carolina mentioned a standard we should be aware of!) –\n"
                            }
                        ]
                    },
                    {
                        "type": "rich_text_list",
                        "elements": [
                            {
                                "type": "rich_text_section",
                                "elements": [
                                    {
                                        "type": "text",
                                        "text": "bins according to the day of symptom self-tracking report (all the various data is reported on within that day)"
                                    }
                                ]
                            },
                            {
                                "type": "rich_text_section",
                                "elements": [
                                    {
                                        "type": "text",
                                        "text": "bins according to data type (symptom self-tracking, oura heartrate, oura temp, fitbit heartrate), and within that always keyed by datetime stamp)"
                                    }
                                ]
                            }
                        ],
                        "style": "bullet",
                        "indent": 0
                    }
                ]
            }
        ]
    },
    {
        "type": "message",
        "subtype": "channel_join",
        "ts": "1587493950.342100",
        "user": "U011XPQFU2E",
        "text": "<@U011XPQFU2E> has joined the channel",
        "team": "TUU48M0T1",
        "inviter": "U4A6D8F6J"
    },
    {
        "client_msg_id": "d4694c98-fd3f-489e-a031-d810c435d528",
        "type": "message",
        "text": "I think I envisioned graphing would overlay different Y axes with a common X axis, and that common X axis is datetime\n\nBut each one may have different information for each datetime point. So something like …\n\n```{'symptom reports':\n  ['2020-04-20T11:35:32-07:00': { ... symptom data }, ...]\n 'oura': {\n    'temperature': { oura temp data }\n...```\n… ugh I'm already confusing myself as I write it, I don't know at what level the datetimes should be. I want to place them \"as soon as possible\" but I'm sure something like oura or fitbit has different things at different datetimes.",
        "user": "U4A6D8F6J",
        "ts": "1587494455.342200",
        "team": "TUU48M0T1",
        "user_team": "T48QEEVTJ",
        "source_team": "T48QEEVTJ",
        "user_profile": {
            "avatar_hash": "4dc43012615b",
            "image_72": "https:\/\/avatars.slack-edge.com\/2019-10-17\/801801580071_4dc43012615b2074c521_72.jpg",
            "first_name": "Mad",
            "real_name": "Mad Price Ball",
            "display_name": "madprime",
            "team": "T48QEEVTJ",
            "name": "madprime",
            "is_restricted": false,
            "is_ultra_restricted": false
        },
        "blocks": [
            {
                "type": "rich_text",
                "block_id": "Yk9Vs",
                "elements": [
                    {
                        "type": "rich_text_section",
                        "elements": [
                            {
                                "type": "text",
                                "text": "I think I envisioned graphing would overlay different Y axes with a common X axis, and that common X axis is datetime\n\nBut each one may have different information for each datetime point. So something like …\n\n"
                            }
                        ]
                    },
                    {
                        "type": "rich_text_preformatted",
                        "elements": [
                            {
                                "type": "text",
                                "text": "{'symptom reports':\n  ['2020-04-20T11:35:32-07:00': { ... symptom data }, ...]\n 'oura': {\n    'temperature': { oura temp data }\n..."
                            }
                        ]
                    },
                    {
                        "type": "rich_text_section",
                        "elements": [
                            {
                                "type": "text",
                                "text": "… ugh I'm already confusing myself as I write it, I don't know at what level the datetimes should be. I want to place them \"as soon as possible\" but I'm sure something like oura or fitbit has different things at different datetimes."
                            }
                        ]
                    }
                ]
            }
        ],
        "thread_ts": "1587489180.336300",
        "parent_user_id": "U4EFEMFS9"
    },
    {
        "client_msg_id": "010a5430-cc99-4b6c-b21e-81ca4858ea86",
        "type": "message",
        "text": "like maybe it should be datetime at the highest level, and keys within it for each data type\n\nmaybe the answer is that each type of data needs to be datetime stamped but at different API endpoints so code that doesn't need them doesn't try to get them\n\nugggh I'm going to go get a LaCroix.",
        "user": "U4A6D8F6J",
        "ts": "1587494608.342400",
        "team": "TUU48M0T1",
        "user_team": "T48QEEVTJ",
        "source_team": "T48QEEVTJ",
        "user_profile": {
            "avatar_hash": "4dc43012615b",
            "image_72": "https:\/\/avatars.slack-edge.com\/2019-10-17\/801801580071_4dc43012615b2074c521_72.jpg",
            "first_name": "Mad",
            "real_name": "Mad Price Ball",
            "display_name": "madprime",
            "team": "T48QEEVTJ",
            "name": "madprime",
            "is_restricted": false,
            "is_ultra_restricted": false
        },
        "blocks": [
            {
                "type": "rich_text",
                "block_id": "1E\/V",
                "elements": [
                    {
                        "type": "rich_text_section",
                        "elements": [
                            {
                                "type": "text",
                                "text": "like maybe it should be datetime at the highest level, and keys within it for each data type\n\nmaybe the answer is that each type of data needs to be datetime stamped but at different API endpoints so code that doesn't need them doesn't try to get them\n\nugggh I'm going to go get a LaCroix."
                            }
                        ]
                    }
                ]
            }
        ],
        "thread_ts": "1587489180.336300",
        "parent_user_id": "U4EFEMFS9"
    },
    {
        "client_msg_id": "4a494d08-87d6-4bb8-97c1-f8695e495d08",
        "type": "message",
        "text": "btw here's some updates on getting at the apple heartrate (and any other apple data export), which Lukasz Baldy generously created a first pass at… I was trying to get \"apple login\" working because…\n• … it's become required, e.g. as recently distressed about here: <https:\/\/github.com\/pennersr\/django-allauth\/issues\/2513>\n• something something \"did you actually test it\" from me, hitting one issue after another (solved 2 of 3 so far): <https:\/\/github.com\/pennersr\/django-allauth\/pull\/2424#issuecomment-616333211>\nthe cool thing about open source is people all want to solve the same problem, so often others solve it for you. the annoying thing is sometimes the solver ends up being you. :joy:",
        "user": "U4A6D8F6J",
        "ts": "1587494914.346100",
        "team": "TUU48M0T1",
        "user_team": "T48QEEVTJ",
        "source_team": "T48QEEVTJ",
        "user_profile": {
            "avatar_hash": "4dc43012615b",
            "image_72": "https:\/\/avatars.slack-edge.com\/2019-10-17\/801801580071_4dc43012615b2074c521_72.jpg",
            "first_name": "Mad",
            "real_name": "Mad Price Ball",
            "display_name": "madprime",
            "team": "T48QEEVTJ",
            "name": "madprime",
            "is_restricted": false,
            "is_ultra_restricted": false
        },
        "blocks": [
            {
                "type": "rich_text",
                "block_id": "IWPNY",
                "elements": [
                    {
                        "type": "rich_text_section",
                        "elements": [
                            {
                                "type": "text",
                                "text": "btw here's some updates on getting at the apple heartrate (and any other apple data export), which Lukasz Baldy generously created a first pass at… I was trying to get \"apple login\" working because…\n"
                            }
                        ]
                    },
                    {
                        "type": "rich_text_list",
                        "elements": [
                            {
                                "type": "rich_text_section",
                                "elements": [
                                    {
                                        "type": "text",
                                        "text": "… it's become required, e.g. as recently distressed about here: "
                                    },
                                    {
                                        "type": "link",
                                        "url": "https:\/\/github.com\/pennersr\/django-allauth\/issues\/2513"
                                    }
                                ]
                            },
                            {
                                "type": "rich_text_section",
                                "elements": [
                                    {
                                        "type": "text",
                                        "text": "something something \"did you actually test it\" from me, hitting one issue after another (solved 2 of 3 so far): "
                                    },
                                    {
                                        "type": "link",
                                        "url": "https:\/\/github.com\/pennersr\/django-allauth\/pull\/2424#issuecomment-616333211"
                                    }
                                ]
                            }
                        ],
                        "style": "bullet",
                        "indent": 0
                    },
                    {
                        "type": "rich_text_section",
                        "elements": [
                            {
                                "type": "text",
                                "text": "\nthe cool thing about open source is people all want to solve the same problem, so often others solve it for you. the annoying thing is sometimes the solver ends up being you. "
                            },
                            {
                                "type": "emoji",
                                "name": "joy"
                            }
                        ]
                    }
                ]
            }
        ],
        "thread_ts": "1587494914.346100",
        "reply_count": 2,
        "reply_users_count": 2,
        "latest_reply": "1588030497.371300",
        "reply_users": [
            "U52KBSW9X",
            "U4A6D8F6J"
        ],
        "replies": [
            {
                "user": "U52KBSW9X",
                "ts": "1587542281.361600"
            },
            {
                "user": "U4A6D8F6J",
                "ts": "1588030497.371300"
            }
        ],
        "subscribed": false
    },
    {
        "client_msg_id": "b2faa748-05cc-4e37-ba19-0f52ec557b4e",
        "type": "message",
        "text": "This is over my head technically but I do remember some very hairy discussions at QS conferences about handling dates and times; the least experienced people would proclaim it a solved problem, \"just do [x]...\" and the most experienced people would get a look of mental pain. So...\n\nOn blood ox in particular I noted that expensive ones like Bob uses have bluetooth and integrate into dashboards, while the cheap ones just give a visual readout. My understanding of the use case is that they stand in between a true advanced warning, like significant unexplained elevation of resting heart rate above a typical range (on the early side), and medical diagnosis of severe disease (on the late side). People are using them after they feel sick, to monitor whether they are really in trouble and need a hospital admission. Drop in SpO2 precedes difficulty breathing, supposedly.\n\nRelevant to Quantified Flu, then, I would guess most people are going to do manual measurements using these readout only devices. They would get into QF only when there is a way to add data manually. Maybe it should be considered a symptom? You could put it on the symptom survey: SpO2 level, if measured.",
        "user": "U4EFEMFS9",
        "ts": "1587503217.346200",
        "team": "TUU48M0T1",
        "user_team": "T48QEEVTJ",
        "source_team": "T48QEEVTJ",
        "user_profile": {
            "avatar_hash": "g182c4ed7b70",
            "image_72": "https:\/\/secure.gravatar.com\/avatar\/f182c4ed7b704c54e3c1d1984585e2db.jpg?s=72&d=https%3A%2F%2Fa.slack-edge.com%2Fdf10d%2Fimg%2Favatars%2Fava_0002-72.png",
            "first_name": "Gary",
            "real_name": "Gary Wolf",
            "display_name": "agaricus",
            "team": "T48QEEVTJ",
            "name": "agaricus",
            "is_restricted": false,
            "is_ultra_restricted": false
        },
        "blocks": [
            {
                "type": "rich_text",
                "block_id": "jQMA",
                "elements": [
                    {
                        "type": "rich_text_section",
                        "elements": [
                            {
                                "type": "text",
                                "text": "This is over my head technically but I do remember some very hairy discussions at QS conferences about handling dates and times; the least experienced people would proclaim it a solved problem, \"just do [x]...\" and the most experienced people would get a look of mental pain. So...\n\nOn blood ox in particular I noted that expensive ones like Bob uses have bluetooth and integrate into dashboards, while the cheap ones just give a visual readout. My understanding of the use case is that they stand in between a true advanced warning, like significant unexplained elevation of resting heart rate above a typical range (on the early side), and medical diagnosis of severe disease (on the late side). People are using them after they feel sick, to monitor whether they are really in trouble and need a hospital admission. Drop in SpO2 precedes difficulty breathing, supposedly.\n\nRelevant to Quantified Flu, then, I would guess most people are going to do manual measurements using these readout only devices. They would get into QF only when there is a way to add data manually. Maybe it should be considered a symptom? You could put it on the symptom survey: SpO2 level, if measured."
                            }
                        ]
                    }
                ]
            }
        ],
        "thread_ts": "1587489180.336300",
        "parent_user_id": "U4EFEMFS9",
        "reactions": [
            {
                "name": "+1",
                "users": [
                    "U4A6D8F6J"
                ],
                "count": 1
            }
        ]
    },
    {
        "client_msg_id": "34d0fb4e-c038-4bb0-955d-98f7b1ff6b57",
        "type": "message",
        "text": "Gotcha. That's helpful, thank you <@U4EFEMFS9>!\n\nWith the datetimes themselves, I think we know how to \"best\" handle it when possible. The open-ended question here is more about organizing the data, JSON is more complex than CSV – but I think we could imagine it as \"what set of CSVs do we provide? by day? by data type?\" (I was thinking the latter, Bastian the former.)",
        "user": "U4A6D8F6J",
        "ts": "1587503607.348100",
        "team": "TUU48M0T1",
        "user_team": "T48QEEVTJ",
        "source_team": "T48QEEVTJ",
        "user_profile": {
            "avatar_hash": "4dc43012615b",
            "image_72": "https:\/\/avatars.slack-edge.com\/2019-10-17\/801801580071_4dc43012615b2074c521_72.jpg",
            "first_name": "Mad",
            "real_name": "Mad Price Ball",
            "display_name": "madprime",
            "team": "T48QEEVTJ",
            "name": "madprime",
            "is_restricted": false,
            "is_ultra_restricted": false
        },
        "blocks": [
            {
                "type": "rich_text",
                "block_id": "DjHI",
                "elements": [
                    {
                        "type": "rich_text_section",
                        "elements": [
                            {
                                "type": "text",
                                "text": "Gotcha. That's helpful, thank you "
                            },
                            {
                                "type": "user",
                                "user_id": "U4EFEMFS9"
                            },
                            {
                                "type": "text",
                                "text": "!\n\nWith the datetimes themselves, I think we know how to \"best\" handle it when possible. The open-ended question here is more about organizing the data, JSON is more complex than CSV – but I think we could imagine it as \"what set of CSVs do we provide? by day? by data type?\" (I was thinking the latter, Bastian the former.)"
                            }
                        ]
                    }
                ]
            }
        ],
        "thread_ts": "1587489180.336300",
        "parent_user_id": "U4EFEMFS9"
    },
    {
        "client_msg_id": "4e7590b3-1e57-427b-bab3-08f218015045",
        "type": "message",
        "text": "For more (non-tech) human use I think you're going to make things easier for people giving them their data by data type and letting them (or their friendly notebook makers) take responsibility for data integration. There are a lot of decisions you'd have to make in setting up a table that showed you all your data on a certain day or at a certain time, especially since, as you noted, the frequency of measurement is so different for different data types. If you organize by data type you face fewer decisions and the user gains flexibilty; of course there's a cost in terms of user effort, but hopefully some mediating support will be available, either advice or actual technical tools for integrating data in relation to certain questions.",
        "user": "U4EFEMFS9",
        "ts": "1587504473.351300",
        "team": "TUU48M0T1",
        "user_team": "T48QEEVTJ",
        "source_team": "T48QEEVTJ",
        "user_profile": {
            "avatar_hash": "g182c4ed7b70",
            "image_72": "https:\/\/secure.gravatar.com\/avatar\/f182c4ed7b704c54e3c1d1984585e2db.jpg?s=72&d=https%3A%2F%2Fa.slack-edge.com%2Fdf10d%2Fimg%2Favatars%2Fava_0002-72.png",
            "first_name": "Gary",
            "real_name": "Gary Wolf",
            "display_name": "agaricus",
            "team": "T48QEEVTJ",
            "name": "agaricus",
            "is_restricted": false,
            "is_ultra_restricted": false
        },
        "blocks": [
            {
                "type": "rich_text",
                "block_id": "wXv33",
                "elements": [
                    {
                        "type": "rich_text_section",
                        "elements": [
                            {
                                "type": "text",
                                "text": "For more (non-tech) human use I think you're going to make things easier for people giving them their data by data type and letting them (or their friendly notebook makers) take responsibility for data integration. There are a lot of decisions you'd have to make in setting up a table that showed you all your data on a certain day or at a certain time, especially since, as you noted, the frequency of measurement is so different for different data types. If you organize by data type you face fewer decisions and the user gains flexibilty; of course there's a cost in terms of user effort, but hopefully some mediating support will be available, either advice or actual technical tools for integrating data in relation to certain questions."
                            }
                        ]
                    }
                ]
            }
        ],
        "thread_ts": "1587489180.336300",
        "parent_user_id": "U4EFEMFS9"
    },
    {
        "client_msg_id": "ce9820d6-77e0-4150-ac21-be924d631f92",
        "type": "message",
        "text": "(I hope I've understood the questions correctly.)",
        "user": "U4EFEMFS9",
        "ts": "1587504516.352100",
        "team": "TUU48M0T1",
        "user_team": "T48QEEVTJ",
        "source_team": "T48QEEVTJ",
        "user_profile": {
            "avatar_hash": "g182c4ed7b70",
            "image_72": "https:\/\/secure.gravatar.com\/avatar\/f182c4ed7b704c54e3c1d1984585e2db.jpg?s=72&d=https%3A%2F%2Fa.slack-edge.com%2Fdf10d%2Fimg%2Favatars%2Fava_0002-72.png",
            "first_name": "Gary",
            "real_name": "Gary Wolf",
            "display_name": "agaricus",
            "team": "T48QEEVTJ",
            "name": "agaricus",
            "is_restricted": false,
            "is_ultra_restricted": false
        },
        "blocks": [
            {
                "type": "rich_text",
                "block_id": "Zih7a",
                "elements": [
                    {
                        "type": "rich_text_section",
                        "elements": [
                            {
                                "type": "text",
                                "text": "(I hope I've understood the questions correctly.)"
                            }
                        ]
                    }
                ]
            }
        ],
        "thread_ts": "1587489180.336300",
        "parent_user_id": "U4EFEMFS9"
    },
    {
        "client_msg_id": "c40c0d99-14a9-47ae-9f24-407a8998ce3d",
        "type": "message",
        "text": "[dataviz discussion] Hi\/Salut Mad and Bastian, before going into the viz specifically, are you thinking of personal visualization (only one's data) or a larget dataset? Files get bigger and bigger pretty fast, so there is a standard which compresses and creates tree structures for data: HDF5\n\nFor visualization, I don't know if you have something in place already. JS make things really pretty and easy to understand, but it usually deals poorly with data updates and larger amounts of that (I do think some colleagues would disagree with me). Recently I've been using interactive widgets for jupyter notebook such as Plotly and Holoviz. I can do a bit more research on how to get these as browser apps for non-programmers.\n\nPlease, let me know what would be the requirements for a viz in this context: personal or multi-user data, user demographics and technological literacy, platform (are you looking forward to have this on OH website?), resources you already have for viz and where they fall short (if that's the case).",
        "user": "U011XPQFU2E",
        "ts": "1587504643.354500",
        "team": "TUU48M0T1",
        "user_team": "T48QEEVTJ",
        "source_team": "T48QEEVTJ",
        "user_profile": {
            "avatar_hash": "g762735b44d1",
            "image_72": "https:\/\/secure.gravatar.com\/avatar\/762735b44d18c4a0abdc0357084c5aee.jpg?s=72&d=https%3A%2F%2Fa.slack-edge.com%2Fdf10d%2Fimg%2Favatars%2Fava_0026-72.png",
            "first_name": "",
            "real_name": "Carolina Brum",
            "display_name": "Carolina Brum",
            "team": "T48QEEVTJ",
            "name": "missperovaz",
            "is_restricted": false,
            "is_ultra_restricted": false
        },
        "blocks": [
            {
                "type": "rich_text",
                "block_id": "=mTw",
                "elements": [
                    {
                        "type": "rich_text_section",
                        "elements": [
                            {
                                "type": "text",
                                "text": "[dataviz discussion] Hi\/Salut Mad and Bastian, before going into the viz specifically, are you thinking of personal visualization (only one's data) or a larget dataset? Files get bigger and bigger pretty fast, so there is a standard which compresses and creates tree structures for data: HDF5\n\nFor visualization, I don't know if you have something in place already. JS make things really pretty and easy to understand, but it usually deals poorly with data updates and larger amounts of that (I do think some colleagues would disagree with me). Recently I've been using interactive widgets for jupyter notebook such as Plotly and Holoviz. I can do a bit more research on how to get these as browser apps for non-programmers.\n\nPlease, let me know what would be the requirements for a viz in this context: personal or multi-user data, user demographics and technological literacy, platform (are you looking forward to have this on OH website?), resources you already have for viz and where they fall short (if that's the case)."
                            }
                        ]
                    }
                ]
            }
        ],
        "thread_ts": "1587504643.354500",
        "reply_count": 2,
        "reply_users_count": 2,
        "latest_reply": "1587542554.361800",
        "reply_users": [
            "U4A6D8F6J",
            "U52KBSW9X"
        ],
        "replies": [
            {
                "user": "U4A6D8F6J",
                "ts": "1587504996.354800"
            },
            {
                "user": "U52KBSW9X",
                "ts": "1587542554.361800"
            }
        ],
        "subscribed": false
    },
    {
        "client_msg_id": "cbff7fbc-df40-4785-91d8-6c800a4798c3",
        "type": "message",
        "text": "I think you have. (But I am biased!) Hopefully Bastian and I will find some overlap time to chat again – damned timezones.",
        "user": "U4A6D8F6J",
        "ts": "1587504664.354600",
        "team": "TUU48M0T1",
        "user_team": "T48QEEVTJ",
        "source_team": "T48QEEVTJ",
        "user_profile": {
            "avatar_hash": "4dc43012615b",
            "image_72": "https:\/\/avatars.slack-edge.com\/2019-10-17\/801801580071_4dc43012615b2074c521_72.jpg",
            "first_name": "Mad",
            "real_name": "Mad Price Ball",
            "display_name": "madprime",
            "team": "T48QEEVTJ",
            "name": "madprime",
            "is_restricted": false,
            "is_ultra_restricted": false
        },
        "blocks": [
            {
                "type": "rich_text",
                "block_id": "GSVtP",
                "elements": [
                    {
                        "type": "rich_text_section",
                        "elements": [
                            {
                                "type": "text",
                                "text": "I think you have. (But I am biased!) Hopefully Bastian and I will find some overlap time to chat again – damned timezones."
                            }
                        ]
                    }
                ]
            }
        ],
        "thread_ts": "1587489180.336300",
        "parent_user_id": "U4EFEMFS9"
    },
    {
        "type": "message",
        "subtype": "thread_broadcast",
        "text": "Personal visualization. Looking at something like this: <https:\/\/quantifiedflu.org\/retrospective\/event\/1>\n\n(which Bastian did, and I think he learned \"just enough D3\", he's savvy with R\/Python)\n\n→ but instead of the sick event, visualizing the same data against ongoing reports as seen here (oh god, I missed a whole week checking in on my own project?! :face_palm: embarrassing. lockdown has been a lot…) <https:\/\/quantifiedflu.org\/report\/list\/member\/20383123>\n\nAlthough aggregate visualizations, or individual vs aggregate, would also be cool.\n\nI'll go read about HDF5!",
        "user": "U4A6D8F6J",
        "ts": "1587504996.354800",
        "thread_ts": "1587504643.354500",
        "root": {
            "client_msg_id": "c40c0d99-14a9-47ae-9f24-407a8998ce3d",
            "type": "message",
            "text": "[dataviz discussion] Hi\/Salut Mad and Bastian, before going into the viz specifically, are you thinking of personal visualization (only one's data) or a larget dataset? Files get bigger and bigger pretty fast, so there is a standard which compresses and creates tree structures for data: HDF5\n\nFor visualization, I don't know if you have something in place already. JS make things really pretty and easy to understand, but it usually deals poorly with data updates and larger amounts of that (I do think some colleagues would disagree with me). Recently I've been using interactive widgets for jupyter notebook such as Plotly and Holoviz. I can do a bit more research on how to get these as browser apps for non-programmers.\n\nPlease, let me know what would be the requirements for a viz in this context: personal or multi-user data, user demographics and technological literacy, platform (are you looking forward to have this on OH website?), resources you already have for viz and where they fall short (if that's the case).",
            "user": "U011XPQFU2E",
            "ts": "1587504643.354500",
            "team": "TUU48M0T1",
            "user_team": "T48QEEVTJ",
            "source_team": "T48QEEVTJ",
            "user_profile": {
                "avatar_hash": "g762735b44d1",
                "image_72": "https:\/\/secure.gravatar.com\/avatar\/762735b44d18c4a0abdc0357084c5aee.jpg?s=72&d=https%3A%2F%2Fa.slack-edge.com%2Fdf10d%2Fimg%2Favatars%2Fava_0026-72.png",
                "first_name": "",
                "real_name": "Carolina Brum",
                "display_name": "Carolina Brum",
                "team": "T48QEEVTJ",
                "name": "missperovaz",
                "is_restricted": false,
                "is_ultra_restricted": false
            },
            "blocks": [
                {
                    "type": "rich_text",
                    "block_id": "=mTw",
                    "elements": [
                        {
                            "type": "rich_text_section",
                            "elements": [
                                {
                                    "type": "text",
                                    "text": "[dataviz discussion] Hi\/Salut Mad and Bastian, before going into the viz specifically, are you thinking of personal visualization (only one's data) or a larget dataset? Files get bigger and bigger pretty fast, so there is a standard which compresses and creates tree structures for data: HDF5\n\nFor visualization, I don't know if you have something in place already. JS make things really pretty and easy to understand, but it usually deals poorly with data updates and larger amounts of that (I do think some colleagues would disagree with me). Recently I've been using interactive widgets for jupyter notebook such as Plotly and Holoviz. I can do a bit more research on how to get these as browser apps for non-programmers.\n\nPlease, let me know what would be the requirements for a viz in this context: personal or multi-user data, user demographics and technological literacy, platform (are you looking forward to have this on OH website?), resources you already have for viz and where they fall short (if that's the case)."
                                }
                            ]
                        }
                    ]
                }
            ],
            "thread_ts": "1587504643.354500",
            "reply_count": 2,
            "reply_users_count": 2,
            "latest_reply": "1587542554.361800",
            "reply_users": [
                "U4A6D8F6J",
                "U52KBSW9X"
            ],
            "subscribed": false
        },
        "attachments": [
            {
                "title": "Quantified Flu",
                "title_link": "https:\/\/quantifiedflu.org\/retrospective\/event\/1",
                "text": "Quantified Flu is a project to explore personal tracking and infectious disease",
                "fallback": "Quantified Flu",
                "from_url": "https:\/\/quantifiedflu.org\/retrospective\/event\/1",
                "service_icon": "https:\/\/quantifiedflu.org\/static\/img\/favicon-32x32.ec5b54e60581.png",
                "service_name": "quantifiedflu.org",
                "id": 1,
                "original_url": "https:\/\/quantifiedflu.org\/retrospective\/event\/1"
            },
            {
                "title": "Quantified Flu",
                "title_link": "https:\/\/quantifiedflu.org\/report\/list\/member\/20383123",
                "text": "Quantified Flu is a project to explore personal tracking and infectious disease",
                "fallback": "Quantified Flu",
                "from_url": "https:\/\/quantifiedflu.org\/report\/list\/member\/20383123",
                "service_icon": "https:\/\/quantifiedflu.org\/static\/img\/favicon-32x32.ec5b54e60581.png",
                "service_name": "quantifiedflu.org",
                "id": 2,
                "original_url": "https:\/\/quantifiedflu.org\/report\/list\/member\/20383123"
            }
        ],
        "blocks": [
            {
                "type": "rich_text",
                "block_id": "g8gH",
                "elements": [
                    {
                        "type": "rich_text_section",
                        "elements": [
                            {
                                "type": "text",
                                "text": "Personal visualization. Looking at something like this: "
                            },
                            {
                                "type": "link",
                                "url": "https:\/\/quantifiedflu.org\/retrospective\/event\/1"
                            },
                            {
                                "type": "text",
                                "text": "\n\n(which Bastian did, and I think he learned \"just enough D3\", he's savvy with R\/Python)\n\n→ but instead of the sick event, visualizing the same data against ongoing reports as seen here (oh god, I missed a whole week checking in on my own project?! "
                            },
                            {
                                "type": "emoji",
                                "name": "face_palm"
                            },
                            {
                                "type": "text",
                                "text": " embarrassing. lockdown has been a lot…) "
                            },
                            {
                                "type": "link",
                                "url": "https:\/\/quantifiedflu.org\/report\/list\/member\/20383123"
                            },
                            {
                                "type": "text",
                                "text": "\n\nAlthough aggregate visualizations, or individual vs aggregate, would also be cool.\n\nI'll go read about HDF5!"
                            }
                        ]
                    }
                ]
            }
        ],
        "client_msg_id": "abde1191-7e3c-47cc-a6f8-ae5ca3c0cccf"
    },
    {
        "client_msg_id": "4be14b30-c6f8-4bf0-b1dc-efc6df37dd0b",
        "type": "message",
        "text": "D3 is amazing, I use in my personal website and I love it for static (won't touch data anymore- type of projects). Specially if Bastian is Python\/R savvy, I think that jupyter notebook integrations should be a nice alternative. I'd lack any contribution on how to stream data from the devices to the viz. Maybe Bastian can tell how he is doing.\n\nFor the sick event, doing analysis on the data and finding patterns by comparing similar events definitely calls for a R\/Python solution rather than D3. Depending on the update rate, the analysis can be done offline in Python\/R, results exported to a file and uploaded on D3.\n\nI bet what I'm saying is trivial for you, but I'm saying anyways to get a better perspective on what you have and need.",
        "user": "U011XPQFU2E",
        "ts": "1587505496.361000",
        "team": "TUU48M0T1",
        "user_team": "T48QEEVTJ",
        "source_team": "T48QEEVTJ",
        "user_profile": {
            "avatar_hash": "g762735b44d1",
            "image_72": "https:\/\/secure.gravatar.com\/avatar\/762735b44d18c4a0abdc0357084c5aee.jpg?s=72&d=https%3A%2F%2Fa.slack-edge.com%2Fdf10d%2Fimg%2Favatars%2Fava_0026-72.png",
            "first_name": "",
            "real_name": "Carolina Brum",
            "display_name": "Carolina Brum",
            "team": "T48QEEVTJ",
            "name": "missperovaz",
            "is_restricted": false,
            "is_ultra_restricted": false
        },
        "blocks": [
            {
                "type": "rich_text",
                "block_id": "1QNpJ",
                "elements": [
                    {
                        "type": "rich_text_section",
                        "elements": [
                            {
                                "type": "text",
                                "text": "D3 is amazing, I use in my personal website and I love it for static (won't touch data anymore- type of projects). Specially if Bastian is Python\/R savvy, I think that jupyter notebook integrations should be a nice alternative. I'd lack any contribution on how to stream data from the devices to the viz. Maybe Bastian can tell how he is doing.\n\nFor the sick event, doing analysis on the data and finding patterns by comparing similar events definitely calls for a R\/Python solution rather than D3. Depending on the update rate, the analysis can be done offline in Python\/R, results exported to a file and uploaded on D3.\n\nI bet what I'm saying is trivial for you, but I'm saying anyways to get a better perspective on what you have and need."
                            }
                        ]
                    }
                ]
            }
        ],
        "thread_ts": "1587505496.361000",
        "reply_count": 13,
        "reply_users_count": 3,
        "latest_reply": "1588836542.414500",
        "reply_users": [
            "U4A6D8F6J",
            "U52KBSW9X",
            "U011XPQFU2E"
        ],
        "replies": [
            {
                "user": "U4A6D8F6J",
                "ts": "1587505909.361100"
            },
            {
                "user": "U4A6D8F6J",
                "ts": "1587506115.361300"
            },
            {
                "user": "U52KBSW9X",
                "ts": "1587543112.362000"
            },
            {
                "user": "U52KBSW9X",
                "ts": "1587543180.362200"
            },
            {
                "user": "U52KBSW9X",
                "ts": "1587543334.362400"
            },
            {
                "user": "U52KBSW9X",
                "ts": "1587543410.362600"
            },
            {
                "user": "U011XPQFU2E",
                "ts": "1587660924.363100"
            },
            {
                "user": "U011XPQFU2E",
                "ts": "1587707229.363300"
            },
            {
                "user": "U52KBSW9X",
                "ts": "1587714874.363600"
            },
            {
                "user": "U011XPQFU2E",
                "ts": "1587749307.363800"
            },
            {
                "user": "U52KBSW9X",
                "ts": "1587750988.364100"
            },
            {
                "user": "U011XPQFU2E",
                "ts": "1588826856.414300"
            },
            {
                "user": "U52KBSW9X",
                "ts": "1588836542.414500"
            }
        ],
        "subscribed": false
    },
    {
        "client_msg_id": "a080bfd5-d738-41ff-b0d0-0f02b39d669e",
        "type": "message",
        "text": "yeah, I think we were simply thinking visualization of raw data available at one or more endpoints, and not further analysis with D3.\n\nNotebooks are supported with <http:\/\/notebooks.openhumans.org|notebooks.openhumans.org> &amp; shared via <http:\/\/exploratory.openhumans.org|exploratory.openhumans.org> – but I don't think we've tried to create any – YET – for QF and anything like that would be wonderful to see &amp; share. I *did* add deposit of the symptom tracking data into an Open Humans member account so the \"same data\" is in theory available in both places.\n\nQF is django\/python with celery running so it can incorporate async Python code tasks fairly easily. That's how the underlying data from Oura and Fitbit (which is also in files, not in db) is being processed &amp; delivered via an endpoint for use by D3.",
        "user": "U4A6D8F6J",
        "ts": "1587505909.361100",
        "team": "TUU48M0T1",
        "user_team": "T48QEEVTJ",
        "source_team": "T48QEEVTJ",
        "user_profile": {
            "avatar_hash": "4dc43012615b",
            "image_72": "https:\/\/avatars.slack-edge.com\/2019-10-17\/801801580071_4dc43012615b2074c521_72.jpg",
            "first_name": "Mad",
            "real_name": "Mad Price Ball",
            "display_name": "madprime",
            "team": "T48QEEVTJ",
            "name": "madprime",
            "is_restricted": false,
            "is_ultra_restricted": false
        },
        "blocks": [
            {
                "type": "rich_text",
                "block_id": "qdES",
                "elements": [
                    {
                        "type": "rich_text_section",
                        "elements": [
                            {
                                "type": "text",
                                "text": "yeah, I think we were simply thinking visualization of raw data available at one or more endpoints, and not further analysis with D3.\n\nNotebooks are supported with "
                            },
                            {
                                "type": "link",
                                "url": "http:\/\/notebooks.openhumans.org",
                                "text": "notebooks.openhumans.org"
                            },
                            {
                                "type": "text",
                                "text": " & shared via "
                            },
                            {
                                "type": "link",
                                "url": "http:\/\/exploratory.openhumans.org",
                                "text": "exploratory.openhumans.org"
                            },
                            {
                                "type": "text",
                                "text": " – but I don't think we've tried to create any – YET – for QF and anything like that would be wonderful to see & share. I "
                            },
                            {
                                "type": "text",
                                "text": "did",
                                "style": {
                                    "bold": true
                                }
                            },
                            {
                                "type": "text",
                                "text": " add deposit of the symptom tracking data into an Open Humans member account so the \"same data\" is in theory available in both places.\n\nQF is django\/python with celery running so it can incorporate async Python code tasks fairly easily. That's how the underlying data from Oura and Fitbit (which is also in files, not in db) is being processed & delivered via an endpoint for use by D3."
                            }
                        ]
                    }
                ]
            }
        ],
        "thread_ts": "1587505496.361000",
        "parent_user_id": "U011XPQFU2E"
    },
    {
        "type": "message",
        "subtype": "thread_broadcast",
        "text": "There's not much that's trivial :sweat_smile: plus I'm overloaded (even less time because we have three kids in our lockdown)\n\nso anything you'd like to try doing is *really* welcome :sparkles: and I'd love to know _\"I wish I had X Y and Z then I could do foobar\"_ → so I can see if we can get you X Y and Z :wink:",
        "user": "U4A6D8F6J",
        "ts": "1587506115.361300",
        "thread_ts": "1587505496.361000",
        "root": {
            "client_msg_id": "4be14b30-c6f8-4bf0-b1dc-efc6df37dd0b",
            "type": "message",
            "text": "D3 is amazing, I use in my personal website and I love it for static (won't touch data anymore- type of projects). Specially if Bastian is Python\/R savvy, I think that jupyter notebook integrations should be a nice alternative. I'd lack any contribution on how to stream data from the devices to the viz. Maybe Bastian can tell how he is doing.\n\nFor the sick event, doing analysis on the data and finding patterns by comparing similar events definitely calls for a R\/Python solution rather than D3. Depending on the update rate, the analysis can be done offline in Python\/R, results exported to a file and uploaded on D3.\n\nI bet what I'm saying is trivial for you, but I'm saying anyways to get a better perspective on what you have and need.",
            "user": "U011XPQFU2E",
            "ts": "1587505496.361000",
            "team": "TUU48M0T1",
            "user_team": "T48QEEVTJ",
            "source_team": "T48QEEVTJ",
            "user_profile": {
                "avatar_hash": "g762735b44d1",
                "image_72": "https:\/\/secure.gravatar.com\/avatar\/762735b44d18c4a0abdc0357084c5aee.jpg?s=72&d=https%3A%2F%2Fa.slack-edge.com%2Fdf10d%2Fimg%2Favatars%2Fava_0026-72.png",
                "first_name": "",
                "real_name": "Carolina Brum",
                "display_name": "Carolina Brum",
                "team": "T48QEEVTJ",
                "name": "missperovaz",
                "is_restricted": false,
                "is_ultra_restricted": false
            },
            "blocks": [
                {
                    "type": "rich_text",
                    "block_id": "1QNpJ",
                    "elements": [
                        {
                            "type": "rich_text_section",
                            "elements": [
                                {
                                    "type": "text",
                                    "text": "D3 is amazing, I use in my personal website and I love it for static (won't touch data anymore- type of projects). Specially if Bastian is Python\/R savvy, I think that jupyter notebook integrations should be a nice alternative. I'd lack any contribution on how to stream data from the devices to the viz. Maybe Bastian can tell how he is doing.\n\nFor the sick event, doing analysis on the data and finding patterns by comparing similar events definitely calls for a R\/Python solution rather than D3. Depending on the update rate, the analysis can be done offline in Python\/R, results exported to a file and uploaded on D3.\n\nI bet what I'm saying is trivial for you, but I'm saying anyways to get a better perspective on what you have and need."
                                }
                            ]
                        }
                    ]
                }
            ],
            "thread_ts": "1587505496.361000",
            "reply_count": 13,
            "reply_users_count": 3,
            "latest_reply": "1588836542.414500",
            "reply_users": [
                "U4A6D8F6J",
                "U52KBSW9X",
                "U011XPQFU2E"
            ],
            "subscribed": false
        },
        "blocks": [
            {
                "type": "rich_text",
                "block_id": "wpR",
                "elements": [
                    {
                        "type": "rich_text_section",
                        "elements": [
                            {
                                "type": "text",
                                "text": "There's not much that's trivial "
                            },
                            {
                                "type": "emoji",
                                "name": "sweat_smile"
                            },
                            {
                                "type": "text",
                                "text": " plus I'm overloaded (even less time because we have three kids in our lockdown)\n\nso anything you'd like to try doing is "
                            },
                            {
                                "type": "text",
                                "text": "really",
                                "style": {
                                    "bold": true
                                }
                            },
                            {
                                "type": "text",
                                "text": " welcome "
                            },
                            {
                                "type": "emoji",
                                "name": "sparkles"
                            },
                            {
                                "type": "text",
                                "text": " and I'd love to know "
                            },
                            {
                                "type": "text",
                                "text": "\"I wish I had X Y and Z then I could do foobar\"",
                                "style": {
                                    "italic": true
                                }
                            },
                            {
                                "type": "text",
                                "text": " → so I can see if we can get you X Y and Z "
                            },
                            {
                                "type": "emoji",
                                "name": "wink"
                            }
                        ]
                    }
                ]
            }
        ],
        "client_msg_id": "b3301d4c-cff5-499b-9eb5-b2caca7ebbb9"
    }
]