[
    {
        "type": "message",
        "subtype": "channel_join",
        "ts": "1585415006.079200",
        "user": "U010YPVPZE0",
        "text": "<@U010YPVPZE0> has joined the channel",
        "team": "TUU48M0T1"
    },
    {
        "client_msg_id": "befd576a-21cd-44da-b7b7-1ed7545cfa9a",
        "type": "message",
        "text": "hey <@U010YPVPZE0>, welcome!",
        "user": "U52KBSW9X",
        "ts": "1585415341.079500",
        "team": "TUU48M0T1",
        "user_team": "T48QEEVTJ",
        "source_team": "T48QEEVTJ",
        "user_profile": {
            "avatar_hash": "079d4f4301af",
            "image_72": "https:\/\/avatars.slack-edge.com\/2019-07-28\/696974040114_079d4f4301af057e28c1_72.jpg",
            "first_name": "Bastian",
            "real_name": "Bastian Greshake Tzovaras",
            "display_name": "gedankenstuecke",
            "team": "T48QEEVTJ",
            "name": "gedankenstuecke",
            "is_restricted": false,
            "is_ultra_restricted": false
        },
        "blocks": [
            {
                "type": "rich_text",
                "block_id": "XHC",
                "elements": [
                    {
                        "type": "rich_text_section",
                        "elements": [
                            {
                                "type": "text",
                                "text": "hey "
                            },
                            {
                                "type": "user",
                                "user_id": "U010YPVPZE0"
                            },
                            {
                                "type": "text",
                                "text": ", welcome!"
                            }
                        ]
                    }
                ]
            }
        ]
    },
    {
        "client_msg_id": "167cc704-1e35-4e68-a01a-332f802cd7f8",
        "type": "message",
        "text": "thanks <@U52KBSW9X>!",
        "user": "U010YPVPZE0",
        "ts": "1585415532.080200",
        "team": "TUU48M0T1",
        "user_team": "T48QEEVTJ",
        "source_team": "T48QEEVTJ",
        "user_profile": {
            "avatar_hash": "a40e8e273ebf",
            "image_72": "https:\/\/avatars.slack-edge.com\/2020-03-28\/1020542717634_a40e8e273ebff985d44f_72.jpg",
            "first_name": "",
            "real_name": "Xiaoyan",
            "display_name": "Xiaoyan",
            "team": "T48QEEVTJ",
            "name": "wangxiaoyan9933",
            "is_restricted": false,
            "is_ultra_restricted": false
        },
        "blocks": [
            {
                "type": "rich_text",
                "block_id": "Jl78p",
                "elements": [
                    {
                        "type": "rich_text_section",
                        "elements": [
                            {
                                "type": "text",
                                "text": "thanks "
                            },
                            {
                                "type": "user",
                                "user_id": "U52KBSW9X"
                            },
                            {
                                "type": "text",
                                "text": "!"
                            }
                        ]
                    }
                ]
            }
        ]
    },
    {
        "client_msg_id": "8779AF1C-0B9A-42C9-A2AF-04607177266B",
        "type": "message",
        "text": "I saw you’re coming through help with Covid? :)",
        "user": "U52KBSW9X",
        "ts": "1585416031.080700",
        "team": "TUU48M0T1",
        "user_team": "T48QEEVTJ",
        "source_team": "T48QEEVTJ",
        "user_profile": {
            "avatar_hash": "079d4f4301af",
            "image_72": "https:\/\/avatars.slack-edge.com\/2019-07-28\/696974040114_079d4f4301af057e28c1_72.jpg",
            "first_name": "Bastian",
            "real_name": "Bastian Greshake Tzovaras",
            "display_name": "gedankenstuecke",
            "team": "T48QEEVTJ",
            "name": "gedankenstuecke",
            "is_restricted": false,
            "is_ultra_restricted": false
        },
        "blocks": [
            {
                "type": "rich_text",
                "block_id": "BABk5",
                "elements": [
                    {
                        "type": "rich_text_section",
                        "elements": [
                            {
                                "type": "text",
                                "text": "I saw you’re coming through help with Covid? :)"
                            }
                        ]
                    }
                ]
            }
        ],
        "thread_ts": "1585416031.080700",
        "reply_count": 9,
        "reply_users_count": 2,
        "latest_reply": "1585431961.085700",
        "reply_users": [
            "U010YPVPZE0",
            "U52KBSW9X"
        ],
        "replies": [
            {
                "user": "U010YPVPZE0",
                "ts": "1585418812.081200"
            },
            {
                "user": "U52KBSW9X",
                "ts": "1585419065.082200"
            },
            {
                "user": "U52KBSW9X",
                "ts": "1585419080.082800"
            },
            {
                "user": "U010YPVPZE0",
                "ts": "1585420332.083000"
            },
            {
                "user": "U52KBSW9X",
                "ts": "1585422389.083700"
            },
            {
                "user": "U52KBSW9X",
                "ts": "1585422450.084500"
            },
            {
                "user": "U52KBSW9X",
                "ts": "1585422489.085100"
            },
            {
                "user": "U010YPVPZE0",
                "ts": "1585424609.085300"
            },
            {
                "user": "U52KBSW9X",
                "ts": "1585431961.085700"
            }
        ],
        "subscribed": false
    },
    {
        "type": "message",
        "subtype": "channel_join",
        "ts": "1585418745.081000",
        "user": "UH1SAF200",
        "text": "<@UH1SAF200> has joined the channel",
        "team": "TUU48M0T1"
    },
    {
        "client_msg_id": "837162d5-d834-4f25-bc51-c1466a029281",
        "type": "message",
        "text": "I am happy to contribute to any ongoing projects here .\nI am a data scientist working in healthcare industry. my skills include machine learning and front end development\nI can contribute 4 hours\/ day\nLet me know if you need any information from me. Thanks\n<@U52KBSW9X>",
        "user": "U010YPVPZE0",
        "ts": "1585418812.081200",
        "team": "TUU48M0T1",
        "user_team": "T48QEEVTJ",
        "source_team": "T48QEEVTJ",
        "user_profile": {
            "avatar_hash": "a40e8e273ebf",
            "image_72": "https:\/\/avatars.slack-edge.com\/2020-03-28\/1020542717634_a40e8e273ebff985d44f_72.jpg",
            "first_name": "",
            "real_name": "Xiaoyan",
            "display_name": "Xiaoyan",
            "team": "T48QEEVTJ",
            "name": "wangxiaoyan9933",
            "is_restricted": false,
            "is_ultra_restricted": false
        },
        "blocks": [
            {
                "type": "rich_text",
                "block_id": "wIR",
                "elements": [
                    {
                        "type": "rich_text_section",
                        "elements": [
                            {
                                "type": "text",
                                "text": "I am happy to contribute to any ongoing projects here .\nI am a data scientist working in healthcare industry. my skills include machine learning and front end development\nI can contribute 4 hours\/ day\nLet me know if you need any information from me. Thanks\n"
                            },
                            {
                                "type": "user",
                                "user_id": "U52KBSW9X"
                            }
                        ]
                    }
                ]
            }
        ],
        "thread_ts": "1585416031.080700",
        "parent_user_id": "U52KBSW9X"
    },
    {
        "client_msg_id": "9B309CA5-363C-4E23-9678-26CDB8B0C89C",
        "type": "message",
        "text": "That’s amazing! I think our data set size right now isn’t big enough for doing machine learning yet. ",
        "user": "U52KBSW9X",
        "ts": "1585419065.082200",
        "team": "TUU48M0T1",
        "user_team": "T48QEEVTJ",
        "source_team": "T48QEEVTJ",
        "user_profile": {
            "avatar_hash": "079d4f4301af",
            "image_72": "https:\/\/avatars.slack-edge.com\/2019-07-28\/696974040114_079d4f4301af057e28c1_72.jpg",
            "first_name": "Bastian",
            "real_name": "Bastian Greshake Tzovaras",
            "display_name": "gedankenstuecke",
            "team": "T48QEEVTJ",
            "name": "gedankenstuecke",
            "is_restricted": false,
            "is_ultra_restricted": false
        },
        "blocks": [
            {
                "type": "rich_text",
                "block_id": "pCdtl",
                "elements": [
                    {
                        "type": "rich_text_section",
                        "elements": [
                            {
                                "type": "text",
                                "text": "That’s amazing! I think our data set size right now isn’t big enough for doing machine learning yet. "
                            }
                        ]
                    }
                ]
            }
        ],
        "thread_ts": "1585416031.080700",
        "parent_user_id": "U52KBSW9X"
    },
    {
        "client_msg_id": "8A347700-3A7B-4B92-9BB1-A23A48E0F113",
        "type": "message",
        "text": "But there’s probably lots of frontend work to be done!",
        "user": "U52KBSW9X",
        "ts": "1585419080.082800",
        "team": "TUU48M0T1",
        "user_team": "T48QEEVTJ",
        "source_team": "T48QEEVTJ",
        "user_profile": {
            "avatar_hash": "079d4f4301af",
            "image_72": "https:\/\/avatars.slack-edge.com\/2019-07-28\/696974040114_079d4f4301af057e28c1_72.jpg",
            "first_name": "Bastian",
            "real_name": "Bastian Greshake Tzovaras",
            "display_name": "gedankenstuecke",
            "team": "T48QEEVTJ",
            "name": "gedankenstuecke",
            "is_restricted": false,
            "is_ultra_restricted": false
        },
        "blocks": [
            {
                "type": "rich_text",
                "block_id": "=i2f\/",
                "elements": [
                    {
                        "type": "rich_text_section",
                        "elements": [
                            {
                                "type": "text",
                                "text": "But there’s probably lots of frontend work to be done!"
                            }
                        ]
                    }
                ]
            }
        ],
        "thread_ts": "1585416031.080700",
        "parent_user_id": "U52KBSW9X"
    },
    {
        "client_msg_id": "dc9693d1-413d-421b-a779-b10c24f25cf4",
        "type": "message",
        "text": "happy to help! I ll dig around the slack space to see if there are any projects I can help. also feel free to pair me up with any project.",
        "user": "U010YPVPZE0",
        "ts": "1585420332.083000",
        "team": "TUU48M0T1",
        "user_team": "T48QEEVTJ",
        "source_team": "T48QEEVTJ",
        "user_profile": {
            "avatar_hash": "a40e8e273ebf",
            "image_72": "https:\/\/avatars.slack-edge.com\/2020-03-28\/1020542717634_a40e8e273ebff985d44f_72.jpg",
            "first_name": "",
            "real_name": "Xiaoyan",
            "display_name": "Xiaoyan",
            "team": "T48QEEVTJ",
            "name": "wangxiaoyan9933",
            "is_restricted": false,
            "is_ultra_restricted": false
        },
        "blocks": [
            {
                "type": "rich_text",
                "block_id": "207p",
                "elements": [
                    {
                        "type": "rich_text_section",
                        "elements": [
                            {
                                "type": "text",
                                "text": "happy to help! I ll dig around the slack space to see if there are any projects I can help. also feel free to pair me up with any project."
                            }
                        ]
                    }
                ]
            }
        ],
        "thread_ts": "1585416031.080700",
        "parent_user_id": "U52KBSW9X",
        "reactions": [
            {
                "name": "+1",
                "users": [
                    "U52KBSW9X"
                ],
                "count": 1
            }
        ]
    },
    {
        "client_msg_id": "84AD1216-5204-465E-B2E7-6D45D4278146",
        "type": "message",
        "text": "Do you do d3-based visualizations on the frontend? :)",
        "user": "U52KBSW9X",
        "ts": "1585422389.083700",
        "team": "TUU48M0T1",
        "user_team": "T48QEEVTJ",
        "source_team": "T48QEEVTJ",
        "user_profile": {
            "avatar_hash": "079d4f4301af",
            "image_72": "https:\/\/avatars.slack-edge.com\/2019-07-28\/696974040114_079d4f4301af057e28c1_72.jpg",
            "first_name": "Bastian",
            "real_name": "Bastian Greshake Tzovaras",
            "display_name": "gedankenstuecke",
            "team": "T48QEEVTJ",
            "name": "gedankenstuecke",
            "is_restricted": false,
            "is_ultra_restricted": false
        },
        "blocks": [
            {
                "type": "rich_text",
                "block_id": "zwc",
                "elements": [
                    {
                        "type": "rich_text_section",
                        "elements": [
                            {
                                "type": "text",
                                "text": "Do you do d3-based visualizations on the frontend? :)"
                            }
                        ]
                    }
                ]
            }
        ],
        "thread_ts": "1585416031.080700",
        "parent_user_id": "U52KBSW9X"
    },
    {
        "client_msg_id": "1BF17CEC-3441-4ADC-958C-02BE0284F31C",
        "type": "message",
        "text": "<@U4AGJ7L87> did a demo of how to do a loess curve in D3 for the visualization at <@U52KBSW9X> <https:\/\/github.com\/beaugunderson\/loess|https:\/\/github.com\/beaugunderson\/loess>",
        "user": "U52KBSW9X",
        "ts": "1585422450.084500",
        "team": "TUU48M0T1",
        "user_team": "T48QEEVTJ",
        "source_team": "T48QEEVTJ",
        "user_profile": {
            "avatar_hash": "079d4f4301af",
            "image_72": "https:\/\/avatars.slack-edge.com\/2019-07-28\/696974040114_079d4f4301af057e28c1_72.jpg",
            "first_name": "Bastian",
            "real_name": "Bastian Greshake Tzovaras",
            "display_name": "gedankenstuecke",
            "team": "T48QEEVTJ",
            "name": "gedankenstuecke",
            "is_restricted": false,
            "is_ultra_restricted": false
        },
        "blocks": [
            {
                "type": "rich_text",
                "block_id": "Bizy",
                "elements": [
                    {
                        "type": "rich_text_section",
                        "elements": [
                            {
                                "type": "user",
                                "user_id": "U4AGJ7L87"
                            },
                            {
                                "type": "text",
                                "text": " did a demo of how to do a loess curve in D3 for the visualization at "
                            },
                            {
                                "type": "user",
                                "user_id": "U52KBSW9X"
                            },
                            {
                                "type": "text",
                                "text": " "
                            },
                            {
                                "type": "link",
                                "url": "https:\/\/github.com\/beaugunderson\/loess",
                                "text": "https:\/\/github.com\/beaugunderson\/loess"
                            }
                        ]
                    }
                ]
            }
        ],
        "thread_ts": "1585416031.080700",
        "parent_user_id": "U52KBSW9X"
    },
    {
        "client_msg_id": "0CD2D4E1-E81E-4A31-84E6-B864D7272788",
        "type": "message",
        "text": "And it would be great to get that implemented in <https:\/\/github.com\/OpenHumans\/quantified-flu|https:\/\/github.com\/OpenHumans\/quantified-flu>",
        "user": "U52KBSW9X",
        "ts": "1585422489.085100",
        "team": "TUU48M0T1",
        "user_team": "T48QEEVTJ",
        "source_team": "T48QEEVTJ",
        "user_profile": {
            "avatar_hash": "079d4f4301af",
            "image_72": "https:\/\/avatars.slack-edge.com\/2019-07-28\/696974040114_079d4f4301af057e28c1_72.jpg",
            "first_name": "Bastian",
            "real_name": "Bastian Greshake Tzovaras",
            "display_name": "gedankenstuecke",
            "team": "T48QEEVTJ",
            "name": "gedankenstuecke",
            "is_restricted": false,
            "is_ultra_restricted": false
        },
        "blocks": [
            {
                "type": "rich_text",
                "block_id": "6AKOA",
                "elements": [
                    {
                        "type": "rich_text_section",
                        "elements": [
                            {
                                "type": "text",
                                "text": "And it would be great to get that implemented in "
                            },
                            {
                                "type": "link",
                                "url": "https:\/\/github.com\/OpenHumans\/quantified-flu",
                                "text": "https:\/\/github.com\/OpenHumans\/quantified-flu"
                            }
                        ]
                    }
                ]
            }
        ],
        "thread_ts": "1585416031.080700",
        "parent_user_id": "U52KBSW9X"
    },
    {
        "client_msg_id": "49f0c397-3a3d-43c5-b9bc-9b49ca5bf395",
        "type": "message",
        "text": "COOL. I ll take a look! thanks!",
        "user": "U010YPVPZE0",
        "ts": "1585424609.085300",
        "team": "TUU48M0T1",
        "user_team": "T48QEEVTJ",
        "source_team": "T48QEEVTJ",
        "user_profile": {
            "avatar_hash": "a40e8e273ebf",
            "image_72": "https:\/\/avatars.slack-edge.com\/2020-03-28\/1020542717634_a40e8e273ebff985d44f_72.jpg",
            "first_name": "",
            "real_name": "Xiaoyan",
            "display_name": "Xiaoyan",
            "team": "T48QEEVTJ",
            "name": "wangxiaoyan9933",
            "is_restricted": false,
            "is_ultra_restricted": false
        },
        "blocks": [
            {
                "type": "rich_text",
                "block_id": "oiVs",
                "elements": [
                    {
                        "type": "rich_text_section",
                        "elements": [
                            {
                                "type": "text",
                                "text": "COOL. I ll take a look! thanks!"
                            }
                        ]
                    }
                ]
            }
        ],
        "thread_ts": "1585416031.080700",
        "parent_user_id": "U52KBSW9X"
    },
    {
        "client_msg_id": "7455156F-72C4-413C-9313-CB0F30EB6007",
        "type": "message",
        "text": "Great, thanks so much!",
        "user": "U52KBSW9X",
        "ts": "1585431961.085700",
        "team": "TUU48M0T1",
        "user_team": "T48QEEVTJ",
        "source_team": "T48QEEVTJ",
        "user_profile": {
            "avatar_hash": "079d4f4301af",
            "image_72": "https:\/\/avatars.slack-edge.com\/2019-07-28\/696974040114_079d4f4301af057e28c1_72.jpg",
            "first_name": "Bastian",
            "real_name": "Bastian Greshake Tzovaras",
            "display_name": "gedankenstuecke",
            "team": "T48QEEVTJ",
            "name": "gedankenstuecke",
            "is_restricted": false,
            "is_ultra_restricted": false
        },
        "blocks": [
            {
                "type": "rich_text",
                "block_id": "e9I+",
                "elements": [
                    {
                        "type": "rich_text_section",
                        "elements": [
                            {
                                "type": "text",
                                "text": "Great, thanks so much!"
                            }
                        ]
                    }
                ]
            }
        ],
        "thread_ts": "1585416031.080700",
        "parent_user_id": "U52KBSW9X"
    },
    {
        "client_msg_id": "C2DDE066-585E-4437-B0C2-BE87780C0C08",
        "type": "message",
        "text": "Hey <@UH1SAF200>, great to e-meet here :)",
        "user": "U52KBSW9X",
        "ts": "1585431981.086300",
        "team": "TUU48M0T1",
        "user_team": "T48QEEVTJ",
        "source_team": "T48QEEVTJ",
        "user_profile": {
            "avatar_hash": "079d4f4301af",
            "image_72": "https:\/\/avatars.slack-edge.com\/2019-07-28\/696974040114_079d4f4301af057e28c1_72.jpg",
            "first_name": "Bastian",
            "real_name": "Bastian Greshake Tzovaras",
            "display_name": "gedankenstuecke",
            "team": "T48QEEVTJ",
            "name": "gedankenstuecke",
            "is_restricted": false,
            "is_ultra_restricted": false
        },
        "blocks": [
            {
                "type": "rich_text",
                "block_id": "J6vFr",
                "elements": [
                    {
                        "type": "rich_text_section",
                        "elements": [
                            {
                                "type": "text",
                                "text": "Hey "
                            },
                            {
                                "type": "user",
                                "user_id": "UH1SAF200"
                            },
                            {
                                "type": "text",
                                "text": ", great to e-meet here :)"
                            }
                        ]
                    }
                ]
            }
        ]
    },
    {
        "client_msg_id": "646c5231-271f-4167-9910-d86f29a8ebf8",
        "type": "message",
        "text": "Thanks, <@U52KBSW9X> Glad to be here. I'm hoping to see our Oura ring data find us some answers. Thanks for all the hard work going into this.",
        "user": "UH1SAF200",
        "ts": "1585446971.088000",
        "team": "TUU48M0T1",
        "user_team": "T48QEEVTJ",
        "source_team": "T48QEEVTJ",
        "user_profile": {
            "avatar_hash": "d0fdeb5972c0",
            "image_72": "https:\/\/avatars.slack-edge.com\/2020-03-28\/1020593807138_d0fdeb5972c0b80663ee_72.jpg",
            "first_name": "",
            "real_name": "Terri Haber",
            "display_name": "Terri Haber",
            "team": "T48QEEVTJ",
            "name": "terri.haber",
            "is_restricted": false,
            "is_ultra_restricted": false
        },
        "blocks": [
            {
                "type": "rich_text",
                "block_id": "rHE",
                "elements": [
                    {
                        "type": "rich_text_section",
                        "elements": [
                            {
                                "type": "text",
                                "text": "Thanks, "
                            },
                            {
                                "type": "user",
                                "user_id": "U52KBSW9X"
                            },
                            {
                                "type": "text",
                                "text": " Glad to be here. I'm hoping to see our Oura ring data find us some answers. Thanks for all the hard work going into this."
                            }
                        ]
                    }
                ]
            }
        ]
    },
    {
        "type": "message",
        "subtype": "channel_join",
        "ts": "1585455181.088300",
        "user": "U010PH0BD97",
        "text": "<@U010PH0BD97> has joined the channel",
        "team": "TUU48M0T1"
    }
]