[
    {
        "type": "message",
        "subtype": "thread_broadcast",
        "text": "New release!  The binaries are on github.  This has two significant changes:\n\n1. The handling of serial input (and socket input) is much more robust.  I'm implementing flow control now, so it the device tries to send data more quickly than the device can handle it, it's paused.\n2. The font sizes all adapt to the screen size.  I have a 7\" tablet here, and all the fonts were tiny on that.\nChange 1 means a fair bit of serial port code that I can't test here (yet).  It's the same logic as for a socket, but still, I might have missed something.  So check that the serial communication is OK, and roll back a release if it's not.\n\nAlso, it looks like I put the wrong version number in the old build (1.1.1 instead of 0.1.1), so when you install the new version, you might need to confirm that it's OK to install a \"lower\" version #.",
        "user": "U010GFNDDL4",
        "ts": "1586743106.000300",
        "thread_ts": "1586197014.001900",
        "root": {
            "client_msg_id": "451fb1c1-8257-4a53-b719-2399e0368c89",
            "type": "message",
            "text": "*Play Store Approved*\n\nHi all,\n\nGood news!  I just found out the play store listing for the Android app was approved.  It was actually approved yesterday, but I guess they don't send out notifications upon approval.\n\nI'll create a new test release at the end of today (California time).  Hopefully it will feature bluetooth connectivity - that's the last bit of missing functionality.",
            "user": "U010GFNDDL4",
            "ts": "1586197014.001900",
            "team": "TUU48M0T1",
            "edited": {
                "user": "U010GFNDDL4",
                "ts": "1586197095.000000"
            },
            "blocks": [
                {
                    "type": "rich_text",
                    "block_id": "vBvM7",
                    "elements": [
                        {
                            "type": "rich_text_section",
                            "elements": [
                                {
                                    "type": "text",
                                    "text": "Play Store Approved",
                                    "style": {
                                        "bold": true
                                    }
                                },
                                {
                                    "type": "text",
                                    "text": "\n\nHi all,\n\nGood news!  I just found out the play store listing for the Android app was approved.  It was actually approved yesterday, but I guess they don't send out notifications upon approval.\n\nI'll create a new test release at the end of today (California time).  Hopefully it will feature bluetooth connectivity - that's the last bit of missing functionality."
                                }
                            ]
                        }
                    ]
                }
            ],
            "thread_ts": "1586197014.001900",
            "reply_count": 33,
            "reply_users_count": 3,
            "latest_reply": "1587359325.000100",
            "reply_users": [
                "U010B4EJG2C",
                "U010GFNDDL4",
                "U0108DWH5NH"
            ],
            "subscribed": false
        },
        "blocks": [
            {
                "type": "rich_text",
                "block_id": "JsDq",
                "elements": [
                    {
                        "type": "rich_text_section",
                        "elements": [
                            {
                                "type": "text",
                                "text": "New release!  The binaries are on github.  This has two significant changes:\n\n"
                            }
                        ]
                    },
                    {
                        "type": "rich_text_list",
                        "elements": [
                            {
                                "type": "rich_text_section",
                                "elements": [
                                    {
                                        "type": "text",
                                        "text": "The handling of serial input (and socket input) is much more robust.  I'm implementing flow control now, so it the device tries to send data more quickly than the device can handle it, it's paused."
                                    }
                                ]
                            },
                            {
                                "type": "rich_text_section",
                                "elements": [
                                    {
                                        "type": "text",
                                        "text": "The font sizes all adapt to the screen size.  I have a 7\" tablet here, and all the fonts were tiny on that."
                                    }
                                ]
                            }
                        ],
                        "style": "ordered",
                        "indent": 0
                    },
                    {
                        "type": "rich_text_section",
                        "elements": [
                            {
                                "type": "text",
                                "text": "\nChange 1 means a fair bit of serial port code that I can't test here (yet).  It's the same logic as for a socket, but still, I might have missed something.  So check that the serial communication is OK, and roll back a release if it's not.\n\nAlso, it looks like I put the wrong version number in the old build (1.1.1 instead of 0.1.1), so when you install the new version, you might need to confirm that it's OK to install a \"lower\" version #."
                            }
                        ]
                    }
                ]
            }
        ],
        "client_msg_id": "48620e0d-ed79-4103-95b0-471053b7f592",
        "reactions": [
            {
                "name": "+1",
                "users": [
                    "U0108DWH5NH"
                ],
                "count": 1
            }
        ]
    }
]