[
    {
        "client_msg_id": "c6e4d076-63db-40ba-aef8-e9c3db14f824",
        "type": "message",
        "text": "<@U010B4EJG2C> So can you update us on where you are on the ventilators?",
        "user": "U0123ED8WV8",
        "ts": "1587495733.000100",
        "team": "TUU48M0T1",
        "user_team": "TUU48M0T1",
        "source_team": "TUU48M0T1",
        "user_profile": {
            "avatar_hash": "g3fb4770b19e",
            "image_72": "https:\/\/secure.gravatar.com\/avatar\/3fb4770b19e61e3cfb3695e9a60e6082.jpg?s=72&d=https%3A%2F%2Fa.slack-edge.com%2Fdf10d%2Fimg%2Favatars%2Fava_0000-72.png",
            "first_name": "",
            "real_name": "Nathnael",
            "display_name": "Nathnael",
            "team": "TUU48M0T1",
            "name": "cenewo6957",
            "is_restricted": false,
            "is_ultra_restricted": false
        },
        "blocks": [
            {
                "type": "rich_text",
                "block_id": "Rnn",
                "elements": [
                    {
                        "type": "rich_text_section",
                        "elements": [
                            {
                                "type": "user",
                                "user_id": "U010B4EJG2C"
                            },
                            {
                                "type": "text",
                                "text": " So can you update us on where you are on the ventilators?"
                            }
                        ]
                    }
                ]
            }
        ],
        "thread_ts": "1587495733.000100",
        "reply_count": 3,
        "reply_users_count": 2,
        "latest_reply": "1587500299.001300",
        "reply_users": [
            "U010B4EJG2C",
            "U0123ED8WV8"
        ],
        "replies": [
            {
                "user": "U010B4EJG2C",
                "ts": "1587495965.000800"
            },
            {
                "user": "U0123ED8WV8",
                "ts": "1587496097.001000"
            },
            {
                "user": "U010B4EJG2C",
                "ts": "1587500299.001300"
            }
        ],
        "subscribed": false
    },
    {
        "client_msg_id": "6bbc70c1-5bdd-4319-be41-1df68eb9c787",
        "type": "message",
        "text": "Sure.. Which part of the project do you mean? App, firmware, electronics, mechanics? Or everything? :slightly_smiling_face:",
        "user": "U010B4EJG2C",
        "ts": "1587495965.000800",
        "team": "TUU48M0T1",
        "user_team": "TUU48M0T1",
        "source_team": "TUU48M0T1",
        "user_profile": {
            "avatar_hash": "5c9626d7b328",
            "image_72": "https:\/\/avatars.slack-edge.com\/2020-03-19\/1011171782821_5c9626d7b328e5dc84ea_72.jpg",
            "first_name": "Adam",
            "real_name": "Adam Krovina",
            "display_name": "Adam Krovina",
            "team": "TUU48M0T1",
            "name": "adam",
            "is_restricted": false,
            "is_ultra_restricted": false
        },
        "blocks": [
            {
                "type": "rich_text",
                "block_id": "=Bo",
                "elements": [
                    {
                        "type": "rich_text_section",
                        "elements": [
                            {
                                "type": "text",
                                "text": "Sure.. Which part of the project do you mean? App, firmware, electronics, mechanics? Or everything? "
                            },
                            {
                                "type": "emoji",
                                "name": "slightly_smiling_face"
                            }
                        ]
                    }
                ]
            }
        ],
        "thread_ts": "1587495733.000100",
        "parent_user_id": "U0123ED8WV8"
    },
    {
        "client_msg_id": "2783e8cd-63c2-4797-a66a-b80cf6119cc1",
        "type": "message",
        "text": "there is enough info on the jogl project website, So , just where you are on the timeline, would be a good start.",
        "user": "U0123ED8WV8",
        "ts": "1587496097.001000",
        "team": "TUU48M0T1",
        "user_team": "TUU48M0T1",
        "source_team": "TUU48M0T1",
        "user_profile": {
            "avatar_hash": "g3fb4770b19e",
            "image_72": "https:\/\/secure.gravatar.com\/avatar\/3fb4770b19e61e3cfb3695e9a60e6082.jpg?s=72&d=https%3A%2F%2Fa.slack-edge.com%2Fdf10d%2Fimg%2Favatars%2Fava_0000-72.png",
            "first_name": "",
            "real_name": "Nathnael",
            "display_name": "Nathnael",
            "team": "TUU48M0T1",
            "name": "cenewo6957",
            "is_restricted": false,
            "is_ultra_restricted": false
        },
        "blocks": [
            {
                "type": "rich_text",
                "block_id": "yHTQM",
                "elements": [
                    {
                        "type": "rich_text_section",
                        "elements": [
                            {
                                "type": "text",
                                "text": "there is enough info on the jogl project website, So , just where you are on the timeline, would be a good start."
                            }
                        ]
                    }
                ]
            }
        ],
        "thread_ts": "1587495733.000100",
        "parent_user_id": "U0123ED8WV8"
    },
    {
        "client_msg_id": "807cc7f3-6a0e-493e-af1b-7808f15e1f6b",
        "type": "message",
        "text": "Besides what you can find on jogl, github, etc.. We are waiting for the funds (should be coming this week) to order mechanical parts for some first prototypes. The turbine fan, which I have ordered 3 weeks ago from China is at the customs. It will take a week till we get it in our hands. I think I will order no more parts from China for this project..",
        "user": "U010B4EJG2C",
        "ts": "1587500299.001300",
        "team": "TUU48M0T1",
        "user_team": "TUU48M0T1",
        "source_team": "TUU48M0T1",
        "user_profile": {
            "avatar_hash": "5c9626d7b328",
            "image_72": "https:\/\/avatars.slack-edge.com\/2020-03-19\/1011171782821_5c9626d7b328e5dc84ea_72.jpg",
            "first_name": "Adam",
            "real_name": "Adam Krovina",
            "display_name": "Adam Krovina",
            "team": "TUU48M0T1",
            "name": "adam",
            "is_restricted": false,
            "is_ultra_restricted": false
        },
        "blocks": [
            {
                "type": "rich_text",
                "block_id": "BSD",
                "elements": [
                    {
                        "type": "rich_text_section",
                        "elements": [
                            {
                                "type": "text",
                                "text": "Besides what you can find on jogl, github, etc.. We are waiting for the funds (should be coming this week) to order mechanical parts for some first prototypes. The turbine fan, which I have ordered 3 weeks ago from China is at the customs. It will take a week till we get it in our hands. I think I will order no more parts from China for this project.."
                            }
                        ]
                    }
                ]
            }
        ],
        "thread_ts": "1587495733.000100",
        "parent_user_id": "U0123ED8WV8",
        "reactions": [
            {
                "name": "+1",
                "users": [
                    "U0123ED8WV8"
                ],
                "count": 1
            },
            {
                "name": "fire",
                "users": [
                    "U0123ED8WV8"
                ],
                "count": 1
            }
        ]
    }
]