[
    {
        "type": "message",
        "text": "",
        "files": [
            {
                "id": "F011Z43NJQL",
                "created": 1586855258,
                "timestamp": 1586855258,
                "name": "Final OpenCOVID19 Wave 1 Results slides.pdf",
                "title": "Final OpenCOVID19 Wave 1 Results slides.pdf",
                "mimetype": "application\/pdf",
                "filetype": "pdf",
                "pretty_type": "PDF",
                "user": "UV0RRGB6H",
                "editable": false,
                "size": 16333601,
                "mode": "hosted",
                "is_external": false,
                "external_type": "",
                "is_public": true,
                "public_url_shared": false,
                "display_as_bot": false,
                "username": "",
                "url_private": "https:\/\/files.slack.com\/files-pri\/TUU48M0T1-F011Z43NJQL\/final_opencovid19_wave_1_results_slides.pdf?t=xoxe-980144714919-1133254701825-1120841107731-daf595b5a7d6c9028b0b02a925032e36",
                "url_private_download": "https:\/\/files.slack.com\/files-pri\/TUU48M0T1-F011Z43NJQL\/download\/final_opencovid19_wave_1_results_slides.pdf?t=xoxe-980144714919-1133254701825-1120841107731-daf595b5a7d6c9028b0b02a925032e36",
                "thumb_pdf": "https:\/\/files.slack.com\/files-tmb\/TUU48M0T1-F011Z43NJQL-ea1a757f4a\/final_opencovid19_wave_1_results_slides_thumb_pdf.png?t=xoxe-980144714919-1133254701825-1120841107731-daf595b5a7d6c9028b0b02a925032e36",
                "thumb_pdf_w": 1467,
                "thumb_pdf_h": 825,
                "permalink": "https:\/\/open-covid19.slack.com\/files\/UV0RRGB6H\/F011Z43NJQL\/final_opencovid19_wave_1_results_slides.pdf",
                "permalink_public": "https:\/\/slack-files.com\/TUU48M0T1-F011Z43NJQL-d79ee1927a",
                "is_starred": false,
                "has_rich_preview": false
            }
        ],
        "upload": false,
        "user": "UV0RRGB6H",
        "display_as_bot": false,
        "ts": "1586858112.365600"
    },
    {
        "client_msg_id": "9f50925f-b650-4788-9d8d-c55b5dc86ffe",
        "type": "message",
        "text": "Here are two linked forms for round 2- they force you to review 3 other projects- or at least strongly encourage.",
        "user": "UV0RRGB6H",
        "ts": "1586860628.368200",
        "team": "TUU48M0T1",
        "user_team": "TUU48M0T1",
        "source_team": "TUU48M0T1",
        "user_profile": {
            "avatar_hash": "48d4ab64c90c",
            "image_72": "https:\/\/avatars.slack-edge.com\/2020-03-26\/1029789176912_48d4ab64c90c03f3af4a_72.jpg",
            "first_name": "",
            "real_name": "Chris LB Graham",
            "display_name": "",
            "team": "TUU48M0T1",
            "name": "chris.graham",
            "is_restricted": false,
            "is_ultra_restricted": false
        },
        "blocks": [
            {
                "type": "rich_text",
                "block_id": "hwXe",
                "elements": [
                    {
                        "type": "rich_text_section",
                        "elements": [
                            {
                                "type": "text",
                                "text": "Here are two linked forms for round 2- they force you to review 3 other projects- or at least strongly encourage."
                            }
                        ]
                    }
                ]
            }
        ],
        "reactions": [
            {
                "name": "+1",
                "users": [
                    "UV85V64SD"
                ],
                "count": 1
            }
        ]
    },
    {
        "client_msg_id": "210ae144-6db1-4a74-bf84-1e4bce30b6f3",
        "type": "message",
        "text": "just tested this and it works perfectly! Ive added three example projects from the previous round to act as \"normalisers\" for the review scoring and ensure it doesnt change much.",
        "user": "UV0RRGB6H",
        "ts": "1586860831.370000",
        "team": "TUU48M0T1",
        "user_team": "TUU48M0T1",
        "source_team": "TUU48M0T1",
        "user_profile": {
            "avatar_hash": "48d4ab64c90c",
            "image_72": "https:\/\/avatars.slack-edge.com\/2020-03-26\/1029789176912_48d4ab64c90c03f3af4a_72.jpg",
            "first_name": "",
            "real_name": "Chris LB Graham",
            "display_name": "",
            "team": "TUU48M0T1",
            "name": "chris.graham",
            "is_restricted": false,
            "is_ultra_restricted": false
        },
        "blocks": [
            {
                "type": "rich_text",
                "block_id": "gVd",
                "elements": [
                    {
                        "type": "rich_text_section",
                        "elements": [
                            {
                                "type": "text",
                                "text": "just tested this and it works perfectly! Ive added three example projects from the previous round to act as \"normalisers\" for the review scoring and ensure it doesnt change much."
                            }
                        ]
                    }
                ]
            }
        ]
    },
    {
        "client_msg_id": "a02e43c1-6feb-43a3-8330-ce4083c5ccbb",
        "type": "message",
        "text": "I would announce this as follows",
        "user": "UV0RRGB6H",
        "ts": "1586860839.370300",
        "team": "TUU48M0T1",
        "user_team": "TUU48M0T1",
        "source_team": "TUU48M0T1",
        "user_profile": {
            "avatar_hash": "48d4ab64c90c",
            "image_72": "https:\/\/avatars.slack-edge.com\/2020-03-26\/1029789176912_48d4ab64c90c03f3af4a_72.jpg",
            "first_name": "",
            "real_name": "Chris LB Graham",
            "display_name": "",
            "team": "TUU48M0T1",
            "name": "chris.graham",
            "is_restricted": false,
            "is_ultra_restricted": false
        },
        "blocks": [
            {
                "type": "rich_text",
                "block_id": "=ju",
                "elements": [
                    {
                        "type": "rich_text_section",
                        "elements": [
                            {
                                "type": "text",
                                "text": "I would announce this as follows"
                            }
                        ]
                    }
                ]
            }
        ]
    },
    {
        "client_msg_id": "6a0064a5-08f5-4008-a75b-ca2aaa3f6e6c",
        "type": "message",
        "text": "Draft \"Dear @everyone\n\nAs promised, *the Second Round of applications for mini-grants and review is now OPEN!!!* \n:writing_hand:\n*Application Process*\n\n1. *Follow this template to create a suitable project within JOGL* <https:\/\/docs.google.com\/document\/d\/1Udagi-PSsiUT4pv1DVnxRbaYyyq754xCAG7IX1ASm5w\/edit#heading=h.pq9yll6p0s1r> \n2. *Please follow this link to submit your project* <https:\/\/forms.gle\/nvZYbNGYhxGTKjZ37>, for review and to apply.\n3. *The review process involves reviewing three other projects as part of an open review process*, *you will get a chance to review projects as the projects are submitted*.\n4. The project will be reviewed by other applicants and reviewers in the community and the results shared a few days after submissions close!\n*The deadline for this second round is next Sunday 12am EST \/ Monday 6am CET*. But don’t worry if you can’t make it, we will have several rounds!\n\nProjects will have to use their JOGL project page to present their proposal so it will be transparent to everyone in this community :mag:\n\n*The application process is also open to the world, so don’t hesitate to share the word around you* :mega:\n\nThe results of our previous review and applicants can be found here:",
        "user": "UV0RRGB6H",
        "ts": "1586860980.371300",
        "team": "TUU48M0T1",
        "user_team": "TUU48M0T1",
        "source_team": "TUU48M0T1",
        "user_profile": {
            "avatar_hash": "48d4ab64c90c",
            "image_72": "https:\/\/avatars.slack-edge.com\/2020-03-26\/1029789176912_48d4ab64c90c03f3af4a_72.jpg",
            "first_name": "",
            "real_name": "Chris LB Graham",
            "display_name": "",
            "team": "TUU48M0T1",
            "name": "chris.graham",
            "is_restricted": false,
            "is_ultra_restricted": false
        },
        "edited": {
            "user": "UV0RRGB6H",
            "ts": "1586861464.000000"
        },
        "blocks": [
            {
                "type": "rich_text",
                "block_id": "Drpj6",
                "elements": [
                    {
                        "type": "rich_text_section",
                        "elements": [
                            {
                                "type": "text",
                                "text": "Draft \"Dear @everyone\n\nAs promised,"
                            },
                            {
                                "type": "text",
                                "text": " the Second Round of applications for mini-grants and review is now OPEN!!! ",
                                "style": {
                                    "bold": true
                                }
                            },
                            {
                                "type": "text",
                                "text": "\n"
                            },
                            {
                                "type": "emoji",
                                "name": "writing_hand"
                            },
                            {
                                "type": "text",
                                "text": "\n"
                            },
                            {
                                "type": "text",
                                "text": "Application Process",
                                "style": {
                                    "bold": true
                                }
                            },
                            {
                                "type": "text",
                                "text": "\n\n"
                            }
                        ]
                    },
                    {
                        "type": "rich_text_list",
                        "elements": [
                            {
                                "type": "rich_text_section",
                                "elements": [
                                    {
                                        "type": "text",
                                        "text": "Follow this template to create a suitable project within JOGL ",
                                        "style": {
                                            "bold": true
                                        }
                                    },
                                    {
                                        "type": "link",
                                        "url": "https:\/\/docs.google.com\/document\/d\/1Udagi-PSsiUT4pv1DVnxRbaYyyq754xCAG7IX1ASm5w\/edit#heading=h.pq9yll6p0s1r"
                                    },
                                    {
                                        "type": "text",
                                        "text": " "
                                    }
                                ]
                            },
                            {
                                "type": "rich_text_section",
                                "elements": [
                                    {
                                        "type": "text",
                                        "text": "Please follow this link to submit your project ",
                                        "style": {
                                            "bold": true
                                        }
                                    },
                                    {
                                        "type": "link",
                                        "url": "https:\/\/forms.gle\/nvZYbNGYhxGTKjZ37"
                                    },
                                    {
                                        "type": "text",
                                        "text": ", for review and to apply."
                                    }
                                ]
                            },
                            {
                                "type": "rich_text_section",
                                "elements": [
                                    {
                                        "type": "text",
                                        "text": "The review process involves reviewing three other projects as part of an open review process",
                                        "style": {
                                            "bold": true
                                        }
                                    },
                                    {
                                        "type": "text",
                                        "text": ", "
                                    },
                                    {
                                        "type": "text",
                                        "text": "you will get a chance to review projects as the projects are submitted",
                                        "style": {
                                            "bold": true
                                        }
                                    },
                                    {
                                        "type": "text",
                                        "text": "."
                                    }
                                ]
                            },
                            {
                                "type": "rich_text_section",
                                "elements": [
                                    {
                                        "type": "text",
                                        "text": "The project will be reviewed by other applicants and reviewers in the community and the results shared a few days after submissions close!"
                                    }
                                ]
                            }
                        ],
                        "style": "ordered",
                        "indent": 0
                    },
                    {
                        "type": "rich_text_section",
                        "elements": [
                            {
                                "type": "text",
                                "text": "\n"
                            },
                            {
                                "type": "text",
                                "text": "The deadline for this second round is next Sunday 12am EST \/ Monday 6am CET",
                                "style": {
                                    "bold": true
                                }
                            },
                            {
                                "type": "text",
                                "text": ". But don’t worry if you can’t make it, we will have several rounds!\n\nProjects will have to use their JOGL project page to present their proposal so it will be transparent to everyone in this community "
                            },
                            {
                                "type": "emoji",
                                "name": "mag"
                            },
                            {
                                "type": "text",
                                "text": "\n\n"
                            },
                            {
                                "type": "text",
                                "text": "The application process is also open to the world, so don’t hesitate to share the word around you",
                                "style": {
                                    "bold": true
                                }
                            },
                            {
                                "type": "text",
                                "text": " "
                            },
                            {
                                "type": "emoji",
                                "name": "mega"
                            },
                            {
                                "type": "text",
                                "text": "\n\nThe results of our previous review and applicants can be found here:"
                            }
                        ]
                    }
                ]
            }
        ]
    },
    {
        "type": "message",
        "text": "",
        "files": [
            {
                "id": "F01257C5JU9",
                "created": 1586867133,
                "timestamp": 1586867133,
                "name": "Final OpenCOVID19 Wave 1 Results slides.pdf",
                "title": "Final OpenCOVID19 Wave 1 Results slides.pdf",
                "mimetype": "application\/pdf",
                "filetype": "pdf",
                "pretty_type": "PDF",
                "user": "UV0RRGB6H",
                "editable": false,
                "size": 16333601,
                "mode": "hosted",
                "is_external": false,
                "external_type": "",
                "is_public": true,
                "public_url_shared": false,
                "display_as_bot": false,
                "username": "",
                "url_private": "https:\/\/files.slack.com\/files-pri\/TUU48M0T1-F01257C5JU9\/final_opencovid19_wave_1_results_slides.pdf?t=xoxe-980144714919-1133254701825-1120841107731-daf595b5a7d6c9028b0b02a925032e36",
                "url_private_download": "https:\/\/files.slack.com\/files-pri\/TUU48M0T1-F01257C5JU9\/download\/final_opencovid19_wave_1_results_slides.pdf?t=xoxe-980144714919-1133254701825-1120841107731-daf595b5a7d6c9028b0b02a925032e36",
                "thumb_pdf": "https:\/\/files.slack.com\/files-tmb\/TUU48M0T1-F01257C5JU9-b52f6f7c86\/final_opencovid19_wave_1_results_slides_thumb_pdf.png?t=xoxe-980144714919-1133254701825-1120841107731-daf595b5a7d6c9028b0b02a925032e36",
                "thumb_pdf_w": 1467,
                "thumb_pdf_h": 825,
                "permalink": "https:\/\/open-covid19.slack.com\/files\/UV0RRGB6H\/F01257C5JU9\/final_opencovid19_wave_1_results_slides.pdf",
                "permalink_public": "https:\/\/slack-files.com\/TUU48M0T1-F01257C5JU9-08fa6a8068",
                "is_starred": false,
                "has_rich_preview": false
            }
        ],
        "upload": true,
        "user": "UV0RRGB6H",
        "display_as_bot": false,
        "ts": "1586867430.372700",
        "client_msg_id": "666eb8b7-4fd6-45f2-af52-ff7256a98030"
    },
    {
        "type": "message",
        "text": ":mega:Hi <!channel> - For tomorrow’s *Global Community Call*, we (on the Communications Team call today) have updated the weekly slide deck to also include slides for program-level teams to share updates in a more streamlined way. I’ve included a slide for this particular team, so plz take a look and add content prior to tomorrow’s call. (<@UV02WET96> - are you the right person for this?) — if there’s an external presentation deck that you need to share for your update, that’s fine too; you can just add a couple of words in the stand-in slide so that you have dedicated speaking time.\nThanks for adding your update prior to the call!\nHere’s the doc:\n<https:\/\/docs.google.com\/presentation\/d\/1-qHD_mQNyNz7i1ODXg2JSi_Rp-3PdUj3VDa8y3BgAlE\/edit#slide=id.g73568cc0b1_0_6>",
        "files": [
            {
                "id": "F011BMZA355",
                "created": 1586299249,
                "timestamp": 1586299249,
                "name": "8",
                "title": "Weekly Updates - Global Community Calls",
                "mimetype": "application\/vnd.google-apps.presentation",
                "filetype": "gpres",
                "pretty_type": "GSuite Presentation",
                "user": "UV0QTJCMT",
                "editable": false,
                "size": 1602,
                "mode": "external",
                "is_external": true,
                "external_type": "gdrive",
                "is_public": true,
                "public_url_shared": false,
                "display_as_bot": false,
                "username": "",
                "url_private": "https:\/\/docs.google.com\/presentation\/d\/1-qHD_mQNyNz7i1ODXg2JSi_Rp-3PdUj3VDa8y3BgAlE\/edit#slide=id.p",
                "thumb_64": "https:\/\/files.slack.com\/files-tmb\/TUU48M0T1-F011BMZA355-18be214ce4\/8_64.png?t=xoxe-980144714919-1133254701825-1120841107731-daf595b5a7d6c9028b0b02a925032e36",
                "thumb_80": "https:\/\/files.slack.com\/files-tmb\/TUU48M0T1-F011BMZA355-18be214ce4\/8_80.png?t=xoxe-980144714919-1133254701825-1120841107731-daf595b5a7d6c9028b0b02a925032e36",
                "thumb_360": "https:\/\/files.slack.com\/files-tmb\/TUU48M0T1-F011BMZA355-18be214ce4\/8_360.png?t=xoxe-980144714919-1133254701825-1120841107731-daf595b5a7d6c9028b0b02a925032e36",
                "thumb_360_w": 360,
                "thumb_360_h": 203,
                "thumb_480": "https:\/\/files.slack.com\/files-tmb\/TUU48M0T1-F011BMZA355-18be214ce4\/8_480.png?t=xoxe-980144714919-1133254701825-1120841107731-daf595b5a7d6c9028b0b02a925032e36",
                "thumb_480_w": 480,
                "thumb_480_h": 270,
                "thumb_160": "https:\/\/files.slack.com\/files-tmb\/TUU48M0T1-F011BMZA355-18be214ce4\/8_160.png?t=xoxe-980144714919-1133254701825-1120841107731-daf595b5a7d6c9028b0b02a925032e36",
                "thumb_720": "https:\/\/files.slack.com\/files-tmb\/TUU48M0T1-F011BMZA355-18be214ce4\/8_720.png?t=xoxe-980144714919-1133254701825-1120841107731-daf595b5a7d6c9028b0b02a925032e36",
                "thumb_720_w": 720,
                "thumb_720_h": 405,
                "thumb_800": "https:\/\/files.slack.com\/files-tmb\/TUU48M0T1-F011BMZA355-18be214ce4\/8_800.png?t=xoxe-980144714919-1133254701825-1120841107731-daf595b5a7d6c9028b0b02a925032e36",
                "thumb_800_w": 800,
                "thumb_800_h": 450,
                "image_exif_rotation": 1,
                "original_w": 800,
                "original_h": 450,
                "thumb_tiny": "AwAbADDTzRUM2NwyB07timLtzghMezmgCzRUSrCTgHOe2aXyU9D+ZoAkooAAAA6CigBjMQM8fjTfMPqtOowPQUAIGYjjbS7n9BRRQAbn9BSgnvSUUAf\/2Q==",
                "permalink": "https:\/\/open-covid19.slack.com\/files\/UV0QTJCMT\/F011BMZA355\/8",
                "is_starred": false,
                "external_id": "1-qHD_mQNyNz7i1ODXg2JSi_Rp-3PdUj3VDa8y3BgAlE",
                "external_url": "https:\/\/docs.google.com\/presentation\/d\/1-qHD_mQNyNz7i1ODXg2JSi_Rp-3PdUj3VDa8y3BgAlE\/edit#slide=id.p",
                "has_rich_preview": true
            }
        ],
        "upload": false,
        "blocks": [
            {
                "type": "rich_text",
                "block_id": "sEz8q",
                "elements": [
                    {
                        "type": "rich_text_section",
                        "elements": [
                            {
                                "type": "emoji",
                                "name": "mega"
                            },
                            {
                                "type": "text",
                                "text": "Hi "
                            },
                            {
                                "type": "broadcast",
                                "range": "channel"
                            },
                            {
                                "type": "text",
                                "text": " - For tomorrow’s "
                            },
                            {
                                "type": "text",
                                "text": "Global Community Call",
                                "style": {
                                    "bold": true
                                }
                            },
                            {
                                "type": "text",
                                "text": ", we (on the Communications Team call today) have updated the weekly slide deck to also include slides for program-level teams to share updates in a more streamlined way. I’ve included a slide for this particular team, so plz take a look and add content prior to tomorrow’s call. ("
                            },
                            {
                                "type": "user",
                                "user_id": "UV02WET96"
                            },
                            {
                                "type": "text",
                                "text": " - are you the right person for this?) — if there’s an external presentation deck that you need to share for your update, that’s fine too; you can just add a couple of words in the stand-in slide so that you have dedicated speaking time.\nThanks for adding your update prior to the call!\nHere’s the doc:\n"
                            },
                            {
                                "type": "link",
                                "url": "https:\/\/docs.google.com\/presentation\/d\/1-qHD_mQNyNz7i1ODXg2JSi_Rp-3PdUj3VDa8y3BgAlE\/edit#slide=id.g73568cc0b1_0_6"
                            }
                        ]
                    }
                ]
            }
        ],
        "user": "U011B6VLM2A",
        "display_as_bot": false,
        "x_files": [
            "F011BMZA355"
        ],
        "ts": "1586888317.373400",
        "client_msg_id": "15881ddf-2a16-4704-9c60-84cbf297ac3e",
        "thread_ts": "1586888317.373400",
        "reply_count": 1,
        "reply_users_count": 1,
        "latest_reply": "1586892106.374400",
        "reply_users": [
            "UV9V03C8Y"
        ],
        "replies": [
            {
                "user": "UV9V03C8Y",
                "ts": "1586892106.374400"
            }
        ],
        "subscribed": false
    },
    {
        "client_msg_id": "8ba49911-4b3f-4178-ba9b-4d0679dcea4a",
        "type": "message",
        "text": "If <@UV02WET96> is busy, <@UV0RRGB6H> or <@U0119SR5LMT> would you be free to do it?",
        "user": "UV9V03C8Y",
        "ts": "1586892106.374400",
        "team": "TUU48M0T1",
        "user_team": "TUU48M0T1",
        "source_team": "TUU48M0T1",
        "user_profile": {
            "avatar_hash": "177697fb7b8f",
            "image_72": "https:\/\/avatars.slack-edge.com\/2020-03-12\/996126178096_177697fb7b8ffa57649c_72.jpg",
            "first_name": "Camille",
            "real_name": "Camille Masselot - JOGL Program coordinator",
            "display_name": "Camille Masselot - JOGL coordinator",
            "team": "TUU48M0T1",
            "name": "masselot.camille",
            "is_restricted": false,
            "is_ultra_restricted": false
        },
        "blocks": [
            {
                "type": "rich_text",
                "block_id": "Xv0+",
                "elements": [
                    {
                        "type": "rich_text_section",
                        "elements": [
                            {
                                "type": "text",
                                "text": "If "
                            },
                            {
                                "type": "user",
                                "user_id": "UV02WET96"
                            },
                            {
                                "type": "text",
                                "text": " is busy, "
                            },
                            {
                                "type": "user",
                                "user_id": "UV0RRGB6H"
                            },
                            {
                                "type": "text",
                                "text": " or "
                            },
                            {
                                "type": "user",
                                "user_id": "U0119SR5LMT"
                            },
                            {
                                "type": "text",
                                "text": " would you be free to do it?"
                            }
                        ]
                    }
                ]
            }
        ],
        "thread_ts": "1586888317.373400",
        "parent_user_id": "U011B6VLM2A"
    }
]