[
    {
        "client_msg_id": "af5d0824-5813-4fad-8a91-0028a89af3c8",
        "type": "message",
        "text": "hey <!channel>, following up on our conversation yesterday. <@UV02WET96> *will publish a version 0.1 of the process for reviewing projects today.* \nIf you have been working on the document yesterday, please ping me asap because I have some question. Let's all validate a proposition asap!",
        "user": "UV9V03C8Y",
        "ts": "1585655644.175300",
        "team": "TUU48M0T1",
        "user_team": "TUU48M0T1",
        "source_team": "TUU48M0T1",
        "user_profile": {
            "avatar_hash": "177697fb7b8f",
            "image_72": "https:\/\/avatars.slack-edge.com\/2020-03-12\/996126178096_177697fb7b8ffa57649c_72.jpg",
            "first_name": "Camille",
            "real_name": "Camille Masselot - JOGL Program coordinator",
            "display_name": "Camille Masselot - JOGL coordinator",
            "team": "TUU48M0T1",
            "name": "masselot.camille",
            "is_restricted": false,
            "is_ultra_restricted": false
        },
        "blocks": [
            {
                "type": "rich_text",
                "block_id": "mTPbF",
                "elements": [
                    {
                        "type": "rich_text_section",
                        "elements": [
                            {
                                "type": "text",
                                "text": "hey "
                            },
                            {
                                "type": "broadcast",
                                "range": "channel"
                            },
                            {
                                "type": "text",
                                "text": ", following up on our conversation yesterday. "
                            },
                            {
                                "type": "user",
                                "user_id": "UV02WET96"
                            },
                            {
                                "type": "text",
                                "text": " "
                            },
                            {
                                "type": "text",
                                "text": "will publish a version 0.1 of the process for reviewing projects today. ",
                                "style": {
                                    "bold": true
                                }
                            },
                            {
                                "type": "text",
                                "text": "\nIf you have been working on the document yesterday, please ping me asap because I have some question. Let's all validate a proposition asap!"
                            }
                        ]
                    }
                ]
            }
        ]
    },
    {
        "client_msg_id": "2d19199c-ba98-4da8-98b6-cba00dbb621e",
        "type": "message",
        "text": "<!channel> here is the stage of advancement on my side:\n• V0.1: I summed up the several steps previously elaborated in a post format, day by day, while trying to be as operational as possible (literally: Action, where it is performed, by who, how, what is the intended result of action, the delay\/deadline if application.)\n• I made a list of the missing documents to be developed. They are numerous but it can be done quickly \n• I also listed: Who does what and how ; What does the project-review team provide to who ; and post content",
        "user": "UV9V03C8Y",
        "ts": "1585666249.180600",
        "team": "TUU48M0T1",
        "user_team": "TUU48M0T1",
        "source_team": "TUU48M0T1",
        "user_profile": {
            "avatar_hash": "177697fb7b8f",
            "image_72": "https:\/\/avatars.slack-edge.com\/2020-03-12\/996126178096_177697fb7b8ffa57649c_72.jpg",
            "first_name": "Camille",
            "real_name": "Camille Masselot - JOGL Program coordinator",
            "display_name": "Camille Masselot - JOGL coordinator",
            "team": "TUU48M0T1",
            "name": "masselot.camille",
            "is_restricted": false,
            "is_ultra_restricted": false
        },
        "blocks": [
            {
                "type": "rich_text",
                "block_id": "PR3bD",
                "elements": [
                    {
                        "type": "rich_text_section",
                        "elements": [
                            {
                                "type": "broadcast",
                                "range": "channel"
                            },
                            {
                                "type": "text",
                                "text": " here is the stage of advancement on my side:\n"
                            }
                        ]
                    },
                    {
                        "type": "rich_text_list",
                        "elements": [
                            {
                                "type": "rich_text_section",
                                "elements": [
                                    {
                                        "type": "text",
                                        "text": "V0.1: I summed up the several steps previously elaborated in a post format, day by day, while trying to be as operational as possible (literally: Action, where it is performed, by who, how, what is the intended result of action, the delay\/deadline if application.)"
                                    }
                                ]
                            },
                            {
                                "type": "rich_text_section",
                                "elements": [
                                    {
                                        "type": "text",
                                        "text": "I made a list of the missing documents to be developed. They are numerous but it can be done quickly "
                                    }
                                ]
                            },
                            {
                                "type": "rich_text_section",
                                "elements": [
                                    {
                                        "type": "text",
                                        "text": "I also listed: Who does what and how ; What does the project-review team provide to who ; and post content"
                                    }
                                ]
                            }
                        ],
                        "style": "bullet",
                        "indent": 0
                    }
                ]
            }
        ]
    },
    {
        "client_msg_id": "a165538f-0853-46d1-99bf-b5d20413e742",
        "type": "message",
        "text": "<!channel> *could you please review the afford-mentioned points* so that we have an agreement at least on the V0.1 which will be published by <@UV02WET96> tonight? Everything is here : <https:\/\/docs.google.com\/document\/d\/1L4qW9OtJ09hbvqDmOgxLRL_K4Mgnj-8bN4Ouso7d724\/edit#heading=h.ov047oahdc8x>",
        "user": "UV9V03C8Y",
        "ts": "1585666356.182600",
        "team": "TUU48M0T1",
        "user_team": "TUU48M0T1",
        "source_team": "TUU48M0T1",
        "user_profile": {
            "avatar_hash": "177697fb7b8f",
            "image_72": "https:\/\/avatars.slack-edge.com\/2020-03-12\/996126178096_177697fb7b8ffa57649c_72.jpg",
            "first_name": "Camille",
            "real_name": "Camille Masselot - JOGL Program coordinator",
            "display_name": "Camille Masselot - JOGL coordinator",
            "team": "TUU48M0T1",
            "name": "masselot.camille",
            "is_restricted": false,
            "is_ultra_restricted": false
        },
        "blocks": [
            {
                "type": "rich_text",
                "block_id": "rm3",
                "elements": [
                    {
                        "type": "rich_text_section",
                        "elements": [
                            {
                                "type": "broadcast",
                                "range": "channel"
                            },
                            {
                                "type": "text",
                                "text": " "
                            },
                            {
                                "type": "text",
                                "text": "could you please review the afford-mentioned points ",
                                "style": {
                                    "bold": true
                                }
                            },
                            {
                                "type": "text",
                                "text": "so that we have an agreement at least on the V0.1 which will be published by "
                            },
                            {
                                "type": "user",
                                "user_id": "UV02WET96"
                            },
                            {
                                "type": "text",
                                "text": " tonight? Everything is here : "
                            },
                            {
                                "type": "link",
                                "url": "https:\/\/docs.google.com\/document\/d\/1L4qW9OtJ09hbvqDmOgxLRL_K4Mgnj-8bN4Ouso7d724\/edit#heading=h.ov047oahdc8x"
                            }
                        ]
                    }
                ]
            }
        ]
    },
    {
        "client_msg_id": "B42285A9-F914-450C-9E3B-27A59514A956",
        "type": "message",
        "text": "alright that makes sense. i think perhaps it’d be useful to later create some sort of slack how-to bc people have asked or have had trouble navigating slacks features",
        "user": "UV0QTJCMT",
        "ts": "1585670222.183800",
        "team": "TUU48M0T1",
        "user_team": "TUU48M0T1",
        "source_team": "TUU48M0T1",
        "user_profile": {
            "avatar_hash": "06a6ae8f69d1",
            "image_72": "https:\/\/avatars.slack-edge.com\/2020-04-13\/1060635499315_06a6ae8f69d18f1ad464_72.png",
            "first_name": "Katherine",
            "real_name": "Katherine Holo",
            "display_name": "Kat Holo - Co-Organizer of OpenCOVID19",
            "team": "TUU48M0T1",
            "name": "katherineh245",
            "is_restricted": false,
            "is_ultra_restricted": false
        },
        "blocks": [
            {
                "type": "rich_text",
                "block_id": "jSaZ",
                "elements": [
                    {
                        "type": "rich_text_section",
                        "elements": [
                            {
                                "type": "text",
                                "text": "alright that makes sense. i think perhaps it’d be useful to later create some sort of slack how-to bc people have asked or have had trouble navigating slacks features"
                            }
                        ]
                    }
                ]
            }
        ],
        "thread_ts": "1585627388.166500",
        "parent_user_id": "UV87UQ37A",
        "reactions": [
            {
                "name": "100",
                "users": [
                    "UV87UQ37A"
                ],
                "count": 1
            }
        ]
    },
    {
        "type": "message",
        "text": ":face_with_monocle::muscle:Hi *<!channel>*!\n*Who would have the time and energy to sit once a week as a project-review Ambassador at a general meeting?* \nThis meeting would gather weekly ambassadors of each working groups (<https:\/\/docs.google.com\/document\/d\/1qWtQqIMKxFDwFB6XVelH6ST_2iHtrml3UL7iyW2HqVk\/edit#|see governance 0.2>) in order to:\n• Communicate updates, news, and stage of advancement of each working group and needs for collaboration\n• When applicable, take decisions on how to move forward together \n• Identify sore spots and address them\n• Learn from each others’ experience and expertise\nSorry about the copy-paste :see_no_evil:, but you see what I mean! Talk soon!",
        "files": [
            {
                "id": "F0117SL22P9",
                "created": 1585694588,
                "timestamp": 1585694588,
                "name": "governance_0",
                "title": "governance_0.2_PART 1_Opencovid19",
                "mimetype": "application\/vnd.google-apps.document",
                "filetype": "gdoc",
                "pretty_type": "GSuite Document",
                "user": "UV9V03C8Y",
                "editable": false,
                "size": 13009,
                "mode": "external",
                "is_external": true,
                "external_type": "gdrive",
                "is_public": true,
                "public_url_shared": false,
                "display_as_bot": false,
                "username": "",
                "url_private": "https:\/\/docs.google.com\/document\/d\/1qWtQqIMKxFDwFB6XVelH6ST_2iHtrml3UL7iyW2HqVk\/edit#",
                "thumb_64": "https:\/\/files.slack.com\/files-tmb\/TUU48M0T1-F0117SL22P9-06e619f506\/governance_0_64.png?t=xoxe-980144714919-1133254701825-1120841107731-daf595b5a7d6c9028b0b02a925032e36",
                "thumb_80": "https:\/\/files.slack.com\/files-tmb\/TUU48M0T1-F0117SL22P9-06e619f506\/governance_0_80.png?t=xoxe-980144714919-1133254701825-1120841107731-daf595b5a7d6c9028b0b02a925032e36",
                "thumb_360": "https:\/\/files.slack.com\/files-tmb\/TUU48M0T1-F0117SL22P9-06e619f506\/governance_0_360.png?t=xoxe-980144714919-1133254701825-1120841107731-daf595b5a7d6c9028b0b02a925032e36",
                "thumb_360_w": 255,
                "thumb_360_h": 360,
                "thumb_480": "https:\/\/files.slack.com\/files-tmb\/TUU48M0T1-F0117SL22P9-06e619f506\/governance_0_480.png?t=xoxe-980144714919-1133254701825-1120841107731-daf595b5a7d6c9028b0b02a925032e36",
                "thumb_480_w": 340,
                "thumb_480_h": 480,
                "thumb_160": "https:\/\/files.slack.com\/files-tmb\/TUU48M0T1-F0117SL22P9-06e619f506\/governance_0_160.png?t=xoxe-980144714919-1133254701825-1120841107731-daf595b5a7d6c9028b0b02a925032e36",
                "thumb_720": "https:\/\/files.slack.com\/files-tmb\/TUU48M0T1-F0117SL22P9-06e619f506\/governance_0_720.png?t=xoxe-980144714919-1133254701825-1120841107731-daf595b5a7d6c9028b0b02a925032e36",
                "thumb_720_w": 509,
                "thumb_720_h": 720,
                "thumb_800": "https:\/\/files.slack.com\/files-tmb\/TUU48M0T1-F0117SL22P9-06e619f506\/governance_0_800.png?t=xoxe-980144714919-1133254701825-1120841107731-daf595b5a7d6c9028b0b02a925032e36",
                "thumb_800_w": 800,
                "thumb_800_h": 1131,
                "thumb_960": "https:\/\/files.slack.com\/files-tmb\/TUU48M0T1-F0117SL22P9-06e619f506\/governance_0_960.png?t=xoxe-980144714919-1133254701825-1120841107731-daf595b5a7d6c9028b0b02a925032e36",
                "thumb_960_w": 679,
                "thumb_960_h": 960,
                "thumb_1024": "https:\/\/files.slack.com\/files-tmb\/TUU48M0T1-F0117SL22P9-06e619f506\/governance_0_1024.png?t=xoxe-980144714919-1133254701825-1120841107731-daf595b5a7d6c9028b0b02a925032e36",
                "thumb_1024_w": 724,
                "thumb_1024_h": 1024,
                "image_exif_rotation": 1,
                "original_w": 800,
                "original_h": 1131,
                "thumb_tiny": "AwAwACHTpDu7EUjcUm40AKN3fFOpm40oJJoAdRRRQAhGaTaKdRQAm0UBQDmlooAKKKKACiiigAooooAKKKKAP\/\/Z",
                "permalink": "https:\/\/open-covid19.slack.com\/files\/UV9V03C8Y\/F0117SL22P9\/governance_0",
                "is_starred": false,
                "external_id": "1qWtQqIMKxFDwFB6XVelH6ST_2iHtrml3UL7iyW2HqVk",
                "external_url": "https:\/\/docs.google.com\/document\/d\/1qWtQqIMKxFDwFB6XVelH6ST_2iHtrml3UL7iyW2HqVk\/edit#",
                "has_rich_preview": true
            }
        ],
        "upload": false,
        "blocks": [
            {
                "type": "rich_text",
                "block_id": "Flr",
                "elements": [
                    {
                        "type": "rich_text_section",
                        "elements": [
                            {
                                "type": "emoji",
                                "name": "face_with_monocle"
                            },
                            {
                                "type": "emoji",
                                "name": "muscle"
                            },
                            {
                                "type": "text",
                                "text": "Hi "
                            },
                            {
                                "type": "broadcast",
                                "range": "channel",
                                "style": {
                                    "bold": true
                                }
                            },
                            {
                                "type": "text",
                                "text": "!\n"
                            },
                            {
                                "type": "text",
                                "text": "Who would have the time and energy to sit once a week as a project-review Ambassador at a general meeting? ",
                                "style": {
                                    "bold": true
                                }
                            },
                            {
                                "type": "text",
                                "text": "\nThis meeting would gather weekly ambassadors of each working groups ("
                            },
                            {
                                "type": "link",
                                "url": "https:\/\/docs.google.com\/document\/d\/1qWtQqIMKxFDwFB6XVelH6ST_2iHtrml3UL7iyW2HqVk\/edit#",
                                "text": "see governance 0.2"
                            },
                            {
                                "type": "text",
                                "text": ") in order to:\n"
                            }
                        ]
                    },
                    {
                        "type": "rich_text_list",
                        "style": "bullet",
                        "indent": 0,
                        "elements": [
                            {
                                "type": "rich_text_section",
                                "elements": [
                                    {
                                        "type": "text",
                                        "text": "Communicate updates, news, and stage of advancement of each working group and needs for collaboration"
                                    }
                                ]
                            },
                            {
                                "type": "rich_text_section",
                                "elements": [
                                    {
                                        "type": "text",
                                        "text": "When applicable, take decisions on how to move forward together "
                                    }
                                ]
                            },
                            {
                                "type": "rich_text_section",
                                "elements": [
                                    {
                                        "type": "text",
                                        "text": "Identify sore spots and address them"
                                    }
                                ]
                            },
                            {
                                "type": "rich_text_section",
                                "elements": [
                                    {
                                        "type": "text",
                                        "text": "Learn from each others’ experience and expertise"
                                    }
                                ]
                            }
                        ]
                    },
                    {
                        "type": "rich_text_section",
                        "elements": [
                            {
                                "type": "text",
                                "text": "Sorry about the copy-paste "
                            },
                            {
                                "type": "emoji",
                                "name": "see_no_evil"
                            },
                            {
                                "type": "text",
                                "text": ", but you see what I mean! Talk soon!"
                            }
                        ]
                    }
                ]
            }
        ],
        "user": "UV9V03C8Y",
        "display_as_bot": false,
        "x_files": [
            "F0117SL22P9"
        ],
        "ts": "1585695012.185600",
        "client_msg_id": "b8a99646-23d0-4829-b8a0-2223e314874a",
        "thread_ts": "1585695012.185600",
        "reply_count": 2,
        "reply_users_count": 2,
        "latest_reply": "1585749089.187600",
        "reply_users": [
            "U010566NJHG",
            "UV9V03C8Y"
        ],
        "replies": [
            {
                "user": "U010566NJHG",
                "ts": "1585748263.187100"
            },
            {
                "user": "UV9V03C8Y",
                "ts": "1585749089.187600"
            }
        ],
        "subscribed": false,
        "reactions": [
            {
                "name": "star-struck",
                "users": [
                    "U010566NJHG"
                ],
                "count": 1
            }
        ]
    }
]