[
    {
        "client_msg_id": "fece473f-8291-4479-898d-7535b5207269",
        "type": "message",
        "text": "Hey,  here is the data from round 1 for us to analyse :slightly_smiling_face: - me and elliot are going to work on this for tomorrow. We had 41 responses for 12 projects and all projects were reviewed at least twice, most 4+ times.",
        "user": "UV0RRGB6H",
        "ts": "1586681241.335300",
        "team": "TUU48M0T1",
        "user_team": "TUU48M0T1",
        "source_team": "TUU48M0T1",
        "user_profile": {
            "avatar_hash": "48d4ab64c90c",
            "image_72": "https:\/\/avatars.slack-edge.com\/2020-03-26\/1029789176912_48d4ab64c90c03f3af4a_72.jpg",
            "first_name": "",
            "real_name": "Chris LB Graham",
            "display_name": "",
            "team": "TUU48M0T1",
            "name": "chris.graham",
            "is_restricted": false,
            "is_ultra_restricted": false
        },
        "blocks": [
            {
                "type": "rich_text",
                "block_id": "CfpN",
                "elements": [
                    {
                        "type": "rich_text_section",
                        "elements": [
                            {
                                "type": "text",
                                "text": "Hey,  here is the data from round 1 for us to analyse "
                            },
                            {
                                "type": "emoji",
                                "name": "slightly_smiling_face"
                            },
                            {
                                "type": "text",
                                "text": " - me and elliot are going to work on this for tomorrow. We had 41 responses for 12 projects and all projects were reviewed at least twice, most 4+ times."
                            }
                        ]
                    }
                ]
            }
        ],
        "reactions": [
            {
                "name": "heart",
                "users": [
                    "U0119SR5LMT"
                ],
                "count": 1
            },
            {
                "name": "raised_hands",
                "users": [
                    "UV02WET96"
                ],
                "count": 1
            }
        ]
    },
    {
        "client_msg_id": "d3a6bb29-bca5-46c3-98cc-66df1d7d9f03",
        "type": "message",
        "text": "next time with the enforced reviewing I think we will e asily get a lot more, and this is okay I think for a good filter",
        "user": "UV0RRGB6H",
        "ts": "1586681267.335900",
        "team": "TUU48M0T1",
        "user_team": "TUU48M0T1",
        "source_team": "TUU48M0T1",
        "user_profile": {
            "avatar_hash": "48d4ab64c90c",
            "image_72": "https:\/\/avatars.slack-edge.com\/2020-03-26\/1029789176912_48d4ab64c90c03f3af4a_72.jpg",
            "first_name": "",
            "real_name": "Chris LB Graham",
            "display_name": "",
            "team": "TUU48M0T1",
            "name": "chris.graham",
            "is_restricted": false,
            "is_ultra_restricted": false
        },
        "blocks": [
            {
                "type": "rich_text",
                "block_id": "xDPt",
                "elements": [
                    {
                        "type": "rich_text_section",
                        "elements": [
                            {
                                "type": "text",
                                "text": "next time with the enforced reviewing I think we will e asily get a lot more, and this is okay I think for a good filter"
                            }
                        ]
                    }
                ]
            }
        ]
    },
    {
        "client_msg_id": "e1e86ea4-2ac1-485a-b009-cdc576d37aab",
        "type": "message",
        "text": "Things to analyse,  timeline - feasibility vs impact, number of reviews\/ removal of people who reviewed themselves (just one person) and making a quick pdf for each project",
        "user": "UV0RRGB6H",
        "ts": "1586681353.337200",
        "team": "TUU48M0T1",
        "user_team": "TUU48M0T1",
        "source_team": "TUU48M0T1",
        "user_profile": {
            "avatar_hash": "48d4ab64c90c",
            "image_72": "https:\/\/avatars.slack-edge.com\/2020-03-26\/1029789176912_48d4ab64c90c03f3af4a_72.jpg",
            "first_name": "",
            "real_name": "Chris LB Graham",
            "display_name": "",
            "team": "TUU48M0T1",
            "name": "chris.graham",
            "is_restricted": false,
            "is_ultra_restricted": false
        },
        "blocks": [
            {
                "type": "rich_text",
                "block_id": "HniUk",
                "elements": [
                    {
                        "type": "rich_text_section",
                        "elements": [
                            {
                                "type": "text",
                                "text": "Things to analyse,  timeline - feasibility vs impact, number of reviews\/ removal of people who reviewed themselves (just one person) and making a quick pdf for each project"
                            }
                        ]
                    }
                ]
            }
        ]
    },
    {
        "type": "message",
        "text": "",
        "files": [
            {
                "id": "F011P5XT5V1",
                "created": 1586689601,
                "timestamp": 1586689601,
                "name": "Project Reviews Rnd 1.xlsx",
                "title": "Project Reviews Rnd 1.xlsx",
                "mimetype": "application\/vnd.openxmlformats-officedocument.spreadsheetml.sheet",
                "filetype": "xlsx",
                "pretty_type": "Excel Spreadsheet",
                "user": "UV0RRGB6H",
                "editable": false,
                "size": 24148,
                "mode": "hosted",
                "is_external": false,
                "external_type": "",
                "is_public": true,
                "public_url_shared": false,
                "display_as_bot": false,
                "username": "",
                "url_private": "https:\/\/files.slack.com\/files-pri\/TUU48M0T1-F011P5XT5V1\/project_reviews_rnd_1.xlsx?t=xoxe-980144714919-1133254701825-1120841107731-daf595b5a7d6c9028b0b02a925032e36",
                "url_private_download": "https:\/\/files.slack.com\/files-pri\/TUU48M0T1-F011P5XT5V1\/download\/project_reviews_rnd_1.xlsx?t=xoxe-980144714919-1133254701825-1120841107731-daf595b5a7d6c9028b0b02a925032e36",
                "converted_pdf": "https:\/\/files.slack.com\/files-tmb\/TUU48M0T1-F011P5XT5V1-d9a644e50d\/project_reviews_rnd_1_converted.pdf?t=xoxe-980144714919-1133254701825-1120841107731-daf595b5a7d6c9028b0b02a925032e36",
                "thumb_pdf": "https:\/\/files.slack.com\/files-tmb\/TUU48M0T1-F011P5XT5V1-d9a644e50d\/project_reviews_rnd_1_thumb_pdf.png?t=xoxe-980144714919-1133254701825-1120841107731-daf595b5a7d6c9028b0b02a925032e36",
                "thumb_pdf_w": 909,
                "thumb_pdf_h": 1286,
                "permalink": "https:\/\/open-covid19.slack.com\/files\/UV0RRGB6H\/F011P5XT5V1\/project_reviews_rnd_1.xlsx",
                "permalink_public": "https:\/\/slack-files.com\/TUU48M0T1-F011P5XT5V1-0c0893ce78",
                "is_starred": false,
                "has_rich_preview": false
            }
        ],
        "upload": true,
        "user": "UV0RRGB6H",
        "display_as_bot": false,
        "ts": "1586689605.337600",
        "client_msg_id": "34f898bd-1f40-4410-973b-8ca3e6ecb709"
    },
    {
        "client_msg_id": "aa8ab5af-a1fe-4c89-923d-5f64e7800247",
        "type": "message",
        "text": "Thanks <@UV0RRGB6H> <@U0119SR5LMT>! Can’t wait to see the analytics :slightly_smiling_face:",
        "user": "UV02WET96",
        "ts": "1586711807.339000",
        "team": "TUU48M0T1",
        "user_team": "TUU48M0T1",
        "source_team": "TUU48M0T1",
        "user_profile": {
            "avatar_hash": "a99c74a194f8",
            "image_72": "https:\/\/avatars.slack-edge.com\/2020-03-07\/975708504851_a99c74a194f86715ca7d_72.png",
            "first_name": "Thomas",
            "real_name": "Thomas Landrain",
            "display_name": "Thomas Landrain - JOGL CoFounder \/ CEO",
            "team": "TUU48M0T1",
            "name": "thomas",
            "is_restricted": false,
            "is_ultra_restricted": false
        },
        "blocks": [
            {
                "type": "rich_text",
                "block_id": "\/2W",
                "elements": [
                    {
                        "type": "rich_text_section",
                        "elements": [
                            {
                                "type": "text",
                                "text": "Thanks "
                            },
                            {
                                "type": "user",
                                "user_id": "UV0RRGB6H"
                            },
                            {
                                "type": "text",
                                "text": " "
                            },
                            {
                                "type": "user",
                                "user_id": "U0119SR5LMT"
                            },
                            {
                                "type": "text",
                                "text": "! Can’t wait to see the analytics "
                            },
                            {
                                "type": "emoji",
                                "name": "slightly_smiling_face"
                            }
                        ]
                    }
                ]
            }
        ],
        "reactions": [
            {
                "name": "pray",
                "users": [
                    "UV0RRGB6H"
                ],
                "count": 1
            },
            {
                "name": "+1",
                "users": [
                    "U010Q3G4MDF"
                ],
                "count": 1
            },
            {
                "name": "heart",
                "users": [
                    "U0119SR5LMT"
                ],
                "count": 1
            }
        ]
    }
]