[
    {
        "type": "message",
        "subtype": "channel_join",
        "ts": "1585393825.000200",
        "user": "UV3URUKK5",
        "text": "<@UV3URUKK5> has joined the channel"
    },
    {
        "type": "message",
        "subtype": "channel_purpose",
        "ts": "1585393825.000300",
        "user": "UV3URUKK5",
        "text": "<@UV3URUKK5> set the channel purpose: Channel to design a DIT implementation of the most used system in public healthcare institutions",
        "purpose": "Channel to design a DIT implementation of the most used system in public healthcare institutions"
    },
    {
        "type": "message",
        "subtype": "channel_archive",
        "ts": "1585419405.000400",
        "user": "UV3URUKK5",
        "text": "<@UV3URUKK5> archived the channel"
    }
]