[
    {
        "client_msg_id": "df989297-4446-4858-b9f0-c0246bfeb8b2",
        "type": "message",
        "text": "That's great. Would it be possible to post very brief minutes for those who can't call in?",
        "user": "U01016B7KPY",
        "ts": "1584521835.141900",
        "team": "TUU48M0T1",
        "user_team": "TUU48M0T1",
        "source_team": "TUU48M0T1",
        "user_profile": {
            "avatar_hash": "9a7d8bed69ad",
            "image_72": "https:\/\/avatars.slack-edge.com\/2020-03-13\/1001221150774_9a7d8bed69ad082201d0_72.jpg",
            "first_name": "",
            "real_name": "Jennifer Deegan",
            "display_name": "Jennifer Deegan",
            "team": "TUU48M0T1",
            "name": "jendeegan",
            "is_restricted": false,
            "is_ultra_restricted": false
        },
        "blocks": [
            {
                "type": "rich_text",
                "block_id": "ABcub",
                "elements": [
                    {
                        "type": "rich_text_section",
                        "elements": [
                            {
                                "type": "text",
                                "text": "That's great. Would it be possible to post very brief minutes for those who can't call in?"
                            }
                        ]
                    }
                ]
            }
        ],
        "thread_ts": "1584471919.127400",
        "parent_user_id": "UV0QTJCMT",
        "reactions": [
            {
                "name": "+1",
                "users": [
                    "UV0QTJCMT"
                ],
                "count": 1
            }
        ]
    },
    {
        "client_msg_id": "3B50F210-82BC-4F4D-ABCB-16670D95683E",
        "type": "message",
        "text": "<@U01016B7KPY> yup will try to post more of an “action items” style recap shortly after its done",
        "user": "UV0QTJCMT",
        "ts": "1584522236.143000",
        "team": "TUU48M0T1",
        "user_team": "TUU48M0T1",
        "source_team": "TUU48M0T1",
        "user_profile": {
            "avatar_hash": "06a6ae8f69d1",
            "image_72": "https:\/\/avatars.slack-edge.com\/2020-04-13\/1060635499315_06a6ae8f69d18f1ad464_72.png",
            "first_name": "Katherine",
            "real_name": "Katherine Holo",
            "display_name": "Kat Holo - Co-Organizer of OpenCOVID19",
            "team": "TUU48M0T1",
            "name": "katherineh245",
            "is_restricted": false,
            "is_ultra_restricted": false
        },
        "blocks": [
            {
                "type": "rich_text",
                "block_id": "+j+",
                "elements": [
                    {
                        "type": "rich_text_section",
                        "elements": [
                            {
                                "type": "user",
                                "user_id": "U01016B7KPY"
                            },
                            {
                                "type": "text",
                                "text": " yup will try to post more of an “action items” style recap shortly after its done"
                            }
                        ]
                    }
                ]
            }
        ],
        "thread_ts": "1584471919.127400",
        "parent_user_id": "UV0QTJCMT",
        "reactions": [
            {
                "name": "slightly_smiling_face",
                "users": [
                    "U01016B7KPY",
                    "U0101204092"
                ],
                "count": 2
            }
        ]
    },
    {
        "type": "message",
        "text": "Good morning\/afternoon\/evening <!everyone> -- here's the <https:\/\/docs.google.com\/document\/d\/1Gs5MyQlXHMTY3FhtvN3__pNhfhjrCtneueV4whvlZck\/edit|agenda> and <https:\/\/zoom.us\/j\/7804345815|zoom room> for our third all-community call!",
        "files": [
            {
                "id": "F01093GE8C8",
                "created": 1584545479,
                "timestamp": 1584545479,
                "name": "2020-03-18 Third All-Community Call",
                "title": "2020-03-18 Third All-Community Call",
                "mimetype": "application\/vnd.google-apps.document",
                "filetype": "gdoc",
                "pretty_type": "GSuite Document",
                "user": "UV0QTJCMT",
                "editable": false,
                "size": 1697,
                "mode": "external",
                "is_external": true,
                "external_type": "gdrive",
                "is_public": true,
                "public_url_shared": false,
                "display_as_bot": false,
                "username": "",
                "url_private": "https:\/\/docs.google.com\/document\/d\/1Gs5MyQlXHMTY3FhtvN3__pNhfhjrCtneueV4whvlZck\/edit",
                "thumb_64": "https:\/\/files.slack.com\/files-tmb\/TUU48M0T1-F01093GE8C8-b314d0e331\/2020-03-18_third_all-community_call_64.png?t=xoxe-980144714919-1106606678066-1105227127893-6f722bb664235052954ad46852628b64",
                "thumb_80": "https:\/\/files.slack.com\/files-tmb\/TUU48M0T1-F01093GE8C8-b314d0e331\/2020-03-18_third_all-community_call_80.png?t=xoxe-980144714919-1106606678066-1105227127893-6f722bb664235052954ad46852628b64",
                "thumb_360": "https:\/\/files.slack.com\/files-tmb\/TUU48M0T1-F01093GE8C8-b314d0e331\/2020-03-18_third_all-community_call_360.png?t=xoxe-980144714919-1106606678066-1105227127893-6f722bb664235052954ad46852628b64",
                "thumb_360_w": 278,
                "thumb_360_h": 360,
                "thumb_480": "https:\/\/files.slack.com\/files-tmb\/TUU48M0T1-F01093GE8C8-b314d0e331\/2020-03-18_third_all-community_call_480.png?t=xoxe-980144714919-1106606678066-1105227127893-6f722bb664235052954ad46852628b64",
                "thumb_480_w": 371,
                "thumb_480_h": 480,
                "thumb_160": "https:\/\/files.slack.com\/files-tmb\/TUU48M0T1-F01093GE8C8-b314d0e331\/2020-03-18_third_all-community_call_160.png?t=xoxe-980144714919-1106606678066-1105227127893-6f722bb664235052954ad46852628b64",
                "thumb_720": "https:\/\/files.slack.com\/files-tmb\/TUU48M0T1-F01093GE8C8-b314d0e331\/2020-03-18_third_all-community_call_720.png?t=xoxe-980144714919-1106606678066-1105227127893-6f722bb664235052954ad46852628b64",
                "thumb_720_w": 557,
                "thumb_720_h": 720,
                "thumb_800": "https:\/\/files.slack.com\/files-tmb\/TUU48M0T1-F01093GE8C8-b314d0e331\/2020-03-18_third_all-community_call_800.png?t=xoxe-980144714919-1106606678066-1105227127893-6f722bb664235052954ad46852628b64",
                "thumb_800_w": 800,
                "thumb_800_h": 1035,
                "thumb_960": "https:\/\/files.slack.com\/files-tmb\/TUU48M0T1-F01093GE8C8-b314d0e331\/2020-03-18_third_all-community_call_960.png?t=xoxe-980144714919-1106606678066-1105227127893-6f722bb664235052954ad46852628b64",
                "thumb_960_w": 742,
                "thumb_960_h": 960,
                "thumb_1024": "https:\/\/files.slack.com\/files-tmb\/TUU48M0T1-F01093GE8C8-b314d0e331\/2020-03-18_third_all-community_call_1024.png?t=xoxe-980144714919-1106606678066-1105227127893-6f722bb664235052954ad46852628b64",
                "thumb_1024_w": 791,
                "thumb_1024_h": 1024,
                "image_exif_rotation": 1,
                "original_w": 800,
                "original_h": 1035,
                "thumb_tiny": "AwAwACXTppbHQZp1RnG7tRewC72\/55n8xTx0pNy+oo3D1FK6CwtFFFMAPSoz15qQ8CozyeKAHbh70oOaRc9KcPrQAUUUUAFM55xT6TaPegBoz7\/lSjOe\/wCVLj6\/nS4oAKKKKAP\/2Q==",
                "permalink": "https:\/\/open-covid19.slack.com\/files\/UV0QTJCMT\/F01093GE8C8\/2020-03-18_third_all-community_call",
                "is_starred": false,
                "external_id": "1Gs5MyQlXHMTY3FhtvN3__pNhfhjrCtneueV4whvlZck",
                "external_url": "https:\/\/docs.google.com\/document\/d\/1Gs5MyQlXHMTY3FhtvN3__pNhfhjrCtneueV4whvlZck\/edit",
                "has_rich_preview": true
            }
        ],
        "upload": false,
        "blocks": [
            {
                "type": "rich_text",
                "block_id": "fQm",
                "elements": [
                    {
                        "type": "rich_text_section",
                        "elements": [
                            {
                                "type": "text",
                                "text": "Good morning\/afternoon\/evening "
                            },
                            {
                                "type": "broadcast",
                                "range": "everyone"
                            },
                            {
                                "type": "text",
                                "text": " -- here's the "
                            },
                            {
                                "type": "link",
                                "url": "https:\/\/docs.google.com\/document\/d\/1Gs5MyQlXHMTY3FhtvN3__pNhfhjrCtneueV4whvlZck\/edit",
                                "text": "agenda"
                            },
                            {
                                "type": "text",
                                "text": " and "
                            },
                            {
                                "type": "link",
                                "url": "https:\/\/zoom.us\/j\/7804345815",
                                "text": "zoom room"
                            },
                            {
                                "type": "text",
                                "text": " for our third all-community call!"
                            }
                        ]
                    }
                ]
            }
        ],
        "user": "UV0QTJCMT",
        "display_as_bot": false,
        "x_files": [
            "F01093GE8C8"
        ],
        "ts": "1584550795.152300",
        "client_msg_id": "e05ca970-4ba6-43a0-84ce-8bdf6df46127",
        "reactions": [
            {
                "name": "heavy_plus_sign",
                "users": [
                    "U0107NS25A4",
                    "U010B412MF1"
                ],
                "count": 2
            },
            {
                "name": "100",
                "users": [
                    "UV1D9NR1N"
                ],
                "count": 1
            }
        ]
    },
    {
        "client_msg_id": "46671c14-f595-431b-9c41-3705a1650cd9",
        "type": "message",
        "text": "Hey folks :wave: <!everyone>\nThanks for joining the global community call today!\nFor the ones who couldn’t be there, here is the link to the recording. Enjoy! So much progress in 2 weeks :100::heart:\n<https:\/\/youtu.be\/Y55yX65pSUE>",
        "user": "UV02WET96",
        "ts": "1584565147.159900",
        "team": "TUU48M0T1",
        "user_team": "TUU48M0T1",
        "source_team": "TUU48M0T1",
        "user_profile": {
            "avatar_hash": "a99c74a194f8",
            "image_72": "https:\/\/avatars.slack-edge.com\/2020-03-07\/975708504851_a99c74a194f86715ca7d_72.png",
            "first_name": "Thomas",
            "real_name": "Thomas Landrain",
            "display_name": "Thomas Landrain - JOGL CoFounder \/ CEO",
            "team": "TUU48M0T1",
            "name": "thomas",
            "is_restricted": false,
            "is_ultra_restricted": false
        },
        "edited": {
            "user": "UV02WET96",
            "ts": "1584565251.000000"
        },
        "attachments": [
            {
                "service_name": "YouTube",
                "service_url": "https:\/\/www.youtube.com\/",
                "title": "OpenCovid19 Initiative [Community Call #3]",
                "title_link": "https:\/\/youtu.be\/Y55yX65pSUE",
                "author_name": "Just One Giant Lab",
                "author_link": "https:\/\/www.youtube.com\/channel\/UCvgRJdZ4OoTyo8tuJNVf4fA",
                "thumb_url": "https:\/\/i.ytimg.com\/vi\/Y55yX65pSUE\/hqdefault.jpg",
                "thumb_width": 480,
                "thumb_height": 360,
                "fallback": "YouTube Video: OpenCovid19 Initiative [Community Call #3]",
                "video_html": "<iframe width=\"400\" height=\"225\" src=\"https:\/\/www.youtube.com\/embed\/Y55yX65pSUE?feature=oembed&autoplay=1&iv_load_policy=3\" frameborder=\"0\" allow=\"accelerometer; autoplay; encrypted-media; gyroscope; picture-in-picture\" allowfullscreen><\/iframe>",
                "video_html_width": 400,
                "video_html_height": 225,
                "from_url": "https:\/\/youtu.be\/Y55yX65pSUE",
                "service_icon": "https:\/\/a.slack-edge.com\/80588\/img\/unfurl_icons\/youtube.png",
                "id": 1,
                "original_url": "https:\/\/youtu.be\/Y55yX65pSUE"
            }
        ],
        "blocks": [
            {
                "type": "rich_text",
                "block_id": "qCxX",
                "elements": [
                    {
                        "type": "rich_text_section",
                        "elements": [
                            {
                                "type": "text",
                                "text": "Hey folks "
                            },
                            {
                                "type": "emoji",
                                "name": "wave"
                            },
                            {
                                "type": "text",
                                "text": " "
                            },
                            {
                                "type": "broadcast",
                                "range": "everyone"
                            },
                            {
                                "type": "text",
                                "text": "\nThanks for joining the global community call today!\nFor the ones who couldn’t be there, here is the link to the recording. Enjoy! So much progress in 2 weeks "
                            },
                            {
                                "type": "emoji",
                                "name": "100"
                            },
                            {
                                "type": "emoji",
                                "name": "heart"
                            },
                            {
                                "type": "text",
                                "text": "\n"
                            },
                            {
                                "type": "link",
                                "url": "https:\/\/youtu.be\/Y55yX65pSUE"
                            }
                        ]
                    }
                ]
            }
        ],
        "reactions": [
            {
                "name": "handshake",
                "users": [
                    "UV78JAX0S",
                    "UUWPKNE2E",
                    "UV2P3AQEN",
                    "UV120B2P7",
                    "U0107NS25A4",
                    "UV143JZD3",
                    "UV0QTJCMT",
                    "UV1D9NR1N",
                    "UV85V64SD",
                    "UV8Q23Y1K",
                    "UV10KBUQG"
                ],
                "count": 11
            },
            {
                "name": "hibiscus",
                "users": [
                    "UV1D9NR1N"
                ],
                "count": 1
            },
            {
                "name": "earth_africa",
                "users": [
                    "UV1D9NR1N",
                    "UV6LNPJ3C",
                    "U010B412MF1"
                ],
                "count": 3
            }
        ]
    },
    {
        "type": "message",
        "text": "Hello <!everyone>! Thanks so much for joining us for our third all-community call! We've grown quite a bit and it's great to see some new faces each week :blush::earth_africa:\n\nIf you didn't get a chance to be on the call, here are the *<https:\/\/docs.google.com\/document\/d\/1Gs5MyQlXHMTY3FhtvN3__pNhfhjrCtneueV4whvlZck\/edit|notes>* from it and the *<https:\/\/youtu.be\/Y55yX65pSUE|recording>*. There are some important logistics so I'd recommend skimming through the agenda if you have the chance.\n\nWanted to quickly summarize a few of the important points:\n\n1. Our *<http:\/\/app.jogl.io\/program\/opencovid19|Program Page is now live>*! If you're working on a project, it'd be amazing if you could *create a channel* dedicated to it (with the *#proj-xx naming convention*) and *consider listing it on JOGL* under the program for more visibility amongst the community. To create a channel, just select the + icon next to \"Channels\". To see all the channels, just click the word Channels.\n\n2. Regardless of if you've got a project on JOGL, this Slack, or in your own lab\/institution please fill out *<https:\/\/docs.google.com\/forms\/d\/e\/1FAIpQLSfEYxDM-eTdpWXSCRevC_iStJwIrTu5oByQkkFdym8BcgZksA\/viewform|this form>* to quickly summarize your project. *We'd like to make it easily visible to the community at large the amazing work groups part of this initiative are doing.*\n\n3. If you haven't gotten the chance to, please read over the *<http:\/\/bit.ly\/opencovid19-onboarding|Onboarding Doc>*. It's still under construction but it has important directions on Drive access and our Team Survey.\n\n4. If you need access to literature (get past paywalls) or are looking for articles on specific topics, join the <#CV634UALT|prgm-paperaccess> channel.\n\n5. Here's a list of calls happening this week, hope we'll see a few of you on them! The agendas will be posted (or already posted) in the respective channels below.\n\n3\/19 6PM CET (Paris time) - *Communications Call* (<#CURG6ALTC|prgm-communications-team>)\n3\/20 4PM CET - *Governance Call* (<#CV0QED4KU|prgm-governance-team>)\n3\/20 6PM CET - *Meta-Study Call* (<#CV48ZESEP|prgm-metastudy-team>)\n3\/20 8PM CET - *Developers Call* (<#CVB9NP1L6|prgm-dev-team>)\n3\/21 7PM CET - *Hardware Call* (<#C01037HNAK1|prgm-hardware-team>)\n3\/21 TBD - *Biosafety Board Call* -- if you want to become a member of the advisory board or know someone who wants to, please <https:\/\/docs.google.com\/forms\/d\/e\/1FAIpQLSetzWWDpdssCJUJssBvKeefYC06uKC0v-cF-DE2yyzVDzO5lw\/viewform?usp=sf_link|complete this form>.\n\nWe will be having weekly, all-community calls every *Wednesday, 6PM CET* to update the entire community on progress, hope to see you there! Thank you to everyone who has contributed!",
        "upload": false,
        "blocks": [
            {
                "type": "rich_text",
                "block_id": "P7G4",
                "elements": [
                    {
                        "type": "rich_text_section",
                        "elements": [
                            {
                                "type": "text",
                                "text": "Hello "
                            },
                            {
                                "type": "broadcast",
                                "range": "everyone"
                            },
                            {
                                "type": "text",
                                "text": "! Thanks so much for joining us for our third all-community call! We've grown quite a bit and it's great to see some new faces each week "
                            },
                            {
                                "type": "emoji",
                                "name": "blush"
                            },
                            {
                                "type": "emoji",
                                "name": "earth_africa"
                            },
                            {
                                "type": "text",
                                "text": "\n\nIf you didn't get a chance to be on the call, here are the "
                            },
                            {
                                "type": "link",
                                "url": "https:\/\/docs.google.com\/document\/d\/1Gs5MyQlXHMTY3FhtvN3__pNhfhjrCtneueV4whvlZck\/edit",
                                "text": "notes",
                                "style": {
                                    "bold": true
                                }
                            },
                            {
                                "type": "text",
                                "text": " ",
                                "style": {
                                    "bold": true
                                }
                            },
                            {
                                "type": "text",
                                "text": "from it and the "
                            },
                            {
                                "type": "link",
                                "url": "https:\/\/youtu.be\/Y55yX65pSUE",
                                "text": "recording",
                                "style": {
                                    "bold": true
                                }
                            },
                            {
                                "type": "text",
                                "text": ". There are some important logistics so I'd recommend skimming through the agenda if you have the chance.\n\nWanted to quickly summarize a few of the important points:\n\n1. Our "
                            },
                            {
                                "type": "link",
                                "url": "http:\/\/app.jogl.io\/program\/opencovid19",
                                "text": "Program Page is now live",
                                "style": {
                                    "bold": true
                                }
                            },
                            {
                                "type": "text",
                                "text": "! If you're working on a project, it'd be amazing if you could "
                            },
                            {
                                "type": "text",
                                "text": "create a channel ",
                                "style": {
                                    "bold": true
                                }
                            },
                            {
                                "type": "text",
                                "text": "dedicated to it (with the "
                            },
                            {
                                "type": "text",
                                "text": "#proj-xx naming convention",
                                "style": {
                                    "bold": true
                                }
                            },
                            {
                                "type": "text",
                                "text": ") and "
                            },
                            {
                                "type": "text",
                                "text": "consider listing it on JOGL",
                                "style": {
                                    "bold": true
                                }
                            },
                            {
                                "type": "text",
                                "text": " under the program for more visibility amongst the community. To create a channel, just select the + icon next to \"Channels\". To see all the channels, just click the word Channels.\n\n2. Regardless of if you've got a project on JOGL, this Slack, or in your own lab\/institution please fill out "
                            },
                            {
                                "type": "link",
                                "url": "https:\/\/docs.google.com\/forms\/d\/e\/1FAIpQLSfEYxDM-eTdpWXSCRevC_iStJwIrTu5oByQkkFdym8BcgZksA\/viewform",
                                "text": "this form",
                                "style": {
                                    "bold": true
                                }
                            },
                            {
                                "type": "text",
                                "text": " to quickly summarize your project. "
                            },
                            {
                                "type": "text",
                                "text": "We'd like to make it easily visible to the community at large the amazing work groups part of this initiative are doing.",
                                "style": {
                                    "bold": true
                                }
                            },
                            {
                                "type": "text",
                                "text": "\n\n3. If you haven't gotten the chance to, please read over the "
                            },
                            {
                                "type": "link",
                                "url": "http:\/\/bit.ly\/opencovid19-onboarding",
                                "text": "Onboarding Doc",
                                "style": {
                                    "bold": true
                                }
                            },
                            {
                                "type": "text",
                                "text": ". It's still under construction but it has important directions on Drive access and our Team Survey.\n\n4. If you need access to literature (get past paywalls) or are looking for articles on specific topics, join the "
                            },
                            {
                                "type": "channel",
                                "channel_id": "CV634UALT"
                            },
                            {
                                "type": "text",
                                "text": " channel.\n\n5. Here's a list of calls happening this week, hope we'll see a few of you on them! The agendas will be posted (or already posted) in the respective channels below.\n\n3\/19 6PM CET (Paris time) - "
                            },
                            {
                                "type": "text",
                                "text": "Communications Call",
                                "style": {
                                    "bold": true
                                }
                            },
                            {
                                "type": "text",
                                "text": " ("
                            },
                            {
                                "type": "channel",
                                "channel_id": "CURG6ALTC"
                            },
                            {
                                "type": "text",
                                "text": ")\n3\/20 4PM CET - "
                            },
                            {
                                "type": "text",
                                "text": "Governance Call",
                                "style": {
                                    "bold": true
                                }
                            },
                            {
                                "type": "text",
                                "text": " ("
                            },
                            {
                                "type": "channel",
                                "channel_id": "CV0QED4KU"
                            },
                            {
                                "type": "text",
                                "text": ")\n3\/20 6PM CET - "
                            },
                            {
                                "type": "text",
                                "text": "Meta-Study Call",
                                "style": {
                                    "bold": true
                                }
                            },
                            {
                                "type": "text",
                                "text": " ("
                            },
                            {
                                "type": "channel",
                                "channel_id": "CV48ZESEP"
                            },
                            {
                                "type": "text",
                                "text": ")\n3\/20 8PM CET - "
                            },
                            {
                                "type": "text",
                                "text": "Developers Call",
                                "style": {
                                    "bold": true
                                }
                            },
                            {
                                "type": "text",
                                "text": " ("
                            },
                            {
                                "type": "channel",
                                "channel_id": "CVB9NP1L6"
                            },
                            {
                                "type": "text",
                                "text": ")\n3\/21 7PM CET - "
                            },
                            {
                                "type": "text",
                                "text": "Hardware Call",
                                "style": {
                                    "bold": true
                                }
                            },
                            {
                                "type": "text",
                                "text": " ("
                            },
                            {
                                "type": "channel",
                                "channel_id": "C01037HNAK1"
                            },
                            {
                                "type": "text",
                                "text": ")\n3\/21 TBD - "
                            },
                            {
                                "type": "text",
                                "text": "Biosafety Board Call",
                                "style": {
                                    "bold": true
                                }
                            },
                            {
                                "type": "text",
                                "text": " -- if you want to become a member of the advisory board or know someone who wants to, please "
                            },
                            {
                                "type": "link",
                                "url": "https:\/\/docs.google.com\/forms\/d\/e\/1FAIpQLSetzWWDpdssCJUJssBvKeefYC06uKC0v-cF-DE2yyzVDzO5lw\/viewform?usp=sf_link",
                                "text": "complete this form"
                            },
                            {
                                "type": "text",
                                "text": ".\n\nWe will be having weekly, all-community calls every "
                            },
                            {
                                "type": "text",
                                "text": "Wednesday, 6PM CET",
                                "style": {
                                    "bold": true
                                }
                            },
                            {
                                "type": "text",
                                "text": " to update the entire community on progress, hope to see you there! Thank you to everyone who has contributed!"
                            }
                        ]
                    }
                ]
            }
        ],
        "user": "UV0QTJCMT",
        "ts": "1584583970.165700",
        "edited": {
            "user": "UV0QTJCMT",
            "ts": "1584584235.000000"
        },
        "client_msg_id": "31bfb432-6a33-41ac-9d4e-9386ac5f2f9c",
        "reactions": [
            {
                "name": "clap",
                "users": [
                    "U0103BSMXT2",
                    "U01001VBMFE",
                    "UV8FL0JCA",
                    "UV10KBUQG",
                    "UUPFF4TC3",
                    "UUWPKNE2E",
                    "UV85V64SD",
                    "UV8Q23Y1K",
                    "U010B412MF1",
                    "UV9V03C8Y",
                    "UV02WET96",
                    "UUUEFQW8N",
                    "UUWLPKCLB",
                    "UVDQ2RECS",
                    "U0103128G4D"
                ],
                "count": 15
            }
        ]
    }
]