[
    {
        "client_msg_id": "1a7cef99-a36a-4d96-89f6-0f74a48a269f",
        "type": "message",
        "text": "Dear all <!everyone>\n\nWe hope you’re all safe and well.\nOur next Global Community Call is happening in 1h here!\n\n:point_right: <https:\/\/zoom.us\/j\/7804345815?pwd=Y25OZWRBL3pMNG5NZDN4VHM1Mlc3UT09>\n\nCome join us to listen to our latest advancements and share yours! :heart:",
        "user": "UV02WET96",
        "ts": "1586358557.128800",
        "team": "TUU48M0T1",
        "user_team": "TUU48M0T1",
        "source_team": "TUU48M0T1",
        "user_profile": {
            "avatar_hash": "a99c74a194f8",
            "image_72": "https:\/\/avatars.slack-edge.com\/2020-03-07\/975708504851_a99c74a194f86715ca7d_72.png",
            "first_name": "Thomas",
            "real_name": "Thomas Landrain",
            "display_name": "Thomas Landrain - JOGL CoFounder \/ CEO",
            "team": "TUU48M0T1",
            "name": "thomas",
            "is_restricted": false,
            "is_ultra_restricted": false
        },
        "blocks": [
            {
                "type": "rich_text",
                "block_id": "j5F",
                "elements": [
                    {
                        "type": "rich_text_section",
                        "elements": [
                            {
                                "type": "text",
                                "text": "Dear all "
                            },
                            {
                                "type": "broadcast",
                                "range": "everyone"
                            },
                            {
                                "type": "text",
                                "text": "\n\nWe hope you’re all safe and well.\nOur next Global Community Call is happening in 1h here!\n\n"
                            },
                            {
                                "type": "emoji",
                                "name": "point_right"
                            },
                            {
                                "type": "text",
                                "text": " "
                            },
                            {
                                "type": "link",
                                "url": "https:\/\/zoom.us\/j\/7804345815?pwd=Y25OZWRBL3pMNG5NZDN4VHM1Mlc3UT09"
                            },
                            {
                                "type": "text",
                                "text": "\n\nCome join us to listen to our latest advancements and share yours! "
                            },
                            {
                                "type": "emoji",
                                "name": "heart"
                            }
                        ]
                    }
                ]
            }
        ],
        "reactions": [
            {
                "name": "heart",
                "users": [
                    "U01136GDY5V",
                    "UV2SC7ZE3",
                    "UVCS0865Q",
                    "UV10KBUQG",
                    "U01185F8RCN"
                ],
                "count": 5
            },
            {
                "name": "+1",
                "users": [
                    "U010APQC76J",
                    "UVA46RKLY"
                ],
                "count": 2
            },
            {
                "name": "cry",
                "users": [
                    "U0115G1A03D"
                ],
                "count": 1
            }
        ]
    },
    {
        "client_msg_id": "72be1354-102f-41c7-8968-cbf660e47b65",
        "type": "message",
        "text": "If the Zoom is asking you for a code, use this code: *123456*",
        "user": "UV0QTJCMT",
        "ts": "1586358832.129700",
        "team": "TUU48M0T1",
        "user_team": "TUU48M0T1",
        "source_team": "TUU48M0T1",
        "user_profile": {
            "avatar_hash": "06a6ae8f69d1",
            "image_72": "https:\/\/avatars.slack-edge.com\/2020-04-13\/1060635499315_06a6ae8f69d18f1ad464_72.png",
            "first_name": "Katherine",
            "real_name": "Katherine Holo",
            "display_name": "Kat Holo - Co-Organizer of OpenCOVID19",
            "team": "TUU48M0T1",
            "name": "katherineh245",
            "is_restricted": false,
            "is_ultra_restricted": false
        },
        "blocks": [
            {
                "type": "rich_text",
                "block_id": "=Pq",
                "elements": [
                    {
                        "type": "rich_text_section",
                        "elements": [
                            {
                                "type": "text",
                                "text": "If the Zoom is asking you for a code, use this code: "
                            },
                            {
                                "type": "text",
                                "text": "123456",
                                "style": {
                                    "bold": true
                                }
                            }
                        ]
                    }
                ]
            }
        ],
        "reactions": [
            {
                "name": "grinning",
                "users": [
                    "U0103SR759U",
                    "UV02WET96",
                    "UV10KBUQG",
                    "U010AGDDEBZ"
                ],
                "count": 4
            },
            {
                "name": "astonished",
                "users": [
                    "U0119SR5LMT",
                    "U01084P4ELX"
                ],
                "count": 2
            }
        ]
    },
    {
        "type": "message",
        "text": "The agenda for today's call is <https:\/\/docs.google.com\/document\/d\/1H07CARoPZa80TQPbKRTZ5zF_Z4LRO48pKfaiUoplSpg\/edit|here>, if you have something you'd like to share from your workgroup\/project, please put your name and notes by the relevant points!",
        "upload": false,
        "blocks": [
            {
                "type": "rich_text",
                "block_id": "1iw1",
                "elements": [
                    {
                        "type": "rich_text_section",
                        "elements": [
                            {
                                "type": "text",
                                "text": "The agenda for today's call is "
                            },
                            {
                                "type": "link",
                                "url": "https:\/\/docs.google.com\/document\/d\/1H07CARoPZa80TQPbKRTZ5zF_Z4LRO48pKfaiUoplSpg\/edit",
                                "text": "here"
                            },
                            {
                                "type": "text",
                                "text": ", if you have something you'd like to share from your workgroup\/project, please put your name and notes by the relevant points!"
                            }
                        ]
                    }
                ]
            }
        ],
        "user": "UV0QTJCMT",
        "ts": "1586360514.131700",
        "edited": {
            "user": "UV0QTJCMT",
            "ts": "1586360519.000000"
        },
        "client_msg_id": "d55f7dd9-d8e6-4311-958b-3a7c6eccede5",
        "reactions": [
            {
                "name": "pray",
                "users": [
                    "U010APQC76J"
                ],
                "count": 1
            }
        ]
    },
    {
        "client_msg_id": "d4e9c501-2a6c-493f-aa27-b6e176d81016",
        "type": "message",
        "text": "Hey everyone, here is the recording of today’s Global Community Call :movie_camera:\nThanks again for all the amazing progress!!\nHave a great day\/morning\/evening :slightly_smiling_face:\n<https:\/\/youtu.be\/OqxYM39N-hY>",
        "user": "UV02WET96",
        "ts": "1586369932.135300",
        "team": "TUU48M0T1",
        "user_team": "TUU48M0T1",
        "source_team": "TUU48M0T1",
        "user_profile": {
            "avatar_hash": "a99c74a194f8",
            "image_72": "https:\/\/avatars.slack-edge.com\/2020-03-07\/975708504851_a99c74a194f86715ca7d_72.png",
            "first_name": "Thomas",
            "real_name": "Thomas Landrain",
            "display_name": "Thomas Landrain - JOGL CoFounder \/ CEO",
            "team": "TUU48M0T1",
            "name": "thomas",
            "is_restricted": false,
            "is_ultra_restricted": false
        },
        "attachments": [
            {
                "service_name": "YouTube",
                "service_url": "https:\/\/www.youtube.com\/",
                "title": "OpenCovid19 Initiative [Global Community Call #6]",
                "title_link": "https:\/\/youtu.be\/OqxYM39N-hY",
                "author_name": "Just One Giant Lab",
                "author_link": "https:\/\/www.youtube.com\/channel\/UCvgRJdZ4OoTyo8tuJNVf4fA",
                "thumb_url": "https:\/\/i.ytimg.com\/vi\/OqxYM39N-hY\/hqdefault.jpg",
                "thumb_width": 480,
                "thumb_height": 360,
                "fallback": "YouTube Video: OpenCovid19 Initiative [Global Community Call #6]",
                "video_html": "<iframe width=\"400\" height=\"225\" src=\"https:\/\/www.youtube.com\/embed\/OqxYM39N-hY?feature=oembed&autoplay=1&iv_load_policy=3\" frameborder=\"0\" allow=\"accelerometer; autoplay; encrypted-media; gyroscope; picture-in-picture\" allowfullscreen><\/iframe>",
                "video_html_width": 400,
                "video_html_height": 225,
                "from_url": "https:\/\/youtu.be\/OqxYM39N-hY",
                "service_icon": "https:\/\/a.slack-edge.com\/80588\/img\/unfurl_icons\/youtube.png",
                "id": 1,
                "original_url": "https:\/\/youtu.be\/OqxYM39N-hY"
            }
        ],
        "blocks": [
            {
                "type": "rich_text",
                "block_id": "b\/S",
                "elements": [
                    {
                        "type": "rich_text_section",
                        "elements": [
                            {
                                "type": "text",
                                "text": "Hey everyone, here is the recording of today’s Global Community Call "
                            },
                            {
                                "type": "emoji",
                                "name": "movie_camera"
                            },
                            {
                                "type": "text",
                                "text": "\nThanks again for all the amazing progress!!\nHave a great day\/morning\/evening "
                            },
                            {
                                "type": "emoji",
                                "name": "slightly_smiling_face"
                            },
                            {
                                "type": "text",
                                "text": "\n"
                            },
                            {
                                "type": "link",
                                "url": "https:\/\/youtu.be\/OqxYM39N-hY"
                            }
                        ]
                    }
                ]
            }
        ],
        "thread_ts": "1586369932.135300",
        "reply_count": 7,
        "reply_users_count": 5,
        "latest_reply": "1586464718.145100",
        "reply_users": [
            "U0119U5N3T3",
            "U01188XCK19",
            "U0115G1A03D",
            "U010Q3372P3",
            "UV02WET96"
        ],
        "replies": [
            {
                "user": "U0119U5N3T3",
                "ts": "1586369961.135500"
            },
            {
                "user": "U01188XCK19",
                "ts": "1586371368.135800"
            },
            {
                "user": "U0115G1A03D",
                "ts": "1586380291.137600"
            },
            {
                "user": "U01188XCK19",
                "ts": "1586384489.138200"
            },
            {
                "user": "U01188XCK19",
                "ts": "1586419085.139600"
            },
            {
                "user": "U010Q3372P3",
                "ts": "1586454657.144500"
            },
            {
                "user": "UV02WET96",
                "ts": "1586464718.145100"
            }
        ],
        "subscribed": false,
        "reactions": [
            {
                "name": "grinning",
                "users": [
                    "U011D6K9RH6",
                    "U010XUF2L9Z",
                    "U011CQ8C9GU",
                    "UV0QTJCMT",
                    "UV10KBUQG",
                    "UV85V64SD",
                    "UV0RRGB6H",
                    "U010Q3372P3",
                    "UV8T52QJ3"
                ],
                "count": 9
            },
            {
                "name": "slightly_smiling_face",
                "users": [
                    "U011D6K9RH6"
                ],
                "count": 1
            },
            {
                "name": "sleepy",
                "users": [
                    "U0115G1A03D"
                ],
                "count": 1
            }
        ]
    },
    {
        "client_msg_id": "e778de2b-14fa-4b08-8cca-1ccdc7e77ece",
        "type": "message",
        "text": "ah I missed this! next time :slightly_smiling_face:",
        "user": "U0119U5N3T3",
        "ts": "1586369961.135500",
        "team": "TUU48M0T1",
        "user_team": "TUU48M0T1",
        "source_team": "TUU48M0T1",
        "user_profile": {
            "avatar_hash": "b3b38b63650e",
            "image_72": "https:\/\/avatars.slack-edge.com\/2020-04-04\/1047354985190_b3b38b63650e809885b3_72.jpg",
            "first_name": "",
            "real_name": "Sina Booeshaghi",
            "display_name": "Sina Booeshaghi",
            "team": "TUU48M0T1",
            "name": "abooesha",
            "is_restricted": false,
            "is_ultra_restricted": false
        },
        "blocks": [
            {
                "type": "rich_text",
                "block_id": "2XmsK",
                "elements": [
                    {
                        "type": "rich_text_section",
                        "elements": [
                            {
                                "type": "text",
                                "text": "ah I missed this! next time "
                            },
                            {
                                "type": "emoji",
                                "name": "slightly_smiling_face"
                            }
                        ]
                    }
                ]
            }
        ],
        "thread_ts": "1586369932.135300",
        "parent_user_id": "UV02WET96",
        "reactions": [
            {
                "name": "100",
                "users": [
                    "UV02WET96"
                ],
                "count": 1
            }
        ]
    },
    {
        "client_msg_id": "4c239028-7653-42bd-9de4-6b41ae4afd65",
        "type": "message",
        "text": "thanks !",
        "user": "U01188XCK19",
        "ts": "1586371368.135800",
        "team": "TUU48M0T1",
        "user_team": "TUU48M0T1",
        "source_team": "TUU48M0T1",
        "user_profile": {
            "avatar_hash": "gd85edfb45fa",
            "image_72": "https:\/\/secure.gravatar.com\/avatar\/d85edfb45fa87b47ea33da26228d07dd.jpg?s=72&d=https%3A%2F%2Fa.slack-edge.com%2Fdf10d%2Fimg%2Favatars%2Fava_0011-72.png",
            "first_name": "",
            "real_name": "wolf arthur",
            "display_name": "wolf arthur",
            "team": "TUU48M0T1",
            "name": "wolf.arthur",
            "is_restricted": false,
            "is_ultra_restricted": false
        },
        "blocks": [
            {
                "type": "rich_text",
                "block_id": "dE0Y",
                "elements": [
                    {
                        "type": "rich_text_section",
                        "elements": [
                            {
                                "type": "text",
                                "text": "thanks !"
                            }
                        ]
                    }
                ]
            }
        ],
        "thread_ts": "1586369932.135300",
        "parent_user_id": "UV02WET96"
    },
    {
        "client_msg_id": "cd1501ea-9d53-4332-a35d-1588fece6fe9",
        "type": "message",
        "text": "I missed :confused: because don't post UTC time and pass code 1 hour before start :disappointed:",
        "user": "U0115G1A03D",
        "ts": "1586380291.137600",
        "team": "TUU48M0T1",
        "user_team": "TUU48M0T1",
        "source_team": "TUU48M0T1",
        "user_profile": {
            "avatar_hash": "4daeacf08e50",
            "image_72": "https:\/\/avatars.slack-edge.com\/2020-04-04\/1038340161250_4daeacf08e50360875bc_72.png",
            "first_name": "",
            "real_name": "Pablo Díaz",
            "display_name": "Pablo Díaz",
            "team": "TUU48M0T1",
            "name": "pablo.diazv",
            "is_restricted": false,
            "is_ultra_restricted": false
        },
        "blocks": [
            {
                "type": "rich_text",
                "block_id": "zpTQr",
                "elements": [
                    {
                        "type": "rich_text_section",
                        "elements": [
                            {
                                "type": "text",
                                "text": "I missed "
                            },
                            {
                                "type": "emoji",
                                "name": "confused"
                            },
                            {
                                "type": "text",
                                "text": " because don't post UTC time and pass code 1 hour before start "
                            },
                            {
                                "type": "emoji",
                                "name": "disappointed"
                            }
                        ]
                    }
                ]
            }
        ],
        "thread_ts": "1586369932.135300",
        "parent_user_id": "UV02WET96"
    },
    {
        "client_msg_id": "99a389a7-6bf5-4360-9537-75c4494e2918",
        "type": "message",
        "text": "<@U0115G1A03D> Yeah sorry it looks like they forgot about the call, and I remembered right before the time, I told them, and they started the call anyway, but yeah it was a very short time. I think tomorrow we'll manage to prepare it sooner.",
        "user": "U01188XCK19",
        "ts": "1586384489.138200",
        "team": "TUU48M0T1",
        "user_team": "TUU48M0T1",
        "source_team": "TUU48M0T1",
        "user_profile": {
            "avatar_hash": "gd85edfb45fa",
            "image_72": "https:\/\/secure.gravatar.com\/avatar\/d85edfb45fa87b47ea33da26228d07dd.jpg?s=72&d=https%3A%2F%2Fa.slack-edge.com%2Fdf10d%2Fimg%2Favatars%2Fava_0011-72.png",
            "first_name": "",
            "real_name": "wolf arthur",
            "display_name": "wolf arthur",
            "team": "TUU48M0T1",
            "name": "wolf.arthur",
            "is_restricted": false,
            "is_ultra_restricted": false
        },
        "blocks": [
            {
                "type": "rich_text",
                "block_id": "\/XEI",
                "elements": [
                    {
                        "type": "rich_text_section",
                        "elements": [
                            {
                                "type": "user",
                                "user_id": "U0115G1A03D"
                            },
                            {
                                "type": "text",
                                "text": " Yeah sorry it looks like they forgot about the call, and I remembered right before the time, I told them, and they started the call anyway, but yeah it was a very short time. I think tomorrow we'll manage to prepare it sooner."
                            }
                        ]
                    }
                ]
            }
        ],
        "thread_ts": "1586369932.135300",
        "parent_user_id": "UV02WET96"
    }
]