[
    {
        "client_msg_id": "e635ae6b-1ffd-4973-8e81-b10a72e5c52d",
        "type": "message",
        "text": "Agenda for today's meeting at 6 pm CET: <https:\/\/docs.google.com\/document\/d\/16SabTZ4JMfWFZ533ILG2JdV58DM2mIae0cN2UMfnv8s\/edit#>",
        "user": "UV2SC7ZE3",
        "ts": "1585062925.164000",
        "team": "TUU48M0T1",
        "user_team": "TUU48M0T1",
        "source_team": "TUU48M0T1",
        "user_profile": {
            "avatar_hash": "d28dd0d076e8",
            "image_72": "https:\/\/avatars.slack-edge.com\/2020-03-14\/987873094258_d28dd0d076e8fa9a8409_72.png",
            "first_name": "David",
            "real_name": "David Lu",
            "display_name": "David Lu",
            "team": "TUU48M0T1",
            "name": "ludavidyi",
            "is_restricted": false,
            "is_ultra_restricted": false
        },
        "blocks": [
            {
                "type": "rich_text",
                "block_id": "V\/8a",
                "elements": [
                    {
                        "type": "rich_text_section",
                        "elements": [
                            {
                                "type": "text",
                                "text": "Agenda for today's meeting at 6 pm CET: "
                            },
                            {
                                "type": "link",
                                "url": "https:\/\/docs.google.com\/document\/d\/16SabTZ4JMfWFZ533ILG2JdV58DM2mIae0cN2UMfnv8s\/edit#"
                            }
                        ]
                    }
                ]
            }
        ],
        "reactions": [
            {
                "name": "raised_hands",
                "users": [
                    "UV02WET96"
                ],
                "count": 1
            },
            {
                "name": "+1",
                "users": [
                    "U010APQC76J"
                ],
                "count": 1
            }
        ]
    },
    {
        "client_msg_id": "6a1c23b6-f9a2-4fe9-9684-177eb2ffe548",
        "type": "message",
        "text": "I edited the comms plan a bit, clarified some stuff. It's really nice to see we now have activities and strategies! Plus a bunch of other new ideas.\n<https:\/\/docs.google.com\/document\/d\/1JzwV3uq88xpBbJgmAP3xv1r6O05Z3TRU_FFR60U7Bcs\/>\nWe probably want to use some of the call to decide what to focus on",
        "user": "U010APQC76J",
        "ts": "1585067557.165900",
        "team": "TUU48M0T1",
        "user_team": "TUU48M0T1",
        "source_team": "TUU48M0T1",
        "user_profile": {
            "avatar_hash": "751a8e7a94a5",
            "image_72": "https:\/\/avatars.slack-edge.com\/2020-03-25\/1026091401893_751a8e7a94a519bfd1d7_72.jpg",
            "first_name": "Hans",
            "real_name": "Hans Pfalzgraf",
            "display_name": "Hans P",
            "team": "TUU48M0T1",
            "name": "h.pfalzgraf",
            "is_restricted": false,
            "is_ultra_restricted": false
        },
        "blocks": [
            {
                "type": "rich_text",
                "block_id": "9+i",
                "elements": [
                    {
                        "type": "rich_text_section",
                        "elements": [
                            {
                                "type": "text",
                                "text": "I edited the comms plan a bit, clarified some stuff. It's really nice to see we now have activities and strategies! Plus a bunch of other new ideas.\n"
                            },
                            {
                                "type": "link",
                                "url": "https:\/\/docs.google.com\/document\/d\/1JzwV3uq88xpBbJgmAP3xv1r6O05Z3TRU_FFR60U7Bcs\/"
                            },
                            {
                                "type": "text",
                                "text": "\nWe probably want to use some of the call to decide what to focus on"
                            }
                        ]
                    }
                ]
            }
        ],
        "reactions": [
            {
                "name": "+1",
                "users": [
                    "UV2SC7ZE3"
                ],
                "count": 1
            }
        ]
    },
    {
        "type": "message",
        "text": "",
        "user": "UV0QTJCMT",
        "ts": "1585069384.166500",
        "team": "TUU48M0T1",
        "user_team": "TUU48M0T1",
        "source_team": "TUU48M0T1",
        "user_profile": {
            "avatar_hash": "06a6ae8f69d1",
            "image_72": "https:\/\/avatars.slack-edge.com\/2020-04-13\/1060635499315_06a6ae8f69d18f1ad464_72.png",
            "first_name": "Katherine",
            "real_name": "Katherine Holo",
            "display_name": "Kat Holo - Co-Organizer of OpenCOVID19",
            "team": "TUU48M0T1",
            "name": "katherineh245",
            "is_restricted": false,
            "is_ultra_restricted": false
        },
        "attachments": [
            {
                "fallback": "[March 22nd, 2020 11:57 AM] julie: Hi newcomers! Welcome to comms! \n\nWe are laying the groundwork for communications, moving forward. There is a document we are working on for our comms goal and strategies here: <https:\/\/docs.google.com\/document\/d\/1JzwV3uq88xpBbJgmAP3xv1r6O05Z3TRU_FFR60U7Bcs\/edit#heading=h.3acszlwasm2o|https:\/\/docs.google.com\/document\/d\/1JzwV3uq88xpBbJgmAP3xv1r6O05Z3TRU_FFR60U7Bcs\/edit#heading=h.3acszlwasm2o>\nPlease do visit and fill out with your ideas.\n\nAnd our next call is Tuesday, 24th, 6pm Paris time: <https:\/\/zoom.us\/j\/7804345815|https:\/\/zoom.us\/j\/7804345815>",
                "ts": "1584903427.144700",
                "author_id": "UV76CQTB4",
                "author_subname": "Julie Legault",
                "channel_id": "CURG6ALTC",
                "channel_name": "prgm-communications-team",
                "is_msg_unfurl": true,
                "text": "Hi newcomers! Welcome to comms! \n\nWe are laying the groundwork for communications, moving forward. There is a document we are working on for our comms goal and strategies here: <https:\/\/docs.google.com\/document\/d\/1JzwV3uq88xpBbJgmAP3xv1r6O05Z3TRU_FFR60U7Bcs\/edit#heading=h.3acszlwasm2o|https:\/\/docs.google.com\/document\/d\/1JzwV3uq88xpBbJgmAP3xv1r6O05Z3TRU_FFR60U7Bcs\/edit#heading=h.3acszlwasm2o>\nPlease do visit and fill out with your ideas.\n\nAnd our next call is Tuesday, 24th, 6pm Paris time: <https:\/\/zoom.us\/j\/7804345815|https:\/\/zoom.us\/j\/7804345815>",
                "author_name": "Julie Legault",
                "author_link": "https:\/\/open-covid19.slack.com\/team\/UV76CQTB4",
                "author_icon": "https:\/\/avatars.slack-edge.com\/2020-03-17\/993297059666_07668a20a751afe52104_48.png",
                "mrkdwn_in": [
                    "text"
                ],
                "color": "D0D0D0",
                "from_url": "https:\/\/open-covid19.slack.com\/archives\/CURG6ALTC\/p1584903427144700",
                "is_share": true,
                "footer": "Posted in #prgm-communications-team"
            }
        ]
    },
    {
        "client_msg_id": "21f0217d-e60e-4712-b67e-a1bffe481a2f",
        "type": "message",
        "text": "<!channel> Zoom meeting starting !",
        "user": "U01019BQXM3",
        "ts": "1585069394.166800",
        "team": "TUU48M0T1",
        "user_team": "TUU48M0T1",
        "source_team": "TUU48M0T1",
        "user_profile": {
            "avatar_hash": "7e0f35d8cc55",
            "image_72": "https:\/\/avatars.slack-edge.com\/2020-03-15\/988667349730_7e0f35d8cc556cd89565_72.jpg",
            "first_name": "Marc",
            "real_name": "Marc Bokobza",
            "display_name": "Marc Bokobza",
            "team": "TUU48M0T1",
            "name": "marcbokobza1",
            "is_restricted": false,
            "is_ultra_restricted": false
        },
        "blocks": [
            {
                "type": "rich_text",
                "block_id": "7BQwL",
                "elements": [
                    {
                        "type": "rich_text_section",
                        "elements": [
                            {
                                "type": "broadcast",
                                "range": "channel"
                            },
                            {
                                "type": "text",
                                "text": " Zoom meeting starting !"
                            }
                        ]
                    }
                ]
            }
        ]
    },
    {
        "client_msg_id": "3687ec54-b153-40c3-be41-0b43b13574a2",
        "type": "message",
        "text": "I love lurking in this group! thank you for your amazing work",
        "user": "UV87UQ37A",
        "ts": "1585071398.174000",
        "team": "TUU48M0T1",
        "user_team": "TUU48M0T1",
        "source_team": "TUU48M0T1",
        "user_profile": {
            "avatar_hash": "g7c78d2f0258",
            "image_72": "https:\/\/secure.gravatar.com\/avatar\/7c78d2f0258f7bdf78a86301cfd6b712.jpg?s=72&d=https%3A%2F%2Fa.slack-edge.com%2Fdf10d%2Fimg%2Favatars%2Fava_0014-72.png",
            "first_name": "Victoria",
            "real_name": "Victoria Costa",
            "display_name": "Victoria Costa",
            "team": "TUU48M0T1",
            "name": "victorycoast",
            "is_restricted": false,
            "is_ultra_restricted": false
        },
        "blocks": [
            {
                "type": "rich_text",
                "block_id": "LNBN",
                "elements": [
                    {
                        "type": "rich_text_section",
                        "elements": [
                            {
                                "type": "text",
                                "text": "I love lurking in this group! thank you for your amazing work"
                            }
                        ]
                    }
                ]
            }
        ],
        "reactions": [
            {
                "name": "slightly_smiling_face",
                "users": [
                    "UV2SC7ZE3"
                ],
                "count": 1
            }
        ]
    },
    {
        "client_msg_id": "a4ad2c02-aff1-4e0f-be7b-e4d912118308",
        "type": "message",
        "text": "<!channel> Not sure it is worth mentioning here, but *today is World TB day*, and if you need ideas for post this could be one. TB is an airborne communicable disease which kills about 1.5Million people per year. Similarly to covid19 if affects primarly pulmonary functions (presenting about the same symptoms as covid19), is transmitted via close contacts. Similarly to covid19, the people who die from it are the most vulnerable. Similarly to covid19, global efforts and collaboration is necessary to tackle it, because co-morbidities are numerous among other things. We also observe a massive problem of resistance to treatment. Plus, while experience on COVID-19 infection in TB patients remains limited (but not for long as the African continent is now affected), it is anticipated that people ill with both TB and COVID-19 may have poor health outcomes.\nIf you need any information : <https:\/\/www.who.int\/news-room\/campaigns\/world-tb-day\/world-tb-day-2020>",
        "user": "UV9V03C8Y",
        "ts": "1585071406.174300",
        "team": "TUU48M0T1",
        "user_team": "TUU48M0T1",
        "source_team": "TUU48M0T1",
        "user_profile": {
            "avatar_hash": "177697fb7b8f",
            "image_72": "https:\/\/avatars.slack-edge.com\/2020-03-12\/996126178096_177697fb7b8ffa57649c_72.jpg",
            "first_name": "Camille",
            "real_name": "Camille Masselot - JOGL Program coordinator",
            "display_name": "Camille Masselot - JOGL coordinator",
            "team": "TUU48M0T1",
            "name": "masselot.camille",
            "is_restricted": false,
            "is_ultra_restricted": false
        },
        "blocks": [
            {
                "type": "rich_text",
                "block_id": "40U",
                "elements": [
                    {
                        "type": "rich_text_section",
                        "elements": [
                            {
                                "type": "broadcast",
                                "range": "channel"
                            },
                            {
                                "type": "text",
                                "text": " Not sure it is worth mentioning here, but "
                            },
                            {
                                "type": "text",
                                "text": "today is World TB day",
                                "style": {
                                    "bold": true
                                }
                            },
                            {
                                "type": "text",
                                "text": ", and if you need ideas for post this could be one. TB is an airborne communicable disease which kills about 1.5Million people per year. Similarly to covid19 if affects primarly pulmonary functions (presenting about the same symptoms as covid19), is transmitted via close contacts. Similarly to covid19, the people who die from it are the most vulnerable. Similarly to covid19, global efforts and collaboration is necessary to tackle it, because co-morbidities are numerous among other things. We also observe a massive problem of resistance to treatment. Plus, while experience on COVID-19 infection in TB patients remains limited (but not for long as the African continent is now affected), it is anticipated that people ill with both TB and COVID-19 may have poor health outcomes.\nIf you need any information : "
                            },
                            {
                                "type": "link",
                                "url": "https:\/\/www.who.int\/news-room\/campaigns\/world-tb-day\/world-tb-day-2020"
                            }
                        ]
                    }
                ]
            }
        ],
        "thread_ts": "1585071406.174300",
        "reply_count": 1,
        "reply_users_count": 1,
        "latest_reply": "1585073096.179200",
        "reply_users": [
            "UV2SC7ZE3"
        ],
        "replies": [
            {
                "user": "UV2SC7ZE3",
                "ts": "1585073096.179200"
            }
        ],
        "subscribed": false
    },
    {
        "client_msg_id": "e3fb48ca-1ab2-494e-9251-1860fa2bfb65",
        "type": "message",
        "text": "POI I will see if I can get the Greet Bot to say something more helpful when people arrive on slack and then interven with personal touches as people arrive",
        "user": "U010566NJHG",
        "ts": "1585073042.178700",
        "team": "TUU48M0T1",
        "user_team": "TUU48M0T1",
        "source_team": "TUU48M0T1",
        "user_profile": {
            "avatar_hash": "103225790dbb",
            "image_72": "https:\/\/avatars.slack-edge.com\/2020-03-23\/1018037453952_103225790dbb62abe3e8_72.jpg",
            "first_name": "Avi",
            "real_name": "Avi Khalil",
            "display_name": "Avi",
            "team": "TUU48M0T1",
            "name": "kavb",
            "is_restricted": false,
            "is_ultra_restricted": false
        },
        "blocks": [
            {
                "type": "rich_text",
                "block_id": "4=F",
                "elements": [
                    {
                        "type": "rich_text_section",
                        "elements": [
                            {
                                "type": "text",
                                "text": "POI I will see if I can get the Greet Bot to say something more helpful when people arrive on slack and then interven with personal touches as people arrive"
                            }
                        ]
                    }
                ]
            }
        ],
        "reactions": [
            {
                "name": "+1",
                "users": [
                    "UV2SC7ZE3",
                    "UV76CQTB4"
                ],
                "count": 2
            }
        ]
    },
    {
        "client_msg_id": "0672612d-0ce9-4579-88f4-d16498be5e6a",
        "type": "message",
        "text": "Thanks for sharing Camille! We didn't get to talk to social media posting. But that's on our to-do for the coming week.",
        "user": "UV2SC7ZE3",
        "ts": "1585073096.179200",
        "team": "TUU48M0T1",
        "user_team": "TUU48M0T1",
        "source_team": "TUU48M0T1",
        "user_profile": {
            "avatar_hash": "d28dd0d076e8",
            "image_72": "https:\/\/avatars.slack-edge.com\/2020-03-14\/987873094258_d28dd0d076e8fa9a8409_72.png",
            "first_name": "David",
            "real_name": "David Lu",
            "display_name": "David Lu",
            "team": "TUU48M0T1",
            "name": "ludavidyi",
            "is_restricted": false,
            "is_ultra_restricted": false
        },
        "blocks": [
            {
                "type": "rich_text",
                "block_id": "0kd",
                "elements": [
                    {
                        "type": "rich_text_section",
                        "elements": [
                            {
                                "type": "text",
                                "text": "Thanks for sharing Camille! We didn't get to talk to social media posting. But that's on our to-do for the coming week."
                            }
                        ]
                    }
                ]
            }
        ],
        "thread_ts": "1585071406.174300",
        "parent_user_id": "UV9V03C8Y"
    },
    {
        "client_msg_id": "546b3ea5-9e27-46ee-8da0-285b403d8235",
        "type": "message",
        "text": "So Emily and I are up for gathering progress updates from all the projects. However, I do not yet know where to ask for them. Do I go to the programmes' slack channels? To the challenge channels? They're the ones I found in the onboarding document <https:\/\/docs.google.com\/document\/d\/1h0Zu-Q_c71FUlyh66rAPcNR1s7ASOatY2oicsaedzsk\/>",
        "user": "U010APQC76J",
        "ts": "1585073154.179600",
        "team": "TUU48M0T1",
        "user_team": "TUU48M0T1",
        "source_team": "TUU48M0T1",
        "user_profile": {
            "avatar_hash": "751a8e7a94a5",
            "image_72": "https:\/\/avatars.slack-edge.com\/2020-03-25\/1026091401893_751a8e7a94a519bfd1d7_72.jpg",
            "first_name": "Hans",
            "real_name": "Hans Pfalzgraf",
            "display_name": "Hans P",
            "team": "TUU48M0T1",
            "name": "h.pfalzgraf",
            "is_restricted": false,
            "is_ultra_restricted": false
        },
        "blocks": [
            {
                "type": "rich_text",
                "block_id": "vYQ",
                "elements": [
                    {
                        "type": "rich_text_section",
                        "elements": [
                            {
                                "type": "text",
                                "text": "So Emily and I are up for gathering progress updates from all the projects. However, I do not yet know where to ask for them. Do I go to the programmes' slack channels? To the challenge channels? They're the ones I found in the onboarding document "
                            },
                            {
                                "type": "link",
                                "url": "https:\/\/docs.google.com\/document\/d\/1h0Zu-Q_c71FUlyh66rAPcNR1s7ASOatY2oicsaedzsk\/"
                            }
                        ]
                    }
                ]
            }
        ],
        "thread_ts": "1585073154.179600",
        "reply_count": 5,
        "reply_users_count": 3,
        "latest_reply": "1585073225.180900",
        "reply_users": [
            "UV2SC7ZE3",
            "U01019BQXM3",
            "U010566NJHG"
        ],
        "replies": [
            {
                "user": "UV2SC7ZE3",
                "ts": "1585073172.179800"
            },
            {
                "user": "UV2SC7ZE3",
                "ts": "1585073205.180000"
            },
            {
                "user": "U01019BQXM3",
                "ts": "1585073216.180400"
            },
            {
                "user": "U010566NJHG",
                "ts": "1585073219.180600"
            },
            {
                "user": "U01019BQXM3",
                "ts": "1585073225.180900"
            }
        ],
        "subscribed": false
    },
    {
        "client_msg_id": "5f679dae-44ae-4250-b945-5fb2d6015bdb",
        "type": "message",
        "text": "I think <@U01019BQXM3> will first assemble that list",
        "user": "UV2SC7ZE3",
        "ts": "1585073172.179800",
        "team": "TUU48M0T1",
        "user_team": "TUU48M0T1",
        "source_team": "TUU48M0T1",
        "user_profile": {
            "avatar_hash": "d28dd0d076e8",
            "image_72": "https:\/\/avatars.slack-edge.com\/2020-03-14\/987873094258_d28dd0d076e8fa9a8409_72.png",
            "first_name": "David",
            "real_name": "David Lu",
            "display_name": "David Lu",
            "team": "TUU48M0T1",
            "name": "ludavidyi",
            "is_restricted": false,
            "is_ultra_restricted": false
        },
        "blocks": [
            {
                "type": "rich_text",
                "block_id": "CfdZ",
                "elements": [
                    {
                        "type": "rich_text_section",
                        "elements": [
                            {
                                "type": "text",
                                "text": "I think "
                            },
                            {
                                "type": "user",
                                "user_id": "U01019BQXM3"
                            },
                            {
                                "type": "text",
                                "text": " will first assemble that list"
                            }
                        ]
                    }
                ]
            }
        ],
        "thread_ts": "1585073154.179600",
        "parent_user_id": "U010APQC76J",
        "reactions": [
            {
                "name": "+1",
                "users": [
                    "U010APQC76J"
                ],
                "count": 1
            }
        ]
    },
    {
        "client_msg_id": "1d310292-8060-48f4-8083-349b059e02e7",
        "type": "message",
        "text": "and share the list of project leaders with you and <@UV0PCSG58>",
        "user": "UV2SC7ZE3",
        "ts": "1585073205.180000",
        "team": "TUU48M0T1",
        "user_team": "TUU48M0T1",
        "source_team": "TUU48M0T1",
        "user_profile": {
            "avatar_hash": "d28dd0d076e8",
            "image_72": "https:\/\/avatars.slack-edge.com\/2020-03-14\/987873094258_d28dd0d076e8fa9a8409_72.png",
            "first_name": "David",
            "real_name": "David Lu",
            "display_name": "David Lu",
            "team": "TUU48M0T1",
            "name": "ludavidyi",
            "is_restricted": false,
            "is_ultra_restricted": false
        },
        "blocks": [
            {
                "type": "rich_text",
                "block_id": "k60G7",
                "elements": [
                    {
                        "type": "rich_text_section",
                        "elements": [
                            {
                                "type": "text",
                                "text": "and share the list of project leaders with you and "
                            },
                            {
                                "type": "user",
                                "user_id": "UV0PCSG58"
                            }
                        ]
                    }
                ]
            }
        ],
        "thread_ts": "1585073154.179600",
        "parent_user_id": "U010APQC76J",
        "reactions": [
            {
                "name": "+1",
                "users": [
                    "U010APQC76J",
                    "UV0PCSG58"
                ],
                "count": 2
            }
        ]
    },
    {
        "client_msg_id": "126ed68f-f634-44ab-8f9e-4a56338f9c05",
        "type": "message",
        "text": "I asked Leo for the datas",
        "user": "U01019BQXM3",
        "ts": "1585073216.180400",
        "team": "TUU48M0T1",
        "user_team": "TUU48M0T1",
        "source_team": "TUU48M0T1",
        "user_profile": {
            "avatar_hash": "7e0f35d8cc55",
            "image_72": "https:\/\/avatars.slack-edge.com\/2020-03-15\/988667349730_7e0f35d8cc556cd89565_72.jpg",
            "first_name": "Marc",
            "real_name": "Marc Bokobza",
            "display_name": "Marc Bokobza",
            "team": "TUU48M0T1",
            "name": "marcbokobza1",
            "is_restricted": false,
            "is_ultra_restricted": false
        },
        "blocks": [
            {
                "type": "rich_text",
                "block_id": "nxs",
                "elements": [
                    {
                        "type": "rich_text_section",
                        "elements": [
                            {
                                "type": "text",
                                "text": "I asked Leo for the datas"
                            }
                        ]
                    }
                ]
            }
        ],
        "thread_ts": "1585073154.179600",
        "parent_user_id": "U010APQC76J",
        "reactions": [
            {
                "name": "+1",
                "users": [
                    "UV2SC7ZE3"
                ],
                "count": 1
            }
        ]
    },
    {
        "client_msg_id": "495c5853-5bad-487b-9a27-95e26697139b",
        "type": "message",
        "text": "each project has a creator (called an owner)",
        "user": "U010566NJHG",
        "ts": "1585073219.180600",
        "team": "TUU48M0T1",
        "user_team": "TUU48M0T1",
        "source_team": "TUU48M0T1",
        "user_profile": {
            "avatar_hash": "103225790dbb",
            "image_72": "https:\/\/avatars.slack-edge.com\/2020-03-23\/1018037453952_103225790dbb62abe3e8_72.jpg",
            "first_name": "Avi",
            "real_name": "Avi Khalil",
            "display_name": "Avi",
            "team": "TUU48M0T1",
            "name": "kavb",
            "is_restricted": false,
            "is_ultra_restricted": false
        },
        "blocks": [
            {
                "type": "rich_text",
                "block_id": "SCfI",
                "elements": [
                    {
                        "type": "rich_text_section",
                        "elements": [
                            {
                                "type": "text",
                                "text": "each project has a creator (called an owner)"
                            }
                        ]
                    }
                ]
            }
        ],
        "thread_ts": "1585073154.179600",
        "parent_user_id": "U010APQC76J",
        "reactions": [
            {
                "name": "+1",
                "users": [
                    "U010APQC76J"
                ],
                "count": 1
            }
        ]
    },
    {
        "client_msg_id": "728851fa-ff9b-42dc-8f29-8e3af10f222a",
        "type": "message",
        "text": "Will share them as soon as I get them",
        "user": "U01019BQXM3",
        "ts": "1585073225.180900",
        "team": "TUU48M0T1",
        "user_team": "TUU48M0T1",
        "source_team": "TUU48M0T1",
        "user_profile": {
            "avatar_hash": "7e0f35d8cc55",
            "image_72": "https:\/\/avatars.slack-edge.com\/2020-03-15\/988667349730_7e0f35d8cc556cd89565_72.jpg",
            "first_name": "Marc",
            "real_name": "Marc Bokobza",
            "display_name": "Marc Bokobza",
            "team": "TUU48M0T1",
            "name": "marcbokobza1",
            "is_restricted": false,
            "is_ultra_restricted": false
        },
        "blocks": [
            {
                "type": "rich_text",
                "block_id": "UXg",
                "elements": [
                    {
                        "type": "rich_text_section",
                        "elements": [
                            {
                                "type": "text",
                                "text": "Will share them as soon as I get them"
                            }
                        ]
                    }
                ]
            }
        ],
        "thread_ts": "1585073154.179600",
        "parent_user_id": "U010APQC76J"
    },
    {
        "client_msg_id": "7afe13ba-e3dd-433f-b2b2-21eeedd01a14",
        "type": "message",
        "text": "For getting updates from projects, I was up for using three questions along the lines of 1.Progress since last time 2.Next steps 3.Obstacles faced\nShould allow us to get the info we need and help projects put their work in perspective",
        "user": "U010APQC76J",
        "ts": "1585073401.183100",
        "team": "TUU48M0T1",
        "user_team": "TUU48M0T1",
        "source_team": "TUU48M0T1",
        "user_profile": {
            "avatar_hash": "751a8e7a94a5",
            "image_72": "https:\/\/avatars.slack-edge.com\/2020-03-25\/1026091401893_751a8e7a94a519bfd1d7_72.jpg",
            "first_name": "Hans",
            "real_name": "Hans Pfalzgraf",
            "display_name": "Hans P",
            "team": "TUU48M0T1",
            "name": "h.pfalzgraf",
            "is_restricted": false,
            "is_ultra_restricted": false
        },
        "blocks": [
            {
                "type": "rich_text",
                "block_id": "xA0",
                "elements": [
                    {
                        "type": "rich_text_section",
                        "elements": [
                            {
                                "type": "text",
                                "text": "For getting updates from projects, I was up for using three questions along the lines of 1.Progress since last time 2.Next steps 3.Obstacles faced\nShould allow us to get the info we need and help projects put their work in perspective"
                            }
                        ]
                    }
                ]
            }
        ],
        "thread_ts": "1585073401.183100",
        "reply_count": 8,
        "reply_users_count": 6,
        "latest_reply": "1585150135.015600",
        "reply_users": [
            "UV2SC7ZE3",
            "UV76CQTB4",
            "UV0PCSG58",
            "UV9V03C8Y",
            "UV0QTJCMT",
            "U010APQC76J"
        ],
        "replies": [
            {
                "user": "UV2SC7ZE3",
                "ts": "1585073625.185000"
            },
            {
                "user": "UV76CQTB4",
                "ts": "1585073641.185500"
            },
            {
                "user": "UV0PCSG58",
                "ts": "1585074122.186100"
            },
            {
                "user": "UV0PCSG58",
                "ts": "1585074141.186300"
            },
            {
                "user": "UV9V03C8Y",
                "ts": "1585081804.187300"
            },
            {
                "user": "UV0QTJCMT",
                "ts": "1585085147.188900"
            },
            {
                "user": "UV9V03C8Y",
                "ts": "1585085617.189100"
            },
            {
                "user": "U010APQC76J",
                "ts": "1585150135.015600"
            }
        ],
        "subscribed": false,
        "reactions": [
            {
                "name": "+1",
                "users": [
                    "UV2SC7ZE3"
                ],
                "count": 1
            }
        ]
    },
    {
        "client_msg_id": "211eb4cf-ed78-465c-8bb2-22f3dae8cd97",
        "type": "message",
        "text": "Maybe be more explicit as to what \"last time\" means. I think any progress made since the last community call? So every wednesday?",
        "user": "UV2SC7ZE3",
        "ts": "1585073625.185000",
        "team": "TUU48M0T1",
        "user_team": "TUU48M0T1",
        "source_team": "TUU48M0T1",
        "user_profile": {
            "avatar_hash": "d28dd0d076e8",
            "image_72": "https:\/\/avatars.slack-edge.com\/2020-03-14\/987873094258_d28dd0d076e8fa9a8409_72.png",
            "first_name": "David",
            "real_name": "David Lu",
            "display_name": "David Lu",
            "team": "TUU48M0T1",
            "name": "ludavidyi",
            "is_restricted": false,
            "is_ultra_restricted": false
        },
        "blocks": [
            {
                "type": "rich_text",
                "block_id": "oNX",
                "elements": [
                    {
                        "type": "rich_text_section",
                        "elements": [
                            {
                                "type": "text",
                                "text": "Maybe be more explicit as to what \"last time\" means. I think any progress made since the last community call? So every wednesday?"
                            }
                        ]
                    }
                ]
            }
        ],
        "thread_ts": "1585073401.183100",
        "parent_user_id": "U010APQC76J"
    },
    {
        "client_msg_id": "3C948285-9778-4DFE-9F61-A7F84F845862",
        "type": "message",
        "text": "Maybe add a question if they’ve had any press since last update ",
        "user": "UV76CQTB4",
        "ts": "1585073641.185500",
        "team": "TUU48M0T1",
        "user_team": "TUU48M0T1",
        "source_team": "TUU48M0T1",
        "user_profile": {
            "avatar_hash": "07668a20a751",
            "image_72": "https:\/\/avatars.slack-edge.com\/2020-03-17\/993297059666_07668a20a751afe52104_72.png",
            "first_name": "",
            "real_name": "Julie Legault",
            "display_name": "Julie Legault",
            "team": "TUU48M0T1",
            "name": "julie",
            "is_restricted": false,
            "is_ultra_restricted": false
        },
        "blocks": [
            {
                "type": "rich_text",
                "block_id": "4FS3k",
                "elements": [
                    {
                        "type": "rich_text_section",
                        "elements": [
                            {
                                "type": "text",
                                "text": "Maybe add a question if they’ve had any press since last update "
                            }
                        ]
                    }
                ]
            }
        ],
        "thread_ts": "1585073401.183100",
        "parent_user_id": "U010APQC76J",
        "reactions": [
            {
                "name": "+1",
                "users": [
                    "UV2SC7ZE3"
                ],
                "count": 1
            }
        ]
    },
    {
        "client_msg_id": "b51fc556-6db9-4be0-811d-951f4c948205",
        "type": "message",
        "text": "Add a line for Needs? Or Wishlist?",
        "user": "UV0PCSG58",
        "ts": "1585074122.186100",
        "team": "TUU48M0T1",
        "user_team": "TUU48M0T1",
        "source_team": "TUU48M0T1",
        "user_profile": {
            "avatar_hash": "f39dcc98ce27",
            "image_72": "https:\/\/avatars.slack-edge.com\/2020-03-25\/1026668986768_f39dcc98ce2701046e27_72.jpg",
            "first_name": "",
            "real_name": "emilym",
            "display_name": "emilym",
            "team": "TUU48M0T1",
            "name": "emonosson",
            "is_restricted": false,
            "is_ultra_restricted": false
        },
        "blocks": [
            {
                "type": "rich_text",
                "block_id": "Wqgv",
                "elements": [
                    {
                        "type": "rich_text_section",
                        "elements": [
                            {
                                "type": "text",
                                "text": "Add a line for Needs? Or Wishlist?"
                            }
                        ]
                    }
                ]
            }
        ],
        "thread_ts": "1585073401.183100",
        "parent_user_id": "U010APQC76J"
    },
    {
        "client_msg_id": "55809b3a-b3e5-4bc2-be2e-8762678fced7",
        "type": "message",
        "text": "Oops say you have needs!",
        "user": "UV0PCSG58",
        "ts": "1585074141.186300",
        "team": "TUU48M0T1",
        "user_team": "TUU48M0T1",
        "source_team": "TUU48M0T1",
        "user_profile": {
            "avatar_hash": "f39dcc98ce27",
            "image_72": "https:\/\/avatars.slack-edge.com\/2020-03-25\/1026668986768_f39dcc98ce2701046e27_72.jpg",
            "first_name": "",
            "real_name": "emilym",
            "display_name": "emilym",
            "team": "TUU48M0T1",
            "name": "emonosson",
            "is_restricted": false,
            "is_ultra_restricted": false
        },
        "blocks": [
            {
                "type": "rich_text",
                "block_id": "HjhXe",
                "elements": [
                    {
                        "type": "rich_text_section",
                        "elements": [
                            {
                                "type": "text",
                                "text": "Oops say you have needs!"
                            }
                        ]
                    }
                ]
            }
        ],
        "thread_ts": "1585073401.183100",
        "parent_user_id": "U010APQC76J"
    },
    {
        "client_msg_id": "2b9da850-71ab-4779-a5ce-e6c04eb6026f",
        "type": "message",
        "text": "So never mind.",
        "user": "UV0PCSG58",
        "ts": "1585074148.186600",
        "team": "TUU48M0T1",
        "user_team": "TUU48M0T1",
        "source_team": "TUU48M0T1",
        "user_profile": {
            "avatar_hash": "f39dcc98ce27",
            "image_72": "https:\/\/avatars.slack-edge.com\/2020-03-25\/1026668986768_f39dcc98ce2701046e27_72.jpg",
            "first_name": "",
            "real_name": "emilym",
            "display_name": "emilym",
            "team": "TUU48M0T1",
            "name": "emonosson",
            "is_restricted": false,
            "is_ultra_restricted": false
        },
        "blocks": [
            {
                "type": "rich_text",
                "block_id": "H5nH",
                "elements": [
                    {
                        "type": "rich_text_section",
                        "elements": [
                            {
                                "type": "text",
                                "text": "So never mind."
                            }
                        ]
                    }
                ]
            }
        ]
    },
    {
        "client_msg_id": "c6445bf0-7cba-4eef-b63d-e6f20b32958c",
        "type": "message",
        "text": "Maybe also to reaffirm Goal. Just to make sure it hasn't changed.",
        "user": "UV0PCSG58",
        "ts": "1585074175.187000",
        "team": "TUU48M0T1",
        "user_team": "TUU48M0T1",
        "source_team": "TUU48M0T1",
        "user_profile": {
            "avatar_hash": "f39dcc98ce27",
            "image_72": "https:\/\/avatars.slack-edge.com\/2020-03-25\/1026668986768_f39dcc98ce2701046e27_72.jpg",
            "first_name": "",
            "real_name": "emilym",
            "display_name": "emilym",
            "team": "TUU48M0T1",
            "name": "emonosson",
            "is_restricted": false,
            "is_ultra_restricted": false
        },
        "blocks": [
            {
                "type": "rich_text",
                "block_id": "e1W",
                "elements": [
                    {
                        "type": "rich_text_section",
                        "elements": [
                            {
                                "type": "text",
                                "text": "Maybe also to reaffirm Goal. Just to make sure it hasn't changed."
                            }
                        ]
                    }
                ]
            }
        ]
    },
    {
        "client_msg_id": "bc8a3cf6-1909-47f1-9b4d-ec4c89b2d388",
        "type": "message",
        "text": "I know <@UV0QTJCMT> developed a form to ask these information, is it the same one you are talking about?",
        "user": "UV9V03C8Y",
        "ts": "1585081804.187300",
        "team": "TUU48M0T1",
        "user_team": "TUU48M0T1",
        "source_team": "TUU48M0T1",
        "user_profile": {
            "avatar_hash": "177697fb7b8f",
            "image_72": "https:\/\/avatars.slack-edge.com\/2020-03-12\/996126178096_177697fb7b8ffa57649c_72.jpg",
            "first_name": "Camille",
            "real_name": "Camille Masselot - JOGL Program coordinator",
            "display_name": "Camille Masselot - JOGL coordinator",
            "team": "TUU48M0T1",
            "name": "masselot.camille",
            "is_restricted": false,
            "is_ultra_restricted": false
        },
        "blocks": [
            {
                "type": "rich_text",
                "block_id": "T8Q3T",
                "elements": [
                    {
                        "type": "rich_text_section",
                        "elements": [
                            {
                                "type": "text",
                                "text": "I know "
                            },
                            {
                                "type": "user",
                                "user_id": "UV0QTJCMT"
                            },
                            {
                                "type": "text",
                                "text": " developed a form to ask these information, is it the same one you are talking about?"
                            }
                        ]
                    }
                ]
            }
        ],
        "thread_ts": "1585073401.183100",
        "parent_user_id": "U010APQC76J"
    },
    {
        "client_msg_id": "BDB79235-CA7F-40CC-AC1E-063BFB9F9DFE",
        "type": "message",
        "text": "<@UV9V03C8Y> it’s a bit different, they’re creating a list of questions to ask project leads about like updates on their progress. the form that i had initially created to figure out which projects we had did have a needs section though ",
        "user": "UV0QTJCMT",
        "ts": "1585085147.188900",
        "team": "TUU48M0T1",
        "user_team": "TUU48M0T1",
        "source_team": "TUU48M0T1",
        "user_profile": {
            "avatar_hash": "06a6ae8f69d1",
            "image_72": "https:\/\/avatars.slack-edge.com\/2020-04-13\/1060635499315_06a6ae8f69d18f1ad464_72.png",
            "first_name": "Katherine",
            "real_name": "Katherine Holo",
            "display_name": "Kat Holo - Co-Organizer of OpenCOVID19",
            "team": "TUU48M0T1",
            "name": "katherineh245",
            "is_restricted": false,
            "is_ultra_restricted": false
        },
        "blocks": [
            {
                "type": "rich_text",
                "block_id": "ADbee",
                "elements": [
                    {
                        "type": "rich_text_section",
                        "elements": [
                            {
                                "type": "user",
                                "user_id": "UV9V03C8Y"
                            },
                            {
                                "type": "text",
                                "text": " it’s a bit different, they’re creating a list of questions to ask project leads about like updates on their progress. the form that i had initially created to figure out which projects we had did have a needs section though "
                            }
                        ]
                    }
                ]
            }
        ],
        "thread_ts": "1585073401.183100",
        "parent_user_id": "U010APQC76J",
        "reactions": [
            {
                "name": "+1",
                "users": [
                    "U010APQC76J"
                ],
                "count": 1
            }
        ]
    },
    {
        "client_msg_id": "d3780022-16e3-4194-93ce-b5686c1c51c1",
        "type": "message",
        "text": "Oh ok <@UV0QTJCMT> I see which form you're talking about. <@UVCR5F11A> are you asking about team composition, organization? *Is there any chance you could share the form with the governance team?* I'm sure many people would be interested as they are working on trying to make it easier for projects to work and collaborate. By the way, <@U010HTBUHS9> and <@U01080CJ6P3> are working on a project management checklist to help projects. Maybe it would be worth it if they could have a look at your questionnaire as well.",
        "user": "UV9V03C8Y",
        "ts": "1585085617.189100",
        "team": "TUU48M0T1",
        "user_team": "TUU48M0T1",
        "source_team": "TUU48M0T1",
        "user_profile": {
            "avatar_hash": "177697fb7b8f",
            "image_72": "https:\/\/avatars.slack-edge.com\/2020-03-12\/996126178096_177697fb7b8ffa57649c_72.jpg",
            "first_name": "Camille",
            "real_name": "Camille Masselot - JOGL Program coordinator",
            "display_name": "Camille Masselot - JOGL coordinator",
            "team": "TUU48M0T1",
            "name": "masselot.camille",
            "is_restricted": false,
            "is_ultra_restricted": false
        },
        "blocks": [
            {
                "type": "rich_text",
                "block_id": "1KK",
                "elements": [
                    {
                        "type": "rich_text_section",
                        "elements": [
                            {
                                "type": "text",
                                "text": "Oh ok "
                            },
                            {
                                "type": "user",
                                "user_id": "UV0QTJCMT"
                            },
                            {
                                "type": "text",
                                "text": " I see which form you're talking about. "
                            },
                            {
                                "type": "user",
                                "user_id": "UVCR5F11A"
                            },
                            {
                                "type": "text",
                                "text": " are you asking about team composition, organization? "
                            },
                            {
                                "type": "text",
                                "text": "Is there any chance you could share the form with the governance team?",
                                "style": {
                                    "bold": true
                                }
                            },
                            {
                                "type": "text",
                                "text": " I'm sure many people would be interested as they are working on trying to make it easier for projects to work and collaborate. By the way, "
                            },
                            {
                                "type": "user",
                                "user_id": "U010HTBUHS9"
                            },
                            {
                                "type": "text",
                                "text": " and "
                            },
                            {
                                "type": "user",
                                "user_id": "U01080CJ6P3"
                            },
                            {
                                "type": "text",
                                "text": " are working on a project management checklist to help projects. Maybe it would be worth it if they could have a look at your questionnaire as well."
                            }
                        ]
                    }
                ]
            }
        ],
        "thread_ts": "1585073401.183100",
        "parent_user_id": "U010APQC76J"
    },
    {
        "type": "message",
        "text": "<@UV9V03C8Y> not sure if you still need them, but here's some of that info from your first message in a doc: <https:\/\/docs.google.com\/document\/d\/11X43qv4f9Bz4Kh7PvlnSTKcQ1lJBi11trEh4XqP28p4\/edit> (some of them are just links to other docs with written content)",
        "upload": false,
        "blocks": [
            {
                "type": "rich_text",
                "block_id": "dcHu",
                "elements": [
                    {
                        "type": "rich_text_section",
                        "elements": [
                            {
                                "type": "user",
                                "user_id": "UV9V03C8Y"
                            },
                            {
                                "type": "text",
                                "text": " not sure if you still need them, but here's some of that info from your first message in a doc: "
                            },
                            {
                                "type": "link",
                                "url": "https:\/\/docs.google.com\/document\/d\/11X43qv4f9Bz4Kh7PvlnSTKcQ1lJBi11trEh4XqP28p4\/edit"
                            },
                            {
                                "type": "text",
                                "text": " (some of them are just links to other docs with written content)"
                            }
                        ]
                    }
                ]
            }
        ],
        "user": "UV0QTJCMT",
        "ts": "1585110795.000200",
        "edited": {
            "user": "UV0QTJCMT",
            "ts": "1585110802.000000"
        },
        "client_msg_id": "e7557cc0-9609-454a-a9b8-3de73cd18900",
        "thread_ts": "1584984144.151500",
        "parent_user_id": "UV9V03C8Y"
    }
]