[
    {
        "client_msg_id": "050ce414-e807-43bd-a7fc-15634fd3b9b1",
        "type": "message",
        "text": "Great idea <@U01113Y1PLP>, thanks, I will try to add it to the right place!",
        "user": "U010APQC76J",
        "ts": "1586533465.449200",
        "team": "TUU48M0T1",
        "user_team": "TUU48M0T1",
        "source_team": "TUU48M0T1",
        "user_profile": {
            "avatar_hash": "751a8e7a94a5",
            "image_72": "https:\/\/avatars.slack-edge.com\/2020-03-25\/1026091401893_751a8e7a94a519bfd1d7_72.jpg",
            "first_name": "Hans",
            "real_name": "Hans Pfalzgraf",
            "display_name": "Hans P",
            "team": "TUU48M0T1",
            "name": "h.pfalzgraf",
            "is_restricted": false,
            "is_ultra_restricted": false
        },
        "blocks": [
            {
                "type": "rich_text",
                "block_id": "oZdT",
                "elements": [
                    {
                        "type": "rich_text_section",
                        "elements": [
                            {
                                "type": "text",
                                "text": "Great idea "
                            },
                            {
                                "type": "user",
                                "user_id": "U01113Y1PLP"
                            },
                            {
                                "type": "text",
                                "text": ", thanks, I will try to add it to the right place!"
                            }
                        ]
                    }
                ]
            }
        ],
        "thread_ts": "1586368300.418800",
        "parent_user_id": "U01113Y1PLP",
        "reactions": [
            {
                "name": "+1",
                "users": [
                    "U01113Y1PLP"
                ],
                "count": 1
            }
        ]
    },
    {
        "client_msg_id": "c0e341ef-dfc5-46cf-9df4-bdbb5cc937e3",
        "type": "message",
        "text": "Thanks for checking this <@UV2SC7ZE3>! It's probably worth getting a demo, but I have heard that using HootSuit isn't a game changer compared to doing things manually. I guess the main advantages are scheduling and obtaining data, which we can evaluate as worthwhile or not.",
        "user": "U010APQC76J",
        "ts": "1586533610.449400",
        "team": "TUU48M0T1",
        "user_team": "TUU48M0T1",
        "source_team": "TUU48M0T1",
        "user_profile": {
            "avatar_hash": "751a8e7a94a5",
            "image_72": "https:\/\/avatars.slack-edge.com\/2020-03-25\/1026091401893_751a8e7a94a519bfd1d7_72.jpg",
            "first_name": "Hans",
            "real_name": "Hans Pfalzgraf",
            "display_name": "Hans P",
            "team": "TUU48M0T1",
            "name": "h.pfalzgraf",
            "is_restricted": false,
            "is_ultra_restricted": false
        },
        "blocks": [
            {
                "type": "rich_text",
                "block_id": "p2XUi",
                "elements": [
                    {
                        "type": "rich_text_section",
                        "elements": [
                            {
                                "type": "text",
                                "text": "Thanks for checking this "
                            },
                            {
                                "type": "user",
                                "user_id": "UV2SC7ZE3"
                            },
                            {
                                "type": "text",
                                "text": "! It's probably worth getting a demo, but I have heard that using HootSuit isn't a game changer compared to doing things manually. I guess the main advantages are scheduling and obtaining data, which we can evaluate as worthwhile or not."
                            }
                        ]
                    }
                ]
            }
        ],
        "thread_ts": "1586378556.431800",
        "parent_user_id": "UV2SC7ZE3"
    },
    {
        "client_msg_id": "bade591e-cdd3-49f1-a2f6-b459d1a698e2",
        "type": "message",
        "text": "Who can make the meeting at 8 pm CET today? Can you react to his message with a :+1:? If we have less than 4 people, we could probably cancel today's meeting and update each other via slack.",
        "user": "UV2SC7ZE3",
        "ts": "1586534436.452400",
        "team": "TUU48M0T1",
        "user_team": "TUU48M0T1",
        "source_team": "TUU48M0T1",
        "user_profile": {
            "avatar_hash": "d28dd0d076e8",
            "image_72": "https:\/\/avatars.slack-edge.com\/2020-03-14\/987873094258_d28dd0d076e8fa9a8409_72.png",
            "first_name": "David",
            "real_name": "David Lu",
            "display_name": "David Lu",
            "team": "TUU48M0T1",
            "name": "ludavidyi",
            "is_restricted": false,
            "is_ultra_restricted": false
        },
        "blocks": [
            {
                "type": "rich_text",
                "block_id": "9X9Hs",
                "elements": [
                    {
                        "type": "rich_text_section",
                        "elements": [
                            {
                                "type": "text",
                                "text": "Who can make the meeting at 8 pm CET today? Can you react to his message with a "
                            },
                            {
                                "type": "emoji",
                                "name": "+1"
                            },
                            {
                                "type": "text",
                                "text": "? If we have less than 4 people, we could probably cancel today's meeting and update each other via slack."
                            }
                        ]
                    }
                ]
            }
        ],
        "thread_ts": "1586534436.452400",
        "reply_count": 5,
        "reply_users_count": 2,
        "latest_reply": "1586541753.456500",
        "reply_users": [
            "U011VF29MK2",
            "UV2SC7ZE3"
        ],
        "replies": [
            {
                "user": "U011VF29MK2",
                "ts": "1586539543.454100"
            },
            {
                "user": "UV2SC7ZE3",
                "ts": "1586539597.454300"
            },
            {
                "user": "U011VF29MK2",
                "ts": "1586541695.455700"
            },
            {
                "user": "UV2SC7ZE3",
                "ts": "1586541748.456300"
            },
            {
                "user": "UV2SC7ZE3",
                "ts": "1586541753.456500"
            }
        ],
        "subscribed": false,
        "reactions": [
            {
                "name": "+1",
                "users": [
                    "UV2SC7ZE3",
                    "U010Q3372P3"
                ],
                "count": 2
            }
        ]
    },
    {
        "client_msg_id": "d1fb4037-9a0f-4dd2-ad50-feffb51676ec",
        "type": "message",
        "text": "Kk. I'm going to request a demo.",
        "user": "UV2SC7ZE3",
        "ts": "1586534473.452600",
        "team": "TUU48M0T1",
        "user_team": "TUU48M0T1",
        "source_team": "TUU48M0T1",
        "user_profile": {
            "avatar_hash": "d28dd0d076e8",
            "image_72": "https:\/\/avatars.slack-edge.com\/2020-03-14\/987873094258_d28dd0d076e8fa9a8409_72.png",
            "first_name": "David",
            "real_name": "David Lu",
            "display_name": "David Lu",
            "team": "TUU48M0T1",
            "name": "ludavidyi",
            "is_restricted": false,
            "is_ultra_restricted": false
        },
        "blocks": [
            {
                "type": "rich_text",
                "block_id": "V92Sd",
                "elements": [
                    {
                        "type": "rich_text_section",
                        "elements": [
                            {
                                "type": "text",
                                "text": "Kk. I'm going to request a demo."
                            }
                        ]
                    }
                ]
            }
        ],
        "thread_ts": "1586378556.431800",
        "parent_user_id": "UV2SC7ZE3"
    },
    {
        "client_msg_id": "ac06fc33-acf5-40d4-bd86-b094fa6f0ab8",
        "type": "message",
        "text": "Hi David, Do you think we should cancel, not sure what's the agenda today...",
        "user": "U011VF29MK2",
        "ts": "1586539543.454100",
        "team": "TUU48M0T1",
        "user_team": "TUU48M0T1",
        "source_team": "TUU48M0T1",
        "user_profile": {
            "avatar_hash": "0ef0287e69f4",
            "image_72": "https:\/\/avatars.slack-edge.com\/2020-04-07\/1045707527815_0ef0287e69f4d3296eaf_72.jpg",
            "first_name": "Catherine",
            "real_name": "Catherine Coykendall",
            "display_name": "Catherine Coykendall - Marketing Consultant",
            "team": "TUU48M0T1",
            "name": "c.coyken1978",
            "is_restricted": false,
            "is_ultra_restricted": false
        },
        "blocks": [
            {
                "type": "rich_text",
                "block_id": "fKL",
                "elements": [
                    {
                        "type": "rich_text_section",
                        "elements": [
                            {
                                "type": "text",
                                "text": "Hi David, Do you think we should cancel, not sure what's the agenda today..."
                            }
                        ]
                    }
                ]
            }
        ],
        "thread_ts": "1586534436.452400",
        "parent_user_id": "UV2SC7ZE3"
    },
    {
        "client_msg_id": "d1da4af3-bcde-42eb-bb3c-f4bdb0ddf6fe",
        "type": "message",
        "text": "yes. I think so. I was planning to update people on the progress of hootsuite, but we can have that discussion on slack",
        "user": "UV2SC7ZE3",
        "ts": "1586539597.454300",
        "team": "TUU48M0T1",
        "user_team": "TUU48M0T1",
        "source_team": "TUU48M0T1",
        "user_profile": {
            "avatar_hash": "d28dd0d076e8",
            "image_72": "https:\/\/avatars.slack-edge.com\/2020-03-14\/987873094258_d28dd0d076e8fa9a8409_72.png",
            "first_name": "David",
            "real_name": "David Lu",
            "display_name": "David Lu",
            "team": "TUU48M0T1",
            "name": "ludavidyi",
            "is_restricted": false,
            "is_ultra_restricted": false
        },
        "blocks": [
            {
                "type": "rich_text",
                "block_id": "J4hLr",
                "elements": [
                    {
                        "type": "rich_text_section",
                        "elements": [
                            {
                                "type": "text",
                                "text": "yes. I think so. I was planning to update people on the progress of hootsuite, but we can have that discussion on slack"
                            }
                        ]
                    }
                ]
            }
        ],
        "thread_ts": "1586534436.452400",
        "parent_user_id": "UV2SC7ZE3"
    },
    {
        "client_msg_id": "eef1d850-3b73-4fb1-b965-e1b4ae04ef73",
        "type": "message",
        "text": "<@UV0QTJCMT> Hi Kat, I can locate a local media company, and see how much and ad buy would be.",
        "user": "U011VF29MK2",
        "ts": "1586539877.454500",
        "team": "TUU48M0T1",
        "user_team": "TUU48M0T1",
        "source_team": "TUU48M0T1",
        "user_profile": {
            "avatar_hash": "0ef0287e69f4",
            "image_72": "https:\/\/avatars.slack-edge.com\/2020-04-07\/1045707527815_0ef0287e69f4d3296eaf_72.jpg",
            "first_name": "Catherine",
            "real_name": "Catherine Coykendall",
            "display_name": "Catherine Coykendall - Marketing Consultant",
            "team": "TUU48M0T1",
            "name": "c.coyken1978",
            "is_restricted": false,
            "is_ultra_restricted": false
        },
        "blocks": [
            {
                "type": "rich_text",
                "block_id": "gwY",
                "elements": [
                    {
                        "type": "rich_text_section",
                        "elements": [
                            {
                                "type": "user",
                                "user_id": "UV0QTJCMT"
                            },
                            {
                                "type": "text",
                                "text": " Hi Kat, I can locate a local media company, and see how much and ad buy would be."
                            }
                        ]
                    }
                ]
            }
        ],
        "thread_ts": "1586378556.431800",
        "parent_user_id": "UV2SC7ZE3",
        "reactions": [
            {
                "name": "+1",
                "users": [
                    "UV0QTJCMT"
                ],
                "count": 1
            }
        ]
    },
    {
        "client_msg_id": "b7a54992-e628-499e-b413-1caa34d83b46",
        "type": "message",
        "text": "Hi David, Can we also ask HootSuite if the have a recommendation on who to work with for paid social media? This is can be costly but will be imperative to give our content visibility - I'm sure they have a wide range of agencies they partner with so let me know. Also if I can be a part of that conversation that would be great, I've worked with media vendors in the past.",
        "user": "U011VF29MK2",
        "ts": "1586540255.454800",
        "team": "TUU48M0T1",
        "user_team": "TUU48M0T1",
        "source_team": "TUU48M0T1",
        "user_profile": {
            "avatar_hash": "0ef0287e69f4",
            "image_72": "https:\/\/avatars.slack-edge.com\/2020-04-07\/1045707527815_0ef0287e69f4d3296eaf_72.jpg",
            "first_name": "Catherine",
            "real_name": "Catherine Coykendall",
            "display_name": "Catherine Coykendall - Marketing Consultant",
            "team": "TUU48M0T1",
            "name": "c.coyken1978",
            "is_restricted": false,
            "is_ultra_restricted": false
        },
        "blocks": [
            {
                "type": "rich_text",
                "block_id": "gPZM",
                "elements": [
                    {
                        "type": "rich_text_section",
                        "elements": [
                            {
                                "type": "text",
                                "text": "Hi David, Can we also ask HootSuite if the have a recommendation on who to work with for paid social media? This is can be costly but will be imperative to give our content visibility - I'm sure they have a wide range of agencies they partner with so let me know. Also if I can be a part of that conversation that would be great, I've worked with media vendors in the past."
                            }
                        ]
                    }
                ]
            }
        ],
        "thread_ts": "1586378556.431800",
        "parent_user_id": "UV2SC7ZE3"
    },
    {
        "client_msg_id": "db10b323-4564-4b23-8f5a-f582888a03f4",
        "type": "message",
        "text": "Ok, I'm going to hop on at 1:00 anyway - but if there's few of us I guess we can cancel...?",
        "user": "U011VF29MK2",
        "ts": "1586541148.455500",
        "team": "TUU48M0T1",
        "user_team": "TUU48M0T1",
        "source_team": "TUU48M0T1",
        "user_profile": {
            "avatar_hash": "0ef0287e69f4",
            "image_72": "https:\/\/avatars.slack-edge.com\/2020-04-07\/1045707527815_0ef0287e69f4d3296eaf_72.jpg",
            "first_name": "Catherine",
            "real_name": "Catherine Coykendall",
            "display_name": "Catherine Coykendall - Marketing Consultant",
            "team": "TUU48M0T1",
            "name": "c.coyken1978",
            "is_restricted": false,
            "is_ultra_restricted": false
        },
        "blocks": [
            {
                "type": "rich_text",
                "block_id": "G32p",
                "elements": [
                    {
                        "type": "rich_text_section",
                        "elements": [
                            {
                                "type": "text",
                                "text": "Ok, I'm going to hop on at 1:00 anyway - but if there's few of us I guess we can cancel...?"
                            }
                        ]
                    }
                ]
            }
        ]
    },
    {
        "client_msg_id": "68d5e6df-1b01-443a-a5df-302b34cdd40b",
        "type": "message",
        "text": "Hi David, Apologies, I thought the meeting link would be in the invite, it's not, do you know where I can locate?",
        "user": "U011VF29MK2",
        "ts": "1586541695.455700",
        "team": "TUU48M0T1",
        "user_team": "TUU48M0T1",
        "source_team": "TUU48M0T1",
        "user_profile": {
            "avatar_hash": "0ef0287e69f4",
            "image_72": "https:\/\/avatars.slack-edge.com\/2020-04-07\/1045707527815_0ef0287e69f4d3296eaf_72.jpg",
            "first_name": "Catherine",
            "real_name": "Catherine Coykendall",
            "display_name": "Catherine Coykendall - Marketing Consultant",
            "team": "TUU48M0T1",
            "name": "c.coyken1978",
            "is_restricted": false,
            "is_ultra_restricted": false
        },
        "blocks": [
            {
                "type": "rich_text",
                "block_id": "nX\/=U",
                "elements": [
                    {
                        "type": "rich_text_section",
                        "elements": [
                            {
                                "type": "text",
                                "text": "Hi David, Apologies, I thought the meeting link would be in the invite, it's not, do you know where I can locate?"
                            }
                        ]
                    }
                ]
            }
        ],
        "thread_ts": "1586534436.452400",
        "parent_user_id": "UV2SC7ZE3"
    },
    {
        "client_msg_id": "6dd47647-c27f-47b9-9b47-9b913fc16721",
        "type": "message",
        "text": "Is there a dial in or a call today <@UV2SC7ZE3>?",
        "user": "U010Q3372P3",
        "ts": "1586541707.456100",
        "team": "TUU48M0T1",
        "user_team": "TUU48M0T1",
        "source_team": "TUU48M0T1",
        "user_profile": {
            "avatar_hash": "95066184973b",
            "image_72": "https:\/\/avatars.slack-edge.com\/2020-03-30\/1036274198128_95066184973b1de50d1a_72.png",
            "first_name": "Kathryn",
            "real_name": "Kathryn Rowe",
            "display_name": "Kathryn Rowe",
            "team": "TUU48M0T1",
            "name": "kathryn.rowe",
            "is_restricted": false,
            "is_ultra_restricted": false
        },
        "blocks": [
            {
                "type": "rich_text",
                "block_id": "xQH9p",
                "elements": [
                    {
                        "type": "rich_text_section",
                        "elements": [
                            {
                                "type": "text",
                                "text": "Is there a dial in or a call today "
                            },
                            {
                                "type": "user",
                                "user_id": "UV2SC7ZE3"
                            },
                            {
                                "type": "text",
                                "text": "?"
                            }
                        ]
                    }
                ]
            }
        ]
    },
    {
        "client_msg_id": "5eda45c2-60d5-4a8d-ae46-308b5a6eab4e",
        "type": "message",
        "text": "ah sorry about that: here it is <https:\/\/zoom.us\/j\/7804345815>",
        "user": "UV2SC7ZE3",
        "ts": "1586541748.456300",
        "team": "TUU48M0T1",
        "user_team": "TUU48M0T1",
        "source_team": "TUU48M0T1",
        "user_profile": {
            "avatar_hash": "d28dd0d076e8",
            "image_72": "https:\/\/avatars.slack-edge.com\/2020-03-14\/987873094258_d28dd0d076e8fa9a8409_72.png",
            "first_name": "David",
            "real_name": "David Lu",
            "display_name": "David Lu",
            "team": "TUU48M0T1",
            "name": "ludavidyi",
            "is_restricted": false,
            "is_ultra_restricted": false
        },
        "blocks": [
            {
                "type": "rich_text",
                "block_id": "GSfPC",
                "elements": [
                    {
                        "type": "rich_text_section",
                        "elements": [
                            {
                                "type": "text",
                                "text": "ah sorry about that: here it is "
                            },
                            {
                                "type": "link",
                                "url": "https:\/\/zoom.us\/j\/7804345815"
                            }
                        ]
                    }
                ]
            }
        ],
        "thread_ts": "1586534436.452400",
        "parent_user_id": "UV2SC7ZE3"
    },
    {
        "client_msg_id": "ca603569-e5eb-4c9a-a123-a5457d4b702e",
        "type": "message",
        "text": "updated on google cal",
        "user": "UV2SC7ZE3",
        "ts": "1586541753.456500",
        "team": "TUU48M0T1",
        "user_team": "TUU48M0T1",
        "source_team": "TUU48M0T1",
        "user_profile": {
            "avatar_hash": "d28dd0d076e8",
            "image_72": "https:\/\/avatars.slack-edge.com\/2020-03-14\/987873094258_d28dd0d076e8fa9a8409_72.png",
            "first_name": "David",
            "real_name": "David Lu",
            "display_name": "David Lu",
            "team": "TUU48M0T1",
            "name": "ludavidyi",
            "is_restricted": false,
            "is_ultra_restricted": false
        },
        "blocks": [
            {
                "type": "rich_text",
                "block_id": "3DmEB",
                "elements": [
                    {
                        "type": "rich_text_section",
                        "elements": [
                            {
                                "type": "text",
                                "text": "updated on google cal"
                            }
                        ]
                    }
                ]
            }
        ],
        "thread_ts": "1586534436.452400",
        "parent_user_id": "UV2SC7ZE3"
    },
    {
        "client_msg_id": "6cbe14da-d218-44b6-9072-dcc51e580f4a",
        "type": "message",
        "text": "I think we will cancel. Too many people can't make it.",
        "user": "UV2SC7ZE3",
        "ts": "1586541827.457000",
        "team": "TUU48M0T1",
        "user_team": "TUU48M0T1",
        "source_team": "TUU48M0T1",
        "user_profile": {
            "avatar_hash": "d28dd0d076e8",
            "image_72": "https:\/\/avatars.slack-edge.com\/2020-03-14\/987873094258_d28dd0d076e8fa9a8409_72.png",
            "first_name": "David",
            "real_name": "David Lu",
            "display_name": "David Lu",
            "team": "TUU48M0T1",
            "name": "ludavidyi",
            "is_restricted": false,
            "is_ultra_restricted": false
        },
        "blocks": [
            {
                "type": "rich_text",
                "block_id": "9fvXr",
                "elements": [
                    {
                        "type": "rich_text_section",
                        "elements": [
                            {
                                "type": "text",
                                "text": "I think we will cancel. Too many people can't make it."
                            }
                        ]
                    }
                ]
            }
        ],
        "reactions": [
            {
                "name": "ok_hand",
                "users": [
                    "U010W4KTANM"
                ],
                "count": 1
            }
        ]
    },
    {
        "client_msg_id": "ea758a0d-7fad-4eb4-9411-ef681acf0d06",
        "type": "message",
        "text": "ok, thank you. I have another call at 1:30 CT (in 30 mins) but if anyone needs anything in the next 25 mins I am here",
        "user": "U010Q3372P3",
        "ts": "1586541884.458400",
        "team": "TUU48M0T1",
        "user_team": "TUU48M0T1",
        "source_team": "TUU48M0T1",
        "user_profile": {
            "avatar_hash": "95066184973b",
            "image_72": "https:\/\/avatars.slack-edge.com\/2020-03-30\/1036274198128_95066184973b1de50d1a_72.png",
            "first_name": "Kathryn",
            "real_name": "Kathryn Rowe",
            "display_name": "Kathryn Rowe",
            "team": "TUU48M0T1",
            "name": "kathryn.rowe",
            "is_restricted": false,
            "is_ultra_restricted": false
        },
        "blocks": [
            {
                "type": "rich_text",
                "block_id": "NK1",
                "elements": [
                    {
                        "type": "rich_text_section",
                        "elements": [
                            {
                                "type": "text",
                                "text": "ok, thank you. I have another call at 1:30 CT (in 30 mins) but if anyone needs anything in the next 25 mins I am here"
                            }
                        ]
                    }
                ]
            }
        ]
    },
    {
        "client_msg_id": "f38ec736-1032-45e1-8fd4-d378c5d5171b",
        "type": "message",
        "text": "Do you have anything important that you'd like to share? <@U010Q3372P3> and <@U011VF29MK2>? I think the discussion on social media strategy is significant enough that it should be it's own separate meeting...",
        "user": "UV2SC7ZE3",
        "ts": "1586541925.459400",
        "team": "TUU48M0T1",
        "user_team": "TUU48M0T1",
        "source_team": "TUU48M0T1",
        "user_profile": {
            "avatar_hash": "d28dd0d076e8",
            "image_72": "https:\/\/avatars.slack-edge.com\/2020-03-14\/987873094258_d28dd0d076e8fa9a8409_72.png",
            "first_name": "David",
            "real_name": "David Lu",
            "display_name": "David Lu",
            "team": "TUU48M0T1",
            "name": "ludavidyi",
            "is_restricted": false,
            "is_ultra_restricted": false
        },
        "blocks": [
            {
                "type": "rich_text",
                "block_id": "hhtt",
                "elements": [
                    {
                        "type": "rich_text_section",
                        "elements": [
                            {
                                "type": "text",
                                "text": "Do you have anything important that you'd like to share? "
                            },
                            {
                                "type": "user",
                                "user_id": "U010Q3372P3"
                            },
                            {
                                "type": "text",
                                "text": " and "
                            },
                            {
                                "type": "user",
                                "user_id": "U011VF29MK2"
                            },
                            {
                                "type": "text",
                                "text": "? I think the discussion on social media strategy is significant enough that it should be it's own separate meeting..."
                            }
                        ]
                    }
                ]
            }
        ]
    },
    {
        "client_msg_id": "c3d1d9ef-f68a-4042-9d75-b41a76fdf67e",
        "type": "message",
        "text": "I can cc you on the email thread",
        "user": "UV2SC7ZE3",
        "ts": "1586541962.460200",
        "team": "TUU48M0T1",
        "user_team": "TUU48M0T1",
        "source_team": "TUU48M0T1",
        "user_profile": {
            "avatar_hash": "d28dd0d076e8",
            "image_72": "https:\/\/avatars.slack-edge.com\/2020-03-14\/987873094258_d28dd0d076e8fa9a8409_72.png",
            "first_name": "David",
            "real_name": "David Lu",
            "display_name": "David Lu",
            "team": "TUU48M0T1",
            "name": "ludavidyi",
            "is_restricted": false,
            "is_ultra_restricted": false
        },
        "blocks": [
            {
                "type": "rich_text",
                "block_id": "Rx0Fr",
                "elements": [
                    {
                        "type": "rich_text_section",
                        "elements": [
                            {
                                "type": "text",
                                "text": "I can cc you on the email thread"
                            }
                        ]
                    }
                ]
            }
        ],
        "thread_ts": "1586378556.431800",
        "parent_user_id": "UV2SC7ZE3"
    },
    {
        "client_msg_id": "79c6b7f1-a2eb-46c7-8ad5-fab8dd224898",
        "type": "message",
        "text": "I agree, I figured that would be our biggest project for Comms coming up, and we should align on it together soon. I think <@U011VF29MK2> was looking at another person joining this week, and then I’d recommend starting that project.",
        "user": "U010Q3372P3",
        "ts": "1586542048.462800",
        "team": "TUU48M0T1",
        "user_team": "TUU48M0T1",
        "source_team": "TUU48M0T1",
        "user_profile": {
            "avatar_hash": "95066184973b",
            "image_72": "https:\/\/avatars.slack-edge.com\/2020-03-30\/1036274198128_95066184973b1de50d1a_72.png",
            "first_name": "Kathryn",
            "real_name": "Kathryn Rowe",
            "display_name": "Kathryn Rowe",
            "team": "TUU48M0T1",
            "name": "kathryn.rowe",
            "is_restricted": false,
            "is_ultra_restricted": false
        },
        "blocks": [
            {
                "type": "rich_text",
                "block_id": "8d=eO",
                "elements": [
                    {
                        "type": "rich_text_section",
                        "elements": [
                            {
                                "type": "text",
                                "text": "I agree, I figured that would be our biggest project for Comms coming up, and we should align on it together soon. I think "
                            },
                            {
                                "type": "user",
                                "user_id": "U011VF29MK2"
                            },
                            {
                                "type": "text",
                                "text": " was looking at another person joining this week, and then I’d recommend starting that project."
                            }
                        ]
                    }
                ]
            }
        ]
    },
    {
        "client_msg_id": "aaf9ce52-119e-4ad5-800c-ff11cb3f925e",
        "type": "message",
        "text": "I agree, <@U010Q3372P3> yesterday David and I talked branding and its importance for our social platforms, I shared a \"creative brief\" with him so he could get a sense of how brand strategy sets the foundation for all marcom - David I think maybe we can raise social for the Monday ambassador meeting?",
        "user": "U011VF29MK2",
        "ts": "1586542052.463000",
        "team": "TUU48M0T1",
        "user_team": "TUU48M0T1",
        "source_team": "TUU48M0T1",
        "user_profile": {
            "avatar_hash": "0ef0287e69f4",
            "image_72": "https:\/\/avatars.slack-edge.com\/2020-04-07\/1045707527815_0ef0287e69f4d3296eaf_72.jpg",
            "first_name": "Catherine",
            "real_name": "Catherine Coykendall",
            "display_name": "Catherine Coykendall - Marketing Consultant",
            "team": "TUU48M0T1",
            "name": "c.coyken1978",
            "is_restricted": false,
            "is_ultra_restricted": false
        },
        "blocks": [
            {
                "type": "rich_text",
                "block_id": "5bd",
                "elements": [
                    {
                        "type": "rich_text_section",
                        "elements": [
                            {
                                "type": "text",
                                "text": "I agree, "
                            },
                            {
                                "type": "user",
                                "user_id": "U010Q3372P3"
                            },
                            {
                                "type": "text",
                                "text": " yesterday David and I talked branding and its importance for our social platforms, I shared a \"creative brief\" with him so he could get a sense of how brand strategy sets the foundation for all marcom - David I think maybe we can raise social for the Monday ambassador meeting?"
                            }
                        ]
                    }
                ]
            }
        ]
    },
    {
        "client_msg_id": "f51454af-9ae5-4e11-8c26-309f44e6694a",
        "type": "message",
        "text": "Hi <@U010Q3372P3>, I am going to talk to my planner tonight, if she doesn't have the bandwidth I can do it :slightly_smiling_face: BTW happy friday to you both!!!",
        "user": "U011VF29MK2",
        "ts": "1586542103.463800",
        "team": "TUU48M0T1",
        "user_team": "TUU48M0T1",
        "source_team": "TUU48M0T1",
        "user_profile": {
            "avatar_hash": "0ef0287e69f4",
            "image_72": "https:\/\/avatars.slack-edge.com\/2020-04-07\/1045707527815_0ef0287e69f4d3296eaf_72.jpg",
            "first_name": "Catherine",
            "real_name": "Catherine Coykendall",
            "display_name": "Catherine Coykendall - Marketing Consultant",
            "team": "TUU48M0T1",
            "name": "c.coyken1978",
            "is_restricted": false,
            "is_ultra_restricted": false
        },
        "blocks": [
            {
                "type": "rich_text",
                "block_id": "K2Wp4",
                "elements": [
                    {
                        "type": "rich_text_section",
                        "elements": [
                            {
                                "type": "text",
                                "text": "Hi "
                            },
                            {
                                "type": "user",
                                "user_id": "U010Q3372P3"
                            },
                            {
                                "type": "text",
                                "text": ", I am going to talk to my planner tonight, if she doesn't have the bandwidth I can do it "
                            },
                            {
                                "type": "emoji",
                                "name": "slightly_smiling_face"
                            },
                            {
                                "type": "text",
                                "text": " BTW happy friday to you both!!!"
                            }
                        ]
                    }
                ]
            }
        ],
        "reactions": [
            {
                "name": "100",
                "users": [
                    "UV2SC7ZE3"
                ],
                "count": 1
            }
        ]
    },
    {
        "client_msg_id": "224bd59f-9daf-4d70-83e0-bc14fe002ed9",
        "type": "message",
        "text": "I think it should not be in the ambassador channel, but stay in the comms",
        "user": "U010Q3372P3",
        "ts": "1586542134.464200",
        "team": "TUU48M0T1",
        "user_team": "TUU48M0T1",
        "source_team": "TUU48M0T1",
        "user_profile": {
            "avatar_hash": "95066184973b",
            "image_72": "https:\/\/avatars.slack-edge.com\/2020-03-30\/1036274198128_95066184973b1de50d1a_72.png",
            "first_name": "Kathryn",
            "real_name": "Kathryn Rowe",
            "display_name": "Kathryn Rowe",
            "team": "TUU48M0T1",
            "name": "kathryn.rowe",
            "is_restricted": false,
            "is_ultra_restricted": false
        },
        "blocks": [
            {
                "type": "rich_text",
                "block_id": "bZLA",
                "elements": [
                    {
                        "type": "rich_text_section",
                        "elements": [
                            {
                                "type": "text",
                                "text": "I think it should not be in the ambassador channel, but stay in the comms"
                            }
                        ]
                    }
                ]
            }
        ],
        "reactions": [
            {
                "name": "+1",
                "users": [
                    "UV2SC7ZE3"
                ],
                "count": 1
            }
        ]
    },
    {
        "client_msg_id": "71a63b61-6100-4b04-b7c4-bc62f54e9384",
        "type": "message",
        "text": "Happy Friday, yes! I forget what day it is!",
        "user": "U010Q3372P3",
        "ts": "1586542153.464500",
        "team": "TUU48M0T1",
        "user_team": "TUU48M0T1",
        "source_team": "TUU48M0T1",
        "user_profile": {
            "avatar_hash": "95066184973b",
            "image_72": "https:\/\/avatars.slack-edge.com\/2020-03-30\/1036274198128_95066184973b1de50d1a_72.png",
            "first_name": "Kathryn",
            "real_name": "Kathryn Rowe",
            "display_name": "Kathryn Rowe",
            "team": "TUU48M0T1",
            "name": "kathryn.rowe",
            "is_restricted": false,
            "is_ultra_restricted": false
        },
        "blocks": [
            {
                "type": "rich_text",
                "block_id": "1G=kx",
                "elements": [
                    {
                        "type": "rich_text_section",
                        "elements": [
                            {
                                "type": "text",
                                "text": "Happy Friday, yes! I forget what day it is!"
                            }
                        ]
                    }
                ]
            }
        ]
    },
    {
        "client_msg_id": "c662b422-f439-4c12-821f-fcf1c81fe54b",
        "type": "message",
        "text": "Yeah^ I think the ambassadors meeting is going to be something else. Won't be enough time...We can dedicate the Tuesday comms meeting solely on this topic and maybe rope in <@UV02WET96> , <@UV0QTJCMT>, <@UV9V03C8Y> and others if they can join",
        "user": "UV2SC7ZE3",
        "ts": "1586542254.465700",
        "team": "TUU48M0T1",
        "user_team": "TUU48M0T1",
        "source_team": "TUU48M0T1",
        "user_profile": {
            "avatar_hash": "d28dd0d076e8",
            "image_72": "https:\/\/avatars.slack-edge.com\/2020-03-14\/987873094258_d28dd0d076e8fa9a8409_72.png",
            "first_name": "David",
            "real_name": "David Lu",
            "display_name": "David Lu",
            "team": "TUU48M0T1",
            "name": "ludavidyi",
            "is_restricted": false,
            "is_ultra_restricted": false
        },
        "blocks": [
            {
                "type": "rich_text",
                "block_id": "lIeI",
                "elements": [
                    {
                        "type": "rich_text_section",
                        "elements": [
                            {
                                "type": "text",
                                "text": "Yeah^ I think the ambassadors meeting is going to be something else. Won't be enough time...We can dedicate the Tuesday comms meeting solely on this topic and maybe rope in "
                            },
                            {
                                "type": "user",
                                "user_id": "UV02WET96"
                            },
                            {
                                "type": "text",
                                "text": " , "
                            },
                            {
                                "type": "user",
                                "user_id": "UV0QTJCMT"
                            },
                            {
                                "type": "text",
                                "text": ", "
                            },
                            {
                                "type": "user",
                                "user_id": "UV9V03C8Y"
                            },
                            {
                                "type": "text",
                                "text": " and others if they can join"
                            }
                        ]
                    }
                ]
            }
        ],
        "thread_ts": "1586542254.465700",
        "reply_count": 1,
        "reply_users_count": 1,
        "latest_reply": "1586554367.474900",
        "reply_users": [
            "U0103LPAWQ4"
        ],
        "replies": [
            {
                "user": "U0103LPAWQ4",
                "ts": "1586554367.474900"
            }
        ],
        "subscribed": false,
        "reactions": [
            {
                "name": "+1::skin-tone-4",
                "users": [
                    "U0103LPAWQ4"
                ],
                "count": 1
            }
        ]
    },
    {
        "client_msg_id": "4a944299-3e72-489f-a734-e2d8e1fbeedb",
        "type": "message",
        "text": "Agree with you <@UV2SC7ZE3>, I guess validation from Ambassadors should be done, but its elaboration remains in the strategy-comm' area. So happy to join the conversation (if necessary, not sure about that) with <@UV02WET96><@UV0QTJCMT>, and once there is a concrete plan\/vision we can ask the ambassadors to look at it, because it has to represent their vision as well :slightly_smiling_face: !",
        "user": "UV9V03C8Y",
        "ts": "1586542509.470000",
        "team": "TUU48M0T1",
        "user_team": "TUU48M0T1",
        "source_team": "TUU48M0T1",
        "user_profile": {
            "avatar_hash": "177697fb7b8f",
            "image_72": "https:\/\/avatars.slack-edge.com\/2020-03-12\/996126178096_177697fb7b8ffa57649c_72.jpg",
            "first_name": "Camille",
            "real_name": "Camille Masselot - JOGL Program coordinator",
            "display_name": "Camille Masselot - JOGL coordinator",
            "team": "TUU48M0T1",
            "name": "masselot.camille",
            "is_restricted": false,
            "is_ultra_restricted": false
        },
        "blocks": [
            {
                "type": "rich_text",
                "block_id": "1tJR",
                "elements": [
                    {
                        "type": "rich_text_section",
                        "elements": [
                            {
                                "type": "text",
                                "text": "Agree with you "
                            },
                            {
                                "type": "user",
                                "user_id": "UV2SC7ZE3"
                            },
                            {
                                "type": "text",
                                "text": ", I guess validation from Ambassadors should be done, but its elaboration remains in the strategy-comm' area. So happy to join the conversation (if necessary, not sure about that) with "
                            },
                            {
                                "type": "user",
                                "user_id": "UV02WET96"
                            },
                            {
                                "type": "user",
                                "user_id": "UV0QTJCMT"
                            },
                            {
                                "type": "text",
                                "text": ", and once there is a concrete plan\/vision we can ask the ambassadors to look at it, because it has to represent their vision as well "
                            },
                            {
                                "type": "emoji",
                                "name": "slightly_smiling_face"
                            },
                            {
                                "type": "text",
                                "text": " !"
                            }
                        ]
                    }
                ]
            }
        ]
    },
    {
        "client_msg_id": "9d2ce2b8-fedb-4912-b4c9-6c5bf11a13ab",
        "type": "message",
        "text": "Hi David, yes and thank you - also <@UV9V03C8Y> I would like to put together a short presentation about the importance of branding and why\/how we should utilize it to direct all offline and online Covid marcom - I think this would make things more tangible for everyone, before moving forward with conversations to the Ambassadors.",
        "user": "U011VF29MK2",
        "ts": "1586542769.473400",
        "team": "TUU48M0T1",
        "user_team": "TUU48M0T1",
        "source_team": "TUU48M0T1",
        "user_profile": {
            "avatar_hash": "0ef0287e69f4",
            "image_72": "https:\/\/avatars.slack-edge.com\/2020-04-07\/1045707527815_0ef0287e69f4d3296eaf_72.jpg",
            "first_name": "Catherine",
            "real_name": "Catherine Coykendall",
            "display_name": "Catherine Coykendall - Marketing Consultant",
            "team": "TUU48M0T1",
            "name": "c.coyken1978",
            "is_restricted": false,
            "is_ultra_restricted": false
        },
        "blocks": [
            {
                "type": "rich_text",
                "block_id": "nYx2q",
                "elements": [
                    {
                        "type": "rich_text_section",
                        "elements": [
                            {
                                "type": "text",
                                "text": "Hi David, yes and thank you - also "
                            },
                            {
                                "type": "user",
                                "user_id": "UV9V03C8Y"
                            },
                            {
                                "type": "text",
                                "text": " I would like to put together a short presentation about the importance of branding and why\/how we should utilize it to direct all offline and online Covid marcom - I think this would make things more tangible for everyone, before moving forward with conversations to the Ambassadors."
                            }
                        ]
                    }
                ]
            }
        ],
        "thread_ts": "1586542769.473400",
        "reply_count": 9,
        "reply_users_count": 3,
        "latest_reply": "1586809206.498700",
        "reply_users": [
            "UV9V03C8Y",
            "U01072UT127",
            "U011VF29MK2"
        ],
        "replies": [
            {
                "user": "UV9V03C8Y",
                "ts": "1586543759.474200"
            },
            {
                "user": "U01072UT127",
                "ts": "1586626150.476900"
            },
            {
                "user": "U011VF29MK2",
                "ts": "1586792604.485700"
            },
            {
                "user": "U011VF29MK2",
                "ts": "1586792680.485900"
            },
            {
                "user": "UV9V03C8Y",
                "ts": "1586793189.486100"
            },
            {
                "user": "U011VF29MK2",
                "ts": "1586794143.486300"
            },
            {
                "user": "U01072UT127",
                "ts": "1586807546.497000"
            },
            {
                "user": "UV9V03C8Y",
                "ts": "1586809044.498500"
            },
            {
                "user": "U011VF29MK2",
                "ts": "1586809206.498700"
            }
        ],
        "subscribed": false,
        "reactions": [
            {
                "name": "+1",
                "users": [
                    "UV2SC7ZE3",
                    "UV9V03C8Y",
                    "UV02WET96"
                ],
                "count": 3
            }
        ]
    },
    {
        "client_msg_id": "e617d731-90d2-48d3-9b44-91b8d5985294",
        "type": "message",
        "text": "Let me add I'll plan to have this ready for Monday's call if that works for everyone?",
        "user": "U011VF29MK2",
        "ts": "1586543179.474100",
        "team": "TUU48M0T1",
        "user_team": "TUU48M0T1",
        "source_team": "TUU48M0T1",
        "user_profile": {
            "avatar_hash": "0ef0287e69f4",
            "image_72": "https:\/\/avatars.slack-edge.com\/2020-04-07\/1045707527815_0ef0287e69f4d3296eaf_72.jpg",
            "first_name": "Catherine",
            "real_name": "Catherine Coykendall",
            "display_name": "Catherine Coykendall - Marketing Consultant",
            "team": "TUU48M0T1",
            "name": "c.coyken1978",
            "is_restricted": false,
            "is_ultra_restricted": false
        },
        "blocks": [
            {
                "type": "rich_text",
                "block_id": "+y2i",
                "elements": [
                    {
                        "type": "rich_text_section",
                        "elements": [
                            {
                                "type": "text",
                                "text": "Let me add I'll plan to have this ready for Monday's call if that works for everyone?"
                            }
                        ]
                    }
                ]
            }
        ],
        "thread_ts": "1586543179.474100",
        "reply_count": 2,
        "reply_users_count": 2,
        "latest_reply": "1586792578.485500",
        "reply_users": [
            "UV9V03C8Y",
            "U011VF29MK2"
        ],
        "replies": [
            {
                "user": "UV9V03C8Y",
                "ts": "1586543880.474400"
            },
            {
                "user": "U011VF29MK2",
                "ts": "1586792578.485500"
            }
        ],
        "subscribed": false
    },
    {
        "client_msg_id": "b3ffb6f2-0979-4ebf-a689-1235d1c811f4",
        "type": "message",
        "text": "That would be great!",
        "user": "UV9V03C8Y",
        "ts": "1586543759.474200",
        "team": "TUU48M0T1",
        "user_team": "TUU48M0T1",
        "source_team": "TUU48M0T1",
        "user_profile": {
            "avatar_hash": "177697fb7b8f",
            "image_72": "https:\/\/avatars.slack-edge.com\/2020-03-12\/996126178096_177697fb7b8ffa57649c_72.jpg",
            "first_name": "Camille",
            "real_name": "Camille Masselot - JOGL Program coordinator",
            "display_name": "Camille Masselot - JOGL coordinator",
            "team": "TUU48M0T1",
            "name": "masselot.camille",
            "is_restricted": false,
            "is_ultra_restricted": false
        },
        "blocks": [
            {
                "type": "rich_text",
                "block_id": "jAs5",
                "elements": [
                    {
                        "type": "rich_text_section",
                        "elements": [
                            {
                                "type": "text",
                                "text": "That would be great!"
                            }
                        ]
                    }
                ]
            }
        ],
        "thread_ts": "1586542769.473400",
        "parent_user_id": "U011VF29MK2"
    },
    {
        "client_msg_id": "e1fb5b48-2900-4954-b4e3-2fe889e009fe",
        "type": "message",
        "text": "The agenda for the Ambassador's meeting hasn't been elaborated yet. Let's see which are the emergencies and priorities. Also, I think it would be wise that <@UV2SC7ZE3> and other people implicated in this process, as well as <@UV02WET96> and <@U010Q3372P3> have time to revise it before it is presented to anyone. Just to make sure everybody's visions are aligned.",
        "user": "UV9V03C8Y",
        "ts": "1586543880.474400",
        "team": "TUU48M0T1",
        "user_team": "TUU48M0T1",
        "source_team": "TUU48M0T1",
        "user_profile": {
            "avatar_hash": "177697fb7b8f",
            "image_72": "https:\/\/avatars.slack-edge.com\/2020-03-12\/996126178096_177697fb7b8ffa57649c_72.jpg",
            "first_name": "Camille",
            "real_name": "Camille Masselot - JOGL Program coordinator",
            "display_name": "Camille Masselot - JOGL coordinator",
            "team": "TUU48M0T1",
            "name": "masselot.camille",
            "is_restricted": false,
            "is_ultra_restricted": false
        },
        "blocks": [
            {
                "type": "rich_text",
                "block_id": "t2S",
                "elements": [
                    {
                        "type": "rich_text_section",
                        "elements": [
                            {
                                "type": "text",
                                "text": "The agenda for the Ambassador's meeting hasn't been elaborated yet. Let's see which are the emergencies and priorities. Also, I think it would be wise that "
                            },
                            {
                                "type": "user",
                                "user_id": "UV2SC7ZE3"
                            },
                            {
                                "type": "text",
                                "text": " and other people implicated in this process, as well as "
                            },
                            {
                                "type": "user",
                                "user_id": "UV02WET96"
                            },
                            {
                                "type": "text",
                                "text": " and "
                            },
                            {
                                "type": "user",
                                "user_id": "U010Q3372P3"
                            },
                            {
                                "type": "text",
                                "text": " have time to revise it before it is presented to anyone. Just to make sure everybody's visions are aligned."
                            }
                        ]
                    }
                ]
            }
        ],
        "thread_ts": "1586543179.474100",
        "parent_user_id": "U011VF29MK2"
    },
    {
        "client_msg_id": "eab56b8f-40f9-4feb-a2fe-5dcc40ffaa6c",
        "type": "message",
        "text": "I can come on Tuesday, but I think at this point I would mainly just be able to help out with vetting posts once people start to submit and creating a few things (video\/posts) as\/when needed. I think the Catherines have the strategy part handled, and I'm happy to learn from them. After next week, I'd probably only attend the Friday comms meeting.",
        "user": "U0103LPAWQ4",
        "ts": "1586554367.474900",
        "team": "TUU48M0T1",
        "user_team": "TUU48M0T1",
        "source_team": "TUU48M0T1",
        "user_profile": {
            "avatar_hash": "7b345029e813",
            "image_72": "https:\/\/avatars.slack-edge.com\/2020-03-17\/1004213082549_7b345029e8137cbdc6b0_72.jpg",
            "first_name": "Bre",
            "real_name": "Bre",
            "display_name": "Bre",
            "team": "TUU48M0T1",
            "name": "info",
            "is_restricted": false,
            "is_ultra_restricted": false
        },
        "edited": {
            "user": "U0103LPAWQ4",
            "ts": "1586554385.000000"
        },
        "blocks": [
            {
                "type": "rich_text",
                "block_id": "8OUV",
                "elements": [
                    {
                        "type": "rich_text_section",
                        "elements": [
                            {
                                "type": "text",
                                "text": "I can come on Tuesday, but I think at this point I would mainly just be able to help out with vetting posts once people start to submit and creating a few things (video\/posts) as\/when needed. I think the Catherines have the strategy part handled, and I'm happy to learn from them. After next week, I'd probably only attend the Friday comms meeting."
                            }
                        ]
                    }
                ]
            }
        ],
        "thread_ts": "1586542254.465700",
        "parent_user_id": "UV2SC7ZE3",
        "reactions": [
            {
                "name": "+1",
                "users": [
                    "UV2SC7ZE3"
                ],
                "count": 1
            }
        ]
    }
]