[
    {
        "client_msg_id": "4eba339e-8c30-41f7-a164-de364432626e",
        "type": "message",
        "text": "I think the Google Slides look great! Nice work, <@UV76CQTB4>, and  thanks <@UV2SC7ZE3> !",
        "user": "U011B6VLM2A",
        "ts": "1586076119.290100",
        "team": "TUU48M0T1",
        "user_team": "TUU48M0T1",
        "source_team": "TUU48M0T1",
        "user_profile": {
            "avatar_hash": "4231dc598cfc",
            "image_72": "https:\/\/avatars.slack-edge.com\/2020-04-02\/1044784558839_4231dc598cfc2e59c4c4_72.jpg",
            "first_name": "Alix",
            "real_name": "Alix Mains",
            "display_name": "Alix Mains - JOGL Coordinator",
            "team": "TUU48M0T1",
            "name": "alixhmains",
            "is_restricted": false,
            "is_ultra_restricted": false
        },
        "blocks": [
            {
                "type": "rich_text",
                "block_id": "6dK",
                "elements": [
                    {
                        "type": "rich_text_section",
                        "elements": [
                            {
                                "type": "text",
                                "text": "I think the Google Slides look great! Nice work, "
                            },
                            {
                                "type": "user",
                                "user_id": "UV76CQTB4"
                            },
                            {
                                "type": "text",
                                "text": ", and  thanks "
                            },
                            {
                                "type": "user",
                                "user_id": "UV2SC7ZE3"
                            },
                            {
                                "type": "text",
                                "text": " !"
                            }
                        ]
                    }
                ]
            }
        ],
        "thread_ts": "1585842641.219300",
        "parent_user_id": "U010APQC76J"
    },
    {
        "client_msg_id": "5f84414b-1863-4f21-9a89-3685d8f5870f",
        "type": "message",
        "text": "<@UV9V03C8Y> -- when is the ambassador meeting? Or did I miss it already? I don't see it in the shared Google calendar...",
        "user": "U011B6VLM2A",
        "ts": "1586076142.290300",
        "team": "TUU48M0T1",
        "user_team": "TUU48M0T1",
        "source_team": "TUU48M0T1",
        "user_profile": {
            "avatar_hash": "4231dc598cfc",
            "image_72": "https:\/\/avatars.slack-edge.com\/2020-04-02\/1044784558839_4231dc598cfc2e59c4c4_72.jpg",
            "first_name": "Alix",
            "real_name": "Alix Mains",
            "display_name": "Alix Mains - JOGL Coordinator",
            "team": "TUU48M0T1",
            "name": "alixhmains",
            "is_restricted": false,
            "is_ultra_restricted": false
        },
        "blocks": [
            {
                "type": "rich_text",
                "block_id": "x7A2",
                "elements": [
                    {
                        "type": "rich_text_section",
                        "elements": [
                            {
                                "type": "user",
                                "user_id": "UV9V03C8Y"
                            },
                            {
                                "type": "text",
                                "text": " -- when is the ambassador meeting? Or did I miss it already? I don't see it in the shared Google calendar..."
                            }
                        ]
                    }
                ]
            }
        ],
        "thread_ts": "1585842641.219300",
        "parent_user_id": "U010APQC76J"
    },
    {
        "client_msg_id": "5a7dba57-28cf-4909-aea6-af042869541a",
        "type": "message",
        "text": "<@U01019BQXM3> <@UVC9WMA7N> <@U010APQC76J> <@UV2SC7ZE3> <@U0103LPAWQ4> <@UV76CQTB4> do we want to grant me access to all the social channels so that I can use my Hootsuite account to manage the posts? I can look at my account to see if I can also assign additional admins, I have a few clients I work with using my account so I’m not sure if I have that option, but I’ll check into it. I think should continue awareness messaging for a few more posts, and then set up a content calendar to help get the messaging out for Prevent, Detect, and Treat. I think Prevent messaging is great content to start with, especially if the landscape is changing there (for example, CDC is now asking for everyone to wear some kind of face cover in public).",
        "user": "U010Q3372P3",
        "ts": "1586101722.296000",
        "team": "TUU48M0T1",
        "user_team": "TUU48M0T1",
        "source_team": "TUU48M0T1",
        "user_profile": {
            "avatar_hash": "95066184973b",
            "image_72": "https:\/\/avatars.slack-edge.com\/2020-03-30\/1036274198128_95066184973b1de50d1a_72.png",
            "first_name": "Kathryn",
            "real_name": "Kathryn Rowe",
            "display_name": "Kathryn Rowe",
            "team": "TUU48M0T1",
            "name": "kathryn.rowe",
            "is_restricted": false,
            "is_ultra_restricted": false
        },
        "blocks": [
            {
                "type": "rich_text",
                "block_id": "6u6Go",
                "elements": [
                    {
                        "type": "rich_text_section",
                        "elements": [
                            {
                                "type": "user",
                                "user_id": "U01019BQXM3"
                            },
                            {
                                "type": "text",
                                "text": " "
                            },
                            {
                                "type": "user",
                                "user_id": "UVC9WMA7N"
                            },
                            {
                                "type": "text",
                                "text": " "
                            },
                            {
                                "type": "user",
                                "user_id": "U010APQC76J"
                            },
                            {
                                "type": "text",
                                "text": " "
                            },
                            {
                                "type": "user",
                                "user_id": "UV2SC7ZE3"
                            },
                            {
                                "type": "text",
                                "text": " "
                            },
                            {
                                "type": "user",
                                "user_id": "U0103LPAWQ4"
                            },
                            {
                                "type": "text",
                                "text": " "
                            },
                            {
                                "type": "user",
                                "user_id": "UV76CQTB4"
                            },
                            {
                                "type": "text",
                                "text": " do we want to grant me access to all the social channels so that I can use my Hootsuite account to manage the posts? I can look at my account to see if I can also assign additional admins, I have a few clients I work with using my account so I’m not sure if I have that option, but I’ll check into it. I think should continue awareness messaging for a few more posts, and then set up a content calendar to help get the messaging out for Prevent, Detect, and Treat. I think Prevent messaging is great content to start with, especially if the landscape is changing there (for example, CDC is now asking for everyone to wear some kind of face cover in public)."
                            }
                        ]
                    }
                ]
            }
        ],
        "thread_ts": "1586101722.296000",
        "reply_count": 3,
        "reply_users_count": 3,
        "latest_reply": "1586124121.298100",
        "reply_users": [
            "UV2SC7ZE3",
            "UV0QTJCMT",
            "U0103LPAWQ4"
        ],
        "replies": [
            {
                "user": "UV2SC7ZE3",
                "ts": "1586101902.296100"
            },
            {
                "user": "UV0QTJCMT",
                "ts": "1586106976.297600"
            },
            {
                "user": "U0103LPAWQ4",
                "ts": "1586124121.298100"
            }
        ],
        "subscribed": false,
        "reactions": [
            {
                "name": "+1::skin-tone-4",
                "users": [
                    "U0103LPAWQ4",
                    "UV76CQTB4"
                ],
                "count": 2
            }
        ]
    },
    {
        "client_msg_id": "0d8b0e18-1fa4-448d-ade5-8ac6ad8d8a34",
        "type": "message",
        "text": "Yes. I think it's a good idea to use HootSuite.",
        "user": "UV2SC7ZE3",
        "ts": "1586101902.296100",
        "team": "TUU48M0T1",
        "user_team": "TUU48M0T1",
        "source_team": "TUU48M0T1",
        "user_profile": {
            "avatar_hash": "d28dd0d076e8",
            "image_72": "https:\/\/avatars.slack-edge.com\/2020-03-14\/987873094258_d28dd0d076e8fa9a8409_72.png",
            "first_name": "David",
            "real_name": "David Lu",
            "display_name": "David Lu",
            "team": "TUU48M0T1",
            "name": "ludavidyi",
            "is_restricted": false,
            "is_ultra_restricted": false
        },
        "edited": {
            "user": "UV2SC7ZE3",
            "ts": "1586101910.000000"
        },
        "blocks": [
            {
                "type": "rich_text",
                "block_id": "li8",
                "elements": [
                    {
                        "type": "rich_text_section",
                        "elements": [
                            {
                                "type": "text",
                                "text": "Yes. I think it's a good idea to use HootSuite."
                            }
                        ]
                    }
                ]
            }
        ],
        "thread_ts": "1586101722.296000",
        "parent_user_id": "U010Q3372P3"
    },
    {
        "client_msg_id": "94732C06-E4E7-4281-8A3E-5D50B338E705",
        "type": "message",
        "text": "jumping in—it sounds great but if you’re not able to assign an additional admin it may be worth reaching out to them and seeing if they can give us a free trial or whatnot ",
        "user": "UV0QTJCMT",
        "ts": "1586106976.297600",
        "team": "TUU48M0T1",
        "user_team": "TUU48M0T1",
        "source_team": "TUU48M0T1",
        "user_profile": {
            "avatar_hash": "06a6ae8f69d1",
            "image_72": "https:\/\/avatars.slack-edge.com\/2020-04-13\/1060635499315_06a6ae8f69d18f1ad464_72.png",
            "first_name": "Katherine",
            "real_name": "Katherine Holo",
            "display_name": "Kat Holo - Co-Organizer of OpenCOVID19",
            "team": "TUU48M0T1",
            "name": "katherineh245",
            "is_restricted": false,
            "is_ultra_restricted": false
        },
        "blocks": [
            {
                "type": "rich_text",
                "block_id": "E57",
                "elements": [
                    {
                        "type": "rich_text_section",
                        "elements": [
                            {
                                "type": "text",
                                "text": "jumping in—it sounds great but if you’re not able to assign an additional admin it may be worth reaching out to them and seeing if they can give us a free trial or whatnot "
                            }
                        ]
                    }
                ]
            }
        ],
        "thread_ts": "1586101722.296000",
        "parent_user_id": "U010Q3372P3"
    },
    {
        "client_msg_id": "609d8eb5-b9cd-4b4c-aea0-7b2020c30a9e",
        "type": "message",
        "text": "I think posting from something like Hootsuite is a great idea. Thanks for offering to share.",
        "user": "U0103LPAWQ4",
        "ts": "1586124121.298100",
        "team": "TUU48M0T1",
        "user_team": "TUU48M0T1",
        "source_team": "TUU48M0T1",
        "user_profile": {
            "avatar_hash": "7b345029e813",
            "image_72": "https:\/\/avatars.slack-edge.com\/2020-03-17\/1004213082549_7b345029e8137cbdc6b0_72.jpg",
            "first_name": "Bre",
            "real_name": "Bre",
            "display_name": "Bre",
            "team": "TUU48M0T1",
            "name": "info",
            "is_restricted": false,
            "is_ultra_restricted": false
        },
        "blocks": [
            {
                "type": "rich_text",
                "block_id": "tMw5",
                "elements": [
                    {
                        "type": "rich_text_section",
                        "elements": [
                            {
                                "type": "text",
                                "text": "I think posting from something like Hootsuite is a great idea. Thanks for offering to share."
                            }
                        ]
                    }
                ]
            }
        ],
        "thread_ts": "1586101722.296000",
        "parent_user_id": "U010Q3372P3"
    },
    {
        "type": "message",
        "text": "just a heads-up that i added the social media links to the program page, thanks everyone for all the work with getting these pages up and running!",
        "files": [
            {
                "id": "F011M3Y7QBS",
                "created": 1586132879,
                "timestamp": 1586132879,
                "name": "image.png",
                "title": "image.png",
                "mimetype": "image\/png",
                "filetype": "png",
                "pretty_type": "PNG",
                "user": "UV0QTJCMT",
                "editable": false,
                "size": 89962,
                "mode": "hosted",
                "is_external": false,
                "external_type": "",
                "is_public": true,
                "public_url_shared": false,
                "display_as_bot": false,
                "username": "",
                "url_private": "https:\/\/files.slack.com\/files-pri\/TUU48M0T1-F011M3Y7QBS\/image.png?t=xoxe-980144714919-1106606678066-1105227127893-6f722bb664235052954ad46852628b64",
                "url_private_download": "https:\/\/files.slack.com\/files-pri\/TUU48M0T1-F011M3Y7QBS\/download\/image.png?t=xoxe-980144714919-1106606678066-1105227127893-6f722bb664235052954ad46852628b64",
                "thumb_64": "https:\/\/files.slack.com\/files-tmb\/TUU48M0T1-F011M3Y7QBS-8567f1092f\/image_64.png?t=xoxe-980144714919-1106606678066-1105227127893-6f722bb664235052954ad46852628b64",
                "thumb_80": "https:\/\/files.slack.com\/files-tmb\/TUU48M0T1-F011M3Y7QBS-8567f1092f\/image_80.png?t=xoxe-980144714919-1106606678066-1105227127893-6f722bb664235052954ad46852628b64",
                "thumb_360": "https:\/\/files.slack.com\/files-tmb\/TUU48M0T1-F011M3Y7QBS-8567f1092f\/image_360.png?t=xoxe-980144714919-1106606678066-1105227127893-6f722bb664235052954ad46852628b64",
                "thumb_360_w": 360,
                "thumb_360_h": 189,
                "thumb_480": "https:\/\/files.slack.com\/files-tmb\/TUU48M0T1-F011M3Y7QBS-8567f1092f\/image_480.png?t=xoxe-980144714919-1106606678066-1105227127893-6f722bb664235052954ad46852628b64",
                "thumb_480_w": 480,
                "thumb_480_h": 252,
                "thumb_160": "https:\/\/files.slack.com\/files-tmb\/TUU48M0T1-F011M3Y7QBS-8567f1092f\/image_160.png?t=xoxe-980144714919-1106606678066-1105227127893-6f722bb664235052954ad46852628b64",
                "thumb_720": "https:\/\/files.slack.com\/files-tmb\/TUU48M0T1-F011M3Y7QBS-8567f1092f\/image_720.png?t=xoxe-980144714919-1106606678066-1105227127893-6f722bb664235052954ad46852628b64",
                "thumb_720_w": 720,
                "thumb_720_h": 378,
                "thumb_800": "https:\/\/files.slack.com\/files-tmb\/TUU48M0T1-F011M3Y7QBS-8567f1092f\/image_800.png?t=xoxe-980144714919-1106606678066-1105227127893-6f722bb664235052954ad46852628b64",
                "thumb_800_w": 800,
                "thumb_800_h": 420,
                "thumb_960": "https:\/\/files.slack.com\/files-tmb\/TUU48M0T1-F011M3Y7QBS-8567f1092f\/image_960.png?t=xoxe-980144714919-1106606678066-1105227127893-6f722bb664235052954ad46852628b64",
                "thumb_960_w": 960,
                "thumb_960_h": 504,
                "thumb_1024": "https:\/\/files.slack.com\/files-tmb\/TUU48M0T1-F011M3Y7QBS-8567f1092f\/image_1024.png?t=xoxe-980144714919-1106606678066-1105227127893-6f722bb664235052954ad46852628b64",
                "thumb_1024_w": 1024,
                "thumb_1024_h": 537,
                "image_exif_rotation": 1,
                "original_w": 1096,
                "original_h": 575,
                "thumb_tiny": "AwAZADDSCgdKPxpaQigBD+dL+NIRgZz+QpcH1\/SgBfxpMDOe9LRQAUUUUANlGUNOoooAKKKKAP\/Z",
                "permalink": "https:\/\/open-covid19.slack.com\/files\/UV0QTJCMT\/F011M3Y7QBS\/image.png",
                "permalink_public": "https:\/\/slack-files.com\/TUU48M0T1-F011M3Y7QBS-d385c4669f",
                "is_starred": false,
                "has_rich_preview": false
            }
        ],
        "upload": true,
        "blocks": [
            {
                "type": "rich_text",
                "block_id": "\/yH",
                "elements": [
                    {
                        "type": "rich_text_section",
                        "elements": [
                            {
                                "type": "text",
                                "text": "just a heads-up that i added the social media links to the program page, thanks everyone for all the work with getting these pages up and running!"
                            }
                        ]
                    }
                ]
            }
        ],
        "user": "UV0QTJCMT",
        "display_as_bot": false,
        "ts": "1586132884.298400",
        "client_msg_id": "4f69cab1-2a16-43c9-a95a-cd5f7d7032c9",
        "reactions": [
            {
                "name": "+1",
                "users": [
                    "UV2SC7ZE3",
                    "U011B6VLM2A"
                ],
                "count": 2
            },
            {
                "name": "tada",
                "users": [
                    "U010APQC76J"
                ],
                "count": 1
            }
        ]
    },
    {
        "client_msg_id": "a61ca1d7-957e-46a3-b8cb-00ef1ec4afc8",
        "type": "message",
        "text": "<@U010Q3372P3> I think it's still undecided as to whether we will use HootSuite or not. But in the meantime, could you put a draft of the first post in this folder? <https:\/\/drive.google.com\/open?id=1CajXRDb4y7CYPgu2THZcB7A7i9XG3p7k>. I'm not sure if you've started one or not.",
        "user": "UV2SC7ZE3",
        "ts": "1586148191.300100",
        "team": "TUU48M0T1",
        "user_team": "TUU48M0T1",
        "source_team": "TUU48M0T1",
        "user_profile": {
            "avatar_hash": "d28dd0d076e8",
            "image_72": "https:\/\/avatars.slack-edge.com\/2020-03-14\/987873094258_d28dd0d076e8fa9a8409_72.png",
            "first_name": "David",
            "real_name": "David Lu",
            "display_name": "David Lu",
            "team": "TUU48M0T1",
            "name": "ludavidyi",
            "is_restricted": false,
            "is_ultra_restricted": false
        },
        "blocks": [
            {
                "type": "rich_text",
                "block_id": "UR6",
                "elements": [
                    {
                        "type": "rich_text_section",
                        "elements": [
                            {
                                "type": "user",
                                "user_id": "U010Q3372P3"
                            },
                            {
                                "type": "text",
                                "text": " I think it's still undecided as to whether we will use HootSuite or not. But in the meantime, could you put a draft of the first post in this folder? "
                            },
                            {
                                "type": "link",
                                "url": "https:\/\/drive.google.com\/open?id=1CajXRDb4y7CYPgu2THZcB7A7i9XG3p7k"
                            },
                            {
                                "type": "text",
                                "text": ". I'm not sure if you've started one or not."
                            }
                        ]
                    }
                ]
            }
        ]
    }
]