[
    {
        "client_msg_id": "4c12f04a-8bf3-4603-ab9a-6ec0c9b4bcbc",
        "type": "message",
        "text": "<@U0103LPAWQ4> Hi Bree, it’s easier for me to suggest, but for education purposes, here’s the link to all 508 compliance, this applies to North America, there are another set of standards that are similar for EU <https:\/\/www.hhs.gov\/web\/section-508\/making-files-accessible\/checklist\/multimedia\/index.html> the EU directive: <https:\/\/eur-lex.europa.eu\/eli\/dir\/2016\/2102\/oj>",
        "user": "U010Q3372P3",
        "ts": "1586004895.264000",
        "team": "TUU48M0T1",
        "user_team": "TUU48M0T1",
        "source_team": "TUU48M0T1",
        "user_profile": {
            "avatar_hash": "95066184973b",
            "image_72": "https:\/\/avatars.slack-edge.com\/2020-03-30\/1036274198128_95066184973b1de50d1a_72.png",
            "first_name": "Kathryn",
            "real_name": "Kathryn Rowe",
            "display_name": "Kathryn Rowe",
            "team": "TUU48M0T1",
            "name": "kathryn.rowe",
            "is_restricted": false,
            "is_ultra_restricted": false
        },
        "edited": {
            "user": "U010Q3372P3",
            "ts": "1586005110.000000"
        },
        "attachments": [
            {
                "service_name": "HHS.gov",
                "title": "Multimedia File 508 Checklist",
                "title_link": "https:\/\/www.hhs.gov\/web\/section-508\/making-files-accessible\/checklist\/multimedia\/index.html",
                "text": "Multimedia File 508 Checklist",
                "fallback": "HHS.gov: Multimedia File 508 Checklist",
                "thumb_url": "https:\/\/www.hhs.gov\/sites\/default\/files\/HHS-Twitter-Card-180x180.jpg",
                "ts": 1206442800,
                "from_url": "https:\/\/www.hhs.gov\/web\/section-508\/making-files-accessible\/checklist\/multimedia\/index.html",
                "thumb_width": 180,
                "thumb_height": 180,
                "service_icon": "https:\/\/www.hhs.gov\/sites\/all\/themes\/project_h\/favicon.ico",
                "id": 1,
                "original_url": "https:\/\/www.hhs.gov\/web\/section-508\/making-files-accessible\/checklist\/multimedia\/index.html"
            }
        ],
        "blocks": [
            {
                "type": "rich_text",
                "block_id": "cdmt",
                "elements": [
                    {
                        "type": "rich_text_section",
                        "elements": [
                            {
                                "type": "user",
                                "user_id": "U0103LPAWQ4"
                            },
                            {
                                "type": "text",
                                "text": " Hi Bree, it’s easier for me to suggest, but for education purposes, here’s the link to all 508 compliance, this applies to North America, there are another set of standards that are similar for EU "
                            },
                            {
                                "type": "link",
                                "url": "https:\/\/www.hhs.gov\/web\/section-508\/making-files-accessible\/checklist\/multimedia\/index.html"
                            },
                            {
                                "type": "text",
                                "text": " the EU directive: "
                            },
                            {
                                "type": "link",
                                "url": "https:\/\/eur-lex.europa.eu\/eli\/dir\/2016\/2102\/oj"
                            }
                        ]
                    }
                ]
            }
        ],
        "thread_ts": "1585941825.252200",
        "parent_user_id": "U0103LPAWQ4"
    },
    {
        "client_msg_id": "ff7eca05-0b80-470a-948c-3086e6e46850",
        "type": "message",
        "text": "I have not used it, I think if it’s secure we should explore. I agree with <@UV2SC7ZE3> and <@UV9V03C8Y>",
        "user": "U010Q3372P3",
        "ts": "1586005202.264600",
        "team": "TUU48M0T1",
        "user_team": "TUU48M0T1",
        "source_team": "TUU48M0T1",
        "user_profile": {
            "avatar_hash": "95066184973b",
            "image_72": "https:\/\/avatars.slack-edge.com\/2020-03-30\/1036274198128_95066184973b1de50d1a_72.png",
            "first_name": "Kathryn",
            "real_name": "Kathryn Rowe",
            "display_name": "Kathryn Rowe",
            "team": "TUU48M0T1",
            "name": "kathryn.rowe",
            "is_restricted": false,
            "is_ultra_restricted": false
        },
        "blocks": [
            {
                "type": "rich_text",
                "block_id": "mh59b",
                "elements": [
                    {
                        "type": "rich_text_section",
                        "elements": [
                            {
                                "type": "text",
                                "text": "I have not used it, I think if it’s secure we should explore. I agree with "
                            },
                            {
                                "type": "user",
                                "user_id": "UV2SC7ZE3"
                            },
                            {
                                "type": "text",
                                "text": " and "
                            },
                            {
                                "type": "user",
                                "user_id": "UV9V03C8Y"
                            }
                        ]
                    }
                ]
            }
        ],
        "thread_ts": "1585945664.261200",
        "parent_user_id": "U0103LPAWQ4"
    },
    {
        "client_msg_id": "a26d8d50-771e-4fe8-9c0e-1a5c497663a2",
        "type": "message",
        "text": "<!channel> Can someone direct me to the map image we discussed on our call today? I’d like to get a post ready for review for the team this weekend. I’ll plan to write for LinkedIn since I have access to that admin, but I can also set up my Hootsuite account to do a single message blast that will track analytics, and we can use it for social listening. We also spoke about creating a content calendar and determining days for each group to set to post content as needed by priority. We could build it from this post google sheet so not to create another document to manage <https:\/\/docs.google.com\/spreadsheets\/d\/1TxzauDP487Goidzb_QfliOeu3k87yTOGlFSymUw9D68\/edit#gid=0>",
        "user": "U010Q3372P3",
        "ts": "1586005362.267100",
        "team": "TUU48M0T1",
        "user_team": "TUU48M0T1",
        "source_team": "TUU48M0T1",
        "user_profile": {
            "avatar_hash": "95066184973b",
            "image_72": "https:\/\/avatars.slack-edge.com\/2020-03-30\/1036274198128_95066184973b1de50d1a_72.png",
            "first_name": "Kathryn",
            "real_name": "Kathryn Rowe",
            "display_name": "Kathryn Rowe",
            "team": "TUU48M0T1",
            "name": "kathryn.rowe",
            "is_restricted": false,
            "is_ultra_restricted": false
        },
        "edited": {
            "user": "U010Q3372P3",
            "ts": "1586005588.000000"
        },
        "blocks": [
            {
                "type": "rich_text",
                "block_id": "mVqt",
                "elements": [
                    {
                        "type": "rich_text_section",
                        "elements": [
                            {
                                "type": "broadcast",
                                "range": "channel"
                            },
                            {
                                "type": "text",
                                "text": " Can someone direct me to the map image we discussed on our call today? I’d like to get a post ready for review for the team this weekend. I’ll plan to write for LinkedIn since I have access to that admin, but I can also set up my Hootsuite account to do a single message blast that will track analytics, and we can use it for social listening. We also spoke about creating a content calendar and determining days for each group to set to post content as needed by priority. We could build it from this post google sheet so not to create another document to manage "
                            },
                            {
                                "type": "link",
                                "url": "https:\/\/docs.google.com\/spreadsheets\/d\/1TxzauDP487Goidzb_QfliOeu3k87yTOGlFSymUw9D68\/edit#gid=0"
                            }
                        ]
                    }
                ]
            }
        ],
        "thread_ts": "1586005362.267100",
        "reply_count": 1,
        "reply_users_count": 1,
        "latest_reply": "1586010370.269400",
        "reply_users": [
            "UV2SC7ZE3"
        ],
        "replies": [
            {
                "user": "UV2SC7ZE3",
                "ts": "1586010370.269400"
            }
        ],
        "subscribed": false,
        "reactions": [
            {
                "name": "+1",
                "users": [
                    "UV2SC7ZE3",
                    "U010APQC76J",
                    "U011VF29MK2"
                ],
                "count": 3
            }
        ]
    },
    {
        "client_msg_id": "3be0140f-6f90-4a30-9185-b871eac5659c",
        "type": "message",
        "text": "<@UV9V03C8Y> or <@UV02WET96> Can I get a link to the list of emails we want to blast the Team Bio Form? I can send that out this weekend: <https:\/\/docs.google.com\/forms\/d\/184IoAPKQZcqpb8WlPyp5LJOWJuBAKz3MeNr55hZ2m8c\/>",
        "user": "U010Q3372P3",
        "ts": "1586005728.268600",
        "team": "TUU48M0T1",
        "user_team": "TUU48M0T1",
        "source_team": "TUU48M0T1",
        "user_profile": {
            "avatar_hash": "95066184973b",
            "image_72": "https:\/\/avatars.slack-edge.com\/2020-03-30\/1036274198128_95066184973b1de50d1a_72.png",
            "first_name": "Kathryn",
            "real_name": "Kathryn Rowe",
            "display_name": "Kathryn Rowe",
            "team": "TUU48M0T1",
            "name": "kathryn.rowe",
            "is_restricted": false,
            "is_ultra_restricted": false
        },
        "blocks": [
            {
                "type": "rich_text",
                "block_id": "QTc",
                "elements": [
                    {
                        "type": "rich_text_section",
                        "elements": [
                            {
                                "type": "user",
                                "user_id": "UV9V03C8Y"
                            },
                            {
                                "type": "text",
                                "text": " or "
                            },
                            {
                                "type": "user",
                                "user_id": "UV02WET96"
                            },
                            {
                                "type": "text",
                                "text": " Can I get a link to the list of emails we want to blast the Team Bio Form? I can send that out this weekend: "
                            },
                            {
                                "type": "link",
                                "url": "https:\/\/docs.google.com\/forms\/d\/184IoAPKQZcqpb8WlPyp5LJOWJuBAKz3MeNr55hZ2m8c\/"
                            }
                        ]
                    }
                ]
            }
        ]
    },
    {
        "type": "message",
        "text": "<@U010Q3372P3> here is a map that <@UVC9WMA7N> made.",
        "files": [
            {
                "id": "F011CG8TG3A",
                "created": 1585846163,
                "timestamp": 1585846163,
                "name": "image.png",
                "title": "image.png",
                "mimetype": "image\/png",
                "filetype": "png",
                "pretty_type": "PNG",
                "user": "UVC9WMA7N",
                "editable": false,
                "size": 268655,
                "mode": "hosted",
                "is_external": false,
                "external_type": "",
                "is_public": true,
                "public_url_shared": false,
                "display_as_bot": false,
                "username": "",
                "url_private": "https:\/\/files.slack.com\/files-pri\/TUU48M0T1-F011CG8TG3A\/image.png?t=xoxe-980144714919-1106606678066-1105227127893-6f722bb664235052954ad46852628b64",
                "url_private_download": "https:\/\/files.slack.com\/files-pri\/TUU48M0T1-F011CG8TG3A\/download\/image.png?t=xoxe-980144714919-1106606678066-1105227127893-6f722bb664235052954ad46852628b64",
                "thumb_64": "https:\/\/files.slack.com\/files-tmb\/TUU48M0T1-F011CG8TG3A-84d565faa6\/image_64.png?t=xoxe-980144714919-1106606678066-1105227127893-6f722bb664235052954ad46852628b64",
                "thumb_80": "https:\/\/files.slack.com\/files-tmb\/TUU48M0T1-F011CG8TG3A-84d565faa6\/image_80.png?t=xoxe-980144714919-1106606678066-1105227127893-6f722bb664235052954ad46852628b64",
                "thumb_360": "https:\/\/files.slack.com\/files-tmb\/TUU48M0T1-F011CG8TG3A-84d565faa6\/image_360.png?t=xoxe-980144714919-1106606678066-1105227127893-6f722bb664235052954ad46852628b64",
                "thumb_360_w": 360,
                "thumb_360_h": 263,
                "thumb_480": "https:\/\/files.slack.com\/files-tmb\/TUU48M0T1-F011CG8TG3A-84d565faa6\/image_480.png?t=xoxe-980144714919-1106606678066-1105227127893-6f722bb664235052954ad46852628b64",
                "thumb_480_w": 480,
                "thumb_480_h": 351,
                "thumb_160": "https:\/\/files.slack.com\/files-tmb\/TUU48M0T1-F011CG8TG3A-84d565faa6\/image_160.png?t=xoxe-980144714919-1106606678066-1105227127893-6f722bb664235052954ad46852628b64",
                "thumb_720": "https:\/\/files.slack.com\/files-tmb\/TUU48M0T1-F011CG8TG3A-84d565faa6\/image_720.png?t=xoxe-980144714919-1106606678066-1105227127893-6f722bb664235052954ad46852628b64",
                "thumb_720_w": 720,
                "thumb_720_h": 526,
                "thumb_800": "https:\/\/files.slack.com\/files-tmb\/TUU48M0T1-F011CG8TG3A-84d565faa6\/image_800.png?t=xoxe-980144714919-1106606678066-1105227127893-6f722bb664235052954ad46852628b64",
                "thumb_800_w": 800,
                "thumb_800_h": 584,
                "thumb_960": "https:\/\/files.slack.com\/files-tmb\/TUU48M0T1-F011CG8TG3A-84d565faa6\/image_960.png?t=xoxe-980144714919-1106606678066-1105227127893-6f722bb664235052954ad46852628b64",
                "thumb_960_w": 960,
                "thumb_960_h": 701,
                "thumb_1024": "https:\/\/files.slack.com\/files-tmb\/TUU48M0T1-F011CG8TG3A-84d565faa6\/image_1024.png?t=xoxe-980144714919-1106606678066-1105227127893-6f722bb664235052954ad46852628b64",
                "thumb_1024_w": 1024,
                "thumb_1024_h": 748,
                "image_exif_rotation": 1,
                "original_w": 1038,
                "original_h": 758,
                "thumb_tiny": "AwAjADChSgClAB6daGGCR6UAIwxSU5VMjBV5PpTni2MRnOOKAI6KfimnFAArbWDDqKneQPEdigHqTnmq9PiKq3zfd70AOhfbKGAXIHAp8sgblwQw6EVAzbmJxj2pSwOOOnrQBKyoT8r8cfrUBoBxTm2nGODjmgBtFFFABRRRQAUUUUAf\/9k=",
                "permalink": "https:\/\/open-covid19.slack.com\/files\/UVC9WMA7N\/F011CG8TG3A\/image.png",
                "permalink_public": "https:\/\/slack-files.com\/TUU48M0T1-F011CG8TG3A-9d94f92780",
                "is_starred": false,
                "has_rich_preview": false
            }
        ],
        "upload": false,
        "user": "UV2SC7ZE3",
        "display_as_bot": false,
        "ts": "1586009286.268900",
        "thread_ts": "1586009286.268900",
        "reply_count": 10,
        "reply_users_count": 6,
        "latest_reply": "1586035829.286100",
        "reply_users": [
            "U010Q3372P3",
            "UV02WET96",
            "UV9V03C8Y",
            "U01072UT127",
            "UV2SC7ZE3",
            "UVC9WMA7N"
        ],
        "replies": [
            {
                "user": "U010Q3372P3",
                "ts": "1586010793.269800"
            },
            {
                "user": "UV02WET96",
                "ts": "1586010866.270000"
            },
            {
                "user": "U010Q3372P3",
                "ts": "1586010911.270200"
            },
            {
                "user": "UV9V03C8Y",
                "ts": "1586010935.270400"
            },
            {
                "user": "U010Q3372P3",
                "ts": "1586011059.270600"
            },
            {
                "user": "U01072UT127",
                "ts": "1586020503.272000"
            },
            {
                "user": "UV02WET96",
                "ts": "1586021806.275100"
            },
            {
                "user": "U01072UT127",
                "ts": "1586022116.279300"
            },
            {
                "user": "UV2SC7ZE3",
                "ts": "1586022308.279600"
            },
            {
                "user": "UVC9WMA7N",
                "ts": "1586035829.286100"
            }
        ],
        "subscribed": false,
        "reactions": [
            {
                "name": "100",
                "users": [
                    "UV02WET96",
                    "UV0QTJCMT",
                    "U01019BQXM3"
                ],
                "count": 3
            },
            {
                "name": "+1",
                "users": [
                    "U010Q3372P3"
                ],
                "count": 1
            },
            {
                "name": "clap::skin-tone-4",
                "users": [
                    "U0103LPAWQ4"
                ],
                "count": 1
            }
        ]
    },
    {
        "client_msg_id": "36d57e28-1090-4fdf-923a-293132562c71",
        "type": "message",
        "text": "Awesome. Once <@U01019BQXM3> sets up the Insta account, we should definitely use HootSuite. Do you know if it's possible for hootsuite to have multiple viewers or admins?",
        "user": "UV2SC7ZE3",
        "ts": "1586010370.269400",
        "team": "TUU48M0T1",
        "user_team": "TUU48M0T1",
        "source_team": "TUU48M0T1",
        "user_profile": {
            "avatar_hash": "d28dd0d076e8",
            "image_72": "https:\/\/avatars.slack-edge.com\/2020-03-14\/987873094258_d28dd0d076e8fa9a8409_72.png",
            "first_name": "David",
            "real_name": "David Lu",
            "display_name": "David Lu",
            "team": "TUU48M0T1",
            "name": "ludavidyi",
            "is_restricted": false,
            "is_ultra_restricted": false
        },
        "blocks": [
            {
                "type": "rich_text",
                "block_id": "onM5u",
                "elements": [
                    {
                        "type": "rich_text_section",
                        "elements": [
                            {
                                "type": "text",
                                "text": "Awesome. Once "
                            },
                            {
                                "type": "user",
                                "user_id": "U01019BQXM3"
                            },
                            {
                                "type": "text",
                                "text": " sets up the Insta account, we should definitely use HootSuite. Do you know if it's possible for hootsuite to have multiple viewers or admins?"
                            }
                        ]
                    }
                ]
            }
        ],
        "thread_ts": "1586005362.267100",
        "parent_user_id": "U010Q3372P3"
    },
    {
        "client_msg_id": "30ff230a-7829-46b8-82f3-fffe31c1d874",
        "type": "message",
        "text": "<@UV9V03C8Y> <@UV02WET96> <@UVC9WMA7N>I want to confirm approval to use this image with all the OpenCOVID19 social platforms?",
        "user": "U010Q3372P3",
        "ts": "1586010793.269800",
        "team": "TUU48M0T1",
        "user_team": "TUU48M0T1",
        "source_team": "TUU48M0T1",
        "user_profile": {
            "avatar_hash": "95066184973b",
            "image_72": "https:\/\/avatars.slack-edge.com\/2020-03-30\/1036274198128_95066184973b1de50d1a_72.png",
            "first_name": "Kathryn",
            "real_name": "Kathryn Rowe",
            "display_name": "Kathryn Rowe",
            "team": "TUU48M0T1",
            "name": "kathryn.rowe",
            "is_restricted": false,
            "is_ultra_restricted": false
        },
        "blocks": [
            {
                "type": "rich_text",
                "block_id": "MOvUJ",
                "elements": [
                    {
                        "type": "rich_text_section",
                        "elements": [
                            {
                                "type": "user",
                                "user_id": "UV9V03C8Y"
                            },
                            {
                                "type": "text",
                                "text": " "
                            },
                            {
                                "type": "user",
                                "user_id": "UV02WET96"
                            },
                            {
                                "type": "text",
                                "text": " "
                            },
                            {
                                "type": "user",
                                "user_id": "UVC9WMA7N"
                            },
                            {
                                "type": "text",
                                "text": "I want to confirm approval to use this image with all the OpenCOVID19 social platforms?"
                            }
                        ]
                    }
                ]
            }
        ],
        "thread_ts": "1586009286.268900",
        "parent_user_id": "UV2SC7ZE3"
    },
    {
        "client_msg_id": "b5f85a00-4d86-4c3a-b456-e9943271792a",
        "type": "message",
        "text": "Hi Kathryn, if it’s coming from Leo, you can use it :+1:",
        "user": "UV02WET96",
        "ts": "1586010866.270000",
        "team": "TUU48M0T1",
        "user_team": "TUU48M0T1",
        "source_team": "TUU48M0T1",
        "user_profile": {
            "avatar_hash": "a99c74a194f8",
            "image_72": "https:\/\/avatars.slack-edge.com\/2020-03-07\/975708504851_a99c74a194f86715ca7d_72.png",
            "first_name": "Thomas",
            "real_name": "Thomas Landrain",
            "display_name": "Thomas Landrain - JOGL CoFounder \/ CEO",
            "team": "TUU48M0T1",
            "name": "thomas",
            "is_restricted": false,
            "is_ultra_restricted": false
        },
        "blocks": [
            {
                "type": "rich_text",
                "block_id": "xGT",
                "elements": [
                    {
                        "type": "rich_text_section",
                        "elements": [
                            {
                                "type": "text",
                                "text": "Hi Kathryn, if it’s coming from Leo, you can use it "
                            },
                            {
                                "type": "emoji",
                                "name": "+1"
                            }
                        ]
                    }
                ]
            }
        ],
        "thread_ts": "1586009286.268900",
        "parent_user_id": "UV2SC7ZE3"
    },
    {
        "client_msg_id": "c0673aa9-0364-4bfe-84d2-7810cec138db",
        "type": "message",
        "text": "Hi Thomas, I got it from <@UV2SC7ZE3> so I wanted to first verify with the owner of the image before use.",
        "user": "U010Q3372P3",
        "ts": "1586010911.270200",
        "team": "TUU48M0T1",
        "user_team": "TUU48M0T1",
        "source_team": "TUU48M0T1",
        "user_profile": {
            "avatar_hash": "95066184973b",
            "image_72": "https:\/\/avatars.slack-edge.com\/2020-03-30\/1036274198128_95066184973b1de50d1a_72.png",
            "first_name": "Kathryn",
            "real_name": "Kathryn Rowe",
            "display_name": "Kathryn Rowe",
            "team": "TUU48M0T1",
            "name": "kathryn.rowe",
            "is_restricted": false,
            "is_ultra_restricted": false
        },
        "blocks": [
            {
                "type": "rich_text",
                "block_id": "uPsYf",
                "elements": [
                    {
                        "type": "rich_text_section",
                        "elements": [
                            {
                                "type": "text",
                                "text": "Hi Thomas, I got it from "
                            },
                            {
                                "type": "user",
                                "user_id": "UV2SC7ZE3"
                            },
                            {
                                "type": "text",
                                "text": " so I wanted to first verify with the owner of the image before use."
                            }
                        ]
                    }
                ]
            }
        ],
        "thread_ts": "1586009286.268900",
        "parent_user_id": "UV2SC7ZE3"
    },
    {
        "client_msg_id": "c77d5caa-a164-404a-b64e-01cdf9f6da61",
        "type": "message",
        "text": "<@UV02WET96> is it ok if there are people's face?",
        "user": "UV9V03C8Y",
        "ts": "1586010935.270400",
        "team": "TUU48M0T1",
        "user_team": "TUU48M0T1",
        "source_team": "TUU48M0T1",
        "user_profile": {
            "avatar_hash": "177697fb7b8f",
            "image_72": "https:\/\/avatars.slack-edge.com\/2020-03-12\/996126178096_177697fb7b8ffa57649c_72.jpg",
            "first_name": "Camille",
            "real_name": "Camille Masselot - JOGL Program coordinator",
            "display_name": "Camille Masselot - JOGL coordinator",
            "team": "TUU48M0T1",
            "name": "masselot.camille",
            "is_restricted": false,
            "is_ultra_restricted": false
        },
        "blocks": [
            {
                "type": "rich_text",
                "block_id": "inb",
                "elements": [
                    {
                        "type": "rich_text_section",
                        "elements": [
                            {
                                "type": "user",
                                "user_id": "UV02WET96"
                            },
                            {
                                "type": "text",
                                "text": " is it ok if there are people's face?"
                            }
                        ]
                    }
                ]
            }
        ],
        "thread_ts": "1586009286.268900",
        "parent_user_id": "UV2SC7ZE3"
    },
    {
        "client_msg_id": "ea549a40-b18c-4fe5-8872-6616b30744b2",
        "type": "message",
        "text": "typically you need a release (in the USA) to use someone’s image. We can edit the image to hide all photos",
        "user": "U010Q3372P3",
        "ts": "1586011059.270600",
        "team": "TUU48M0T1",
        "user_team": "TUU48M0T1",
        "source_team": "TUU48M0T1",
        "user_profile": {
            "avatar_hash": "95066184973b",
            "image_72": "https:\/\/avatars.slack-edge.com\/2020-03-30\/1036274198128_95066184973b1de50d1a_72.png",
            "first_name": "Kathryn",
            "real_name": "Kathryn Rowe",
            "display_name": "Kathryn Rowe",
            "team": "TUU48M0T1",
            "name": "kathryn.rowe",
            "is_restricted": false,
            "is_ultra_restricted": false
        },
        "blocks": [
            {
                "type": "rich_text",
                "block_id": "c0V0u",
                "elements": [
                    {
                        "type": "rich_text_section",
                        "elements": [
                            {
                                "type": "text",
                                "text": "typically you need a release (in the USA) to use someone’s image. We can edit the image to hide all photos"
                            }
                        ]
                    }
                ]
            }
        ],
        "thread_ts": "1586009286.268900",
        "parent_user_id": "UV2SC7ZE3",
        "reactions": [
            {
                "name": "+1",
                "users": [
                    "UV2SC7ZE3"
                ],
                "count": 1
            }
        ]
    },
    {
        "client_msg_id": "549BCED3-BAFA-4DA1-8CEE-EA85471012B1",
        "type": "message",
        "text": "Super. Did anything come out of it ?",
        "user": "U01072UT127",
        "ts": "1586020448.271600",
        "team": "TUU48M0T1",
        "user_team": "TUU48M0T1",
        "source_team": "TUU48M0T1",
        "user_profile": {
            "avatar_hash": "65a47b12fd55",
            "image_72": "https:\/\/avatars.slack-edge.com\/2020-03-23\/1018603039072_65a47b12fd55dde2b3ca_72.jpg",
            "first_name": "David",
            "real_name": "David Suter",
            "display_name": "David Suter",
            "team": "TUU48M0T1",
            "name": "davidsuter01",
            "is_restricted": false,
            "is_ultra_restricted": false
        },
        "thread_ts": "1585836437.209700",
        "parent_user_id": "U01072UT127"
    },
    {
        "client_msg_id": "86511518-EA2B-4036-A650-50A772E849BB",
        "type": "message",
        "text": "Brilliant!!!",
        "user": "U01072UT127",
        "ts": "1586020503.272000",
        "team": "TUU48M0T1",
        "user_team": "TUU48M0T1",
        "source_team": "TUU48M0T1",
        "user_profile": {
            "avatar_hash": "65a47b12fd55",
            "image_72": "https:\/\/avatars.slack-edge.com\/2020-03-23\/1018603039072_65a47b12fd55dde2b3ca_72.jpg",
            "first_name": "David",
            "real_name": "David Suter",
            "display_name": "David Suter",
            "team": "TUU48M0T1",
            "name": "davidsuter01",
            "is_restricted": false,
            "is_ultra_restricted": false
        },
        "thread_ts": "1586009286.268900",
        "parent_user_id": "UV2SC7ZE3"
    },
    {
        "client_msg_id": "727B3A46-C163-4AB8-A4E6-F3F94E9C0E9B",
        "type": "message",
        "text": "For the face, I believe the Terms or use of JOGL actually enables JOGL to use information published on the platform (which is already public) for communication activities without requiring an authorization from the users. ",
        "user": "UV02WET96",
        "ts": "1586021806.275100",
        "team": "TUU48M0T1",
        "user_team": "TUU48M0T1",
        "source_team": "TUU48M0T1",
        "user_profile": {
            "avatar_hash": "a99c74a194f8",
            "image_72": "https:\/\/avatars.slack-edge.com\/2020-03-07\/975708504851_a99c74a194f86715ca7d_72.png",
            "first_name": "Thomas",
            "real_name": "Thomas Landrain",
            "display_name": "Thomas Landrain - JOGL CoFounder \/ CEO",
            "team": "TUU48M0T1",
            "name": "thomas",
            "is_restricted": false,
            "is_ultra_restricted": false
        },
        "blocks": [
            {
                "type": "rich_text",
                "block_id": "blF",
                "elements": [
                    {
                        "type": "rich_text_section",
                        "elements": [
                            {
                                "type": "text",
                                "text": "For the face, I believe the Terms or use of JOGL actually enables JOGL to use information published on the platform (which is already public) for communication activities without requiring an authorization from the users. "
                            }
                        ]
                    }
                ]
            }
        ],
        "thread_ts": "1586009286.268900",
        "parent_user_id": "UV2SC7ZE3",
        "reactions": [
            {
                "name": "+1",
                "users": [
                    "U01072UT127",
                    "UV2SC7ZE3",
                    "UVC9WMA7N"
                ],
                "count": 3
            }
        ]
    },
    {
        "client_msg_id": "18F5FBA3-A3FE-4BC4-89D7-ABB2FBBA173C",
        "type": "message",
        "text": "@david is there a way to drill this down per project. It would be great to see this script in action for <#CV9R0C4V9|proj-dev-ai-cough-detection>, I could really use it. ",
        "user": "U01072UT127",
        "ts": "1586022116.279300",
        "team": "TUU48M0T1",
        "user_team": "TUU48M0T1",
        "source_team": "TUU48M0T1",
        "user_profile": {
            "avatar_hash": "65a47b12fd55",
            "image_72": "https:\/\/avatars.slack-edge.com\/2020-03-23\/1018603039072_65a47b12fd55dde2b3ca_72.jpg",
            "first_name": "David",
            "real_name": "David Suter",
            "display_name": "David Suter",
            "team": "TUU48M0T1",
            "name": "davidsuter01",
            "is_restricted": false,
            "is_ultra_restricted": false
        },
        "thread_ts": "1586009286.268900",
        "parent_user_id": "UV2SC7ZE3",
        "reactions": [
            {
                "name": "+1::skin-tone-4",
                "users": [
                    "U0103LPAWQ4"
                ],
                "count": 1
            }
        ]
    },
    {
        "client_msg_id": "d1802c6c-e2e2-44d7-97b0-9beb7f73fab2",
        "type": "message",
        "text": "You'd have to ask <@UUWPKNE2E> or <@UVC9WMA7N> since they have access to that information I believe. I think it would definitely be cool to have a map for each project",
        "user": "UV2SC7ZE3",
        "ts": "1586022308.279600",
        "team": "TUU48M0T1",
        "user_team": "TUU48M0T1",
        "source_team": "TUU48M0T1",
        "user_profile": {
            "avatar_hash": "d28dd0d076e8",
            "image_72": "https:\/\/avatars.slack-edge.com\/2020-03-14\/987873094258_d28dd0d076e8fa9a8409_72.png",
            "first_name": "David",
            "real_name": "David Lu",
            "display_name": "David Lu",
            "team": "TUU48M0T1",
            "name": "ludavidyi",
            "is_restricted": false,
            "is_ultra_restricted": false
        },
        "blocks": [
            {
                "type": "rich_text",
                "block_id": "IvQc",
                "elements": [
                    {
                        "type": "rich_text_section",
                        "elements": [
                            {
                                "type": "text",
                                "text": "You'd have to ask "
                            },
                            {
                                "type": "user",
                                "user_id": "UUWPKNE2E"
                            },
                            {
                                "type": "text",
                                "text": " or "
                            },
                            {
                                "type": "user",
                                "user_id": "UVC9WMA7N"
                            },
                            {
                                "type": "text",
                                "text": " since they have access to that information I believe. I think it would definitely be cool to have a map for each project"
                            }
                        ]
                    }
                ]
            }
        ],
        "thread_ts": "1586009286.268900",
        "parent_user_id": "UV2SC7ZE3"
    },
    {
        "client_msg_id": "c2100210-a7f4-4326-8e3d-c55dfa65d71a",
        "type": "message",
        "text": "Thank you <@U010Q3372P3> . If you see that anything I make isn't compliant, please feel free to make suggestions. I'm definitely not an expert in that area.",
        "user": "U0103LPAWQ4",
        "ts": "1586026968.279900",
        "team": "TUU48M0T1",
        "user_team": "TUU48M0T1",
        "source_team": "TUU48M0T1",
        "user_profile": {
            "avatar_hash": "7b345029e813",
            "image_72": "https:\/\/avatars.slack-edge.com\/2020-03-17\/1004213082549_7b345029e8137cbdc6b0_72.jpg",
            "first_name": "Bre",
            "real_name": "Bre",
            "display_name": "Bre",
            "team": "TUU48M0T1",
            "name": "info",
            "is_restricted": false,
            "is_ultra_restricted": false
        },
        "blocks": [
            {
                "type": "rich_text",
                "block_id": "X9O",
                "elements": [
                    {
                        "type": "rich_text_section",
                        "elements": [
                            {
                                "type": "text",
                                "text": "Thank you "
                            },
                            {
                                "type": "user",
                                "user_id": "U010Q3372P3"
                            },
                            {
                                "type": "text",
                                "text": " . If you see that anything I make isn't compliant, please feel free to make suggestions. I'm definitely not an expert in that area."
                            }
                        ]
                    }
                ]
            }
        ],
        "thread_ts": "1585941825.252200",
        "parent_user_id": "U0103LPAWQ4"
    },
    {
        "client_msg_id": "51d055dc-a040-4879-a911-226dd672c7fb",
        "type": "message",
        "text": "<https:\/\/medium.com\/>",
        "user": "U0103LPAWQ4",
        "ts": "1586026976.280100",
        "team": "TUU48M0T1",
        "user_team": "TUU48M0T1",
        "source_team": "TUU48M0T1",
        "user_profile": {
            "avatar_hash": "7b345029e813",
            "image_72": "https:\/\/avatars.slack-edge.com\/2020-03-17\/1004213082549_7b345029e8137cbdc6b0_72.jpg",
            "first_name": "Bre",
            "real_name": "Bre",
            "display_name": "Bre",
            "team": "TUU48M0T1",
            "name": "info",
            "is_restricted": false,
            "is_ultra_restricted": false
        },
        "attachments": [
            {
                "service_name": "Medium",
                "title": "Medium – Get smarter about what matters to you.",
                "title_link": "https:\/\/medium.com\/",
                "text": "Medium is not like any other platform on the internet. Our sole purpose is to help you find compelling ideas, knowledge, and perspectives. We don’t serve ads—we serve you, the curious reader who loves to learn new things. Medium is home to thousands of independent voices, and we combine humans and technology to find the best reading for you—and filter out the rest.",
                "fallback": "Medium: Medium – Get smarter about what matters to you.",
                "image_url": "https:\/\/cdn-images-1.medium.com\/max\/1200\/1*29XAq2WrtejUCxRzSgDLXA.png",
                "from_url": "https:\/\/medium.com\/",
                "image_width": 478,
                "image_height": 250,
                "image_bytes": 132637,
                "service_icon": "https:\/\/cdn-images-1.medium.com\/fit\/c\/152\/152\/1*8I-HPL0bfoIzGied-dzOvA.png",
                "id": 1,
                "original_url": "https:\/\/medium.com\/"
            }
        ],
        "blocks": [
            {
                "type": "rich_text",
                "block_id": "nRR",
                "elements": [
                    {
                        "type": "rich_text_section",
                        "elements": [
                            {
                                "type": "link",
                                "url": "https:\/\/medium.com\/"
                            }
                        ]
                    }
                ]
            }
        ],
        "thread_ts": "1585945664.261200",
        "parent_user_id": "U0103LPAWQ4"
    },
    {
        "client_msg_id": "1218b41f-2c79-46f3-a74a-b0a955544d46",
        "type": "message",
        "text": "I've written simple blog posts on Medium before. We could set up an account, make our content free so that anyone can read it, and let members of the JOGL community submit Google Docs, graphics, and videos if they want them included. At first, I thought about presenting this opportunity to team leaders, but perhaps anyone in the community should be able to post. This would include people who just want to talk about how they are doing during the quarantine, or why they are volunteering.\n Medium has a recommendation engine that picks up articles and recommends them to members in their email newsletters. The only real issue I know of is that a few business owners I know have complained that Medium cares more about keeping people on the platform and reading there than linking readers to sites. Since what we are doing is non-commercial it probably won't really affect us. Some people will read about projects or people on Medium and want to join (or possibly invest?), and others will just read\/skim the article and move on.  It's not something we have to jump into. Perhaps we should discuss it at the next meeting?\n\nIf we have people who want to write, then it could be a good outlet for them.  What do you think? Is <@U01019BQXM3> in charge of creating the JOGL accounts?",
        "user": "U0103LPAWQ4",
        "ts": "1586027519.280400",
        "team": "TUU48M0T1",
        "user_team": "TUU48M0T1",
        "source_team": "TUU48M0T1",
        "user_profile": {
            "avatar_hash": "7b345029e813",
            "image_72": "https:\/\/avatars.slack-edge.com\/2020-03-17\/1004213082549_7b345029e8137cbdc6b0_72.jpg",
            "first_name": "Bre",
            "real_name": "Bre",
            "display_name": "Bre",
            "team": "TUU48M0T1",
            "name": "info",
            "is_restricted": false,
            "is_ultra_restricted": false
        },
        "blocks": [
            {
                "type": "rich_text",
                "block_id": "uyL",
                "elements": [
                    {
                        "type": "rich_text_section",
                        "elements": [
                            {
                                "type": "text",
                                "text": "I've written simple blog posts on Medium before. We could set up an account, make our content free so that anyone can read it, and let members of the JOGL community submit Google Docs, graphics, and videos if they want them included. At first, I thought about presenting this opportunity to team leaders, but perhaps anyone in the community should be able to post. This would include people who just want to talk about how they are doing during the quarantine, or why they are volunteering.\n Medium has a recommendation engine that picks up articles and recommends them to members in their email newsletters. The only real issue I know of is that a few business owners I know have complained that Medium cares more about keeping people on the platform and reading there than linking readers to sites. Since what we are doing is non-commercial it probably won't really affect us. Some people will read about projects or people on Medium and want to join (or possibly invest?), and others will just read\/skim the article and move on.  It's not something we have to jump into. Perhaps we should discuss it at the next meeting?\n\nIf we have people who want to write, then it could be a good outlet for them.  What do you think? Is "
                            },
                            {
                                "type": "user",
                                "user_id": "U01019BQXM3"
                            },
                            {
                                "type": "text",
                                "text": " in charge of creating the JOGL accounts?"
                            }
                        ]
                    }
                ]
            }
        ],
        "thread_ts": "1585945664.261200",
        "parent_user_id": "U0103LPAWQ4"
    },
    {
        "client_msg_id": "02dd4279-67d0-4c7c-a1e2-15b80d098e23",
        "type": "message",
        "text": "Why not for Medium :slightly_smiling_face: , Though I think we should focus on basic social media - it’s more simple and its the priority - for now. However if we find some people willing to write , then of course !",
        "user": "U01019BQXM3",
        "ts": "1586032083.281600",
        "team": "TUU48M0T1",
        "user_team": "TUU48M0T1",
        "source_team": "TUU48M0T1",
        "user_profile": {
            "avatar_hash": "7e0f35d8cc55",
            "image_72": "https:\/\/avatars.slack-edge.com\/2020-03-15\/988667349730_7e0f35d8cc556cd89565_72.jpg",
            "first_name": "Marc",
            "real_name": "Marc Bokobza",
            "display_name": "Marc Bokobza",
            "team": "TUU48M0T1",
            "name": "marcbokobza1",
            "is_restricted": false,
            "is_ultra_restricted": false
        },
        "blocks": [
            {
                "type": "rich_text",
                "block_id": "mAp",
                "elements": [
                    {
                        "type": "rich_text_section",
                        "elements": [
                            {
                                "type": "text",
                                "text": "Why not for Medium "
                            },
                            {
                                "type": "emoji",
                                "name": "slightly_smiling_face"
                            },
                            {
                                "type": "text",
                                "text": " , Though I think we should focus on basic social media - it’s more simple and its the priority - for now. However if we find some people willing to write , then of course !"
                            }
                        ]
                    }
                ]
            }
        ],
        "thread_ts": "1585945664.261200",
        "parent_user_id": "U0103LPAWQ4",
        "reactions": [
            {
                "name": "+1::skin-tone-4",
                "users": [
                    "U0103LPAWQ4"
                ],
                "count": 1
            }
        ]
    },
    {
        "client_msg_id": "22db77c6-915a-4521-8d71-244e2e707e00",
        "type": "message",
        "text": "I create the opencovid19 accounts",
        "user": "U01019BQXM3",
        "ts": "1586032100.281800",
        "team": "TUU48M0T1",
        "user_team": "TUU48M0T1",
        "source_team": "TUU48M0T1",
        "user_profile": {
            "avatar_hash": "7e0f35d8cc55",
            "image_72": "https:\/\/avatars.slack-edge.com\/2020-03-15\/988667349730_7e0f35d8cc556cd89565_72.jpg",
            "first_name": "Marc",
            "real_name": "Marc Bokobza",
            "display_name": "Marc Bokobza",
            "team": "TUU48M0T1",
            "name": "marcbokobza1",
            "is_restricted": false,
            "is_ultra_restricted": false
        },
        "blocks": [
            {
                "type": "rich_text",
                "block_id": "Ke3",
                "elements": [
                    {
                        "type": "rich_text_section",
                        "elements": [
                            {
                                "type": "text",
                                "text": "I create the opencovid19 accounts"
                            }
                        ]
                    }
                ]
            }
        ],
        "thread_ts": "1585945664.261200",
        "parent_user_id": "U0103LPAWQ4"
    },
    {
        "client_msg_id": "09388b1b-a1aa-428d-b4f9-5c1a0dc966f1",
        "type": "message",
        "text": "not the general JOGL ones",
        "user": "U01019BQXM3",
        "ts": "1586032105.282000",
        "team": "TUU48M0T1",
        "user_team": "TUU48M0T1",
        "source_team": "TUU48M0T1",
        "user_profile": {
            "avatar_hash": "7e0f35d8cc55",
            "image_72": "https:\/\/avatars.slack-edge.com\/2020-03-15\/988667349730_7e0f35d8cc556cd89565_72.jpg",
            "first_name": "Marc",
            "real_name": "Marc Bokobza",
            "display_name": "Marc Bokobza",
            "team": "TUU48M0T1",
            "name": "marcbokobza1",
            "is_restricted": false,
            "is_ultra_restricted": false
        },
        "blocks": [
            {
                "type": "rich_text",
                "block_id": "F+L",
                "elements": [
                    {
                        "type": "rich_text_section",
                        "elements": [
                            {
                                "type": "text",
                                "text": "not the general JOGL ones"
                            }
                        ]
                    }
                ]
            }
        ],
        "thread_ts": "1585945664.261200",
        "parent_user_id": "U0103LPAWQ4"
    },
    {
        "client_msg_id": "e2a3d314-8c5f-410d-9776-086ec6e0f146",
        "type": "message",
        "text": "<!here>\nWe are officially launching the social media ! Help us gain visibility ! Follow the initiative !\nFacebook : <https:\/\/www.facebook.com\/opencovid19>\nTwitter : <https:\/\/twitter.com\/opencovid19>\nInstagram : <https:\/\/www.instagram.com\/opencovid19\/>\nLinkedIn : <https:\/\/www.linkedin.com\/company\/opencovid19\/>",
        "user": "U01019BQXM3",
        "ts": "1586035022.284300",
        "team": "TUU48M0T1",
        "user_team": "TUU48M0T1",
        "source_team": "TUU48M0T1",
        "user_profile": {
            "avatar_hash": "7e0f35d8cc55",
            "image_72": "https:\/\/avatars.slack-edge.com\/2020-03-15\/988667349730_7e0f35d8cc556cd89565_72.jpg",
            "first_name": "Marc",
            "real_name": "Marc Bokobza",
            "display_name": "Marc Bokobza",
            "team": "TUU48M0T1",
            "name": "marcbokobza1",
            "is_restricted": false,
            "is_ultra_restricted": false
        },
        "edited": {
            "user": "U01019BQXM3",
            "ts": "1586035101.000000"
        },
        "attachments": [
            {
                "title": "The OpenCovid19 Initiative :microscope: (@opencovid19) | Twitter",
                "title_link": "https:\/\/twitter.com\/opencovid19",
                "text": "The latest Tweets from The OpenCovid19 Initiative :microscope: (@opencovid19). :earth_africa: The OpenCovid19 Initiative is a giant open science 🧬 and innovation coalition that aims to fight the ongoing COVID-19 🦠 pandemic. Join now! :point_down:",
                "fallback": "The OpenCovid19 Initiative 🔬 (@opencovid19) | Twitter",
                "from_url": "https:\/\/twitter.com\/opencovid19",
                "service_icon": "https:\/\/abs.twimg.com\/icons\/apple-touch-icon-192x192.png",
                "service_name": "twitter.com",
                "id": 1,
                "original_url": "https:\/\/twitter.com\/opencovid19"
            },
            {
                "title": " Login • Instagram ",
                "title_link": "https:\/\/www.instagram.com\/opencovid19\/",
                "text": "Welcome back to Instagram. Sign in to check out what your friends, family &amp; interests have been capturing &amp; sharing around the world.",
                "fallback": " Login • Instagram ",
                "from_url": "https:\/\/www.instagram.com\/opencovid19\/",
                "service_icon": "https:\/\/www.instagram.com\/static\/images\/ico\/apple-touch-icon-76x76-precomposed.png\/666282be8229.png",
                "service_name": "instagram.com",
                "id": 2,
                "original_url": "https:\/\/www.instagram.com\/opencovid19\/"
            }
        ],
        "blocks": [
            {
                "type": "rich_text",
                "block_id": "tjfz",
                "elements": [
                    {
                        "type": "rich_text_section",
                        "elements": [
                            {
                                "type": "broadcast",
                                "range": "here"
                            },
                            {
                                "type": "text",
                                "text": "\nWe are officially launching the social media ! Help us gain visibility ! Follow the initiative !\nFacebook : "
                            },
                            {
                                "type": "link",
                                "url": "https:\/\/www.facebook.com\/opencovid19"
                            },
                            {
                                "type": "text",
                                "text": "\nTwitter : "
                            },
                            {
                                "type": "link",
                                "url": "https:\/\/twitter.com\/opencovid19"
                            },
                            {
                                "type": "text",
                                "text": "\nInstagram : "
                            },
                            {
                                "type": "link",
                                "url": "https:\/\/www.instagram.com\/opencovid19\/"
                            },
                            {
                                "type": "text",
                                "text": "\nLinkedIn : "
                            },
                            {
                                "type": "link",
                                "url": "https:\/\/www.linkedin.com\/company\/opencovid19\/"
                            }
                        ]
                    }
                ]
            }
        ],
        "reactions": [
            {
                "name": "+1",
                "users": [
                    "UV2SC7ZE3"
                ],
                "count": 1
            },
            {
                "name": "confetti_ball",
                "users": [
                    "UV9V03C8Y",
                    "U010APQC76J"
                ],
                "count": 2
            }
        ]
    },
    {
        "client_msg_id": "98e1545d-9785-44b7-8c93-eafe3a5d2481",
        "type": "message",
        "text": "<@U010APQC76J> <@U010Q3372P3> <@UV2SC7ZE3> <@U0103LPAWQ4> <@UV76CQTB4> Next posts ideas : -Present our main challenges with the nice designs on the prgm-design channel “Detect” “Prevent” “treat”",
        "user": "U01019BQXM3",
        "ts": "1586035508.285900",
        "team": "TUU48M0T1",
        "user_team": "TUU48M0T1",
        "source_team": "TUU48M0T1",
        "user_profile": {
            "avatar_hash": "7e0f35d8cc55",
            "image_72": "https:\/\/avatars.slack-edge.com\/2020-03-15\/988667349730_7e0f35d8cc556cd89565_72.jpg",
            "first_name": "Marc",
            "real_name": "Marc Bokobza",
            "display_name": "Marc Bokobza",
            "team": "TUU48M0T1",
            "name": "marcbokobza1",
            "is_restricted": false,
            "is_ultra_restricted": false
        },
        "blocks": [
            {
                "type": "rich_text",
                "block_id": "h1a",
                "elements": [
                    {
                        "type": "rich_text_section",
                        "elements": [
                            {
                                "type": "user",
                                "user_id": "U010APQC76J"
                            },
                            {
                                "type": "text",
                                "text": " "
                            },
                            {
                                "type": "user",
                                "user_id": "U010Q3372P3"
                            },
                            {
                                "type": "text",
                                "text": " "
                            },
                            {
                                "type": "user",
                                "user_id": "UV2SC7ZE3"
                            },
                            {
                                "type": "text",
                                "text": " "
                            },
                            {
                                "type": "user",
                                "user_id": "U0103LPAWQ4"
                            },
                            {
                                "type": "text",
                                "text": " "
                            },
                            {
                                "type": "user",
                                "user_id": "UV76CQTB4"
                            },
                            {
                                "type": "text",
                                "text": " Next posts ideas : -Present our main challenges with the nice designs on the prgm-design channel “Detect” “Prevent” “treat”"
                            }
                        ]
                    }
                ]
            }
        ],
        "reactions": [
            {
                "name": "+1",
                "users": [
                    "UV2SC7ZE3"
                ],
                "count": 1
            }
        ]
    },
    {
        "client_msg_id": "835fd839-285c-409c-ade5-19329e3ffa54",
        "type": "message",
        "text": "DavidS (xD) yes it could be possible, however, we currently do not have a good UX. It is in the plans, it will be done eventually. In the mean time I am happy to adapt it on a per request basis for a few projects if you want.\n\n<@UV9V03C8Y> Yes it is ok to use peoples avatar (they uploaded it and agreed to the term and conditions of JOGL which does state that we can use this kind of information for communication, we can't profit from it though, but I don't see why or how we'd do this as an NGO anyway ...)\n\nAlso, anything that comes from me is  always going to be at worst Creative Common 4.0 Y-NC-SA. With most things I do being CC0.",
        "user": "UVC9WMA7N",
        "ts": "1586035829.286100",
        "team": "TUU48M0T1",
        "user_team": "TUU48M0T1",
        "source_team": "TUU48M0T1",
        "user_profile": {
            "avatar_hash": "56d14d58ed53",
            "image_72": "https:\/\/avatars.slack-edge.com\/2020-03-13\/998337892660_56d14d58ed537e6e4654_72.png",
            "first_name": "Leo",
            "real_name": "Leo Blondel",
            "display_name": "Leo Blondel - JOGL CoFounder \/ CTO",
            "team": "TUU48M0T1",
            "name": "leo",
            "is_restricted": false,
            "is_ultra_restricted": false
        },
        "blocks": [
            {
                "type": "rich_text",
                "block_id": "7ET",
                "elements": [
                    {
                        "type": "rich_text_section",
                        "elements": [
                            {
                                "type": "text",
                                "text": "DavidS (xD) yes it could be possible, however, we currently do not have a good UX. It is in the plans, it will be done eventually. In the mean time I am happy to adapt it on a per request basis for a few projects if you want.\n\n"
                            },
                            {
                                "type": "user",
                                "user_id": "UV9V03C8Y"
                            },
                            {
                                "type": "text",
                                "text": " Yes it is ok to use peoples avatar (they uploaded it and agreed to the term and conditions of JOGL which does state that we can use this kind of information for communication, we can't profit from it though, but I don't see why or how we'd do this as an NGO anyway ...)\n\nAlso, anything that comes from me is  always going to be at worst Creative Common 4.0 Y-NC-SA. With most things I do being CC0."
                            }
                        ]
                    }
                ]
            }
        ],
        "thread_ts": "1586009286.268900",
        "parent_user_id": "UV2SC7ZE3",
        "reactions": [
            {
                "name": "+1",
                "users": [
                    "UV02WET96",
                    "U010Q3372P3",
                    "U010APQC76J"
                ],
                "count": 3
            }
        ]
    },
    {
        "client_msg_id": "6aa9b73b-0416-4b89-a014-8b9c36640b47",
        "type": "message",
        "text": "Happy to try to get you guys Data vizuals if they don't require too much work. I am a DataScientist before I am a CTO ^^ so is Marc !\n\nDon't hesitate to ping the MetaStudy peeps for cool dataviz",
        "user": "UVC9WMA7N",
        "ts": "1586035915.287400",
        "team": "TUU48M0T1",
        "user_team": "TUU48M0T1",
        "source_team": "TUU48M0T1",
        "user_profile": {
            "avatar_hash": "56d14d58ed53",
            "image_72": "https:\/\/avatars.slack-edge.com\/2020-03-13\/998337892660_56d14d58ed537e6e4654_72.png",
            "first_name": "Leo",
            "real_name": "Leo Blondel",
            "display_name": "Leo Blondel - JOGL CoFounder \/ CTO",
            "team": "TUU48M0T1",
            "name": "leo",
            "is_restricted": false,
            "is_ultra_restricted": false
        },
        "blocks": [
            {
                "type": "rich_text",
                "block_id": "KL6",
                "elements": [
                    {
                        "type": "rich_text_section",
                        "elements": [
                            {
                                "type": "text",
                                "text": "Happy to try to get you guys Data vizuals if they don't require too much work. I am a DataScientist before I am a CTO ^^ so is Marc !\n\nDon't hesitate to ping the MetaStudy peeps for cool dataviz"
                            }
                        ]
                    }
                ]
            }
        ],
        "thread_ts": "1586035915.287400",
        "reply_count": 4,
        "reply_users_count": 2,
        "latest_reply": "1586048755.289300",
        "reply_users": [
            "U0103LPAWQ4",
            "UVC9WMA7N"
        ],
        "replies": [
            {
                "user": "U0103LPAWQ4",
                "ts": "1586038999.288200"
            },
            {
                "user": "UVC9WMA7N",
                "ts": "1586043523.288800"
            },
            {
                "user": "UVC9WMA7N",
                "ts": "1586043606.289000"
            },
            {
                "user": "U0103LPAWQ4",
                "ts": "1586048755.289300"
            }
        ],
        "subscribed": false,
        "reactions": [
            {
                "name": "+1",
                "users": [
                    "UV2SC7ZE3",
                    "U0103LPAWQ4",
                    "UV9V03C8Y"
                ],
                "count": 3
            }
        ]
    },
    {
        "client_msg_id": "E0D5A150-37B6-4CB7-9A7E-D3C12D7A645E",
        "type": "message",
        "text": "Yes ! Thanks <@UVC9WMA7N> !",
        "user": "U01019BQXM3",
        "ts": "1586037745.288000",
        "team": "TUU48M0T1",
        "user_team": "TUU48M0T1",
        "source_team": "TUU48M0T1",
        "user_profile": {
            "avatar_hash": "7e0f35d8cc55",
            "image_72": "https:\/\/avatars.slack-edge.com\/2020-03-15\/988667349730_7e0f35d8cc556cd89565_72.jpg",
            "first_name": "Marc",
            "real_name": "Marc Bokobza",
            "display_name": "Marc Bokobza",
            "team": "TUU48M0T1",
            "name": "marcbokobza1",
            "is_restricted": false,
            "is_ultra_restricted": false
        },
        "blocks": [
            {
                "type": "rich_text",
                "block_id": "vM+",
                "elements": [
                    {
                        "type": "rich_text_section",
                        "elements": [
                            {
                                "type": "text",
                                "text": "Yes ! Thanks "
                            },
                            {
                                "type": "user",
                                "user_id": "UVC9WMA7N"
                            },
                            {
                                "type": "text",
                                "text": " !"
                            }
                        ]
                    }
                ]
            }
        ]
    },
    {
        "client_msg_id": "abe84940-3ca0-4cd5-9235-213bfe96afe6",
        "type": "message",
        "text": "Hi <@UVC9WMA7N>\nI'm learning Python and analyzing twitter data for an assessment this weekend.  As I was working on my Jupyter notebook, I was just thinking about whether these skills would help with data analysis here.\nI am happy to know that there are other more experienced data scientists who could help with this because it would definitely help the communications team.",
        "user": "U0103LPAWQ4",
        "ts": "1586038999.288200",
        "team": "TUU48M0T1",
        "user_team": "TUU48M0T1",
        "source_team": "TUU48M0T1",
        "user_profile": {
            "avatar_hash": "7b345029e813",
            "image_72": "https:\/\/avatars.slack-edge.com\/2020-03-17\/1004213082549_7b345029e8137cbdc6b0_72.jpg",
            "first_name": "Bre",
            "real_name": "Bre",
            "display_name": "Bre",
            "team": "TUU48M0T1",
            "name": "info",
            "is_restricted": false,
            "is_ultra_restricted": false
        },
        "edited": {
            "user": "U0103LPAWQ4",
            "ts": "1586039090.000000"
        },
        "blocks": [
            {
                "type": "rich_text",
                "block_id": "fld",
                "elements": [
                    {
                        "type": "rich_text_section",
                        "elements": [
                            {
                                "type": "text",
                                "text": "Hi "
                            },
                            {
                                "type": "user",
                                "user_id": "UVC9WMA7N"
                            },
                            {
                                "type": "text",
                                "text": "\nI'm learning Python and analyzing twitter data for an assessment this weekend.  As I was working on my Jupyter notebook, I was just thinking about whether these skills would help with data analysis here.\nI am happy to know that there are other more experienced data scientists who could help with this because it would definitely help the communications team."
                            }
                        ]
                    }
                ]
            }
        ],
        "thread_ts": "1586035915.287400",
        "parent_user_id": "UVC9WMA7N"
    },
    {
        "client_msg_id": "a44fd424-c46e-402d-8e3d-aed71107844e",
        "type": "message",
        "text": "hi <@U0103LPAWQ4> skills are always welcome :smile:\n\nI am currently working towards setting up jupyter hub for JOGL people\n\nAlso, <@UV85V64SD> is currently working on creating a Data Analytics Challenge so keep an eye out for this.\nOtherwise, <#CV48ZESEP|prgm-metastudy-team> is where you want to go :wink:",
        "user": "UVC9WMA7N",
        "ts": "1586043523.288800",
        "team": "TUU48M0T1",
        "user_team": "TUU48M0T1",
        "source_team": "TUU48M0T1",
        "user_profile": {
            "avatar_hash": "56d14d58ed53",
            "image_72": "https:\/\/avatars.slack-edge.com\/2020-03-13\/998337892660_56d14d58ed537e6e4654_72.png",
            "first_name": "Leo",
            "real_name": "Leo Blondel",
            "display_name": "Leo Blondel - JOGL CoFounder \/ CTO",
            "team": "TUU48M0T1",
            "name": "leo",
            "is_restricted": false,
            "is_ultra_restricted": false
        },
        "blocks": [
            {
                "type": "rich_text",
                "block_id": "m+HWz",
                "elements": [
                    {
                        "type": "rich_text_section",
                        "elements": [
                            {
                                "type": "text",
                                "text": "hi "
                            },
                            {
                                "type": "user",
                                "user_id": "U0103LPAWQ4"
                            },
                            {
                                "type": "text",
                                "text": " skills are always welcome "
                            },
                            {
                                "type": "emoji",
                                "name": "smile"
                            },
                            {
                                "type": "text",
                                "text": "\n\nI am currently working towards setting up jupyter hub for JOGL people\n\nAlso, "
                            },
                            {
                                "type": "user",
                                "user_id": "UV85V64SD"
                            },
                            {
                                "type": "text",
                                "text": " is currently working on creating a Data Analytics Challenge so keep an eye out for this.\nOtherwise, "
                            },
                            {
                                "type": "channel",
                                "channel_id": "CV48ZESEP"
                            },
                            {
                                "type": "text",
                                "text": " is where you want to go "
                            },
                            {
                                "type": "emoji",
                                "name": "wink"
                            }
                        ]
                    }
                ]
            }
        ],
        "thread_ts": "1586035915.287400",
        "parent_user_id": "UVC9WMA7N",
        "reactions": [
            {
                "name": "+1::skin-tone-4",
                "users": [
                    "U0103LPAWQ4"
                ],
                "count": 1
            }
        ]
    },
    {
        "client_msg_id": "fd2d7a00-ef1f-4f99-abf6-90fb656538f3",
        "type": "message",
        "text": "I'll keep you in mind if I see something popping up that might require your skills !\n\nIn the mean time, if you already know Bokeh, maybe you could try your skills are doing a little Bokeh dataviz of JOGL projects \/ Users using our API ?\n\nHappy to guide you through our API if you have questions, just DM me",
        "user": "UVC9WMA7N",
        "ts": "1586043606.289000",
        "team": "TUU48M0T1",
        "user_team": "TUU48M0T1",
        "source_team": "TUU48M0T1",
        "user_profile": {
            "avatar_hash": "56d14d58ed53",
            "image_72": "https:\/\/avatars.slack-edge.com\/2020-03-13\/998337892660_56d14d58ed537e6e4654_72.png",
            "first_name": "Leo",
            "real_name": "Leo Blondel",
            "display_name": "Leo Blondel - JOGL CoFounder \/ CTO",
            "team": "TUU48M0T1",
            "name": "leo",
            "is_restricted": false,
            "is_ultra_restricted": false
        },
        "blocks": [
            {
                "type": "rich_text",
                "block_id": "j664",
                "elements": [
                    {
                        "type": "rich_text_section",
                        "elements": [
                            {
                                "type": "text",
                                "text": "I'll keep you in mind if I see something popping up that might require your skills !\n\nIn the mean time, if you already know Bokeh, maybe you could try your skills are doing a little Bokeh dataviz of JOGL projects \/ Users using our API ?\n\nHappy to guide you through our API if you have questions, just DM me"
                            }
                        ]
                    }
                ]
            }
        ],
        "thread_ts": "1586035915.287400",
        "parent_user_id": "UVC9WMA7N"
    },
    {
        "client_msg_id": "716b0ea2-6044-49df-a577-b42bc4b44e0f",
        "type": "message",
        "text": "I'm new to Python and data analyses (like 5 weeks) so I would probably need guidance\/explicit instruction in order to help. Just being honest.  Joining metastudy now.",
        "user": "U0103LPAWQ4",
        "ts": "1586048755.289300",
        "team": "TUU48M0T1",
        "user_team": "TUU48M0T1",
        "source_team": "TUU48M0T1",
        "user_profile": {
            "avatar_hash": "7b345029e813",
            "image_72": "https:\/\/avatars.slack-edge.com\/2020-03-17\/1004213082549_7b345029e8137cbdc6b0_72.jpg",
            "first_name": "Bre",
            "real_name": "Bre",
            "display_name": "Bre",
            "team": "TUU48M0T1",
            "name": "info",
            "is_restricted": false,
            "is_ultra_restricted": false
        },
        "blocks": [
            {
                "type": "rich_text",
                "block_id": "Y4Pr",
                "elements": [
                    {
                        "type": "rich_text_section",
                        "elements": [
                            {
                                "type": "text",
                                "text": "I'm new to Python and data analyses (like 5 weeks) so I would probably need guidance\/explicit instruction in order to help. Just being honest.  Joining metastudy now."
                            }
                        ]
                    }
                ]
            }
        ],
        "thread_ts": "1586035915.287400",
        "parent_user_id": "UVC9WMA7N"
    }
]