[
    {
        "client_msg_id": "08357fbe-3e65-45b0-8336-94233fbbe6b9",
        "type": "message",
        "text": "hi comms team -- I would like some personal advice about getting op-eds published in Europe. does anybody have some experience with that, and would they be willing to DM me and have a chat??? thank you, and thank you for all the amazing work this channel does!!",
        "user": "UV87UQ37A",
        "ts": "1587743863.159800",
        "team": "TUU48M0T1",
        "user_team": "TUU48M0T1",
        "source_team": "TUU48M0T1",
        "user_profile": {
            "avatar_hash": "g7c78d2f0258",
            "image_72": "https:\/\/secure.gravatar.com\/avatar\/7c78d2f0258f7bdf78a86301cfd6b712.jpg?s=72&d=https%3A%2F%2Fa.slack-edge.com%2Fdf10d%2Fimg%2Favatars%2Fava_0014-72.png",
            "first_name": "Victoria",
            "real_name": "Victoria Costa",
            "display_name": "Victoria Costa",
            "team": "TUU48M0T1",
            "name": "victorycoast",
            "is_restricted": false,
            "is_ultra_restricted": false
        },
        "blocks": [
            {
                "type": "rich_text",
                "block_id": "ERrb",
                "elements": [
                    {
                        "type": "rich_text_section",
                        "elements": [
                            {
                                "type": "text",
                                "text": "hi comms team -- I would like some personal advice about getting op-eds published in Europe. does anybody have some experience with that, and would they be willing to DM me and have a chat??? thank you, and thank you for all the amazing work this channel does!!"
                            }
                        ]
                    }
                ]
            }
        ]
    },
    {
        "client_msg_id": "ca406f31-5b4b-4ebb-8874-48e52b2116d6",
        "type": "message",
        "text": "A press kit would be awesome! Where are we with that? Maybe we can continue building around the one pager I desgined for previous partners!",
        "user": "UV9V03C8Y",
        "ts": "1587745628.159900",
        "team": "TUU48M0T1",
        "user_team": "TUU48M0T1",
        "source_team": "TUU48M0T1",
        "user_profile": {
            "avatar_hash": "177697fb7b8f",
            "image_72": "https:\/\/avatars.slack-edge.com\/2020-03-12\/996126178096_177697fb7b8ffa57649c_72.jpg",
            "first_name": "Camille",
            "real_name": "Camille Masselot - JOGL Program coordinator",
            "display_name": "Camille Masselot - JOGL coordinator",
            "team": "TUU48M0T1",
            "name": "masselot.camille",
            "is_restricted": false,
            "is_ultra_restricted": false
        },
        "blocks": [
            {
                "type": "rich_text",
                "block_id": "kkKb",
                "elements": [
                    {
                        "type": "rich_text_section",
                        "elements": [
                            {
                                "type": "text",
                                "text": "A press kit would be awesome! Where are we with that? Maybe we can continue building around the one pager I desgined for previous partners!"
                            }
                        ]
                    }
                ]
            }
        ],
        "thread_ts": "1587665234.157200",
        "parent_user_id": "U010Q3372P3"
    },
    {
        "client_msg_id": "07422f3d-21a6-4b85-9c13-d3bf258e10e7",
        "type": "message",
        "text": "Hey all. I don't think I can make the comms meeting today. I have a few exams that I need to take.",
        "user": "UV2SC7ZE3",
        "ts": "1587747312.162000",
        "team": "TUU48M0T1",
        "user_team": "TUU48M0T1",
        "source_team": "TUU48M0T1",
        "user_profile": {
            "avatar_hash": "d28dd0d076e8",
            "image_72": "https:\/\/avatars.slack-edge.com\/2020-03-14\/987873094258_d28dd0d076e8fa9a8409_72.png",
            "first_name": "David",
            "real_name": "David Lu",
            "display_name": "David Lu",
            "team": "TUU48M0T1",
            "name": "ludavidyi",
            "is_restricted": false,
            "is_ultra_restricted": false
        },
        "blocks": [
            {
                "type": "rich_text",
                "block_id": "Vpq7",
                "elements": [
                    {
                        "type": "rich_text_section",
                        "elements": [
                            {
                                "type": "text",
                                "text": "Hey all. I don't think I can make the comms meeting today. I have a few exams that I need to take."
                            }
                        ]
                    }
                ]
            }
        ],
        "thread_ts": "1587747312.162000",
        "reply_count": 7,
        "reply_users_count": 4,
        "latest_reply": "1587926022.164200",
        "reply_users": [
            "U011VF29MK2",
            "UV2SC7ZE3",
            "U010Q3372P3",
            "UV02WET96"
        ],
        "replies": [
            {
                "user": "U011VF29MK2",
                "ts": "1587750241.162100"
            },
            {
                "user": "UV2SC7ZE3",
                "ts": "1587750317.162300"
            },
            {
                "user": "U011VF29MK2",
                "ts": "1587750584.162500"
            },
            {
                "user": "U010Q3372P3",
                "ts": "1587862694.163200"
            },
            {
                "user": "UV2SC7ZE3",
                "ts": "1587870312.163400"
            },
            {
                "user": "U010Q3372P3",
                "ts": "1587925644.163700"
            },
            {
                "user": "UV02WET96",
                "ts": "1587926022.164200"
            }
        ],
        "subscribed": false
    },
    {
        "client_msg_id": "821155f9-dc76-42af-80e2-c488c49ebb9b",
        "type": "message",
        "text": "<@UV2SC7ZE3> <@U010Q3372P3> <@UV9V03C8Y> does anyone have anything to cover today? Should we cancel?",
        "user": "U011VF29MK2",
        "ts": "1587750241.162100",
        "team": "TUU48M0T1",
        "user_team": "TUU48M0T1",
        "source_team": "TUU48M0T1",
        "user_profile": {
            "avatar_hash": "0ef0287e69f4",
            "image_72": "https:\/\/avatars.slack-edge.com\/2020-04-07\/1045707527815_0ef0287e69f4d3296eaf_72.jpg",
            "first_name": "Catherine",
            "real_name": "Catherine Coykendall",
            "display_name": "Catherine Coykendall - Marketing Consultant",
            "team": "TUU48M0T1",
            "name": "c.coyken1978",
            "is_restricted": false,
            "is_ultra_restricted": false
        },
        "blocks": [
            {
                "type": "rich_text",
                "block_id": "NEx",
                "elements": [
                    {
                        "type": "rich_text_section",
                        "elements": [
                            {
                                "type": "user",
                                "user_id": "UV2SC7ZE3"
                            },
                            {
                                "type": "text",
                                "text": " "
                            },
                            {
                                "type": "user",
                                "user_id": "U010Q3372P3"
                            },
                            {
                                "type": "text",
                                "text": " "
                            },
                            {
                                "type": "user",
                                "user_id": "UV9V03C8Y"
                            },
                            {
                                "type": "text",
                                "text": " does anyone have anything to cover today? Should we cancel?"
                            }
                        ]
                    }
                ]
            }
        ],
        "thread_ts": "1587747312.162000",
        "parent_user_id": "UV2SC7ZE3"
    },
    {
        "client_msg_id": "fba6f6c5-739f-4228-af5d-500ac4152f30",
        "type": "message",
        "text": "Potentially... Fridays at  8 pm CET don't seem to work for a lot of people. Did you have something you wanted to share <@U011VF29MK2>? Are you working on the social media strategy?",
        "user": "UV2SC7ZE3",
        "ts": "1587750317.162300",
        "team": "TUU48M0T1",
        "user_team": "TUU48M0T1",
        "source_team": "TUU48M0T1",
        "user_profile": {
            "avatar_hash": "d28dd0d076e8",
            "image_72": "https:\/\/avatars.slack-edge.com\/2020-03-14\/987873094258_d28dd0d076e8fa9a8409_72.png",
            "first_name": "David",
            "real_name": "David Lu",
            "display_name": "David Lu",
            "team": "TUU48M0T1",
            "name": "ludavidyi",
            "is_restricted": false,
            "is_ultra_restricted": false
        },
        "blocks": [
            {
                "type": "rich_text",
                "block_id": "ND\/j",
                "elements": [
                    {
                        "type": "rich_text_section",
                        "elements": [
                            {
                                "type": "text",
                                "text": "Potentially... Fridays at  8 pm CET don't seem to work for a lot of people. Did you have something you wanted to share "
                            },
                            {
                                "type": "user",
                                "user_id": "U011VF29MK2"
                            },
                            {
                                "type": "text",
                                "text": "? Are you working on the social media strategy?"
                            }
                        ]
                    }
                ]
            }
        ],
        "thread_ts": "1587747312.162000",
        "parent_user_id": "UV2SC7ZE3"
    },
    {
        "client_msg_id": "9c177001-f15c-4d7f-b4f9-b108d9a6360d",
        "type": "message",
        "text": "Hi David, I have some requests out there for the social data to build the intro - but I've got things rolling so I don't have anything to share today.",
        "user": "U011VF29MK2",
        "ts": "1587750584.162500",
        "team": "TUU48M0T1",
        "user_team": "TUU48M0T1",
        "source_team": "TUU48M0T1",
        "user_profile": {
            "avatar_hash": "0ef0287e69f4",
            "image_72": "https:\/\/avatars.slack-edge.com\/2020-04-07\/1045707527815_0ef0287e69f4d3296eaf_72.jpg",
            "first_name": "Catherine",
            "real_name": "Catherine Coykendall",
            "display_name": "Catherine Coykendall - Marketing Consultant",
            "team": "TUU48M0T1",
            "name": "c.coyken1978",
            "is_restricted": false,
            "is_ultra_restricted": false
        },
        "blocks": [
            {
                "type": "rich_text",
                "block_id": "I69I",
                "elements": [
                    {
                        "type": "rich_text_section",
                        "elements": [
                            {
                                "type": "text",
                                "text": "Hi David, I have some requests out there for the social data to build the intro - but I've got things rolling so I don't have anything to share today."
                            }
                        ]
                    }
                ]
            }
        ],
        "thread_ts": "1587747312.162000",
        "parent_user_id": "UV2SC7ZE3",
        "reactions": [
            {
                "name": "+1",
                "users": [
                    "UV2SC7ZE3"
                ],
                "count": 1
            }
        ]
    },
    {
        "client_msg_id": "32271ef3-68a1-44b9-ad3d-db46943b98da",
        "type": "message",
        "text": "Hey, is the comm' meeting still on tonight?",
        "user": "UV9V03C8Y",
        "ts": "1587751188.163000",
        "team": "TUU48M0T1",
        "user_team": "TUU48M0T1",
        "source_team": "TUU48M0T1",
        "user_profile": {
            "avatar_hash": "177697fb7b8f",
            "image_72": "https:\/\/avatars.slack-edge.com\/2020-03-12\/996126178096_177697fb7b8ffa57649c_72.jpg",
            "first_name": "Camille",
            "real_name": "Camille Masselot - JOGL Program coordinator",
            "display_name": "Camille Masselot - JOGL coordinator",
            "team": "TUU48M0T1",
            "name": "masselot.camille",
            "is_restricted": false,
            "is_ultra_restricted": false
        },
        "blocks": [
            {
                "type": "rich_text",
                "block_id": "rBebF",
                "elements": [
                    {
                        "type": "rich_text_section",
                        "elements": [
                            {
                                "type": "text",
                                "text": "Hey, is the comm' meeting still on tonight?"
                            }
                        ]
                    }
                ]
            }
        ]
    }
]