[
    {
        "client_msg_id": "c73ddaf6-d5e8-4fe6-a8b3-2198108a0317",
        "type": "message",
        "text": "Hi David, thank you! <@UV02WET96> you can set me up in the account, I belive by adding my email to an invite, my email address is <mailto:kathryn.rowe@roweintermedia.com|kathryn.rowe@roweintermedia.com> thank you for setting this up for us. Catherine’s email is <mailto:c.coyken1978@gmail.com|c.coyken1978@gmail.com>",
        "user": "U010Q3372P3",
        "ts": "1587925644.163700",
        "team": "TUU48M0T1",
        "user_team": "TUU48M0T1",
        "source_team": "TUU48M0T1",
        "user_profile": {
            "avatar_hash": "95066184973b",
            "image_72": "https:\/\/avatars.slack-edge.com\/2020-03-30\/1036274198128_95066184973b1de50d1a_72.png",
            "first_name": "Kathryn",
            "real_name": "Kathryn Rowe",
            "display_name": "Kathryn Rowe",
            "team": "TUU48M0T1",
            "name": "kathryn.rowe",
            "is_restricted": false,
            "is_ultra_restricted": false
        },
        "blocks": [
            {
                "type": "rich_text",
                "block_id": "eRTQ6",
                "elements": [
                    {
                        "type": "rich_text_section",
                        "elements": [
                            {
                                "type": "text",
                                "text": "Hi David, thank you! "
                            },
                            {
                                "type": "user",
                                "user_id": "UV02WET96"
                            },
                            {
                                "type": "text",
                                "text": " you can set me up in the account, I belive by adding my email to an invite, my email address is "
                            },
                            {
                                "type": "link",
                                "url": "mailto:kathryn.rowe@roweintermedia.com",
                                "text": "kathryn.rowe@roweintermedia.com"
                            },
                            {
                                "type": "text",
                                "text": " thank you for setting this up for us. Catherine’s email is "
                            },
                            {
                                "type": "link",
                                "url": "mailto:c.coyken1978@gmail.com",
                                "text": "c.coyken1978@gmail.com"
                            }
                        ]
                    }
                ]
            }
        ],
        "thread_ts": "1587747312.162000",
        "parent_user_id": "UV2SC7ZE3"
    },
    {
        "client_msg_id": "586454D8-63E5-4497-BBFB-A8A14BA683B9",
        "type": "message",
        "text": "Hi Kathryn, I’ll do that :)",
        "user": "UV02WET96",
        "ts": "1587926022.164200",
        "team": "TUU48M0T1",
        "user_team": "TUU48M0T1",
        "source_team": "TUU48M0T1",
        "user_profile": {
            "avatar_hash": "a99c74a194f8",
            "image_72": "https:\/\/avatars.slack-edge.com\/2020-03-07\/975708504851_a99c74a194f86715ca7d_72.png",
            "first_name": "Thomas",
            "real_name": "Thomas Landrain",
            "display_name": "Thomas Landrain - JOGL CoFounder \/ CEO",
            "team": "TUU48M0T1",
            "name": "thomas",
            "is_restricted": false,
            "is_ultra_restricted": false
        },
        "blocks": [
            {
                "type": "rich_text",
                "block_id": "\/jQ",
                "elements": [
                    {
                        "type": "rich_text_section",
                        "elements": [
                            {
                                "type": "text",
                                "text": "Hi Kathryn, I’ll do that :)"
                            }
                        ]
                    }
                ]
            }
        ],
        "thread_ts": "1587747312.162000",
        "parent_user_id": "UV2SC7ZE3"
    },
    {
        "client_msg_id": "ae944665-51f4-48f3-953c-c2adb10c40b9",
        "type": "message",
        "text": "<@U010APQC76J> <@U01019BQXM3> Hope you're having a good weekend. I'm trying to get access to the performance data for both JOGL and Covid's social media presence, looking for performance from launch of the page to date for both JOGL and Covid's Facebook, Twitter, LinkedIn, and Instagram...I need all of this data to build a digital brand strategy presentation - is this something you would be able to pull for me? Or direct me to who's able to? Many thanks.",
        "user": "U011VF29MK2",
        "ts": "1587929932.168200",
        "team": "TUU48M0T1",
        "user_team": "TUU48M0T1",
        "source_team": "TUU48M0T1",
        "user_profile": {
            "avatar_hash": "0ef0287e69f4",
            "image_72": "https:\/\/avatars.slack-edge.com\/2020-04-07\/1045707527815_0ef0287e69f4d3296eaf_72.jpg",
            "first_name": "Catherine",
            "real_name": "Catherine Coykendall",
            "display_name": "Catherine Coykendall - Marketing Consultant",
            "team": "TUU48M0T1",
            "name": "c.coyken1978",
            "is_restricted": false,
            "is_ultra_restricted": false
        },
        "blocks": [
            {
                "type": "rich_text",
                "block_id": "hL91",
                "elements": [
                    {
                        "type": "rich_text_section",
                        "elements": [
                            {
                                "type": "user",
                                "user_id": "U010APQC76J"
                            },
                            {
                                "type": "text",
                                "text": " "
                            },
                            {
                                "type": "user",
                                "user_id": "U01019BQXM3"
                            },
                            {
                                "type": "text",
                                "text": " Hope you're having a good weekend. I'm trying to get access to the performance data for both JOGL and Covid's social media presence, looking for performance from launch of the page to date for both JOGL and Covid's Facebook, Twitter, LinkedIn, and Instagram...I need all of this data to build a digital brand strategy presentation - is this something you would be able to pull for me? Or direct me to who's able to? Many thanks."
                            }
                        ]
                    }
                ]
            }
        ],
        "thread_ts": "1587929932.168200",
        "reply_count": 2,
        "reply_users_count": 2,
        "latest_reply": "1587993553.170000",
        "reply_users": [
            "UV0QTJCMT",
            "U011VF29MK2"
        ],
        "replies": [
            {
                "user": "UV0QTJCMT",
                "ts": "1587953325.169000"
            },
            {
                "user": "U011VF29MK2",
                "ts": "1587993553.170000"
            }
        ],
        "subscribed": false
    },
    {
        "client_msg_id": "a77d7a93-6be2-42ef-9977-d491021adf2b",
        "type": "message",
        "text": "Hi <@UV85V64SD> I went through the slides today, all of this is terrific to have do you have time for a 30 mins call on Monday? Let me know what works, I have a commitment from 3-4 Central Standard Time in the US, but can accommodate anything else.",
        "user": "U011VF29MK2",
        "ts": "1587931023.168300",
        "team": "TUU48M0T1",
        "user_team": "TUU48M0T1",
        "source_team": "TUU48M0T1",
        "user_profile": {
            "avatar_hash": "0ef0287e69f4",
            "image_72": "https:\/\/avatars.slack-edge.com\/2020-04-07\/1045707527815_0ef0287e69f4d3296eaf_72.jpg",
            "first_name": "Catherine",
            "real_name": "Catherine Coykendall",
            "display_name": "Catherine Coykendall - Marketing Consultant",
            "team": "TUU48M0T1",
            "name": "c.coyken1978",
            "is_restricted": false,
            "is_ultra_restricted": false
        },
        "blocks": [
            {
                "type": "rich_text",
                "block_id": "lQ5e",
                "elements": [
                    {
                        "type": "rich_text_section",
                        "elements": [
                            {
                                "type": "text",
                                "text": "Hi "
                            },
                            {
                                "type": "user",
                                "user_id": "UV85V64SD"
                            },
                            {
                                "type": "text",
                                "text": " I went through the slides today, all of this is terrific to have do you have time for a 30 mins call on Monday? Let me know what works, I have a commitment from 3-4 Central Standard Time in the US, but can accommodate anything else."
                            }
                        ]
                    }
                ]
            }
        ],
        "thread_ts": "1587553292.133200",
        "parent_user_id": "UV85V64SD"
    },
    {
        "client_msg_id": "C2D475F8-624F-4635-B0E9-1C3A3206D34D",
        "type": "message",
        "text": "<@UV85V64SD> would probably be the one to ask about jogl data",
        "user": "UV0QTJCMT",
        "ts": "1587953325.169000",
        "team": "TUU48M0T1",
        "user_team": "TUU48M0T1",
        "source_team": "TUU48M0T1",
        "user_profile": {
            "avatar_hash": "06a6ae8f69d1",
            "image_72": "https:\/\/avatars.slack-edge.com\/2020-04-13\/1060635499315_06a6ae8f69d18f1ad464_72.png",
            "first_name": "Katherine",
            "real_name": "Katherine Holo",
            "display_name": "Kat Holo - Co-Organizer of OpenCOVID19",
            "team": "TUU48M0T1",
            "name": "katherineh245",
            "is_restricted": false,
            "is_ultra_restricted": false
        },
        "blocks": [
            {
                "type": "rich_text",
                "block_id": "kCoy",
                "elements": [
                    {
                        "type": "rich_text_section",
                        "elements": [
                            {
                                "type": "user",
                                "user_id": "UV85V64SD"
                            },
                            {
                                "type": "text",
                                "text": " would probably be the one to ask about jogl data"
                            }
                        ]
                    }
                ]
            }
        ],
        "thread_ts": "1587929932.168200",
        "parent_user_id": "U011VF29MK2"
    }
]