[
    {
        "client_msg_id": "f5f38b17-1b21-42e1-ab57-480f0bbdc8a9",
        "type": "message",
        "text": "<!channel> Team, do we have a  new zoom dial in now that Zoom has required a password to enter?",
        "user": "U010Q3372P3",
        "ts": "1586181895.301400",
        "team": "TUU48M0T1",
        "user_team": "TUU48M0T1",
        "source_team": "TUU48M0T1",
        "user_profile": {
            "avatar_hash": "95066184973b",
            "image_72": "https:\/\/avatars.slack-edge.com\/2020-03-30\/1036274198128_95066184973b1de50d1a_72.png",
            "first_name": "Kathryn",
            "real_name": "Kathryn Rowe",
            "display_name": "Kathryn Rowe",
            "team": "TUU48M0T1",
            "name": "kathryn.rowe",
            "is_restricted": false,
            "is_ultra_restricted": false
        },
        "edited": {
            "user": "U010Q3372P3",
            "ts": "1586181930.000000"
        },
        "blocks": [
            {
                "type": "rich_text",
                "block_id": "=DL4Q",
                "elements": [
                    {
                        "type": "rich_text_section",
                        "elements": [
                            {
                                "type": "broadcast",
                                "range": "channel"
                            },
                            {
                                "type": "text",
                                "text": " Team, do we have a  new zoom dial in now that Zoom has required a password to enter?"
                            }
                        ]
                    }
                ]
            }
        ],
        "thread_ts": "1586181895.301400",
        "reply_count": 5,
        "reply_users_count": 3,
        "latest_reply": "1586182633.302900",
        "reply_users": [
            "UV2SC7ZE3",
            "U010Q3372P3",
            "UV02WET96"
        ],
        "replies": [
            {
                "user": "UV2SC7ZE3",
                "ts": "1586181989.301600"
            },
            {
                "user": "UV2SC7ZE3",
                "ts": "1586182011.301800"
            },
            {
                "user": "UV2SC7ZE3",
                "ts": "1586182039.302000"
            },
            {
                "user": "U010Q3372P3",
                "ts": "1586182057.302200"
            },
            {
                "user": "UV02WET96",
                "ts": "1586182633.302900"
            }
        ],
        "subscribed": false
    },
    {
        "client_msg_id": "13cb76c9-b6e5-428b-8baa-67808dfc3351",
        "type": "message",
        "text": "Are you trying to join the governance meeting right now?",
        "user": "UV2SC7ZE3",
        "ts": "1586181989.301600",
        "team": "TUU48M0T1",
        "user_team": "TUU48M0T1",
        "source_team": "TUU48M0T1",
        "user_profile": {
            "avatar_hash": "d28dd0d076e8",
            "image_72": "https:\/\/avatars.slack-edge.com\/2020-03-14\/987873094258_d28dd0d076e8fa9a8409_72.png",
            "first_name": "David",
            "real_name": "David Lu",
            "display_name": "David Lu",
            "team": "TUU48M0T1",
            "name": "ludavidyi",
            "is_restricted": false,
            "is_ultra_restricted": false
        },
        "blocks": [
            {
                "type": "rich_text",
                "block_id": "reTC",
                "elements": [
                    {
                        "type": "rich_text_section",
                        "elements": [
                            {
                                "type": "text",
                                "text": "Are you trying to join the governance meeting right now?"
                            }
                        ]
                    }
                ]
            }
        ],
        "thread_ts": "1586181895.301400",
        "parent_user_id": "U010Q3372P3"
    },
    {
        "client_msg_id": "d95c6b49-4e8f-4ac6-9f4a-d9807b61cbcf",
        "type": "message",
        "text": "If so, the prgm-governance-team has a zoom link with no password to join",
        "user": "UV2SC7ZE3",
        "ts": "1586182011.301800",
        "team": "TUU48M0T1",
        "user_team": "TUU48M0T1",
        "source_team": "TUU48M0T1",
        "user_profile": {
            "avatar_hash": "d28dd0d076e8",
            "image_72": "https:\/\/avatars.slack-edge.com\/2020-03-14\/987873094258_d28dd0d076e8fa9a8409_72.png",
            "first_name": "David",
            "real_name": "David Lu",
            "display_name": "David Lu",
            "team": "TUU48M0T1",
            "name": "ludavidyi",
            "is_restricted": false,
            "is_ultra_restricted": false
        },
        "blocks": [
            {
                "type": "rich_text",
                "block_id": "0NmB",
                "elements": [
                    {
                        "type": "rich_text_section",
                        "elements": [
                            {
                                "type": "text",
                                "text": "If so, the prgm-governance-team has a zoom link with no password to join"
                            }
                        ]
                    }
                ]
            }
        ],
        "thread_ts": "1586181895.301400",
        "parent_user_id": "U010Q3372P3"
    },
    {
        "client_msg_id": "69f11bfc-a18d-40da-a27f-9a18e4f62733",
        "type": "message",
        "text": "If necessary, the password is 123456",
        "user": "UV2SC7ZE3",
        "ts": "1586182039.302000",
        "team": "TUU48M0T1",
        "user_team": "TUU48M0T1",
        "source_team": "TUU48M0T1",
        "user_profile": {
            "avatar_hash": "d28dd0d076e8",
            "image_72": "https:\/\/avatars.slack-edge.com\/2020-03-14\/987873094258_d28dd0d076e8fa9a8409_72.png",
            "first_name": "David",
            "real_name": "David Lu",
            "display_name": "David Lu",
            "team": "TUU48M0T1",
            "name": "ludavidyi",
            "is_restricted": false,
            "is_ultra_restricted": false
        },
        "blocks": [
            {
                "type": "rich_text",
                "block_id": "RfeR",
                "elements": [
                    {
                        "type": "rich_text_section",
                        "elements": [
                            {
                                "type": "text",
                                "text": "If necessary, the password is 123456"
                            }
                        ]
                    }
                ]
            }
        ],
        "thread_ts": "1586181895.301400",
        "parent_user_id": "U010Q3372P3"
    },
    {
        "client_msg_id": "ebc17b7e-5c93-4e39-b69b-50210b51f25a",
        "type": "message",
        "text": "yes, this is asking me for a pw <https:\/\/zoom.us\/j\/7804345815>",
        "user": "U010Q3372P3",
        "ts": "1586182057.302200",
        "team": "TUU48M0T1",
        "user_team": "TUU48M0T1",
        "source_team": "TUU48M0T1",
        "user_profile": {
            "avatar_hash": "95066184973b",
            "image_72": "https:\/\/avatars.slack-edge.com\/2020-03-30\/1036274198128_95066184973b1de50d1a_72.png",
            "first_name": "Kathryn",
            "real_name": "Kathryn Rowe",
            "display_name": "Kathryn Rowe",
            "team": "TUU48M0T1",
            "name": "kathryn.rowe",
            "is_restricted": false,
            "is_ultra_restricted": false
        },
        "blocks": [
            {
                "type": "rich_text",
                "block_id": "HraW=",
                "elements": [
                    {
                        "type": "rich_text_section",
                        "elements": [
                            {
                                "type": "text",
                                "text": "yes, this is asking me for a pw "
                            },
                            {
                                "type": "link",
                                "url": "https:\/\/zoom.us\/j\/7804345815"
                            }
                        ]
                    }
                ]
            }
        ],
        "thread_ts": "1586181895.301400",
        "parent_user_id": "U010Q3372P3"
    },
    {
        "client_msg_id": "F1A03558-0D7F-435E-AA30-C202285C6C45",
        "type": "message",
        "text": "Here is the link to join without a password \n\n<https:\/\/zoom.us\/j\/7804345815?pwd=Y25OZWRBL3pMNG5NZDN4VHM1Mlc3UT09|https:\/\/zoom.us\/j\/7804345815?pwd=Y25OZWRBL3pMNG5NZDN4VHM1Mlc3UT09>",
        "user": "UV02WET96",
        "ts": "1586182633.302900",
        "team": "TUU48M0T1",
        "user_team": "TUU48M0T1",
        "source_team": "TUU48M0T1",
        "user_profile": {
            "avatar_hash": "a99c74a194f8",
            "image_72": "https:\/\/avatars.slack-edge.com\/2020-03-07\/975708504851_a99c74a194f86715ca7d_72.png",
            "first_name": "Thomas",
            "real_name": "Thomas Landrain",
            "display_name": "Thomas Landrain - JOGL CoFounder \/ CEO",
            "team": "TUU48M0T1",
            "name": "thomas",
            "is_restricted": false,
            "is_ultra_restricted": false
        },
        "blocks": [
            {
                "type": "rich_text",
                "block_id": "19DD=",
                "elements": [
                    {
                        "type": "rich_text_section",
                        "elements": [
                            {
                                "type": "text",
                                "text": "Here is the link to join without a password \n\n"
                            },
                            {
                                "type": "link",
                                "url": "https:\/\/zoom.us\/j\/7804345815?pwd=Y25OZWRBL3pMNG5NZDN4VHM1Mlc3UT09",
                                "text": "https:\/\/zoom.us\/j\/7804345815?pwd=Y25OZWRBL3pMNG5NZDN4VHM1Mlc3UT09"
                            }
                        ]
                    }
                ]
            }
        ],
        "thread_ts": "1586181895.301400",
        "parent_user_id": "U010Q3372P3"
    },
    {
        "client_msg_id": "2d6583b3-fb36-465b-8ac6-8bee17837589",
        "type": "message",
        "text": "Nice slides <@UV76CQTB4> and <@UV2SC7ZE3>!\nIf that's gonna be the only written progress update available, I'm not sure there is the space to cover everything... For example a next steps\/future work section was a good way of helping people figure out the next steps. And the \"needs\" are for skills but also for other things (information, platform, contacts, participants,...)",
        "user": "U010APQC76J",
        "ts": "1586188202.303400",
        "team": "TUU48M0T1",
        "user_team": "TUU48M0T1",
        "source_team": "TUU48M0T1",
        "user_profile": {
            "avatar_hash": "751a8e7a94a5",
            "image_72": "https:\/\/avatars.slack-edge.com\/2020-03-25\/1026091401893_751a8e7a94a519bfd1d7_72.jpg",
            "first_name": "Hans",
            "real_name": "Hans Pfalzgraf",
            "display_name": "Hans P",
            "team": "TUU48M0T1",
            "name": "h.pfalzgraf",
            "is_restricted": false,
            "is_ultra_restricted": false
        },
        "blocks": [
            {
                "type": "rich_text",
                "block_id": "2tZ",
                "elements": [
                    {
                        "type": "rich_text_section",
                        "elements": [
                            {
                                "type": "text",
                                "text": "Nice slides "
                            },
                            {
                                "type": "user",
                                "user_id": "UV76CQTB4"
                            },
                            {
                                "type": "text",
                                "text": " and "
                            },
                            {
                                "type": "user",
                                "user_id": "UV2SC7ZE3"
                            },
                            {
                                "type": "text",
                                "text": "!\nIf that's gonna be the only written progress update available, I'm not sure there is the space to cover everything... For example a next steps\/future work section was a good way of helping people figure out the next steps. And the \"needs\" are for skills but also for other things (information, platform, contacts, participants,...)"
                            }
                        ]
                    }
                ]
            }
        ],
        "thread_ts": "1585842641.219300",
        "parent_user_id": "U010APQC76J",
        "reactions": [
            {
                "name": "+1",
                "users": [
                    "UV2SC7ZE3"
                ],
                "count": 1
            }
        ]
    },
    {
        "client_msg_id": "a4ca5491-4231-4f11-8c93-f7bbe8efeb9b",
        "type": "message",
        "text": "That's true <@U010APQC76J>. However, I think that having limited space is good. We want projects to convey updates in a concise manner so that any layperson could read it and understand.",
        "user": "UV2SC7ZE3",
        "ts": "1586198600.307000",
        "team": "TUU48M0T1",
        "user_team": "TUU48M0T1",
        "source_team": "TUU48M0T1",
        "user_profile": {
            "avatar_hash": "d28dd0d076e8",
            "image_72": "https:\/\/avatars.slack-edge.com\/2020-03-14\/987873094258_d28dd0d076e8fa9a8409_72.png",
            "first_name": "David",
            "real_name": "David Lu",
            "display_name": "David Lu",
            "team": "TUU48M0T1",
            "name": "ludavidyi",
            "is_restricted": false,
            "is_ultra_restricted": false
        },
        "blocks": [
            {
                "type": "rich_text",
                "block_id": "YFm",
                "elements": [
                    {
                        "type": "rich_text_section",
                        "elements": [
                            {
                                "type": "text",
                                "text": "That's true "
                            },
                            {
                                "type": "user",
                                "user_id": "U010APQC76J"
                            },
                            {
                                "type": "text",
                                "text": ". However, I think that having limited space is good. We want projects to convey updates in a concise manner so that any layperson could read it and understand."
                            }
                        ]
                    }
                ]
            }
        ],
        "thread_ts": "1585842641.219300",
        "parent_user_id": "U010APQC76J"
    },
    {
        "client_msg_id": "bd6e7dbe-be3a-4346-9520-d3837387dd6c",
        "type": "message",
        "text": "But I totally agree that maybe we could make room on the slides so that people can write next steps if they have any",
        "user": "UV2SC7ZE3",
        "ts": "1586198684.307200",
        "team": "TUU48M0T1",
        "user_team": "TUU48M0T1",
        "source_team": "TUU48M0T1",
        "user_profile": {
            "avatar_hash": "d28dd0d076e8",
            "image_72": "https:\/\/avatars.slack-edge.com\/2020-03-14\/987873094258_d28dd0d076e8fa9a8409_72.png",
            "first_name": "David",
            "real_name": "David Lu",
            "display_name": "David Lu",
            "team": "TUU48M0T1",
            "name": "ludavidyi",
            "is_restricted": false,
            "is_ultra_restricted": false
        },
        "blocks": [
            {
                "type": "rich_text",
                "block_id": "Hl6Ht",
                "elements": [
                    {
                        "type": "rich_text_section",
                        "elements": [
                            {
                                "type": "text",
                                "text": "But I totally agree that maybe we could make room on the slides so that people can write next steps if they have any"
                            }
                        ]
                    }
                ]
            }
        ],
        "thread_ts": "1585842641.219300",
        "parent_user_id": "U010APQC76J"
    },
    {
        "client_msg_id": "fe79225d-55dc-45c1-a982-792a18470e01",
        "type": "message",
        "text": "I also think that the 'needs' could be worded so that it means general needs and not just skills needed",
        "user": "UV2SC7ZE3",
        "ts": "1586198740.307400",
        "team": "TUU48M0T1",
        "user_team": "TUU48M0T1",
        "source_team": "TUU48M0T1",
        "user_profile": {
            "avatar_hash": "d28dd0d076e8",
            "image_72": "https:\/\/avatars.slack-edge.com\/2020-03-14\/987873094258_d28dd0d076e8fa9a8409_72.png",
            "first_name": "David",
            "real_name": "David Lu",
            "display_name": "David Lu",
            "team": "TUU48M0T1",
            "name": "ludavidyi",
            "is_restricted": false,
            "is_ultra_restricted": false
        },
        "blocks": [
            {
                "type": "rich_text",
                "block_id": "jG2OK",
                "elements": [
                    {
                        "type": "rich_text_section",
                        "elements": [
                            {
                                "type": "text",
                                "text": "I also think that the 'needs' could be worded so that it means general needs and not just skills needed"
                            }
                        ]
                    }
                ]
            }
        ],
        "thread_ts": "1585842641.219300",
        "parent_user_id": "U010APQC76J"
    },
    {
        "client_msg_id": "6738CCFC-3E80-481F-8881-30A91D0304F5",
        "type": "message",
        "text": "Please change as needed, of course. The idea of having limited space was as David said : concise information to share in the meetings.  We can make the layout 1\/3 for title side and 2\/3 for info tho :) ",
        "user": "UV76CQTB4",
        "ts": "1586207395.310400",
        "team": "TUU48M0T1",
        "user_team": "TUU48M0T1",
        "source_team": "TUU48M0T1",
        "user_profile": {
            "avatar_hash": "07668a20a751",
            "image_72": "https:\/\/avatars.slack-edge.com\/2020-03-17\/993297059666_07668a20a751afe52104_72.png",
            "first_name": "",
            "real_name": "Julie Legault",
            "display_name": "Julie Legault",
            "team": "TUU48M0T1",
            "name": "julie",
            "is_restricted": false,
            "is_ultra_restricted": false
        },
        "blocks": [
            {
                "type": "rich_text",
                "block_id": "u1RQ",
                "elements": [
                    {
                        "type": "rich_text_section",
                        "elements": [
                            {
                                "type": "text",
                                "text": "Please change as needed, of course. The idea of having limited space was as David said : concise information to share in the meetings.  We can make the layout 1\/3 for title side and 2\/3 for info tho :) "
                            }
                        ]
                    }
                ]
            }
        ],
        "thread_ts": "1585842641.219300",
        "parent_user_id": "U010APQC76J",
        "reactions": [
            {
                "name": "+1",
                "users": [
                    "UV2SC7ZE3"
                ],
                "count": 1
            }
        ]
    }
]