[
    {
        "client_msg_id": "e20c732a-7b14-4617-99ff-17fe0df1dbaf",
        "type": "message",
        "text": "Hi David,\nI did start the process, but I decided it was better to create a folder with the images instead of a Doc and link those directly into the Google Sheet. Therefore, I did not create a word document with the posts, but I could do so if necessary.\n<https:\/\/drive.google.com\/open?id=1qmDY5zjcCo8XZrNmx222-B--_D25SgaY>\nThe overall process wasn't too bad.",
        "user": "U0103LPAWQ4",
        "ts": "1586854084.004400",
        "team": "TUU48M0T1",
        "user_team": "TUU48M0T1",
        "source_team": "TUU48M0T1",
        "user_profile": {
            "avatar_hash": "7b345029e813",
            "image_72": "https:\/\/avatars.slack-edge.com\/2020-03-17\/1004213082549_7b345029e8137cbdc6b0_72.jpg",
            "first_name": "Bre",
            "real_name": "Bre",
            "display_name": "Bre",
            "team": "TUU48M0T1",
            "name": "info",
            "is_restricted": false,
            "is_ultra_restricted": false
        },
        "edited": {
            "user": "U0103LPAWQ4",
            "ts": "1586858579.000000"
        },
        "blocks": [
            {
                "type": "rich_text",
                "block_id": "zAi",
                "elements": [
                    {
                        "type": "rich_text_section",
                        "elements": [
                            {
                                "type": "text",
                                "text": "Hi David,\nI did start the process, but I decided it was better to create a folder with the images instead of a Doc and link those directly into the Google Sheet. Therefore, I did not create a word document with the posts, but I could do so if necessary.\n"
                            },
                            {
                                "type": "link",
                                "url": "https:\/\/drive.google.com\/open?id=1qmDY5zjcCo8XZrNmx222-B--_D25SgaY"
                            },
                            {
                                "type": "text",
                                "text": "\nThe overall process wasn't too bad."
                            }
                        ]
                    }
                ]
            }
        ],
        "thread_ts": "1586827141.002600",
        "parent_user_id": "U0103LPAWQ4"
    },
    {
        "client_msg_id": "915f7d10-9692-4d22-a2f5-601c242474dc",
        "type": "message",
        "text": "Hi Bre! I would like to help with the translation!",
        "user": "U010BMYLX36",
        "ts": "1586868376.005200",
        "team": "TUU48M0T1",
        "user_team": "TUU48M0T1",
        "source_team": "TUU48M0T1",
        "user_profile": {
            "avatar_hash": "29b280e40aff",
            "image_72": "https:\/\/avatars.slack-edge.com\/2020-03-19\/1012233950240_29b280e40aff0bec1689_72.jpg",
            "first_name": "",
            "real_name": "Mireia Perera Gonzalez",
            "display_name": "Mireia Perera Gonzalez",
            "team": "TUU48M0T1",
            "name": "pereragonzalez.m",
            "is_restricted": false,
            "is_ultra_restricted": false
        },
        "blocks": [
            {
                "type": "rich_text",
                "block_id": "Oua\/",
                "elements": [
                    {
                        "type": "rich_text_section",
                        "elements": [
                            {
                                "type": "text",
                                "text": "Hi Bre! I would like to help with the translation!"
                            }
                        ]
                    }
                ]
            }
        ],
        "thread_ts": "1586827141.002600",
        "parent_user_id": "U0103LPAWQ4",
        "reactions": [
            {
                "name": "+1::skin-tone-4",
                "users": [
                    "U0103LPAWQ4"
                ],
                "count": 1
            }
        ]
    },
    {
        "client_msg_id": "3708b19f-69c1-419f-bd9b-d68b4a15b2bf",
        "type": "message",
        "text": "Hi all, we have a call scheduled today 6 pm Paris time. I'm happy to participate! <@UV2SC7ZE3> Do we have an agenda? <@U011VF29MK2> did you want to use this call to go through the brand\/social media strategy?",
        "user": "U010APQC76J",
        "ts": "1586874984.006700",
        "team": "TUU48M0T1",
        "user_team": "TUU48M0T1",
        "source_team": "TUU48M0T1",
        "user_profile": {
            "avatar_hash": "751a8e7a94a5",
            "image_72": "https:\/\/avatars.slack-edge.com\/2020-03-25\/1026091401893_751a8e7a94a519bfd1d7_72.jpg",
            "first_name": "Hans",
            "real_name": "Hans Pfalzgraf",
            "display_name": "Hans P",
            "team": "TUU48M0T1",
            "name": "h.pfalzgraf",
            "is_restricted": false,
            "is_ultra_restricted": false
        },
        "blocks": [
            {
                "type": "rich_text",
                "block_id": "RDBa",
                "elements": [
                    {
                        "type": "rich_text_section",
                        "elements": [
                            {
                                "type": "text",
                                "text": "Hi all, we have a call scheduled today 6 pm Paris time. I'm happy to participate! "
                            },
                            {
                                "type": "user",
                                "user_id": "UV2SC7ZE3"
                            },
                            {
                                "type": "text",
                                "text": " Do we have an agenda? "
                            },
                            {
                                "type": "user",
                                "user_id": "U011VF29MK2"
                            },
                            {
                                "type": "text",
                                "text": " did you want to use this call to go through the brand\/social media strategy?"
                            }
                        ]
                    }
                ]
            }
        ],
        "thread_ts": "1586874984.006700",
        "reply_count": 1,
        "reply_users_count": 1,
        "latest_reply": "1586875646.007000",
        "reply_users": [
            "UV2SC7ZE3"
        ],
        "replies": [
            {
                "user": "UV2SC7ZE3",
                "ts": "1586875646.007000"
            }
        ],
        "subscribed": false
    },
    {
        "client_msg_id": "73dddb41-0991-4a4c-af5c-72c9980b313e",
        "type": "message",
        "text": "<@U0103LPAWQ4> that's really nice! Is this the new official logo? I'm used to the blue one on our social media page",
        "user": "U010APQC76J",
        "ts": "1586875069.006800",
        "team": "TUU48M0T1",
        "user_team": "TUU48M0T1",
        "source_team": "TUU48M0T1",
        "user_profile": {
            "avatar_hash": "751a8e7a94a5",
            "image_72": "https:\/\/avatars.slack-edge.com\/2020-03-25\/1026091401893_751a8e7a94a519bfd1d7_72.jpg",
            "first_name": "Hans",
            "real_name": "Hans Pfalzgraf",
            "display_name": "Hans P",
            "team": "TUU48M0T1",
            "name": "h.pfalzgraf",
            "is_restricted": false,
            "is_ultra_restricted": false
        },
        "blocks": [
            {
                "type": "rich_text",
                "block_id": "WrDi",
                "elements": [
                    {
                        "type": "rich_text_section",
                        "elements": [
                            {
                                "type": "user",
                                "user_id": "U0103LPAWQ4"
                            },
                            {
                                "type": "text",
                                "text": " that's really nice! Is this the new official logo? I'm used to the blue one on our social media page"
                            }
                        ]
                    }
                ]
            }
        ],
        "thread_ts": "1586827141.002600",
        "parent_user_id": "U0103LPAWQ4"
    },
    {
        "client_msg_id": "fb31757a-052d-4813-a6b2-ed40ec1ba94b",
        "type": "message",
        "text": "We do not. Can you perhaps create one?",
        "user": "UV2SC7ZE3",
        "ts": "1586875646.007000",
        "team": "TUU48M0T1",
        "user_team": "TUU48M0T1",
        "source_team": "TUU48M0T1",
        "user_profile": {
            "avatar_hash": "d28dd0d076e8",
            "image_72": "https:\/\/avatars.slack-edge.com\/2020-03-14\/987873094258_d28dd0d076e8fa9a8409_72.png",
            "first_name": "David",
            "real_name": "David Lu",
            "display_name": "David Lu",
            "team": "TUU48M0T1",
            "name": "ludavidyi",
            "is_restricted": false,
            "is_ultra_restricted": false
        },
        "blocks": [
            {
                "type": "rich_text",
                "block_id": "Ilf3c",
                "elements": [
                    {
                        "type": "rich_text_section",
                        "elements": [
                            {
                                "type": "text",
                                "text": "We do not. Can you perhaps create one?"
                            }
                        ]
                    }
                ]
            }
        ],
        "thread_ts": "1586874984.006700",
        "parent_user_id": "U010APQC76J"
    },
    {
        "client_msg_id": "52004d55-2115-4ab3-b84d-4bab7c34d2d8",
        "type": "message",
        "text": "<https:\/\/docs.google.com\/document\/d\/1fyd0TgISaQz8VUZ6Uuj1aLynTN5hsYoOPk8hCJ-yEio\/>",
        "user": "U01019BQXM3",
        "ts": "1586877693.007500",
        "team": "TUU48M0T1",
        "user_team": "TUU48M0T1",
        "source_team": "TUU48M0T1",
        "user_profile": {
            "avatar_hash": "7e0f35d8cc55",
            "image_72": "https:\/\/avatars.slack-edge.com\/2020-03-15\/988667349730_7e0f35d8cc556cd89565_72.jpg",
            "first_name": "Marc",
            "real_name": "Marc Bokobza",
            "display_name": "Marc Bokobza",
            "team": "TUU48M0T1",
            "name": "marcbokobza1",
            "is_restricted": false,
            "is_ultra_restricted": false
        },
        "blocks": [
            {
                "type": "rich_text",
                "block_id": "O7Dmq",
                "elements": [
                    {
                        "type": "rich_text_section",
                        "elements": [
                            {
                                "type": "link",
                                "url": "https:\/\/docs.google.com\/document\/d\/1fyd0TgISaQz8VUZ6Uuj1aLynTN5hsYoOPk8hCJ-yEio\/"
                            }
                        ]
                    }
                ]
            }
        ],
        "reactions": [
            {
                "name": "pray",
                "users": [
                    "U010APQC76J",
                    "UV2SC7ZE3"
                ],
                "count": 2
            }
        ]
    },
    {
        "client_msg_id": "9805d4e7-80d1-48fb-88cf-a5b48a39fab2",
        "type": "message",
        "text": "Here’s the agenda for today’s call",
        "user": "U01019BQXM3",
        "ts": "1586877703.007900",
        "team": "TUU48M0T1",
        "user_team": "TUU48M0T1",
        "source_team": "TUU48M0T1",
        "user_profile": {
            "avatar_hash": "7e0f35d8cc55",
            "image_72": "https:\/\/avatars.slack-edge.com\/2020-03-15\/988667349730_7e0f35d8cc556cd89565_72.jpg",
            "first_name": "Marc",
            "real_name": "Marc Bokobza",
            "display_name": "Marc Bokobza",
            "team": "TUU48M0T1",
            "name": "marcbokobza1",
            "is_restricted": false,
            "is_ultra_restricted": false
        },
        "blocks": [
            {
                "type": "rich_text",
                "block_id": "9LB",
                "elements": [
                    {
                        "type": "rich_text_section",
                        "elements": [
                            {
                                "type": "text",
                                "text": "Here’s the agenda for today’s call"
                            }
                        ]
                    }
                ]
            }
        ],
        "thread_ts": "1586877703.007900",
        "reply_count": 1,
        "reply_users_count": 1,
        "latest_reply": "1586879108.008000",
        "reply_users": [
            "UV2SC7ZE3"
        ],
        "replies": [
            {
                "user": "UV2SC7ZE3",
                "ts": "1586879108.008000"
            }
        ],
        "subscribed": false
    },
    {
        "client_msg_id": "8afe5769-74e0-4329-af83-70e09809c877",
        "type": "message",
        "text": "Thanks Marc",
        "user": "UV2SC7ZE3",
        "ts": "1586879108.008000",
        "team": "TUU48M0T1",
        "user_team": "TUU48M0T1",
        "source_team": "TUU48M0T1",
        "user_profile": {
            "avatar_hash": "d28dd0d076e8",
            "image_72": "https:\/\/avatars.slack-edge.com\/2020-03-14\/987873094258_d28dd0d076e8fa9a8409_72.png",
            "first_name": "David",
            "real_name": "David Lu",
            "display_name": "David Lu",
            "team": "TUU48M0T1",
            "name": "ludavidyi",
            "is_restricted": false,
            "is_ultra_restricted": false
        },
        "blocks": [
            {
                "type": "rich_text",
                "block_id": "8isbB",
                "elements": [
                    {
                        "type": "rich_text_section",
                        "elements": [
                            {
                                "type": "text",
                                "text": "Thanks Marc"
                            }
                        ]
                    }
                ]
            }
        ],
        "thread_ts": "1586877703.007900",
        "parent_user_id": "U01019BQXM3"
    },
    {
        "client_msg_id": "5c8bdabe-4259-4fe1-9b25-4ed015757337",
        "type": "message",
        "text": "Hi Hans, Who is on the call? We definitely need Leo there before we move forward.",
        "user": "U011VF29MK2",
        "ts": "1586880695.008700",
        "team": "TUU48M0T1",
        "user_team": "TUU48M0T1",
        "source_team": "TUU48M0T1",
        "user_profile": {
            "avatar_hash": "0ef0287e69f4",
            "image_72": "https:\/\/avatars.slack-edge.com\/2020-04-07\/1045707527815_0ef0287e69f4d3296eaf_72.jpg",
            "first_name": "Catherine",
            "real_name": "Catherine Coykendall",
            "display_name": "Catherine Coykendall - Marketing Consultant",
            "team": "TUU48M0T1",
            "name": "c.coyken1978",
            "is_restricted": false,
            "is_ultra_restricted": false
        },
        "blocks": [
            {
                "type": "rich_text",
                "block_id": "2FGc",
                "elements": [
                    {
                        "type": "rich_text_section",
                        "elements": [
                            {
                                "type": "text",
                                "text": "Hi Hans, Who is on the call? We definitely need Leo there before we move forward."
                            }
                        ]
                    }
                ]
            }
        ],
        "thread_ts": "1586880695.008700",
        "reply_count": 3,
        "reply_users_count": 2,
        "latest_reply": "1586903205.026000",
        "reply_users": [
            "U010APQC76J",
            "UVC9WMA7N"
        ],
        "replies": [
            {
                "user": "U010APQC76J",
                "ts": "1586884265.010700"
            },
            {
                "user": "UVC9WMA7N",
                "ts": "1586903192.025800"
            },
            {
                "user": "UVC9WMA7N",
                "ts": "1586903205.026000"
            }
        ],
        "subscribed": false
    },
    {
        "client_msg_id": "aa758df4-046f-4d18-872b-66b949b47b93",
        "type": "message",
        "text": "<@UV02WET96>, *about sharing the link to the zoom room on social media for the community call:* should we share yours (and face the danger of zoom bombing) or shall we share the JOGL one? Thinking about what would be easy for recording as well.",
        "user": "UV9V03C8Y",
        "ts": "1586884222.010600",
        "team": "TUU48M0T1",
        "user_team": "TUU48M0T1",
        "source_team": "TUU48M0T1",
        "user_profile": {
            "avatar_hash": "177697fb7b8f",
            "image_72": "https:\/\/avatars.slack-edge.com\/2020-03-12\/996126178096_177697fb7b8ffa57649c_72.jpg",
            "first_name": "Camille",
            "real_name": "Camille Masselot - JOGL Program coordinator",
            "display_name": "Camille Masselot - JOGL coordinator",
            "team": "TUU48M0T1",
            "name": "masselot.camille",
            "is_restricted": false,
            "is_ultra_restricted": false
        },
        "blocks": [
            {
                "type": "rich_text",
                "block_id": "QLVq",
                "elements": [
                    {
                        "type": "rich_text_section",
                        "elements": [
                            {
                                "type": "user",
                                "user_id": "UV02WET96"
                            },
                            {
                                "type": "text",
                                "text": ", "
                            },
                            {
                                "type": "text",
                                "text": "about sharing the link to the zoom room on social media for the community call: ",
                                "style": {
                                    "bold": true
                                }
                            },
                            {
                                "type": "text",
                                "text": "should we share yours (and face the danger of zoom bombing) or shall we share the JOGL one? Thinking about what would be easy for recording as well."
                            }
                        ]
                    }
                ]
            }
        ]
    },
    {
        "client_msg_id": "467acd5b-d4de-4d54-ac11-4dea6bec7e07",
        "type": "message",
        "text": "Sorry for the late reply! He wasn't on the call, so no worries!",
        "user": "U010APQC76J",
        "ts": "1586884265.010700",
        "team": "TUU48M0T1",
        "user_team": "TUU48M0T1",
        "source_team": "TUU48M0T1",
        "user_profile": {
            "avatar_hash": "751a8e7a94a5",
            "image_72": "https:\/\/avatars.slack-edge.com\/2020-03-25\/1026091401893_751a8e7a94a519bfd1d7_72.jpg",
            "first_name": "Hans",
            "real_name": "Hans Pfalzgraf",
            "display_name": "Hans P",
            "team": "TUU48M0T1",
            "name": "h.pfalzgraf",
            "is_restricted": false,
            "is_ultra_restricted": false
        },
        "blocks": [
            {
                "type": "rich_text",
                "block_id": "MY1",
                "elements": [
                    {
                        "type": "rich_text_section",
                        "elements": [
                            {
                                "type": "text",
                                "text": "Sorry for the late reply! He wasn't on the call, so no worries!"
                            }
                        ]
                    }
                ]
            }
        ],
        "thread_ts": "1586880695.008700",
        "parent_user_id": "U011VF29MK2"
    },
    {
        "client_msg_id": "2f5866b7-9918-45ad-8acc-ef2d496268bc",
        "type": "message",
        "text": "HootSuite offers a free trial for the teams plan, which allows up to 3 users. I think <@U011VF29MK2> and <@U01019BQXM3> are interested in trying out HootSuite? Anybody else wants to try it out?",
        "user": "UV2SC7ZE3",
        "ts": "1586886670.011600",
        "team": "TUU48M0T1",
        "user_team": "TUU48M0T1",
        "source_team": "TUU48M0T1",
        "user_profile": {
            "avatar_hash": "d28dd0d076e8",
            "image_72": "https:\/\/avatars.slack-edge.com\/2020-03-14\/987873094258_d28dd0d076e8fa9a8409_72.png",
            "first_name": "David",
            "real_name": "David Lu",
            "display_name": "David Lu",
            "team": "TUU48M0T1",
            "name": "ludavidyi",
            "is_restricted": false,
            "is_ultra_restricted": false
        },
        "edited": {
            "user": "UV2SC7ZE3",
            "ts": "1586887250.000000"
        },
        "blocks": [
            {
                "type": "rich_text",
                "block_id": "Z+FFE",
                "elements": [
                    {
                        "type": "rich_text_section",
                        "elements": [
                            {
                                "type": "text",
                                "text": "HootSuite offers a free trial for the teams plan, which allows up to 3 users. I think "
                            },
                            {
                                "type": "user",
                                "user_id": "U011VF29MK2"
                            },
                            {
                                "type": "text",
                                "text": " and "
                            },
                            {
                                "type": "user",
                                "user_id": "U01019BQXM3"
                            },
                            {
                                "type": "text",
                                "text": " are interested in trying out HootSuite? Anybody else wants to try it out?"
                            }
                        ]
                    }
                ]
            }
        ],
        "thread_ts": "1586886670.011600",
        "reply_count": 1,
        "reply_users_count": 1,
        "latest_reply": "1586948881.029400",
        "reply_users": [
            "U010APQC76J"
        ],
        "replies": [
            {
                "user": "U010APQC76J",
                "ts": "1586948881.029400"
            }
        ],
        "subscribed": false,
        "reactions": [
            {
                "name": "100",
                "users": [
                    "U01019BQXM3"
                ],
                "count": 1
            }
        ]
    },
    {
        "type": "message",
        "text": ":mega:Hi <!channel> - For tomorrow’s *Global Community Call*, who wants to add our update to the meeting deck? <@U010APQC76J> — are you the right person for this?\nHere’s the doc:\n<https:\/\/docs.google.com\/presentation\/d\/1-qHD_mQNyNz7i1ODXg2JSi_Rp-3PdUj3VDa8y3BgAlE\/edit#slide=id.g73568cc0b1_0_6>",
        "files": [
            {
                "id": "F011BMZA355",
                "created": 1586299249,
                "timestamp": 1586299249,
                "name": "8",
                "title": "Weekly Updates - Global Community Calls",
                "mimetype": "application\/vnd.google-apps.presentation",
                "filetype": "gpres",
                "pretty_type": "GSuite Presentation",
                "user": "UV0QTJCMT",
                "editable": false,
                "size": 1602,
                "mode": "external",
                "is_external": true,
                "external_type": "gdrive",
                "is_public": true,
                "public_url_shared": false,
                "display_as_bot": false,
                "username": "",
                "url_private": "https:\/\/docs.google.com\/presentation\/d\/1-qHD_mQNyNz7i1ODXg2JSi_Rp-3PdUj3VDa8y3BgAlE\/edit#slide=id.p",
                "thumb_64": "https:\/\/files.slack.com\/files-tmb\/TUU48M0T1-F011BMZA355-53ad51aa1c\/8_64.png?t=xoxe-980144714919-1106606678066-1105227127893-6f722bb664235052954ad46852628b64",
                "thumb_80": "https:\/\/files.slack.com\/files-tmb\/TUU48M0T1-F011BMZA355-53ad51aa1c\/8_80.png?t=xoxe-980144714919-1106606678066-1105227127893-6f722bb664235052954ad46852628b64",
                "thumb_360": "https:\/\/files.slack.com\/files-tmb\/TUU48M0T1-F011BMZA355-53ad51aa1c\/8_360.png?t=xoxe-980144714919-1106606678066-1105227127893-6f722bb664235052954ad46852628b64",
                "thumb_360_w": 360,
                "thumb_360_h": 203,
                "thumb_480": "https:\/\/files.slack.com\/files-tmb\/TUU48M0T1-F011BMZA355-53ad51aa1c\/8_480.png?t=xoxe-980144714919-1106606678066-1105227127893-6f722bb664235052954ad46852628b64",
                "thumb_480_w": 480,
                "thumb_480_h": 270,
                "thumb_160": "https:\/\/files.slack.com\/files-tmb\/TUU48M0T1-F011BMZA355-53ad51aa1c\/8_160.png?t=xoxe-980144714919-1106606678066-1105227127893-6f722bb664235052954ad46852628b64",
                "thumb_720": "https:\/\/files.slack.com\/files-tmb\/TUU48M0T1-F011BMZA355-53ad51aa1c\/8_720.png?t=xoxe-980144714919-1106606678066-1105227127893-6f722bb664235052954ad46852628b64",
                "thumb_720_w": 720,
                "thumb_720_h": 405,
                "thumb_800": "https:\/\/files.slack.com\/files-tmb\/TUU48M0T1-F011BMZA355-53ad51aa1c\/8_800.png?t=xoxe-980144714919-1106606678066-1105227127893-6f722bb664235052954ad46852628b64",
                "thumb_800_w": 800,
                "thumb_800_h": 450,
                "image_exif_rotation": 1,
                "original_w": 800,
                "original_h": 450,
                "thumb_tiny": "AwAbADDTzRUM2NwyB07timLtzghMezmgCzRUSrCTgHOe2aXyU9D+ZoAkooAAAA6CigBjMQM8fjTfMPqtOowPQUAIGYjjbS7n9BRRQAbn9BSgnvSUUAf\/2Q==",
                "permalink": "https:\/\/open-covid19.slack.com\/files\/UV0QTJCMT\/F011BMZA355\/8",
                "is_starred": false,
                "external_id": "1-qHD_mQNyNz7i1ODXg2JSi_Rp-3PdUj3VDa8y3BgAlE",
                "external_url": "https:\/\/docs.google.com\/presentation\/d\/1-qHD_mQNyNz7i1ODXg2JSi_Rp-3PdUj3VDa8y3BgAlE\/edit#slide=id.p",
                "has_rich_preview": true
            }
        ],
        "upload": false,
        "blocks": [
            {
                "type": "rich_text",
                "block_id": "AQT",
                "elements": [
                    {
                        "type": "rich_text_section",
                        "elements": [
                            {
                                "type": "emoji",
                                "name": "mega"
                            },
                            {
                                "type": "text",
                                "text": "Hi "
                            },
                            {
                                "type": "broadcast",
                                "range": "channel"
                            },
                            {
                                "type": "text",
                                "text": " - For tomorrow’s "
                            },
                            {
                                "type": "text",
                                "text": "Global Community Call",
                                "style": {
                                    "bold": true
                                }
                            },
                            {
                                "type": "text",
                                "text": ", who wants to add our update to the meeting deck? "
                            },
                            {
                                "type": "user",
                                "user_id": "U010APQC76J"
                            },
                            {
                                "type": "text",
                                "text": " — are you the right person for this?\nHere’s the doc:\n"
                            },
                            {
                                "type": "link",
                                "url": "https:\/\/docs.google.com\/presentation\/d\/1-qHD_mQNyNz7i1ODXg2JSi_Rp-3PdUj3VDa8y3BgAlE\/edit#slide=id.g73568cc0b1_0_6"
                            }
                        ]
                    }
                ]
            }
        ],
        "user": "U011B6VLM2A",
        "display_as_bot": false,
        "x_files": [
            "F011BMZA355"
        ],
        "ts": "1586888281.014200",
        "client_msg_id": "e7531ed8-d597-4a80-89c1-50d731b1a97c",
        "thread_ts": "1586888281.014200",
        "reply_count": 2,
        "reply_users_count": 2,
        "latest_reply": "1586962717.030900",
        "reply_users": [
            "U010APQC76J",
            "U011B6VLM2A"
        ],
        "replies": [
            {
                "user": "U010APQC76J",
                "ts": "1586949078.029700"
            },
            {
                "user": "U011B6VLM2A",
                "ts": "1586962717.030900"
            }
        ],
        "subscribed": false,
        "reactions": [
            {
                "name": "the_horns",
                "users": [
                    "U01019BQXM3"
                ],
                "count": 1
            }
        ]
    },
    {
        "client_msg_id": "a62b3e6c-1910-435b-9140-a237e26321a2",
        "type": "message",
        "text": "Per our Comms meeting today here are some suggestions on wording used to get people to follow us on social media.",
        "user": "U010W4KTANM",
        "ts": "1586890966.016100",
        "team": "TUU48M0T1",
        "user_team": "TUU48M0T1",
        "source_team": "TUU48M0T1",
        "user_profile": {
            "avatar_hash": "5272265a95a9",
            "image_72": "https:\/\/avatars.slack-edge.com\/2020-04-07\/1052520458481_5272265a95a976c79c3e_72.jpg",
            "first_name": "",
            "real_name": "Sophie Lin",
            "display_name": "Sophie Lin",
            "team": "TUU48M0T1",
            "name": "sophie",
            "is_restricted": false,
            "is_ultra_restricted": false
        },
        "blocks": [
            {
                "type": "rich_text",
                "block_id": "S1J7",
                "elements": [
                    {
                        "type": "rich_text_section",
                        "elements": [
                            {
                                "type": "text",
                                "text": "Per our Comms meeting today here are some suggestions on wording used to get people to follow us on social media."
                            }
                        ]
                    }
                ]
            }
        ]
    },
    {
        "client_msg_id": "293dc2c2-3e7d-4583-8454-5f4cf02a17a6",
        "type": "message",
        "text": "<https:\/\/docs.google.com\/document\/d\/1UKBVdwfcw20MURd_1tjxSYwWfGYxprSIbfQh6axyYao\/edit?usp=sharing>",
        "user": "U010W4KTANM",
        "ts": "1586890973.016300",
        "team": "TUU48M0T1",
        "user_team": "TUU48M0T1",
        "source_team": "TUU48M0T1",
        "user_profile": {
            "avatar_hash": "5272265a95a9",
            "image_72": "https:\/\/avatars.slack-edge.com\/2020-04-07\/1052520458481_5272265a95a976c79c3e_72.jpg",
            "first_name": "",
            "real_name": "Sophie Lin",
            "display_name": "Sophie Lin",
            "team": "TUU48M0T1",
            "name": "sophie",
            "is_restricted": false,
            "is_ultra_restricted": false
        },
        "blocks": [
            {
                "type": "rich_text",
                "block_id": "H+pM",
                "elements": [
                    {
                        "type": "rich_text_section",
                        "elements": [
                            {
                                "type": "link",
                                "url": "https:\/\/docs.google.com\/document\/d\/1UKBVdwfcw20MURd_1tjxSYwWfGYxprSIbfQh6axyYao\/edit?usp=sharing"
                            }
                        ]
                    }
                ]
            }
        ],
        "thread_ts": "1586890973.016300",
        "reply_count": 2,
        "reply_users_count": 2,
        "latest_reply": "1586897931.024900",
        "reply_users": [
            "U011VF29MK2",
            "U010W4KTANM"
        ],
        "replies": [
            {
                "user": "U011VF29MK2",
                "ts": "1586897597.024700"
            },
            {
                "user": "U010W4KTANM",
                "ts": "1586897931.024900"
            }
        ],
        "subscribed": false
    },
    {
        "client_msg_id": "4abe977c-7a66-43b7-a1f0-e0747bafb53c",
        "type": "message",
        "text": "<@UVC9WMA7N> the Communications team has a question for you in regards to contacting those who have signed up for JOGL. If you have opted OUT of the weekly newsletter or contact list, under which circumstances (if any) are we allowed to email those people? We want to raise awareness about our social media platforms and would like to start encouraging people to follow us. I would like to see a weekly reminder as a part of our newsletter but for those who have opted out of receiving one, can we email them specifically about joining us on social media?",
        "user": "U010W4KTANM",
        "ts": "1586891216.019400",
        "team": "TUU48M0T1",
        "user_team": "TUU48M0T1",
        "source_team": "TUU48M0T1",
        "user_profile": {
            "avatar_hash": "5272265a95a9",
            "image_72": "https:\/\/avatars.slack-edge.com\/2020-04-07\/1052520458481_5272265a95a976c79c3e_72.jpg",
            "first_name": "",
            "real_name": "Sophie Lin",
            "display_name": "Sophie Lin",
            "team": "TUU48M0T1",
            "name": "sophie",
            "is_restricted": false,
            "is_ultra_restricted": false
        },
        "blocks": [
            {
                "type": "rich_text",
                "block_id": "os0",
                "elements": [
                    {
                        "type": "rich_text_section",
                        "elements": [
                            {
                                "type": "user",
                                "user_id": "UVC9WMA7N"
                            },
                            {
                                "type": "text",
                                "text": " the Communications team has a question for you in regards to contacting those who have signed up for JOGL. If you have opted OUT of the weekly newsletter or contact list, under which circumstances (if any) are we allowed to email those people? We want to raise awareness about our social media platforms and would like to start encouraging people to follow us. I would like to see a weekly reminder as a part of our newsletter but for those who have opted out of receiving one, can we email them specifically about joining us on social media?"
                            }
                        ]
                    }
                ]
            }
        ]
    },
    {
        "client_msg_id": "93de33f4-e717-4c77-9be0-c5b6a66ae7c0",
        "type": "message",
        "text": "Thanks <@U010BMYLX36> Please contact <@U010J80FY3E> to let her know.",
        "user": "U0103LPAWQ4",
        "ts": "1586894884.020400",
        "team": "TUU48M0T1",
        "user_team": "TUU48M0T1",
        "source_team": "TUU48M0T1",
        "user_profile": {
            "avatar_hash": "7b345029e813",
            "image_72": "https:\/\/avatars.slack-edge.com\/2020-03-17\/1004213082549_7b345029e8137cbdc6b0_72.jpg",
            "first_name": "Bre",
            "real_name": "Bre",
            "display_name": "Bre",
            "team": "TUU48M0T1",
            "name": "info",
            "is_restricted": false,
            "is_ultra_restricted": false
        },
        "blocks": [
            {
                "type": "rich_text",
                "block_id": "rsE",
                "elements": [
                    {
                        "type": "rich_text_section",
                        "elements": [
                            {
                                "type": "text",
                                "text": "Thanks "
                            },
                            {
                                "type": "user",
                                "user_id": "U010BMYLX36"
                            },
                            {
                                "type": "text",
                                "text": " Please contact "
                            },
                            {
                                "type": "user",
                                "user_id": "U010J80FY3E"
                            },
                            {
                                "type": "text",
                                "text": " to let her know."
                            }
                        ]
                    }
                ]
            }
        ],
        "thread_ts": "1586827141.002600",
        "parent_user_id": "U0103LPAWQ4"
    },
    {
        "client_msg_id": "4df932b2-41d0-460c-bb39-0de2e08e273a",
        "type": "message",
        "text": "<@U010APQC76J> this is not a logo. I just threw that together for the posts. Do you think it needs to be changed? There aren't any official rules about what imagery teams can put in social media posts so I just picked compositions and colors that I thought looked nice. I did stick with Roboto as the font and I used one of the blues that the design team said was an official one for OpenCOVID.",
        "user": "U0103LPAWQ4",
        "ts": "1586895061.020600",
        "team": "TUU48M0T1",
        "user_team": "TUU48M0T1",
        "source_team": "TUU48M0T1",
        "user_profile": {
            "avatar_hash": "7b345029e813",
            "image_72": "https:\/\/avatars.slack-edge.com\/2020-03-17\/1004213082549_7b345029e8137cbdc6b0_72.jpg",
            "first_name": "Bre",
            "real_name": "Bre",
            "display_name": "Bre",
            "team": "TUU48M0T1",
            "name": "info",
            "is_restricted": false,
            "is_ultra_restricted": false
        },
        "blocks": [
            {
                "type": "rich_text",
                "block_id": "GvD",
                "elements": [
                    {
                        "type": "rich_text_section",
                        "elements": [
                            {
                                "type": "user",
                                "user_id": "U010APQC76J"
                            },
                            {
                                "type": "text",
                                "text": " this is not a logo. I just threw that together for the posts. Do you think it needs to be changed? There aren't any official rules about what imagery teams can put in social media posts so I just picked compositions and colors that I thought looked nice. I did stick with Roboto as the font and I used one of the blues that the design team said was an official one for OpenCOVID."
                            }
                        ]
                    }
                ]
            }
        ],
        "thread_ts": "1586827141.002600",
        "parent_user_id": "U0103LPAWQ4"
    },
    {
        "client_msg_id": "fce0b719-90ef-4845-8e46-99b5c18cf563",
        "type": "message",
        "text": "<!channel>, following our communication call, please find below links that could be useful for posts, writing content about JOGL and the platform, and the global communication strategy. Everything is available on the communication meeting Agenda.\n\n*Useful links about JOGL:* \n• *<https:\/\/drive.google.com\/file\/d\/1PV3oKS3Xafs7BGQzfoURbMAKflLurWuz\/view|JOGL presentation>* (May 2019), good for the history of JOGL, values, missions, and what is a program on JOGL \n• *<https:\/\/drive.google.com\/file\/d\/1cf5sHbXiNyfV2af-DJuth9BfKc_kHnem\/view|Co-Immune (JOGL first program) presentation>* (May 2019), good for definitions of roles on the platform, and how to contribute, general “wording” on JOGL, and reasons of getting involved\n• *<https:\/\/jogl.io\/|JOGL website>*, good for an updated list of partners, collaborators, and JOGL’s ambition, social media link (bottom), and media featuring JOGL-Opencovid19 (would be good for repost)\n• *<https:\/\/jogl.io\/assets\/pdfs\/JOGL-white-paper.pdf|JOGL provisional white paper >*(March 2019)\n• *<https:\/\/app.jogl.io\/ethics-pledge|JOGL awareness and ethics pledge >*\n• *<https:\/\/app.jogl.io\/terms|JOGL terms and conditions>*\n*<https:\/\/docs.google.com\/spreadsheets\/d\/1clDgiTta0UyZlDbg5FK3ON3DfeZHT1XexqYA0q5fZoM\/edit#gid=0|Co-Immune communication strategy>*<https:\/\/docs.google.com\/spreadsheets\/d\/1clDgiTta0UyZlDbg5FK3ON3DfeZHT1XexqYA0q5fZoM\/edit#gid=0| >(in French, please ask <@UV9V03C8Y> for questions)\n\nTake care!",
        "user": "UV9V03C8Y",
        "ts": "1586895632.023000",
        "team": "TUU48M0T1",
        "user_team": "TUU48M0T1",
        "source_team": "TUU48M0T1",
        "user_profile": {
            "avatar_hash": "177697fb7b8f",
            "image_72": "https:\/\/avatars.slack-edge.com\/2020-03-12\/996126178096_177697fb7b8ffa57649c_72.jpg",
            "first_name": "Camille",
            "real_name": "Camille Masselot - JOGL Program coordinator",
            "display_name": "Camille Masselot - JOGL coordinator",
            "team": "TUU48M0T1",
            "name": "masselot.camille",
            "is_restricted": false,
            "is_ultra_restricted": false
        },
        "edited": {
            "user": "UV9V03C8Y",
            "ts": "1586896028.000000"
        },
        "blocks": [
            {
                "type": "rich_text",
                "block_id": "tGpg",
                "elements": [
                    {
                        "type": "rich_text_section",
                        "elements": [
                            {
                                "type": "broadcast",
                                "range": "channel"
                            },
                            {
                                "type": "text",
                                "text": ", following our communication call, please find below links that could be useful for posts, writing content about JOGL and the platform, and the global communication strategy. Everything is available on the communication meeting Agenda.\n\n"
                            },
                            {
                                "type": "text",
                                "text": "Useful links about JOGL: ",
                                "style": {
                                    "bold": true
                                }
                            },
                            {
                                "type": "text",
                                "text": "\n"
                            }
                        ]
                    },
                    {
                        "type": "rich_text_list",
                        "elements": [
                            {
                                "type": "rich_text_section",
                                "elements": [
                                    {
                                        "type": "link",
                                        "url": "https:\/\/drive.google.com\/file\/d\/1PV3oKS3Xafs7BGQzfoURbMAKflLurWuz\/view",
                                        "text": "JOGL presentation",
                                        "style": {
                                            "bold": true
                                        }
                                    },
                                    {
                                        "type": "text",
                                        "text": " (May 2019), good for the history of JOGL, values, missions, and what is a program on JOGL "
                                    }
                                ]
                            },
                            {
                                "type": "rich_text_section",
                                "elements": [
                                    {
                                        "type": "link",
                                        "url": "https:\/\/drive.google.com\/file\/d\/1cf5sHbXiNyfV2af-DJuth9BfKc_kHnem\/view",
                                        "text": "Co-Immune (JOGL first program) presentation",
                                        "style": {
                                            "bold": true
                                        }
                                    },
                                    {
                                        "type": "text",
                                        "text": " ",
                                        "style": {
                                            "bold": true
                                        }
                                    },
                                    {
                                        "type": "text",
                                        "text": "(May 2019), good for definitions of roles on the platform, and how to contribute, general “wording” on JOGL, and reasons of getting involved"
                                    }
                                ]
                            },
                            {
                                "type": "rich_text_section",
                                "elements": [
                                    {
                                        "type": "link",
                                        "url": "https:\/\/jogl.io\/",
                                        "text": "JOGL website",
                                        "style": {
                                            "bold": true
                                        }
                                    },
                                    {
                                        "type": "text",
                                        "text": ", good for an updated list of partners, collaborators, and JOGL’s ambition, social media link (bottom), and media featuring JOGL-Opencovid19 (would be good for repost)"
                                    }
                                ]
                            },
                            {
                                "type": "rich_text_section",
                                "elements": [
                                    {
                                        "type": "link",
                                        "url": "https:\/\/jogl.io\/assets\/pdfs\/JOGL-white-paper.pdf",
                                        "text": "JOGL provisional white paper ",
                                        "style": {
                                            "bold": true
                                        }
                                    },
                                    {
                                        "type": "text",
                                        "text": "(March 2019)"
                                    }
                                ]
                            },
                            {
                                "type": "rich_text_section",
                                "elements": [
                                    {
                                        "type": "link",
                                        "url": "https:\/\/app.jogl.io\/ethics-pledge",
                                        "text": "JOGL awareness and ethics pledge ",
                                        "style": {
                                            "bold": true
                                        }
                                    }
                                ]
                            },
                            {
                                "type": "rich_text_section",
                                "elements": [
                                    {
                                        "type": "link",
                                        "url": "https:\/\/app.jogl.io\/terms",
                                        "text": "JOGL terms and conditions",
                                        "style": {
                                            "bold": true
                                        }
                                    }
                                ]
                            }
                        ],
                        "style": "bullet",
                        "indent": 0
                    },
                    {
                        "type": "rich_text_section",
                        "elements": [
                            {
                                "type": "link",
                                "url": "https:\/\/docs.google.com\/spreadsheets\/d\/1clDgiTta0UyZlDbg5FK3ON3DfeZHT1XexqYA0q5fZoM\/edit#gid=0",
                                "text": "Co-Immune communication strategy",
                                "style": {
                                    "bold": true
                                }
                            },
                            {
                                "type": "link",
                                "url": "https:\/\/docs.google.com\/spreadsheets\/d\/1clDgiTta0UyZlDbg5FK3ON3DfeZHT1XexqYA0q5fZoM\/edit#gid=0",
                                "text": " "
                            },
                            {
                                "type": "text",
                                "text": "(in French, please ask "
                            },
                            {
                                "type": "user",
                                "user_id": "UV9V03C8Y"
                            },
                            {
                                "type": "text",
                                "text": " for questions)\n\nTake care!"
                            }
                        ]
                    }
                ]
            }
        ],
        "thread_ts": "1586895632.023000",
        "reply_count": 4,
        "reply_users_count": 3,
        "latest_reply": "1586991988.036000",
        "reply_users": [
            "U011VF29MK2",
            "U0103LPAWQ4",
            "UV9V03C8Y"
        ],
        "replies": [
            {
                "user": "U011VF29MK2",
                "ts": "1586895880.023500"
            },
            {
                "user": "U0103LPAWQ4",
                "ts": "1586902160.025600"
            },
            {
                "user": "UV9V03C8Y",
                "ts": "1586952348.029900"
            },
            {
                "user": "U0103LPAWQ4",
                "ts": "1586991988.036000"
            }
        ],
        "subscribed": false,
        "reactions": [
            {
                "name": "100",
                "users": [
                    "UV2SC7ZE3",
                    "UUWPKNE2E",
                    "UV0RRGB6H",
                    "UV0QTJCMT"
                ],
                "count": 4
            },
            {
                "name": "+1",
                "users": [
                    "U010UF6AXMF"
                ],
                "count": 1
            }
        ]
    },
    {
        "client_msg_id": "975b9240-71ac-4cba-8157-709f78f32760",
        "type": "message",
        "text": "thank you for this!",
        "user": "U011VF29MK2",
        "ts": "1586895880.023500",
        "team": "TUU48M0T1",
        "user_team": "TUU48M0T1",
        "source_team": "TUU48M0T1",
        "user_profile": {
            "avatar_hash": "0ef0287e69f4",
            "image_72": "https:\/\/avatars.slack-edge.com\/2020-04-07\/1045707527815_0ef0287e69f4d3296eaf_72.jpg",
            "first_name": "Catherine",
            "real_name": "Catherine Coykendall",
            "display_name": "Catherine Coykendall - Marketing Consultant",
            "team": "TUU48M0T1",
            "name": "c.coyken1978",
            "is_restricted": false,
            "is_ultra_restricted": false
        },
        "blocks": [
            {
                "type": "rich_text",
                "block_id": "Swd",
                "elements": [
                    {
                        "type": "rich_text_section",
                        "elements": [
                            {
                                "type": "text",
                                "text": "thank you for this!"
                            }
                        ]
                    }
                ]
            }
        ],
        "thread_ts": "1586895632.023000",
        "parent_user_id": "UV9V03C8Y"
    },
    {
        "client_msg_id": "0444fdf9-024e-4db0-8b3b-f3da3bcbd9c0",
        "type": "message",
        "text": "Hi <@U010W4KTANM> for putting this together, this is terrific, <@UVC9WMA7N> I think it's great to drive traffic, however I think we need to message purpose for each social media platform, i.e. \"Follow us Twitter for the latest challenge updates\" or \"Like us on Facebook for our community stories\" - this should be appended to every marketing communication we use to drive traffic to social, otherwise we do a disservice to potential engagement.  ...I'm thinking through this for a greater brand\/social media strategy - working on an outline of the deck and will share out with the team tomorrow...I think before we start working hard to drive social traffic we should be doing it with purpose, once a users engages with social media if they don't have the value clearly defined it will not sustain engagement.",
        "user": "U011VF29MK2",
        "ts": "1586897597.024700",
        "team": "TUU48M0T1",
        "user_team": "TUU48M0T1",
        "source_team": "TUU48M0T1",
        "user_profile": {
            "avatar_hash": "0ef0287e69f4",
            "image_72": "https:\/\/avatars.slack-edge.com\/2020-04-07\/1045707527815_0ef0287e69f4d3296eaf_72.jpg",
            "first_name": "Catherine",
            "real_name": "Catherine Coykendall",
            "display_name": "Catherine Coykendall - Marketing Consultant",
            "team": "TUU48M0T1",
            "name": "c.coyken1978",
            "is_restricted": false,
            "is_ultra_restricted": false
        },
        "blocks": [
            {
                "type": "rich_text",
                "block_id": "3Hjl",
                "elements": [
                    {
                        "type": "rich_text_section",
                        "elements": [
                            {
                                "type": "text",
                                "text": "Hi "
                            },
                            {
                                "type": "user",
                                "user_id": "U010W4KTANM"
                            },
                            {
                                "type": "text",
                                "text": " for putting this together, this is terrific, "
                            },
                            {
                                "type": "user",
                                "user_id": "UVC9WMA7N"
                            },
                            {
                                "type": "text",
                                "text": " I think it's great to drive traffic, however I think we need to message purpose for each social media platform, i.e. \"Follow us Twitter for the latest challenge updates\" or \"Like us on Facebook for our community stories\" - this should be appended to every marketing communication we use to drive traffic to social, otherwise we do a disservice to potential engagement.  ...I'm thinking through this for a greater brand\/social media strategy - working on an outline of the deck and will share out with the team tomorrow...I think before we start working hard to drive social traffic we should be doing it with purpose, once a users engages with social media if they don't have the value clearly defined it will not sustain engagement."
                            }
                        ]
                    }
                ]
            }
        ],
        "thread_ts": "1586890973.016300",
        "parent_user_id": "U010W4KTANM"
    },
    {
        "client_msg_id": "950ba8a1-a10e-487e-8135-1f850737c4c2",
        "type": "message",
        "text": "Yes, exactly. #4 &amp; 5 are more along the lines of what you are speaking about.",
        "user": "U010W4KTANM",
        "ts": "1586897931.024900",
        "team": "TUU48M0T1",
        "user_team": "TUU48M0T1",
        "source_team": "TUU48M0T1",
        "user_profile": {
            "avatar_hash": "5272265a95a9",
            "image_72": "https:\/\/avatars.slack-edge.com\/2020-04-07\/1052520458481_5272265a95a976c79c3e_72.jpg",
            "first_name": "",
            "real_name": "Sophie Lin",
            "display_name": "Sophie Lin",
            "team": "TUU48M0T1",
            "name": "sophie",
            "is_restricted": false,
            "is_ultra_restricted": false
        },
        "blocks": [
            {
                "type": "rich_text",
                "block_id": "zPF8",
                "elements": [
                    {
                        "type": "rich_text_section",
                        "elements": [
                            {
                                "type": "text",
                                "text": "Yes, exactly. #4 & 5 are more along the lines of what you are speaking about."
                            }
                        ]
                    }
                ]
            }
        ],
        "thread_ts": "1586890973.016300",
        "parent_user_id": "U010W4KTANM"
    },
    {
        "client_msg_id": "c0434726-3c70-466d-a284-74b39562e3fb",
        "type": "message",
        "text": "I consider the video explained matter closed as I never heard back from anyone about it. If\/when the team does think a video is suitable in this instance, they can contact me about it if they want me involved.\nCheers,\nBre",
        "user": "U0103LPAWQ4",
        "ts": "1586901790.025300",
        "team": "TUU48M0T1",
        "user_team": "TUU48M0T1",
        "source_team": "TUU48M0T1",
        "user_profile": {
            "avatar_hash": "7b345029e813",
            "image_72": "https:\/\/avatars.slack-edge.com\/2020-03-17\/1004213082549_7b345029e8137cbdc6b0_72.jpg",
            "first_name": "Bre",
            "real_name": "Bre",
            "display_name": "Bre",
            "team": "TUU48M0T1",
            "name": "info",
            "is_restricted": false,
            "is_ultra_restricted": false
        },
        "edited": {
            "user": "U0103LPAWQ4",
            "ts": "1586901822.000000"
        },
        "blocks": [
            {
                "type": "rich_text",
                "block_id": "ETL",
                "elements": [
                    {
                        "type": "rich_text_section",
                        "elements": [
                            {
                                "type": "text",
                                "text": "I consider the video explained matter closed as I never heard back from anyone about it. If\/when the team does think a video is suitable in this instance, they can contact me about it if they want me involved.\nCheers,\nBre"
                            }
                        ]
                    }
                ]
            }
        ],
        "thread_ts": "1585864412.237600",
        "parent_user_id": "UV9V03C8Y"
    },
    {
        "client_msg_id": "2eaabc3f-ba4e-4cc1-b6ab-97903a13fbfe",
        "type": "message",
        "text": "Hi <@UV9V03C8Y> Is the Co-Immune community housed here? Or, is that a completely separate Slack?",
        "user": "U0103LPAWQ4",
        "ts": "1586902160.025600",
        "team": "TUU48M0T1",
        "user_team": "TUU48M0T1",
        "source_team": "TUU48M0T1",
        "user_profile": {
            "avatar_hash": "7b345029e813",
            "image_72": "https:\/\/avatars.slack-edge.com\/2020-03-17\/1004213082549_7b345029e8137cbdc6b0_72.jpg",
            "first_name": "Bre",
            "real_name": "Bre",
            "display_name": "Bre",
            "team": "TUU48M0T1",
            "name": "info",
            "is_restricted": false,
            "is_ultra_restricted": false
        },
        "blocks": [
            {
                "type": "rich_text",
                "block_id": "GVKbC",
                "elements": [
                    {
                        "type": "rich_text_section",
                        "elements": [
                            {
                                "type": "text",
                                "text": "Hi "
                            },
                            {
                                "type": "user",
                                "user_id": "UV9V03C8Y"
                            },
                            {
                                "type": "text",
                                "text": " Is the Co-Immune community housed here? Or, is that a completely separate Slack?"
                            }
                        ]
                    }
                ]
            }
        ],
        "thread_ts": "1586895632.023000",
        "parent_user_id": "UV9V03C8Y"
    },
    {
        "client_msg_id": "b6144db7-5275-43a9-ad4f-6b4207178dac",
        "type": "message",
        "text": "Hi sorry <@U011VF29MK2> I was on another meeting at the same time !",
        "user": "UVC9WMA7N",
        "ts": "1586903192.025800",
        "team": "TUU48M0T1",
        "user_team": "TUU48M0T1",
        "source_team": "TUU48M0T1",
        "user_profile": {
            "avatar_hash": "56d14d58ed53",
            "image_72": "https:\/\/avatars.slack-edge.com\/2020-03-13\/998337892660_56d14d58ed537e6e4654_72.png",
            "first_name": "Leo",
            "real_name": "Leo Blondel",
            "display_name": "Leo Blondel - JOGL CoFounder \/ CTO",
            "team": "TUU48M0T1",
            "name": "leo",
            "is_restricted": false,
            "is_ultra_restricted": false
        },
        "blocks": [
            {
                "type": "rich_text",
                "block_id": "hRARk",
                "elements": [
                    {
                        "type": "rich_text_section",
                        "elements": [
                            {
                                "type": "text",
                                "text": "Hi sorry "
                            },
                            {
                                "type": "user",
                                "user_id": "U011VF29MK2"
                            },
                            {
                                "type": "text",
                                "text": " I was on another meeting at the same time !"
                            }
                        ]
                    }
                ]
            }
        ],
        "thread_ts": "1586880695.008700",
        "parent_user_id": "U011VF29MK2"
    },
    {
        "client_msg_id": "06abf62a-eb49-4c4c-8b11-652e8d3e1b1e",
        "type": "message",
        "text": "just PM me to get my attention ! too many messages everywhere",
        "user": "UVC9WMA7N",
        "ts": "1586903205.026000",
        "team": "TUU48M0T1",
        "user_team": "TUU48M0T1",
        "source_team": "TUU48M0T1",
        "user_profile": {
            "avatar_hash": "56d14d58ed53",
            "image_72": "https:\/\/avatars.slack-edge.com\/2020-03-13\/998337892660_56d14d58ed537e6e4654_72.png",
            "first_name": "Leo",
            "real_name": "Leo Blondel",
            "display_name": "Leo Blondel - JOGL CoFounder \/ CTO",
            "team": "TUU48M0T1",
            "name": "leo",
            "is_restricted": false,
            "is_ultra_restricted": false
        },
        "blocks": [
            {
                "type": "rich_text",
                "block_id": "K7\/",
                "elements": [
                    {
                        "type": "rich_text_section",
                        "elements": [
                            {
                                "type": "text",
                                "text": "just PM me to get my attention ! too many messages everywhere"
                            }
                        ]
                    }
                ]
            }
        ],
        "thread_ts": "1586880695.008700",
        "parent_user_id": "U011VF29MK2"
    },
    {
        "client_msg_id": "01acd823-35af-49ee-a4ad-0970f04144e3",
        "type": "message",
        "text": "Yay! The first social media post went live today. I just saw it on Facebook.",
        "user": "U0103LPAWQ4",
        "ts": "1586904092.026200",
        "team": "TUU48M0T1",
        "user_team": "TUU48M0T1",
        "source_team": "TUU48M0T1",
        "user_profile": {
            "avatar_hash": "7b345029e813",
            "image_72": "https:\/\/avatars.slack-edge.com\/2020-03-17\/1004213082549_7b345029e8137cbdc6b0_72.jpg",
            "first_name": "Bre",
            "real_name": "Bre",
            "display_name": "Bre",
            "team": "TUU48M0T1",
            "name": "info",
            "is_restricted": false,
            "is_ultra_restricted": false
        },
        "blocks": [
            {
                "type": "rich_text",
                "block_id": "bXpij",
                "elements": [
                    {
                        "type": "rich_text_section",
                        "elements": [
                            {
                                "type": "text",
                                "text": "Yay! The first social media post went live today. I just saw it on Facebook."
                            }
                        ]
                    }
                ]
            }
        ],
        "thread_ts": "1586827141.002600",
        "parent_user_id": "U0103LPAWQ4"
    },
    {
        "client_msg_id": "5f96dc94-a7e6-4cae-804a-653e109ecc27",
        "type": "message",
        "text": "<@U01019BQXM3> I just added Twitter-sized images to the folder and linked them into the Google Sheet.",
        "user": "U0103LPAWQ4",
        "ts": "1586905072.026400",
        "team": "TUU48M0T1",
        "user_team": "TUU48M0T1",
        "source_team": "TUU48M0T1",
        "user_profile": {
            "avatar_hash": "7b345029e813",
            "image_72": "https:\/\/avatars.slack-edge.com\/2020-03-17\/1004213082549_7b345029e8137cbdc6b0_72.jpg",
            "first_name": "Bre",
            "real_name": "Bre",
            "display_name": "Bre",
            "team": "TUU48M0T1",
            "name": "info",
            "is_restricted": false,
            "is_ultra_restricted": false
        },
        "blocks": [
            {
                "type": "rich_text",
                "block_id": "2hyok",
                "elements": [
                    {
                        "type": "rich_text_section",
                        "elements": [
                            {
                                "type": "user",
                                "user_id": "U01019BQXM3"
                            },
                            {
                                "type": "text",
                                "text": " I just added Twitter-sized images to the folder and linked them into the Google Sheet."
                            }
                        ]
                    }
                ]
            }
        ],
        "thread_ts": "1586827141.002600",
        "parent_user_id": "U0103LPAWQ4"
    }
]