[
    {
        "client_msg_id": "4ecfc181-3b3f-4b6d-a345-a5711ce1637b",
        "type": "message",
        "text": "Hey - I'd like to help with the branding \/ style guide, if you could do with a help hand that is",
        "user": "U01072UT127",
        "ts": "1586626150.476900",
        "team": "TUU48M0T1",
        "user_team": "TUU48M0T1",
        "source_team": "TUU48M0T1",
        "user_profile": {
            "avatar_hash": "65a47b12fd55",
            "image_72": "https:\/\/avatars.slack-edge.com\/2020-03-23\/1018603039072_65a47b12fd55dde2b3ca_72.jpg",
            "first_name": "David",
            "real_name": "David Suter",
            "display_name": "David Suter",
            "team": "TUU48M0T1",
            "name": "davidsuter01",
            "is_restricted": false,
            "is_ultra_restricted": false
        },
        "blocks": [
            {
                "type": "rich_text",
                "block_id": "gkR",
                "elements": [
                    {
                        "type": "rich_text_section",
                        "elements": [
                            {
                                "type": "text",
                                "text": "Hey - I'd like to help with the branding \/ style guide, if you could do with a help hand that is"
                            }
                        ]
                    }
                ]
            }
        ],
        "thread_ts": "1586542769.473400",
        "parent_user_id": "U011VF29MK2"
    },
    {
        "client_msg_id": "6891aaf8-1a2e-4889-887d-30ca6c6033fa",
        "type": "message",
        "text": "Hi, I was asked to work on a doc and some social posts for volunteers for one of the projects, but the Google Drive isn't working. I had access before, but now I keep getting directed to Groups and can't see any documents.",
        "user": "U0103LPAWQ4",
        "ts": "1586644509.479900",
        "team": "TUU48M0T1",
        "user_team": "TUU48M0T1",
        "source_team": "TUU48M0T1",
        "user_profile": {
            "avatar_hash": "7b345029e813",
            "image_72": "https:\/\/avatars.slack-edge.com\/2020-03-17\/1004213082549_7b345029e8137cbdc6b0_72.jpg",
            "first_name": "Bre",
            "real_name": "Bre",
            "display_name": "Bre",
            "team": "TUU48M0T1",
            "name": "info",
            "is_restricted": false,
            "is_ultra_restricted": false
        },
        "blocks": [
            {
                "type": "rich_text",
                "block_id": "LtfFO",
                "elements": [
                    {
                        "type": "rich_text_section",
                        "elements": [
                            {
                                "type": "text",
                                "text": "Hi, I was asked to work on a doc and some social posts for volunteers for one of the projects, but the Google Drive isn't working. I had access before, but now I keep getting directed to Groups and can't see any documents."
                            }
                        ]
                    }
                ]
            }
        ],
        "thread_ts": "1586644509.479900",
        "reply_count": 3,
        "reply_users_count": 1,
        "latest_reply": "1586739008.483200",
        "reply_users": [
            "UV2SC7ZE3"
        ],
        "replies": [
            {
                "user": "UV2SC7ZE3",
                "ts": "1586738969.482800"
            },
            {
                "user": "UV2SC7ZE3",
                "ts": "1586738987.483000"
            },
            {
                "user": "UV2SC7ZE3",
                "ts": "1586739008.483200"
            }
        ],
        "subscribed": false
    }
]