[
    {
        "type": "message",
        "text": "Hi <@UV9V03C8Y> <@U011D8T1Z61> <@UV87UQ37A> <@UV2SC7ZE3> <@U010APQC76J> <@U010Q3372P3>, ahead of our governance meeting, if you could take a look at this draft of the survey which we’ll hopefully start conducting next week, that would be great:",
        "files": [
            {
                "id": "F011S08M0PK",
                "created": 1586431703,
                "timestamp": 1586431703,
                "name": "Project inventory survey - April 2020",
                "title": "Project inventory survey - April 2020",
                "mimetype": "application\/vnd.google-apps.document",
                "filetype": "gdoc",
                "pretty_type": "GSuite Document",
                "user": "U011B6VLM2A",
                "editable": false,
                "size": 4112,
                "mode": "external",
                "is_external": true,
                "external_type": "gdrive",
                "is_public": true,
                "public_url_shared": false,
                "display_as_bot": false,
                "username": "",
                "url_private": "https:\/\/docs.google.com\/document\/d\/1ki2gWqsTGF-knuZ1v-5KfuGBTwtYuGgIYa7NcH-yvHg\/edit?usp=drive_web",
                "thumb_64": "https:\/\/files.slack.com\/files-tmb\/TUU48M0T1-F011S08M0PK-8e4be54d95\/project_inventory_survey_-_april_2020_64.png?t=xoxe-980144714919-1106606678066-1105227127893-6f722bb664235052954ad46852628b64",
                "thumb_80": "https:\/\/files.slack.com\/files-tmb\/TUU48M0T1-F011S08M0PK-8e4be54d95\/project_inventory_survey_-_april_2020_80.png?t=xoxe-980144714919-1106606678066-1105227127893-6f722bb664235052954ad46852628b64",
                "thumb_360": "https:\/\/files.slack.com\/files-tmb\/TUU48M0T1-F011S08M0PK-8e4be54d95\/project_inventory_survey_-_april_2020_360.png?t=xoxe-980144714919-1106606678066-1105227127893-6f722bb664235052954ad46852628b64",
                "thumb_360_w": 278,
                "thumb_360_h": 360,
                "thumb_480": "https:\/\/files.slack.com\/files-tmb\/TUU48M0T1-F011S08M0PK-8e4be54d95\/project_inventory_survey_-_april_2020_480.png?t=xoxe-980144714919-1106606678066-1105227127893-6f722bb664235052954ad46852628b64",
                "thumb_480_w": 371,
                "thumb_480_h": 480,
                "thumb_160": "https:\/\/files.slack.com\/files-tmb\/TUU48M0T1-F011S08M0PK-8e4be54d95\/project_inventory_survey_-_april_2020_160.png?t=xoxe-980144714919-1106606678066-1105227127893-6f722bb664235052954ad46852628b64",
                "thumb_720": "https:\/\/files.slack.com\/files-tmb\/TUU48M0T1-F011S08M0PK-8e4be54d95\/project_inventory_survey_-_april_2020_720.png?t=xoxe-980144714919-1106606678066-1105227127893-6f722bb664235052954ad46852628b64",
                "thumb_720_w": 557,
                "thumb_720_h": 720,
                "thumb_800": "https:\/\/files.slack.com\/files-tmb\/TUU48M0T1-F011S08M0PK-8e4be54d95\/project_inventory_survey_-_april_2020_800.png?t=xoxe-980144714919-1106606678066-1105227127893-6f722bb664235052954ad46852628b64",
                "thumb_800_w": 800,
                "thumb_800_h": 1035,
                "thumb_960": "https:\/\/files.slack.com\/files-tmb\/TUU48M0T1-F011S08M0PK-8e4be54d95\/project_inventory_survey_-_april_2020_960.png?t=xoxe-980144714919-1106606678066-1105227127893-6f722bb664235052954ad46852628b64",
                "thumb_960_w": 742,
                "thumb_960_h": 960,
                "thumb_1024": "https:\/\/files.slack.com\/files-tmb\/TUU48M0T1-F011S08M0PK-8e4be54d95\/project_inventory_survey_-_april_2020_1024.png?t=xoxe-980144714919-1106606678066-1105227127893-6f722bb664235052954ad46852628b64",
                "thumb_1024_w": 791,
                "thumb_1024_h": 1024,
                "image_exif_rotation": 1,
                "original_w": 800,
                "original_h": 1035,
                "thumb_tiny": "AwAwACXSJxSbxQx6UYPpQAu4UbhRz70c+9AC0UDpRQAjdKZtant901HQA7Df5NOG7vTKOaAJKKKKAGv0pCTmnEZGKTYKAE3H2pQSe4o2+9KBQAtFFFAH\/9k=",
                "permalink": "https:\/\/open-covid19.slack.com\/files\/U011B6VLM2A\/F011S08M0PK\/project_inventory_survey_-_april_2020",
                "is_starred": false,
                "external_id": "1ki2gWqsTGF-knuZ1v-5KfuGBTwtYuGgIYa7NcH-yvHg",
                "external_url": "https:\/\/docs.google.com\/document\/d\/1ki2gWqsTGF-knuZ1v-5KfuGBTwtYuGgIYa7NcH-yvHg\/edit?usp=drive_web",
                "has_rich_preview": true
            }
        ],
        "upload": false,
        "blocks": [
            {
                "type": "rich_text",
                "block_id": "kZ9X",
                "elements": [
                    {
                        "type": "rich_text_section",
                        "elements": [
                            {
                                "type": "text",
                                "text": "Hi "
                            },
                            {
                                "type": "user",
                                "user_id": "UV9V03C8Y"
                            },
                            {
                                "type": "text",
                                "text": " "
                            },
                            {
                                "type": "user",
                                "user_id": "U011D8T1Z61"
                            },
                            {
                                "type": "text",
                                "text": " "
                            },
                            {
                                "type": "user",
                                "user_id": "UV87UQ37A"
                            },
                            {
                                "type": "text",
                                "text": " "
                            },
                            {
                                "type": "user",
                                "user_id": "UV2SC7ZE3"
                            },
                            {
                                "type": "text",
                                "text": " "
                            },
                            {
                                "type": "user",
                                "user_id": "U010APQC76J"
                            },
                            {
                                "type": "text",
                                "text": " "
                            },
                            {
                                "type": "user",
                                "user_id": "U010Q3372P3"
                            },
                            {
                                "type": "text",
                                "text": ", ahead of our governance meeting, if you could take a look at this draft of the survey which we’ll hopefully start conducting next week, that would be great:"
                            }
                        ]
                    }
                ]
            }
        ],
        "user": "U011B6VLM2A",
        "display_as_bot": false,
        "ts": "1586431708.443400",
        "edited": {
            "user": "U011B6VLM2A",
            "ts": "1586431772.000000"
        },
        "thread_ts": "1586348876.388900",
        "parent_user_id": "UV9V03C8Y",
        "reactions": [
            {
                "name": "+1",
                "users": [
                    "U011D8T1Z61",
                    "UV2SC7ZE3"
                ],
                "count": 2
            }
        ]
    },
    {
        "client_msg_id": "eea62833-14a4-413b-bf23-7b8f2bbff3ea",
        "type": "message",
        "text": "<@UV0QTJCMT> You're now admin on LinkedIn!",
        "user": "U010APQC76J",
        "ts": "1586435383.444500",
        "team": "TUU48M0T1",
        "user_team": "TUU48M0T1",
        "source_team": "TUU48M0T1",
        "user_profile": {
            "avatar_hash": "751a8e7a94a5",
            "image_72": "https:\/\/avatars.slack-edge.com\/2020-03-25\/1026091401893_751a8e7a94a519bfd1d7_72.jpg",
            "first_name": "Hans",
            "real_name": "Hans Pfalzgraf",
            "display_name": "Hans P",
            "team": "TUU48M0T1",
            "name": "h.pfalzgraf",
            "is_restricted": false,
            "is_ultra_restricted": false
        },
        "blocks": [
            {
                "type": "rich_text",
                "block_id": "9Ro",
                "elements": [
                    {
                        "type": "rich_text_section",
                        "elements": [
                            {
                                "type": "user",
                                "user_id": "UV0QTJCMT"
                            },
                            {
                                "type": "text",
                                "text": " You're now admin on LinkedIn!"
                            }
                        ]
                    }
                ]
            }
        ],
        "thread_ts": "1586284015.348400",
        "parent_user_id": "UV0QTJCMT",
        "reactions": [
            {
                "name": "+1",
                "users": [
                    "UV0QTJCMT"
                ],
                "count": 1
            }
        ]
    },
    {
        "client_msg_id": "55658542-ab67-4e17-af90-4b10ac2b7ea7",
        "type": "message",
        "text": "Hi <@UV2SC7ZE3> and <@UV0PCSG58> - just doing some investigative work on JOGL projects and proj- channels. Can you confirm that Anteneh hasn’t been reached out to via JOGL? Has there been any effort to bring him into Slack?",
        "user": "U011B6VLM2A",
        "ts": "1586443091.445200",
        "team": "TUU48M0T1",
        "user_team": "TUU48M0T1",
        "source_team": "TUU48M0T1",
        "user_profile": {
            "avatar_hash": "4231dc598cfc",
            "image_72": "https:\/\/avatars.slack-edge.com\/2020-04-02\/1044784558839_4231dc598cfc2e59c4c4_72.jpg",
            "first_name": "Alix",
            "real_name": "Alix Mains",
            "display_name": "Alix Mains - JOGL Coordinator",
            "team": "TUU48M0T1",
            "name": "alixhmains",
            "is_restricted": false,
            "is_ultra_restricted": false
        },
        "blocks": [
            {
                "type": "rich_text",
                "block_id": "lY6",
                "elements": [
                    {
                        "type": "rich_text_section",
                        "elements": [
                            {
                                "type": "text",
                                "text": "Hi "
                            },
                            {
                                "type": "user",
                                "user_id": "UV2SC7ZE3"
                            },
                            {
                                "type": "text",
                                "text": " and "
                            },
                            {
                                "type": "user",
                                "user_id": "UV0PCSG58"
                            },
                            {
                                "type": "text",
                                "text": " - just doing some investigative work on JOGL projects and proj- channels. Can you confirm that Anteneh hasn’t been reached out to via JOGL? Has there been any effort to bring him into Slack?"
                            }
                        ]
                    }
                ]
            }
        ],
        "thread_ts": "1585165446.029000",
        "parent_user_id": "UV0PCSG58"
    },
    {
        "client_msg_id": "81D724AD-2A97-4AF7-8461-EB027CCBA3DA",
        "type": "message",
        "text": "<@U010APQC76J> thanks! ",
        "user": "UV0QTJCMT",
        "ts": "1586452723.446100",
        "team": "TUU48M0T1",
        "user_team": "TUU48M0T1",
        "source_team": "TUU48M0T1",
        "user_profile": {
            "avatar_hash": "06a6ae8f69d1",
            "image_72": "https:\/\/avatars.slack-edge.com\/2020-04-13\/1060635499315_06a6ae8f69d18f1ad464_72.png",
            "first_name": "Katherine",
            "real_name": "Katherine Holo",
            "display_name": "Kat Holo - Co-Organizer of OpenCOVID19",
            "team": "TUU48M0T1",
            "name": "katherineh245",
            "is_restricted": false,
            "is_ultra_restricted": false
        },
        "blocks": [
            {
                "type": "rich_text",
                "block_id": "m\/szd",
                "elements": [
                    {
                        "type": "rich_text_section",
                        "elements": [
                            {
                                "type": "user",
                                "user_id": "U010APQC76J"
                            },
                            {
                                "type": "text",
                                "text": " thanks! "
                            }
                        ]
                    }
                ]
            }
        ],
        "thread_ts": "1586284015.348400",
        "parent_user_id": "UV0QTJCMT"
    },
    {
        "client_msg_id": "2edb5695-5651-481c-91e8-e2e1404ed403",
        "type": "message",
        "text": "reviewed and added comments to the end of the document",
        "user": "U010Q3372P3",
        "ts": "1586455042.446600",
        "team": "TUU48M0T1",
        "user_team": "TUU48M0T1",
        "source_team": "TUU48M0T1",
        "user_profile": {
            "avatar_hash": "95066184973b",
            "image_72": "https:\/\/avatars.slack-edge.com\/2020-03-30\/1036274198128_95066184973b1de50d1a_72.png",
            "first_name": "Kathryn",
            "real_name": "Kathryn Rowe",
            "display_name": "Kathryn Rowe",
            "team": "TUU48M0T1",
            "name": "kathryn.rowe",
            "is_restricted": false,
            "is_ultra_restricted": false
        },
        "blocks": [
            {
                "type": "rich_text",
                "block_id": "N4Q",
                "elements": [
                    {
                        "type": "rich_text_section",
                        "elements": [
                            {
                                "type": "text",
                                "text": "reviewed and added comments to the end of the document"
                            }
                        ]
                    }
                ]
            }
        ],
        "thread_ts": "1586348876.388900",
        "parent_user_id": "UV9V03C8Y"
    }
]