[
    {
        "client_msg_id": "efffdfb1-5b17-4d15-adab-a04132921970",
        "type": "message",
        "text": "Hello, it appears there was a bit of miscommunication with my social media submission-- I submitted two different types of post with my document to go on the different social media channels. The longer Facebook\/LinkedIn\/Instagram post had tags I knew from previously running a small SciComm account had a lot of people watching them.\n\nCould I have some clarification on this? Thanks!",
        "user": "U0101DKUALV",
        "ts": "1586936708.028300",
        "team": "TUU48M0T1",
        "user_team": "TUU48M0T1",
        "source_team": "TUU48M0T1",
        "user_profile": {
            "avatar_hash": "b0aee06ed3e5",
            "image_72": "https:\/\/avatars.slack-edge.com\/2020-04-22\/1072886325190_b0aee06ed3e501ebdf56_72.png",
            "first_name": "",
            "real_name": "Pauline Chane",
            "display_name": "Pauline Chane",
            "team": "TUU48M0T1",
            "name": "pauline.chane",
            "is_restricted": false,
            "is_ultra_restricted": false
        },
        "blocks": [
            {
                "type": "rich_text",
                "block_id": "4\/r",
                "elements": [
                    {
                        "type": "rich_text_section",
                        "elements": [
                            {
                                "type": "text",
                                "text": "Hello, it appears there was a bit of miscommunication with my social media submission-- I submitted two different types of post with my document to go on the different social media channels. The longer Facebook\/LinkedIn\/Instagram post had tags I knew from previously running a small SciComm account had a lot of people watching them.\n\nCould I have some clarification on this? Thanks!"
                            }
                        ]
                    }
                ]
            }
        ],
        "thread_ts": "1586936708.028300",
        "reply_count": 4,
        "reply_users_count": 2,
        "latest_reply": "1586966660.032100",
        "reply_users": [
            "UV2SC7ZE3",
            "U0101DKUALV"
        ],
        "replies": [
            {
                "user": "UV2SC7ZE3",
                "ts": "1586966404.031500"
            },
            {
                "user": "U0101DKUALV",
                "ts": "1586966612.031700"
            },
            {
                "user": "UV2SC7ZE3",
                "ts": "1586966628.031900"
            },
            {
                "user": "UV2SC7ZE3",
                "ts": "1586966660.032100"
            }
        ],
        "subscribed": false
    },
    {
        "client_msg_id": "ec4cc67f-6530-4b48-922b-5ee407af13b4",
        "type": "message",
        "text": "<https:\/\/about.canva.com\/canva-for-nonprofits\/?utm_medium=pr&amp;utm_source=news&amp;utm_campaign=nfp_program>",
        "user": "U0103LPAWQ4",
        "ts": "1586940134.028600",
        "team": "TUU48M0T1",
        "user_team": "TUU48M0T1",
        "source_team": "TUU48M0T1",
        "user_profile": {
            "avatar_hash": "7b345029e813",
            "image_72": "https:\/\/avatars.slack-edge.com\/2020-03-17\/1004213082549_7b345029e8137cbdc6b0_72.jpg",
            "first_name": "Bre",
            "real_name": "Bre",
            "display_name": "Bre",
            "team": "TUU48M0T1",
            "name": "info",
            "is_restricted": false,
            "is_ultra_restricted": false
        },
        "attachments": [
            {
                "service_name": "About Canva",
                "title": "Canva for Nonprofits",
                "title_link": "https:\/\/about.canva.com\/canva-for-nonprofits\/?utm_medium=pr&utm_source=news&utm_campaign=nfp_program",
                "text": "Empower your team to create high-impact social media graphics and marketing materials. Canva offers its premium version free to registered nonprofits.",
                "fallback": "About Canva: Canva for Nonprofits",
                "ts": 1444292842,
                "from_url": "https:\/\/about.canva.com\/canva-for-nonprofits\/?utm_medium=pr&utm_source=news&utm_campaign=nfp_program",
                "service_icon": "https:\/\/static.canva.com\/static\/images\/apple-touch-120x120.png",
                "id": 1,
                "original_url": "https:\/\/about.canva.com\/canva-for-nonprofits\/?utm_medium=pr&amp;utm_source=news&amp;utm_campaign=nfp_program"
            }
        ],
        "blocks": [
            {
                "type": "rich_text",
                "block_id": "7wRnu",
                "elements": [
                    {
                        "type": "rich_text_section",
                        "elements": [
                            {
                                "type": "link",
                                "url": "https:\/\/about.canva.com\/canva-for-nonprofits\/?utm_medium=pr&utm_source=news&utm_campaign=nfp_program"
                            }
                        ]
                    }
                ]
            }
        ],
        "thread_ts": "1586940134.028600",
        "reply_count": 1,
        "reply_users_count": 1,
        "latest_reply": "1586940191.028800",
        "reply_users": [
            "U0101DKUALV"
        ],
        "replies": [
            {
                "user": "U0101DKUALV",
                "ts": "1586940191.028800"
            }
        ],
        "subscribed": false,
        "reactions": [
            {
                "name": "100",
                "users": [
                    "UV2SC7ZE3"
                ],
                "count": 1
            }
        ]
    },
    {
        "client_msg_id": "15c9e10c-c3e4-490f-9c80-0b6b2d84dcde",
        "type": "message",
        "text": "OMG, I forgot about Canva! Love their stuff :smile:",
        "user": "U0101DKUALV",
        "ts": "1586940191.028800",
        "team": "TUU48M0T1",
        "user_team": "TUU48M0T1",
        "source_team": "TUU48M0T1",
        "user_profile": {
            "avatar_hash": "b0aee06ed3e5",
            "image_72": "https:\/\/avatars.slack-edge.com\/2020-04-22\/1072886325190_b0aee06ed3e501ebdf56_72.png",
            "first_name": "",
            "real_name": "Pauline Chane",
            "display_name": "Pauline Chane",
            "team": "TUU48M0T1",
            "name": "pauline.chane",
            "is_restricted": false,
            "is_ultra_restricted": false
        },
        "blocks": [
            {
                "type": "rich_text",
                "block_id": "bSsz",
                "elements": [
                    {
                        "type": "rich_text_section",
                        "elements": [
                            {
                                "type": "text",
                                "text": "OMG, I forgot about Canva! Love their stuff "
                            },
                            {
                                "type": "emoji",
                                "name": "smile"
                            }
                        ]
                    }
                ]
            }
        ],
        "thread_ts": "1586940134.028600",
        "parent_user_id": "U0103LPAWQ4"
    },
    {
        "client_msg_id": "067d1b9f-7ca5-4c15-b5ee-ca49cd6089e0",
        "type": "message",
        "text": "<@UV2SC7ZE3> I'm would love to try out HootSuite, but because we can only have three people using it (<https:\/\/hootsuite.com\/legal\/acceptable-use>) I'm willing to give up my access to someone who's even more keen :stuck_out_tongue:",
        "user": "U010APQC76J",
        "ts": "1586948881.029400",
        "team": "TUU48M0T1",
        "user_team": "TUU48M0T1",
        "source_team": "TUU48M0T1",
        "user_profile": {
            "avatar_hash": "751a8e7a94a5",
            "image_72": "https:\/\/avatars.slack-edge.com\/2020-03-25\/1026091401893_751a8e7a94a519bfd1d7_72.jpg",
            "first_name": "Hans",
            "real_name": "Hans Pfalzgraf",
            "display_name": "Hans P",
            "team": "TUU48M0T1",
            "name": "h.pfalzgraf",
            "is_restricted": false,
            "is_ultra_restricted": false
        },
        "attachments": [
            {
                "service_name": "Hootsuite",
                "title": "Acceptable Use",
                "title_link": "https:\/\/hootsuite.com\/legal\/acceptable-use",
                "text": "Enhance your social media management with Hootsuite, the leading social media dashboard. Manage multiple networks and profiles and measure your campaign results.",
                "fallback": "Hootsuite: Acceptable Use",
                "image_url": "http:\/\/hootsuite.com\/dist\/images\/placeholders\/social-share.jpg",
                "from_url": "https:\/\/hootsuite.com\/legal\/acceptable-use",
                "image_width": 478,
                "image_height": 250,
                "image_bytes": 111975,
                "service_icon": "https:\/\/hootsuite.com\/dist\/images\/icons\/apple-touch-icon.png",
                "id": 1,
                "original_url": "https:\/\/hootsuite.com\/legal\/acceptable-use"
            }
        ],
        "blocks": [
            {
                "type": "rich_text",
                "block_id": "rThDt",
                "elements": [
                    {
                        "type": "rich_text_section",
                        "elements": [
                            {
                                "type": "user",
                                "user_id": "UV2SC7ZE3"
                            },
                            {
                                "type": "text",
                                "text": " I'm would love to try out HootSuite, but because we can only have three people using it ("
                            },
                            {
                                "type": "link",
                                "url": "https:\/\/hootsuite.com\/legal\/acceptable-use"
                            },
                            {
                                "type": "text",
                                "text": ") I'm willing to give up my access to someone who's even more keen "
                            },
                            {
                                "type": "emoji",
                                "name": "stuck_out_tongue"
                            }
                        ]
                    }
                ]
            }
        ],
        "thread_ts": "1586886670.011600",
        "parent_user_id": "UV2SC7ZE3"
    },
    {
        "client_msg_id": "dceae2a1-066b-4679-ba21-710de8eea187",
        "type": "message",
        "text": "Hey <@U011B6VLM2A>!\nSure I will fill in the slide for the comms team! What's POCs? I have many ideas but they're probably all wrong ha ha!",
        "user": "U010APQC76J",
        "ts": "1586949078.029700",
        "team": "TUU48M0T1",
        "user_team": "TUU48M0T1",
        "source_team": "TUU48M0T1",
        "user_profile": {
            "avatar_hash": "751a8e7a94a5",
            "image_72": "https:\/\/avatars.slack-edge.com\/2020-03-25\/1026091401893_751a8e7a94a519bfd1d7_72.jpg",
            "first_name": "Hans",
            "real_name": "Hans Pfalzgraf",
            "display_name": "Hans P",
            "team": "TUU48M0T1",
            "name": "h.pfalzgraf",
            "is_restricted": false,
            "is_ultra_restricted": false
        },
        "blocks": [
            {
                "type": "rich_text",
                "block_id": "MJdYQ",
                "elements": [
                    {
                        "type": "rich_text_section",
                        "elements": [
                            {
                                "type": "text",
                                "text": "Hey "
                            },
                            {
                                "type": "user",
                                "user_id": "U011B6VLM2A"
                            },
                            {
                                "type": "text",
                                "text": "!\nSure I will fill in the slide for the comms team! What's POCs? I have many ideas but they're probably all wrong ha ha!"
                            }
                        ]
                    }
                ]
            }
        ],
        "thread_ts": "1586888281.014200",
        "parent_user_id": "U011B6VLM2A"
    },
    {
        "client_msg_id": "e0646a08-5fd1-4284-b538-e6c1428b281c",
        "type": "message",
        "text": "The Co-Immune community didn't have a Slack, all on the JOGL platform. The Co-Immune program is closed since December 2019 :slightly_smiling_face:",
        "user": "UV9V03C8Y",
        "ts": "1586952348.029900",
        "team": "TUU48M0T1",
        "user_team": "TUU48M0T1",
        "source_team": "TUU48M0T1",
        "user_profile": {
            "avatar_hash": "177697fb7b8f",
            "image_72": "https:\/\/avatars.slack-edge.com\/2020-03-12\/996126178096_177697fb7b8ffa57649c_72.jpg",
            "first_name": "Camille",
            "real_name": "Camille Masselot - JOGL Program coordinator",
            "display_name": "Camille Masselot - JOGL coordinator",
            "team": "TUU48M0T1",
            "name": "masselot.camille",
            "is_restricted": false,
            "is_ultra_restricted": false
        },
        "blocks": [
            {
                "type": "rich_text",
                "block_id": "Wnf",
                "elements": [
                    {
                        "type": "rich_text_section",
                        "elements": [
                            {
                                "type": "text",
                                "text": "The Co-Immune community didn't have a Slack, all on the JOGL platform. The Co-Immune program is closed since December 2019 "
                            },
                            {
                                "type": "emoji",
                                "name": "slightly_smiling_face"
                            }
                        ]
                    }
                ]
            }
        ],
        "thread_ts": "1586895632.023000",
        "parent_user_id": "UV9V03C8Y"
    },
    {
        "client_msg_id": "0438422f-8c6a-4c89-82d4-57c5fb312112",
        "type": "message",
        "text": "yep! “person of contact” :wink: I’ll make it clearer in the slides",
        "user": "U011B6VLM2A",
        "ts": "1586962717.030900",
        "team": "TUU48M0T1",
        "user_team": "TUU48M0T1",
        "source_team": "TUU48M0T1",
        "user_profile": {
            "avatar_hash": "4231dc598cfc",
            "image_72": "https:\/\/avatars.slack-edge.com\/2020-04-02\/1044784558839_4231dc598cfc2e59c4c4_72.jpg",
            "first_name": "Alix",
            "real_name": "Alix Mains",
            "display_name": "Alix Mains - JOGL Coordinator",
            "team": "TUU48M0T1",
            "name": "alixhmains",
            "is_restricted": false,
            "is_ultra_restricted": false
        },
        "blocks": [
            {
                "type": "rich_text",
                "block_id": "bAHxI",
                "elements": [
                    {
                        "type": "rich_text_section",
                        "elements": [
                            {
                                "type": "text",
                                "text": "yep! “person of contact” "
                            },
                            {
                                "type": "emoji",
                                "name": "wink"
                            },
                            {
                                "type": "text",
                                "text": " I’ll make it clearer in the slides"
                            }
                        ]
                    }
                ]
            }
        ],
        "thread_ts": "1586888281.014200",
        "parent_user_id": "U011B6VLM2A"
    },
    {
        "client_msg_id": "6cc1a587-d44d-48da-90ad-7f3e26a1449d",
        "type": "message",
        "text": "Sorry about that. There must have been some confusion. I can update fb\/linkedin with the posts. It seems like they were copied from the Twitter post",
        "user": "UV2SC7ZE3",
        "ts": "1586966404.031500",
        "team": "TUU48M0T1",
        "user_team": "TUU48M0T1",
        "source_team": "TUU48M0T1",
        "user_profile": {
            "avatar_hash": "d28dd0d076e8",
            "image_72": "https:\/\/avatars.slack-edge.com\/2020-03-14\/987873094258_d28dd0d076e8fa9a8409_72.png",
            "first_name": "David",
            "real_name": "David Lu",
            "display_name": "David Lu",
            "team": "TUU48M0T1",
            "name": "ludavidyi",
            "is_restricted": false,
            "is_ultra_restricted": false
        },
        "blocks": [
            {
                "type": "rich_text",
                "block_id": "dNl",
                "elements": [
                    {
                        "type": "rich_text_section",
                        "elements": [
                            {
                                "type": "text",
                                "text": "Sorry about that. There must have been some confusion. I can update fb\/linkedin with the posts. It seems like they were copied from the Twitter post"
                            }
                        ]
                    }
                ]
            }
        ],
        "thread_ts": "1586936708.028300",
        "parent_user_id": "U0101DKUALV"
    },
    {
        "client_msg_id": "eb246324-0740-4c06-9e78-2beaba0f12e4",
        "type": "message",
        "text": "Thank you!",
        "user": "U0101DKUALV",
        "ts": "1586966612.031700",
        "team": "TUU48M0T1",
        "user_team": "TUU48M0T1",
        "source_team": "TUU48M0T1",
        "user_profile": {
            "avatar_hash": "b0aee06ed3e5",
            "image_72": "https:\/\/avatars.slack-edge.com\/2020-04-22\/1072886325190_b0aee06ed3e501ebdf56_72.png",
            "first_name": "",
            "real_name": "Pauline Chane",
            "display_name": "Pauline Chane",
            "team": "TUU48M0T1",
            "name": "pauline.chane",
            "is_restricted": false,
            "is_ultra_restricted": false
        },
        "blocks": [
            {
                "type": "rich_text",
                "block_id": "3PfW",
                "elements": [
                    {
                        "type": "rich_text_section",
                        "elements": [
                            {
                                "type": "text",
                                "text": "Thank you!"
                            }
                        ]
                    }
                ]
            }
        ],
        "thread_ts": "1586936708.028300",
        "parent_user_id": "U0101DKUALV"
    },
    {
        "client_msg_id": "ba33c61b-2401-4a71-a08f-3449b712afd2",
        "type": "message",
        "text": "changed",
        "user": "UV2SC7ZE3",
        "ts": "1586966628.031900",
        "team": "TUU48M0T1",
        "user_team": "TUU48M0T1",
        "source_team": "TUU48M0T1",
        "user_profile": {
            "avatar_hash": "d28dd0d076e8",
            "image_72": "https:\/\/avatars.slack-edge.com\/2020-03-14\/987873094258_d28dd0d076e8fa9a8409_72.png",
            "first_name": "David",
            "real_name": "David Lu",
            "display_name": "David Lu",
            "team": "TUU48M0T1",
            "name": "ludavidyi",
            "is_restricted": false,
            "is_ultra_restricted": false
        },
        "blocks": [
            {
                "type": "rich_text",
                "block_id": "3Yqu",
                "elements": [
                    {
                        "type": "rich_text_section",
                        "elements": [
                            {
                                "type": "text",
                                "text": "changed"
                            }
                        ]
                    }
                ]
            }
        ],
        "thread_ts": "1586936708.028300",
        "parent_user_id": "U0101DKUALV"
    },
    {
        "client_msg_id": "4f02a2cb-4a19-4bb8-9fd0-7d11e62d8543",
        "type": "message",
        "text": "we're currently not prioritizing instagram at the moment",
        "user": "UV2SC7ZE3",
        "ts": "1586966660.032100",
        "team": "TUU48M0T1",
        "user_team": "TUU48M0T1",
        "source_team": "TUU48M0T1",
        "user_profile": {
            "avatar_hash": "d28dd0d076e8",
            "image_72": "https:\/\/avatars.slack-edge.com\/2020-03-14\/987873094258_d28dd0d076e8fa9a8409_72.png",
            "first_name": "David",
            "real_name": "David Lu",
            "display_name": "David Lu",
            "team": "TUU48M0T1",
            "name": "ludavidyi",
            "is_restricted": false,
            "is_ultra_restricted": false
        },
        "blocks": [
            {
                "type": "rich_text",
                "block_id": "SD6+",
                "elements": [
                    {
                        "type": "rich_text_section",
                        "elements": [
                            {
                                "type": "text",
                                "text": "we're currently not prioritizing instagram at the moment"
                            }
                        ]
                    }
                ]
            }
        ],
        "thread_ts": "1586936708.028300",
        "parent_user_id": "U0101DKUALV"
    },
    {
        "client_msg_id": "6d7456a8-6652-48a9-9c13-4077e2d0f2d2",
        "type": "message",
        "text": "Hi <!channel> wanted to see if anyone needs me for anything before our meeting with the team this Friday. I see that there are two new meetings on Friday, one called “Program management dashboard” and another called “Working on Onboarding” does anyone know if there are agendas tied to either of these meeting?",
        "user": "U010Q3372P3",
        "ts": "1586987891.035000",
        "team": "TUU48M0T1",
        "user_team": "TUU48M0T1",
        "source_team": "TUU48M0T1",
        "user_profile": {
            "avatar_hash": "95066184973b",
            "image_72": "https:\/\/avatars.slack-edge.com\/2020-03-30\/1036274198128_95066184973b1de50d1a_72.png",
            "first_name": "Kathryn",
            "real_name": "Kathryn Rowe",
            "display_name": "Kathryn Rowe",
            "team": "TUU48M0T1",
            "name": "kathryn.rowe",
            "is_restricted": false,
            "is_ultra_restricted": false
        },
        "edited": {
            "user": "U010Q3372P3",
            "ts": "1586987922.000000"
        },
        "blocks": [
            {
                "type": "rich_text",
                "block_id": "52FFa",
                "elements": [
                    {
                        "type": "rich_text_section",
                        "elements": [
                            {
                                "type": "text",
                                "text": "Hi "
                            },
                            {
                                "type": "broadcast",
                                "range": "channel"
                            },
                            {
                                "type": "text",
                                "text": " wanted to see if anyone needs me for anything before our meeting with the team this Friday. I see that there are two new meetings on Friday, one called “Program management dashboard” and another called “Working on Onboarding” does anyone know if there are agendas tied to either of these meeting?"
                            }
                        ]
                    }
                ]
            }
        ],
        "thread_ts": "1586987891.035000",
        "reply_count": 1,
        "reply_users_count": 1,
        "latest_reply": "1586988694.035200",
        "reply_users": [
            "UV9V03C8Y"
        ],
        "replies": [
            {
                "user": "UV9V03C8Y",
                "ts": "1586988694.035200"
            }
        ],
        "subscribed": false
    },
    {
        "client_msg_id": "0fd97efd-211f-4ba4-8a72-74f0cf586f14",
        "type": "message",
        "text": "Hey! No agenda yet for these meetings. The program management is the one I created following our talk: one of the goal is to discuss what would be the best dashboard for this program management ; the second meeting is following up on David and I meeting on Tuesday (see minutes in the governance team), and tick some boxes out of the list of TODOs for improving onboarding.",
        "user": "UV9V03C8Y",
        "ts": "1586988694.035200",
        "team": "TUU48M0T1",
        "user_team": "TUU48M0T1",
        "source_team": "TUU48M0T1",
        "user_profile": {
            "avatar_hash": "177697fb7b8f",
            "image_72": "https:\/\/avatars.slack-edge.com\/2020-03-12\/996126178096_177697fb7b8ffa57649c_72.jpg",
            "first_name": "Camille",
            "real_name": "Camille Masselot - JOGL Program coordinator",
            "display_name": "Camille Masselot - JOGL coordinator",
            "team": "TUU48M0T1",
            "name": "masselot.camille",
            "is_restricted": false,
            "is_ultra_restricted": false
        },
        "blocks": [
            {
                "type": "rich_text",
                "block_id": "+Vs0",
                "elements": [
                    {
                        "type": "rich_text_section",
                        "elements": [
                            {
                                "type": "text",
                                "text": "Hey! No agenda yet for these meetings. The program management is the one I created following our talk: one of the goal is to discuss what would be the best dashboard for this program management ; the second meeting is following up on David and I meeting on Tuesday (see minutes in the governance team), and tick some boxes out of the list of TODOs for improving onboarding."
                            }
                        ]
                    }
                ]
            }
        ],
        "thread_ts": "1586987891.035000",
        "parent_user_id": "U010Q3372P3"
    },
    {
        "client_msg_id": "039bd176-bc3a-4e1d-b49a-a28643e9e24b",
        "type": "message",
        "text": "Ok. Thanks I was curious about it because I saw the link above.",
        "user": "U0103LPAWQ4",
        "ts": "1586991988.036000",
        "team": "TUU48M0T1",
        "user_team": "TUU48M0T1",
        "source_team": "TUU48M0T1",
        "user_profile": {
            "avatar_hash": "7b345029e813",
            "image_72": "https:\/\/avatars.slack-edge.com\/2020-03-17\/1004213082549_7b345029e8137cbdc6b0_72.jpg",
            "first_name": "Bre",
            "real_name": "Bre",
            "display_name": "Bre",
            "team": "TUU48M0T1",
            "name": "info",
            "is_restricted": false,
            "is_ultra_restricted": false
        },
        "blocks": [
            {
                "type": "rich_text",
                "block_id": "+et",
                "elements": [
                    {
                        "type": "rich_text_section",
                        "elements": [
                            {
                                "type": "text",
                                "text": "Ok. Thanks I was curious about it because I saw the link above."
                            }
                        ]
                    }
                ]
            }
        ],
        "thread_ts": "1586895632.023000",
        "parent_user_id": "UV9V03C8Y"
    },
    {
        "type": "message",
        "text": "Hello everyone, Here's the link to the deck outline for the OPEN Covid19 Digital Brand Strategy, would like feedback before Friday's comms call.  <@UV9V03C8Y> can we plan to review\/discuss feedback during the call? I would like to have the deck ready to present next week. <https:\/\/drive.google.com\/file\/d\/13gULVMvWLuTbGj9RwhhxHtbo3EZt0cQK\/view?usp=sharing>",
        "files": [
            {
                "id": "F011QQ00R0E",
                "created": 1586994568,
                "timestamp": 1586994568,
                "name": "OPEN Covid19 Digital Brand Value Presentation Outline WIP 04.15.20.docx",
                "title": "OPEN Covid19 Digital Brand Value Presentation Outline WIP 04.15.20.docx",
                "mimetype": "application\/vnd.openxmlformats-officedocument.wordprocessingml.document",
                "filetype": "docx",
                "pretty_type": "Word Document",
                "user": "U011VF29MK2",
                "editable": false,
                "size": 14998,
                "mode": "external",
                "is_external": true,
                "external_type": "gdrive",
                "is_public": true,
                "public_url_shared": false,
                "display_as_bot": false,
                "username": "",
                "url_private": "https:\/\/drive.google.com\/file\/d\/13gULVMvWLuTbGj9RwhhxHtbo3EZt0cQK\/view?usp=sharing",
                "thumb_64": "https:\/\/files.slack.com\/files-tmb\/TUU48M0T1-F011QQ00R0E-96bb2dc57a\/open_covid19_digital_brand_value_presentation_outline_wip_04.15.20_64.png?t=xoxe-980144714919-1106606678066-1105227127893-6f722bb664235052954ad46852628b64",
                "thumb_80": "https:\/\/files.slack.com\/files-tmb\/TUU48M0T1-F011QQ00R0E-96bb2dc57a\/open_covid19_digital_brand_value_presentation_outline_wip_04.15.20_80.png?t=xoxe-980144714919-1106606678066-1105227127893-6f722bb664235052954ad46852628b64",
                "thumb_360": "https:\/\/files.slack.com\/files-tmb\/TUU48M0T1-F011QQ00R0E-96bb2dc57a\/open_covid19_digital_brand_value_presentation_outline_wip_04.15.20_360.png?t=xoxe-980144714919-1106606678066-1105227127893-6f722bb664235052954ad46852628b64",
                "thumb_360_w": 278,
                "thumb_360_h": 360,
                "thumb_480": "https:\/\/files.slack.com\/files-tmb\/TUU48M0T1-F011QQ00R0E-96bb2dc57a\/open_covid19_digital_brand_value_presentation_outline_wip_04.15.20_480.png?t=xoxe-980144714919-1106606678066-1105227127893-6f722bb664235052954ad46852628b64",
                "thumb_480_w": 371,
                "thumb_480_h": 480,
                "thumb_160": "https:\/\/files.slack.com\/files-tmb\/TUU48M0T1-F011QQ00R0E-96bb2dc57a\/open_covid19_digital_brand_value_presentation_outline_wip_04.15.20_160.png?t=xoxe-980144714919-1106606678066-1105227127893-6f722bb664235052954ad46852628b64",
                "thumb_720": "https:\/\/files.slack.com\/files-tmb\/TUU48M0T1-F011QQ00R0E-96bb2dc57a\/open_covid19_digital_brand_value_presentation_outline_wip_04.15.20_720.png?t=xoxe-980144714919-1106606678066-1105227127893-6f722bb664235052954ad46852628b64",
                "thumb_720_w": 556,
                "thumb_720_h": 720,
                "thumb_800": "https:\/\/files.slack.com\/files-tmb\/TUU48M0T1-F011QQ00R0E-96bb2dc57a\/open_covid19_digital_brand_value_presentation_outline_wip_04.15.20_800.png?t=xoxe-980144714919-1106606678066-1105227127893-6f722bb664235052954ad46852628b64",
                "thumb_800_w": 800,
                "thumb_800_h": 1035,
                "thumb_960": "https:\/\/files.slack.com\/files-tmb\/TUU48M0T1-F011QQ00R0E-96bb2dc57a\/open_covid19_digital_brand_value_presentation_outline_wip_04.15.20_960.png?t=xoxe-980144714919-1106606678066-1105227127893-6f722bb664235052954ad46852628b64",
                "thumb_960_w": 742,
                "thumb_960_h": 960,
                "thumb_1024": "https:\/\/files.slack.com\/files-tmb\/TUU48M0T1-F011QQ00R0E-96bb2dc57a\/open_covid19_digital_brand_value_presentation_outline_wip_04.15.20_1024.png?t=xoxe-980144714919-1106606678066-1105227127893-6f722bb664235052954ad46852628b64",
                "thumb_1024_w": 791,
                "thumb_1024_h": 1024,
                "image_exif_rotation": 1,
                "original_w": 1024,
                "original_h": 1325,
                "thumb_tiny": "AwAwACXTopGzxikGT0NADqKTmloAKKKKACm9DxTqTbQAc0tFFABRRRQAUUUUAFFFFABRRRQB\/9k=",
                "permalink": "https:\/\/open-covid19.slack.com\/files\/U011VF29MK2\/F011QQ00R0E\/open_covid19_digital_brand_value_presentation_outline_wip_04.15.20.docx",
                "is_starred": false,
                "external_id": "13gULVMvWLuTbGj9RwhhxHtbo3EZt0cQK",
                "external_url": "https:\/\/drive.google.com\/file\/d\/13gULVMvWLuTbGj9RwhhxHtbo3EZt0cQK\/view?usp=sharing",
                "has_rich_preview": true
            }
        ],
        "upload": false,
        "blocks": [
            {
                "type": "rich_text",
                "block_id": "gaun",
                "elements": [
                    {
                        "type": "rich_text_section",
                        "elements": [
                            {
                                "type": "text",
                                "text": "Hello everyone, Here's the link to the deck outline for the OPEN Covid19 Digital Brand Strategy, would like feedback before Friday's comms call.  "
                            },
                            {
                                "type": "user",
                                "user_id": "UV9V03C8Y"
                            },
                            {
                                "type": "text",
                                "text": " can we plan to review\/discuss feedback during the call? I would like to have the deck ready to present next week. "
                            },
                            {
                                "type": "link",
                                "url": "https:\/\/drive.google.com\/file\/d\/13gULVMvWLuTbGj9RwhhxHtbo3EZt0cQK\/view?usp=sharing"
                            }
                        ]
                    }
                ]
            }
        ],
        "user": "U011VF29MK2",
        "display_as_bot": false,
        "x_files": [
            "F011QQ00R0E"
        ],
        "ts": "1586994558.041900",
        "client_msg_id": "57396d97-20a4-45cf-969f-88ffa6d2fb7e",
        "thread_ts": "1586994558.041900",
        "reply_count": 1,
        "reply_users_count": 1,
        "latest_reply": "1587138633.071500",
        "reply_users": [
            "UV9V03C8Y"
        ],
        "replies": [
            {
                "user": "UV9V03C8Y",
                "ts": "1587138633.071500"
            }
        ],
        "subscribed": false,
        "reactions": [
            {
                "name": "100",
                "users": [
                    "UV2SC7ZE3",
                    "UV9V03C8Y"
                ],
                "count": 2
            },
            {
                "name": "+1",
                "users": [
                    "U010Q3372P3"
                ],
                "count": 1
            }
        ]
    },
    {
        "client_msg_id": "5dc38bd5-80b1-4c42-9ae0-02b88b7ed71e",
        "type": "message",
        "text": "<@U011VF29MK2> thank you for sharing this outline, I think my only question is around the measurement piece, what are you envisioning there, with what tool(s)? While I agree metrics is important, I don’t know if we’re setup for success there. If you can expand I’d love to hear more on that one. And not tonight, I know you’re sick, please rest and we can talk about this another day",
        "user": "U010Q3372P3",
        "ts": "1586998997.045100",
        "team": "TUU48M0T1",
        "user_team": "TUU48M0T1",
        "source_team": "TUU48M0T1",
        "user_profile": {
            "avatar_hash": "95066184973b",
            "image_72": "https:\/\/avatars.slack-edge.com\/2020-03-30\/1036274198128_95066184973b1de50d1a_72.png",
            "first_name": "Kathryn",
            "real_name": "Kathryn Rowe",
            "display_name": "Kathryn Rowe",
            "team": "TUU48M0T1",
            "name": "kathryn.rowe",
            "is_restricted": false,
            "is_ultra_restricted": false
        },
        "blocks": [
            {
                "type": "rich_text",
                "block_id": "n1yz",
                "elements": [
                    {
                        "type": "rich_text_section",
                        "elements": [
                            {
                                "type": "user",
                                "user_id": "U011VF29MK2"
                            },
                            {
                                "type": "text",
                                "text": " thank you for sharing this outline, I think my only question is around the measurement piece, what are you envisioning there, with what tool(s)? While I agree metrics is important, I don’t know if we’re setup for success there. If you can expand I’d love to hear more on that one. And not tonight, I know you’re sick, please rest and we can talk about this another day"
                            }
                        ]
                    }
                ]
            }
        ]
    },
    {
        "client_msg_id": "3e4db634-36e5-4d7a-ba58-6848f09d5647",
        "type": "message",
        "text": "Hi Kathryn, Thanks for raising this and I agree...I think all of us aligning on a content strategy per platform is the first step, my objective is always to design quant for qualitative insights - if we can determine what brand topics and types of content we want to post per platform, it will drive setup of the content calendar, and in addition setup of measurement if we want to create a weekly, monthly report (just thinking ppt...),  if we can determine what brand topics\/types of content perform the best we can expand on them for future content creation, and ideally increase community size and engagement.  I've never been a page admin but to my knowledge they should be able to report out on all interactions? I could be wrong...if you have knowledge of this or anyone else who's going to be a page admin that would be terrific. And if I don't make sense please let me know! All - I have some sort of terrible cold and hoping it's not covid!",
        "user": "U011VF29MK2",
        "ts": "1587004899.061900",
        "team": "TUU48M0T1",
        "user_team": "TUU48M0T1",
        "source_team": "TUU48M0T1",
        "user_profile": {
            "avatar_hash": "0ef0287e69f4",
            "image_72": "https:\/\/avatars.slack-edge.com\/2020-04-07\/1045707527815_0ef0287e69f4d3296eaf_72.jpg",
            "first_name": "Catherine",
            "real_name": "Catherine Coykendall",
            "display_name": "Catherine Coykendall - Marketing Consultant",
            "team": "TUU48M0T1",
            "name": "c.coyken1978",
            "is_restricted": false,
            "is_ultra_restricted": false
        },
        "blocks": [
            {
                "type": "rich_text",
                "block_id": "xDe",
                "elements": [
                    {
                        "type": "rich_text_section",
                        "elements": [
                            {
                                "type": "text",
                                "text": "Hi Kathryn, Thanks for raising this and I agree...I think all of us aligning on a content strategy per platform is the first step, my objective is always to design quant for qualitative insights - if we can determine what brand topics and types of content we want to post per platform, it will drive setup of the content calendar, and in addition setup of measurement if we want to create a weekly, monthly report (just thinking ppt...),  if we can determine what brand topics\/types of content perform the best we can expand on them for future content creation, and ideally increase community size and engagement.  I've never been a page admin but to my knowledge they should be able to report out on all interactions? I could be wrong...if you have knowledge of this or anyone else who's going to be a page admin that would be terrific. And if I don't make sense please let me know! All - I have some sort of terrible cold and hoping it's not covid!"
                            }
                        ]
                    }
                ]
            }
        ]
    }
]