[
    {
        "client_msg_id": "ebbf0261-22c2-4552-a1a5-aea4f8cb58b7",
        "type": "message",
        "text": "For the journal club of Monday, we will go through the papers in <https:\/\/gitlab.com\/JOGL\/metastudy\/-\/tree\/master\/literature> and we will have\n• <@U010B412MF1> discussing “Augmented+Collective+Intelligence” and “maillart2008\" (30 min) \n• Thomas Maillart (the author of the papers himself :D) discussing “maillart2019” and “pone.0103023\"",
        "user": "UV85V64SD",
        "ts": "1588836544.196300",
        "team": "TUU48M0T1",
        "user_team": "TUU48M0T1",
        "source_team": "TUU48M0T1",
        "user_profile": {
            "avatar_hash": "1e73a651bdfe",
            "image_72": "https:\/\/avatars.slack-edge.com\/2020-03-16\/1004297548853_1e73a651bdfef2c41501_72.jpg",
            "first_name": "Marc",
            "real_name": "Marc Santolini",
            "display_name": "Marc Santolini - JOGL CoFounder \/ CSO",
            "team": "TUU48M0T1",
            "name": "marc.santolini",
            "is_restricted": false,
            "is_ultra_restricted": false
        },
        "attachments": [
            {
                "service_name": "GitLab",
                "title": "literature · master · Just One Giant Lab \/ Metastudy",
                "title_link": "https:\/\/gitlab.com\/JOGL\/metastudy\/-\/tree\/master\/literature",
                "text": "Metastudy of the OpenCovid community organisation and response",
                "fallback": "GitLab: literature · master · Just One Giant Lab \/ Metastudy",
                "thumb_url": "https:\/\/assets.gitlab-static.net\/assets\/gitlab_logo-7ae504fe4f68fdebb3c2034e36621930cd36ea87924c11ff65dbcb8ed50dca58.png",
                "from_url": "https:\/\/gitlab.com\/JOGL\/metastudy\/-\/tree\/master\/literature",
                "thumb_width": 128,
                "thumb_height": 128,
                "service_icon": "https:\/\/assets.gitlab-static.net\/assets\/touch-icon-iphone-5a9cee0e8a51212e70b90c87c12f382c428870c0ff67d1eb034d884b78d2dae7.png",
                "id": 1,
                "original_url": "https:\/\/gitlab.com\/JOGL\/metastudy\/-\/tree\/master\/literature"
            }
        ],
        "blocks": [
            {
                "type": "rich_text",
                "block_id": "PM3",
                "elements": [
                    {
                        "type": "rich_text_section",
                        "elements": [
                            {
                                "type": "text",
                                "text": "For the journal club of Monday, we will go through the papers in "
                            },
                            {
                                "type": "link",
                                "url": "https:\/\/gitlab.com\/JOGL\/metastudy\/-\/tree\/master\/literature"
                            },
                            {
                                "type": "text",
                                "text": " and we will have\n"
                            }
                        ]
                    },
                    {
                        "type": "rich_text_list",
                        "elements": [
                            {
                                "type": "rich_text_section",
                                "elements": [
                                    {
                                        "type": "user",
                                        "user_id": "U010B412MF1"
                                    },
                                    {
                                        "type": "text",
                                        "text": " discussing “Augmented+Collective+Intelligence” and “maillart2008\" (30 min) "
                                    }
                                ]
                            },
                            {
                                "type": "rich_text_section",
                                "elements": [
                                    {
                                        "type": "text",
                                        "text": "Thomas Maillart (the author of the papers himself :D) discussing “maillart2019” and “pone.0103023\""
                                    }
                                ]
                            }
                        ],
                        "style": "bullet",
                        "indent": 0
                    }
                ]
            }
        ],
        "thread_ts": "1588836544.196300",
        "reply_count": 5,
        "reply_users_count": 4,
        "latest_reply": "1589236725.201300",
        "reply_users": [
            "U010B412MF1",
            "U0101DKUALV",
            "UV85V64SD",
            "UV9V03C8Y"
        ],
        "replies": [
            {
                "user": "U010B412MF1",
                "ts": "1588842387.196600"
            },
            {
                "user": "U0101DKUALV",
                "ts": "1589169965.197600"
            },
            {
                "user": "UV85V64SD",
                "ts": "1589203193.198200"
            },
            {
                "user": "UV9V03C8Y",
                "ts": "1589203453.198400"
            },
            {
                "user": "U0101DKUALV",
                "ts": "1589236725.201300"
            }
        ],
        "subscribed": false,
        "reactions": [
            {
                "name": "heart",
                "users": [
                    "U010B412MF1",
                    "U0101DKUALV"
                ],
                "count": 2
            }
        ]
    },
    {
        "type": "message",
        "subtype": "thread_broadcast",
        "text": "Great. Looking forward. \n\nWe will record the meeting for those who cannot come now but want to learn about books.\n\nAlso feel free to suggest relevant literature on these points :computer::fire::coffee:",
        "user": "U010B412MF1",
        "ts": "1588842387.196600",
        "thread_ts": "1588836544.196300",
        "root": {
            "client_msg_id": "ebbf0261-22c2-4552-a1a5-aea4f8cb58b7",
            "type": "message",
            "text": "For the journal club of Monday, we will go through the papers in <https:\/\/gitlab.com\/JOGL\/metastudy\/-\/tree\/master\/literature> and we will have\n• <@U010B412MF1> discussing “Augmented+Collective+Intelligence” and “maillart2008\" (30 min) \n• Thomas Maillart (the author of the papers himself :D) discussing “maillart2019” and “pone.0103023\"",
            "user": "UV85V64SD",
            "ts": "1588836544.196300",
            "team": "TUU48M0T1",
            "attachments": [
                {
                    "service_name": "GitLab",
                    "title": "literature · master · Just One Giant Lab \/ Metastudy",
                    "title_link": "https:\/\/gitlab.com\/JOGL\/metastudy\/-\/tree\/master\/literature",
                    "text": "Metastudy of the OpenCovid community organisation and response",
                    "fallback": "GitLab: literature · master · Just One Giant Lab \/ Metastudy",
                    "thumb_url": "https:\/\/assets.gitlab-static.net\/assets\/gitlab_logo-7ae504fe4f68fdebb3c2034e36621930cd36ea87924c11ff65dbcb8ed50dca58.png",
                    "from_url": "https:\/\/gitlab.com\/JOGL\/metastudy\/-\/tree\/master\/literature",
                    "thumb_width": 128,
                    "thumb_height": 128,
                    "service_icon": "https:\/\/assets.gitlab-static.net\/assets\/touch-icon-iphone-5a9cee0e8a51212e70b90c87c12f382c428870c0ff67d1eb034d884b78d2dae7.png",
                    "id": 1,
                    "original_url": "https:\/\/gitlab.com\/JOGL\/metastudy\/-\/tree\/master\/literature"
                }
            ],
            "blocks": [
                {
                    "type": "rich_text",
                    "block_id": "PM3",
                    "elements": [
                        {
                            "type": "rich_text_section",
                            "elements": [
                                {
                                    "type": "text",
                                    "text": "For the journal club of Monday, we will go through the papers in "
                                },
                                {
                                    "type": "link",
                                    "url": "https:\/\/gitlab.com\/JOGL\/metastudy\/-\/tree\/master\/literature"
                                },
                                {
                                    "type": "text",
                                    "text": " and we will have\n"
                                }
                            ]
                        },
                        {
                            "type": "rich_text_list",
                            "elements": [
                                {
                                    "type": "rich_text_section",
                                    "elements": [
                                        {
                                            "type": "user",
                                            "user_id": "U010B412MF1"
                                        },
                                        {
                                            "type": "text",
                                            "text": " discussing “Augmented+Collective+Intelligence” and “maillart2008\" (30 min) "
                                        }
                                    ]
                                },
                                {
                                    "type": "rich_text_section",
                                    "elements": [
                                        {
                                            "type": "text",
                                            "text": "Thomas Maillart (the author of the papers himself :D) discussing “maillart2019” and “pone.0103023\""
                                        }
                                    ]
                                }
                            ],
                            "style": "bullet",
                            "indent": 0
                        }
                    ]
                }
            ],
            "thread_ts": "1588836544.196300",
            "reply_count": 5,
            "reply_users_count": 4,
            "latest_reply": "1589236725.201300",
            "reply_users": [
                "U010B412MF1",
                "U0101DKUALV",
                "UV85V64SD",
                "UV9V03C8Y"
            ],
            "subscribed": false
        },
        "blocks": [
            {
                "type": "rich_text",
                "block_id": "SNp9T",
                "elements": [
                    {
                        "type": "rich_text_section",
                        "elements": [
                            {
                                "type": "text",
                                "text": "Great. Looking forward. \n\nWe will record the meeting for those who cannot come now but want to learn about books.\n\nAlso feel free to suggest relevant literature on these points "
                            },
                            {
                                "type": "emoji",
                                "name": "computer"
                            },
                            {
                                "type": "emoji",
                                "name": "fire"
                            },
                            {
                                "type": "emoji",
                                "name": "coffee"
                            }
                        ]
                    }
                ]
            }
        ],
        "client_msg_id": "990c450f-4282-431e-a9f4-89067323fbcd"
    }
]