[
    {
        "client_msg_id": "a20dc116-1d9c-497f-8375-00e599ab2896",
        "type": "message",
        "text": "you turn to Twitter data for a better estimate <@U010GHT685A> ?",
        "user": "UVC9WMA7N",
        "ts": "1586176023.066000",
        "team": "TUU48M0T1",
        "user_team": "TUU48M0T1",
        "source_team": "TUU48M0T1",
        "user_profile": {
            "avatar_hash": "56d14d58ed53",
            "image_72": "https:\/\/avatars.slack-edge.com\/2020-03-13\/998337892660_56d14d58ed537e6e4654_72.png",
            "first_name": "Leo",
            "real_name": "Leo Blondel",
            "display_name": "Leo Blondel - JOGL CoFounder \/ CTO",
            "team": "TUU48M0T1",
            "name": "leo",
            "is_restricted": false,
            "is_ultra_restricted": false
        },
        "blocks": [
            {
                "type": "rich_text",
                "block_id": "h5CYI",
                "elements": [
                    {
                        "type": "rich_text_section",
                        "elements": [
                            {
                                "type": "text",
                                "text": "you turn to Twitter data for a better estimate "
                            },
                            {
                                "type": "user",
                                "user_id": "U010GHT685A"
                            },
                            {
                                "type": "text",
                                "text": " ?"
                            }
                        ]
                    }
                ]
            }
        ]
    },
    {
        "client_msg_id": "900f0cf5-7aab-43f4-88a6-35edf836d2a8",
        "type": "message",
        "text": "There isnt some calculation that you can use to mitigate a certain statistical likelihood that corruption may be skewing results?",
        "user": "U010GHT685A",
        "ts": "1586190647.067000",
        "team": "TUU48M0T1",
        "user_team": "TUU48M0T1",
        "source_team": "TUU48M0T1",
        "user_profile": {
            "avatar_hash": "g8b82eba32dc",
            "image_72": "https:\/\/secure.gravatar.com\/avatar\/8b82eba32dceb4a94f0d2f641621be24.jpg?s=72&d=https%3A%2F%2Fa.slack-edge.com%2Fdf10d%2Fimg%2Favatars%2Fava_0014-72.png",
            "first_name": "",
            "real_name": "Cody Kochmann",
            "display_name": "",
            "team": "TUU48M0T1",
            "name": "kochmanncody",
            "is_restricted": false,
            "is_ultra_restricted": false
        },
        "blocks": [
            {
                "type": "rich_text",
                "block_id": "6=6lx",
                "elements": [
                    {
                        "type": "rich_text_section",
                        "elements": [
                            {
                                "type": "text",
                                "text": "There isnt some calculation that you can use to mitigate a certain statistical likelihood that corruption may be skewing results?"
                            }
                        ]
                    }
                ]
            }
        ]
    },
    {
        "client_msg_id": "5305e8b0-17b0-42c1-80d0-87162d3ff430",
        "type": "message",
        "text": "like a corruption_factor ?\nI don't know of any literature on this, but some other people in the channel might now ?\nI'm thinking maybe *Sam* <@UV85V64SD>?",
        "user": "UVC9WMA7N",
        "ts": "1586191070.068000",
        "team": "TUU48M0T1",
        "user_team": "TUU48M0T1",
        "source_team": "TUU48M0T1",
        "user_profile": {
            "avatar_hash": "56d14d58ed53",
            "image_72": "https:\/\/avatars.slack-edge.com\/2020-03-13\/998337892660_56d14d58ed537e6e4654_72.png",
            "first_name": "Leo",
            "real_name": "Leo Blondel",
            "display_name": "Leo Blondel - JOGL CoFounder \/ CTO",
            "team": "TUU48M0T1",
            "name": "leo",
            "is_restricted": false,
            "is_ultra_restricted": false
        },
        "blocks": [
            {
                "type": "rich_text",
                "block_id": "1W\/RK",
                "elements": [
                    {
                        "type": "rich_text_section",
                        "elements": [
                            {
                                "type": "text",
                                "text": "like a corruption_factor ?\nI don't know of any literature on this, but some other people in the channel might now ?\nI'm thinking maybe "
                            },
                            {
                                "type": "text",
                                "text": "Sam",
                                "style": {
                                    "bold": true
                                }
                            },
                            {
                                "type": "text",
                                "text": " "
                            },
                            {
                                "type": "user",
                                "user_id": "UV85V64SD"
                            },
                            {
                                "type": "text",
                                "text": "?"
                            }
                        ]
                    }
                ]
            }
        ]
    },
    {
        "client_msg_id": "6cec23a5-ffc1-4e9a-a294-ed82d604b983",
        "type": "message",
        "text": "Official reporting might deviate from the true % of infected because of many, many unknown factors. If you are interested in the difference between what the official figure is and what it should be, everything else being equal, except for the fact that there is maybe obstruction or omission, I don’t think you would be looking into statistics to solve that problem.",
        "user": "U010734498S",
        "ts": "1586191523.073800",
        "team": "TUU48M0T1",
        "user_team": "TUU48M0T1",
        "source_team": "TUU48M0T1",
        "user_profile": {
            "avatar_hash": "g85cae5734da",
            "image_72": "https:\/\/secure.gravatar.com\/avatar\/85cae5734dae69539dca99aa96ef691f.jpg?s=72&d=https%3A%2F%2Fa.slack-edge.com%2Fdf10d%2Fimg%2Favatars%2Fava_0011-72.png",
            "first_name": "",
            "real_name": "pedro ramaciotti",
            "display_name": "pedro ramaciotti",
            "team": "TUU48M0T1",
            "name": "pedro.ramaciotti",
            "is_restricted": false,
            "is_ultra_restricted": false
        },
        "blocks": [
            {
                "type": "rich_text",
                "block_id": "USi",
                "elements": [
                    {
                        "type": "rich_text_section",
                        "elements": [
                            {
                                "type": "text",
                                "text": "Official reporting might deviate from the true % of infected because of many, many unknown factors. If you are interested in the difference between what the official figure is and what it should be, everything else being equal, except for the fact that there is maybe obstruction or omission, I don’t think you would be looking into statistics to solve that problem."
                            }
                        ]
                    }
                ]
            }
        ],
        "thread_ts": "1586191523.073800",
        "reply_count": 3,
        "reply_users_count": 2,
        "latest_reply": "1586288484.128100",
        "reply_users": [
            "U010B412MF1",
            "U010734498S"
        ],
        "replies": [
            {
                "user": "U010B412MF1",
                "ts": "1586196694.090800"
            },
            {
                "user": "U010734498S",
                "ts": "1586197464.091000"
            },
            {
                "user": "U010B412MF1",
                "ts": "1586288484.128100"
            }
        ],
        "subscribed": false
    },
    {
        "client_msg_id": "4130aa03-afcd-4d04-a0e9-660a9493c7dc",
        "type": "message",
        "text": "Else, on estimating true % of infected, there are a lot of guesses out there.",
        "user": "U010734498S",
        "ts": "1586191559.074900",
        "team": "TUU48M0T1",
        "user_team": "TUU48M0T1",
        "source_team": "TUU48M0T1",
        "user_profile": {
            "avatar_hash": "g85cae5734da",
            "image_72": "https:\/\/secure.gravatar.com\/avatar\/85cae5734dae69539dca99aa96ef691f.jpg?s=72&d=https%3A%2F%2Fa.slack-edge.com%2Fdf10d%2Fimg%2Favatars%2Fava_0011-72.png",
            "first_name": "",
            "real_name": "pedro ramaciotti",
            "display_name": "pedro ramaciotti",
            "team": "TUU48M0T1",
            "name": "pedro.ramaciotti",
            "is_restricted": false,
            "is_ultra_restricted": false
        },
        "blocks": [
            {
                "type": "rich_text",
                "block_id": "=SQ5",
                "elements": [
                    {
                        "type": "rich_text_section",
                        "elements": [
                            {
                                "type": "text",
                                "text": "Else, on estimating true % of infected, there are a lot of guesses out there."
                            }
                        ]
                    }
                ]
            }
        ]
    },
    {
        "client_msg_id": "c39331b0-dd66-47a4-8577-0671d5084b3a",
        "type": "message",
        "text": "well since death count is pretty robust, i’d use that as baseline.",
        "user": "UV85V64SD",
        "ts": "1586191590.075900",
        "team": "TUU48M0T1",
        "user_team": "TUU48M0T1",
        "source_team": "TUU48M0T1",
        "user_profile": {
            "avatar_hash": "1e73a651bdfe",
            "image_72": "https:\/\/avatars.slack-edge.com\/2020-03-16\/1004297548853_1e73a651bdfef2c41501_72.jpg",
            "first_name": "Marc",
            "real_name": "Marc Santolini",
            "display_name": "Marc Santolini - JOGL CoFounder \/ CSO",
            "team": "TUU48M0T1",
            "name": "marc.santolini",
            "is_restricted": false,
            "is_ultra_restricted": false
        },
        "blocks": [
            {
                "type": "rich_text",
                "block_id": "Lg7zC",
                "elements": [
                    {
                        "type": "rich_text_section",
                        "elements": [
                            {
                                "type": "text",
                                "text": "well since death count is pretty robust, i’d use that as baseline."
                            }
                        ]
                    }
                ]
            }
        ]
    },
    {
        "client_msg_id": "fff43609-ce7d-40d7-bf23-caa4eb0aaa2e",
        "type": "message",
        "text": "yeah, it’s the most solid one",
        "user": "U010734498S",
        "ts": "1586191614.076300",
        "team": "TUU48M0T1",
        "user_team": "TUU48M0T1",
        "source_team": "TUU48M0T1",
        "user_profile": {
            "avatar_hash": "g85cae5734da",
            "image_72": "https:\/\/secure.gravatar.com\/avatar\/85cae5734dae69539dca99aa96ef691f.jpg?s=72&d=https%3A%2F%2Fa.slack-edge.com%2Fdf10d%2Fimg%2Favatars%2Fava_0011-72.png",
            "first_name": "",
            "real_name": "pedro ramaciotti",
            "display_name": "pedro ramaciotti",
            "team": "TUU48M0T1",
            "name": "pedro.ramaciotti",
            "is_restricted": false,
            "is_ultra_restricted": false
        },
        "blocks": [
            {
                "type": "rich_text",
                "block_id": "Zznqi",
                "elements": [
                    {
                        "type": "rich_text_section",
                        "elements": [
                            {
                                "type": "text",
                                "text": "yeah, it’s the most solid one"
                            }
                        ]
                    }
                ]
            }
        ]
    },
    {
        "client_msg_id": "d8e2d34c-216d-4a30-b399-8a5d38fb80a6",
        "type": "message",
        "text": "and maybe compare with other countries that should have similar contagion rates but live “in the future”",
        "user": "U010734498S",
        "ts": "1586191637.076900",
        "team": "TUU48M0T1",
        "user_team": "TUU48M0T1",
        "source_team": "TUU48M0T1",
        "user_profile": {
            "avatar_hash": "g85cae5734da",
            "image_72": "https:\/\/secure.gravatar.com\/avatar\/85cae5734dae69539dca99aa96ef691f.jpg?s=72&d=https%3A%2F%2Fa.slack-edge.com%2Fdf10d%2Fimg%2Favatars%2Fava_0011-72.png",
            "first_name": "",
            "real_name": "pedro ramaciotti",
            "display_name": "pedro ramaciotti",
            "team": "TUU48M0T1",
            "name": "pedro.ramaciotti",
            "is_restricted": false,
            "is_ultra_restricted": false
        },
        "blocks": [
            {
                "type": "rich_text",
                "block_id": "h0y",
                "elements": [
                    {
                        "type": "rich_text_section",
                        "elements": [
                            {
                                "type": "text",
                                "text": "and maybe compare with other countries that should have similar contagion rates but live “in the future”"
                            }
                        ]
                    }
                ]
            }
        ]
    },
    {
        "client_msg_id": "ca9a276e-7386-4106-87aa-ebf8f29419da",
        "type": "message",
        "text": "current death rate growth of countries that already see the effect of measures taken 20 days ago, and that look like the current measures",
        "user": "U010734498S",
        "ts": "1586191674.077700",
        "team": "TUU48M0T1",
        "user_team": "TUU48M0T1",
        "source_team": "TUU48M0T1",
        "user_profile": {
            "avatar_hash": "g85cae5734da",
            "image_72": "https:\/\/secure.gravatar.com\/avatar\/85cae5734dae69539dca99aa96ef691f.jpg?s=72&d=https%3A%2F%2Fa.slack-edge.com%2Fdf10d%2Fimg%2Favatars%2Fava_0011-72.png",
            "first_name": "",
            "real_name": "pedro ramaciotti",
            "display_name": "pedro ramaciotti",
            "team": "TUU48M0T1",
            "name": "pedro.ramaciotti",
            "is_restricted": false,
            "is_ultra_restricted": false
        },
        "blocks": [
            {
                "type": "rich_text",
                "block_id": "nGXBD",
                "elements": [
                    {
                        "type": "rich_text_section",
                        "elements": [
                            {
                                "type": "text",
                                "text": "current death rate growth of countries that already see the effect of measures taken 20 days ago, and that look like the current measures"
                            }
                        ]
                    }
                ]
            }
        ]
    },
    {
        "client_msg_id": "a2b78b5f-dbf4-495f-b3cc-3a03b8faa845",
        "type": "message",
        "text": "the “similar” part, is the difficult one",
        "user": "U010734498S",
        "ts": "1586191739.078000",
        "team": "TUU48M0T1",
        "user_team": "TUU48M0T1",
        "source_team": "TUU48M0T1",
        "user_profile": {
            "avatar_hash": "g85cae5734da",
            "image_72": "https:\/\/secure.gravatar.com\/avatar\/85cae5734dae69539dca99aa96ef691f.jpg?s=72&d=https%3A%2F%2Fa.slack-edge.com%2Fdf10d%2Fimg%2Favatars%2Fava_0011-72.png",
            "first_name": "",
            "real_name": "pedro ramaciotti",
            "display_name": "pedro ramaciotti",
            "team": "TUU48M0T1",
            "name": "pedro.ramaciotti",
            "is_restricted": false,
            "is_ultra_restricted": false
        },
        "blocks": [
            {
                "type": "rich_text",
                "block_id": "rPUNJ",
                "elements": [
                    {
                        "type": "rich_text_section",
                        "elements": [
                            {
                                "type": "text",
                                "text": "the “similar” part, is the difficult one"
                            }
                        ]
                    }
                ]
            }
        ]
    },
    {
        "client_msg_id": "e35314ef-d537-48d1-99d5-267a6988aecb",
        "type": "message",
        "text": "similar contagion rate, similar agglomeration, interactions… and there’s the issue of the death rate per country",
        "user": "U010734498S",
        "ts": "1586191803.079300",
        "team": "TUU48M0T1",
        "user_team": "TUU48M0T1",
        "source_team": "TUU48M0T1",
        "user_profile": {
            "avatar_hash": "g85cae5734da",
            "image_72": "https:\/\/secure.gravatar.com\/avatar\/85cae5734dae69539dca99aa96ef691f.jpg?s=72&d=https%3A%2F%2Fa.slack-edge.com%2Fdf10d%2Fimg%2Favatars%2Fava_0011-72.png",
            "first_name": "",
            "real_name": "pedro ramaciotti",
            "display_name": "pedro ramaciotti",
            "team": "TUU48M0T1",
            "name": "pedro.ramaciotti",
            "is_restricted": false,
            "is_ultra_restricted": false
        },
        "blocks": [
            {
                "type": "rich_text",
                "block_id": "qrnQi",
                "elements": [
                    {
                        "type": "rich_text_section",
                        "elements": [
                            {
                                "type": "text",
                                "text": "similar contagion rate, similar agglomeration, interactions… and there’s the issue of the death rate per country"
                            }
                        ]
                    }
                ]
            }
        ]
    },
    {
        "client_msg_id": "b719be29-d8c9-40b6-beb0-a0b3507c476d",
        "type": "message",
        "text": "population’s age, health",
        "user": "U010734498S",
        "ts": "1586191813.079700",
        "team": "TUU48M0T1",
        "user_team": "TUU48M0T1",
        "source_team": "TUU48M0T1",
        "user_profile": {
            "avatar_hash": "g85cae5734da",
            "image_72": "https:\/\/secure.gravatar.com\/avatar\/85cae5734dae69539dca99aa96ef691f.jpg?s=72&d=https%3A%2F%2Fa.slack-edge.com%2Fdf10d%2Fimg%2Favatars%2Fava_0011-72.png",
            "first_name": "",
            "real_name": "pedro ramaciotti",
            "display_name": "pedro ramaciotti",
            "team": "TUU48M0T1",
            "name": "pedro.ramaciotti",
            "is_restricted": false,
            "is_ultra_restricted": false
        },
        "blocks": [
            {
                "type": "rich_text",
                "block_id": "aTv",
                "elements": [
                    {
                        "type": "rich_text_section",
                        "elements": [
                            {
                                "type": "text",
                                "text": "population’s age, health"
                            }
                        ]
                    }
                ]
            }
        ]
    },
    {
        "client_msg_id": "35a39e53-7229-4bd2-aeab-86a317a76f73",
        "type": "message",
        "text": "Health care system to absorb people as well\n\nthe US has such disparities in access to health ...\n\nIf you don't want to collect data, then Death Rate is very likely your best guess\n\nIf you want to collect data, then geo localized social media analysis (prob starting with twitter) where you try to correlate signal to \"ground truth countries\" (aka some countries you put the assumption that they are truthful in disclosing numbers)",
        "user": "UVC9WMA7N",
        "ts": "1586196127.090700",
        "team": "TUU48M0T1",
        "user_team": "TUU48M0T1",
        "source_team": "TUU48M0T1",
        "user_profile": {
            "avatar_hash": "56d14d58ed53",
            "image_72": "https:\/\/avatars.slack-edge.com\/2020-03-13\/998337892660_56d14d58ed537e6e4654_72.png",
            "first_name": "Leo",
            "real_name": "Leo Blondel",
            "display_name": "Leo Blondel - JOGL CoFounder \/ CTO",
            "team": "TUU48M0T1",
            "name": "leo",
            "is_restricted": false,
            "is_ultra_restricted": false
        },
        "blocks": [
            {
                "type": "rich_text",
                "block_id": "guDWK",
                "elements": [
                    {
                        "type": "rich_text_section",
                        "elements": [
                            {
                                "type": "text",
                                "text": "Health care system to absorb people as well\n\nthe US has such disparities in access to health ...\n\nIf you don't want to collect data, then Death Rate is very likely your best guess\n\nIf you want to collect data, then geo localized social media analysis (prob starting with twitter) where you try to correlate signal to \"ground truth countries\" (aka some countries you put the assumption that they are truthful in disclosing numbers)"
                            }
                        ]
                    }
                ]
            }
        ]
    },
    {
        "client_msg_id": "25c72789-d6ca-46e4-9e0c-ac988885c3f7",
        "type": "message",
        "text": "yes <@U010734498S> the same problem is with the <http:\/\/opendemic.org|opendemic.org> project where there are a lot of missing data.\n\ndo you know about any algorithms existing for managing these problems",
        "user": "U010B412MF1",
        "ts": "1586196694.090800",
        "team": "TUU48M0T1",
        "user_team": "TUU48M0T1",
        "source_team": "TUU48M0T1",
        "user_profile": {
            "avatar_hash": "218d963a797f",
            "image_72": "https:\/\/avatars.slack-edge.com\/2020-03-19\/1013072792629_218d963a797fbf4410c0_72.png",
            "first_name": "",
            "real_name": "liu",
            "display_name": "liu",
            "team": "TUU48M0T1",
            "name": "liubov.tupikina",
            "is_restricted": false,
            "is_ultra_restricted": false
        },
        "blocks": [
            {
                "type": "rich_text",
                "block_id": "4wE",
                "elements": [
                    {
                        "type": "rich_text_section",
                        "elements": [
                            {
                                "type": "text",
                                "text": "yes "
                            },
                            {
                                "type": "user",
                                "user_id": "U010734498S"
                            },
                            {
                                "type": "text",
                                "text": " the same problem is with the "
                            },
                            {
                                "type": "link",
                                "url": "http:\/\/opendemic.org",
                                "text": "opendemic.org"
                            },
                            {
                                "type": "text",
                                "text": " project where there are a lot of missing data.\n\ndo you know about any algorithms existing for managing these problems"
                            }
                        ]
                    }
                ]
            }
        ],
        "thread_ts": "1586191523.073800",
        "parent_user_id": "U010734498S"
    },
    {
        "client_msg_id": "b4d79583-c91d-47fe-bb1b-b9cd1bff3902",
        "type": "message",
        "text": "I don’t know of any available computer model that would account those different problems.",
        "user": "U010734498S",
        "ts": "1586197464.091000",
        "team": "TUU48M0T1",
        "user_team": "TUU48M0T1",
        "source_team": "TUU48M0T1",
        "user_profile": {
            "avatar_hash": "g85cae5734da",
            "image_72": "https:\/\/secure.gravatar.com\/avatar\/85cae5734dae69539dca99aa96ef691f.jpg?s=72&d=https%3A%2F%2Fa.slack-edge.com%2Fdf10d%2Fimg%2Favatars%2Fava_0011-72.png",
            "first_name": "",
            "real_name": "pedro ramaciotti",
            "display_name": "pedro ramaciotti",
            "team": "TUU48M0T1",
            "name": "pedro.ramaciotti",
            "is_restricted": false,
            "is_ultra_restricted": false
        },
        "blocks": [
            {
                "type": "rich_text",
                "block_id": "TNPX",
                "elements": [
                    {
                        "type": "rich_text_section",
                        "elements": [
                            {
                                "type": "text",
                                "text": "I don’t know of any available computer model that would account those different problems."
                            }
                        ]
                    }
                ]
            }
        ],
        "thread_ts": "1586191523.073800",
        "parent_user_id": "U010734498S"
    },
    {
        "client_msg_id": "9dc56def-af28-4483-8a2e-662a2eaf930d",
        "type": "message",
        "text": "Death count isn't actually as robust as you'd think (at least in terms of right censoring). Anecdotally (talking to ER and IM residents in NYC), time to death has a very high variance and is correlated highly with age and existing conditions - there are some people who have been on ventilator for weeks before dying, whereas others succumb in a few days.  Because of the heterogeneity of infections (compare Germany's initial infections to France\/Spain\/Italy in terms of age), mean field approximations of growth based on death don't actually work well. That being said, if you do want to ignore demographic factors, <https:\/\/cmmid.github.io\/topics\/covid19\/severity\/global_cfr_estimates.html> is a relatively good methodology (but suffers that 2-3 week delay), though it doesn't account for testing differences in terms of testing asymptomatic cases.",
        "user": "U0104M5CWV9",
        "ts": "1586202247.095800",
        "team": "TUU48M0T1",
        "user_team": "TUU48M0T1",
        "source_team": "TUU48M0T1",
        "user_profile": {
            "avatar_hash": "g690df94d06f",
            "image_72": "https:\/\/secure.gravatar.com\/avatar\/690df94d06f11222b2bb4d765ee7ba52.jpg?s=72&d=https%3A%2F%2Fa.slack-edge.com%2Fdf10d%2Fimg%2Favatars%2Fava_0002-72.png",
            "first_name": "John",
            "real_name": "John Urbanik",
            "display_name": "John Urbanik",
            "team": "TUU48M0T1",
            "name": "johnurbanik",
            "is_restricted": false,
            "is_ultra_restricted": false
        },
        "attachments": [
            {
                "service_name": "CMMID Repository",
                "title": "Using a delay-adjusted case fatality ratio to estimate under-reporting",
                "title_link": "https:\/\/cmmid.github.io\/topics\/covid19\/severity\/global_cfr_estimates.html",
                "text": "Using a corrected case fatality ratio, we calculate estimates of the level of under-reporting for any country with greater than ten deaths",
                "fallback": "CMMID Repository: Using a delay-adjusted case fatality ratio to estimate under-reporting",
                "ts": 1584835200,
                "from_url": "https:\/\/cmmid.github.io\/topics\/covid19\/severity\/global_cfr_estimates.html",
                "service_icon": "https:\/\/cmmid.github.io\/assets\/images\/favicon-16x16.png",
                "id": 1,
                "original_url": "https:\/\/cmmid.github.io\/topics\/covid19\/severity\/global_cfr_estimates.html"
            }
        ],
        "blocks": [
            {
                "type": "rich_text",
                "block_id": "RdPx",
                "elements": [
                    {
                        "type": "rich_text_section",
                        "elements": [
                            {
                                "type": "text",
                                "text": "Death count isn't actually as robust as you'd think (at least in terms of right censoring). Anecdotally (talking to ER and IM residents in NYC), time to death has a very high variance and is correlated highly with age and existing conditions - there are some people who have been on ventilator for weeks before dying, whereas others succumb in a few days.  Because of the heterogeneity of infections (compare Germany's initial infections to France\/Spain\/Italy in terms of age), mean field approximations of growth based on death don't actually work well. That being said, if you do want to ignore demographic factors, "
                            },
                            {
                                "type": "link",
                                "url": "https:\/\/cmmid.github.io\/topics\/covid19\/severity\/global_cfr_estimates.html"
                            },
                            {
                                "type": "text",
                                "text": " is a relatively good methodology (but suffers that 2-3 week delay), though it doesn't account for testing differences in terms of testing asymptomatic cases."
                            }
                        ]
                    }
                ]
            }
        ]
    },
    {
        "client_msg_id": "1bfa4bec-7388-4621-a6e6-0b23f4421475",
        "type": "message",
        "text": "As far as social media analysis, the methodologies there are going to be extremely hard to make robust. Different cultures have different interaction rates, different levels of openness\/drama, different levels of private vs public accounts, different levels of geotagging, and a ton of other factors. Additionally, using something like twitter would either result in very biased sampling (on the free tier) or very expensive analysis (talking in the order of $1000-100k USD a day in order to perform enough queries to get a robust sample).",
        "user": "U0104M5CWV9",
        "ts": "1586202684.099400",
        "team": "TUU48M0T1",
        "user_team": "TUU48M0T1",
        "source_team": "TUU48M0T1",
        "user_profile": {
            "avatar_hash": "g690df94d06f",
            "image_72": "https:\/\/secure.gravatar.com\/avatar\/690df94d06f11222b2bb4d765ee7ba52.jpg?s=72&d=https%3A%2F%2Fa.slack-edge.com%2Fdf10d%2Fimg%2Favatars%2Fava_0002-72.png",
            "first_name": "John",
            "real_name": "John Urbanik",
            "display_name": "John Urbanik",
            "team": "TUU48M0T1",
            "name": "johnurbanik",
            "is_restricted": false,
            "is_ultra_restricted": false
        },
        "blocks": [
            {
                "type": "rich_text",
                "block_id": "v4kcX",
                "elements": [
                    {
                        "type": "rich_text_section",
                        "elements": [
                            {
                                "type": "text",
                                "text": "As far as social media analysis, the methodologies there are going to be extremely hard to make robust. Different cultures have different interaction rates, different levels of openness\/drama, different levels of private vs public accounts, different levels of geotagging, and a ton of other factors. Additionally, using something like twitter would either result in very biased sampling (on the free tier) or very expensive analysis (talking in the order of $1000-100k USD a day in order to perform enough queries to get a robust sample)."
                            }
                        ]
                    }
                ]
            }
        ]
    },
    {
        "client_msg_id": "711dcc17-7e66-4c04-9c44-04bafcc16868",
        "type": "message",
        "text": "So really it comes down to: why do you want to measure this misreporting? Even if you measure it, how do you make a causal linkage between misreporting that is due to bad testing vs malicious intent? Causal inference is very hard, and to what end?",
        "user": "U0104M5CWV9",
        "ts": "1586202830.100800",
        "team": "TUU48M0T1",
        "user_team": "TUU48M0T1",
        "source_team": "TUU48M0T1",
        "user_profile": {
            "avatar_hash": "g690df94d06f",
            "image_72": "https:\/\/secure.gravatar.com\/avatar\/690df94d06f11222b2bb4d765ee7ba52.jpg?s=72&d=https%3A%2F%2Fa.slack-edge.com%2Fdf10d%2Fimg%2Favatars%2Fava_0002-72.png",
            "first_name": "John",
            "real_name": "John Urbanik",
            "display_name": "John Urbanik",
            "team": "TUU48M0T1",
            "name": "johnurbanik",
            "is_restricted": false,
            "is_ultra_restricted": false
        },
        "blocks": [
            {
                "type": "rich_text",
                "block_id": "Wm9\/",
                "elements": [
                    {
                        "type": "rich_text_section",
                        "elements": [
                            {
                                "type": "text",
                                "text": "So really it comes down to: why do you want to measure this misreporting? Even if you measure it, how do you make a causal linkage between misreporting that is due to bad testing vs malicious intent? Causal inference is very hard, and to what end?"
                            }
                        ]
                    }
                ]
            }
        ]
    },
    {
        "client_msg_id": "47b58bdf-bc95-4489-b0c8-63a999fd9eea",
        "type": "message",
        "text": "confidence in making data based decisions should be directly linked with: how valid _is_ the data?",
        "user": "U010GHT685A",
        "ts": "1586204124.101700",
        "team": "TUU48M0T1",
        "user_team": "TUU48M0T1",
        "source_team": "TUU48M0T1",
        "user_profile": {
            "avatar_hash": "g8b82eba32dc",
            "image_72": "https:\/\/secure.gravatar.com\/avatar\/8b82eba32dceb4a94f0d2f641621be24.jpg?s=72&d=https%3A%2F%2Fa.slack-edge.com%2Fdf10d%2Fimg%2Favatars%2Fava_0014-72.png",
            "first_name": "",
            "real_name": "Cody Kochmann",
            "display_name": "",
            "team": "TUU48M0T1",
            "name": "kochmanncody",
            "is_restricted": false,
            "is_ultra_restricted": false
        },
        "edited": {
            "user": "U010GHT685A",
            "ts": "1586204140.000000"
        },
        "blocks": [
            {
                "type": "rich_text",
                "block_id": "gtY",
                "elements": [
                    {
                        "type": "rich_text_section",
                        "elements": [
                            {
                                "type": "text",
                                "text": "confidence in making data based decisions should be directly linked with: how valid "
                            },
                            {
                                "type": "text",
                                "text": "is",
                                "style": {
                                    "italic": true
                                }
                            },
                            {
                                "type": "text",
                                "text": " the data?"
                            }
                        ]
                    }
                ]
            }
        ]
    },
    {
        "client_msg_id": "253d59f6-48da-4219-b78a-3a9de2bf9554",
        "type": "message",
        "text": "if not then we are all just blindly making charts on unverified measurements and calling ourselves smarter because we use math to come to our conclusions.",
        "user": "U010GHT685A",
        "ts": "1586204191.102800",
        "team": "TUU48M0T1",
        "user_team": "TUU48M0T1",
        "source_team": "TUU48M0T1",
        "user_profile": {
            "avatar_hash": "g8b82eba32dc",
            "image_72": "https:\/\/secure.gravatar.com\/avatar\/8b82eba32dceb4a94f0d2f641621be24.jpg?s=72&d=https%3A%2F%2Fa.slack-edge.com%2Fdf10d%2Fimg%2Favatars%2Fava_0014-72.png",
            "first_name": "",
            "real_name": "Cody Kochmann",
            "display_name": "",
            "team": "TUU48M0T1",
            "name": "kochmanncody",
            "is_restricted": false,
            "is_ultra_restricted": false
        },
        "blocks": [
            {
                "type": "rich_text",
                "block_id": "JhW",
                "elements": [
                    {
                        "type": "rich_text_section",
                        "elements": [
                            {
                                "type": "text",
                                "text": "if not then we are all just blindly making charts on unverified measurements and calling ourselves smarter because we use math to come to our conclusions."
                            }
                        ]
                    }
                ]
            }
        ],
        "thread_ts": "1586204191.102800",
        "reply_count": 3,
        "reply_users_count": 2,
        "latest_reply": "1586525433.141500",
        "reply_users": [
            "U010RE1NDCG",
            "UV85V64SD"
        ],
        "replies": [
            {
                "user": "U010RE1NDCG",
                "ts": "1586486917.138800"
            },
            {
                "user": "U010RE1NDCG",
                "ts": "1586487133.140800"
            },
            {
                "user": "UV85V64SD",
                "ts": "1586525433.141500"
            }
        ],
        "subscribed": false
    },
    {
        "client_msg_id": "79679669-5885-46cd-811e-2a66b56977a1",
        "type": "message",
        "text": "If you think you have a problem with measurement error then you need to either go back into how the data was collected, or have some other very strong observation-level priors that would let you impute the partially missing data (i.e. there is a value for the observation but it’s mismeasured). For example, if you have a data collection instrument that becomes less sensitive over time at a known rate then you can impute at that rate.  With qualitative data if you have multiple examiners that systematically give higher\/lower scores then you can control at the examiner level when you do your analysis.  In the case you brought up, i’m not aware of any evidence that there is intentional misreporting of cases.  If this is happening, then it would still be inappropriate to manipulate the data unless you really understood the process that created the error.  Otherwise you have to either acknowledge them or find a different dataset.",
        "user": "U0108UAAUQM",
        "ts": "1586205895.126100",
        "team": "TUU48M0T1",
        "user_team": "TUU48M0T1",
        "source_team": "TUU48M0T1",
        "user_profile": {
            "avatar_hash": "8c169aed81a4",
            "image_72": "https:\/\/avatars.slack-edge.com\/2020-03-25\/1026926917366_8c169aed81a4dabd872c_72.jpg",
            "first_name": "Robert",
            "real_name": "Robert Ward",
            "display_name": "Robbie Ward",
            "team": "TUU48M0T1",
            "name": "rward48",
            "is_restricted": false,
            "is_ultra_restricted": false
        },
        "edited": {
            "user": "U0108UAAUQM",
            "ts": "1586205950.000000"
        },
        "blocks": [
            {
                "type": "rich_text",
                "block_id": "k3Zh",
                "elements": [
                    {
                        "type": "rich_text_section",
                        "elements": [
                            {
                                "type": "text",
                                "text": "If you think you have a problem with measurement error then you need to either go back into how the data was collected, or have some other very strong observation-level priors that would let you impute the partially missing data (i.e. there is a value for the observation but it’s mismeasured). For example, if you have a data collection instrument that becomes less sensitive over time at a known rate then you can impute at that rate.  With qualitative data if you have multiple examiners that systematically give higher\/lower scores then you can control at the examiner level when you do your analysis.  In the case you brought up, i’m not aware of any evidence that there is intentional misreporting of cases.  If this is happening, then it would still be inappropriate to manipulate the data unless you really understood the process that created the error.  Otherwise you have to either acknowledge them or find a different dataset."
                            }
                        ]
                    }
                ]
            }
        ],
        "reactions": [
            {
                "name": "point_up_2",
                "users": [
                    "U0101DKUALV",
                    "UVC9WMA7N",
                    "U010RE1NDCG"
                ],
                "count": 3
            }
        ]
    },
    {
        "client_msg_id": "2199264F-5C7E-4630-91BB-0B4AB1E88E63",
        "type": "message",
        "text": "now thats an answer",
        "user": "U010GHT685A",
        "ts": "1586211628.126700",
        "team": "TUU48M0T1",
        "user_team": "TUU48M0T1",
        "source_team": "TUU48M0T1",
        "user_profile": {
            "avatar_hash": "g8b82eba32dc",
            "image_72": "https:\/\/secure.gravatar.com\/avatar\/8b82eba32dceb4a94f0d2f641621be24.jpg?s=72&d=https%3A%2F%2Fa.slack-edge.com%2Fdf10d%2Fimg%2Favatars%2Fava_0014-72.png",
            "first_name": "",
            "real_name": "Cody Kochmann",
            "display_name": "",
            "team": "TUU48M0T1",
            "name": "kochmanncody",
            "is_restricted": false,
            "is_ultra_restricted": false
        },
        "blocks": [
            {
                "type": "rich_text",
                "block_id": "XPx7",
                "elements": [
                    {
                        "type": "rich_text_section",
                        "elements": [
                            {
                                "type": "text",
                                "text": "now thats an answer"
                            }
                        ]
                    }
                ]
            }
        ]
    },
    {
        "client_msg_id": "92CD30B7-B269-4B7A-8CA9-7069DBCA9D5A",
        "type": "message",
        "text": "thank you",
        "user": "U010GHT685A",
        "ts": "1586211634.126900",
        "team": "TUU48M0T1",
        "user_team": "TUU48M0T1",
        "source_team": "TUU48M0T1",
        "user_profile": {
            "avatar_hash": "g8b82eba32dc",
            "image_72": "https:\/\/secure.gravatar.com\/avatar\/8b82eba32dceb4a94f0d2f641621be24.jpg?s=72&d=https%3A%2F%2Fa.slack-edge.com%2Fdf10d%2Fimg%2Favatars%2Fava_0014-72.png",
            "first_name": "",
            "real_name": "Cody Kochmann",
            "display_name": "",
            "team": "TUU48M0T1",
            "name": "kochmanncody",
            "is_restricted": false,
            "is_ultra_restricted": false
        },
        "blocks": [
            {
                "type": "rich_text",
                "block_id": "14nG",
                "elements": [
                    {
                        "type": "rich_text_section",
                        "elements": [
                            {
                                "type": "text",
                                "text": "thank you"
                            }
                        ]
                    }
                ]
            }
        ],
        "reactions": [
            {
                "name": "+1",
                "users": [
                    "U0108UAAUQM"
                ],
                "count": 1
            }
        ]
    }
]