[
    {
        "client_msg_id": "0724ecf4-ff3b-4c8a-9613-11e8db7ef679",
        "type": "message",
        "text": "Outcome of today, we will have not 1, but 3 “action journal clubs” oriented to delineating the future metastudy research!\n\n1. Physics oriented and about augmented collective intelligence\n2. Computer science oriented\n3. Sociology of science oriented\nThey will take place during the former Slack meeting 6pm CET on Mondays!",
        "user": "UV85V64SD",
        "ts": "1588611967.182100",
        "team": "TUU48M0T1",
        "user_team": "TUU48M0T1",
        "source_team": "TUU48M0T1",
        "user_profile": {
            "avatar_hash": "1e73a651bdfe",
            "image_72": "https:\/\/avatars.slack-edge.com\/2020-03-16\/1004297548853_1e73a651bdfef2c41501_72.jpg",
            "first_name": "Marc",
            "real_name": "Marc Santolini",
            "display_name": "Marc Santolini - JOGL CoFounder \/ CSO",
            "team": "TUU48M0T1",
            "name": "marc.santolini",
            "is_restricted": false,
            "is_ultra_restricted": false
        },
        "blocks": [
            {
                "type": "rich_text",
                "block_id": "wWOK",
                "elements": [
                    {
                        "type": "rich_text_section",
                        "elements": [
                            {
                                "type": "text",
                                "text": "Outcome of today, we will have not 1, but 3 “action journal clubs” oriented to delineating the future metastudy research!\n\n"
                            }
                        ]
                    },
                    {
                        "type": "rich_text_list",
                        "elements": [
                            {
                                "type": "rich_text_section",
                                "elements": [
                                    {
                                        "type": "text",
                                        "text": "Physics oriented and about augmented collective intelligence"
                                    }
                                ]
                            },
                            {
                                "type": "rich_text_section",
                                "elements": [
                                    {
                                        "type": "text",
                                        "text": "Computer science oriented"
                                    }
                                ]
                            },
                            {
                                "type": "rich_text_section",
                                "elements": [
                                    {
                                        "type": "text",
                                        "text": "Sociology of science oriented"
                                    }
                                ]
                            }
                        ],
                        "style": "ordered",
                        "indent": 0
                    },
                    {
                        "type": "rich_text_section",
                        "elements": [
                            {
                                "type": "text",
                                "text": "\nThey will take place during the former Slack meeting 6pm CET on Mondays!"
                            }
                        ]
                    }
                ]
            }
        ]
    },
    {
        "client_msg_id": "10735310-f7d9-4b36-b867-0a4d06a0d5e3",
        "type": "message",
        "text": "Literature folder is here: <https:\/\/gitlab.com\/JOGL\/metastudy\/-\/tree\/master\/literature>",
        "user": "UV85V64SD",
        "ts": "1588611975.182400",
        "team": "TUU48M0T1",
        "user_team": "TUU48M0T1",
        "source_team": "TUU48M0T1",
        "user_profile": {
            "avatar_hash": "1e73a651bdfe",
            "image_72": "https:\/\/avatars.slack-edge.com\/2020-03-16\/1004297548853_1e73a651bdfef2c41501_72.jpg",
            "first_name": "Marc",
            "real_name": "Marc Santolini",
            "display_name": "Marc Santolini - JOGL CoFounder \/ CSO",
            "team": "TUU48M0T1",
            "name": "marc.santolini",
            "is_restricted": false,
            "is_ultra_restricted": false
        },
        "attachments": [
            {
                "service_name": "GitLab",
                "title": "literature · master · Just One Giant Lab \/ Metastudy",
                "title_link": "https:\/\/gitlab.com\/JOGL\/metastudy\/-\/tree\/master\/literature",
                "text": "Metastudy of the OpenCovid community organisation and response",
                "fallback": "GitLab: literature · master · Just One Giant Lab \/ Metastudy",
                "thumb_url": "https:\/\/assets.gitlab-static.net\/assets\/gitlab_logo-7ae504fe4f68fdebb3c2034e36621930cd36ea87924c11ff65dbcb8ed50dca58.png",
                "from_url": "https:\/\/gitlab.com\/JOGL\/metastudy\/-\/tree\/master\/literature",
                "thumb_width": 128,
                "thumb_height": 128,
                "service_icon": "https:\/\/assets.gitlab-static.net\/assets\/touch-icon-iphone-5a9cee0e8a51212e70b90c87c12f382c428870c0ff67d1eb034d884b78d2dae7.png",
                "id": 1,
                "original_url": "https:\/\/gitlab.com\/JOGL\/metastudy\/-\/tree\/master\/literature"
            }
        ],
        "blocks": [
            {
                "type": "rich_text",
                "block_id": "GJKB",
                "elements": [
                    {
                        "type": "rich_text_section",
                        "elements": [
                            {
                                "type": "text",
                                "text": "Literature folder is here: "
                            },
                            {
                                "type": "link",
                                "url": "https:\/\/gitlab.com\/JOGL\/metastudy\/-\/tree\/master\/literature"
                            }
                        ]
                    }
                ]
            }
        ]
    },
    {
        "client_msg_id": "21e60c26-258f-4e54-b057-f247a93a41e5",
        "type": "message",
        "text": "Next week <@U010B412MF1> is discussing <https:\/\/gitlab.com\/JOGL\/metastudy\/-\/blob\/master\/literature\/Augmented+Collective+Intelligence+4.21.2020.pdf>",
        "user": "UV85V64SD",
        "ts": "1588611992.182800",
        "team": "TUU48M0T1",
        "user_team": "TUU48M0T1",
        "source_team": "TUU48M0T1",
        "user_profile": {
            "avatar_hash": "1e73a651bdfe",
            "image_72": "https:\/\/avatars.slack-edge.com\/2020-03-16\/1004297548853_1e73a651bdfef2c41501_72.jpg",
            "first_name": "Marc",
            "real_name": "Marc Santolini",
            "display_name": "Marc Santolini - JOGL CoFounder \/ CSO",
            "team": "TUU48M0T1",
            "name": "marc.santolini",
            "is_restricted": false,
            "is_ultra_restricted": false
        },
        "attachments": [
            {
                "service_name": "GitLab",
                "title": "literature\/Augmented+Collective+Intelligence+4.21.2020.pdf · master · Just One Giant Lab \/ Metastudy",
                "title_link": "https:\/\/gitlab.com\/JOGL\/metastudy\/-\/blob\/master\/literature\/Augmented+Collective+Intelligence+4.21.2020.pdf",
                "text": "Metastudy of the OpenCovid community organisation and response",
                "fallback": "GitLab: literature\/Augmented+Collective+Intelligence+4.21.2020.pdf · master · Just One Giant Lab \/ Metastudy",
                "thumb_url": "https:\/\/assets.gitlab-static.net\/assets\/gitlab_logo-7ae504fe4f68fdebb3c2034e36621930cd36ea87924c11ff65dbcb8ed50dca58.png",
                "from_url": "https:\/\/gitlab.com\/JOGL\/metastudy\/-\/blob\/master\/literature\/Augmented+Collective+Intelligence+4.21.2020.pdf",
                "thumb_width": 128,
                "thumb_height": 128,
                "service_icon": "https:\/\/assets.gitlab-static.net\/assets\/touch-icon-iphone-5a9cee0e8a51212e70b90c87c12f382c428870c0ff67d1eb034d884b78d2dae7.png",
                "id": 1,
                "original_url": "https:\/\/gitlab.com\/JOGL\/metastudy\/-\/blob\/master\/literature\/Augmented+Collective+Intelligence+4.21.2020.pdf"
            }
        ],
        "blocks": [
            {
                "type": "rich_text",
                "block_id": "IgkGf",
                "elements": [
                    {
                        "type": "rich_text_section",
                        "elements": [
                            {
                                "type": "text",
                                "text": "Next week "
                            },
                            {
                                "type": "user",
                                "user_id": "U010B412MF1"
                            },
                            {
                                "type": "text",
                                "text": " is discussing "
                            },
                            {
                                "type": "link",
                                "url": "https:\/\/gitlab.com\/JOGL\/metastudy\/-\/blob\/master\/literature\/Augmented+Collective+Intelligence+4.21.2020.pdf"
                            }
                        ]
                    }
                ]
            }
        ],
        "thread_ts": "1588611992.182800",
        "reply_count": 1,
        "reply_users_count": 1,
        "latest_reply": "1588612126.184600",
        "reply_users": [
            "U010B412MF1"
        ],
        "replies": [
            {
                "user": "U010B412MF1",
                "ts": "1588612126.184600"
            }
        ],
        "subscribed": false
    },
    {
        "client_msg_id": "509f2845-b3c3-425f-8782-a7e88899c804",
        "type": "message",
        "text": "as well as <https:\/\/gitlab.com\/JOGL\/metastudy\/-\/blob\/master\/literature\/maillart2008.pdf>",
        "user": "UV85V64SD",
        "ts": "1588612005.183100",
        "team": "TUU48M0T1",
        "user_team": "TUU48M0T1",
        "source_team": "TUU48M0T1",
        "user_profile": {
            "avatar_hash": "1e73a651bdfe",
            "image_72": "https:\/\/avatars.slack-edge.com\/2020-03-16\/1004297548853_1e73a651bdfef2c41501_72.jpg",
            "first_name": "Marc",
            "real_name": "Marc Santolini",
            "display_name": "Marc Santolini - JOGL CoFounder \/ CSO",
            "team": "TUU48M0T1",
            "name": "marc.santolini",
            "is_restricted": false,
            "is_ultra_restricted": false
        },
        "attachments": [
            {
                "service_name": "GitLab",
                "title": "literature\/maillart2008.pdf · master · Just One Giant Lab \/ Metastudy",
                "title_link": "https:\/\/gitlab.com\/JOGL\/metastudy\/-\/blob\/master\/literature\/maillart2008.pdf",
                "text": "Metastudy of the OpenCovid community organisation and response",
                "fallback": "GitLab: literature\/maillart2008.pdf · master · Just One Giant Lab \/ Metastudy",
                "thumb_url": "https:\/\/assets.gitlab-static.net\/assets\/gitlab_logo-7ae504fe4f68fdebb3c2034e36621930cd36ea87924c11ff65dbcb8ed50dca58.png",
                "from_url": "https:\/\/gitlab.com\/JOGL\/metastudy\/-\/blob\/master\/literature\/maillart2008.pdf",
                "thumb_width": 128,
                "thumb_height": 128,
                "service_icon": "https:\/\/assets.gitlab-static.net\/assets\/touch-icon-iphone-5a9cee0e8a51212e70b90c87c12f382c428870c0ff67d1eb034d884b78d2dae7.png",
                "id": 1,
                "original_url": "https:\/\/gitlab.com\/JOGL\/metastudy\/-\/blob\/master\/literature\/maillart2008.pdf"
            }
        ],
        "blocks": [
            {
                "type": "rich_text",
                "block_id": "QYc63",
                "elements": [
                    {
                        "type": "rich_text_section",
                        "elements": [
                            {
                                "type": "text",
                                "text": "as well as "
                            },
                            {
                                "type": "link",
                                "url": "https:\/\/gitlab.com\/JOGL\/metastudy\/-\/blob\/master\/literature\/maillart2008.pdf"
                            }
                        ]
                    }
                ]
            }
        ]
    },
    {
        "client_msg_id": "101f2771-93ef-4552-ae4f-a4c75f21de67",
        "type": "message",
        "text": "If i have the time I will also try to read the other articles and give an account!\nSee you next week <!channel> and have a good read :)",
        "user": "UV85V64SD",
        "ts": "1588612126.184500",
        "team": "TUU48M0T1",
        "user_team": "TUU48M0T1",
        "source_team": "TUU48M0T1",
        "user_profile": {
            "avatar_hash": "1e73a651bdfe",
            "image_72": "https:\/\/avatars.slack-edge.com\/2020-03-16\/1004297548853_1e73a651bdfef2c41501_72.jpg",
            "first_name": "Marc",
            "real_name": "Marc Santolini",
            "display_name": "Marc Santolini - JOGL CoFounder \/ CSO",
            "team": "TUU48M0T1",
            "name": "marc.santolini",
            "is_restricted": false,
            "is_ultra_restricted": false
        },
        "blocks": [
            {
                "type": "rich_text",
                "block_id": "WBv",
                "elements": [
                    {
                        "type": "rich_text_section",
                        "elements": [
                            {
                                "type": "text",
                                "text": "If i have the time I will also try to read the other articles and give an account!\nSee you next week "
                            },
                            {
                                "type": "broadcast",
                                "range": "channel"
                            },
                            {
                                "type": "text",
                                "text": " and have a good read :)"
                            }
                        ]
                    }
                ]
            }
        ],
        "thread_ts": "1588612126.184500",
        "reply_count": 1,
        "reply_users_count": 1,
        "latest_reply": "1588612459.187100",
        "reply_users": [
            "U010RE1NDCG"
        ],
        "replies": [
            {
                "user": "U010RE1NDCG",
                "ts": "1588612459.187100"
            }
        ],
        "subscribed": false,
        "reactions": [
            {
                "name": "earth_africa",
                "users": [
                    "U010B412MF1"
                ],
                "count": 1
            },
            {
                "name": "100",
                "users": [
                    "U010AGDDEBZ"
                ],
                "count": 1
            }
        ]
    },
    {
        "client_msg_id": "9f8ea6e3-d873-40ac-b3c6-ab9cc5098f42",
        "type": "message",
        "text": "Yess i will share the link to the presentation soon. Thank you :fire::computer:",
        "user": "U010B412MF1",
        "ts": "1588612126.184600",
        "team": "TUU48M0T1",
        "user_team": "TUU48M0T1",
        "source_team": "TUU48M0T1",
        "user_profile": {
            "avatar_hash": "218d963a797f",
            "image_72": "https:\/\/avatars.slack-edge.com\/2020-03-19\/1013072792629_218d963a797fbf4410c0_72.png",
            "first_name": "",
            "real_name": "liu",
            "display_name": "liu",
            "team": "TUU48M0T1",
            "name": "liubov.tupikina",
            "is_restricted": false,
            "is_ultra_restricted": false
        },
        "blocks": [
            {
                "type": "rich_text",
                "block_id": "lRH",
                "elements": [
                    {
                        "type": "rich_text_section",
                        "elements": [
                            {
                                "type": "text",
                                "text": "Yess i will share the link to the presentation soon. Thank you "
                            },
                            {
                                "type": "emoji",
                                "name": "fire"
                            },
                            {
                                "type": "emoji",
                                "name": "computer"
                            }
                        ]
                    }
                ]
            }
        ],
        "thread_ts": "1588611992.182800",
        "parent_user_id": "UV85V64SD",
        "reactions": [
            {
                "name": "heart",
                "users": [
                    "U010RE1NDCG"
                ],
                "count": 1
            }
        ]
    },
    {
        "client_msg_id": "30911e61-7775-4f42-90ed-86a5e97790ca",
        "type": "message",
        "text": "I will not be able to join 6pm meetings going forward on monday <@UV85V64SD>",
        "user": "UVC9WMA7N",
        "ts": "1588612165.185200",
        "team": "TUU48M0T1",
        "user_team": "TUU48M0T1",
        "source_team": "TUU48M0T1",
        "user_profile": {
            "avatar_hash": "56d14d58ed53",
            "image_72": "https:\/\/avatars.slack-edge.com\/2020-03-13\/998337892660_56d14d58ed537e6e4654_72.png",
            "first_name": "Leo",
            "real_name": "Leo Blondel",
            "display_name": "Leo Blondel - JOGL CoFounder \/ CTO",
            "team": "TUU48M0T1",
            "name": "leo",
            "is_restricted": false,
            "is_ultra_restricted": false
        },
        "blocks": [
            {
                "type": "rich_text",
                "block_id": "ObN",
                "elements": [
                    {
                        "type": "rich_text_section",
                        "elements": [
                            {
                                "type": "text",
                                "text": "I will not be able to join 6pm meetings going forward on monday "
                            },
                            {
                                "type": "user",
                                "user_id": "UV85V64SD"
                            }
                        ]
                    }
                ]
            }
        ]
    },
    {
        "client_msg_id": "937c5594-c8c5-4cbb-bb5d-aca98167eaa3",
        "type": "message",
        "text": "ohhhhh shoot… ok we will need to figure something out",
        "user": "UV85V64SD",
        "ts": "1588612297.186000",
        "team": "TUU48M0T1",
        "user_team": "TUU48M0T1",
        "source_team": "TUU48M0T1",
        "user_profile": {
            "avatar_hash": "1e73a651bdfe",
            "image_72": "https:\/\/avatars.slack-edge.com\/2020-03-16\/1004297548853_1e73a651bdfef2c41501_72.jpg",
            "first_name": "Marc",
            "real_name": "Marc Santolini",
            "display_name": "Marc Santolini - JOGL CoFounder \/ CSO",
            "team": "TUU48M0T1",
            "name": "marc.santolini",
            "is_restricted": false,
            "is_ultra_restricted": false
        },
        "blocks": [
            {
                "type": "rich_text",
                "block_id": "CgGv",
                "elements": [
                    {
                        "type": "rich_text_section",
                        "elements": [
                            {
                                "type": "text",
                                "text": "ohhhhh shoot… ok we will need to figure something out"
                            }
                        ]
                    }
                ]
            }
        ],
        "thread_ts": "1588612297.186000",
        "reply_count": 4,
        "reply_users_count": 3,
        "latest_reply": "1588612465.187300",
        "reply_users": [
            "U010B412MF1",
            "UVC9WMA7N",
            "UV85V64SD"
        ],
        "replies": [
            {
                "user": "U010B412MF1",
                "ts": "1588612395.186500"
            },
            {
                "user": "UVC9WMA7N",
                "ts": "1588612426.186700"
            },
            {
                "user": "UV85V64SD",
                "ts": "1588612451.186900"
            },
            {
                "user": "U010B412MF1",
                "ts": "1588612465.187300"
            }
        ],
        "subscribed": false
    },
    {
        "client_msg_id": "e25fb977-2e23-4b79-8d92-c1a7b66b7db8",
        "type": "message",
        "text": "5pm works",
        "user": "UVC9WMA7N",
        "ts": "1588612389.186200",
        "team": "TUU48M0T1",
        "user_team": "TUU48M0T1",
        "source_team": "TUU48M0T1",
        "user_profile": {
            "avatar_hash": "56d14d58ed53",
            "image_72": "https:\/\/avatars.slack-edge.com\/2020-03-13\/998337892660_56d14d58ed537e6e4654_72.png",
            "first_name": "Leo",
            "real_name": "Leo Blondel",
            "display_name": "Leo Blondel - JOGL CoFounder \/ CTO",
            "team": "TUU48M0T1",
            "name": "leo",
            "is_restricted": false,
            "is_ultra_restricted": false
        },
        "blocks": [
            {
                "type": "rich_text",
                "block_id": "9U+\/n",
                "elements": [
                    {
                        "type": "rich_text_section",
                        "elements": [
                            {
                                "type": "text",
                                "text": "5pm works"
                            }
                        ]
                    }
                ]
            }
        ]
    },
    {
        "client_msg_id": "0ccacaa3-0acd-4fe6-8a88-0cf80fab57cf",
        "type": "message",
        "text": "?",
        "user": "UVC9WMA7N",
        "ts": "1588612390.186400",
        "team": "TUU48M0T1",
        "user_team": "TUU48M0T1",
        "source_team": "TUU48M0T1",
        "user_profile": {
            "avatar_hash": "56d14d58ed53",
            "image_72": "https:\/\/avatars.slack-edge.com\/2020-03-13\/998337892660_56d14d58ed537e6e4654_72.png",
            "first_name": "Leo",
            "real_name": "Leo Blondel",
            "display_name": "Leo Blondel - JOGL CoFounder \/ CTO",
            "team": "TUU48M0T1",
            "name": "leo",
            "is_restricted": false,
            "is_ultra_restricted": false
        },
        "blocks": [
            {
                "type": "rich_text",
                "block_id": "hS5Gx",
                "elements": [
                    {
                        "type": "rich_text_section",
                        "elements": [
                            {
                                "type": "text",
                                "text": "?"
                            }
                        ]
                    }
                ]
            }
        ]
    },
    {
        "client_msg_id": "9c3ac280-b6d8-420a-acbb-e4b3100e9c36",
        "type": "message",
        "text": "Maybe on Tuesday then? <@UVC9WMA7N> <@UV85V64SD> ?",
        "user": "U010B412MF1",
        "ts": "1588612395.186500",
        "team": "TUU48M0T1",
        "user_team": "TUU48M0T1",
        "source_team": "TUU48M0T1",
        "user_profile": {
            "avatar_hash": "218d963a797f",
            "image_72": "https:\/\/avatars.slack-edge.com\/2020-03-19\/1013072792629_218d963a797fbf4410c0_72.png",
            "first_name": "",
            "real_name": "liu",
            "display_name": "liu",
            "team": "TUU48M0T1",
            "name": "liubov.tupikina",
            "is_restricted": false,
            "is_ultra_restricted": false
        },
        "blocks": [
            {
                "type": "rich_text",
                "block_id": "Yrqd",
                "elements": [
                    {
                        "type": "rich_text_section",
                        "elements": [
                            {
                                "type": "text",
                                "text": "Maybe on Tuesday then? "
                            },
                            {
                                "type": "user",
                                "user_id": "UVC9WMA7N"
                            },
                            {
                                "type": "text",
                                "text": " "
                            },
                            {
                                "type": "user",
                                "user_id": "UV85V64SD"
                            },
                            {
                                "type": "text",
                                "text": " ?"
                            }
                        ]
                    }
                ]
            }
        ],
        "thread_ts": "1588612297.186000",
        "parent_user_id": "UV85V64SD"
    },
    {
        "client_msg_id": "73c49928-8488-4775-928f-9db6db3f6bd3",
        "type": "message",
        "text": "Tuesday works for me, but I'm not sure for <@UV85V64SD>",
        "user": "UVC9WMA7N",
        "ts": "1588612426.186700",
        "team": "TUU48M0T1",
        "user_team": "TUU48M0T1",
        "source_team": "TUU48M0T1",
        "user_profile": {
            "avatar_hash": "56d14d58ed53",
            "image_72": "https:\/\/avatars.slack-edge.com\/2020-03-13\/998337892660_56d14d58ed537e6e4654_72.png",
            "first_name": "Leo",
            "real_name": "Leo Blondel",
            "display_name": "Leo Blondel - JOGL CoFounder \/ CTO",
            "team": "TUU48M0T1",
            "name": "leo",
            "is_restricted": false,
            "is_ultra_restricted": false
        },
        "blocks": [
            {
                "type": "rich_text",
                "block_id": "2gmK",
                "elements": [
                    {
                        "type": "rich_text_section",
                        "elements": [
                            {
                                "type": "text",
                                "text": "Tuesday works for me, but I'm not sure for "
                            },
                            {
                                "type": "user",
                                "user_id": "UV85V64SD"
                            }
                        ]
                    }
                ]
            }
        ],
        "thread_ts": "1588612297.186000",
        "parent_user_id": "UV85V64SD"
    },
    {
        "client_msg_id": "97f93327-a5ec-4cf2-9671-ca67dd2ea2b2",
        "type": "message",
        "text": "no Tuesdays.",
        "user": "UV85V64SD",
        "ts": "1588612451.186900",
        "team": "TUU48M0T1",
        "user_team": "TUU48M0T1",
        "source_team": "TUU48M0T1",
        "user_profile": {
            "avatar_hash": "1e73a651bdfe",
            "image_72": "https:\/\/avatars.slack-edge.com\/2020-03-16\/1004297548853_1e73a651bdfef2c41501_72.jpg",
            "first_name": "Marc",
            "real_name": "Marc Santolini",
            "display_name": "Marc Santolini - JOGL CoFounder \/ CSO",
            "team": "TUU48M0T1",
            "name": "marc.santolini",
            "is_restricted": false,
            "is_ultra_restricted": false
        },
        "blocks": [
            {
                "type": "rich_text",
                "block_id": "5yt=",
                "elements": [
                    {
                        "type": "rich_text_section",
                        "elements": [
                            {
                                "type": "text",
                                "text": "no Tuesdays."
                            }
                        ]
                    }
                ]
            }
        ],
        "thread_ts": "1588612297.186000",
        "parent_user_id": "UV85V64SD"
    },
    {
        "client_msg_id": "8baadbb5-d8b8-42e1-8f72-7b0a648d11ea",
        "type": "message",
        "text": "I suggest this for people who have same attention span as I do: skim the paper, pick few cool anecdotes, google it, and come back to it.  we'll have cool trivia to add during the call then :wink:",
        "user": "U010RE1NDCG",
        "ts": "1588612459.187100",
        "team": "TUU48M0T1",
        "user_team": "TUU48M0T1",
        "source_team": "TUU48M0T1",
        "user_profile": {
            "avatar_hash": "9b536de47814",
            "image_72": "https:\/\/avatars.slack-edge.com\/2020-03-27\/1033593346022_9b536de4781429680ea1_72.jpg",
            "first_name": "",
            "real_name": "Prashant Sinha",
            "display_name": "",
            "team": "TUU48M0T1",
            "name": "prashant",
            "is_restricted": false,
            "is_ultra_restricted": false
        },
        "blocks": [
            {
                "type": "rich_text",
                "block_id": "hGX",
                "elements": [
                    {
                        "type": "rich_text_section",
                        "elements": [
                            {
                                "type": "text",
                                "text": "I suggest this for people who have same attention span as I do: skim the paper, pick few cool anecdotes, google it, and come back to it.  we'll have cool trivia to add during the call then "
                            },
                            {
                                "type": "emoji",
                                "name": "wink"
                            }
                        ]
                    }
                ]
            }
        ],
        "thread_ts": "1588612126.184500",
        "parent_user_id": "UV85V64SD"
    },
    {
        "client_msg_id": "bc917ad5-89e1-4850-b18d-ea9bc2b4f094",
        "type": "message",
        "text": "Uuu true..ok Wednesday???",
        "user": "U010B412MF1",
        "ts": "1588612465.187300",
        "team": "TUU48M0T1",
        "user_team": "TUU48M0T1",
        "source_team": "TUU48M0T1",
        "user_profile": {
            "avatar_hash": "218d963a797f",
            "image_72": "https:\/\/avatars.slack-edge.com\/2020-03-19\/1013072792629_218d963a797fbf4410c0_72.png",
            "first_name": "",
            "real_name": "liu",
            "display_name": "liu",
            "team": "TUU48M0T1",
            "name": "liubov.tupikina",
            "is_restricted": false,
            "is_ultra_restricted": false
        },
        "blocks": [
            {
                "type": "rich_text",
                "block_id": "Bx2a",
                "elements": [
                    {
                        "type": "rich_text_section",
                        "elements": [
                            {
                                "type": "text",
                                "text": "Uuu true..ok Wednesday???"
                            }
                        ]
                    }
                ]
            }
        ],
        "thread_ts": "1588612297.186000",
        "parent_user_id": "UV85V64SD"
    },
    {
        "client_msg_id": "981afe4a-d850-4d8c-90b4-540b8b3beb2a",
        "type": "message",
        "text": "we could do 5pm and move the recsys technical meeting earlier",
        "user": "UV85V64SD",
        "ts": "1588612488.187800",
        "team": "TUU48M0T1",
        "user_team": "TUU48M0T1",
        "source_team": "TUU48M0T1",
        "user_profile": {
            "avatar_hash": "1e73a651bdfe",
            "image_72": "https:\/\/avatars.slack-edge.com\/2020-03-16\/1004297548853_1e73a651bdfef2c41501_72.jpg",
            "first_name": "Marc",
            "real_name": "Marc Santolini",
            "display_name": "Marc Santolini - JOGL CoFounder \/ CSO",
            "team": "TUU48M0T1",
            "name": "marc.santolini",
            "is_restricted": false,
            "is_ultra_restricted": false
        },
        "blocks": [
            {
                "type": "rich_text",
                "block_id": "3g\/Ow",
                "elements": [
                    {
                        "type": "rich_text_section",
                        "elements": [
                            {
                                "type": "text",
                                "text": "we could do 5pm and move the recsys technical meeting earlier"
                            }
                        ]
                    }
                ]
            }
        ]
    },
    {
        "client_msg_id": "d86bbcaf-a31b-4efa-85ce-31c274abb800",
        "type": "message",
        "text": "Ok for me...then 13th may? 5pm...",
        "user": "U010B412MF1",
        "ts": "1588612713.188400",
        "team": "TUU48M0T1",
        "user_team": "TUU48M0T1",
        "source_team": "TUU48M0T1",
        "user_profile": {
            "avatar_hash": "218d963a797f",
            "image_72": "https:\/\/avatars.slack-edge.com\/2020-03-19\/1013072792629_218d963a797fbf4410c0_72.png",
            "first_name": "",
            "real_name": "liu",
            "display_name": "liu",
            "team": "TUU48M0T1",
            "name": "liubov.tupikina",
            "is_restricted": false,
            "is_ultra_restricted": false
        },
        "blocks": [
            {
                "type": "rich_text",
                "block_id": "qoj",
                "elements": [
                    {
                        "type": "rich_text_section",
                        "elements": [
                            {
                                "type": "text",
                                "text": "Ok for me...then 13th may? 5pm..."
                            }
                        ]
                    }
                ]
            }
        ],
        "thread_ts": "1588612713.188400",
        "reply_count": 1,
        "reply_users_count": 1,
        "latest_reply": "1588613420.189200",
        "reply_users": [
            "UV85V64SD"
        ],
        "replies": [
            {
                "user": "UV85V64SD",
                "ts": "1588613420.189200"
            }
        ],
        "subscribed": false
    },
    {
        "client_msg_id": "ad028549-2155-4f5c-afaf-f745644e866c",
        "type": "message",
        "text": "But at 6pm there is community call..",
        "user": "U010B412MF1",
        "ts": "1588612894.188800",
        "team": "TUU48M0T1",
        "user_team": "TUU48M0T1",
        "source_team": "TUU48M0T1",
        "user_profile": {
            "avatar_hash": "218d963a797f",
            "image_72": "https:\/\/avatars.slack-edge.com\/2020-03-19\/1013072792629_218d963a797fbf4410c0_72.png",
            "first_name": "",
            "real_name": "liu",
            "display_name": "liu",
            "team": "TUU48M0T1",
            "name": "liubov.tupikina",
            "is_restricted": false,
            "is_ultra_restricted": false
        },
        "blocks": [
            {
                "type": "rich_text",
                "block_id": "rNne",
                "elements": [
                    {
                        "type": "rich_text_section",
                        "elements": [
                            {
                                "type": "text",
                                "text": "But at 6pm there is community call.."
                            }
                        ]
                    }
                ]
            }
        ]
    },
    {
        "client_msg_id": "defa7127-2240-42e3-aa09-b2254fff7832",
        "type": "message",
        "text": "wait i am in a call, will check that after",
        "user": "UV85V64SD",
        "ts": "1588613275.189100",
        "team": "TUU48M0T1",
        "user_team": "TUU48M0T1",
        "source_team": "TUU48M0T1",
        "user_profile": {
            "avatar_hash": "1e73a651bdfe",
            "image_72": "https:\/\/avatars.slack-edge.com\/2020-03-16\/1004297548853_1e73a651bdfef2c41501_72.jpg",
            "first_name": "Marc",
            "real_name": "Marc Santolini",
            "display_name": "Marc Santolini - JOGL CoFounder \/ CSO",
            "team": "TUU48M0T1",
            "name": "marc.santolini",
            "is_restricted": false,
            "is_ultra_restricted": false
        },
        "blocks": [
            {
                "type": "rich_text",
                "block_id": "b9kT",
                "elements": [
                    {
                        "type": "rich_text_section",
                        "elements": [
                            {
                                "type": "text",
                                "text": "wait i am in a call, will check that after"
                            }
                        ]
                    }
                ]
            }
        ]
    },
    {
        "client_msg_id": "8b3a4fbf-6c73-4098-a061-f92d34f8a21c",
        "type": "message",
        "text": "he meant 5pm mondays",
        "user": "UV85V64SD",
        "ts": "1588613420.189200",
        "team": "TUU48M0T1",
        "user_team": "TUU48M0T1",
        "source_team": "TUU48M0T1",
        "user_profile": {
            "avatar_hash": "1e73a651bdfe",
            "image_72": "https:\/\/avatars.slack-edge.com\/2020-03-16\/1004297548853_1e73a651bdfef2c41501_72.jpg",
            "first_name": "Marc",
            "real_name": "Marc Santolini",
            "display_name": "Marc Santolini - JOGL CoFounder \/ CSO",
            "team": "TUU48M0T1",
            "name": "marc.santolini",
            "is_restricted": false,
            "is_ultra_restricted": false
        },
        "blocks": [
            {
                "type": "rich_text",
                "block_id": "riGF",
                "elements": [
                    {
                        "type": "rich_text_section",
                        "elements": [
                            {
                                "type": "text",
                                "text": "he meant 5pm mondays"
                            }
                        ]
                    }
                ]
            }
        ],
        "thread_ts": "1588612713.188400",
        "parent_user_id": "U010B412MF1"
    },
    {
        "client_msg_id": "b5c4f78d-19bd-4da5-a08c-4458cbb71ac3",
        "type": "message",
        "text": "Great. We can record the reading acting club anyway for those who cannot join...",
        "user": "U010B412MF1",
        "ts": "1588616357.189400",
        "team": "TUU48M0T1",
        "user_team": "TUU48M0T1",
        "source_team": "TUU48M0T1",
        "user_profile": {
            "avatar_hash": "218d963a797f",
            "image_72": "https:\/\/avatars.slack-edge.com\/2020-03-19\/1013072792629_218d963a797fbf4410c0_72.png",
            "first_name": "",
            "real_name": "liu",
            "display_name": "liu",
            "team": "TUU48M0T1",
            "name": "liubov.tupikina",
            "is_restricted": false,
            "is_ultra_restricted": false
        }
    }
]