[
    {
        "client_msg_id": "88099a67-0adb-4b66-a8e2-6ca03a70af22",
        "type": "message",
        "text": "Hi Pauline, thanks for replying back. A very simple graphic illustration. I have what I want as a PowerPoint slide, if it's okay with you, I can send it as an email.",
        "user": "UVA46RKLY",
        "ts": "1588939121.039400",
        "team": "TUU48M0T1",
        "user_team": "TUU48M0T1",
        "source_team": "TUU48M0T1",
        "user_profile": {
            "avatar_hash": "8d10ec5a9437",
            "image_72": "https:\/\/avatars.slack-edge.com\/2020-03-12\/996164491840_8d10ec5a943740f34518_72.jpg",
            "first_name": "Nivedita",
            "real_name": "Nivedita Bhattacharya",
            "display_name": "Nivi",
            "team": "TUU48M0T1",
            "name": "evaladybrave",
            "is_restricted": false,
            "is_ultra_restricted": false
        },
        "blocks": [
            {
                "type": "rich_text",
                "block_id": "oMUK",
                "elements": [
                    {
                        "type": "rich_text_section",
                        "elements": [
                            {
                                "type": "text",
                                "text": "Hi Pauline, thanks for replying back. A very simple graphic illustration. I have what I want as a PowerPoint slide, if it's okay with you, I can send it as an email."
                            }
                        ]
                    }
                ]
            }
        ],
        "thread_ts": "1588879957.038500",
        "parent_user_id": "UVA46RKLY"
    },
    {
        "client_msg_id": "17527786-5E2D-45DE-A894-801ABF679178",
        "type": "message",
        "text": "Not sure what style you are looking for, but <https:\/\/thenounproject.com|https:\/\/thenounproject.com> has lots of great icons, you can use them for free as long as you credit the author",
        "user": "U011G0QGFN3",
        "ts": "1588951718.041400",
        "team": "TUU48M0T1",
        "user_team": "TUU48M0T1",
        "source_team": "TUU48M0T1",
        "user_profile": {
            "avatar_hash": "e5bfa29546fa",
            "image_72": "https:\/\/avatars.slack-edge.com\/2020-04-15\/1077438063281_e5bfa29546fa8873e2fc_72.jpg",
            "first_name": "Hunter",
            "real_name": "Hunter Futo",
            "display_name": "Hunter Futo",
            "team": "TUU48M0T1",
            "name": "hunter",
            "is_restricted": false,
            "is_ultra_restricted": false
        },
        "attachments": [
            {
                "title": "Noun Project",
                "title_link": "https:\/\/thenounproject.com\/",
                "text": "Creating, Sharing and Celebrating the World's Visual Language.",
                "fallback": "Noun Project",
                "thumb_url": "https:\/\/static.production.thenounproject.com\/img\/nounproject_logo.60e860f212a5.png",
                "from_url": "https:\/\/thenounproject.com\/",
                "thumb_width": 501,
                "thumb_height": 499,
                "service_icon": "https:\/\/static.production.thenounproject.com\/img\/favicons\/apple-touch-icon.7fb1143e988e.png",
                "service_name": "thenounproject.com",
                "id": 1,
                "original_url": "https:\/\/thenounproject.com"
            }
        ],
        "blocks": [
            {
                "type": "rich_text",
                "block_id": "MovXn",
                "elements": [
                    {
                        "type": "rich_text_section",
                        "elements": [
                            {
                                "type": "text",
                                "text": "Not sure what style you are looking for, but "
                            },
                            {
                                "type": "link",
                                "url": "https:\/\/thenounproject.com",
                                "text": "https:\/\/thenounproject.com"
                            },
                            {
                                "type": "text",
                                "text": " has lots of great icons, you can use them for free as long as you credit the author"
                            }
                        ]
                    }
                ]
            }
        ],
        "thread_ts": "1588879957.038500",
        "parent_user_id": "UVA46RKLY"
    },
    {
        "client_msg_id": "4f8ff109-5dcf-4660-aac0-c5bbe6f50a11",
        "type": "message",
        "text": "Thanks Hunter, will go through it",
        "user": "UVA46RKLY",
        "ts": "1588953563.041700",
        "team": "TUU48M0T1",
        "user_team": "TUU48M0T1",
        "source_team": "TUU48M0T1",
        "user_profile": {
            "avatar_hash": "8d10ec5a9437",
            "image_72": "https:\/\/avatars.slack-edge.com\/2020-03-12\/996164491840_8d10ec5a943740f34518_72.jpg",
            "first_name": "Nivedita",
            "real_name": "Nivedita Bhattacharya",
            "display_name": "Nivi",
            "team": "TUU48M0T1",
            "name": "evaladybrave",
            "is_restricted": false,
            "is_ultra_restricted": false
        },
        "blocks": [
            {
                "type": "rich_text",
                "block_id": "0sc",
                "elements": [
                    {
                        "type": "rich_text_section",
                        "elements": [
                            {
                                "type": "text",
                                "text": "Thanks Hunter, will go through it"
                            }
                        ]
                    }
                ]
            }
        ],
        "thread_ts": "1588879957.038500",
        "parent_user_id": "UVA46RKLY"
    },
    {
        "client_msg_id": "640fbb6e-42f7-4091-be64-bab19bdc7d93",
        "type": "message",
        "text": "Hello Nivi! Feel free to e-mail me at <mailto:pauline.chane@gmail.com|pauline.chane@gmail.com> and I'll take a look.",
        "user": "U0101DKUALV",
        "ts": "1588954987.041900",
        "team": "TUU48M0T1",
        "user_team": "TUU48M0T1",
        "source_team": "TUU48M0T1",
        "user_profile": {
            "avatar_hash": "b0aee06ed3e5",
            "image_72": "https:\/\/avatars.slack-edge.com\/2020-04-22\/1072886325190_b0aee06ed3e501ebdf56_72.png",
            "first_name": "",
            "real_name": "Pauline Chane",
            "display_name": "Pauline Chane",
            "team": "TUU48M0T1",
            "name": "pauline.chane",
            "is_restricted": false,
            "is_ultra_restricted": false
        },
        "blocks": [
            {
                "type": "rich_text",
                "block_id": "PZht",
                "elements": [
                    {
                        "type": "rich_text_section",
                        "elements": [
                            {
                                "type": "text",
                                "text": "Hello Nivi! Feel free to e-mail me at "
                            },
                            {
                                "type": "link",
                                "url": "mailto:pauline.chane@gmail.com",
                                "text": "pauline.chane@gmail.com"
                            },
                            {
                                "type": "text",
                                "text": " and I'll take a look."
                            }
                        ]
                    }
                ]
            }
        ],
        "thread_ts": "1588879957.038500",
        "parent_user_id": "UVA46RKLY"
    },
    {
        "client_msg_id": "155fd95c-23f8-4b60-a209-89cb19a2a669",
        "type": "message",
        "text": "Thank you so much Pauline, will email you",
        "user": "UVA46RKLY",
        "ts": "1588956927.042300",
        "team": "TUU48M0T1",
        "user_team": "TUU48M0T1",
        "source_team": "TUU48M0T1",
        "user_profile": {
            "avatar_hash": "8d10ec5a9437",
            "image_72": "https:\/\/avatars.slack-edge.com\/2020-03-12\/996164491840_8d10ec5a943740f34518_72.jpg",
            "first_name": "Nivedita",
            "real_name": "Nivedita Bhattacharya",
            "display_name": "Nivi",
            "team": "TUU48M0T1",
            "name": "evaladybrave",
            "is_restricted": false,
            "is_ultra_restricted": false
        },
        "blocks": [
            {
                "type": "rich_text",
                "block_id": "84m+",
                "elements": [
                    {
                        "type": "rich_text_section",
                        "elements": [
                            {
                                "type": "text",
                                "text": "Thank you so much Pauline, will email you"
                            }
                        ]
                    }
                ]
            }
        ],
        "thread_ts": "1588879957.038500",
        "parent_user_id": "UVA46RKLY",
        "reactions": [
            {
                "name": "+1",
                "users": [
                    "U011B6VLM2A"
                ],
                "count": 1
            }
        ]
    }
]