[
    {
        "client_msg_id": "2a4dfc35-a1ee-4c0e-8507-1287808f86bd",
        "type": "message",
        "text": "<!channel> During the community call (in 50min) I will ask all the JOGL grant winning projects to pitch again their projects for the community to hear what you’ve been working on (1-2min max) Thanks! :pray:",
        "user": "UV02WET96",
        "ts": "1586964048.343500",
        "team": "TUU48M0T1",
        "user_team": "TUU48M0T1",
        "source_team": "TUU48M0T1",
        "user_profile": {
            "avatar_hash": "a99c74a194f8",
            "image_72": "https:\/\/avatars.slack-edge.com\/2020-03-07\/975708504851_a99c74a194f86715ca7d_72.png",
            "first_name": "Thomas",
            "real_name": "Thomas Landrain",
            "display_name": "Thomas Landrain - JOGL CoFounder \/ CEO",
            "team": "TUU48M0T1",
            "name": "thomas",
            "is_restricted": false,
            "is_ultra_restricted": false
        },
        "blocks": [
            {
                "type": "rich_text",
                "block_id": "Fzd8",
                "elements": [
                    {
                        "type": "rich_text_section",
                        "elements": [
                            {
                                "type": "broadcast",
                                "range": "channel"
                            },
                            {
                                "type": "text",
                                "text": " During the community call (in 50min) I will ask all the JOGL grant winning projects to pitch again their projects for the community to hear what you’ve been working on (1-2min max) Thanks! "
                            },
                            {
                                "type": "emoji",
                                "name": "pray"
                            }
                        ]
                    }
                ]
            }
        ],
        "reactions": [
            {
                "name": "+1",
                "users": [
                    "U011B5424FR"
                ],
                "count": 1
            }
        ]
    },
    {
        "client_msg_id": "dcaf70cc-d425-4866-b7f5-348055f82d78",
        "type": "message",
        "text": "Hey,\nis the call today at 4 or 5pm?",
        "user": "U010X9FPMS8",
        "ts": "1587017586.344600",
        "team": "TUU48M0T1",
        "user_team": "TUU48M0T1",
        "source_team": "TUU48M0T1",
        "user_profile": {
            "avatar_hash": "faff4edf8af2",
            "image_72": "https:\/\/avatars.slack-edge.com\/2020-03-27\/1031471711236_faff4edf8af2cc7b11dd_72.jpg",
            "first_name": "Florian",
            "real_name": "Florian Schulte",
            "display_name": "Florian Schulte",
            "team": "TUU48M0T1",
            "name": "schulte.florian",
            "is_restricted": false,
            "is_ultra_restricted": false
        },
        "blocks": [
            {
                "type": "rich_text",
                "block_id": "m4V",
                "elements": [
                    {
                        "type": "rich_text_section",
                        "elements": [
                            {
                                "type": "text",
                                "text": "Hey,\nis the call today at 4 or 5pm?"
                            }
                        ]
                    }
                ]
            }
        ],
        "thread_ts": "1587017586.344600",
        "reply_count": 3,
        "reply_users_count": 3,
        "latest_reply": "1587606723.348000",
        "reply_users": [
            "U010W2Z4MMZ",
            "UV1A22N3W",
            "UV10KBUQG"
        ],
        "replies": [
            {
                "user": "U010W2Z4MMZ",
                "ts": "1587048663.344700"
            },
            {
                "user": "UV1A22N3W",
                "ts": "1587573165.347500"
            },
            {
                "user": "UV10KBUQG",
                "ts": "1587606723.348000"
            }
        ],
        "subscribed": false
    }
]