[
    {
        "client_msg_id": "4b056bed-d886-4958-8e3b-2894eaedf2fb",
        "type": "message",
        "text": "<@U010NUT3G2H>",
        "user": "U010566NJHG",
        "ts": "1585472045.064200",
        "team": "TUU48M0T1",
        "user_team": "TUU48M0T1",
        "source_team": "TUU48M0T1",
        "user_profile": {
            "avatar_hash": "103225790dbb",
            "image_72": "https:\/\/avatars.slack-edge.com\/2020-03-23\/1018037453952_103225790dbb62abe3e8_72.jpg",
            "first_name": "Avi",
            "real_name": "Avi Khalil",
            "display_name": "Avi",
            "team": "TUU48M0T1",
            "name": "kavb",
            "is_restricted": false,
            "is_ultra_restricted": false
        },
        "blocks": [
            {
                "type": "rich_text",
                "block_id": "c1Sid",
                "elements": [
                    {
                        "type": "rich_text_section",
                        "elements": [
                            {
                                "type": "user",
                                "user_id": "U010NUT3G2H"
                            }
                        ]
                    }
                ]
            }
        ],
        "thread_ts": "1585420196.052900",
        "parent_user_id": "UV3URUKK5"
    },
    {
        "type": "message",
        "subtype": "channel_join",
        "ts": "1585472140.064500",
        "user": "U010NUT3G2H",
        "text": "<@U010NUT3G2H> has joined the channel",
        "inviter": "U010566NJHG"
    },
    {
        "client_msg_id": "717630DF-9F6A-450A-80F0-2B4886F98A26",
        "type": "message",
        "text": "First, <@UV10KBUQG> you need to join the project then <@UUPQGNNTV> you need to go to the edit panel of the project, then in the member tab and change her role ",
        "user": "UV02WET96",
        "ts": "1585481832.066200",
        "team": "TUU48M0T1",
        "user_team": "TUU48M0T1",
        "source_team": "TUU48M0T1",
        "user_profile": {
            "avatar_hash": "a99c74a194f8",
            "image_72": "https:\/\/avatars.slack-edge.com\/2020-03-07\/975708504851_a99c74a194f86715ca7d_72.png",
            "first_name": "Thomas",
            "real_name": "Thomas Landrain",
            "display_name": "Thomas Landrain - JOGL CoFounder \/ CEO",
            "team": "TUU48M0T1",
            "name": "thomas",
            "is_restricted": false,
            "is_ultra_restricted": false
        },
        "blocks": [
            {
                "type": "rich_text",
                "block_id": "jil",
                "elements": [
                    {
                        "type": "rich_text_section",
                        "elements": [
                            {
                                "type": "text",
                                "text": "First, "
                            },
                            {
                                "type": "user",
                                "user_id": "UV10KBUQG"
                            },
                            {
                                "type": "text",
                                "text": " you need to join the project then "
                            },
                            {
                                "type": "user",
                                "user_id": "UUPQGNNTV"
                            },
                            {
                                "type": "text",
                                "text": " you need to go to the edit panel of the project, then in the member tab and change her role "
                            }
                        ]
                    }
                ]
            }
        ],
        "thread_ts": "1585441218.059800",
        "parent_user_id": "UV02WET96",
        "reactions": [
            {
                "name": "+1",
                "users": [
                    "UV10KBUQG"
                ],
                "count": 1
            }
        ]
    },
    {
        "client_msg_id": "930610ac-9e3f-4be4-8850-d6aca1462686",
        "type": "message",
        "text": "Hi team!\n\nDo you know if anyone on this project has started to collate\/collect info about all the testing modalities that are coming out?\n\nSpecifically wrt things like capital equipment cost, cost per test, throughput, availability, etc\n\nI am starting a spreadsheet to gather this info but would love to leverage existing information if it's in one place -- otherwise I'm just going to use a lot of google-fu and phone calls",
        "user": "UUWLPKCLB",
        "ts": "1585498580.067700",
        "team": "TUU48M0T1",
        "user_team": "TUU48M0T1",
        "source_team": "TUU48M0T1",
        "user_profile": {
            "avatar_hash": "g59b893b3b55",
            "image_72": "https:\/\/secure.gravatar.com\/avatar\/59b893b3b558815c856d54c41813a478.jpg?s=72&d=https%3A%2F%2Fa.slack-edge.com%2Fdf10d%2Fimg%2Favatars%2Fava_0026-72.png",
            "first_name": "",
            "real_name": "Kristin",
            "display_name": "Kristin",
            "team": "TUU48M0T1",
            "name": "kristin.ellis88",
            "is_restricted": false,
            "is_ultra_restricted": false
        },
        "edited": {
            "user": "UUWLPKCLB",
            "ts": "1585498586.000000"
        },
        "blocks": [
            {
                "type": "rich_text",
                "block_id": "UusMO",
                "elements": [
                    {
                        "type": "rich_text_section",
                        "elements": [
                            {
                                "type": "text",
                                "text": "Hi team!\n\nDo you know if anyone on this project has started to collate\/collect info about all the testing modalities that are coming out?\n\nSpecifically wrt things like capital equipment cost, cost per test, throughput, availability, etc\n\nI am starting a spreadsheet to gather this info but would love to leverage existing information if it's in one place -- otherwise I'm just going to use a lot of google-fu and phone calls"
                            }
                        ]
                    }
                ]
            }
        ]
    },
    {
        "client_msg_id": "bfac5a57-f2e0-48bd-b9c6-b79fb02b5efc",
        "type": "message",
        "text": "Yes this is a great point Kristin!\nWe have used this approach for the open source face mask challenge and we got more than 60 designs gathered in one place now!\nA google doc is a good way to start",
        "user": "UV02WET96",
        "ts": "1585498735.068900",
        "team": "TUU48M0T1",
        "user_team": "TUU48M0T1",
        "source_team": "TUU48M0T1",
        "user_profile": {
            "avatar_hash": "a99c74a194f8",
            "image_72": "https:\/\/avatars.slack-edge.com\/2020-03-07\/975708504851_a99c74a194f86715ca7d_72.png",
            "first_name": "Thomas",
            "real_name": "Thomas Landrain",
            "display_name": "Thomas Landrain - JOGL CoFounder \/ CEO",
            "team": "TUU48M0T1",
            "name": "thomas",
            "is_restricted": false,
            "is_ultra_restricted": false
        },
        "blocks": [
            {
                "type": "rich_text",
                "block_id": "ct5Ks",
                "elements": [
                    {
                        "type": "rich_text_section",
                        "elements": [
                            {
                                "type": "text",
                                "text": "Yes this is a great point Kristin!\nWe have used this approach for the open source face mask challenge and we got more than 60 designs gathered in one place now!\nA google doc is a good way to start"
                            }
                        ]
                    }
                ]
            }
        ]
    },
    {
        "client_msg_id": "77d477fb-5739-48b1-aaad-584854700cd0",
        "type": "message",
        "text": "Will start one and share here :slightly_smiling_face:",
        "user": "UUWLPKCLB",
        "ts": "1585499020.069600",
        "team": "TUU48M0T1",
        "user_team": "TUU48M0T1",
        "source_team": "TUU48M0T1",
        "user_profile": {
            "avatar_hash": "g59b893b3b55",
            "image_72": "https:\/\/secure.gravatar.com\/avatar\/59b893b3b558815c856d54c41813a478.jpg?s=72&d=https%3A%2F%2Fa.slack-edge.com%2Fdf10d%2Fimg%2Favatars%2Fava_0026-72.png",
            "first_name": "",
            "real_name": "Kristin",
            "display_name": "Kristin",
            "team": "TUU48M0T1",
            "name": "kristin.ellis88",
            "is_restricted": false,
            "is_ultra_restricted": false
        },
        "blocks": [
            {
                "type": "rich_text",
                "block_id": "oysQ",
                "elements": [
                    {
                        "type": "rich_text_section",
                        "elements": [
                            {
                                "type": "text",
                                "text": "Will start one and share here "
                            },
                            {
                                "type": "emoji",
                                "name": "slightly_smiling_face"
                            }
                        ]
                    }
                ]
            }
        ],
        "reactions": [
            {
                "name": "raised_hands",
                "users": [
                    "UV02WET96",
                    "U01099UVAUA"
                ],
                "count": 2
            },
            {
                "name": "the_horns",
                "users": [
                    "UUNGFHSV8"
                ],
                "count": 1
            }
        ]
    },
    {
        "client_msg_id": "e9240513-c368-4a63-be77-a2af736b9a3f",
        "type": "message",
        "text": "We're working on one now too!  Can also share once we're done.",
        "user": "UVADMLUB0",
        "ts": "1585499087.071600",
        "team": "TUU48M0T1",
        "user_team": "TUU48M0T1",
        "source_team": "TUU48M0T1",
        "user_profile": {
            "avatar_hash": "14179705705a",
            "image_72": "https:\/\/avatars.slack-edge.com\/2020-03-11\/981468022482_14179705705a94b3db16_72.jpg",
            "first_name": "Bill",
            "real_name": "Bill Slavin",
            "display_name": "Bill Slavin- Executive Director, Indie Lab",
            "team": "TUU48M0T1",
            "name": "bill",
            "is_restricted": false,
            "is_ultra_restricted": false
        },
        "blocks": [
            {
                "type": "rich_text",
                "block_id": "7Vbty",
                "elements": [
                    {
                        "type": "rich_text_section",
                        "elements": [
                            {
                                "type": "text",
                                "text": "We're working on one now too!  Can also share once we're done."
                            }
                        ]
                    }
                ]
            }
        ],
        "reactions": [
            {
                "name": "+1",
                "users": [
                    "UV02WET96",
                    "UUWLPKCLB"
                ],
                "count": 2
            }
        ]
    },
    {
        "client_msg_id": "1f1482c2-a8d3-4dee-be02-65a6a2958c2a",
        "type": "message",
        "text": "Bill -- I'm going to be organizing my thoughts in a spreadsheet separately to keep my data analysis uncluttered but will share that as well, once I have it just a *little* more fleshed out; would gladly join forces on this. Trying to help get more testing set up at NYU.",
        "user": "UUWLPKCLB",
        "ts": "1585499850.072300",
        "team": "TUU48M0T1",
        "user_team": "TUU48M0T1",
        "source_team": "TUU48M0T1",
        "user_profile": {
            "avatar_hash": "g59b893b3b55",
            "image_72": "https:\/\/secure.gravatar.com\/avatar\/59b893b3b558815c856d54c41813a478.jpg?s=72&d=https%3A%2F%2Fa.slack-edge.com%2Fdf10d%2Fimg%2Favatars%2Fava_0026-72.png",
            "first_name": "",
            "real_name": "Kristin",
            "display_name": "Kristin",
            "team": "TUU48M0T1",
            "name": "kristin.ellis88",
            "is_restricted": false,
            "is_ultra_restricted": false
        },
        "blocks": [
            {
                "type": "rich_text",
                "block_id": "lUs",
                "elements": [
                    {
                        "type": "rich_text_section",
                        "elements": [
                            {
                                "type": "text",
                                "text": "Bill -- I'm going to be organizing my thoughts in a spreadsheet separately to keep my data analysis uncluttered but will share that as well, once I have it just a "
                            },
                            {
                                "type": "text",
                                "text": "little",
                                "style": {
                                    "bold": true
                                }
                            },
                            {
                                "type": "text",
                                "text": " more fleshed out; would gladly join forces on this. Trying to help get more testing set up at NYU."
                            }
                        ]
                    }
                ]
            }
        ]
    },
    {
        "client_msg_id": "e03e5b71-52f6-491c-bef9-478d57111c3f",
        "type": "message",
        "text": "<https:\/\/docs.google.com\/document\/d\/1Cp1BqooaGYk9MdRgr0SFZK4NC9X8jgIcuiIBRLNzA3s\/edit?usp=sharing>",
        "user": "UUWLPKCLB",
        "ts": "1585500897.072500",
        "team": "TUU48M0T1",
        "user_team": "TUU48M0T1",
        "source_team": "TUU48M0T1",
        "user_profile": {
            "avatar_hash": "g59b893b3b55",
            "image_72": "https:\/\/secure.gravatar.com\/avatar\/59b893b3b558815c856d54c41813a478.jpg?s=72&d=https%3A%2F%2Fa.slack-edge.com%2Fdf10d%2Fimg%2Favatars%2Fava_0026-72.png",
            "first_name": "",
            "real_name": "Kristin",
            "display_name": "Kristin",
            "team": "TUU48M0T1",
            "name": "kristin.ellis88",
            "is_restricted": false,
            "is_ultra_restricted": false
        },
        "blocks": [
            {
                "type": "rich_text",
                "block_id": "e1ww",
                "elements": [
                    {
                        "type": "rich_text_section",
                        "elements": [
                            {
                                "type": "link",
                                "url": "https:\/\/docs.google.com\/document\/d\/1Cp1BqooaGYk9MdRgr0SFZK4NC9X8jgIcuiIBRLNzA3s\/edit?usp=sharing"
                            }
                        ]
                    }
                ]
            }
        ]
    },
    {
        "client_msg_id": "30e1380c-4a46-423c-a1f8-309239bf65ba",
        "type": "message",
        "text": "This is a (very rough) draft, folks",
        "user": "UUWLPKCLB",
        "ts": "1585500915.072900",
        "team": "TUU48M0T1",
        "user_team": "TUU48M0T1",
        "source_team": "TUU48M0T1",
        "user_profile": {
            "avatar_hash": "g59b893b3b55",
            "image_72": "https:\/\/secure.gravatar.com\/avatar\/59b893b3b558815c856d54c41813a478.jpg?s=72&d=https%3A%2F%2Fa.slack-edge.com%2Fdf10d%2Fimg%2Favatars%2Fava_0026-72.png",
            "first_name": "",
            "real_name": "Kristin",
            "display_name": "Kristin",
            "team": "TUU48M0T1",
            "name": "kristin.ellis88",
            "is_restricted": false,
            "is_ultra_restricted": false
        },
        "blocks": [
            {
                "type": "rich_text",
                "block_id": "0RTR",
                "elements": [
                    {
                        "type": "rich_text_section",
                        "elements": [
                            {
                                "type": "text",
                                "text": "This is a (very rough) draft, folks"
                            }
                        ]
                    }
                ]
            }
        ]
    },
    {
        "client_msg_id": "ba5d7775-407b-4f44-a0c6-4ce862ba06a4",
        "type": "message",
        "text": "Feel free to add\/edit",
        "user": "UUWLPKCLB",
        "ts": "1585500920.073100",
        "team": "TUU48M0T1",
        "user_team": "TUU48M0T1",
        "source_team": "TUU48M0T1",
        "user_profile": {
            "avatar_hash": "g59b893b3b55",
            "image_72": "https:\/\/secure.gravatar.com\/avatar\/59b893b3b558815c856d54c41813a478.jpg?s=72&d=https%3A%2F%2Fa.slack-edge.com%2Fdf10d%2Fimg%2Favatars%2Fava_0026-72.png",
            "first_name": "",
            "real_name": "Kristin",
            "display_name": "Kristin",
            "team": "TUU48M0T1",
            "name": "kristin.ellis88",
            "is_restricted": false,
            "is_ultra_restricted": false
        },
        "blocks": [
            {
                "type": "rich_text",
                "block_id": "gkF",
                "elements": [
                    {
                        "type": "rich_text_section",
                        "elements": [
                            {
                                "type": "text",
                                "text": "Feel free to add\/edit"
                            }
                        ]
                    }
                ]
            }
        ]
    },
    {
        "client_msg_id": "7a938460-2f86-4dff-9c3a-a3b7b67cd4d6",
        "type": "message",
        "text": "<@UV5CCJ9RC> why is environmental monitoring separate under 'implementation' as these projects also have the same challenges for detection method\/sensitivity and specificity?  also, the hoped for 'DIT covid19 Detective' - which is based on a quenched-fluor lamp system, might also be worth mentioning.",
        "user": "UV1A22N3W",
        "ts": "1585501748.073300",
        "team": "TUU48M0T1",
        "user_team": "TUU48M0T1",
        "source_team": "TUU48M0T1",
        "user_profile": {
            "avatar_hash": "71f827776ad6",
            "image_72": "https:\/\/avatars.slack-edge.com\/2020-03-09\/988125642964_71f827776ad610af05a2_72.jpg",
            "first_name": "",
            "real_name": "RachelA",
            "display_name": "RachelA",
            "team": "TUU48M0T1",
            "name": "raronoff",
            "is_restricted": false,
            "is_ultra_restricted": false
        },
        "blocks": [
            {
                "type": "rich_text",
                "block_id": "uVtD",
                "elements": [
                    {
                        "type": "rich_text_section",
                        "elements": [
                            {
                                "type": "user",
                                "user_id": "UV5CCJ9RC"
                            },
                            {
                                "type": "text",
                                "text": " why is environmental monitoring separate under 'implementation' as these projects also have the same challenges for detection method\/sensitivity and specificity?  also, the hoped for 'DIT covid19 Detective' - which is based on a quenched-fluor lamp system, might also be worth mentioning."
                            }
                        ]
                    }
                ]
            }
        ],
        "thread_ts": "1585420196.052900",
        "parent_user_id": "UV3URUKK5"
    },
    {
        "client_msg_id": "468A8C41-7C1A-4CFA-BA40-D9DDA59E8D93",
        "type": "message",
        "text": "It’s just the way I interpreted it. In my mind the environmental monitoring will employ one of the other methods in its detection assay (LAMP, qPCR, etc.) so it’s more of application of the detection assays. But if you disagree feel free to change the diagram.",
        "user": "UV5CCJ9RC",
        "ts": "1585502004.076500",
        "team": "TUU48M0T1",
        "user_team": "TUU48M0T1",
        "source_team": "TUU48M0T1",
        "user_profile": {
            "avatar_hash": "2c79fe05f7e7",
            "image_72": "https:\/\/avatars.slack-edge.com\/2020-03-10\/992653932501_2c79fe05f7e75be19699_72.png",
            "first_name": "Chris",
            "real_name": "Chris Monaco",
            "display_name": "",
            "team": "TUU48M0T1",
            "name": "cmonaco.hr",
            "is_restricted": false,
            "is_ultra_restricted": false
        },
        "blocks": [
            {
                "type": "rich_text",
                "block_id": "L3=a",
                "elements": [
                    {
                        "type": "rich_text_section",
                        "elements": [
                            {
                                "type": "text",
                                "text": "It’s just the way I interpreted it. In my mind the environmental monitoring will employ one of the other methods in its detection assay (LAMP, qPCR, etc.) so it’s more of application of the detection assays. But if you disagree feel free to change the diagram."
                            }
                        ]
                    }
                ]
            }
        ],
        "thread_ts": "1585420196.052900",
        "parent_user_id": "UV3URUKK5"
    },
    {
        "client_msg_id": "c5fd2f6f-900d-4dd1-8d8c-8219c983a955",
        "type": "message",
        "text": "<@U010XEY5Q6L>",
        "user": "UVADMLUB0",
        "ts": "1585506202.076800",
        "team": "TUU48M0T1",
        "user_team": "TUU48M0T1",
        "source_team": "TUU48M0T1",
        "user_profile": {
            "avatar_hash": "14179705705a",
            "image_72": "https:\/\/avatars.slack-edge.com\/2020-03-11\/981468022482_14179705705a94b3db16_72.jpg",
            "first_name": "Bill",
            "real_name": "Bill Slavin",
            "display_name": "Bill Slavin- Executive Director, Indie Lab",
            "team": "TUU48M0T1",
            "name": "bill",
            "is_restricted": false,
            "is_ultra_restricted": false
        },
        "blocks": [
            {
                "type": "rich_text",
                "block_id": "hwTCQ",
                "elements": [
                    {
                        "type": "rich_text_section",
                        "elements": [
                            {
                                "type": "user",
                                "user_id": "U010XEY5Q6L"
                            }
                        ]
                    }
                ]
            }
        ]
    },
    {
        "client_msg_id": "f48e2ec6-f281-4d07-856c-a9f86e17bdf5",
        "type": "message",
        "text": "Hi all, has anyone ordered primers through IDT? It's been a minute since I've had to purchase any and even then I wasn't going through a vendor site. Any help is appreciated. Trying to get all the primers listed in google doc above. Thanks!!",
        "user": "U010XEY5Q6L",
        "ts": "1585513006.078400",
        "team": "TUU48M0T1",
        "user_team": "TUU48M0T1",
        "source_team": "TUU48M0T1",
        "user_profile": {
            "avatar_hash": "gb3c073393f7",
            "image_72": "https:\/\/secure.gravatar.com\/avatar\/b3c073393f78f9d9f9cb5b8b42bdc752.jpg?s=72&d=https%3A%2F%2Fa.slack-edge.com%2Fdf10d%2Fimg%2Favatars%2Fava_0013-72.png",
            "first_name": "",
            "real_name": "Laura August",
            "display_name": "Laura August",
            "team": "TUU48M0T1",
            "name": "august.laura.a",
            "is_restricted": false,
            "is_ultra_restricted": false
        },
        "blocks": [
            {
                "type": "rich_text",
                "block_id": "dub",
                "elements": [
                    {
                        "type": "rich_text_section",
                        "elements": [
                            {
                                "type": "text",
                                "text": "Hi all, has anyone ordered primers through IDT? It's been a minute since I've had to purchase any and even then I wasn't going through a vendor site. Any help is appreciated. Trying to get all the primers listed in google doc above. Thanks!!"
                            }
                        ]
                    }
                ]
            }
        ]
    },
    {
        "client_msg_id": "ceb02522-3c30-4da3-a807-e732f1c1e0db",
        "type": "message",
        "text": "<@U010XEY5Q6L> I just ordered these from IDT. How can I help you?",
        "user": "UV10KBUQG",
        "ts": "1585513080.079300",
        "team": "TUU48M0T1",
        "user_team": "TUU48M0T1",
        "source_team": "TUU48M0T1",
        "user_profile": {
            "avatar_hash": "2deebbf6be3d",
            "image_72": "https:\/\/avatars.slack-edge.com\/2020-03-06\/976932190641_2deebbf6be3d17141d91_72.jpg",
            "first_name": "Sarah",
            "real_name": "Sarah Blossom Ware",
            "display_name": "Sarah Blossom Ware - BioBlaze Community Bio Lab",
            "team": "TUU48M0T1",
            "name": "ware.sarah",
            "is_restricted": false,
            "is_ultra_restricted": false
        },
        "blocks": [
            {
                "type": "rich_text",
                "block_id": "ofFmX",
                "elements": [
                    {
                        "type": "rich_text_section",
                        "elements": [
                            {
                                "type": "user",
                                "user_id": "U010XEY5Q6L"
                            },
                            {
                                "type": "text",
                                "text": " I just ordered these from IDT. How can I help you?"
                            }
                        ]
                    }
                ]
            }
        ]
    },
    {
        "client_msg_id": "1ef42df6-116a-4bbd-93ed-d18507ba56b7",
        "type": "message",
        "text": "Nice, did you need a quote first?  Everything else on the site I copy\/pasted into the search bar taking me directly to the item with its volume\/price listed, not so for the primers. Do you have a link?",
        "user": "U010XEY5Q6L",
        "ts": "1585513210.081200",
        "team": "TUU48M0T1",
        "user_team": "TUU48M0T1",
        "source_team": "TUU48M0T1",
        "user_profile": {
            "avatar_hash": "gb3c073393f7",
            "image_72": "https:\/\/secure.gravatar.com\/avatar\/b3c073393f78f9d9f9cb5b8b42bdc752.jpg?s=72&d=https%3A%2F%2Fa.slack-edge.com%2Fdf10d%2Fimg%2Favatars%2Fava_0013-72.png",
            "first_name": "",
            "real_name": "Laura August",
            "display_name": "Laura August",
            "team": "TUU48M0T1",
            "name": "august.laura.a",
            "is_restricted": false,
            "is_ultra_restricted": false
        },
        "blocks": [
            {
                "type": "rich_text",
                "block_id": "KBwj5",
                "elements": [
                    {
                        "type": "rich_text_section",
                        "elements": [
                            {
                                "type": "text",
                                "text": "Nice, did you need a quote first?  Everything else on the site I copy\/pasted into the search bar taking me directly to the item with its volume\/price listed, not so for the primers. Do you have a link?"
                            }
                        ]
                    }
                ]
            }
        ],
        "thread_ts": "1585513210.081200",
        "reply_count": 15,
        "reply_users_count": 2,
        "latest_reply": "1585518100.086300",
        "reply_users": [
            "UV10KBUQG",
            "U010XEY5Q6L"
        ],
        "replies": [
            {
                "user": "UV10KBUQG",
                "ts": "1585513397.081300"
            },
            {
                "user": "UV10KBUQG",
                "ts": "1585513459.081700"
            },
            {
                "user": "UV10KBUQG",
                "ts": "1585513558.082100"
            },
            {
                "user": "UV10KBUQG",
                "ts": "1585513631.082300"
            },
            {
                "user": "UV10KBUQG",
                "ts": "1585513680.082700"
            },
            {
                "user": "UV10KBUQG",
                "ts": "1585513723.082900"
            },
            {
                "user": "U010XEY5Q6L",
                "ts": "1585514010.083100"
            },
            {
                "user": "U010XEY5Q6L",
                "ts": "1585516916.084800"
            },
            {
                "user": "UV10KBUQG",
                "ts": "1585516978.085000"
            },
            {
                "user": "U010XEY5Q6L",
                "ts": "1585517020.085300"
            },
            {
                "user": "UV10KBUQG",
                "ts": "1585517037.085500"
            },
            {
                "user": "UV10KBUQG",
                "ts": "1585517056.085700"
            },
            {
                "user": "U010XEY5Q6L",
                "ts": "1585517104.085900"
            },
            {
                "user": "UV10KBUQG",
                "ts": "1585517456.086100"
            },
            {
                "user": "U010XEY5Q6L",
                "ts": "1585518100.086300"
            }
        ],
        "subscribed": false
    },
    {
        "type": "message",
        "text": "<@U010XEY5Q6L>, you have to go to DNA Oligos",
        "files": [
            {
                "id": "F011025A0E4",
                "created": 1585513391,
                "timestamp": 1585513391,
                "name": "image.png",
                "title": "image.png",
                "mimetype": "image\/png",
                "filetype": "png",
                "pretty_type": "PNG",
                "user": "UV10KBUQG",
                "editable": false,
                "size": 181363,
                "mode": "hosted",
                "is_external": false,
                "external_type": "",
                "is_public": true,
                "public_url_shared": false,
                "display_as_bot": false,
                "username": "",
                "url_private": "https:\/\/files.slack.com\/files-pri\/TUU48M0T1-F011025A0E4\/image.png?t=xoxe-980144714919-1106606678066-1105227127893-6f722bb664235052954ad46852628b64",
                "url_private_download": "https:\/\/files.slack.com\/files-pri\/TUU48M0T1-F011025A0E4\/download\/image.png?t=xoxe-980144714919-1106606678066-1105227127893-6f722bb664235052954ad46852628b64",
                "thumb_64": "https:\/\/files.slack.com\/files-tmb\/TUU48M0T1-F011025A0E4-3f7128fbc9\/image_64.png?t=xoxe-980144714919-1106606678066-1105227127893-6f722bb664235052954ad46852628b64",
                "thumb_80": "https:\/\/files.slack.com\/files-tmb\/TUU48M0T1-F011025A0E4-3f7128fbc9\/image_80.png?t=xoxe-980144714919-1106606678066-1105227127893-6f722bb664235052954ad46852628b64",
                "thumb_360": "https:\/\/files.slack.com\/files-tmb\/TUU48M0T1-F011025A0E4-3f7128fbc9\/image_360.png?t=xoxe-980144714919-1106606678066-1105227127893-6f722bb664235052954ad46852628b64",
                "thumb_360_w": 360,
                "thumb_360_h": 202,
                "thumb_480": "https:\/\/files.slack.com\/files-tmb\/TUU48M0T1-F011025A0E4-3f7128fbc9\/image_480.png?t=xoxe-980144714919-1106606678066-1105227127893-6f722bb664235052954ad46852628b64",
                "thumb_480_w": 480,
                "thumb_480_h": 270,
                "thumb_160": "https:\/\/files.slack.com\/files-tmb\/TUU48M0T1-F011025A0E4-3f7128fbc9\/image_160.png?t=xoxe-980144714919-1106606678066-1105227127893-6f722bb664235052954ad46852628b64",
                "thumb_720": "https:\/\/files.slack.com\/files-tmb\/TUU48M0T1-F011025A0E4-3f7128fbc9\/image_720.png?t=xoxe-980144714919-1106606678066-1105227127893-6f722bb664235052954ad46852628b64",
                "thumb_720_w": 720,
                "thumb_720_h": 405,
                "thumb_800": "https:\/\/files.slack.com\/files-tmb\/TUU48M0T1-F011025A0E4-3f7128fbc9\/image_800.png?t=xoxe-980144714919-1106606678066-1105227127893-6f722bb664235052954ad46852628b64",
                "thumb_800_w": 800,
                "thumb_800_h": 450,
                "thumb_960": "https:\/\/files.slack.com\/files-tmb\/TUU48M0T1-F011025A0E4-3f7128fbc9\/image_960.png?t=xoxe-980144714919-1106606678066-1105227127893-6f722bb664235052954ad46852628b64",
                "thumb_960_w": 960,
                "thumb_960_h": 540,
                "thumb_1024": "https:\/\/files.slack.com\/files-tmb\/TUU48M0T1-F011025A0E4-3f7128fbc9\/image_1024.png?t=xoxe-980144714919-1106606678066-1105227127893-6f722bb664235052954ad46852628b64",
                "thumb_1024_w": 1024,
                "thumb_1024_h": 576,
                "image_exif_rotation": 1,
                "original_w": 1366,
                "original_h": 768,
                "thumb_tiny": "AwAaADDQYAdqYZEBxg0s6KxG4ZpAgA4FAC+Yp7Ub19KQL60baAF8wdqcpDAnHSmFfSnoMA0ADgtjFAU1jrI\/zfO3X1pTI+8fO3Q9\/agRr4NGDWG0sm4\/vG6+tJ5sn\/PRvzoC5u4NKoxmsHzZP+ej\/maessn99vzoC5\/\/2Q==",
                "permalink": "https:\/\/open-covid19.slack.com\/files\/UV10KBUQG\/F011025A0E4\/image.png",
                "permalink_public": "https:\/\/slack-files.com\/TUU48M0T1-F011025A0E4-fb34588a15",
                "is_starred": false,
                "has_rich_preview": false
            }
        ],
        "upload": true,
        "blocks": [
            {
                "type": "rich_text",
                "block_id": "\/a\/4",
                "elements": [
                    {
                        "type": "rich_text_section",
                        "elements": [
                            {
                                "type": "user",
                                "user_id": "U010XEY5Q6L"
                            },
                            {
                                "type": "text",
                                "text": ", you have to go to DNA Oligos"
                            }
                        ]
                    }
                ]
            }
        ],
        "user": "UV10KBUQG",
        "display_as_bot": false,
        "ts": "1585513397.081300",
        "client_msg_id": "04b22fc0-b546-4c49-8d15-77b2c9fa7d02",
        "thread_ts": "1585513210.081200",
        "parent_user_id": "U010XEY5Q6L"
    },
    {
        "type": "message",
        "text": "then scroll down, choose tubes (default), then click order now (orange button on right)",
        "files": [
            {
                "id": "F01100RQU13",
                "created": 1585513452,
                "timestamp": 1585513452,
                "name": "image.png",
                "title": "image.png",
                "mimetype": "image\/png",
                "filetype": "png",
                "pretty_type": "PNG",
                "user": "UV10KBUQG",
                "editable": false,
                "size": 253769,
                "mode": "hosted",
                "is_external": false,
                "external_type": "",
                "is_public": true,
                "public_url_shared": false,
                "display_as_bot": false,
                "username": "",
                "url_private": "https:\/\/files.slack.com\/files-pri\/TUU48M0T1-F01100RQU13\/image.png?t=xoxe-980144714919-1106606678066-1105227127893-6f722bb664235052954ad46852628b64",
                "url_private_download": "https:\/\/files.slack.com\/files-pri\/TUU48M0T1-F01100RQU13\/download\/image.png?t=xoxe-980144714919-1106606678066-1105227127893-6f722bb664235052954ad46852628b64",
                "thumb_64": "https:\/\/files.slack.com\/files-tmb\/TUU48M0T1-F01100RQU13-fa82242dd0\/image_64.png?t=xoxe-980144714919-1106606678066-1105227127893-6f722bb664235052954ad46852628b64",
                "thumb_80": "https:\/\/files.slack.com\/files-tmb\/TUU48M0T1-F01100RQU13-fa82242dd0\/image_80.png?t=xoxe-980144714919-1106606678066-1105227127893-6f722bb664235052954ad46852628b64",
                "thumb_360": "https:\/\/files.slack.com\/files-tmb\/TUU48M0T1-F01100RQU13-fa82242dd0\/image_360.png?t=xoxe-980144714919-1106606678066-1105227127893-6f722bb664235052954ad46852628b64",
                "thumb_360_w": 360,
                "thumb_360_h": 202,
                "thumb_480": "https:\/\/files.slack.com\/files-tmb\/TUU48M0T1-F01100RQU13-fa82242dd0\/image_480.png?t=xoxe-980144714919-1106606678066-1105227127893-6f722bb664235052954ad46852628b64",
                "thumb_480_w": 480,
                "thumb_480_h": 270,
                "thumb_160": "https:\/\/files.slack.com\/files-tmb\/TUU48M0T1-F01100RQU13-fa82242dd0\/image_160.png?t=xoxe-980144714919-1106606678066-1105227127893-6f722bb664235052954ad46852628b64",
                "thumb_720": "https:\/\/files.slack.com\/files-tmb\/TUU48M0T1-F01100RQU13-fa82242dd0\/image_720.png?t=xoxe-980144714919-1106606678066-1105227127893-6f722bb664235052954ad46852628b64",
                "thumb_720_w": 720,
                "thumb_720_h": 405,
                "thumb_800": "https:\/\/files.slack.com\/files-tmb\/TUU48M0T1-F01100RQU13-fa82242dd0\/image_800.png?t=xoxe-980144714919-1106606678066-1105227127893-6f722bb664235052954ad46852628b64",
                "thumb_800_w": 800,
                "thumb_800_h": 450,
                "thumb_960": "https:\/\/files.slack.com\/files-tmb\/TUU48M0T1-F01100RQU13-fa82242dd0\/image_960.png?t=xoxe-980144714919-1106606678066-1105227127893-6f722bb664235052954ad46852628b64",
                "thumb_960_w": 960,
                "thumb_960_h": 540,
                "thumb_1024": "https:\/\/files.slack.com\/files-tmb\/TUU48M0T1-F01100RQU13-fa82242dd0\/image_1024.png?t=xoxe-980144714919-1106606678066-1105227127893-6f722bb664235052954ad46852628b64",
                "thumb_1024_w": 1024,
                "thumb_1024_h": 576,
                "image_exif_rotation": 1,
                "original_w": 1366,
                "original_h": 768,
                "thumb_tiny": "AwAaADDQYAY4zmgAHtTmoA4oATb7UhwOuBTh0oHI5oAjaQK2OKcm1hkYP0qKZcyZwnTuDUkK4jI+Uf7tADz9KB9KxVkf5vnbr60pkfePnboe\/tQBs\/hQcgfKM1gtLJuP7xuvrSebJ\/z0b86AubcjHO3axHXgU5GJXJVhzjkYrC82T\/no3509ZJP77fnQI\/\/Z",
                "permalink": "https:\/\/open-covid19.slack.com\/files\/UV10KBUQG\/F01100RQU13\/image.png",
                "permalink_public": "https:\/\/slack-files.com\/TUU48M0T1-F01100RQU13-2a4eb01189",
                "is_starred": false,
                "has_rich_preview": false
            }
        ],
        "upload": true,
        "blocks": [
            {
                "type": "rich_text",
                "block_id": "aKwa",
                "elements": [
                    {
                        "type": "rich_text_section",
                        "elements": [
                            {
                                "type": "text",
                                "text": "then scroll down, choose tubes (default), then click order now (orange button on right)"
                            }
                        ]
                    }
                ]
            }
        ],
        "user": "UV10KBUQG",
        "display_as_bot": false,
        "ts": "1585513459.081700",
        "client_msg_id": "916329ff-3fc2-4693-bae0-c7262d6d21ef",
        "thread_ts": "1585513210.081200",
        "parent_user_id": "U010XEY5Q6L"
    },
    {
        "client_msg_id": "0c69dee5-d634-488d-9eb3-e6b3269d2981",
        "type": "message",
        "text": "You have to cut and paste the sequences in one at a time and name them. 25 nmole DNA Oligo is fine, single stranded DNA",
        "user": "UV10KBUQG",
        "ts": "1585513558.082100",
        "team": "TUU48M0T1",
        "user_team": "TUU48M0T1",
        "source_team": "TUU48M0T1",
        "user_profile": {
            "avatar_hash": "2deebbf6be3d",
            "image_72": "https:\/\/avatars.slack-edge.com\/2020-03-06\/976932190641_2deebbf6be3d17141d91_72.jpg",
            "first_name": "Sarah",
            "real_name": "Sarah Blossom Ware",
            "display_name": "Sarah Blossom Ware - BioBlaze Community Bio Lab",
            "team": "TUU48M0T1",
            "name": "ware.sarah",
            "is_restricted": false,
            "is_ultra_restricted": false
        },
        "blocks": [
            {
                "type": "rich_text",
                "block_id": "NoY",
                "elements": [
                    {
                        "type": "rich_text_section",
                        "elements": [
                            {
                                "type": "text",
                                "text": "You have to cut and paste the sequences in one at a time and name them. 25 nmole DNA Oligo is fine, single stranded DNA"
                            }
                        ]
                    }
                ]
            }
        ],
        "thread_ts": "1585513210.081200",
        "parent_user_id": "U010XEY5Q6L"
    },
    {
        "type": "message",
        "text": "Click # of items = 6, no formulation, standard desalting",
        "files": [
            {
                "id": "F011231TH55",
                "created": 1585513625,
                "timestamp": 1585513625,
                "name": "image.png",
                "title": "image.png",
                "mimetype": "image\/png",
                "filetype": "png",
                "pretty_type": "PNG",
                "user": "UV10KBUQG",
                "editable": false,
                "size": 237204,
                "mode": "hosted",
                "is_external": false,
                "external_type": "",
                "is_public": true,
                "public_url_shared": false,
                "display_as_bot": false,
                "username": "",
                "url_private": "https:\/\/files.slack.com\/files-pri\/TUU48M0T1-F011231TH55\/image.png?t=xoxe-980144714919-1106606678066-1105227127893-6f722bb664235052954ad46852628b64",
                "url_private_download": "https:\/\/files.slack.com\/files-pri\/TUU48M0T1-F011231TH55\/download\/image.png?t=xoxe-980144714919-1106606678066-1105227127893-6f722bb664235052954ad46852628b64",
                "thumb_64": "https:\/\/files.slack.com\/files-tmb\/TUU48M0T1-F011231TH55-d6dd6abdca\/image_64.png?t=xoxe-980144714919-1106606678066-1105227127893-6f722bb664235052954ad46852628b64",
                "thumb_80": "https:\/\/files.slack.com\/files-tmb\/TUU48M0T1-F011231TH55-d6dd6abdca\/image_80.png?t=xoxe-980144714919-1106606678066-1105227127893-6f722bb664235052954ad46852628b64",
                "thumb_360": "https:\/\/files.slack.com\/files-tmb\/TUU48M0T1-F011231TH55-d6dd6abdca\/image_360.png?t=xoxe-980144714919-1106606678066-1105227127893-6f722bb664235052954ad46852628b64",
                "thumb_360_w": 360,
                "thumb_360_h": 202,
                "thumb_480": "https:\/\/files.slack.com\/files-tmb\/TUU48M0T1-F011231TH55-d6dd6abdca\/image_480.png?t=xoxe-980144714919-1106606678066-1105227127893-6f722bb664235052954ad46852628b64",
                "thumb_480_w": 480,
                "thumb_480_h": 270,
                "thumb_160": "https:\/\/files.slack.com\/files-tmb\/TUU48M0T1-F011231TH55-d6dd6abdca\/image_160.png?t=xoxe-980144714919-1106606678066-1105227127893-6f722bb664235052954ad46852628b64",
                "thumb_720": "https:\/\/files.slack.com\/files-tmb\/TUU48M0T1-F011231TH55-d6dd6abdca\/image_720.png?t=xoxe-980144714919-1106606678066-1105227127893-6f722bb664235052954ad46852628b64",
                "thumb_720_w": 720,
                "thumb_720_h": 405,
                "thumb_800": "https:\/\/files.slack.com\/files-tmb\/TUU48M0T1-F011231TH55-d6dd6abdca\/image_800.png?t=xoxe-980144714919-1106606678066-1105227127893-6f722bb664235052954ad46852628b64",
                "thumb_800_w": 800,
                "thumb_800_h": 450,
                "thumb_960": "https:\/\/files.slack.com\/files-tmb\/TUU48M0T1-F011231TH55-d6dd6abdca\/image_960.png?t=xoxe-980144714919-1106606678066-1105227127893-6f722bb664235052954ad46852628b64",
                "thumb_960_w": 960,
                "thumb_960_h": 540,
                "thumb_1024": "https:\/\/files.slack.com\/files-tmb\/TUU48M0T1-F011231TH55-d6dd6abdca\/image_1024.png?t=xoxe-980144714919-1106606678066-1105227127893-6f722bb664235052954ad46852628b64",
                "thumb_1024_w": 1024,
                "thumb_1024_h": 576,
                "image_exif_rotation": 1,
                "original_w": 1366,
                "original_h": 768,
                "thumb_tiny": "AwAaADC35j97dv8AvoUb3\/592\/76FTsOlGDTuIh3yf8APu35ijfJ\/wA+7fmKl5yOTRgjnJPtQBF5kg6W7f8AfQpPMkzzbt\/30KcHk\/55n86kQsyncMGlcdhWGaAvGP61irI\/zfO3X1pTI+8fO3Q9\/agLmyBig9KwWlk3H943X1pPNk\/56N+dArmuJZccxyflU0bFkyVKn0NYXmyf89H\/AO+jT1lk\/vt+dAH\/2Q==",
                "permalink": "https:\/\/open-covid19.slack.com\/files\/UV10KBUQG\/F011231TH55\/image.png",
                "permalink_public": "https:\/\/slack-files.com\/TUU48M0T1-F011231TH55-38b98f70cc",
                "is_starred": false,
                "has_rich_preview": false
            }
        ],
        "upload": true,
        "blocks": [
            {
                "type": "rich_text",
                "block_id": "j8HtB",
                "elements": [
                    {
                        "type": "rich_text_section",
                        "elements": [
                            {
                                "type": "text",
                                "text": "Click # of items = 6, no formulation, standard desalting"
                            }
                        ]
                    }
                ]
            }
        ],
        "user": "UV10KBUQG",
        "display_as_bot": false,
        "ts": "1585513631.082300",
        "client_msg_id": "780759f4-93e4-4037-92e2-042489bae8f5",
        "thread_ts": "1585513210.081200",
        "parent_user_id": "U010XEY5Q6L"
    },
    {
        "client_msg_id": "1dd51685-d4fe-4b82-9c11-8af3342a4ac0",
        "type": "message",
        "text": "You could also choose to Bulk Input using an Excel file, but there are only 6 so it doesn't take long to copy and paste them all.",
        "user": "UV10KBUQG",
        "ts": "1585513680.082700",
        "team": "TUU48M0T1",
        "user_team": "TUU48M0T1",
        "source_team": "TUU48M0T1",
        "user_profile": {
            "avatar_hash": "2deebbf6be3d",
            "image_72": "https:\/\/avatars.slack-edge.com\/2020-03-06\/976932190641_2deebbf6be3d17141d91_72.jpg",
            "first_name": "Sarah",
            "real_name": "Sarah Blossom Ware",
            "display_name": "Sarah Blossom Ware - BioBlaze Community Bio Lab",
            "team": "TUU48M0T1",
            "name": "ware.sarah",
            "is_restricted": false,
            "is_ultra_restricted": false
        },
        "blocks": [
            {
                "type": "rich_text",
                "block_id": "Ogjp",
                "elements": [
                    {
                        "type": "rich_text_section",
                        "elements": [
                            {
                                "type": "text",
                                "text": "You could also choose to Bulk Input using an Excel file, but there are only 6 so it doesn't take long to copy and paste them all."
                            }
                        ]
                    }
                ]
            }
        ],
        "thread_ts": "1585513210.081200",
        "parent_user_id": "U010XEY5Q6L"
    },
    {
        "client_msg_id": "ea6b9025-1a70-4364-bc01-d1d132c45818",
        "type": "message",
        "text": "You do not need a quote, but you do need an account set up before ordering.",
        "user": "UV10KBUQG",
        "ts": "1585513723.082900",
        "team": "TUU48M0T1",
        "user_team": "TUU48M0T1",
        "source_team": "TUU48M0T1",
        "user_profile": {
            "avatar_hash": "2deebbf6be3d",
            "image_72": "https:\/\/avatars.slack-edge.com\/2020-03-06\/976932190641_2deebbf6be3d17141d91_72.jpg",
            "first_name": "Sarah",
            "real_name": "Sarah Blossom Ware",
            "display_name": "Sarah Blossom Ware - BioBlaze Community Bio Lab",
            "team": "TUU48M0T1",
            "name": "ware.sarah",
            "is_restricted": false,
            "is_ultra_restricted": false
        },
        "blocks": [
            {
                "type": "rich_text",
                "block_id": "tNb",
                "elements": [
                    {
                        "type": "rich_text_section",
                        "elements": [
                            {
                                "type": "text",
                                "text": "You do not need a quote, but you do need an account set up before ordering."
                            }
                        ]
                    }
                ]
            }
        ],
        "thread_ts": "1585513210.081200",
        "parent_user_id": "U010XEY5Q6L"
    },
    {
        "client_msg_id": "48be639e-d06f-4b55-bedf-99f0b99849c1",
        "type": "message",
        "text": "Amazing and so thorough! Thank you :slightly_smiling_face:",
        "user": "U010XEY5Q6L",
        "ts": "1585514010.083100",
        "team": "TUU48M0T1",
        "user_team": "TUU48M0T1",
        "source_team": "TUU48M0T1",
        "user_profile": {
            "avatar_hash": "gb3c073393f7",
            "image_72": "https:\/\/secure.gravatar.com\/avatar\/b3c073393f78f9d9f9cb5b8b42bdc752.jpg?s=72&d=https%3A%2F%2Fa.slack-edge.com%2Fdf10d%2Fimg%2Favatars%2Fava_0013-72.png",
            "first_name": "",
            "real_name": "Laura August",
            "display_name": "Laura August",
            "team": "TUU48M0T1",
            "name": "august.laura.a",
            "is_restricted": false,
            "is_ultra_restricted": false
        },
        "blocks": [
            {
                "type": "rich_text",
                "block_id": "scQv",
                "elements": [
                    {
                        "type": "rich_text_section",
                        "elements": [
                            {
                                "type": "text",
                                "text": "Amazing and so thorough! Thank you "
                            },
                            {
                                "type": "emoji",
                                "name": "slightly_smiling_face"
                            }
                        ]
                    }
                ]
            }
        ],
        "thread_ts": "1585513210.081200",
        "parent_user_id": "U010XEY5Q6L",
        "reactions": [
            {
                "name": "+1",
                "users": [
                    "UV10KBUQG"
                ],
                "count": 1
            }
        ]
    },
    {
        "client_msg_id": "0e48ff2b-dc5f-4561-a59c-73792019294a",
        "type": "message",
        "text": "Order the Same Day Oligos, the price is something like 65 cents per nucleotide, it's listed on the site",
        "user": "UUPQGNNTV",
        "ts": "1585514573.084600",
        "team": "TUU48M0T1",
        "user_team": "TUU48M0T1",
        "source_team": "TUU48M0T1",
        "user_profile": {
            "avatar_hash": "c28127caf7eb",
            "image_72": "https:\/\/avatars.slack-edge.com\/2020-03-07\/989562470694_c28127caf7ebfe67df97_72.jpg",
            "first_name": "",
            "real_name": "Ellen Jorgensen",
            "display_name": "",
            "team": "TUU48M0T1",
            "name": "ejorgensen",
            "is_restricted": false,
            "is_ultra_restricted": false
        },
        "blocks": [
            {
                "type": "rich_text",
                "block_id": "HNG",
                "elements": [
                    {
                        "type": "rich_text_section",
                        "elements": [
                            {
                                "type": "text",
                                "text": "Order the Same Day Oligos, the price is something like 65 cents per nucleotide, it's listed on the site"
                            }
                        ]
                    }
                ]
            }
        ],
        "reactions": [
            {
                "name": "+1::skin-tone-3",
                "users": [
                    "U010XEY5Q6L"
                ],
                "count": 1
            }
        ]
    },
    {
        "client_msg_id": "c43fa7b3-51f3-4f57-8cbd-796a36bc680e",
        "type": "message",
        "text": "Another thing, entered the first primer and got a notification that it matches one in a covid kit offered by the company. Did you get this too? Is there a pro\/con to ordering them on our own do you think?",
        "user": "U010XEY5Q6L",
        "ts": "1585516916.084800",
        "team": "TUU48M0T1",
        "user_team": "TUU48M0T1",
        "source_team": "TUU48M0T1",
        "user_profile": {
            "avatar_hash": "gb3c073393f7",
            "image_72": "https:\/\/secure.gravatar.com\/avatar\/b3c073393f78f9d9f9cb5b8b42bdc752.jpg?s=72&d=https%3A%2F%2Fa.slack-edge.com%2Fdf10d%2Fimg%2Favatars%2Fava_0013-72.png",
            "first_name": "",
            "real_name": "Laura August",
            "display_name": "Laura August",
            "team": "TUU48M0T1",
            "name": "august.laura.a",
            "is_restricted": false,
            "is_ultra_restricted": false
        },
        "blocks": [
            {
                "type": "rich_text",
                "block_id": "D9\/",
                "elements": [
                    {
                        "type": "rich_text_section",
                        "elements": [
                            {
                                "type": "text",
                                "text": "Another thing, entered the first primer and got a notification that it matches one in a covid kit offered by the company. Did you get this too? Is there a pro\/con to ordering them on our own do you think?"
                            }
                        ]
                    }
                ]
            }
        ],
        "thread_ts": "1585513210.081200",
        "parent_user_id": "U010XEY5Q6L"
    },
    {
        "client_msg_id": "a26e58bf-f162-4753-948f-762cea597b88",
        "type": "message",
        "text": "Yes, just say continue and it should put it in the cart when you say update cart or something like that. That was confusing. I had to chat with an IDT person to sort that out.",
        "user": "UV10KBUQG",
        "ts": "1585516978.085000",
        "team": "TUU48M0T1",
        "user_team": "TUU48M0T1",
        "source_team": "TUU48M0T1",
        "user_profile": {
            "avatar_hash": "2deebbf6be3d",
            "image_72": "https:\/\/avatars.slack-edge.com\/2020-03-06\/976932190641_2deebbf6be3d17141d91_72.jpg",
            "first_name": "Sarah",
            "real_name": "Sarah Blossom Ware",
            "display_name": "Sarah Blossom Ware - BioBlaze Community Bio Lab",
            "team": "TUU48M0T1",
            "name": "ware.sarah",
            "is_restricted": false,
            "is_ultra_restricted": false
        },
        "edited": {
            "user": "UV10KBUQG",
            "ts": "1585517019.000000"
        },
        "blocks": [
            {
                "type": "rich_text",
                "block_id": "v5z9",
                "elements": [
                    {
                        "type": "rich_text_section",
                        "elements": [
                            {
                                "type": "text",
                                "text": "Yes, just say continue and it should put it in the cart when you say update cart or something like that. That was confusing. I had to chat with an IDT person to sort that out."
                            }
                        ]
                    }
                ]
            }
        ],
        "thread_ts": "1585513210.081200",
        "parent_user_id": "U010XEY5Q6L"
    },
    {
        "client_msg_id": "234564cf-ccc2-44c9-b359-6eccb0930b52",
        "type": "message",
        "text": "So you ordered the kit offered by the company?",
        "user": "U010XEY5Q6L",
        "ts": "1585517020.085300",
        "team": "TUU48M0T1",
        "user_team": "TUU48M0T1",
        "source_team": "TUU48M0T1",
        "user_profile": {
            "avatar_hash": "gb3c073393f7",
            "image_72": "https:\/\/secure.gravatar.com\/avatar\/b3c073393f78f9d9f9cb5b8b42bdc752.jpg?s=72&d=https%3A%2F%2Fa.slack-edge.com%2Fdf10d%2Fimg%2Favatars%2Fava_0013-72.png",
            "first_name": "",
            "real_name": "Laura August",
            "display_name": "Laura August",
            "team": "TUU48M0T1",
            "name": "august.laura.a",
            "is_restricted": false,
            "is_ultra_restricted": false
        },
        "blocks": [
            {
                "type": "rich_text",
                "block_id": "yvq",
                "elements": [
                    {
                        "type": "rich_text_section",
                        "elements": [
                            {
                                "type": "text",
                                "text": "So you ordered the kit offered by the company?"
                            }
                        ]
                    }
                ]
            }
        ],
        "thread_ts": "1585513210.081200",
        "parent_user_id": "U010XEY5Q6L"
    },
    {
        "client_msg_id": "ac2f40f5-9676-4d31-baa9-c565d5f6ef5f",
        "type": "message",
        "text": "No! :slightly_smiling_face:",
        "user": "UV10KBUQG",
        "ts": "1585517037.085500",
        "team": "TUU48M0T1",
        "user_team": "TUU48M0T1",
        "source_team": "TUU48M0T1",
        "user_profile": {
            "avatar_hash": "2deebbf6be3d",
            "image_72": "https:\/\/avatars.slack-edge.com\/2020-03-06\/976932190641_2deebbf6be3d17141d91_72.jpg",
            "first_name": "Sarah",
            "real_name": "Sarah Blossom Ware",
            "display_name": "Sarah Blossom Ware - BioBlaze Community Bio Lab",
            "team": "TUU48M0T1",
            "name": "ware.sarah",
            "is_restricted": false,
            "is_ultra_restricted": false
        },
        "blocks": [
            {
                "type": "rich_text",
                "block_id": "W7f",
                "elements": [
                    {
                        "type": "rich_text_section",
                        "elements": [
                            {
                                "type": "text",
                                "text": "No! "
                            },
                            {
                                "type": "emoji",
                                "name": "slightly_smiling_face"
                            }
                        ]
                    }
                ]
            }
        ],
        "thread_ts": "1585513210.081200",
        "parent_user_id": "U010XEY5Q6L"
    },
    {
        "client_msg_id": "74ef5bce-6394-456c-b6da-6d2ce3e2ede8",
        "type": "message",
        "text": "Let me go to the website...",
        "user": "UV10KBUQG",
        "ts": "1585517056.085700",
        "team": "TUU48M0T1",
        "user_team": "TUU48M0T1",
        "source_team": "TUU48M0T1",
        "user_profile": {
            "avatar_hash": "2deebbf6be3d",
            "image_72": "https:\/\/avatars.slack-edge.com\/2020-03-06\/976932190641_2deebbf6be3d17141d91_72.jpg",
            "first_name": "Sarah",
            "real_name": "Sarah Blossom Ware",
            "display_name": "Sarah Blossom Ware - BioBlaze Community Bio Lab",
            "team": "TUU48M0T1",
            "name": "ware.sarah",
            "is_restricted": false,
            "is_ultra_restricted": false
        },
        "blocks": [
            {
                "type": "rich_text",
                "block_id": "emXy",
                "elements": [
                    {
                        "type": "rich_text_section",
                        "elements": [
                            {
                                "type": "text",
                                "text": "Let me go to the website..."
                            }
                        ]
                    }
                ]
            }
        ],
        "thread_ts": "1585513210.081200",
        "parent_user_id": "U010XEY5Q6L"
    },
    {
        "client_msg_id": "e78c6eda-3be1-4b8a-abd6-7b5f50c9d8ff",
        "type": "message",
        "text": "ah ok i think i got it",
        "user": "U010XEY5Q6L",
        "ts": "1585517104.085900",
        "team": "TUU48M0T1",
        "user_team": "TUU48M0T1",
        "source_team": "TUU48M0T1",
        "user_profile": {
            "avatar_hash": "gb3c073393f7",
            "image_72": "https:\/\/secure.gravatar.com\/avatar\/b3c073393f78f9d9f9cb5b8b42bdc752.jpg?s=72&d=https%3A%2F%2Fa.slack-edge.com%2Fdf10d%2Fimg%2Favatars%2Fava_0013-72.png",
            "first_name": "",
            "real_name": "Laura August",
            "display_name": "Laura August",
            "team": "TUU48M0T1",
            "name": "august.laura.a",
            "is_restricted": false,
            "is_ultra_restricted": false
        },
        "blocks": [
            {
                "type": "rich_text",
                "block_id": "vVTHo",
                "elements": [
                    {
                        "type": "rich_text_section",
                        "elements": [
                            {
                                "type": "text",
                                "text": "ah ok i think i got it"
                            }
                        ]
                    }
                ]
            }
        ],
        "thread_ts": "1585513210.081200",
        "parent_user_id": "U010XEY5Q6L"
    },
    {
        "client_msg_id": "fe64617d-11e4-4aa4-904b-e8d97cbf07b4",
        "type": "message",
        "text": "Ok :slightly_smiling_face:  This is helpful.  I have added notes to the ordering form with instructions on how to order primers.",
        "user": "UV10KBUQG",
        "ts": "1585517456.086100",
        "team": "TUU48M0T1",
        "user_team": "TUU48M0T1",
        "source_team": "TUU48M0T1",
        "user_profile": {
            "avatar_hash": "2deebbf6be3d",
            "image_72": "https:\/\/avatars.slack-edge.com\/2020-03-06\/976932190641_2deebbf6be3d17141d91_72.jpg",
            "first_name": "Sarah",
            "real_name": "Sarah Blossom Ware",
            "display_name": "Sarah Blossom Ware - BioBlaze Community Bio Lab",
            "team": "TUU48M0T1",
            "name": "ware.sarah",
            "is_restricted": false,
            "is_ultra_restricted": false
        },
        "blocks": [
            {
                "type": "rich_text",
                "block_id": "=mcG",
                "elements": [
                    {
                        "type": "rich_text_section",
                        "elements": [
                            {
                                "type": "text",
                                "text": "Ok "
                            },
                            {
                                "type": "emoji",
                                "name": "slightly_smiling_face"
                            },
                            {
                                "type": "text",
                                "text": "  This is helpful.  I have added notes to the ordering form with instructions on how to order primers."
                            }
                        ]
                    }
                ]
            }
        ],
        "thread_ts": "1585513210.081200",
        "parent_user_id": "U010XEY5Q6L",
        "reactions": [
            {
                "name": "heart_eyes",
                "users": [
                    "UV1A22N3W"
                ],
                "count": 1
            }
        ]
    },
    {
        "client_msg_id": "b7771cb8-d484-45a0-a0da-2782e009b243",
        "type": "message",
        "text": "Great, thanks again.",
        "user": "U010XEY5Q6L",
        "ts": "1585518100.086300",
        "team": "TUU48M0T1",
        "user_team": "TUU48M0T1",
        "source_team": "TUU48M0T1",
        "user_profile": {
            "avatar_hash": "gb3c073393f7",
            "image_72": "https:\/\/secure.gravatar.com\/avatar\/b3c073393f78f9d9f9cb5b8b42bdc752.jpg?s=72&d=https%3A%2F%2Fa.slack-edge.com%2Fdf10d%2Fimg%2Favatars%2Fava_0013-72.png",
            "first_name": "",
            "real_name": "Laura August",
            "display_name": "Laura August",
            "team": "TUU48M0T1",
            "name": "august.laura.a",
            "is_restricted": false,
            "is_ultra_restricted": false
        },
        "blocks": [
            {
                "type": "rich_text",
                "block_id": "RETs",
                "elements": [
                    {
                        "type": "rich_text_section",
                        "elements": [
                            {
                                "type": "text",
                                "text": "Great, thanks again."
                            }
                        ]
                    }
                ]
            }
        ],
        "thread_ts": "1585513210.081200",
        "parent_user_id": "U010XEY5Q6L",
        "reactions": [
            {
                "name": "heavy_check_mark",
                "users": [
                    "UV10KBUQG"
                ],
                "count": 1
            }
        ]
    },
    {
        "client_msg_id": "56e63a3b-1b4a-4440-a524-b5f0203348d7",
        "type": "message",
        "text": "Ey <@UUWLPKCLB> to be faster... Do you already know <https:\/\/www.finddx.org\/covid-19\/pipeline\/> ?\n\nHave all the commercialized test or the ones being developed right now with all the certification they have and the technology behind.",
        "user": "UV3URUKK5",
        "ts": "1585535320.087800",
        "team": "TUU48M0T1",
        "user_team": "TUU48M0T1",
        "source_team": "TUU48M0T1",
        "user_profile": {
            "avatar_hash": "64c99c2ed974",
            "image_72": "https:\/\/avatars.slack-edge.com\/2020-03-15\/1000999702004_64c99c2ed97497e08ca9_72.jpg",
            "first_name": "",
            "real_name": "Francisco Javier Quero",
            "display_name": "Francisco Javier Quero",
            "team": "TUU48M0T1",
            "name": "franxi2953",
            "is_restricted": false,
            "is_ultra_restricted": false
        },
        "attachments": [
            {
                "service_name": "FIND",
                "title": "SARS-CoV-2 diagnostic pipeline - FIND",
                "title_link": "https:\/\/www.finddx.org\/covid-19\/pipeline\/",
                "text": "View Page",
                "fallback": "FIND: SARS-CoV-2 diagnostic pipeline - FIND",
                "image_url": "https:\/\/www.finddx.org\/wp-content\/uploads\/2020\/02\/ceo-20feb20.jpg",
                "image_width": 476,
                "image_height": 250,
                "from_url": "https:\/\/www.finddx.org\/covid-19\/pipeline\/",
                "image_bytes": 43219,
                "id": 1,
                "original_url": "https:\/\/www.finddx.org\/covid-19\/pipeline\/"
            }
        ],
        "blocks": [
            {
                "type": "rich_text",
                "block_id": "s5Ql2",
                "elements": [
                    {
                        "type": "rich_text_section",
                        "elements": [
                            {
                                "type": "text",
                                "text": "Ey "
                            },
                            {
                                "type": "user",
                                "user_id": "UUWLPKCLB"
                            },
                            {
                                "type": "text",
                                "text": " to be faster... Do you already know "
                            },
                            {
                                "type": "link",
                                "url": "https:\/\/www.finddx.org\/covid-19\/pipeline\/"
                            },
                            {
                                "type": "text",
                                "text": " ?\n\nHave all the commercialized test or the ones being developed right now with all the certification they have and the technology behind."
                            }
                        ]
                    }
                ]
            }
        ],
        "thread_ts": "1585535320.087800",
        "reply_count": 1,
        "reply_users_count": 1,
        "latest_reply": "1585687859.129300",
        "reply_users": [
            "UUPQGNNTV"
        ],
        "replies": [
            {
                "user": "UUPQGNNTV",
                "ts": "1585687859.129300"
            }
        ],
        "subscribed": false,
        "reactions": [
            {
                "name": "raised_hands",
                "users": [
                    "UUWLPKCLB"
                ],
                "count": 1
            },
            {
                "name": "+1",
                "users": [
                    "UV1A22N3W"
                ],
                "count": 1
            }
        ]
    }
]