[
    {
        "client_msg_id": "ef04e5a8-2a4e-4cfa-bffb-2f3e4bb5357f",
        "type": "message",
        "text": "*Hi everyone!* \n*Introducing here some of my teammates at the MIT \"Africa takes on covid19\" hackathon* this weekend: <@U012XSSRE82> <@U012H74ACEB> <@U01342HB9QU> <@U012Z5VG6R1>\nThey all have interest in detection\/diagnostic tools for covid19, and some pretty good skills to me put at use in this channel!\n\n*They are amazing people, I had the best time working with them!*\n\n*We worked on a SMART Mobile Lab: basically putting a lab in a taxi.* \"Providing Sustainable, Modular, Accessible, Reliable, and Timely Approach for Testing Everywhere\"! If you want to hear more about it, feel free to reach out!\n\nLooking forward to these new collaborations!\nTake care!",
        "user": "UV9V03C8Y",
        "ts": "1588710545.377700",
        "team": "TUU48M0T1",
        "user_team": "TUU48M0T1",
        "source_team": "TUU48M0T1",
        "user_profile": {
            "avatar_hash": "177697fb7b8f",
            "image_72": "https:\/\/avatars.slack-edge.com\/2020-03-12\/996126178096_177697fb7b8ffa57649c_72.jpg",
            "first_name": "Camille",
            "real_name": "Camille Masselot - JOGL Program coordinator",
            "display_name": "Camille Masselot - JOGL coordinator",
            "team": "TUU48M0T1",
            "name": "masselot.camille",
            "is_restricted": false,
            "is_ultra_restricted": false
        },
        "blocks": [
            {
                "type": "rich_text",
                "block_id": "U2O",
                "elements": [
                    {
                        "type": "rich_text_section",
                        "elements": [
                            {
                                "type": "text",
                                "text": "Hi everyone! ",
                                "style": {
                                    "bold": true
                                }
                            },
                            {
                                "type": "text",
                                "text": "\n"
                            },
                            {
                                "type": "text",
                                "text": "Introducing here some of my teammates at the MIT \"Africa takes on covid19\" hackathon",
                                "style": {
                                    "bold": true
                                }
                            },
                            {
                                "type": "text",
                                "text": " this weekend: "
                            },
                            {
                                "type": "user",
                                "user_id": "U012XSSRE82"
                            },
                            {
                                "type": "text",
                                "text": " "
                            },
                            {
                                "type": "user",
                                "user_id": "U012H74ACEB"
                            },
                            {
                                "type": "text",
                                "text": " "
                            },
                            {
                                "type": "user",
                                "user_id": "U01342HB9QU"
                            },
                            {
                                "type": "text",
                                "text": " "
                            },
                            {
                                "type": "user",
                                "user_id": "U012Z5VG6R1"
                            },
                            {
                                "type": "text",
                                "text": "\nThey all have interest in detection\/diagnostic tools for covid19, and some pretty good skills to me put at use in this channel!\n\n"
                            },
                            {
                                "type": "text",
                                "text": "They are amazing people, I had the best time working with them!",
                                "style": {
                                    "bold": true
                                }
                            },
                            {
                                "type": "text",
                                "text": "\n\n"
                            },
                            {
                                "type": "text",
                                "text": "We worked on a SMART Mobile Lab: basically putting a lab in a taxi. ",
                                "style": {
                                    "bold": true
                                }
                            },
                            {
                                "type": "text",
                                "text": "\"Providing Sustainable, Modular, Accessible, Reliable, and Timely Approach for Testing Everywhere\"! If you want to hear more about it, feel free to reach out!\n\nLooking forward to these new collaborations!\nTake care!"
                            }
                        ]
                    }
                ]
            }
        ]
    },
    {
        "type": "message",
        "subtype": "channel_join",
        "ts": "1588710551.377900",
        "user": "U012H74ACEB",
        "text": "<@U012H74ACEB> has joined the channel",
        "inviter": "UV9V03C8Y"
    },
    {
        "type": "message",
        "subtype": "channel_join",
        "ts": "1588710551.378100",
        "user": "U01342HB9QU",
        "text": "<@U01342HB9QU> has joined the channel",
        "inviter": "UV9V03C8Y"
    },
    {
        "type": "message",
        "subtype": "channel_join",
        "ts": "1588710551.378300",
        "user": "U012Z5VG6R1",
        "text": "<@U012Z5VG6R1> has joined the channel",
        "inviter": "UV9V03C8Y"
    }
]