[
    {
        "client_msg_id": "d4116e9c-0631-4c98-9a4e-4f9f56ba7dd9",
        "type": "message",
        "text": "*<!channel>*  Dear all, if you have a project on JOGL, please use this document to indicate any updates you’d like to share during our Global Community call happening in 30min :heart:\n:point_right: <https:\/\/docs.google.com\/document\/d\/1e2SoOkFJfYMfA3VGdAUfWpwxGyNWhufzL3L467yT2lA\/>",
        "user": "UV02WET96",
        "ts": "1588173757.369100",
        "team": "TUU48M0T1",
        "user_team": "TUU48M0T1",
        "source_team": "TUU48M0T1",
        "user_profile": {
            "avatar_hash": "a99c74a194f8",
            "image_72": "https:\/\/avatars.slack-edge.com\/2020-03-07\/975708504851_a99c74a194f86715ca7d_72.png",
            "first_name": "Thomas",
            "real_name": "Thomas Landrain",
            "display_name": "Thomas Landrain - JOGL CoFounder \/ CEO",
            "team": "TUU48M0T1",
            "name": "thomas",
            "is_restricted": false,
            "is_ultra_restricted": false
        },
        "blocks": [
            {
                "type": "rich_text",
                "block_id": "vif",
                "elements": [
                    {
                        "type": "rich_text_section",
                        "elements": [
                            {
                                "type": "broadcast",
                                "range": "channel",
                                "style": {
                                    "bold": true
                                }
                            },
                            {
                                "type": "text",
                                "text": " ",
                                "style": {
                                    "bold": true
                                }
                            },
                            {
                                "type": "text",
                                "text": " Dear all, if you have a project on JOGL, please use this document to indicate any updates you’d like to share during our Global Community call happening in 30min "
                            },
                            {
                                "type": "emoji",
                                "name": "heart"
                            },
                            {
                                "type": "text",
                                "text": "\n"
                            },
                            {
                                "type": "emoji",
                                "name": "point_right"
                            },
                            {
                                "type": "text",
                                "text": " "
                            },
                            {
                                "type": "link",
                                "url": "https:\/\/docs.google.com\/document\/d\/1e2SoOkFJfYMfA3VGdAUfWpwxGyNWhufzL3L467yT2lA\/"
                            }
                        ]
                    }
                ]
            }
        ]
    }
]