[
    {
        "client_msg_id": "66821c55-48e4-4350-a218-38c7e7ca71d0",
        "type": "message",
        "text": "Maybe ask in <#C010BM0D4VC|freegenes> , they do supply some clones, probably some polymerases, maybe the one you need",
        "user": "U010APQC76J",
        "ts": "1585309763.017200",
        "team": "TUU48M0T1",
        "user_team": "TUU48M0T1",
        "source_team": "TUU48M0T1",
        "user_profile": {
            "avatar_hash": "751a8e7a94a5",
            "image_72": "https:\/\/avatars.slack-edge.com\/2020-03-25\/1026091401893_751a8e7a94a519bfd1d7_72.jpg",
            "first_name": "Hans",
            "real_name": "Hans Pfalzgraf",
            "display_name": "Hans P",
            "team": "TUU48M0T1",
            "name": "h.pfalzgraf",
            "is_restricted": false,
            "is_ultra_restricted": false
        },
        "blocks": [
            {
                "type": "rich_text",
                "block_id": "mX89",
                "elements": [
                    {
                        "type": "rich_text_section",
                        "elements": [
                            {
                                "type": "text",
                                "text": "Maybe ask in "
                            },
                            {
                                "type": "channel",
                                "channel_id": "C010BM0D4VC"
                            },
                            {
                                "type": "text",
                                "text": " , they do supply some clones, probably some polymerases, maybe the one you need"
                            }
                        ]
                    }
                ]
            }
        ],
        "thread_ts": "1585246588.016500",
        "parent_user_id": "U0104L8M4JW"
    },
    {
        "client_msg_id": "94d6749f-200a-423e-a102-5b1a60337fcd",
        "type": "message",
        "text": "Dear Challenge detect team,\nI would like to do a clinical trial on an as-easy-as-possible test ASAP in our testing center, for example next Wednesday. Do you guys have anything ready already?",
        "user": "U010X9FPMS8",
        "ts": "1585330038.019900",
        "team": "TUU48M0T1",
        "user_team": "TUU48M0T1",
        "source_team": "TUU48M0T1",
        "user_profile": {
            "avatar_hash": "faff4edf8af2",
            "image_72": "https:\/\/avatars.slack-edge.com\/2020-03-27\/1031471711236_faff4edf8af2cc7b11dd_72.jpg",
            "first_name": "Florian",
            "real_name": "Florian Schulte",
            "display_name": "Florian Schulte",
            "team": "TUU48M0T1",
            "name": "schulte.florian",
            "is_restricted": false,
            "is_ultra_restricted": false
        },
        "blocks": [
            {
                "type": "rich_text",
                "block_id": "8iU5",
                "elements": [
                    {
                        "type": "rich_text_section",
                        "elements": [
                            {
                                "type": "text",
                                "text": "Dear Challenge detect team,\nI would like to do a clinical trial on an as-easy-as-possible test ASAP in our testing center, for example next Wednesday. Do you guys have anything ready already?"
                            }
                        ]
                    }
                ]
            }
        ],
        "thread_ts": "1585330038.019900",
        "reply_count": 2,
        "reply_users_count": 1,
        "latest_reply": "1585338889.028400",
        "reply_users": [
            "UV10KBUQG"
        ],
        "replies": [
            {
                "user": "UV10KBUQG",
                "ts": "1585338608.025500"
            },
            {
                "user": "UV10KBUQG",
                "ts": "1585338889.028400"
            }
        ],
        "subscribed": false
    },
    {
        "client_msg_id": "20B6AF45-DBC9-49D7-B8A5-BAC28A6C53EA",
        "type": "message",
        "text": "woah!!  wdyt, <@UV7LUJG1Y> ?  we really need the sample prep questions solved too... ",
        "user": "UV1A22N3W",
        "ts": "1585332633.021600",
        "team": "TUU48M0T1",
        "user_team": "TUU48M0T1",
        "source_team": "TUU48M0T1",
        "user_profile": {
            "avatar_hash": "71f827776ad6",
            "image_72": "https:\/\/avatars.slack-edge.com\/2020-03-09\/988125642964_71f827776ad610af05a2_72.jpg",
            "first_name": "",
            "real_name": "RachelA",
            "display_name": "RachelA",
            "team": "TUU48M0T1",
            "name": "raronoff",
            "is_restricted": false,
            "is_ultra_restricted": false
        },
        "blocks": [
            {
                "type": "rich_text",
                "block_id": "WUh",
                "elements": [
                    {
                        "type": "rich_text_section",
                        "elements": [
                            {
                                "type": "text",
                                "text": "woah!!  wdyt, "
                            },
                            {
                                "type": "user",
                                "user_id": "UV7LUJG1Y"
                            },
                            {
                                "type": "text",
                                "text": " ?  we really need the sample prep questions solved too... "
                            }
                        ]
                    }
                ]
            }
        ],
        "thread_ts": "1584823208.004700",
        "parent_user_id": "UVALZTQ58"
    },
    {
        "client_msg_id": "3a12a501-8346-4a85-a3a4-c7347883cbc7",
        "type": "message",
        "text": "Hello <!channel> for those interested in the toehold and cell free system design, tomorrow we have organized a call together with the iGEM team of Thessaly 2019 (<https:\/\/2019.igem.org\/Team:Thessaly>) at 3 p.m CET. Feel free to join!",
        "user": "UV3URUKK5",
        "ts": "1585338428.023500",
        "team": "TUU48M0T1",
        "user_team": "TUU48M0T1",
        "source_team": "TUU48M0T1",
        "user_profile": {
            "avatar_hash": "64c99c2ed974",
            "image_72": "https:\/\/avatars.slack-edge.com\/2020-03-15\/1000999702004_64c99c2ed97497e08ca9_72.jpg",
            "first_name": "",
            "real_name": "Francisco Javier Quero",
            "display_name": "Francisco Javier Quero",
            "team": "TUU48M0T1",
            "name": "franxi2953",
            "is_restricted": false,
            "is_ultra_restricted": false
        },
        "edited": {
            "user": "UV3URUKK5",
            "ts": "1585339957.000000"
        },
        "blocks": [
            {
                "type": "rich_text",
                "block_id": "ELT0J",
                "elements": [
                    {
                        "type": "rich_text_section",
                        "elements": [
                            {
                                "type": "text",
                                "text": "Hello "
                            },
                            {
                                "type": "broadcast",
                                "range": "channel"
                            },
                            {
                                "type": "text",
                                "text": " for those interested in the toehold and cell free system design, tomorrow we have organized a call together with the iGEM team of Thessaly 2019 ("
                            },
                            {
                                "type": "link",
                                "url": "https:\/\/2019.igem.org\/Team:Thessaly"
                            },
                            {
                                "type": "text",
                                "text": ") at 3 p.m CET. Feel free to join!"
                            }
                        ]
                    }
                ]
            }
        ],
        "thread_ts": "1585338428.023500",
        "reply_count": 11,
        "reply_users_count": 3,
        "latest_reply": "1585338922.028600",
        "reply_users": [
            "UV78JAX0S",
            "UV3URUKK5",
            "UUNGFHSV8"
        ],
        "replies": [
            {
                "user": "UV78JAX0S",
                "ts": "1585338484.024000"
            },
            {
                "user": "UV3URUKK5",
                "ts": "1585338498.024200"
            },
            {
                "user": "UV78JAX0S",
                "ts": "1585338502.024400"
            },
            {
                "user": "UV3URUKK5",
                "ts": "1585338515.024600"
            },
            {
                "user": "UV3URUKK5",
                "ts": "1585338523.024800"
            },
            {
                "user": "UV78JAX0S",
                "ts": "1585338528.025000"
            },
            {
                "user": "UV78JAX0S",
                "ts": "1585338536.025200"
            },
            {
                "user": "UV3URUKK5",
                "ts": "1585338693.026300"
            },
            {
                "user": "UV3URUKK5",
                "ts": "1585338703.026500"
            },
            {
                "user": "UUNGFHSV8",
                "ts": "1585338826.027500"
            },
            {
                "user": "UUNGFHSV8",
                "ts": "1585338922.028600"
            }
        ],
        "subscribed": false,
        "reactions": [
            {
                "name": "the_horns",
                "users": [
                    "UUNGFHSV8",
                    "UV10KBUQG",
                    "U0103128G4D",
                    "UV5C2TFCH"
                ],
                "count": 4
            },
            {
                "name": "bug",
                "users": [
                    "UVCS0865Q"
                ],
                "count": 1
            },
            {
                "name": "heart_eyes",
                "users": [
                    "UV1A22N3W"
                ],
                "count": 1
            }
        ]
    },
    {
        "client_msg_id": "983889df-87a1-4fca-95d6-6788c2c01579",
        "type": "message",
        "text": "can you share a link?",
        "user": "UV78JAX0S",
        "ts": "1585338484.024000",
        "team": "TUU48M0T1",
        "user_team": "TUU48M0T1",
        "source_team": "TUU48M0T1",
        "user_profile": {
            "avatar_hash": "ab643489965e",
            "image_72": "https:\/\/avatars.slack-edge.com\/2020-03-17\/996174739571_ab643489965e0031c49d_72.png",
            "first_name": "Khalid",
            "real_name": "Khalid K. Alam",
            "display_name": "Khalid K. Alam",
            "team": "TUU48M0T1",
            "name": "khalid",
            "is_restricted": false,
            "is_ultra_restricted": false
        },
        "blocks": [
            {
                "type": "rich_text",
                "block_id": "+5D9",
                "elements": [
                    {
                        "type": "rich_text_section",
                        "elements": [
                            {
                                "type": "text",
                                "text": "can you share a link?"
                            }
                        ]
                    }
                ]
            }
        ],
        "thread_ts": "1585338428.023500",
        "parent_user_id": "UV3URUKK5"
    },
    {
        "client_msg_id": "119bfcab-3946-4591-89ad-29192512a379",
        "type": "message",
        "text": "of the call?",
        "user": "UV3URUKK5",
        "ts": "1585338498.024200",
        "team": "TUU48M0T1",
        "user_team": "TUU48M0T1",
        "source_team": "TUU48M0T1",
        "user_profile": {
            "avatar_hash": "64c99c2ed974",
            "image_72": "https:\/\/avatars.slack-edge.com\/2020-03-15\/1000999702004_64c99c2ed97497e08ca9_72.jpg",
            "first_name": "",
            "real_name": "Francisco Javier Quero",
            "display_name": "Francisco Javier Quero",
            "team": "TUU48M0T1",
            "name": "franxi2953",
            "is_restricted": false,
            "is_ultra_restricted": false
        },
        "blocks": [
            {
                "type": "rich_text",
                "block_id": "Iz2r8",
                "elements": [
                    {
                        "type": "rich_text_section",
                        "elements": [
                            {
                                "type": "text",
                                "text": "of the call?"
                            }
                        ]
                    }
                ]
            }
        ],
        "thread_ts": "1585338428.023500",
        "parent_user_id": "UV3URUKK5"
    },
    {
        "client_msg_id": "7bbc11ce-c369-468c-bf80-8c85079445d9",
        "type": "message",
        "text": "yes",
        "user": "UV78JAX0S",
        "ts": "1585338502.024400",
        "team": "TUU48M0T1",
        "user_team": "TUU48M0T1",
        "source_team": "TUU48M0T1",
        "user_profile": {
            "avatar_hash": "ab643489965e",
            "image_72": "https:\/\/avatars.slack-edge.com\/2020-03-17\/996174739571_ab643489965e0031c49d_72.png",
            "first_name": "Khalid",
            "real_name": "Khalid K. Alam",
            "display_name": "Khalid K. Alam",
            "team": "TUU48M0T1",
            "name": "khalid",
            "is_restricted": false,
            "is_ultra_restricted": false
        },
        "blocks": [
            {
                "type": "rich_text",
                "block_id": "3mgf\/",
                "elements": [
                    {
                        "type": "rich_text_section",
                        "elements": [
                            {
                                "type": "text",
                                "text": "yes"
                            }
                        ]
                    }
                ]
            }
        ],
        "thread_ts": "1585338428.023500",
        "parent_user_id": "UV3URUKK5"
    },
    {
        "client_msg_id": "d3dee59e-f311-43ab-ace3-a40cf9226c07",
        "type": "message",
        "text": "I don't really know how to do it hahaha, second time using zoom.",
        "user": "UV3URUKK5",
        "ts": "1585338515.024600",
        "team": "TUU48M0T1",
        "user_team": "TUU48M0T1",
        "source_team": "TUU48M0T1",
        "user_profile": {
            "avatar_hash": "64c99c2ed974",
            "image_72": "https:\/\/avatars.slack-edge.com\/2020-03-15\/1000999702004_64c99c2ed97497e08ca9_72.jpg",
            "first_name": "",
            "real_name": "Francisco Javier Quero",
            "display_name": "Francisco Javier Quero",
            "team": "TUU48M0T1",
            "name": "franxi2953",
            "is_restricted": false,
            "is_ultra_restricted": false
        },
        "blocks": [
            {
                "type": "rich_text",
                "block_id": "0\/Aa2",
                "elements": [
                    {
                        "type": "rich_text_section",
                        "elements": [
                            {
                                "type": "text",
                                "text": "I don't really know how to do it hahaha, second time using zoom."
                            }
                        ]
                    }
                ]
            }
        ],
        "thread_ts": "1585338428.023500",
        "parent_user_id": "UV3URUKK5"
    },
    {
        "client_msg_id": "23878348-aa67-4eea-a2c1-2be53f774580",
        "type": "message",
        "text": "Do you know how to?",
        "user": "UV3URUKK5",
        "ts": "1585338523.024800",
        "team": "TUU48M0T1",
        "user_team": "TUU48M0T1",
        "source_team": "TUU48M0T1",
        "user_profile": {
            "avatar_hash": "64c99c2ed974",
            "image_72": "https:\/\/avatars.slack-edge.com\/2020-03-15\/1000999702004_64c99c2ed97497e08ca9_72.jpg",
            "first_name": "",
            "real_name": "Francisco Javier Quero",
            "display_name": "Francisco Javier Quero",
            "team": "TUU48M0T1",
            "name": "franxi2953",
            "is_restricted": false,
            "is_ultra_restricted": false
        },
        "blocks": [
            {
                "type": "rich_text",
                "block_id": "hDPQB",
                "elements": [
                    {
                        "type": "rich_text_section",
                        "elements": [
                            {
                                "type": "text",
                                "text": "Do you know how to?"
                            }
                        ]
                    }
                ]
            }
        ],
        "thread_ts": "1585338428.023500",
        "parent_user_id": "UV3URUKK5"
    },
    {
        "client_msg_id": "f63e1a3d-9337-4e35-b699-e21cccc57d35",
        "type": "message",
        "text": "LOL, it should create a link or at least a Zoom ID",
        "user": "UV78JAX0S",
        "ts": "1585338528.025000",
        "team": "TUU48M0T1",
        "user_team": "TUU48M0T1",
        "source_team": "TUU48M0T1",
        "user_profile": {
            "avatar_hash": "ab643489965e",
            "image_72": "https:\/\/avatars.slack-edge.com\/2020-03-17\/996174739571_ab643489965e0031c49d_72.png",
            "first_name": "Khalid",
            "real_name": "Khalid K. Alam",
            "display_name": "Khalid K. Alam",
            "team": "TUU48M0T1",
            "name": "khalid",
            "is_restricted": false,
            "is_ultra_restricted": false
        },
        "blocks": [
            {
                "type": "rich_text",
                "block_id": "bF5rb",
                "elements": [
                    {
                        "type": "rich_text_section",
                        "elements": [
                            {
                                "type": "text",
                                "text": "LOL, it should create a link or at least a Zoom ID"
                            }
                        ]
                    }
                ]
            }
        ],
        "thread_ts": "1585338428.023500",
        "parent_user_id": "UV3URUKK5"
    },
    {
        "client_msg_id": "df14c4c6-fddb-40b7-a9fb-2775c3f78978",
        "type": "message",
        "text": "if you have the ID thats all i'd need!",
        "user": "UV78JAX0S",
        "ts": "1585338536.025200",
        "team": "TUU48M0T1",
        "user_team": "TUU48M0T1",
        "source_team": "TUU48M0T1",
        "user_profile": {
            "avatar_hash": "ab643489965e",
            "image_72": "https:\/\/avatars.slack-edge.com\/2020-03-17\/996174739571_ab643489965e0031c49d_72.png",
            "first_name": "Khalid",
            "real_name": "Khalid K. Alam",
            "display_name": "Khalid K. Alam",
            "team": "TUU48M0T1",
            "name": "khalid",
            "is_restricted": false,
            "is_ultra_restricted": false
        },
        "blocks": [
            {
                "type": "rich_text",
                "block_id": "KIXpv",
                "elements": [
                    {
                        "type": "rich_text_section",
                        "elements": [
                            {
                                "type": "text",
                                "text": "if you have the ID thats all i'd need!"
                            }
                        ]
                    }
                ]
            }
        ],
        "thread_ts": "1585338428.023500",
        "parent_user_id": "UV3URUKK5"
    },
    {
        "client_msg_id": "4b86f55c-0690-4233-81e3-f343a0ffce5c",
        "type": "message",
        "text": "Hi <@U010X9FPMS8>, right now a small number of us with independent labs are starting to try to validate a rapid and inexpensive protocol using NEB's colorimetric LAMP kit.",
        "user": "UV10KBUQG",
        "ts": "1585338608.025500",
        "team": "TUU48M0T1",
        "user_team": "TUU48M0T1",
        "source_team": "TUU48M0T1",
        "user_profile": {
            "avatar_hash": "2deebbf6be3d",
            "image_72": "https:\/\/avatars.slack-edge.com\/2020-03-06\/976932190641_2deebbf6be3d17141d91_72.jpg",
            "first_name": "Sarah",
            "real_name": "Sarah Blossom Ware",
            "display_name": "Sarah Blossom Ware - BioBlaze Community Bio Lab",
            "team": "TUU48M0T1",
            "name": "ware.sarah",
            "is_restricted": false,
            "is_ultra_restricted": false
        },
        "blocks": [
            {
                "type": "rich_text",
                "block_id": "UGhL",
                "elements": [
                    {
                        "type": "rich_text_section",
                        "elements": [
                            {
                                "type": "text",
                                "text": "Hi "
                            },
                            {
                                "type": "user",
                                "user_id": "U010X9FPMS8"
                            },
                            {
                                "type": "text",
                                "text": ", right now a small number of us with independent labs are starting to try to validate a rapid and inexpensive protocol using NEB's colorimetric LAMP kit."
                            }
                        ]
                    }
                ]
            }
        ],
        "thread_ts": "1585330038.019900",
        "parent_user_id": "U010X9FPMS8"
    },
    {
        "client_msg_id": "391c080b-241b-4f6f-94d9-c1856ab8d8e8",
        "type": "message",
        "text": "NEW initiatives identified and linked on <https:\/\/t.co\/D3GlGWqtKU?amp=1|http:\/\/><http:\/\/opencovid-19.org|opencovid-19.org> - featuring an open-source RT and Taq, Shared Canadian Resources, and low cost bioreactors. Shout out to <https:\/\/twitter.com\/pipette_jockey|@pipette_jockey>\n <https:\/\/twitter.com\/MoriartyLab|@MoriartyLab>  <https:\/\/twitter.com\/guilbourque|@guilbourque>  and Ottawa Bio Reactor <@U0103SR759U>",
        "user": "U0104L8M4JW",
        "ts": "1585338667.026000",
        "team": "TUU48M0T1",
        "user_team": "TUU48M0T1",
        "source_team": "TUU48M0T1",
        "user_profile": {
            "avatar_hash": "gef705cd0d30",
            "image_72": "https:\/\/secure.gravatar.com\/avatar\/ef705cd0d302406c1fdfd3d1fdf462d1.jpg?s=72&d=https%3A%2F%2Fa.slack-edge.com%2Fdf10d%2Fimg%2Favatars%2Fava_0010-72.png",
            "first_name": "yhaguy",
            "real_name": "yhaguy",
            "display_name": "yhaguy",
            "team": "TUU48M0T1",
            "name": "yunghan.au",
            "is_restricted": false,
            "is_ultra_restricted": false
        },
        "edited": {
            "user": "U0104L8M4JW",
            "ts": "1585339559.000000"
        },
        "blocks": [
            {
                "type": "rich_text",
                "block_id": "gmY",
                "elements": [
                    {
                        "type": "rich_text_section",
                        "elements": [
                            {
                                "type": "text",
                                "text": "NEW initiatives identified and linked on "
                            },
                            {
                                "type": "link",
                                "url": "https:\/\/t.co\/D3GlGWqtKU?amp=1",
                                "text": "http:\/\/"
                            },
                            {
                                "type": "link",
                                "url": "http:\/\/opencovid-19.org",
                                "text": "opencovid-19.org"
                            },
                            {
                                "type": "text",
                                "text": " - featuring an open-source RT and Taq, Shared Canadian Resources, and low cost bioreactors. Shout out to "
                            },
                            {
                                "type": "link",
                                "url": "https:\/\/twitter.com\/pipette_jockey",
                                "text": "@pipette_jockey"
                            },
                            {
                                "type": "text",
                                "text": "\n "
                            },
                            {
                                "type": "link",
                                "url": "https:\/\/twitter.com\/MoriartyLab",
                                "text": "@MoriartyLab"
                            },
                            {
                                "type": "text",
                                "text": "  "
                            },
                            {
                                "type": "link",
                                "url": "https:\/\/twitter.com\/guilbourque",
                                "text": "@guilbourque"
                            },
                            {
                                "type": "text",
                                "text": "  and Ottawa Bio Reactor "
                            },
                            {
                                "type": "user",
                                "user_id": "U0103SR759U"
                            }
                        ]
                    }
                ]
            }
        ],
        "reactions": [
            {
                "name": "heart_eyes",
                "users": [
                    "UV3URUKK5"
                ],
                "count": 1
            }
        ]
    },
    {
        "client_msg_id": "317603dd-49ef-4f63-872a-6287e61e6105",
        "type": "message",
        "text": "Francisco Quero le está invitando a una reunión de Zoom programada.\n\nTema: Toehold &amp; cell free system design\nHora: 28 mar 2020 03:00 PM París\n\nUnirse a la reunión Zoom\n<https:\/\/us04web.zoom.us\/j\/502794886>\n\nID de reunión: 502 794 886",
        "user": "UV3URUKK5",
        "ts": "1585338693.026300",
        "team": "TUU48M0T1",
        "user_team": "TUU48M0T1",
        "source_team": "TUU48M0T1",
        "user_profile": {
            "avatar_hash": "64c99c2ed974",
            "image_72": "https:\/\/avatars.slack-edge.com\/2020-03-15\/1000999702004_64c99c2ed97497e08ca9_72.jpg",
            "first_name": "",
            "real_name": "Francisco Javier Quero",
            "display_name": "Francisco Javier Quero",
            "team": "TUU48M0T1",
            "name": "franxi2953",
            "is_restricted": false,
            "is_ultra_restricted": false
        },
        "blocks": [
            {
                "type": "rich_text",
                "block_id": "2GR",
                "elements": [
                    {
                        "type": "rich_text_section",
                        "elements": [
                            {
                                "type": "text",
                                "text": "Francisco Quero le está invitando a una reunión de Zoom programada.\n\nTema: Toehold & cell free system design\nHora: 28 mar 2020 03:00 PM París\n\nUnirse a la reunión Zoom\n"
                            },
                            {
                                "type": "link",
                                "url": "https:\/\/us04web.zoom.us\/j\/502794886"
                            },
                            {
                                "type": "text",
                                "text": "\n\nID de reunión: 502 794 886"
                            }
                        ]
                    }
                ]
            }
        ],
        "thread_ts": "1585338428.023500",
        "parent_user_id": "UV3URUKK5"
    },
    {
        "client_msg_id": "30036f13-cd65-4dea-84be-ef43d76e18d1",
        "type": "message",
        "text": "Don't know if that would work",
        "user": "UV3URUKK5",
        "ts": "1585338703.026500",
        "team": "TUU48M0T1",
        "user_team": "TUU48M0T1",
        "source_team": "TUU48M0T1",
        "user_profile": {
            "avatar_hash": "64c99c2ed974",
            "image_72": "https:\/\/avatars.slack-edge.com\/2020-03-15\/1000999702004_64c99c2ed97497e08ca9_72.jpg",
            "first_name": "",
            "real_name": "Francisco Javier Quero",
            "display_name": "Francisco Javier Quero",
            "team": "TUU48M0T1",
            "name": "franxi2953",
            "is_restricted": false,
            "is_ultra_restricted": false
        },
        "blocks": [
            {
                "type": "rich_text",
                "block_id": "SctS",
                "elements": [
                    {
                        "type": "rich_text_section",
                        "elements": [
                            {
                                "type": "text",
                                "text": "Don't know if that would work"
                            }
                        ]
                    }
                ]
            }
        ],
        "thread_ts": "1585338428.023500",
        "parent_user_id": "UV3URUKK5"
    },
    {
        "client_msg_id": "47fc99be-b33d-4339-a0fe-fcef515c4d71",
        "type": "message",
        "text": "• <http:\/\/pipettejockey.com\/> \n",
        "user": "U0104L8M4JW",
        "ts": "1585338715.026900",
        "team": "TUU48M0T1",
        "user_team": "TUU48M0T1",
        "source_team": "TUU48M0T1",
        "user_profile": {
            "avatar_hash": "gef705cd0d30",
            "image_72": "https:\/\/secure.gravatar.com\/avatar\/ef705cd0d302406c1fdfd3d1fdf462d1.jpg?s=72&d=https%3A%2F%2Fa.slack-edge.com%2Fdf10d%2Fimg%2Favatars%2Fava_0010-72.png",
            "first_name": "yhaguy",
            "real_name": "yhaguy",
            "display_name": "yhaguy",
            "team": "TUU48M0T1",
            "name": "yunghan.au",
            "is_restricted": false,
            "is_ultra_restricted": false
        },
        "attachments": [
            {
                "title": "Pipette Jockey",
                "title_link": "http:\/\/pipettejockey.com\/",
                "text": "I make, optimize and reverse engineer methods and reagents for the molecular biology lab. I also make other cool stuff like lab equipment. What follows are my adventures.",
                "fallback": "Pipette Jockey",
                "from_url": "http:\/\/pipettejockey.com\/",
                "thumb_url": "https:\/\/s0.wp.com\/i\/blank.jpg",
                "thumb_width": 200,
                "thumb_height": 200,
                "service_icon": "http:\/\/pipettejockey.com\/favicon.ico",
                "service_name": "pipettejockey.com",
                "id": 1,
                "original_url": "http:\/\/pipettejockey.com\/"
            }
        ],
        "blocks": [
            {
                "type": "rich_text",
                "block_id": "ij8t",
                "elements": [
                    {
                        "type": "rich_text_list",
                        "elements": [
                            {
                                "type": "rich_text_section",
                                "elements": [
                                    {
                                        "type": "link",
                                        "url": "http:\/\/pipettejockey.com\/"
                                    },
                                    {
                                        "type": "text",
                                        "text": " "
                                    }
                                ]
                            }
                        ],
                        "style": "bullet",
                        "indent": 0
                    },
                    {
                        "type": "rich_text_section",
                        "elements": []
                    }
                ]
            }
        ],
        "thread_ts": "1585246588.016500",
        "parent_user_id": "U0104L8M4JW"
    },
    {
        "type": "message",
        "text": "FreeGenes has put together a spreadsheet collection of genes that could be useful for different COVID19 diagnostic assays. At the bottom are a bunch of reporter enzymes and fluoro\/chromoproteins that could be used in RNA toehold switches. If anyone thinks of more useful genetic parts to add (maybe the iGEM team would know some!) feel free to add them <https:\/\/docs.google.com\/spreadsheets\/d\/1lYLdxC06IWPYmppczr2O3mJPhZ10sAAQcBVoBv63ZBc\/edit?usp=sharing>",
        "files": [
            {
                "id": "F0110BD7NLF",
                "created": 1585338866,
                "timestamp": 1585338866,
                "name": "COVID-19 Detection Parts",
                "title": "COVID-19 Detection Parts",
                "mimetype": "application\/vnd.google-apps.spreadsheet",
                "filetype": "gsheet",
                "pretty_type": "GSuite Spreadsheet",
                "user": "UUNGFHSV8",
                "editable": false,
                "size": 210429,
                "mode": "external",
                "is_external": true,
                "external_type": "gdrive",
                "is_public": true,
                "public_url_shared": false,
                "display_as_bot": false,
                "username": "",
                "url_private": "https:\/\/docs.google.com\/spreadsheets\/d\/1lYLdxC06IWPYmppczr2O3mJPhZ10sAAQcBVoBv63ZBc\/edit?usp=sharing",
                "thumb_64": "https:\/\/a.slack-edge.com\/80588\/img\/files\/gsheet_64.png",
                "thumb_360": "https:\/\/a.slack-edge.com\/80588\/img\/files\/gsheet_360.png",
                "thumb_360_w": 360,
                "thumb_360_h": 167,
                "permalink": "https:\/\/open-covid19.slack.com\/files\/UUNGFHSV8\/F0110BD7NLF\/covid-19_detection_parts",
                "is_starred": false,
                "external_id": "1lYLdxC06IWPYmppczr2O3mJPhZ10sAAQcBVoBv63ZBc",
                "external_url": "https:\/\/docs.google.com\/spreadsheets\/d\/1lYLdxC06IWPYmppczr2O3mJPhZ10sAAQcBVoBv63ZBc\/edit?usp=sharing",
                "has_rich_preview": true
            }
        ],
        "upload": false,
        "blocks": [
            {
                "type": "rich_text",
                "block_id": "7Hp",
                "elements": [
                    {
                        "type": "rich_text_section",
                        "elements": [
                            {
                                "type": "text",
                                "text": "FreeGenes has put together a spreadsheet collection of genes that could be useful for different COVID19 diagnostic assays. At the bottom are a bunch of reporter enzymes and fluoro\/chromoproteins that could be used in RNA toehold switches. If anyone thinks of more useful genetic parts to add (maybe the iGEM team would know some!) feel free to add them "
                            },
                            {
                                "type": "link",
                                "url": "https:\/\/docs.google.com\/spreadsheets\/d\/1lYLdxC06IWPYmppczr2O3mJPhZ10sAAQcBVoBv63ZBc\/edit?usp=sharing"
                            }
                        ]
                    }
                ]
            }
        ],
        "user": "UUNGFHSV8",
        "display_as_bot": false,
        "x_files": [
            "F0110BD7NLF"
        ],
        "ts": "1585338826.027500",
        "client_msg_id": "d7004092-fc30-49b3-bad3-bde77fd5daac",
        "thread_ts": "1585338428.023500",
        "parent_user_id": "UV3URUKK5",
        "reactions": [
            {
                "name": "heart_eyes",
                "users": [
                    "UV3URUKK5"
                ],
                "count": 1
            },
            {
                "name": "+1",
                "users": [
                    "UVALZTQ58"
                ],
                "count": 1
            }
        ]
    },
    {
        "client_msg_id": "843c7d41-39a4-4f01-8828-0e6b2971a757",
        "type": "message",
        "text": "<@U010X9FPMS8> I have added you to the #prgm-Neb-lamp channel",
        "user": "UV10KBUQG",
        "ts": "1585338889.028400",
        "team": "TUU48M0T1",
        "user_team": "TUU48M0T1",
        "source_team": "TUU48M0T1",
        "user_profile": {
            "avatar_hash": "2deebbf6be3d",
            "image_72": "https:\/\/avatars.slack-edge.com\/2020-03-06\/976932190641_2deebbf6be3d17141d91_72.jpg",
            "first_name": "Sarah",
            "real_name": "Sarah Blossom Ware",
            "display_name": "Sarah Blossom Ware - BioBlaze Community Bio Lab",
            "team": "TUU48M0T1",
            "name": "ware.sarah",
            "is_restricted": false,
            "is_ultra_restricted": false
        },
        "blocks": [
            {
                "type": "rich_text",
                "block_id": "D7Up",
                "elements": [
                    {
                        "type": "rich_text_section",
                        "elements": [
                            {
                                "type": "user",
                                "user_id": "U010X9FPMS8"
                            },
                            {
                                "type": "text",
                                "text": " I have added you to the #prgm-Neb-lamp channel"
                            }
                        ]
                    }
                ]
            }
        ],
        "thread_ts": "1585330038.019900",
        "parent_user_id": "U010X9FPMS8"
    },
    {
        "client_msg_id": "57113079-14d9-4923-9f7b-f7a7f1be7e96",
        "type": "message",
        "text": "^We’re working on getting Ginkgo to synthesize that list and make them all freely available",
        "user": "UUNGFHSV8",
        "ts": "1585338922.028600",
        "team": "TUU48M0T1",
        "user_team": "TUU48M0T1",
        "source_team": "TUU48M0T1",
        "user_profile": {
            "avatar_hash": "1c55ee32397a",
            "image_72": "https:\/\/avatars.slack-edge.com\/2020-03-07\/987349161984_1c55ee32397a85a87ec4_72.png",
            "first_name": "Isaac",
            "real_name": "Isaac Larkin",
            "display_name": "Isaac Larkin",
            "team": "TUU48M0T1",
            "name": "eyesmo",
            "is_restricted": false,
            "is_ultra_restricted": false
        },
        "blocks": [
            {
                "type": "rich_text",
                "block_id": "+\/eA2",
                "elements": [
                    {
                        "type": "rich_text_section",
                        "elements": [
                            {
                                "type": "text",
                                "text": "^We’re working on getting Ginkgo to synthesize that list and make them all freely available"
                            }
                        ]
                    }
                ]
            }
        ],
        "thread_ts": "1585338428.023500",
        "parent_user_id": "UV3URUKK5",
        "reactions": [
            {
                "name": "heart",
                "users": [
                    "UVCS0865Q"
                ],
                "count": 1
            }
        ]
    },
    {
        "client_msg_id": "b00c3a86-7302-455a-92fc-25f6c5a17f9c",
        "type": "message",
        "text": "<https:\/\/twitter.com\/zhangf\/status\/1243647414831140865?s=21>",
        "user": "UUNGFHSV8",
        "ts": "1585348248.029900",
        "team": "TUU48M0T1",
        "user_team": "TUU48M0T1",
        "source_team": "TUU48M0T1",
        "user_profile": {
            "avatar_hash": "1c55ee32397a",
            "image_72": "https:\/\/avatars.slack-edge.com\/2020-03-07\/987349161984_1c55ee32397a85a87ec4_72.png",
            "first_name": "Isaac",
            "real_name": "Isaac Larkin",
            "display_name": "Isaac Larkin",
            "team": "TUU48M0T1",
            "name": "eyesmo",
            "is_restricted": false,
            "is_ultra_restricted": false
        },
        "blocks": [
            {
                "type": "rich_text",
                "block_id": "+63",
                "elements": [
                    {
                        "type": "rich_text_section",
                        "elements": [
                            {
                                "type": "link",
                                "url": "https:\/\/twitter.com\/zhangf\/status\/1243647414831140865?s=21"
                            }
                        ]
                    }
                ]
            }
        ]
    },
    {
        "client_msg_id": "5dbabe11-57cd-4f33-952c-7336166fa720",
        "type": "message",
        "text": "<https:\/\/docs.google.com\/forms\/d\/e\/1FAIpQLSc3crilLDsLaEum-OVhXp_b2tcFso2l0we0w6N6-jre0m-l_g\/viewform>",
        "user": "UUNGFHSV8",
        "ts": "1585348300.030200",
        "team": "TUU48M0T1",
        "user_team": "TUU48M0T1",
        "source_team": "TUU48M0T1",
        "user_profile": {
            "avatar_hash": "1c55ee32397a",
            "image_72": "https:\/\/avatars.slack-edge.com\/2020-03-07\/987349161984_1c55ee32397a85a87ec4_72.png",
            "first_name": "Isaac",
            "real_name": "Isaac Larkin",
            "display_name": "Isaac Larkin",
            "team": "TUU48M0T1",
            "name": "eyesmo",
            "is_restricted": false,
            "is_ultra_restricted": false
        },
        "blocks": [
            {
                "type": "rich_text",
                "block_id": "eX4",
                "elements": [
                    {
                        "type": "rich_text_section",
                        "elements": [
                            {
                                "type": "link",
                                "url": "https:\/\/docs.google.com\/forms\/d\/e\/1FAIpQLSc3crilLDsLaEum-OVhXp_b2tcFso2l0we0w6N6-jre0m-l_g\/viewform"
                            }
                        ]
                    }
                ]
            }
        ]
    }
]