[
    {
        "client_msg_id": "81d42a49-9b82-4a22-8754-bb32e4d6dee1",
        "type": "message",
        "text": "Hey <!channel>, is there a call today?",
        "user": "UV9V03C8Y",
        "ts": "1588684635.044600",
        "team": "TUU48M0T1",
        "user_team": "TUU48M0T1",
        "source_team": "TUU48M0T1",
        "user_profile": {
            "avatar_hash": "177697fb7b8f",
            "image_72": "https:\/\/avatars.slack-edge.com\/2020-03-12\/996126178096_177697fb7b8ffa57649c_72.jpg",
            "first_name": "Camille",
            "real_name": "Camille Masselot - JOGL Program coordinator",
            "display_name": "Camille Masselot - JOGL coordinator",
            "team": "TUU48M0T1",
            "name": "masselot.camille",
            "is_restricted": false,
            "is_ultra_restricted": false
        },
        "blocks": [
            {
                "type": "rich_text",
                "block_id": "LFxvE",
                "elements": [
                    {
                        "type": "rich_text_section",
                        "elements": [
                            {
                                "type": "text",
                                "text": "Hey "
                            },
                            {
                                "type": "broadcast",
                                "range": "channel"
                            },
                            {
                                "type": "text",
                                "text": ", is there a call today?"
                            }
                        ]
                    }
                ]
            }
        ]
    },
    {
        "client_msg_id": "f1268a3f-c6bf-4bd5-b012-eb46d1a244f9",
        "type": "message",
        "text": "next week",
        "user": "UV02WET96",
        "ts": "1588687615.044900",
        "team": "TUU48M0T1",
        "user_team": "TUU48M0T1",
        "source_team": "TUU48M0T1",
        "user_profile": {
            "avatar_hash": "a99c74a194f8",
            "image_72": "https:\/\/avatars.slack-edge.com\/2020-03-07\/975708504851_a99c74a194f86715ca7d_72.png",
            "first_name": "Thomas",
            "real_name": "Thomas Landrain",
            "display_name": "Thomas Landrain - JOGL CoFounder \/ CEO",
            "team": "TUU48M0T1",
            "name": "thomas",
            "is_restricted": false,
            "is_ultra_restricted": false
        },
        "blocks": [
            {
                "type": "rich_text",
                "block_id": "kNE",
                "elements": [
                    {
                        "type": "rich_text_section",
                        "elements": [
                            {
                                "type": "text",
                                "text": "next week"
                            }
                        ]
                    }
                ]
            }
        ],
        "reactions": [
            {
                "name": "+1",
                "users": [
                    "UG400K8TS"
                ],
                "count": 1
            }
        ]
    },
    {
        "type": "message",
        "subtype": "channel_join",
        "ts": "1588703016.045200",
        "user": "UG3JWCG83",
        "text": "<@UG3JWCG83> has joined the channel",
        "team": "TUU48M0T1",
        "inviter": "UG400K8TS"
    },
    {
        "type": "message",
        "subtype": "channel_join",
        "ts": "1588709616.045400",
        "user": "U012XSSRE82",
        "text": "<@U012XSSRE82> has joined the channel",
        "team": "TUU48M0T1",
        "inviter": "UV9V03C8Y"
    },
    {
        "type": "message",
        "subtype": "channel_join",
        "ts": "1588709616.045600",
        "user": "U012H74ACEB",
        "text": "<@U012H74ACEB> has joined the channel",
        "team": "TUU48M0T1",
        "inviter": "UV9V03C8Y"
    },
    {
        "type": "message",
        "subtype": "channel_join",
        "ts": "1588709616.045800",
        "user": "U012Z5VG6R1",
        "text": "<@U012Z5VG6R1> has joined the channel",
        "team": "TUU48M0T1",
        "inviter": "UV9V03C8Y"
    },
    {
        "type": "message",
        "text": "*Introducing here some of my teammates at the MIT \"Africa takes on covid19\" hackathon* this weekend: <@U012XSSRE82> <@U012H74ACEB> <@U01342HB9QU> <@U012Z5VG6R1>\n\n*They are amazing people, I had the best time working with them!*\n\n*We worked on a SMART Mobile Lab:* providing Sustainable, Modular, Accessible, Reliable, and Timely Approach for Testing Everywhere!\nHere are the <https:\/\/docs.google.com\/presentation\/d\/1qTngv4ccJAiqZia3gGpWzocg_Cn_iomjAR8nWvlQ4RE\/edit#slide=id.g7702e0ea70_0_0|slides we presented> (the video pitch is comming soon).\nIf you want to hear more about it, we'll be honored to briefly introduce you to the project!\n\nLooking forward to our next call!",
        "files": [
            {
                "id": "F013G8P9FS5",
                "created": 1588709956,
                "timestamp": 1588709956,
                "name": "SMART Mobile Labs Testing Units",
                "title": "SMART Mobile Labs Testing Units",
                "mimetype": "application\/vnd.google-apps.presentation",
                "filetype": "gpres",
                "pretty_type": "GSuite Presentation",
                "user": "UV9V03C8Y",
                "editable": false,
                "size": 2806,
                "mode": "external",
                "is_external": true,
                "external_type": "gdrive",
                "is_public": true,
                "public_url_shared": false,
                "display_as_bot": false,
                "username": "",
                "url_private": "https:\/\/docs.google.com\/presentation\/d\/1qTngv4ccJAiqZia3gGpWzocg_Cn_iomjAR8nWvlQ4RE\/edit#slide=id.g7702e0ea70_0_0",
                "thumb_64": "https:\/\/files.slack.com\/files-tmb\/TUU48M0T1-F013G8P9FS5-89b7152966\/smart_mobile_labs_testing_units_64.png?t=xoxe-980144714919-1106606678066-1105227127893-6f722bb664235052954ad46852628b64",
                "thumb_80": "https:\/\/files.slack.com\/files-tmb\/TUU48M0T1-F013G8P9FS5-89b7152966\/smart_mobile_labs_testing_units_80.png?t=xoxe-980144714919-1106606678066-1105227127893-6f722bb664235052954ad46852628b64",
                "thumb_360": "https:\/\/files.slack.com\/files-tmb\/TUU48M0T1-F013G8P9FS5-89b7152966\/smart_mobile_labs_testing_units_360.png?t=xoxe-980144714919-1106606678066-1105227127893-6f722bb664235052954ad46852628b64",
                "thumb_360_w": 360,
                "thumb_360_h": 203,
                "thumb_480": "https:\/\/files.slack.com\/files-tmb\/TUU48M0T1-F013G8P9FS5-89b7152966\/smart_mobile_labs_testing_units_480.png?t=xoxe-980144714919-1106606678066-1105227127893-6f722bb664235052954ad46852628b64",
                "thumb_480_w": 480,
                "thumb_480_h": 270,
                "thumb_160": "https:\/\/files.slack.com\/files-tmb\/TUU48M0T1-F013G8P9FS5-89b7152966\/smart_mobile_labs_testing_units_160.png?t=xoxe-980144714919-1106606678066-1105227127893-6f722bb664235052954ad46852628b64",
                "thumb_720": "https:\/\/files.slack.com\/files-tmb\/TUU48M0T1-F013G8P9FS5-89b7152966\/smart_mobile_labs_testing_units_720.png?t=xoxe-980144714919-1106606678066-1105227127893-6f722bb664235052954ad46852628b64",
                "thumb_720_w": 720,
                "thumb_720_h": 405,
                "thumb_800": "https:\/\/files.slack.com\/files-tmb\/TUU48M0T1-F013G8P9FS5-89b7152966\/smart_mobile_labs_testing_units_800.png?t=xoxe-980144714919-1106606678066-1105227127893-6f722bb664235052954ad46852628b64",
                "thumb_800_w": 800,
                "thumb_800_h": 450,
                "image_exif_rotation": 1,
                "original_w": 800,
                "original_h": 450,
                "thumb_tiny": "AwAbADCATRjrEPzqVZ4sfdxTNin+EY+lSCGIdCPyo5TLmXYY8q5+UHH0qMuW6EKPerASPON2B9KTyo8feH5UwTitbFbk\/wAQpDyeoFWhDGepUfhTNij+EflRYftERCZvQUonbPP6VCOSB61LIoUrgYoL5YkjOwGQD+NM85vSmsxVRg8+tOdR5W7+I96BcqHCYH1\/DvTWkYEAYJ9KiAyc96sxqACwHzetGpL5V0P\/2Q==",
                "permalink": "https:\/\/open-covid19.slack.com\/files\/UV9V03C8Y\/F013G8P9FS5\/smart_mobile_labs_testing_units",
                "is_starred": false,
                "external_id": "1qTngv4ccJAiqZia3gGpWzocg_Cn_iomjAR8nWvlQ4RE",
                "external_url": "https:\/\/docs.google.com\/presentation\/d\/1qTngv4ccJAiqZia3gGpWzocg_Cn_iomjAR8nWvlQ4RE\/edit#slide=id.g7702e0ea70_0_0",
                "has_rich_preview": true
            }
        ],
        "upload": false,
        "blocks": [
            {
                "type": "rich_text",
                "block_id": "XdZj",
                "elements": [
                    {
                        "type": "rich_text_section",
                        "elements": [
                            {
                                "type": "text",
                                "text": "Introducing here some of my teammates at the MIT \"Africa takes on covid19\" hackathon",
                                "style": {
                                    "bold": true
                                }
                            },
                            {
                                "type": "text",
                                "text": " this weekend: "
                            },
                            {
                                "type": "user",
                                "user_id": "U012XSSRE82"
                            },
                            {
                                "type": "text",
                                "text": " "
                            },
                            {
                                "type": "user",
                                "user_id": "U012H74ACEB"
                            },
                            {
                                "type": "text",
                                "text": " "
                            },
                            {
                                "type": "user",
                                "user_id": "U01342HB9QU"
                            },
                            {
                                "type": "text",
                                "text": " "
                            },
                            {
                                "type": "user",
                                "user_id": "U012Z5VG6R1"
                            },
                            {
                                "type": "text",
                                "text": "\n\n"
                            },
                            {
                                "type": "text",
                                "text": "They are amazing people, I had the best time working with them!",
                                "style": {
                                    "bold": true
                                }
                            },
                            {
                                "type": "text",
                                "text": "\n\n"
                            },
                            {
                                "type": "text",
                                "text": "We worked on a SMART Mobile Lab: ",
                                "style": {
                                    "bold": true
                                }
                            },
                            {
                                "type": "text",
                                "text": "providing Sustainable, Modular, Accessible, Reliable, and Timely Approach for Testing Everywhere!\nHere are the "
                            },
                            {
                                "type": "link",
                                "url": "https:\/\/docs.google.com\/presentation\/d\/1qTngv4ccJAiqZia3gGpWzocg_Cn_iomjAR8nWvlQ4RE\/edit#slide=id.g7702e0ea70_0_0",
                                "text": "slides we presented"
                            },
                            {
                                "type": "text",
                                "text": " (the video pitch is comming soon).\nIf you want to hear more about it, we'll be honored to briefly introduce you to the project!\n\nLooking forward to our next call!"
                            }
                        ]
                    }
                ]
            }
        ],
        "user": "UV9V03C8Y",
        "display_as_bot": false,
        "x_files": [
            "F013G8P9FS5"
        ],
        "team": "TUU48M0T1",
        "ts": "1588709955.050400",
        "edited": {
            "user": "UV9V03C8Y",
            "ts": "1588709962.000000"
        },
        "client_msg_id": "ab70730b-78a9-45f3-9b59-7eb74f0a8b5c",
        "user_team": "TUU48M0T1",
        "source_team": "TUU48M0T1",
        "user_profile": {
            "avatar_hash": "177697fb7b8f",
            "image_72": "https:\/\/avatars.slack-edge.com\/2020-03-12\/996126178096_177697fb7b8ffa57649c_72.jpg",
            "first_name": "Camille",
            "real_name": "Camille Masselot - JOGL Program coordinator",
            "display_name": "Camille Masselot - JOGL coordinator",
            "team": "TUU48M0T1",
            "name": "masselot.camille",
            "is_restricted": false,
            "is_ultra_restricted": false
        }
    }
]