[
    {
        "type": "message",
        "subtype": "channel_join",
        "ts": "1586097204.000500",
        "user": "U010844MSBT",
        "text": "<@U010844MSBT> has joined the channel",
        "inviter": "UV02WET96"
    },
    {
        "client_msg_id": "0ee963b2-d81d-4bcf-b6a3-702c3fd3f8fd",
        "type": "message",
        "text": "Thank you <@UV02WET96> for this opportunity. We will do our best to lead this initiative according to our needs.",
        "user": "U01136GDY5V",
        "ts": "1586144905.001200",
        "team": "TUU48M0T1",
        "user_team": "TUU48M0T1",
        "source_team": "TUU48M0T1",
        "user_profile": {
            "avatar_hash": "g73528765d1f",
            "image_72": "https:\/\/secure.gravatar.com\/avatar\/73528765d1f911f3c3da00f88cf9d87d.jpg?s=72&d=https%3A%2F%2Fa.slack-edge.com%2Fdf10d%2Fimg%2Favatars%2Fava_0025-72.png",
            "first_name": "",
            "real_name": "Thomas Mboa",
            "display_name": "Thomas Mboa",
            "team": "TUU48M0T1",
            "name": "thomasmboa",
            "is_restricted": false,
            "is_ultra_restricted": false
        },
        "edited": {
            "user": "U01136GDY5V",
            "ts": "1586145039.000000"
        },
        "blocks": [
            {
                "type": "rich_text",
                "block_id": "o40T",
                "elements": [
                    {
                        "type": "rich_text_section",
                        "elements": [
                            {
                                "type": "text",
                                "text": "Thank you "
                            },
                            {
                                "type": "user",
                                "user_id": "UV02WET96"
                            },
                            {
                                "type": "text",
                                "text": " for this opportunity. We will do our best to lead this initiative according to our needs."
                            }
                        ]
                    }
                ]
            }
        ],
        "reactions": [
            {
                "name": "100",
                "users": [
                    "UV02WET96"
                ],
                "count": 1
            }
        ]
    },
    {
        "client_msg_id": "c1e22ebd-1a79-47b8-8ad3-d51f10c77f78",
        "type": "message",
        "text": "For this week, I suggest these 02 orientations: 1) invite the maximum of people working\/interested in Africa and African based organizations you know (in the field of open science, open innovation) interested in this initiative,  to join this slack channel. 2) have our first regional meeting by friday, to set our goals.",
        "user": "U01136GDY5V",
        "ts": "1586145421.005100",
        "team": "TUU48M0T1",
        "user_team": "TUU48M0T1",
        "source_team": "TUU48M0T1",
        "user_profile": {
            "avatar_hash": "g73528765d1f",
            "image_72": "https:\/\/secure.gravatar.com\/avatar\/73528765d1f911f3c3da00f88cf9d87d.jpg?s=72&d=https%3A%2F%2Fa.slack-edge.com%2Fdf10d%2Fimg%2Favatars%2Fava_0025-72.png",
            "first_name": "",
            "real_name": "Thomas Mboa",
            "display_name": "Thomas Mboa",
            "team": "TUU48M0T1",
            "name": "thomasmboa",
            "is_restricted": false,
            "is_ultra_restricted": false
        },
        "blocks": [
            {
                "type": "rich_text",
                "block_id": "Zy5Ah",
                "elements": [
                    {
                        "type": "rich_text_section",
                        "elements": [
                            {
                                "type": "text",
                                "text": "For this week, I suggest these 02 orientations: 1) invite the maximum of people working\/interested in Africa and African based organizations you know (in the field of open science, open innovation) interested in this initiative,  to join this slack channel. 2) have our first regional meeting by friday, to set our goals."
                            }
                        ]
                    }
                ]
            }
        ],
        "reactions": [
            {
                "name": "100",
                "users": [
                    "UV02WET96"
                ],
                "count": 1
            }
        ]
    },
    {
        "client_msg_id": "f5e8ef0d-3b9e-4390-9586-1daf49d91046",
        "type": "message",
        "text": "Please feel free to add more ideas",
        "user": "U01136GDY5V",
        "ts": "1586145482.006200",
        "team": "TUU48M0T1",
        "user_team": "TUU48M0T1",
        "source_team": "TUU48M0T1",
        "user_profile": {
            "avatar_hash": "g73528765d1f",
            "image_72": "https:\/\/secure.gravatar.com\/avatar\/73528765d1f911f3c3da00f88cf9d87d.jpg?s=72&d=https%3A%2F%2Fa.slack-edge.com%2Fdf10d%2Fimg%2Favatars%2Fava_0025-72.png",
            "first_name": "",
            "real_name": "Thomas Mboa",
            "display_name": "Thomas Mboa",
            "team": "TUU48M0T1",
            "name": "thomasmboa",
            "is_restricted": false,
            "is_ultra_restricted": false
        },
        "blocks": [
            {
                "type": "rich_text",
                "block_id": "PNh",
                "elements": [
                    {
                        "type": "rich_text_section",
                        "elements": [
                            {
                                "type": "text",
                                "text": "Please feel free to add more ideas"
                            }
                        ]
                    }
                ]
            }
        ]
    }
]