[
    {
        "client_msg_id": "49a53662-c19e-4c65-a4fc-0e32da226b26",
        "type": "message",
        "text": "TThank you <@UV02WET96> for giving me the opportunity to participate in this initiative which I am sure will be beneficial for Africa and the rest of the world. Together we will achieve something great against Covid-19.",
        "user": "U010844MSBT",
        "ts": "1586358904.000700",
        "team": "TUU48M0T1",
        "user_team": "TUU48M0T1",
        "source_team": "TUU48M0T1",
        "user_profile": {
            "avatar_hash": "0c43d0c38121",
            "image_72": "https:\/\/avatars.slack-edge.com\/2020-03-23\/1007223443682_0c43d0c38121a415f489_72.jpg",
            "first_name": "",
            "real_name": "Traore Amos",
            "display_name": "Traore Amos",
            "team": "TUU48M0T1",
            "name": "amostraore8",
            "is_restricted": false,
            "is_ultra_restricted": false
        },
        "blocks": [
            {
                "type": "rich_text",
                "block_id": "2GLn",
                "elements": [
                    {
                        "type": "rich_text_section",
                        "elements": [
                            {
                                "type": "text",
                                "text": "TThank you "
                            },
                            {
                                "type": "user",
                                "user_id": "UV02WET96"
                            },
                            {
                                "type": "text",
                                "text": " for giving me the opportunity to participate in this initiative which I am sure will be beneficial for Africa and the rest of the world. Together we will achieve something great against Covid-19."
                            }
                        ]
                    }
                ]
            }
        ],
        "reactions": [
            {
                "name": "raised_hands",
                "users": [
                    "UV02WET96"
                ],
                "count": 1
            }
        ]
    },
    {
        "client_msg_id": "0d4c5517-dfbf-457f-ab86-91ea59a39311",
        "type": "message",
        "text": "<@U01136GDY5V> You have a very good idea, I think acting in this way could have more impact.",
        "user": "U010844MSBT",
        "ts": "1586359006.001300",
        "team": "TUU48M0T1",
        "user_team": "TUU48M0T1",
        "source_team": "TUU48M0T1",
        "user_profile": {
            "avatar_hash": "0c43d0c38121",
            "image_72": "https:\/\/avatars.slack-edge.com\/2020-03-23\/1007223443682_0c43d0c38121a415f489_72.jpg",
            "first_name": "",
            "real_name": "Traore Amos",
            "display_name": "Traore Amos",
            "team": "TUU48M0T1",
            "name": "amostraore8",
            "is_restricted": false,
            "is_ultra_restricted": false
        },
        "blocks": [
            {
                "type": "rich_text",
                "block_id": "gvf",
                "elements": [
                    {
                        "type": "rich_text_section",
                        "elements": [
                            {
                                "type": "user",
                                "user_id": "U01136GDY5V"
                            },
                            {
                                "type": "text",
                                "text": " You have a very good idea, I think acting in this way could have more impact."
                            }
                        ]
                    }
                ]
            }
        ]
    },
    {
        "client_msg_id": "be5f5d2f-f1f7-494b-b11c-8e6d12d55c3a",
        "type": "message",
        "text": "You are wellcome <@U010844MSBT>",
        "user": "U01136GDY5V",
        "ts": "1586359056.001700",
        "team": "TUU48M0T1",
        "user_team": "TUU48M0T1",
        "source_team": "TUU48M0T1",
        "user_profile": {
            "avatar_hash": "g73528765d1f",
            "image_72": "https:\/\/secure.gravatar.com\/avatar\/73528765d1f911f3c3da00f88cf9d87d.jpg?s=72&d=https%3A%2F%2Fa.slack-edge.com%2Fdf10d%2Fimg%2Favatars%2Fava_0025-72.png",
            "first_name": "",
            "real_name": "Thomas Mboa",
            "display_name": "Thomas Mboa",
            "team": "TUU48M0T1",
            "name": "thomasmboa",
            "is_restricted": false,
            "is_ultra_restricted": false
        },
        "blocks": [
            {
                "type": "rich_text",
                "block_id": "2X7i",
                "elements": [
                    {
                        "type": "rich_text_section",
                        "elements": [
                            {
                                "type": "text",
                                "text": "You are wellcome "
                            },
                            {
                                "type": "user",
                                "user_id": "U010844MSBT"
                            }
                        ]
                    }
                ]
            }
        ]
    },
    {
        "type": "message",
        "subtype": "channel_join",
        "ts": "1586386614.001900",
        "user": "UVDCTDP8B",
        "text": "<@UVDCTDP8B> has joined the channel"
    }
]