[
    {
        "type": "message",
        "subtype": "channel_join",
        "ts": "1584930014.023400",
        "user": "UVABNG1A9",
        "text": "<@UVABNG1A9> has joined the channel",
        "team": "TUU48M0T1",
        "inviter": "UHK0ZKM0V"
    },
    {
        "type": "message",
        "subtype": "bot_message",
        "text": "This channel’s now shared between *Just One Giant Lab* and *OpenCOVID19 Initiative*. It works just like any other channel, except better — because here, there are two teams working together.",
        "ts": "1584930015.023700",
        "user": "USLACKBOT",
        "username": "slackbot",
        "team": "TUU48M0T1"
    }
]