[
    {
        "client_msg_id": "D650038D-74A3-4AD9-A3D4-423A309B6E9C",
        "type": "message",
        "text": "Hi everyone, we need to have a small team of people helping on coordinating the various efforts on diagnostics. Who would be interested? :hugging_face:",
        "user": "UV02WET96",
        "ts": "1585216176.001400",
        "team": "TUU48M0T1",
        "user_team": "TUU48M0T1",
        "source_team": "TUU48M0T1",
        "user_profile": {
            "avatar_hash": "a99c74a194f8",
            "image_72": "https:\/\/avatars.slack-edge.com\/2020-03-07\/975708504851_a99c74a194f86715ca7d_72.png",
            "first_name": "Thomas",
            "real_name": "Thomas Landrain",
            "display_name": "Thomas Landrain - JOGL CoFounder \/ CEO",
            "team": "TUU48M0T1",
            "name": "thomas",
            "is_restricted": false,
            "is_ultra_restricted": false
        },
        "blocks": [
            {
                "type": "rich_text",
                "block_id": "YpVX",
                "elements": [
                    {
                        "type": "rich_text_section",
                        "elements": [
                            {
                                "type": "text",
                                "text": "Hi everyone, we need to have a small team of people helping on coordinating the various efforts on diagnostics. Who would be interested? "
                            },
                            {
                                "type": "emoji",
                                "name": "hugging_face"
                            }
                        ]
                    }
                ]
            }
        ],
        "thread_ts": "1585216176.001400",
        "reply_count": 3,
        "reply_users_count": 3,
        "latest_reply": "1585575970.000600",
        "reply_users": [
            "U010QHBTBPY",
            "UVALZTQ58",
            "UV02WET96"
        ],
        "replies": [
            {
                "user": "U010QHBTBPY",
                "ts": "1585337188.001900"
            },
            {
                "user": "UVALZTQ58",
                "ts": "1585565128.000200"
            },
            {
                "user": "UV02WET96",
                "ts": "1585575970.000600"
            }
        ],
        "subscribed": false
    }
]