[
    {
        "type": "message",
        "subtype": "thread_broadcast",
        "text": "they got over 4,000 applications in their ‘first’ (and most likely only) round and ours wasn’t one of the successful ones. But we’ll keep trying :slightly_smiling_face:",
        "user": "U52KBSW9X",
        "ts": "1587023345.319500",
        "thread_ts": "1586698905.301700",
        "root": {
            "client_msg_id": "2836453d-bc4c-48e8-be93-407ea88f0cd6",
            "type": "message",
            "text": "just an fyi <@U52KBSW9X> in case you didn't see it already: <https:\/\/fastgrants.org\/>",
            "user": "U010BRWNGPP",
            "ts": "1586698905.301700",
            "team": "TUU48M0T1",
            "user_team": "T48QEEVTJ",
            "source_team": "T48QEEVTJ",
            "user_profile": {
                "avatar_hash": "g1c8c8eeba90",
                "image_72": "https:\/\/secure.gravatar.com\/avatar\/1c8c8eeba90d924df74f588bc2f1de23.jpg?s=72&d=https%3A%2F%2Fa.slack-edge.com%2Fdf10d%2Fimg%2Favatars%2Fava_0003-72.png",
                "first_name": "",
                "real_name": "Satrajit Ghosh",
                "display_name": "Satrajit Ghosh",
                "team": "T48QEEVTJ",
                "name": "satra",
                "is_restricted": false,
                "is_ultra_restricted": false
            },
            "attachments": [
                {
                    "title": "Fast Grants",
                    "title_link": "https:\/\/fastgrants.org\/",
                    "text": "Funding for scientists at academic institutions working on COVID-19 related projects.",
                    "fallback": "Fast Grants",
                    "image_url": "https:\/\/fastgrants.org\/social.png",
                    "from_url": "https:\/\/fastgrants.org\/",
                    "image_width": 500,
                    "image_height": 250,
                    "image_bytes": 71090,
                    "service_icon": "https:\/\/fastgrants.org\/favicon-32x32.png",
                    "service_name": "fastgrants.org",
                    "id": 1,
                    "original_url": "https:\/\/fastgrants.org\/"
                }
            ],
            "blocks": [
                {
                    "type": "rich_text",
                    "block_id": "0YK",
                    "elements": [
                        {
                            "type": "rich_text_section",
                            "elements": [
                                {
                                    "type": "text",
                                    "text": "just an fyi "
                                },
                                {
                                    "type": "user",
                                    "user_id": "U52KBSW9X"
                                },
                                {
                                    "type": "text",
                                    "text": " in case you didn't see it already: "
                                },
                                {
                                    "type": "link",
                                    "url": "https:\/\/fastgrants.org\/"
                                }
                            ]
                        }
                    ]
                }
            ],
            "thread_ts": "1586698905.301700",
            "reply_count": 6,
            "reply_users_count": 2,
            "latest_reply": "1587317056.329800",
            "reply_users": [
                "U52KBSW9X",
                "U010BRWNGPP"
            ],
            "subscribed": false
        },
        "blocks": [
            {
                "type": "rich_text",
                "block_id": "kanb",
                "elements": [
                    {
                        "type": "rich_text_section",
                        "elements": [
                            {
                                "type": "text",
                                "text": "they got over 4,000 applications in their ‘first’ (and most likely only) round and ours wasn’t one of the successful ones. But we’ll keep trying "
                            },
                            {
                                "type": "emoji",
                                "name": "slightly_smiling_face"
                            }
                        ]
                    }
                ]
            }
        ],
        "client_msg_id": "25cfcc5a-c2f0-4309-a560-8eac82ba8c9c"
    },
    {
        "client_msg_id": "d0b0cec9-a682-463b-8fd2-7479d46d2da8",
        "type": "message",
        "text": "Hi <@U52KBSW9X>, hi everyone! :wave: Great to be on this Slack channel :slightly_smiling_face:",
        "user": "U011W0CLD27",
        "ts": "1587023845.319900",
        "team": "TUU48M0T1",
        "user_team": "T48QEEVTJ",
        "source_team": "T48QEEVTJ",
        "user_profile": {
            "avatar_hash": "g2f3d8f003d3",
            "image_72": "https:\/\/secure.gravatar.com\/avatar\/2f3d8f003d3252b9c3484db05306f044.jpg?s=72&d=https%3A%2F%2Fa.slack-edge.com%2Fdf10d%2Fimg%2Favatars%2Fava_0012-72.png",
            "first_name": "",
            "real_name": "Danny Lämmerhirt",
            "display_name": "Danny Lämmerhirt",
            "team": "T48QEEVTJ",
            "name": "danny.laemmerhirt",
            "is_restricted": false,
            "is_ultra_restricted": false
        },
        "blocks": [
            {
                "type": "rich_text",
                "block_id": "R688",
                "elements": [
                    {
                        "type": "rich_text_section",
                        "elements": [
                            {
                                "type": "text",
                                "text": "Hi "
                            },
                            {
                                "type": "user",
                                "user_id": "U52KBSW9X"
                            },
                            {
                                "type": "text",
                                "text": ", hi everyone! "
                            },
                            {
                                "type": "emoji",
                                "name": "wave"
                            },
                            {
                                "type": "text",
                                "text": " Great to be on this Slack channel "
                            },
                            {
                                "type": "emoji",
                                "name": "slightly_smiling_face"
                            }
                        ]
                    }
                ]
            }
        ],
        "thread_ts": "1587023845.319900",
        "reply_count": 6,
        "reply_users_count": 2,
        "latest_reply": "1587373236.333300",
        "reply_users": [
            "U52KBSW9X",
            "U011W0CLD27"
        ],
        "replies": [
            {
                "user": "U52KBSW9X",
                "ts": "1587024204.320000"
            },
            {
                "user": "U011W0CLD27",
                "ts": "1587024381.320200"
            },
            {
                "user": "U52KBSW9X",
                "ts": "1587024411.320500"
            },
            {
                "user": "U011W0CLD27",
                "ts": "1587043249.320700"
            },
            {
                "user": "U52KBSW9X",
                "ts": "1587043265.320900"
            },
            {
                "user": "U52KBSW9X",
                "ts": "1587373236.333300"
            }
        ],
        "subscribed": false
    },
    {
        "client_msg_id": "7c9b76c0-1c91-482a-97ba-5bd5904d7bd9",
        "type": "message",
        "text": "great to have you! Are you looking for any ways to volunteer some time by any chance? :wink:",
        "user": "U52KBSW9X",
        "ts": "1587024204.320000",
        "team": "TUU48M0T1",
        "user_team": "T48QEEVTJ",
        "source_team": "T48QEEVTJ",
        "user_profile": {
            "avatar_hash": "079d4f4301af",
            "image_72": "https:\/\/avatars.slack-edge.com\/2019-07-28\/696974040114_079d4f4301af057e28c1_72.jpg",
            "first_name": "Bastian",
            "real_name": "Bastian Greshake Tzovaras",
            "display_name": "gedankenstuecke",
            "team": "T48QEEVTJ",
            "name": "gedankenstuecke",
            "is_restricted": false,
            "is_ultra_restricted": false
        },
        "blocks": [
            {
                "type": "rich_text",
                "block_id": "Xx8A0",
                "elements": [
                    {
                        "type": "rich_text_section",
                        "elements": [
                            {
                                "type": "text",
                                "text": "great to have you! Are you looking for any ways to volunteer some time by any chance? "
                            },
                            {
                                "type": "emoji",
                                "name": "wink"
                            }
                        ]
                    }
                ]
            }
        ],
        "thread_ts": "1587023845.319900",
        "parent_user_id": "U011W0CLD27"
    },
    {
        "client_msg_id": "337e2506-f9ca-4c24-aaa3-c3aa1b0674f8",
        "type": "message",
        "text": "Ha! I actually did want to participate in the Open Humans community as part of my PhD research (still have to introduce myself properly). Volunteering could be a good way to reciprocate, perhaps we can chat soon about it?",
        "user": "U011W0CLD27",
        "ts": "1587024381.320200",
        "team": "TUU48M0T1",
        "user_team": "T48QEEVTJ",
        "source_team": "T48QEEVTJ",
        "user_profile": {
            "avatar_hash": "g2f3d8f003d3",
            "image_72": "https:\/\/secure.gravatar.com\/avatar\/2f3d8f003d3252b9c3484db05306f044.jpg?s=72&d=https%3A%2F%2Fa.slack-edge.com%2Fdf10d%2Fimg%2Favatars%2Fava_0012-72.png",
            "first_name": "",
            "real_name": "Danny Lämmerhirt",
            "display_name": "Danny Lämmerhirt",
            "team": "T48QEEVTJ",
            "name": "danny.laemmerhirt",
            "is_restricted": false,
            "is_ultra_restricted": false
        },
        "blocks": [
            {
                "type": "rich_text",
                "block_id": "O6vm",
                "elements": [
                    {
                        "type": "rich_text_section",
                        "elements": [
                            {
                                "type": "text",
                                "text": "Ha! I actually did want to participate in the Open Humans community as part of my PhD research (still have to introduce myself properly). Volunteering could be a good way to reciprocate, perhaps we can chat soon about it?"
                            }
                        ]
                    }
                ]
            }
        ],
        "thread_ts": "1587023845.319900",
        "parent_user_id": "U011W0CLD27"
    },
    {
        "client_msg_id": "44c32381-7a83-4d77-8bb1-42d53e91d42b",
        "type": "message",
        "text": "yes, of course! And would love to hear about your PhD research!",
        "user": "U52KBSW9X",
        "ts": "1587024411.320500",
        "team": "TUU48M0T1",
        "user_team": "T48QEEVTJ",
        "source_team": "T48QEEVTJ",
        "user_profile": {
            "avatar_hash": "079d4f4301af",
            "image_72": "https:\/\/avatars.slack-edge.com\/2019-07-28\/696974040114_079d4f4301af057e28c1_72.jpg",
            "first_name": "Bastian",
            "real_name": "Bastian Greshake Tzovaras",
            "display_name": "gedankenstuecke",
            "team": "T48QEEVTJ",
            "name": "gedankenstuecke",
            "is_restricted": false,
            "is_ultra_restricted": false
        },
        "blocks": [
            {
                "type": "rich_text",
                "block_id": "5m\/+P",
                "elements": [
                    {
                        "type": "rich_text_section",
                        "elements": [
                            {
                                "type": "text",
                                "text": "yes, of course! And would love to hear about your PhD research!"
                            }
                        ]
                    }
                ]
            }
        ],
        "thread_ts": "1587023845.319900",
        "parent_user_id": "U011W0CLD27"
    },
    {
        "client_msg_id": "facb66f2-f45f-420f-8419-1ff4cff8f817",
        "type": "message",
        "text": "Cool, I’ll DM you tomorrow!",
        "user": "U011W0CLD27",
        "ts": "1587043249.320700",
        "team": "TUU48M0T1",
        "user_team": "T48QEEVTJ",
        "source_team": "T48QEEVTJ",
        "user_profile": {
            "avatar_hash": "g2f3d8f003d3",
            "image_72": "https:\/\/secure.gravatar.com\/avatar\/2f3d8f003d3252b9c3484db05306f044.jpg?s=72&d=https%3A%2F%2Fa.slack-edge.com%2Fdf10d%2Fimg%2Favatars%2Fava_0012-72.png",
            "first_name": "",
            "real_name": "Danny Lämmerhirt",
            "display_name": "Danny Lämmerhirt",
            "team": "T48QEEVTJ",
            "name": "danny.laemmerhirt",
            "is_restricted": false,
            "is_ultra_restricted": false
        },
        "blocks": [
            {
                "type": "rich_text",
                "block_id": "rlro",
                "elements": [
                    {
                        "type": "rich_text_section",
                        "elements": [
                            {
                                "type": "text",
                                "text": "Cool, I’ll DM you tomorrow!"
                            }
                        ]
                    }
                ]
            }
        ],
        "thread_ts": "1587023845.319900",
        "parent_user_id": "U011W0CLD27"
    },
    {
        "client_msg_id": "b7984c97-528e-428a-82b1-4618e116e2b6",
        "type": "message",
        "text": "okay, great!",
        "user": "U52KBSW9X",
        "ts": "1587043265.320900",
        "team": "TUU48M0T1",
        "user_team": "T48QEEVTJ",
        "source_team": "T48QEEVTJ",
        "user_profile": {
            "avatar_hash": "079d4f4301af",
            "image_72": "https:\/\/avatars.slack-edge.com\/2019-07-28\/696974040114_079d4f4301af057e28c1_72.jpg",
            "first_name": "Bastian",
            "real_name": "Bastian Greshake Tzovaras",
            "display_name": "gedankenstuecke",
            "team": "T48QEEVTJ",
            "name": "gedankenstuecke",
            "is_restricted": false,
            "is_ultra_restricted": false
        },
        "blocks": [
            {
                "type": "rich_text",
                "block_id": "T6xg",
                "elements": [
                    {
                        "type": "rich_text_section",
                        "elements": [
                            {
                                "type": "text",
                                "text": "okay, great!"
                            }
                        ]
                    }
                ]
            }
        ],
        "thread_ts": "1587023845.319900",
        "parent_user_id": "U011W0CLD27"
    },
    {
        "client_msg_id": "e62cf8ad-0793-43ee-91c0-ef067059b644",
        "type": "message",
        "text": ":+1: super important.",
        "user": "U4EFEMFS9",
        "ts": "1587051025.321100",
        "team": "TUU48M0T1",
        "user_team": "T48QEEVTJ",
        "source_team": "T48QEEVTJ",
        "user_profile": {
            "avatar_hash": "g182c4ed7b70",
            "image_72": "https:\/\/secure.gravatar.com\/avatar\/f182c4ed7b704c54e3c1d1984585e2db.jpg?s=72&d=https%3A%2F%2Fa.slack-edge.com%2Fdf10d%2Fimg%2Favatars%2Fava_0002-72.png",
            "first_name": "Gary",
            "real_name": "Gary Wolf",
            "display_name": "agaricus",
            "team": "T48QEEVTJ",
            "name": "agaricus",
            "is_restricted": false,
            "is_ultra_restricted": false
        },
        "blocks": [
            {
                "type": "rich_text",
                "block_id": "TPj",
                "elements": [
                    {
                        "type": "rich_text_section",
                        "elements": [
                            {
                                "type": "emoji",
                                "name": "+1"
                            },
                            {
                                "type": "text",
                                "text": " super important."
                            }
                        ]
                    }
                ]
            }
        ],
        "thread_ts": "1586944785.317400",
        "parent_user_id": "U52KBSW9X"
    },
    {
        "client_msg_id": "8c43faf3-5870-4211-9d3b-87e32b2a70d7",
        "type": "message",
        "text": "reflecting <@U4EFEMFS9> noting how important it is to be able to edit past reports: today someone reached out asking if it was possible – so – _yes_, that should go on the TODO list!\n\nand I finished some code\/config to add Apple login to the main site (<http:\/\/openhumans.org|openhumans.org>), which seems working (not deployed yet, I'll let Bastian double check it) :sweat_smile:  … that was a blocker for getting apple watch heart rate data via the iOS mobile app Lukasz Baldy created :sparkling_heart: (and Bastian can find out what the _next_ reason to reject the app is :joy:)",
        "user": "U4A6D8F6J",
        "ts": "1587080115.328500",
        "team": "TUU48M0T1",
        "user_team": "T48QEEVTJ",
        "source_team": "T48QEEVTJ",
        "user_profile": {
            "avatar_hash": "4dc43012615b",
            "image_72": "https:\/\/avatars.slack-edge.com\/2019-10-17\/801801580071_4dc43012615b2074c521_72.jpg",
            "first_name": "Mad",
            "real_name": "Mad Price Ball",
            "display_name": "madprime",
            "team": "T48QEEVTJ",
            "name": "madprime",
            "is_restricted": false,
            "is_ultra_restricted": false
        },
        "blocks": [
            {
                "type": "rich_text",
                "block_id": "ui4y",
                "elements": [
                    {
                        "type": "rich_text_section",
                        "elements": [
                            {
                                "type": "text",
                                "text": "reflecting "
                            },
                            {
                                "type": "user",
                                "user_id": "U4EFEMFS9"
                            },
                            {
                                "type": "text",
                                "text": " noting how important it is to be able to edit past reports: today someone reached out asking if it was possible – so – "
                            },
                            {
                                "type": "text",
                                "text": "yes",
                                "style": {
                                    "italic": true
                                }
                            },
                            {
                                "type": "text",
                                "text": ", that should go on the TODO list!\n\nand I finished some code\/config to add Apple login to the main site ("
                            },
                            {
                                "type": "link",
                                "url": "http:\/\/openhumans.org",
                                "text": "openhumans.org"
                            },
                            {
                                "type": "text",
                                "text": "), which seems working (not deployed yet, I'll let Bastian double check it) "
                            },
                            {
                                "type": "emoji",
                                "name": "sweat_smile"
                            },
                            {
                                "type": "text",
                                "text": "  … that was a blocker for getting apple watch heart rate data via the iOS mobile app Lukasz Baldy created "
                            },
                            {
                                "type": "emoji",
                                "name": "sparkling_heart"
                            },
                            {
                                "type": "text",
                                "text": " (and Bastian can find out what the "
                            },
                            {
                                "type": "text",
                                "text": "next",
                                "style": {
                                    "italic": true
                                }
                            },
                            {
                                "type": "text",
                                "text": " reason to reject the app is "
                            },
                            {
                                "type": "emoji",
                                "name": "joy"
                            },
                            {
                                "type": "text",
                                "text": ")"
                            }
                        ]
                    }
                ]
            }
        ],
        "reactions": [
            {
                "name": "+1",
                "users": [
                    "U52KBSW9X",
                    "U49KHPBUJ"
                ],
                "count": 2
            }
        ]
    }
]