[
    {
        "client_msg_id": "8a75f1ff-8b76-4e2a-80f0-1a747d195668",
        "type": "message",
        "text": "Here's a directory collecting all the SVG and 1024x1024 logos, and a google doc reflecting on the rebranding need, and lists the icons, and suggested names.\n\ndoc, easier to read, commentable: <https:\/\/docs.google.com\/document\/d\/1trKviR47gTjxrLwpdZdtCJkCnyIsGMP3q-8NLMnZSos\/edit#heading=h.5mjmrxy8fs9u>\n\ndirectory: <https:\/\/drive.google.com\/drive\/folders\/1XVL6CLrLwfbHvhU7RlVMt2V-mKzPzQPx?usp=sharing>\n\n<@U52KBSW9X> I'm sorry I failed to share these links yesterday!",
        "user": "U4A6D8F6J",
        "ts": "1586002919.212800",
        "team": "TUU48M0T1",
        "user_team": "T48QEEVTJ",
        "source_team": "T48QEEVTJ",
        "user_profile": {
            "avatar_hash": "4dc43012615b",
            "image_72": "https:\/\/avatars.slack-edge.com\/2019-10-17\/801801580071_4dc43012615b2074c521_72.jpg",
            "first_name": "Mad",
            "real_name": "Mad Price Ball",
            "display_name": "madprime",
            "team": "T48QEEVTJ",
            "name": "madprime",
            "is_restricted": false,
            "is_ultra_restricted": false
        },
        "blocks": [
            {
                "type": "rich_text",
                "block_id": "\/Ga",
                "elements": [
                    {
                        "type": "rich_text_section",
                        "elements": [
                            {
                                "type": "text",
                                "text": "Here's a directory collecting all the SVG and 1024x1024 logos, and a google doc reflecting on the rebranding need, and lists the icons, and suggested names.\n\ndoc, easier to read, commentable: "
                            },
                            {
                                "type": "link",
                                "url": "https:\/\/docs.google.com\/document\/d\/1trKviR47gTjxrLwpdZdtCJkCnyIsGMP3q-8NLMnZSos\/edit#heading=h.5mjmrxy8fs9u"
                            },
                            {
                                "type": "text",
                                "text": "\n\ndirectory: "
                            },
                            {
                                "type": "link",
                                "url": "https:\/\/drive.google.com\/drive\/folders\/1XVL6CLrLwfbHvhU7RlVMt2V-mKzPzQPx?usp=sharing"
                            },
                            {
                                "type": "text",
                                "text": "\n\n"
                            },
                            {
                                "type": "user",
                                "user_id": "U52KBSW9X"
                            },
                            {
                                "type": "text",
                                "text": " I'm sorry I failed to share these links yesterday!"
                            }
                        ]
                    }
                ]
            }
        ],
        "thread_ts": "1585904263.175000",
        "parent_user_id": "U52KBSW9X"
    },
    {
        "client_msg_id": "a86efcae-fd55-404b-8314-89b2b819161a",
        "type": "message",
        "text": "thanks <@U4A6D8F6J>! I’m taking today off but will get started on the rebranding tomorrow! :slightly_smiling_face:",
        "user": "U52KBSW9X",
        "ts": "1586025728.213200",
        "team": "TUU48M0T1",
        "user_team": "T48QEEVTJ",
        "source_team": "T48QEEVTJ",
        "user_profile": {
            "avatar_hash": "079d4f4301af",
            "image_72": "https:\/\/avatars.slack-edge.com\/2019-07-28\/696974040114_079d4f4301af057e28c1_72.jpg",
            "first_name": "Bastian",
            "real_name": "Bastian Greshake Tzovaras",
            "display_name": "gedankenstuecke",
            "team": "T48QEEVTJ",
            "name": "gedankenstuecke",
            "is_restricted": false,
            "is_ultra_restricted": false
        },
        "blocks": [
            {
                "type": "rich_text",
                "block_id": "iUwF",
                "elements": [
                    {
                        "type": "rich_text_section",
                        "elements": [
                            {
                                "type": "text",
                                "text": "thanks "
                            },
                            {
                                "type": "user",
                                "user_id": "U4A6D8F6J"
                            },
                            {
                                "type": "text",
                                "text": "! I’m taking today off but will get started on the rebranding tomorrow! "
                            },
                            {
                                "type": "emoji",
                                "name": "slightly_smiling_face"
                            }
                        ]
                    }
                ]
            }
        ],
        "thread_ts": "1585904263.175000",
        "parent_user_id": "U52KBSW9X"
    }
]