[
    {
        "client_msg_id": "95f34673-cc78-4093-8864-023320ff9fc0",
        "type": "message",
        "text": "yep, as I had feared, that’s their reasoning and they won’t move from the position that we’ll need to also offer Sign-in with apple due to the offer of using facebook &amp; google :disappointed:",
        "user": "U52KBSW9X",
        "ts": "1586160377.232500",
        "team": "TUU48M0T1",
        "user_team": "T48QEEVTJ",
        "source_team": "T48QEEVTJ",
        "user_profile": {
            "avatar_hash": "079d4f4301af",
            "image_72": "https:\/\/avatars.slack-edge.com\/2019-07-28\/696974040114_079d4f4301af057e28c1_72.jpg",
            "first_name": "Bastian",
            "real_name": "Bastian Greshake Tzovaras",
            "display_name": "gedankenstuecke",
            "team": "T48QEEVTJ",
            "name": "gedankenstuecke",
            "is_restricted": false,
            "is_ultra_restricted": false
        },
        "blocks": [
            {
                "type": "rich_text",
                "block_id": "NdWgM",
                "elements": [
                    {
                        "type": "rich_text_section",
                        "elements": [
                            {
                                "type": "text",
                                "text": "yep, as I had feared, that’s their reasoning and they won’t move from the position that we’ll need to also offer Sign-in with apple due to the offer of using facebook & google "
                            },
                            {
                                "type": "emoji",
                                "name": "disappointed"
                            }
                        ]
                    }
                ]
            }
        ],
        "thread_ts": "1586105872.217500",
        "parent_user_id": "U52KBSW9X"
    },
    {
        "client_msg_id": "30716100-6006-4bd4-96a0-7c6c7d273439",
        "type": "message",
        "text": "our friend Aaron wrote a good primer of how their sign-in works as it’s OAuth2+ <https:\/\/developer.okta.com\/blog\/2019\/06\/04\/what-the-heck-is-sign-in-with-apple>",
        "user": "U52KBSW9X",
        "ts": "1586160412.232700",
        "team": "TUU48M0T1",
        "user_team": "T48QEEVTJ",
        "source_team": "T48QEEVTJ",
        "user_profile": {
            "avatar_hash": "079d4f4301af",
            "image_72": "https:\/\/avatars.slack-edge.com\/2019-07-28\/696974040114_079d4f4301af057e28c1_72.jpg",
            "first_name": "Bastian",
            "real_name": "Bastian Greshake Tzovaras",
            "display_name": "gedankenstuecke",
            "team": "T48QEEVTJ",
            "name": "gedankenstuecke",
            "is_restricted": false,
            "is_ultra_restricted": false
        },
        "attachments": [
            {
                "service_name": "Okta Developer",
                "title": "What the Heck is Sign In with Apple?",
                "title_link": "https:\/\/developer.okta.com\/blog\/2019\/06\/04\/what-the-heck-is-sign-in-with-apple",
                "text": "Sign In with Apple is based on OAuth 2.0 and OpenID Connect, and provides a privacy-friendly way for users to sign in to websites and apps",
                "fallback": "Okta Developer: What the Heck is Sign In with Apple?",
                "image_url": "https:\/\/developer.okta.com\/assets-jekyll\/blog\/sign-in-with-apple\/sign-in-with-apple-9128077e7407c305ff6af5137ff0c34168be629518d5a8bd430000894759b067.jpg",
                "from_url": "https:\/\/developer.okta.com\/blog\/2019\/06\/04\/what-the-heck-is-sign-in-with-apple",
                "image_width": 401,
                "image_height": 250,
                "image_bytes": 515160,
                "service_icon": "https:\/\/developer.okta.com\/assets-jekyll\/favicon\/apple-touch-icon.png",
                "id": 1,
                "original_url": "https:\/\/developer.okta.com\/blog\/2019\/06\/04\/what-the-heck-is-sign-in-with-apple"
            }
        ],
        "blocks": [
            {
                "type": "rich_text",
                "block_id": "UI1",
                "elements": [
                    {
                        "type": "rich_text_section",
                        "elements": [
                            {
                                "type": "text",
                                "text": "our friend Aaron wrote a good primer of how their sign-in works as it’s OAuth2+ "
                            },
                            {
                                "type": "link",
                                "url": "https:\/\/developer.okta.com\/blog\/2019\/06\/04\/what-the-heck-is-sign-in-with-apple"
                            }
                        ]
                    }
                ]
            }
        ],
        "thread_ts": "1586105872.217500",
        "parent_user_id": "U52KBSW9X"
    },
    {
        "client_msg_id": "F1AC1677-1AFC-4D81-87A7-00ADDDA71389",
        "type": "message",
        "text": "I’m tempted to rant about this, but want to check\/understand how this happened. How did they even see the social buttons on open humans? Those aren’t part of the app.\n\nDid they test it themselves? Were screenshots given to them? (If it’s the latter, I would wonder if there’s confusion regarding that screen being part of the mobile app, rather than on another site.)",
        "user": "U4A6D8F6J",
        "ts": "1586179418.237000",
        "team": "TUU48M0T1",
        "user_team": "T48QEEVTJ",
        "source_team": "T48QEEVTJ",
        "user_profile": {
            "avatar_hash": "4dc43012615b",
            "image_72": "https:\/\/avatars.slack-edge.com\/2019-10-17\/801801580071_4dc43012615b2074c521_72.jpg",
            "first_name": "Mad",
            "real_name": "Mad Price Ball",
            "display_name": "madprime",
            "team": "T48QEEVTJ",
            "name": "madprime",
            "is_restricted": false,
            "is_ultra_restricted": false
        },
        "blocks": [
            {
                "type": "rich_text",
                "block_id": "XU=O",
                "elements": [
                    {
                        "type": "rich_text_section",
                        "elements": [
                            {
                                "type": "text",
                                "text": "I’m tempted to rant about this, but want to check\/understand how this happened. How did they even see the social buttons on open humans? Those aren’t part of the app.\n"
                            },
                            {
                                "type": "text",
                                "text": "\n"
                            },
                            {
                                "type": "text",
                                "text": "Did they test it themselves? Were screenshots given to them? (If it’s the latter, I would wonder if there’s confusion regarding that screen being part of the mobile app, rather than on another site.)"
                            }
                        ]
                    }
                ]
            }
        ],
        "thread_ts": "1586105872.217500",
        "parent_user_id": "U52KBSW9X"
    },
    {
        "client_msg_id": "b45893cf-d21d-4bde-bfa3-f805fa70b9fd",
        "type": "message",
        "text": "yes, they tested it",
        "user": "U52KBSW9X",
        "ts": "1586179821.237200",
        "team": "TUU48M0T1",
        "user_team": "T48QEEVTJ",
        "source_team": "T48QEEVTJ",
        "user_profile": {
            "avatar_hash": "079d4f4301af",
            "image_72": "https:\/\/avatars.slack-edge.com\/2019-07-28\/696974040114_079d4f4301af057e28c1_72.jpg",
            "first_name": "Bastian",
            "real_name": "Bastian Greshake Tzovaras",
            "display_name": "gedankenstuecke",
            "team": "T48QEEVTJ",
            "name": "gedankenstuecke",
            "is_restricted": false,
            "is_ultra_restricted": false
        },
        "blocks": [
            {
                "type": "rich_text",
                "block_id": "\/E8V",
                "elements": [
                    {
                        "type": "rich_text_section",
                        "elements": [
                            {
                                "type": "text",
                                "text": "yes, they tested it"
                            }
                        ]
                    }
                ]
            }
        ],
        "thread_ts": "1586105872.217500",
        "parent_user_id": "U52KBSW9X"
    },
    {
        "client_msg_id": "925e2b18-e564-41b5-801a-790c72b2c8b2",
        "type": "message",
        "text": "you have to provide them with test credentials for logging in",
        "user": "U52KBSW9X",
        "ts": "1586179828.237400",
        "team": "TUU48M0T1",
        "user_team": "T48QEEVTJ",
        "source_team": "T48QEEVTJ",
        "user_profile": {
            "avatar_hash": "079d4f4301af",
            "image_72": "https:\/\/avatars.slack-edge.com\/2019-07-28\/696974040114_079d4f4301af057e28c1_72.jpg",
            "first_name": "Bastian",
            "real_name": "Bastian Greshake Tzovaras",
            "display_name": "gedankenstuecke",
            "team": "T48QEEVTJ",
            "name": "gedankenstuecke",
            "is_restricted": false,
            "is_ultra_restricted": false
        },
        "blocks": [
            {
                "type": "rich_text",
                "block_id": "IOeRo",
                "elements": [
                    {
                        "type": "rich_text_section",
                        "elements": [
                            {
                                "type": "text",
                                "text": "you have to provide them with test credentials for logging in"
                            }
                        ]
                    }
                ]
            }
        ],
        "thread_ts": "1586105872.217500",
        "parent_user_id": "U52KBSW9X"
    },
    {
        "client_msg_id": "00a84100-3403-401b-bf51-2f7cc5457c07",
        "type": "message",
        "text": "but i guess they are bound to see it, because the only button in the app is the login button which directly takes them to the safariuiview with the login page",
        "user": "U52KBSW9X",
        "ts": "1586179897.237600",
        "team": "TUU48M0T1",
        "user_team": "T48QEEVTJ",
        "source_team": "T48QEEVTJ",
        "user_profile": {
            "avatar_hash": "079d4f4301af",
            "image_72": "https:\/\/avatars.slack-edge.com\/2019-07-28\/696974040114_079d4f4301af057e28c1_72.jpg",
            "first_name": "Bastian",
            "real_name": "Bastian Greshake Tzovaras",
            "display_name": "gedankenstuecke",
            "team": "T48QEEVTJ",
            "name": "gedankenstuecke",
            "is_restricted": false,
            "is_ultra_restricted": false
        },
        "blocks": [
            {
                "type": "rich_text",
                "block_id": "5kw",
                "elements": [
                    {
                        "type": "rich_text_section",
                        "elements": [
                            {
                                "type": "text",
                                "text": "but i guess they are bound to see it, because the only button in the app is the login button which directly takes them to the safariuiview with the login page"
                            }
                        ]
                    }
                ]
            }
        ],
        "thread_ts": "1586105872.217500",
        "parent_user_id": "U52KBSW9X"
    },
    {
        "client_msg_id": "418cd852-1b5c-4a0b-a214-7f629dc9d624",
        "type": "message",
        "text": "<https:\/\/www.bbc.com\/news\/uk-52192604>\n*BBC News*\n*<https:\/\/www.bbc.com\/news\/uk-52192604|UK PM Boris Johnson taken to intensive care>*\nUK Prime Minister Boris Johnson, who has coronavirus, has been taken to intensive care",
        "user": "U49KHPBUJ",
        "ts": "1586201306.238000",
        "team": "TUU48M0T1",
        "user_team": "T48QEEVTJ",
        "source_team": "T48QEEVTJ",
        "user_profile": {
            "avatar_hash": "gfeaaafc4cbf",
            "image_72": "https:\/\/secure.gravatar.com\/avatar\/5feaaafc4cbf208f50f9b2807fa791a9.jpg?s=72&d=https%3A%2F%2Fa.slack-edge.com%2Fdf10d%2Fimg%2Favatars%2Fava_0008-72.png",
            "first_name": "Ben",
            "real_name": "Ben Carr",
            "display_name": "benc",
            "team": "T48QEEVTJ",
            "name": "benc",
            "is_restricted": false,
            "is_ultra_restricted": false
        },
        "attachments": [
            {
                "service_name": "BBC News",
                "title": "UK PM Boris Johnson taken to intensive care",
                "title_link": "https:\/\/www.bbc.com\/news\/uk-52192604",
                "text": "UK Prime Minister Boris Johnson, who has coronavirus, has been taken to intensive care",
                "fallback": "BBC News: UK PM Boris Johnson taken to intensive care",
                "image_url": "https:\/\/ichef.bbci.co.uk\/news\/1024\/branded_news\/7A23\/production\/_97176213_breaking_news_bigger.png",
                "from_url": "https:\/\/www.bbc.com\/news\/uk-52192604",
                "image_width": 444,
                "image_height": 250,
                "image_bytes": 275258,
                "service_icon": "https:\/\/static.bbc.co.uk\/news\/1.312.03569\/apple-touch-icon.png",
                "id": 1,
                "original_url": "https:\/\/www.bbc.com\/news\/uk-52192604"
            }
        ],
        "blocks": [
            {
                "type": "rich_text",
                "block_id": "CB2a",
                "elements": [
                    {
                        "type": "rich_text_section",
                        "elements": [
                            {
                                "type": "link",
                                "url": "https:\/\/www.bbc.com\/news\/uk-52192604"
                            },
                            {
                                "type": "text",
                                "text": "\n"
                            },
                            {
                                "type": "text",
                                "text": "BBC News",
                                "style": {
                                    "bold": true
                                }
                            },
                            {
                                "type": "text",
                                "text": "\n"
                            },
                            {
                                "type": "link",
                                "url": "https:\/\/www.bbc.com\/news\/uk-52192604",
                                "text": "UK PM Boris Johnson taken to intensive care",
                                "style": {
                                    "bold": true
                                }
                            },
                            {
                                "type": "text",
                                "text": "\nUK Prime Minister Boris Johnson, who has coronavirus, has been taken to intensive care"
                            }
                        ]
                    }
                ]
            }
        ]
    },
    {
        "type": "message",
        "subtype": "channel_join",
        "ts": "1586203611.238300",
        "user": "U010Z6TNU11",
        "text": "<@U010Z6TNU11> has joined the channel",
        "team": "TUU48M0T1"
    }
]