[
    {
        "client_msg_id": "5119a38f-81f1-4ce6-9675-f2d155cadc9c",
        "type": "message",
        "text": "I ran across this earlier. <https:\/\/covidtrial.io|https:\/\/covidtrial.io>",
        "user": "U6PP2B89F",
        "ts": "1584697273.020300",
        "team": "TUU48M0T1",
        "user_team": "T48QEEVTJ",
        "source_team": "T48QEEVTJ",
        "user_profile": {
            "avatar_hash": "ge6af4f78f3f",
            "image_72": "https:\/\/secure.gravatar.com\/avatar\/7e6af4f78f3f07ffba99504505720bd5.jpg?s=72&d=https%3A%2F%2Fa.slack-edge.com%2Fdf10d%2Fimg%2Favatars%2Fava_0001-72.png",
            "first_name": "Sean",
            "real_name": "Sean Cameron",
            "display_name": "cam",
            "team": "T48QEEVTJ",
            "name": "cam",
            "is_restricted": false,
            "is_ultra_restricted": false
        },
        "attachments": [
            {
                "title": "Chloroquine for COVID19",
                "title_link": "https:\/\/covidtrial.io\/",
                "text": "Prevention &amp; Treatment of COVID19 using Chloroquine",
                "fallback": "Chloroquine for COVID19",
                "fields": [
                    {
                        "title": "Written by",
                        "value": "Lei Ding",
                        "short": true
                    }
                ],
                "from_url": "https:\/\/covidtrial.io\/",
                "service_icon": "https:\/\/www.covidtrial.io\/favicon.ico",
                "service_name": "covidtrial.io",
                "id": 1,
                "original_url": "https:\/\/covidtrial.io"
            }
        ],
        "blocks": [
            {
                "type": "rich_text",
                "block_id": "GX8",
                "elements": [
                    {
                        "type": "rich_text_section",
                        "elements": [
                            {
                                "type": "text",
                                "text": "I ran across this earlier. "
                            },
                            {
                                "type": "link",
                                "url": "https:\/\/covidtrial.io",
                                "text": "https:\/\/covidtrial.io"
                            }
                        ]
                    }
                ]
            }
        ]
    },
    {
        "client_msg_id": "43e0abae-adb8-49f1-bbcb-60524e2163e2",
        "type": "message",
        "text": "I have an honestly strange question for those in molecular pharma world. HCQ (Plaquenil, a freebase molecule), and Adalimumab (Humira, a TNF blocking antibody).\n\nBoth are immunosuppressants which can be used to treat arthritis, and certain autoimmunes, but are mainly used to treat completely different conditions. Beyond that, any similarly in pharmacokinetics? It's a long story, asking for a friend.",
        "user": "U6PP2B89F",
        "ts": "1584697948.028900",
        "team": "TUU48M0T1",
        "user_team": "T48QEEVTJ",
        "source_team": "T48QEEVTJ",
        "user_profile": {
            "avatar_hash": "ge6af4f78f3f",
            "image_72": "https:\/\/secure.gravatar.com\/avatar\/7e6af4f78f3f07ffba99504505720bd5.jpg?s=72&d=https%3A%2F%2Fa.slack-edge.com%2Fdf10d%2Fimg%2Favatars%2Fava_0001-72.png",
            "first_name": "Sean",
            "real_name": "Sean Cameron",
            "display_name": "cam",
            "team": "T48QEEVTJ",
            "name": "cam",
            "is_restricted": false,
            "is_ultra_restricted": false
        },
        "blocks": [
            {
                "type": "rich_text",
                "block_id": "hqyQ",
                "elements": [
                    {
                        "type": "rich_text_section",
                        "elements": [
                            {
                                "type": "text",
                                "text": "I have an honestly strange question for those in molecular pharma world. HCQ (Plaquenil, a freebase molecule), and Adalimumab (Humira, a TNF blocking antibody).\n\nBoth are immunosuppressants which can be used to treat arthritis, and certain autoimmunes, but are mainly used to treat completely different conditions. Beyond that, any similarly in pharmacokinetics? It's a long story, asking for a friend."
                            }
                        ]
                    }
                ]
            }
        ]
    },
    {
        "client_msg_id": "e8719e3a-2aa9-403f-bb82-5564e7244790",
        "type": "message",
        "text": "btw. i listed us at <https:\/\/helpwithcovid.com\/projects\/155>. their website seems to sort all projects by number of volunteers, so right now we’re very buried *wink wink, nudge nudge*",
        "user": "U52KBSW9X",
        "ts": "1584699082.029600",
        "team": "TUU48M0T1",
        "user_team": "T48QEEVTJ",
        "source_team": "T48QEEVTJ",
        "user_profile": {
            "avatar_hash": "079d4f4301af",
            "image_72": "https:\/\/avatars.slack-edge.com\/2019-07-28\/696974040114_079d4f4301af057e28c1_72.jpg",
            "first_name": "Bastian",
            "real_name": "Bastian Greshake Tzovaras",
            "display_name": "gedankenstuecke",
            "team": "T48QEEVTJ",
            "name": "gedankenstuecke",
            "is_restricted": false,
            "is_ultra_restricted": false
        },
        "attachments": [
            {
                "title": "Project Quantified Flu",
                "title_link": "https:\/\/helpwithcovid.com\/projects\/155",
                "text": "A clearing house for projects and volunteers that want to help with the COVID-19 crisis",
                "fallback": "Project Quantified Flu",
                "image_url": "https:\/\/www.helpwithcovid.com\/share-image.png",
                "image_width": 476,
                "image_height": 250,
                "from_url": "https:\/\/helpwithcovid.com\/projects\/155",
                "image_bytes": 310697,
                "service_icon": "https:\/\/helpwithcovid.com\/favicon\/apple-icon-180x180.png",
                "service_name": "helpwithcovid.com",
                "id": 1,
                "original_url": "https:\/\/helpwithcovid.com\/projects\/155"
            }
        ],
        "blocks": [
            {
                "type": "rich_text",
                "block_id": "PhA=t",
                "elements": [
                    {
                        "type": "rich_text_section",
                        "elements": [
                            {
                                "type": "text",
                                "text": "btw. i listed us at "
                            },
                            {
                                "type": "link",
                                "url": "https:\/\/helpwithcovid.com\/projects\/155"
                            },
                            {
                                "type": "text",
                                "text": ". their website seems to sort all projects by number of volunteers, so right now we’re very buried "
                            },
                            {
                                "type": "text",
                                "text": "wink wink, nudge nudge",
                                "style": {
                                    "bold": true
                                }
                            }
                        ]
                    }
                ]
            }
        ]
    },
    {
        "type": "message",
        "subtype": "channel_join",
        "ts": "1584702686.029900",
        "user": "U0101GKA2BU",
        "text": "<@U0101GKA2BU> has joined the channel",
        "team": "TUU48M0T1"
    },
    {
        "client_msg_id": "ed88468f-109f-4096-90b5-0201a5dc3d01",
        "type": "message",
        "text": "Hey <!channel>, just to give an update! <@U4A6D8F6J> and I have spent the last two days on improving the web application! <@U4A6D8F6J> has started to work to add the support for the prospective part of the study at <https:\/\/github.com\/madprime\/quantified-flu\/pull\/8> and I’ve started to implement the data fetching for both Oura and Fitbit right into the Quantified Flu app at <https:\/\/github.com\/madprime\/quantified-flu\/pull\/9>, which took me most of today.\n\nThe latter was a lot of reproducing the work of our existing Open Humans data importers, but it’s necessary to minimize the amount of work we make our users jump through. With this they’ll be able to quickly link up both Fitbit &amp; Oura to Quantified Flu without having to visit other Open Humans-apps. I haven’t deployed either updates to our online prototype, but I hope that at some point next week we’ll be able to launch some early version :slightly_smiling_face:",
        "user": "U52KBSW9X",
        "ts": "1584729768.033500",
        "team": "TUU48M0T1",
        "user_team": "T48QEEVTJ",
        "source_team": "T48QEEVTJ",
        "user_profile": {
            "avatar_hash": "079d4f4301af",
            "image_72": "https:\/\/avatars.slack-edge.com\/2019-07-28\/696974040114_079d4f4301af057e28c1_72.jpg",
            "first_name": "Bastian",
            "real_name": "Bastian Greshake Tzovaras",
            "display_name": "gedankenstuecke",
            "team": "T48QEEVTJ",
            "name": "gedankenstuecke",
            "is_restricted": false,
            "is_ultra_restricted": false
        },
        "blocks": [
            {
                "type": "rich_text",
                "block_id": "OKt8z",
                "elements": [
                    {
                        "type": "rich_text_section",
                        "elements": [
                            {
                                "type": "text",
                                "text": "Hey "
                            },
                            {
                                "type": "broadcast",
                                "range": "channel"
                            },
                            {
                                "type": "text",
                                "text": ", just to give an update! "
                            },
                            {
                                "type": "user",
                                "user_id": "U4A6D8F6J"
                            },
                            {
                                "type": "text",
                                "text": " and I have spent the last two days on improving the web application! "
                            },
                            {
                                "type": "user",
                                "user_id": "U4A6D8F6J"
                            },
                            {
                                "type": "text",
                                "text": " has started to work to add the support for the prospective part of the study at "
                            },
                            {
                                "type": "link",
                                "url": "https:\/\/github.com\/madprime\/quantified-flu\/pull\/8"
                            },
                            {
                                "type": "text",
                                "text": " and I’ve started to implement the data fetching for both Oura and Fitbit right into the Quantified Flu app at "
                            },
                            {
                                "type": "link",
                                "url": "https:\/\/github.com\/madprime\/quantified-flu\/pull\/9"
                            },
                            {
                                "type": "text",
                                "text": ", which took me most of today.\n\nThe latter was a lot of reproducing the work of our existing Open Humans data importers, but it’s necessary to minimize the amount of work we make our users jump through. With this they’ll be able to quickly link up both Fitbit & Oura to Quantified Flu without having to visit other Open Humans-apps. I haven’t deployed either updates to our online prototype, but I hope that at some point next week we’ll be able to launch some early version "
                            },
                            {
                                "type": "emoji",
                                "name": "slightly_smiling_face"
                            }
                        ]
                    }
                ]
            }
        ],
        "reactions": [
            {
                "name": "+1",
                "users": [
                    "UV85V64SD",
                    "U0102UHSJ0L"
                ],
                "count": 2
            }
        ]
    },
    {
        "client_msg_id": "c7052397-a124-43e6-81fd-0d7f0306a6c8",
        "type": "message",
        "text": "It’s interesting to hear about people getting sick after they put social distancing measures in place. Makes one curious as to what was overlooked.",
        "user": "UKB404YG1",
        "ts": "1584739107.034400",
        "team": "TUU48M0T1",
        "user_team": "T48QEEVTJ",
        "source_team": "T48QEEVTJ",
        "user_profile": {
            "avatar_hash": "g5c4331926d0",
            "image_72": "https:\/\/secure.gravatar.com\/avatar\/65c4331926d07b6e1fe16e303437e8c5.jpg?s=72&d=https%3A%2F%2Fa.slack-edge.com%2Fdf10d%2Fimg%2Favatars%2Fava_0011-72.png",
            "first_name": "",
            "real_name": "Steven Jonas",
            "display_name": "Steven Jonas",
            "team": "T48QEEVTJ",
            "name": "steven",
            "is_restricted": false,
            "is_ultra_restricted": false
        },
        "blocks": [
            {
                "type": "rich_text",
                "block_id": "dxHb",
                "elements": [
                    {
                        "type": "rich_text_section",
                        "elements": [
                            {
                                "type": "text",
                                "text": "It’s interesting to hear about people getting sick after they put social distancing measures in place. Makes one curious as to what was overlooked."
                            }
                        ]
                    }
                ]
            }
        ],
        "thread_ts": "1584592730.007800",
        "parent_user_id": "U4A6D8F6J"
    },
    {
        "client_msg_id": "05fb5a35-5332-42f4-b8a5-4c734efc297f",
        "type": "message",
        "text": "oh, I think this was just standard incubation period, not something overlooked. he was at daycare up until EOD Friday.",
        "user": "U4A6D8F6J",
        "ts": "1584739185.034600",
        "team": "TUU48M0T1",
        "user_team": "T48QEEVTJ",
        "source_team": "T48QEEVTJ",
        "user_profile": {
            "avatar_hash": "4dc43012615b",
            "image_72": "https:\/\/avatars.slack-edge.com\/2019-10-17\/801801580071_4dc43012615b2074c521_72.jpg",
            "first_name": "Mad",
            "real_name": "Mad Price Ball",
            "display_name": "madprime",
            "team": "T48QEEVTJ",
            "name": "madprime",
            "is_restricted": false,
            "is_ultra_restricted": false
        },
        "blocks": [
            {
                "type": "rich_text",
                "block_id": "EJB",
                "elements": [
                    {
                        "type": "rich_text_section",
                        "elements": [
                            {
                                "type": "text",
                                "text": "oh, I think this was just standard incubation period, not something overlooked. he was at daycare up until EOD Friday."
                            }
                        ]
                    }
                ]
            }
        ],
        "thread_ts": "1584592730.007800",
        "parent_user_id": "U4A6D8F6J"
    },
    {
        "client_msg_id": "cba714c0-7027-4e27-878d-8c26afbb7fbd",
        "type": "message",
        "text": "Ah, that illustrates how I don’t have a good mental model of those infection dynamics (the time of transmission, the incubation period, the contagious period) and how they overlap and how it’s different for various afflictions.",
        "user": "UKB404YG1",
        "ts": "1584739507.034800",
        "team": "TUU48M0T1",
        "user_team": "T48QEEVTJ",
        "source_team": "T48QEEVTJ",
        "user_profile": {
            "avatar_hash": "g5c4331926d0",
            "image_72": "https:\/\/secure.gravatar.com\/avatar\/65c4331926d07b6e1fe16e303437e8c5.jpg?s=72&d=https%3A%2F%2Fa.slack-edge.com%2Fdf10d%2Fimg%2Favatars%2Fava_0011-72.png",
            "first_name": "",
            "real_name": "Steven Jonas",
            "display_name": "Steven Jonas",
            "team": "T48QEEVTJ",
            "name": "steven",
            "is_restricted": false,
            "is_ultra_restricted": false
        },
        "blocks": [
            {
                "type": "rich_text",
                "block_id": "yeO",
                "elements": [
                    {
                        "type": "rich_text_section",
                        "elements": [
                            {
                                "type": "text",
                                "text": "Ah, that illustrates how I don’t have a good mental model of those infection dynamics (the time of transmission, the incubation period, the contagious period) and how they overlap and how it’s different for various afflictions."
                            }
                        ]
                    }
                ]
            }
        ],
        "thread_ts": "1584592730.007800",
        "parent_user_id": "U4A6D8F6J"
    },
    {
        "client_msg_id": "65556f3e-5350-452c-a579-f10c6fac0551",
        "type": "message",
        "text": "yeah! I don't know them well at _all_ but I've started tracking illness in the family with the new thermometer so I'm looking forward to observing that – it's probably my main motivation for doing it.\n\n(X got sick… then Y got sick… then Z got sick… this pattern happens, but it'll be more fun if I'm recording it.)\n\nNext is, of course, to see who else in the family gets sick (and how) in the next week: it'll be from the baby, almost certainly. and rare to have this sort of isolated explanation!",
        "user": "U4A6D8F6J",
        "ts": "1584739727.035000",
        "team": "TUU48M0T1",
        "user_team": "T48QEEVTJ",
        "source_team": "T48QEEVTJ",
        "user_profile": {
            "avatar_hash": "4dc43012615b",
            "image_72": "https:\/\/avatars.slack-edge.com\/2019-10-17\/801801580071_4dc43012615b2074c521_72.jpg",
            "first_name": "Mad",
            "real_name": "Mad Price Ball",
            "display_name": "madprime",
            "team": "T48QEEVTJ",
            "name": "madprime",
            "is_restricted": false,
            "is_ultra_restricted": false
        },
        "blocks": [
            {
                "type": "rich_text",
                "block_id": "iPeo",
                "elements": [
                    {
                        "type": "rich_text_section",
                        "elements": [
                            {
                                "type": "text",
                                "text": "yeah! I don't know them well at "
                            },
                            {
                                "type": "text",
                                "text": "all",
                                "style": {
                                    "italic": true
                                }
                            },
                            {
                                "type": "text",
                                "text": " but I've started tracking illness in the family with the new thermometer so I'm looking forward to observing that – it's probably my main motivation for doing it.\n\n(X got sick… then Y got sick… then Z got sick… this pattern happens, but it'll be more fun if I'm recording it.)\n\nNext is, of course, to see who else in the family gets sick (and how) in the next week: it'll be from the baby, almost certainly. and rare to have this sort of isolated explanation!"
                            }
                        ]
                    }
                ]
            }
        ],
        "thread_ts": "1584592730.007800",
        "parent_user_id": "U4A6D8F6J"
    }
]