[
    {
        "client_msg_id": "58416c8b-a76b-40bb-99d6-37763a56fc24",
        "type": "message",
        "text": "also <@UHFUVU5C4> might be able to share his CSV for a start!",
        "user": "U52KBSW9X",
        "ts": "1586937315.312600",
        "team": "TUU48M0T1",
        "user_team": "T48QEEVTJ",
        "source_team": "T48QEEVTJ",
        "user_profile": {
            "avatar_hash": "079d4f4301af",
            "image_72": "https:\/\/avatars.slack-edge.com\/2019-07-28\/696974040114_079d4f4301af057e28c1_72.jpg",
            "first_name": "Bastian",
            "real_name": "Bastian Greshake Tzovaras",
            "display_name": "gedankenstuecke",
            "team": "T48QEEVTJ",
            "name": "gedankenstuecke",
            "is_restricted": false,
            "is_ultra_restricted": false
        },
        "edited": {
            "user": "U52KBSW9X",
            "ts": "1586937332.000000"
        },
        "blocks": [
            {
                "type": "rich_text",
                "block_id": "Tuc7",
                "elements": [
                    {
                        "type": "rich_text_section",
                        "elements": [
                            {
                                "type": "text",
                                "text": "also "
                            },
                            {
                                "type": "user",
                                "user_id": "UHFUVU5C4"
                            },
                            {
                                "type": "text",
                                "text": " might be able to share his CSV for a start!"
                            }
                        ]
                    }
                ]
            }
        ],
        "thread_ts": "1586684890.300900",
        "parent_user_id": "UHFUVU5C4"
    },
    {
        "client_msg_id": "6faf8c3d-05e5-4f4e-9cf5-592d21283915",
        "type": "message",
        "text": "The UK metoffice has a service but I am not sure if this is available via their API  <https:\/\/www.metoffice.gov.uk\/weather\/warnings-and-advice\/seasonal-advice\/pollen-forecast#?date=2020-04-15>  I also find the results too general.  Where I live is 30 miles from the nearest monitoring device.  My hayfever season started about 2 week ago to tree pollen",
        "user": "URHMFRQHK",
        "ts": "1586938535.314400",
        "team": "TUU48M0T1",
        "user_team": "T48QEEVTJ",
        "source_team": "T48QEEVTJ",
        "user_profile": {
            "avatar_hash": "g5cf7ddee9a3",
            "image_72": "https:\/\/secure.gravatar.com\/avatar\/5cf7ddee9a30c58049904c6c9322151c.jpg?s=72&d=https%3A%2F%2Fa.slack-edge.com%2Fdf10d%2Fimg%2Favatars%2Fava_0013-72.png",
            "first_name": "",
            "real_name": "James Littlejohn",
            "display_name": "James Littlejohn",
            "team": "T48QEEVTJ",
            "name": "aboynejames",
            "is_restricted": false,
            "is_ultra_restricted": false
        },
        "attachments": [
            {
                "service_name": "Met Office",
                "title": "Pollen forecast",
                "title_link": "https:\/\/www.metoffice.gov.uk\/weather\/warnings-and-advice\/seasonal-advice\/pollen-forecast#?date=2020-04-15",
                "text": "UK 5 day pollen forecast",
                "fallback": "Met Office: Pollen forecast",
                "thumb_url": "https:\/\/www.metoffice.gov.uk\/binaries\/content\/gallery\/metofficegovuk\/hero-images\/advice\/pollen\/field-of-yellow-flowers.jpg",
                "from_url": "https:\/\/www.metoffice.gov.uk\/weather\/warnings-and-advice\/seasonal-advice\/pollen-forecast#?date=2020-04-15",
                "thumb_width": 1920,
                "thumb_height": 960,
                "service_icon": "https:\/\/www.metoffice.gov.uk\/favicon.ico",
                "id": 1,
                "original_url": "https:\/\/www.metoffice.gov.uk\/weather\/warnings-and-advice\/seasonal-advice\/pollen-forecast#?date=2020-04-15"
            }
        ],
        "blocks": [
            {
                "type": "rich_text",
                "block_id": "93Bd",
                "elements": [
                    {
                        "type": "rich_text_section",
                        "elements": [
                            {
                                "type": "text",
                                "text": "The UK metoffice has a service but I am not sure if this is available via their API  "
                            },
                            {
                                "type": "link",
                                "url": "https:\/\/www.metoffice.gov.uk\/weather\/warnings-and-advice\/seasonal-advice\/pollen-forecast#?date=2020-04-15"
                            },
                            {
                                "type": "text",
                                "text": "  I also find the results too general.  Where I live is 30 miles from the nearest monitoring device.  My hayfever season started about 2 week ago to tree pollen"
                            }
                        ]
                    }
                ]
            }
        ]
    },
    {
        "client_msg_id": "46a50069-d951-4443-bd25-6810da32b46c",
        "type": "message",
        "text": "btw. during the community call yesterday, <@U4A6D8F6J> shared this symptom report of a contributor who thinks he has covid-19: <https:\/\/quantifiedflu.org\/report\/list\/member\/25102556> (you can’t see the notes in the frontend yet, but if you look at the raw-data-json you can read them: <https:\/\/quantifiedflu.org\/report\/list\/member\/25102556.json>) Extremely interesting to see this.\n\nYou can also compare this to the report another contributor makes here: <https:\/\/quantifiedflu.org\/report\/list\/member\/49795674> (details at <https:\/\/quantifiedflu.org\/report\/list\/member\/49795674.json>)\n\nI think it’s really a great example of how important context is for such data collection. (e.g. the 2nd contributor goes into details of how this is a yearly sinus infection + coughs rather than being a covid-symptom being a result of smoking more due to being out of a job)",
        "user": "U52KBSW9X",
        "ts": "1586944785.317400",
        "team": "TUU48M0T1",
        "user_team": "T48QEEVTJ",
        "source_team": "T48QEEVTJ",
        "user_profile": {
            "avatar_hash": "079d4f4301af",
            "image_72": "https:\/\/avatars.slack-edge.com\/2019-07-28\/696974040114_079d4f4301af057e28c1_72.jpg",
            "first_name": "Bastian",
            "real_name": "Bastian Greshake Tzovaras",
            "display_name": "gedankenstuecke",
            "team": "T48QEEVTJ",
            "name": "gedankenstuecke",
            "is_restricted": false,
            "is_ultra_restricted": false
        },
        "attachments": [
            {
                "title": "Quantified Flu",
                "title_link": "https:\/\/quantifiedflu.org\/report\/list\/member\/25102556",
                "text": "Quantified Flu is a project to explore personal tracking and infectious disease",
                "fallback": "Quantified Flu",
                "from_url": "https:\/\/quantifiedflu.org\/report\/list\/member\/25102556",
                "service_icon": "https:\/\/quantifiedflu.org\/static\/img\/favicon-32x32.ec5b54e60581.png",
                "service_name": "quantifiedflu.org",
                "id": 1,
                "original_url": "https:\/\/quantifiedflu.org\/report\/list\/member\/25102556"
            },
            {
                "title": "Quantified Flu",
                "title_link": "https:\/\/quantifiedflu.org\/report\/list\/member\/49795674",
                "text": "Quantified Flu is a project to explore personal tracking and infectious disease",
                "fallback": "Quantified Flu",
                "from_url": "https:\/\/quantifiedflu.org\/report\/list\/member\/49795674",
                "service_icon": "https:\/\/quantifiedflu.org\/static\/img\/favicon-32x32.ec5b54e60581.png",
                "service_name": "quantifiedflu.org",
                "id": 2,
                "original_url": "https:\/\/quantifiedflu.org\/report\/list\/member\/49795674"
            }
        ],
        "blocks": [
            {
                "type": "rich_text",
                "block_id": "nXN",
                "elements": [
                    {
                        "type": "rich_text_section",
                        "elements": [
                            {
                                "type": "text",
                                "text": "btw. during the community call yesterday, "
                            },
                            {
                                "type": "user",
                                "user_id": "U4A6D8F6J"
                            },
                            {
                                "type": "text",
                                "text": " shared this symptom report of a contributor who thinks he has covid-19: "
                            },
                            {
                                "type": "link",
                                "url": "https:\/\/quantifiedflu.org\/report\/list\/member\/25102556"
                            },
                            {
                                "type": "text",
                                "text": " (you can’t see the notes in the frontend yet, but if you look at the raw-data-json you can read them: "
                            },
                            {
                                "type": "link",
                                "url": "https:\/\/quantifiedflu.org\/report\/list\/member\/25102556.json"
                            },
                            {
                                "type": "text",
                                "text": ") Extremely interesting to see this.\n\nYou can also compare this to the report another contributor makes here: "
                            },
                            {
                                "type": "link",
                                "url": "https:\/\/quantifiedflu.org\/report\/list\/member\/49795674"
                            },
                            {
                                "type": "text",
                                "text": " (details at "
                            },
                            {
                                "type": "link",
                                "url": "https:\/\/quantifiedflu.org\/report\/list\/member\/49795674.json"
                            },
                            {
                                "type": "text",
                                "text": ")\n\nI think it’s really a great example of how important context is for such data collection. (e.g. the 2nd contributor goes into details of how this is a yearly sinus infection + coughs rather than being a covid-symptom being a result of smoking more due to being out of a job)"
                            }
                        ]
                    }
                ]
            }
        ],
        "thread_ts": "1586944785.317400",
        "reply_count": 1,
        "reply_users_count": 1,
        "latest_reply": "1587051025.321100",
        "reply_users": [
            "U4EFEMFS9"
        ],
        "replies": [
            {
                "user": "U4EFEMFS9",
                "ts": "1587051025.321100"
            }
        ],
        "subscribed": false,
        "reactions": [
            {
                "name": "+1::skin-tone-5",
                "users": [
                    "US5J9BX0S"
                ],
                "count": 1
            }
        ]
    },
    {
        "client_msg_id": "d1a7760a-d32c-41c1-850e-73364d100bea",
        "type": "message",
        "text": ":wave: let me be annoying again :joy:",
        "user": "U52KBSW9X",
        "ts": "1586945206.317600",
        "team": "TUU48M0T1",
        "user_team": "T48QEEVTJ",
        "source_team": "T48QEEVTJ",
        "user_profile": {
            "avatar_hash": "079d4f4301af",
            "image_72": "https:\/\/avatars.slack-edge.com\/2019-07-28\/696974040114_079d4f4301af057e28c1_72.jpg",
            "first_name": "Bastian",
            "real_name": "Bastian Greshake Tzovaras",
            "display_name": "gedankenstuecke",
            "team": "T48QEEVTJ",
            "name": "gedankenstuecke",
            "is_restricted": false,
            "is_ultra_restricted": false
        },
        "blocks": [
            {
                "type": "rich_text",
                "block_id": "1=T",
                "elements": [
                    {
                        "type": "rich_text_section",
                        "elements": [
                            {
                                "type": "emoji",
                                "name": "wave"
                            },
                            {
                                "type": "text",
                                "text": " let me be annoying again "
                            },
                            {
                                "type": "emoji",
                                "name": "joy"
                            }
                        ]
                    }
                ]
            }
        ],
        "thread_ts": "1585104612.000500",
        "parent_user_id": "U4AGJ7L87"
    },
    {
        "client_msg_id": "2c3be5f6-c7a9-47c7-9809-e08f47e58950",
        "type": "message",
        "text": "But seriously, hope you had a great weekend and got some rest :heart:",
        "user": "U52KBSW9X",
        "ts": "1586945218.317800",
        "team": "TUU48M0T1",
        "user_team": "T48QEEVTJ",
        "source_team": "T48QEEVTJ",
        "user_profile": {
            "avatar_hash": "079d4f4301af",
            "image_72": "https:\/\/avatars.slack-edge.com\/2019-07-28\/696974040114_079d4f4301af057e28c1_72.jpg",
            "first_name": "Bastian",
            "real_name": "Bastian Greshake Tzovaras",
            "display_name": "gedankenstuecke",
            "team": "T48QEEVTJ",
            "name": "gedankenstuecke",
            "is_restricted": false,
            "is_ultra_restricted": false
        },
        "blocks": [
            {
                "type": "rich_text",
                "block_id": "F8sH",
                "elements": [
                    {
                        "type": "rich_text_section",
                        "elements": [
                            {
                                "type": "text",
                                "text": "But seriously, hope you had a great weekend and got some rest "
                            },
                            {
                                "type": "emoji",
                                "name": "heart"
                            }
                        ]
                    }
                ]
            }
        ],
        "thread_ts": "1585104612.000500",
        "parent_user_id": "U4AGJ7L87"
    },
    {
        "type": "message",
        "text": "Here it is <@U011N2YE97C>",
        "files": [
            {
                "id": "F011ETCN5V5",
                "created": 1586946685,
                "timestamp": 1586946685,
                "name": "symptoms.csv",
                "title": "symptoms.csv",
                "mimetype": "text\/csv",
                "filetype": "csv",
                "pretty_type": "CSV",
                "user": "UHFUVU5C4",
                "editable": true,
                "size": 1258,
                "mode": "snippet",
                "is_external": false,
                "external_type": "",
                "is_public": true,
                "public_url_shared": false,
                "display_as_bot": false,
                "username": "",
                "url_private": "https:\/\/files.slack.com\/files-pri\/T48QEEVTJ-F011ETCN5V5\/symptoms.csv?t=xoxe-980144714919-1106606678066-1105227127893-6f722bb664235052954ad46852628b64",
                "url_private_download": "https:\/\/files.slack.com\/files-pri\/T48QEEVTJ-F011ETCN5V5\/download\/symptoms.csv?t=xoxe-980144714919-1106606678066-1105227127893-6f722bb664235052954ad46852628b64",
                "permalink": "https:\/\/openhumans.slack.com\/files\/UHFUVU5C4\/F011ETCN5V5\/symptoms.csv",
                "permalink_public": "https:\/\/slack-files.com\/T48QEEVTJ-F011ETCN5V5-d52141585d",
                "edit_link": "https:\/\/openhumans.slack.com\/files\/UHFUVU5C4\/F011ETCN5V5\/symptoms.csv\/edit",
                "user_team": "T48QEEVTJ",
                "source_team": "T48QEEVTJ",
                "is_starred": false,
                "has_rich_preview": false
            }
        ],
        "upload": true,
        "blocks": [
            {
                "type": "rich_text",
                "block_id": "Lm265",
                "elements": [
                    {
                        "type": "rich_text_section",
                        "elements": [
                            {
                                "type": "text",
                                "text": "Here it is "
                            },
                            {
                                "type": "user",
                                "user_id": "U011N2YE97C"
                            }
                        ]
                    }
                ]
            }
        ],
        "user": "UHFUVU5C4",
        "display_as_bot": false,
        "team": "TUU48M0T1",
        "ts": "1586946686.318000",
        "client_msg_id": "ee3a5fb2-5689-4019-8c2e-ed2acb682efc",
        "user_team": "T48QEEVTJ",
        "source_team": "T48QEEVTJ",
        "user_profile": {
            "avatar_hash": "g3997b4a982b",
            "image_72": "https:\/\/secure.gravatar.com\/avatar\/63997b4a982b774cfbb92103ee33d527.jpg?s=72&d=https%3A%2F%2Fa.slack-edge.com%2Fdf10d%2Fimg%2Favatars%2Fava_0019-72.png",
            "first_name": "",
            "real_name": "Iain Henderson",
            "display_name": "",
            "team": "T48QEEVTJ",
            "name": "iainhenderson",
            "is_restricted": false,
            "is_ultra_restricted": false
        },
        "thread_ts": "1586684890.300900",
        "parent_user_id": "UHFUVU5C4"
    },
    {
        "client_msg_id": "4b939ab5-1480-4f6d-b593-f694c8d1d7d8",
        "type": "message",
        "text": "awesome, thanks!",
        "user": "U52KBSW9X",
        "ts": "1586947865.318400",
        "team": "TUU48M0T1",
        "user_team": "T48QEEVTJ",
        "source_team": "T48QEEVTJ",
        "user_profile": {
            "avatar_hash": "079d4f4301af",
            "image_72": "https:\/\/avatars.slack-edge.com\/2019-07-28\/696974040114_079d4f4301af057e28c1_72.jpg",
            "first_name": "Bastian",
            "real_name": "Bastian Greshake Tzovaras",
            "display_name": "gedankenstuecke",
            "team": "T48QEEVTJ",
            "name": "gedankenstuecke",
            "is_restricted": false,
            "is_ultra_restricted": false
        },
        "blocks": [
            {
                "type": "rich_text",
                "block_id": "XDto",
                "elements": [
                    {
                        "type": "rich_text_section",
                        "elements": [
                            {
                                "type": "text",
                                "text": "awesome, thanks!"
                            }
                        ]
                    }
                ]
            }
        ],
        "thread_ts": "1586684890.300900",
        "parent_user_id": "UHFUVU5C4"
    },
    {
        "type": "message",
        "subtype": "channel_join",
        "ts": "1586951673.318700",
        "user": "U011W0CLD27",
        "text": "<@U011W0CLD27> has joined the channel",
        "team": "TUU48M0T1"
    },
    {
        "client_msg_id": "6b83f234-d5e5-4df3-a126-ff4c14fe86df",
        "type": "message",
        "text": "hey <@U011W0CLD27>, welcome!",
        "user": "U52KBSW9X",
        "ts": "1586956886.319100",
        "team": "TUU48M0T1",
        "user_team": "T48QEEVTJ",
        "source_team": "T48QEEVTJ",
        "user_profile": {
            "avatar_hash": "079d4f4301af",
            "image_72": "https:\/\/avatars.slack-edge.com\/2019-07-28\/696974040114_079d4f4301af057e28c1_72.jpg",
            "first_name": "Bastian",
            "real_name": "Bastian Greshake Tzovaras",
            "display_name": "gedankenstuecke",
            "team": "T48QEEVTJ",
            "name": "gedankenstuecke",
            "is_restricted": false,
            "is_ultra_restricted": false
        },
        "blocks": [
            {
                "type": "rich_text",
                "block_id": "5jL+",
                "elements": [
                    {
                        "type": "rich_text_section",
                        "elements": [
                            {
                                "type": "text",
                                "text": "hey "
                            },
                            {
                                "type": "user",
                                "user_id": "U011W0CLD27"
                            },
                            {
                                "type": "text",
                                "text": ", welcome!"
                            }
                        ]
                    }
                ]
            }
        ],
        "reactions": [
            {
                "name": "plusone",
                "users": [
                    "U4A6D8F6J"
                ],
                "count": 1
            }
        ]
    },
    {
        "type": "message",
        "subtype": "channel_join",
        "ts": "1586965021.319400",
        "user": "U011WC2UP5G",
        "text": "<@U011WC2UP5G> has joined the channel",
        "team": "TUU48M0T1"
    }
]