[
    {
        "client_msg_id": "db42e0f3-5c10-454d-8910-d5c1f34a6e17",
        "type": "message",
        "text": "yeah, i think having this approach of using existing data and ‘just’ having to remember the time of when they went sick is the easiest to get participation",
        "user": "U52KBSW9X",
        "ts": "1583917944.000800",
        "team": "TUU48M0T1",
        "user_team": "T48QEEVTJ",
        "source_team": "T48QEEVTJ",
        "user_profile": {
            "avatar_hash": "079d4f4301af",
            "image_72": "https:\/\/avatars.slack-edge.com\/2019-07-28\/696974040114_079d4f4301af057e28c1_72.jpg",
            "first_name": "Bastian",
            "real_name": "Bastian Greshake Tzovaras",
            "display_name": "gedankenstuecke",
            "team": "T48QEEVTJ",
            "name": "gedankenstuecke",
            "is_restricted": false,
            "is_ultra_restricted": false
        },
        "blocks": [
            {
                "type": "rich_text",
                "block_id": "qiG",
                "elements": [
                    {
                        "type": "rich_text_section",
                        "elements": [
                            {
                                "type": "text",
                                "text": "yeah, i think having this approach of using existing data and ‘just’ having to remember the time of when they went sick is the easiest to get participation"
                            }
                        ]
                    }
                ]
            }
        ]
    },
    {
        "type": "message",
        "text": "I looked at the 3 incidents that I could personally remember (red bar the days where I actually came down with my cold as shown by the higher temperature), along with 3 weeks of data before and one after.",
        "files": [
            {
                "id": "FUX1ZFZUH",
                "created": 1583918201,
                "timestamp": 1583918201,
                "name": "image.png",
                "title": "image.png",
                "mimetype": "image\/png",
                "filetype": "png",
                "pretty_type": "PNG",
                "user": "U52KBSW9X",
                "editable": false,
                "size": 171992,
                "mode": "hosted",
                "is_external": false,
                "external_type": "",
                "is_public": true,
                "public_url_shared": false,
                "display_as_bot": false,
                "username": "",
                "url_private": "https:\/\/files.slack.com\/files-pri\/T48QEEVTJ-FUX1ZFZUH\/image.png?t=xoxe-980144714919-1106606678066-1105227127893-6f722bb664235052954ad46852628b64",
                "url_private_download": "https:\/\/files.slack.com\/files-pri\/T48QEEVTJ-FUX1ZFZUH\/download\/image.png?t=xoxe-980144714919-1106606678066-1105227127893-6f722bb664235052954ad46852628b64",
                "thumb_64": "https:\/\/files.slack.com\/files-tmb\/T48QEEVTJ-FUX1ZFZUH-83afaec1f3\/image_64.png?t=xoxe-980144714919-1106606678066-1105227127893-6f722bb664235052954ad46852628b64",
                "thumb_80": "https:\/\/files.slack.com\/files-tmb\/T48QEEVTJ-FUX1ZFZUH-83afaec1f3\/image_80.png?t=xoxe-980144714919-1106606678066-1105227127893-6f722bb664235052954ad46852628b64",
                "thumb_360": "https:\/\/files.slack.com\/files-tmb\/T48QEEVTJ-FUX1ZFZUH-83afaec1f3\/image_360.png?t=xoxe-980144714919-1106606678066-1105227127893-6f722bb664235052954ad46852628b64",
                "thumb_360_w": 360,
                "thumb_360_h": 96,
                "thumb_480": "https:\/\/files.slack.com\/files-tmb\/T48QEEVTJ-FUX1ZFZUH-83afaec1f3\/image_480.png?t=xoxe-980144714919-1106606678066-1105227127893-6f722bb664235052954ad46852628b64",
                "thumb_480_w": 480,
                "thumb_480_h": 128,
                "thumb_160": "https:\/\/files.slack.com\/files-tmb\/T48QEEVTJ-FUX1ZFZUH-83afaec1f3\/image_160.png?t=xoxe-980144714919-1106606678066-1105227127893-6f722bb664235052954ad46852628b64",
                "thumb_720": "https:\/\/files.slack.com\/files-tmb\/T48QEEVTJ-FUX1ZFZUH-83afaec1f3\/image_720.png?t=xoxe-980144714919-1106606678066-1105227127893-6f722bb664235052954ad46852628b64",
                "thumb_720_w": 720,
                "thumb_720_h": 192,
                "thumb_800": "https:\/\/files.slack.com\/files-tmb\/T48QEEVTJ-FUX1ZFZUH-83afaec1f3\/image_800.png?t=xoxe-980144714919-1106606678066-1105227127893-6f722bb664235052954ad46852628b64",
                "thumb_800_w": 800,
                "thumb_800_h": 213,
                "thumb_960": "https:\/\/files.slack.com\/files-tmb\/T48QEEVTJ-FUX1ZFZUH-83afaec1f3\/image_960.png?t=xoxe-980144714919-1106606678066-1105227127893-6f722bb664235052954ad46852628b64",
                "thumb_960_w": 960,
                "thumb_960_h": 256,
                "thumb_1024": "https:\/\/files.slack.com\/files-tmb\/T48QEEVTJ-FUX1ZFZUH-83afaec1f3\/image_1024.png?t=xoxe-980144714919-1106606678066-1105227127893-6f722bb664235052954ad46852628b64",
                "thumb_1024_w": 1024,
                "thumb_1024_h": 273,
                "image_exif_rotation": 1,
                "original_w": 3000,
                "original_h": 800,
                "thumb_tiny": "AwAMADDTBooooAKM0h4GaWgApM0tFAH\/2Q==",
                "permalink": "https:\/\/openhumans.slack.com\/files\/U52KBSW9X\/FUX1ZFZUH\/image.png",
                "permalink_public": "https:\/\/slack-files.com\/T48QEEVTJ-FUX1ZFZUH-670725b95a",
                "user_team": "T48QEEVTJ",
                "source_team": "T48QEEVTJ",
                "is_starred": false,
                "has_rich_preview": false
            }
        ],
        "upload": true,
        "blocks": [
            {
                "type": "rich_text",
                "block_id": "d9JBU",
                "elements": [
                    {
                        "type": "rich_text_section",
                        "elements": [
                            {
                                "type": "text",
                                "text": "I looked at the 3 incidents that I could personally remember (red bar the days where I actually came down with my cold as shown by the higher temperature), along with 3 weeks of data before and one after."
                            }
                        ]
                    }
                ]
            }
        ],
        "user": "U52KBSW9X",
        "display_as_bot": false,
        "ts": "1583918206.000900",
        "client_msg_id": "bb77b14c-6c13-48f4-9944-afe845fbebef",
        "reactions": [
            {
                "name": "heart_eyes",
                "users": [
                    "US5J9BX0S"
                ],
                "count": 1
            }
        ]
    },
    {
        "type": "message",
        "text": "I did the same thing for my nightly heart rate recordings. The Oura ring reports one value for each 5 minute interval. I took all of them, leading to those nightly bands.",
        "files": [
            {
                "id": "FV9AQ2PN2",
                "created": 1583918297,
                "timestamp": 1583918297,
                "name": "image.png",
                "title": "image.png",
                "mimetype": "image\/png",
                "filetype": "png",
                "pretty_type": "PNG",
                "user": "U52KBSW9X",
                "editable": false,
                "size": 598567,
                "mode": "hosted",
                "is_external": false,
                "external_type": "",
                "is_public": true,
                "public_url_shared": false,
                "display_as_bot": false,
                "username": "",
                "url_private": "https:\/\/files.slack.com\/files-pri\/T48QEEVTJ-FV9AQ2PN2\/image.png?t=xoxe-980144714919-1106606678066-1105227127893-6f722bb664235052954ad46852628b64",
                "url_private_download": "https:\/\/files.slack.com\/files-pri\/T48QEEVTJ-FV9AQ2PN2\/download\/image.png?t=xoxe-980144714919-1106606678066-1105227127893-6f722bb664235052954ad46852628b64",
                "thumb_64": "https:\/\/files.slack.com\/files-tmb\/T48QEEVTJ-FV9AQ2PN2-6d88321ae0\/image_64.png?t=xoxe-980144714919-1106606678066-1105227127893-6f722bb664235052954ad46852628b64",
                "thumb_80": "https:\/\/files.slack.com\/files-tmb\/T48QEEVTJ-FV9AQ2PN2-6d88321ae0\/image_80.png?t=xoxe-980144714919-1106606678066-1105227127893-6f722bb664235052954ad46852628b64",
                "thumb_360": "https:\/\/files.slack.com\/files-tmb\/T48QEEVTJ-FV9AQ2PN2-6d88321ae0\/image_360.png?t=xoxe-980144714919-1106606678066-1105227127893-6f722bb664235052954ad46852628b64",
                "thumb_360_w": 360,
                "thumb_360_h": 96,
                "thumb_480": "https:\/\/files.slack.com\/files-tmb\/T48QEEVTJ-FV9AQ2PN2-6d88321ae0\/image_480.png?t=xoxe-980144714919-1106606678066-1105227127893-6f722bb664235052954ad46852628b64",
                "thumb_480_w": 480,
                "thumb_480_h": 128,
                "thumb_160": "https:\/\/files.slack.com\/files-tmb\/T48QEEVTJ-FV9AQ2PN2-6d88321ae0\/image_160.png?t=xoxe-980144714919-1106606678066-1105227127893-6f722bb664235052954ad46852628b64",
                "thumb_720": "https:\/\/files.slack.com\/files-tmb\/T48QEEVTJ-FV9AQ2PN2-6d88321ae0\/image_720.png?t=xoxe-980144714919-1106606678066-1105227127893-6f722bb664235052954ad46852628b64",
                "thumb_720_w": 720,
                "thumb_720_h": 192,
                "thumb_800": "https:\/\/files.slack.com\/files-tmb\/T48QEEVTJ-FV9AQ2PN2-6d88321ae0\/image_800.png?t=xoxe-980144714919-1106606678066-1105227127893-6f722bb664235052954ad46852628b64",
                "thumb_800_w": 800,
                "thumb_800_h": 213,
                "thumb_960": "https:\/\/files.slack.com\/files-tmb\/T48QEEVTJ-FV9AQ2PN2-6d88321ae0\/image_960.png?t=xoxe-980144714919-1106606678066-1105227127893-6f722bb664235052954ad46852628b64",
                "thumb_960_w": 960,
                "thumb_960_h": 256,
                "thumb_1024": "https:\/\/files.slack.com\/files-tmb\/T48QEEVTJ-FV9AQ2PN2-6d88321ae0\/image_1024.png?t=xoxe-980144714919-1106606678066-1105227127893-6f722bb664235052954ad46852628b64",
                "thumb_1024_w": 1024,
                "thumb_1024_h": 273,
                "image_exif_rotation": 1,
                "original_w": 3000,
                "original_h": 800,
                "thumb_tiny": "AwAMADDSyKARRgUYHpQAbh60BhSHgZxS0AG4UbqWigD\/2Q==",
                "permalink": "https:\/\/openhumans.slack.com\/files\/U52KBSW9X\/FV9AQ2PN2\/image.png",
                "permalink_public": "https:\/\/slack-files.com\/T48QEEVTJ-FV9AQ2PN2-797bda8e75",
                "user_team": "T48QEEVTJ",
                "source_team": "T48QEEVTJ",
                "is_starred": false,
                "has_rich_preview": false
            }
        ],
        "upload": true,
        "blocks": [
            {
                "type": "rich_text",
                "block_id": "NiGv",
                "elements": [
                    {
                        "type": "rich_text_section",
                        "elements": [
                            {
                                "type": "text",
                                "text": "I did the same thing for my nightly heart rate recordings. The Oura ring reports one value for each 5 minute interval. I took all of them, leading to those nightly bands."
                            }
                        ]
                    }
                ]
            }
        ],
        "user": "U52KBSW9X",
        "display_as_bot": false,
        "ts": "1583918302.001300",
        "client_msg_id": "3baa141d-a8d6-4f08-b24b-6ea141f51eaf",
        "reactions": [
            {
                "name": "+1::skin-tone-5",
                "users": [
                    "US5J9BX0S"
                ],
                "count": 1
            }
        ]
    },
    {
        "client_msg_id": "ba277fca-a682-4e56-baa8-f03a4c9f0409",
        "type": "message",
        "text": "The september 2019 event shows a rather high increase in HR on the night of, but this needs to be taken with a salt of grain, as I was traveling from Paris to DC and was additionally having jet lag",
        "user": "U52KBSW9X",
        "ts": "1583918307.001600",
        "team": "TUU48M0T1",
        "user_team": "T48QEEVTJ",
        "source_team": "T48QEEVTJ",
        "user_profile": {
            "avatar_hash": "079d4f4301af",
            "image_72": "https:\/\/avatars.slack-edge.com\/2019-07-28\/696974040114_079d4f4301af057e28c1_72.jpg",
            "first_name": "Bastian",
            "real_name": "Bastian Greshake Tzovaras",
            "display_name": "gedankenstuecke",
            "team": "T48QEEVTJ",
            "name": "gedankenstuecke",
            "is_restricted": false,
            "is_ultra_restricted": false
        },
        "blocks": [
            {
                "type": "rich_text",
                "block_id": "M7t",
                "elements": [
                    {
                        "type": "rich_text_section",
                        "elements": [
                            {
                                "type": "text",
                                "text": "The september 2019 event shows a rather high increase in HR on the night of, but this needs to be taken with a salt of grain, as I was traveling from Paris to DC and was additionally having jet lag"
                            }
                        ]
                    }
                ]
            }
        ],
        "reactions": [
            {
                "name": "heart",
                "users": [
                    "U4EFEMFS9",
                    "USBSKSF4Z"
                ],
                "count": 2
            }
        ]
    },
    {
        "client_msg_id": "874d72d0-9aa8-4079-956b-eb400112050f",
        "type": "message",
        "text": "Ok, and cleaned up the notebook I used to make those graphs, and shared it at <https:\/\/exploratory.openhumans.org\/notebook\/83\/> If any of you have an oura ring and can remember flu\/cold days you should be able to run that right away with just changing a single line of the code to enter your own dates",
        "user": "U52KBSW9X",
        "ts": "1583922362.002400",
        "team": "TUU48M0T1",
        "user_team": "T48QEEVTJ",
        "source_team": "T48QEEVTJ",
        "user_profile": {
            "avatar_hash": "079d4f4301af",
            "image_72": "https:\/\/avatars.slack-edge.com\/2019-07-28\/696974040114_079d4f4301af057e28c1_72.jpg",
            "first_name": "Bastian",
            "real_name": "Bastian Greshake Tzovaras",
            "display_name": "gedankenstuecke",
            "team": "T48QEEVTJ",
            "name": "gedankenstuecke",
            "is_restricted": false,
            "is_ultra_restricted": false
        },
        "blocks": [
            {
                "type": "rich_text",
                "block_id": "z5bM6",
                "elements": [
                    {
                        "type": "rich_text_section",
                        "elements": [
                            {
                                "type": "text",
                                "text": "Ok, and cleaned up the notebook I used to make those graphs, and shared it at "
                            },
                            {
                                "type": "link",
                                "url": "https:\/\/exploratory.openhumans.org\/notebook\/83\/"
                            },
                            {
                                "type": "text",
                                "text": " If any of you have an oura ring and can remember flu\/cold days you should be able to run that right away with just changing a single line of the code to enter your own dates"
                            }
                        ]
                    }
                ]
            }
        ]
    },
    {
        "client_msg_id": "0b5a5d2b-f7b2-47c6-8274-c4530448bd94",
        "type": "message",
        "text": "I also made a lesser equivalent for fitbit data: <https:\/\/exploratory.openhumans.org\/notebook\/84\/> The standard fitbit data only contains a single resting HR value per day though, so it’s less useful (plus I only have a single incident in my fitbit data)",
        "user": "U52KBSW9X",
        "ts": "1583930880.003500",
        "team": "TUU48M0T1",
        "user_team": "T48QEEVTJ",
        "source_team": "T48QEEVTJ",
        "user_profile": {
            "avatar_hash": "079d4f4301af",
            "image_72": "https:\/\/avatars.slack-edge.com\/2019-07-28\/696974040114_079d4f4301af057e28c1_72.jpg",
            "first_name": "Bastian",
            "real_name": "Bastian Greshake Tzovaras",
            "display_name": "gedankenstuecke",
            "team": "T48QEEVTJ",
            "name": "gedankenstuecke",
            "is_restricted": false,
            "is_ultra_restricted": false
        },
        "blocks": [
            {
                "type": "rich_text",
                "block_id": "5jOX",
                "elements": [
                    {
                        "type": "rich_text_section",
                        "elements": [
                            {
                                "type": "text",
                                "text": "I also made a lesser equivalent for fitbit data: "
                            },
                            {
                                "type": "link",
                                "url": "https:\/\/exploratory.openhumans.org\/notebook\/84\/"
                            },
                            {
                                "type": "text",
                                "text": " The standard fitbit data only contains a single resting HR value per day though, so it’s less useful (plus I only have a single incident in my fitbit data)"
                            }
                        ]
                    }
                ]
            }
        ]
    },
    {
        "client_msg_id": "9F3885E1-9747-4AB5-8A81-B43CD285289A",
        "type": "message",
        "text": "Would it be helpful to bake these into a project-associated web app to give these visualizations in return for donating data?",
        "user": "U4A6D8F6J",
        "ts": "1583937206.004700",
        "team": "TUU48M0T1",
        "user_team": "T48QEEVTJ",
        "source_team": "T48QEEVTJ",
        "user_profile": {
            "avatar_hash": "4dc43012615b",
            "image_72": "https:\/\/avatars.slack-edge.com\/2019-10-17\/801801580071_4dc43012615b2074c521_72.jpg",
            "first_name": "Mad",
            "real_name": "Mad Price Ball",
            "display_name": "madprime",
            "team": "T48QEEVTJ",
            "name": "madprime",
            "is_restricted": false,
            "is_ultra_restricted": false
        },
        "blocks": [
            {
                "type": "rich_text",
                "block_id": "QhV",
                "elements": [
                    {
                        "type": "rich_text_section",
                        "elements": [
                            {
                                "type": "text",
                                "text": "Would it be helpful to bake these into a project-associated web app to give these visualizations in return for donating data?"
                            }
                        ]
                    }
                ]
            }
        ]
    },
    {
        "client_msg_id": "1342d887-292c-42e7-901e-c03bb8c00e5d",
        "type": "message",
        "text": "aaaaaaaaand here’s the last one from my side, using both the regular fitbit as well as the intraday fitbit data: <https:\/\/exploratory.openhumans.org\/notebook\/85\/> The runtime is terrible as I couldn’t find a clever way of finding\/matching the sleep data from regular fitbit to the intraday heartrate data, so it’s using brute force.",
        "user": "U52KBSW9X",
        "ts": "1583939420.006200",
        "team": "TUU48M0T1",
        "user_team": "T48QEEVTJ",
        "source_team": "T48QEEVTJ",
        "user_profile": {
            "avatar_hash": "079d4f4301af",
            "image_72": "https:\/\/avatars.slack-edge.com\/2019-07-28\/696974040114_079d4f4301af057e28c1_72.jpg",
            "first_name": "Bastian",
            "real_name": "Bastian Greshake Tzovaras",
            "display_name": "gedankenstuecke",
            "team": "T48QEEVTJ",
            "name": "gedankenstuecke",
            "is_restricted": false,
            "is_ultra_restricted": false
        },
        "blocks": [
            {
                "type": "rich_text",
                "block_id": "gYMb",
                "elements": [
                    {
                        "type": "rich_text_section",
                        "elements": [
                            {
                                "type": "text",
                                "text": "aaaaaaaaand here’s the last one from my side, using both the regular fitbit as well as the intraday fitbit data: "
                            },
                            {
                                "type": "link",
                                "url": "https:\/\/exploratory.openhumans.org\/notebook\/85\/"
                            },
                            {
                                "type": "text",
                                "text": " The runtime is terrible as I couldn’t find a clever way of finding\/matching the sleep data from regular fitbit to the intraday heartrate data, so it’s using brute force."
                            }
                        ]
                    }
                ]
            }
        ]
    },
    {
        "client_msg_id": "b7d0140b-070b-4507-8c18-98d8a8d33a51",
        "type": "message",
        "text": "and yes, i think if we want to do this on a larger scale and actually collect\/use the data of others it would be useful to have a web-app that does individual graphs and can maybe contrast them with overall user populations.",
        "user": "U52KBSW9X",
        "ts": "1583939484.007100",
        "team": "TUU48M0T1",
        "user_team": "T48QEEVTJ",
        "source_team": "T48QEEVTJ",
        "user_profile": {
            "avatar_hash": "079d4f4301af",
            "image_72": "https:\/\/avatars.slack-edge.com\/2019-07-28\/696974040114_079d4f4301af057e28c1_72.jpg",
            "first_name": "Bastian",
            "real_name": "Bastian Greshake Tzovaras",
            "display_name": "gedankenstuecke",
            "team": "T48QEEVTJ",
            "name": "gedankenstuecke",
            "is_restricted": false,
            "is_ultra_restricted": false
        },
        "blocks": [
            {
                "type": "rich_text",
                "block_id": "KVNX",
                "elements": [
                    {
                        "type": "rich_text_section",
                        "elements": [
                            {
                                "type": "text",
                                "text": "and yes, i think if we want to do this on a larger scale and actually collect\/use the data of others it would be useful to have a web-app that does individual graphs and can maybe contrast them with overall user populations."
                            }
                        ]
                    }
                ]
            }
        ]
    },
    {
        "type": "message",
        "subtype": "channel_join",
        "ts": "1583946452.007300",
        "user": "URHMFRQHK",
        "text": "<@URHMFRQHK> has joined the channel"
    }
]