[
    {
        "client_msg_id": "e05c4821-ab34-4dcb-b878-3afd1e054b1f",
        "type": "message",
        "text": "<@U010B4EJG2C> that is a fair point I didn't consider the 1 syringe use case",
        "user": "UVC9WMA7N",
        "ts": "1588708109.351700",
        "team": "TUU48M0T1",
        "user_team": "TUU48M0T1",
        "source_team": "TUU48M0T1",
        "user_profile": {
            "avatar_hash": "56d14d58ed53",
            "image_72": "https:\/\/avatars.slack-edge.com\/2020-03-13\/998337892660_56d14d58ed537e6e4654_72.png",
            "first_name": "Leo",
            "real_name": "Leo Blondel",
            "display_name": "Leo Blondel - JOGL CoFounder \/ CTO",
            "team": "TUU48M0T1",
            "name": "leo",
            "is_restricted": false,
            "is_ultra_restricted": false
        },
        "blocks": [
            {
                "type": "rich_text",
                "block_id": "GG6",
                "elements": [
                    {
                        "type": "rich_text_section",
                        "elements": [
                            {
                                "type": "user",
                                "user_id": "U010B4EJG2C"
                            },
                            {
                                "type": "text",
                                "text": " that is a fair point I didn't consider the 1 syringe use case"
                            }
                        ]
                    }
                ]
            }
        ],
        "thread_ts": "1588409598.343700",
        "parent_user_id": "UV02WET96"
    }
]