[
    {
        "client_msg_id": "8EF26856-2AE9-440C-9F2D-A000478867E0",
        "type": "message",
        "text": "<@U010L38EL8H> ",
        "user": "U0113TTNECF",
        "ts": "1585733182.000300",
        "team": "TUU48M0T1",
        "user_team": "TUU48M0T1",
        "source_team": "TUU48M0T1",
        "user_profile": {
            "avatar_hash": "268b166af28d",
            "image_72": "https:\/\/avatars.slack-edge.com\/2020-03-30\/1038043616599_268b166af28d1ae86c68_72.png",
            "first_name": "Estie",
            "real_name": "Estie Carrillo",
            "display_name": "",
            "team": "TUU48M0T1",
            "name": "estie.carrillo",
            "is_restricted": false,
            "is_ultra_restricted": false
        },
        "blocks": [
            {
                "type": "rich_text",
                "block_id": "MX4uj",
                "elements": [
                    {
                        "type": "rich_text_section",
                        "elements": [
                            {
                                "type": "user",
                                "user_id": "U010L38EL8H"
                            },
                            {
                                "type": "text",
                                "text": " "
                            }
                        ]
                    }
                ]
            }
        ]
    },
    {
        "type": "message",
        "subtype": "channel_join",
        "ts": "1585733185.000500",
        "user": "U010L38EL8H",
        "text": "<@U010L38EL8H> has joined the channel",
        "inviter": "U0113TTNECF"
    },
    {
        "client_msg_id": "4CC0D6E1-333F-4A42-903E-57A6AECB2DCE",
        "type": "message",
        "text": "<@U011487FG3X> ",
        "user": "U0113TTNECF",
        "ts": "1585767397.000300",
        "team": "TUU48M0T1",
        "user_team": "TUU48M0T1",
        "source_team": "TUU48M0T1",
        "user_profile": {
            "avatar_hash": "268b166af28d",
            "image_72": "https:\/\/avatars.slack-edge.com\/2020-03-30\/1038043616599_268b166af28d1ae86c68_72.png",
            "first_name": "Estie",
            "real_name": "Estie Carrillo",
            "display_name": "",
            "team": "TUU48M0T1",
            "name": "estie.carrillo",
            "is_restricted": false,
            "is_ultra_restricted": false
        },
        "blocks": [
            {
                "type": "rich_text",
                "block_id": "QiXc",
                "elements": [
                    {
                        "type": "rich_text_section",
                        "elements": [
                            {
                                "type": "user",
                                "user_id": "U011487FG3X"
                            },
                            {
                                "type": "text",
                                "text": " "
                            }
                        ]
                    }
                ]
            }
        ]
    },
    {
        "client_msg_id": "0A80C191-4025-4225-9A1D-8D5EDD8658AC",
        "type": "message",
        "text": "I guess we can chat here guys?",
        "user": "U0113TTNECF",
        "ts": "1585767409.000600",
        "team": "TUU48M0T1",
        "user_team": "TUU48M0T1",
        "source_team": "TUU48M0T1",
        "user_profile": {
            "avatar_hash": "268b166af28d",
            "image_72": "https:\/\/avatars.slack-edge.com\/2020-03-30\/1038043616599_268b166af28d1ae86c68_72.png",
            "first_name": "Estie",
            "real_name": "Estie Carrillo",
            "display_name": "",
            "team": "TUU48M0T1",
            "name": "estie.carrillo",
            "is_restricted": false,
            "is_ultra_restricted": false
        },
        "blocks": [
            {
                "type": "rich_text",
                "block_id": "LOk",
                "elements": [
                    {
                        "type": "rich_text_section",
                        "elements": [
                            {
                                "type": "text",
                                "text": "I guess we can chat here guys?"
                            }
                        ]
                    }
                ]
            }
        ]
    },
    {
        "client_msg_id": "542d7ebc-5e84-4cd5-842b-e9a6ecb711fb",
        "type": "message",
        "text": "sounds good!",
        "user": "U010HGKFDNE",
        "ts": "1585767480.000900",
        "team": "TUU48M0T1",
        "user_team": "TUU48M0T1",
        "source_team": "TUU48M0T1",
        "user_profile": {
            "avatar_hash": "168a8764c68c",
            "image_72": "https:\/\/avatars.slack-edge.com\/2020-03-27\/1030474372304_168a8764c68cd6e9af14_72.png",
            "first_name": "Evangeline",
            "real_name": "Evangeline - JOGL UX\/UI",
            "display_name": "Evangeline Ng",
            "team": "TUU48M0T1",
            "name": "irrelevandesign",
            "is_restricted": false,
            "is_ultra_restricted": false
        },
        "blocks": [
            {
                "type": "rich_text",
                "block_id": "FzD",
                "elements": [
                    {
                        "type": "rich_text_section",
                        "elements": [
                            {
                                "type": "text",
                                "text": "sounds good!"
                            }
                        ]
                    }
                ]
            }
        ]
    },
    {
        "client_msg_id": "8056130F-52B9-4577-83C1-A05ECB8CD151",
        "type": "message",
        "text": "Yeah looks like we’re all here",
        "user": "U0113TTNECF",
        "ts": "1585767490.001200",
        "team": "TUU48M0T1",
        "user_team": "TUU48M0T1",
        "source_team": "TUU48M0T1",
        "user_profile": {
            "avatar_hash": "268b166af28d",
            "image_72": "https:\/\/avatars.slack-edge.com\/2020-03-30\/1038043616599_268b166af28d1ae86c68_72.png",
            "first_name": "Estie",
            "real_name": "Estie Carrillo",
            "display_name": "",
            "team": "TUU48M0T1",
            "name": "estie.carrillo",
            "is_restricted": false,
            "is_ultra_restricted": false
        },
        "blocks": [
            {
                "type": "rich_text",
                "block_id": "tXVp",
                "elements": [
                    {
                        "type": "rich_text_section",
                        "elements": [
                            {
                                "type": "text",
                                "text": "Yeah looks like we’re all here"
                            }
                        ]
                    }
                ]
            }
        ]
    },
    {
        "client_msg_id": "4eff44a4-cd8e-4df9-bcc4-374b4e21c5f3",
        "type": "message",
        "text": "hi y'all!",
        "user": "U010L38EL8H",
        "ts": "1585767496.001600",
        "team": "TUU48M0T1",
        "user_team": "TUU48M0T1",
        "source_team": "TUU48M0T1",
        "user_profile": {
            "avatar_hash": "gd13a8df079d",
            "image_72": "https:\/\/secure.gravatar.com\/avatar\/d13a8df079df34cd0dbc819b8db3f459.jpg?s=72&d=https%3A%2F%2Fa.slack-edge.com%2Fdf10d%2Fimg%2Favatars%2Fava_0002-72.png",
            "first_name": "",
            "real_name": "Gloria Zhong",
            "display_name": "Gloria Zhong",
            "team": "TUU48M0T1",
            "name": "gzhong17",
            "is_restricted": false,
            "is_ultra_restricted": false
        },
        "blocks": [
            {
                "type": "rich_text",
                "block_id": "607B",
                "elements": [
                    {
                        "type": "rich_text_section",
                        "elements": [
                            {
                                "type": "text",
                                "text": "hi y'all!"
                            }
                        ]
                    }
                ]
            }
        ]
    },
    {
        "client_msg_id": "803E3643-8C3A-4C2F-9D4F-9C52511E931F",
        "type": "message",
        "text": "For some reason we couldn’t add you to the other Gloria ",
        "user": "U0113TTNECF",
        "ts": "1585767503.002000",
        "team": "TUU48M0T1",
        "user_team": "TUU48M0T1",
        "source_team": "TUU48M0T1",
        "user_profile": {
            "avatar_hash": "268b166af28d",
            "image_72": "https:\/\/avatars.slack-edge.com\/2020-03-30\/1038043616599_268b166af28d1ae86c68_72.png",
            "first_name": "Estie",
            "real_name": "Estie Carrillo",
            "display_name": "",
            "team": "TUU48M0T1",
            "name": "estie.carrillo",
            "is_restricted": false,
            "is_ultra_restricted": false
        },
        "blocks": [
            {
                "type": "rich_text",
                "block_id": "\/NbQ",
                "elements": [
                    {
                        "type": "rich_text_section",
                        "elements": [
                            {
                                "type": "text",
                                "text": "For some reason we couldn’t add you to the other Gloria "
                            }
                        ]
                    }
                ]
            }
        ]
    },
    {
        "client_msg_id": "6ec4656c-85cb-4cbc-9c15-57c9075c2385",
        "type": "message",
        "text": "Hello Gloria! :slightly_smiling_face:",
        "user": "U010HGKFDNE",
        "ts": "1585767504.002100",
        "team": "TUU48M0T1",
        "user_team": "TUU48M0T1",
        "source_team": "TUU48M0T1",
        "user_profile": {
            "avatar_hash": "168a8764c68c",
            "image_72": "https:\/\/avatars.slack-edge.com\/2020-03-27\/1030474372304_168a8764c68cd6e9af14_72.png",
            "first_name": "Evangeline",
            "real_name": "Evangeline - JOGL UX\/UI",
            "display_name": "Evangeline Ng",
            "team": "TUU48M0T1",
            "name": "irrelevandesign",
            "is_restricted": false,
            "is_ultra_restricted": false
        },
        "blocks": [
            {
                "type": "rich_text",
                "block_id": "Lio9",
                "elements": [
                    {
                        "type": "rich_text_section",
                        "elements": [
                            {
                                "type": "text",
                                "text": "Hello Gloria! "
                            },
                            {
                                "type": "emoji",
                                "name": "slightly_smiling_face"
                            }
                        ]
                    }
                ]
            }
        ]
    },
    {
        "client_msg_id": "c5601a22-af30-4971-a7df-023bc93d001e",
        "type": "message",
        "text": "was it a direct message?",
        "user": "U010L38EL8H",
        "ts": "1585767521.002400",
        "team": "TUU48M0T1",
        "user_team": "TUU48M0T1",
        "source_team": "TUU48M0T1",
        "user_profile": {
            "avatar_hash": "gd13a8df079d",
            "image_72": "https:\/\/secure.gravatar.com\/avatar\/d13a8df079df34cd0dbc819b8db3f459.jpg?s=72&d=https%3A%2F%2Fa.slack-edge.com%2Fdf10d%2Fimg%2Favatars%2Fava_0002-72.png",
            "first_name": "",
            "real_name": "Gloria Zhong",
            "display_name": "Gloria Zhong",
            "team": "TUU48M0T1",
            "name": "gzhong17",
            "is_restricted": false,
            "is_ultra_restricted": false
        },
        "blocks": [
            {
                "type": "rich_text",
                "block_id": "KWY",
                "elements": [
                    {
                        "type": "rich_text_section",
                        "elements": [
                            {
                                "type": "text",
                                "text": "was it a direct message?"
                            }
                        ]
                    }
                ]
            }
        ]
    },
    {
        "client_msg_id": "7E9368E9-ABE5-4D94-8F3E-E6D636C00571",
        "type": "message",
        "text": "Yeah!",
        "user": "U0113TTNECF",
        "ts": "1585767529.002600",
        "team": "TUU48M0T1",
        "user_team": "TUU48M0T1",
        "source_team": "TUU48M0T1",
        "user_profile": {
            "avatar_hash": "268b166af28d",
            "image_72": "https:\/\/avatars.slack-edge.com\/2020-03-30\/1038043616599_268b166af28d1ae86c68_72.png",
            "first_name": "Estie",
            "real_name": "Estie Carrillo",
            "display_name": "",
            "team": "TUU48M0T1",
            "name": "estie.carrillo",
            "is_restricted": false,
            "is_ultra_restricted": false
        },
        "blocks": [
            {
                "type": "rich_text",
                "block_id": "AAHhJ",
                "elements": [
                    {
                        "type": "rich_text_section",
                        "elements": [
                            {
                                "type": "text",
                                "text": "Yeah!"
                            }
                        ]
                    }
                ]
            }
        ]
    },
    {
        "client_msg_id": "aed2b525-1f28-4dc4-9729-214309e77604",
        "type": "message",
        "text": "oh maybe you just needed to create a new direct message and add my name",
        "user": "U010L38EL8H",
        "ts": "1585767547.003200",
        "team": "TUU48M0T1",
        "user_team": "TUU48M0T1",
        "source_team": "TUU48M0T1",
        "user_profile": {
            "avatar_hash": "gd13a8df079d",
            "image_72": "https:\/\/secure.gravatar.com\/avatar\/d13a8df079df34cd0dbc819b8db3f459.jpg?s=72&d=https%3A%2F%2Fa.slack-edge.com%2Fdf10d%2Fimg%2Favatars%2Fava_0002-72.png",
            "first_name": "",
            "real_name": "Gloria Zhong",
            "display_name": "Gloria Zhong",
            "team": "TUU48M0T1",
            "name": "gzhong17",
            "is_restricted": false,
            "is_ultra_restricted": false
        },
        "blocks": [
            {
                "type": "rich_text",
                "block_id": "SlHmi",
                "elements": [
                    {
                        "type": "rich_text_section",
                        "elements": [
                            {
                                "type": "text",
                                "text": "oh maybe you just needed to create a new direct message and add my name"
                            }
                        ]
                    }
                ]
            }
        ]
    },
    {
        "client_msg_id": "5dcbef44-1b24-45e6-82dd-d260b7e98eb6",
        "type": "message",
        "text": "can't add to existing ones",
        "user": "U010L38EL8H",
        "ts": "1585767553.003600",
        "team": "TUU48M0T1",
        "user_team": "TUU48M0T1",
        "source_team": "TUU48M0T1",
        "user_profile": {
            "avatar_hash": "gd13a8df079d",
            "image_72": "https:\/\/secure.gravatar.com\/avatar\/d13a8df079df34cd0dbc819b8db3f459.jpg?s=72&d=https%3A%2F%2Fa.slack-edge.com%2Fdf10d%2Fimg%2Favatars%2Fava_0002-72.png",
            "first_name": "",
            "real_name": "Gloria Zhong",
            "display_name": "Gloria Zhong",
            "team": "TUU48M0T1",
            "name": "gzhong17",
            "is_restricted": false,
            "is_ultra_restricted": false
        },
        "blocks": [
            {
                "type": "rich_text",
                "block_id": "Tf8",
                "elements": [
                    {
                        "type": "rich_text_section",
                        "elements": [
                            {
                                "type": "text",
                                "text": "can't add to existing ones"
                            }
                        ]
                    }
                ]
            }
        ]
    },
    {
        "client_msg_id": "3B733A39-6DE8-4316-8BD1-D4E5C44E927C",
        "type": "message",
        "text": "Any of you has the option to start a Zoom call we can join? I haven’t signed up yet ",
        "user": "U0113TTNECF",
        "ts": "1585767560.003900",
        "team": "TUU48M0T1",
        "user_team": "TUU48M0T1",
        "source_team": "TUU48M0T1",
        "user_profile": {
            "avatar_hash": "268b166af28d",
            "image_72": "https:\/\/avatars.slack-edge.com\/2020-03-30\/1038043616599_268b166af28d1ae86c68_72.png",
            "first_name": "Estie",
            "real_name": "Estie Carrillo",
            "display_name": "",
            "team": "TUU48M0T1",
            "name": "estie.carrillo",
            "is_restricted": false,
            "is_ultra_restricted": false
        },
        "blocks": [
            {
                "type": "rich_text",
                "block_id": "5t9",
                "elements": [
                    {
                        "type": "rich_text_section",
                        "elements": [
                            {
                                "type": "text",
                                "text": "Any of you has the option to start a Zoom call we can join? I haven’t signed up yet "
                            }
                        ]
                    }
                ]
            }
        ]
    },
    {
        "client_msg_id": "38f59efd-0033-4487-889e-099c898ddd72",
        "type": "message",
        "text": "Join Zoom Meeting\n<https:\/\/zoom.us\/j\/547666012?pwd=VjFSN0hnN0ZXZm1Vb0k2T3pkeDVqQT09>\n\nMeeting ID: 547 666 012\nPassword: 060937",
        "user": "U010L38EL8H",
        "ts": "1585767656.004500",
        "team": "TUU48M0T1",
        "user_team": "TUU48M0T1",
        "source_team": "TUU48M0T1",
        "user_profile": {
            "avatar_hash": "gd13a8df079d",
            "image_72": "https:\/\/secure.gravatar.com\/avatar\/d13a8df079df34cd0dbc819b8db3f459.jpg?s=72&d=https%3A%2F%2Fa.slack-edge.com%2Fdf10d%2Fimg%2Favatars%2Fava_0002-72.png",
            "first_name": "",
            "real_name": "Gloria Zhong",
            "display_name": "Gloria Zhong",
            "team": "TUU48M0T1",
            "name": "gzhong17",
            "is_restricted": false,
            "is_ultra_restricted": false
        },
        "blocks": [
            {
                "type": "rich_text",
                "block_id": "zwk1Z",
                "elements": [
                    {
                        "type": "rich_text_section",
                        "elements": [
                            {
                                "type": "text",
                                "text": "Join Zoom Meeting\n"
                            },
                            {
                                "type": "link",
                                "url": "https:\/\/zoom.us\/j\/547666012?pwd=VjFSN0hnN0ZXZm1Vb0k2T3pkeDVqQT09"
                            },
                            {
                                "type": "text",
                                "text": "\n\nMeeting ID: 547 666 012\nPassword: 060937"
                            }
                        ]
                    }
                ]
            }
        ]
    },
    {
        "client_msg_id": "700BD558-FA7E-4F50-80E3-1BFEFDC06B6C",
        "type": "message",
        "text": "Thank you! ",
        "user": "U0113TTNECF",
        "ts": "1585767663.004900",
        "team": "TUU48M0T1",
        "user_team": "TUU48M0T1",
        "source_team": "TUU48M0T1",
        "user_profile": {
            "avatar_hash": "268b166af28d",
            "image_72": "https:\/\/avatars.slack-edge.com\/2020-03-30\/1038043616599_268b166af28d1ae86c68_72.png",
            "first_name": "Estie",
            "real_name": "Estie Carrillo",
            "display_name": "",
            "team": "TUU48M0T1",
            "name": "estie.carrillo",
            "is_restricted": false,
            "is_ultra_restricted": false
        },
        "blocks": [
            {
                "type": "rich_text",
                "block_id": "oyTT",
                "elements": [
                    {
                        "type": "rich_text_section",
                        "elements": [
                            {
                                "type": "text",
                                "text": "Thank you! "
                            }
                        ]
                    }
                ]
            }
        ]
    },
    {
        "client_msg_id": "58ab6394-2cb1-4c3a-99da-d62ffea970d5",
        "type": "message",
        "text": "i think there's a time limitation for multiple people as i'm not on the paid plan",
        "user": "U010L38EL8H",
        "ts": "1585767669.005100",
        "team": "TUU48M0T1",
        "user_team": "TUU48M0T1",
        "source_team": "TUU48M0T1",
        "user_profile": {
            "avatar_hash": "gd13a8df079d",
            "image_72": "https:\/\/secure.gravatar.com\/avatar\/d13a8df079df34cd0dbc819b8db3f459.jpg?s=72&d=https%3A%2F%2Fa.slack-edge.com%2Fdf10d%2Fimg%2Favatars%2Fava_0002-72.png",
            "first_name": "",
            "real_name": "Gloria Zhong",
            "display_name": "Gloria Zhong",
            "team": "TUU48M0T1",
            "name": "gzhong17",
            "is_restricted": false,
            "is_ultra_restricted": false
        },
        "blocks": [
            {
                "type": "rich_text",
                "block_id": "BvV",
                "elements": [
                    {
                        "type": "rich_text_section",
                        "elements": [
                            {
                                "type": "text",
                                "text": "i think there's a time limitation for multiple people as i'm not on the paid plan"
                            }
                        ]
                    }
                ]
            }
        ]
    },
    {
        "client_msg_id": "b5674e4f-19d0-45bc-83e3-35f3e4c046c1",
        "type": "message",
        "text": "might cut off and create a new one, depending on how long the meeting is",
        "user": "U010L38EL8H",
        "ts": "1585767681.005500",
        "team": "TUU48M0T1",
        "user_team": "TUU48M0T1",
        "source_team": "TUU48M0T1",
        "user_profile": {
            "avatar_hash": "gd13a8df079d",
            "image_72": "https:\/\/secure.gravatar.com\/avatar\/d13a8df079df34cd0dbc819b8db3f459.jpg?s=72&d=https%3A%2F%2Fa.slack-edge.com%2Fdf10d%2Fimg%2Favatars%2Fava_0002-72.png",
            "first_name": "",
            "real_name": "Gloria Zhong",
            "display_name": "Gloria Zhong",
            "team": "TUU48M0T1",
            "name": "gzhong17",
            "is_restricted": false,
            "is_ultra_restricted": false
        },
        "blocks": [
            {
                "type": "rich_text",
                "block_id": "\/hhDi",
                "elements": [
                    {
                        "type": "rich_text_section",
                        "elements": [
                            {
                                "type": "text",
                                "text": "might cut off and create a new one, depending on how long the meeting is"
                            }
                        ]
                    }
                ]
            }
        ]
    },
    {
        "client_msg_id": "1e6813aa-72b2-4eca-a7e5-1812fdf44ae7",
        "type": "message",
        "text": "got it! im in~ sorry i dont have a zoom acc too",
        "user": "U010HGKFDNE",
        "ts": "1585767701.005800",
        "team": "TUU48M0T1",
        "user_team": "TUU48M0T1",
        "source_team": "TUU48M0T1",
        "user_profile": {
            "avatar_hash": "168a8764c68c",
            "image_72": "https:\/\/avatars.slack-edge.com\/2020-03-27\/1030474372304_168a8764c68cd6e9af14_72.png",
            "first_name": "Evangeline",
            "real_name": "Evangeline - JOGL UX\/UI",
            "display_name": "Evangeline Ng",
            "team": "TUU48M0T1",
            "name": "irrelevandesign",
            "is_restricted": false,
            "is_ultra_restricted": false
        },
        "blocks": [
            {
                "type": "rich_text",
                "block_id": "gitoG",
                "elements": [
                    {
                        "type": "rich_text_section",
                        "elements": [
                            {
                                "type": "text",
                                "text": "got it! im in~ sorry i dont have a zoom acc too"
                            }
                        ]
                    }
                ]
            }
        ]
    },
    {
        "client_msg_id": "2D33BC70-10AF-4624-80AD-F88FA8DFBA3E",
        "type": "message",
        "text": "Does slack have video calls? I don’t use it often",
        "user": "U0113TTNECF",
        "ts": "1585767751.006500",
        "team": "TUU48M0T1",
        "user_team": "TUU48M0T1",
        "source_team": "TUU48M0T1",
        "user_profile": {
            "avatar_hash": "268b166af28d",
            "image_72": "https:\/\/avatars.slack-edge.com\/2020-03-30\/1038043616599_268b166af28d1ae86c68_72.png",
            "first_name": "Estie",
            "real_name": "Estie Carrillo",
            "display_name": "",
            "team": "TUU48M0T1",
            "name": "estie.carrillo",
            "is_restricted": false,
            "is_ultra_restricted": false
        },
        "blocks": [
            {
                "type": "rich_text",
                "block_id": "P9Q",
                "elements": [
                    {
                        "type": "rich_text_section",
                        "elements": [
                            {
                                "type": "text",
                                "text": "Does slack have video calls? I don’t use it often"
                            }
                        ]
                    }
                ]
            }
        ]
    },
    {
        "type": "message",
        "text": "<@U010L38EL8H> from the developers who did it on <http:\/\/builderx.io|builderx.io>\nyou'll need them to invite you in",
        "files": [
            {
                "id": "F0117SB9TQC",
                "created": 1585768175,
                "timestamp": 1585768175,
                "name": "Screen Shot 2020-04-01 at 11.13.24 AM.png",
                "title": "Screen Shot 2020-04-01 at 11.13.24 AM.png",
                "mimetype": "image\/png",
                "filetype": "png",
                "pretty_type": "PNG",
                "user": "U010HGKFDNE",
                "editable": false,
                "size": 804972,
                "mode": "hosted",
                "is_external": false,
                "external_type": "",
                "is_public": true,
                "public_url_shared": false,
                "display_as_bot": false,
                "username": "",
                "url_private": "https:\/\/files.slack.com\/files-pri\/TUU48M0T1-F0117SB9TQC\/screen_shot_2020-04-01_at_11.13.24_am.png?t=xoxe-980144714919-1106606678066-1105227127893-6f722bb664235052954ad46852628b64",
                "url_private_download": "https:\/\/files.slack.com\/files-pri\/TUU48M0T1-F0117SB9TQC\/download\/screen_shot_2020-04-01_at_11.13.24_am.png?t=xoxe-980144714919-1106606678066-1105227127893-6f722bb664235052954ad46852628b64",
                "thumb_64": "https:\/\/files.slack.com\/files-tmb\/TUU48M0T1-F0117SB9TQC-1b2f9f2483\/screen_shot_2020-04-01_at_11.13.24_am_64.png?t=xoxe-980144714919-1106606678066-1105227127893-6f722bb664235052954ad46852628b64",
                "thumb_80": "https:\/\/files.slack.com\/files-tmb\/TUU48M0T1-F0117SB9TQC-1b2f9f2483\/screen_shot_2020-04-01_at_11.13.24_am_80.png?t=xoxe-980144714919-1106606678066-1105227127893-6f722bb664235052954ad46852628b64",
                "thumb_360": "https:\/\/files.slack.com\/files-tmb\/TUU48M0T1-F0117SB9TQC-1b2f9f2483\/screen_shot_2020-04-01_at_11.13.24_am_360.png?t=xoxe-980144714919-1106606678066-1105227127893-6f722bb664235052954ad46852628b64",
                "thumb_360_w": 360,
                "thumb_360_h": 310,
                "thumb_480": "https:\/\/files.slack.com\/files-tmb\/TUU48M0T1-F0117SB9TQC-1b2f9f2483\/screen_shot_2020-04-01_at_11.13.24_am_480.png?t=xoxe-980144714919-1106606678066-1105227127893-6f722bb664235052954ad46852628b64",
                "thumb_480_w": 480,
                "thumb_480_h": 413,
                "thumb_160": "https:\/\/files.slack.com\/files-tmb\/TUU48M0T1-F0117SB9TQC-1b2f9f2483\/screen_shot_2020-04-01_at_11.13.24_am_160.png?t=xoxe-980144714919-1106606678066-1105227127893-6f722bb664235052954ad46852628b64",
                "thumb_720": "https:\/\/files.slack.com\/files-tmb\/TUU48M0T1-F0117SB9TQC-1b2f9f2483\/screen_shot_2020-04-01_at_11.13.24_am_720.png?t=xoxe-980144714919-1106606678066-1105227127893-6f722bb664235052954ad46852628b64",
                "thumb_720_w": 720,
                "thumb_720_h": 619,
                "thumb_800": "https:\/\/files.slack.com\/files-tmb\/TUU48M0T1-F0117SB9TQC-1b2f9f2483\/screen_shot_2020-04-01_at_11.13.24_am_800.png?t=xoxe-980144714919-1106606678066-1105227127893-6f722bb664235052954ad46852628b64",
                "thumb_800_w": 800,
                "thumb_800_h": 688,
                "thumb_960": "https:\/\/files.slack.com\/files-tmb\/TUU48M0T1-F0117SB9TQC-1b2f9f2483\/screen_shot_2020-04-01_at_11.13.24_am_960.png?t=xoxe-980144714919-1106606678066-1105227127893-6f722bb664235052954ad46852628b64",
                "thumb_960_w": 960,
                "thumb_960_h": 826,
                "thumb_1024": "https:\/\/files.slack.com\/files-tmb\/TUU48M0T1-F0117SB9TQC-1b2f9f2483\/screen_shot_2020-04-01_at_11.13.24_am_1024.png?t=xoxe-980144714919-1106606678066-1105227127893-6f722bb664235052954ad46852628b64",
                "thumb_1024_w": 1024,
                "thumb_1024_h": 881,
                "image_exif_rotation": 1,
                "original_w": 1890,
                "original_h": 1626,
                "thumb_tiny": "AwApADCgoznk1as7dJomZ853YHOKrxDO\/OOmBk9Per2mf8e8n+9QCHLawhxlSwKMcZ9CKZc20SQfu0+fcBnOetW+fOTHXYf5iob0sltnoQ4I4poGUXtZY0LMhwBzxWgLK23AlT9MnFUprl2hC7ydw+YZFag++Pkbtz2p2EZMcNx5YZEBVuc0qyNb7o3QE7s8NVu3LG0Qb1AxxxVK6XZcMA2enI+lLfRj21RIt5tYHygRgjBP0\/wokuDcqIkhUFiOh61Vyc9antCTeRZ\/vU7WFe4hguCDmJgB7YrQE1wGx9lOR338VBbHLS8\/wHv7\/WrKf8fZ+potcCCGZ1tEVFyQOOcZqncl2nYyY3cZx9KhoFStBik57AfSp7Q5u4uAPmqClT74+tVcRqJbNCJGZwQVI71OsWJi+8Y5OKyn+41Q0rjP\/9k=",
                "permalink": "https:\/\/open-covid19.slack.com\/files\/U010HGKFDNE\/F0117SB9TQC\/screen_shot_2020-04-01_at_11.13.24_am.png",
                "permalink_public": "https:\/\/slack-files.com\/TUU48M0T1-F0117SB9TQC-7b85816922",
                "is_starred": false,
                "has_rich_preview": false
            }
        ],
        "upload": true,
        "blocks": [
            {
                "type": "rich_text",
                "block_id": "v8D",
                "elements": [
                    {
                        "type": "rich_text_section",
                        "elements": [
                            {
                                "type": "user",
                                "user_id": "U010L38EL8H"
                            },
                            {
                                "type": "text",
                                "text": " from the developers who did it on "
                            },
                            {
                                "type": "link",
                                "url": "http:\/\/builderx.io",
                                "text": "builderx.io"
                            },
                            {
                                "type": "text",
                                "text": "\nyou'll need them to invite you in"
                            }
                        ]
                    }
                ]
            }
        ],
        "user": "U010HGKFDNE",
        "display_as_bot": false,
        "ts": "1585768180.006600",
        "client_msg_id": "531e2e12-e1af-4813-aa78-82a68f675669",
        "reactions": [
            {
                "name": "clap",
                "users": [
                    "U01155M7M62"
                ],
                "count": 1
            }
        ]
    },
    {
        "client_msg_id": "D61ED0A7-D3E7-4D3F-A434-6D4CB455586F",
        "type": "message",
        "text": "Guys, forgot to mention, we’re using SF symbols for the icons: <https:\/\/developer.apple.com\/design\/human-interface-guidelines\/sf-symbols\/overview\/|https:\/\/developer.apple.com\/design\/human-interface-guidelines\/sf-symbols\/overview\/>",
        "user": "U0113TTNECF",
        "ts": "1585771164.007700",
        "team": "TUU48M0T1",
        "user_team": "TUU48M0T1",
        "source_team": "TUU48M0T1",
        "user_profile": {
            "avatar_hash": "268b166af28d",
            "image_72": "https:\/\/avatars.slack-edge.com\/2020-03-30\/1038043616599_268b166af28d1ae86c68_72.png",
            "first_name": "Estie",
            "real_name": "Estie Carrillo",
            "display_name": "",
            "team": "TUU48M0T1",
            "name": "estie.carrillo",
            "is_restricted": false,
            "is_ultra_restricted": false
        },
        "attachments": [
            {
                "title": "SF Symbols - SF Symbols - Human Interface Guidelines - Apple Developer",
                "title_link": "https:\/\/developer.apple.com\/design\/human-interface-guidelines\/sf-symbols\/overview\/",
                "text": "Learn about designing apps for SF Symbols.",
                "fallback": "SF Symbols - SF Symbols - Human Interface Guidelines - Apple Developer",
                "from_url": "https:\/\/developer.apple.com\/design\/human-interface-guidelines\/sf-symbols\/overview\/",
                "service_icon": "https:\/\/developer.apple.com\/favicon.ico",
                "service_name": "developer.apple.com",
                "id": 1,
                "original_url": "https:\/\/developer.apple.com\/design\/human-interface-guidelines\/sf-symbols\/overview\/"
            }
        ],
        "blocks": [
            {
                "type": "rich_text",
                "block_id": "1sF",
                "elements": [
                    {
                        "type": "rich_text_section",
                        "elements": [
                            {
                                "type": "text",
                                "text": "Guys, forgot to mention, we’re using SF symbols for the icons: "
                            },
                            {
                                "type": "link",
                                "url": "https:\/\/developer.apple.com\/design\/human-interface-guidelines\/sf-symbols\/overview\/",
                                "text": "https:\/\/developer.apple.com\/design\/human-interface-guidelines\/sf-symbols\/overview\/"
                            }
                        ]
                    }
                ]
            }
        ]
    },
    {
        "client_msg_id": "9148CC3B-E2C9-474A-9F67-4D5EB18C2F08",
        "type": "message",
        "text": "And Sabi will share the Sketch file with you shortly ",
        "user": "U0113TTNECF",
        "ts": "1585771177.008200",
        "team": "TUU48M0T1",
        "user_team": "TUU48M0T1",
        "source_team": "TUU48M0T1",
        "user_profile": {
            "avatar_hash": "268b166af28d",
            "image_72": "https:\/\/avatars.slack-edge.com\/2020-03-30\/1038043616599_268b166af28d1ae86c68_72.png",
            "first_name": "Estie",
            "real_name": "Estie Carrillo",
            "display_name": "",
            "team": "TUU48M0T1",
            "name": "estie.carrillo",
            "is_restricted": false,
            "is_ultra_restricted": false
        },
        "blocks": [
            {
                "type": "rich_text",
                "block_id": "tjac",
                "elements": [
                    {
                        "type": "rich_text_section",
                        "elements": [
                            {
                                "type": "text",
                                "text": "And Sabi will share the Sketch file with you shortly "
                            }
                        ]
                    }
                ]
            }
        ]
    },
    {
        "client_msg_id": "a8e94232-40d2-46ce-9a14-75a2fb02172c",
        "type": "message",
        "text": "Hello again <@U010HGKFDNE> <@U010L38EL8H>  if you give me your emails i can send you the sketch file so you can take the fonts and the colors easily",
        "user": "U011487FG3X",
        "ts": "1585771580.009800",
        "team": "TUU48M0T1",
        "user_team": "TUU48M0T1",
        "source_team": "TUU48M0T1",
        "user_profile": {
            "avatar_hash": "25f046ef2a48",
            "image_72": "https:\/\/avatars.slack-edge.com\/2020-03-31\/1028335220577_25f046ef2a488ae23eb4_72.jpg",
            "first_name": "Sabina",
            "real_name": "Sabina Giraldo",
            "display_name": "Sabina Giraldo",
            "team": "TUU48M0T1",
            "name": "sabinagiraldo1101",
            "is_restricted": false,
            "is_ultra_restricted": false
        },
        "blocks": [
            {
                "type": "rich_text",
                "block_id": "6lVtO",
                "elements": [
                    {
                        "type": "rich_text_section",
                        "elements": [
                            {
                                "type": "text",
                                "text": "Hello again "
                            },
                            {
                                "type": "user",
                                "user_id": "U010HGKFDNE"
                            },
                            {
                                "type": "text",
                                "text": " "
                            },
                            {
                                "type": "user",
                                "user_id": "U010L38EL8H"
                            },
                            {
                                "type": "text",
                                "text": "  if you give me your emails i can send you the sketch file so you can take the fonts and the colors easily"
                            }
                        ]
                    }
                ]
            }
        ]
    },
    {
        "type": "message",
        "text": "",
        "files": [
            {
                "id": "F0118100UAY",
                "created": 1585771643,
                "timestamp": 1585771643,
                "name": "COUGH CHECKER.sketch",
                "title": "COUGH CHECKER.sketch",
                "mimetype": "application\/x-sketch",
                "filetype": "sketch",
                "pretty_type": "Sketch File",
                "user": "U011487FG3X",
                "editable": false,
                "size": 11208161,
                "mode": "hosted",
                "is_external": false,
                "external_type": "",
                "is_public": true,
                "public_url_shared": false,
                "display_as_bot": false,
                "username": "",
                "url_private": "https:\/\/files.slack.com\/files-pri\/TUU48M0T1-F0118100UAY\/cough_checker.sketch?t=xoxe-980144714919-1106606678066-1105227127893-6f722bb664235052954ad46852628b64",
                "url_private_download": "https:\/\/files.slack.com\/files-pri\/TUU48M0T1-F0118100UAY\/download\/cough_checker.sketch?t=xoxe-980144714919-1106606678066-1105227127893-6f722bb664235052954ad46852628b64",
                "permalink": "https:\/\/open-covid19.slack.com\/files\/U011487FG3X\/F0118100UAY\/cough_checker.sketch",
                "permalink_public": "https:\/\/slack-files.com\/TUU48M0T1-F0118100UAY-fdb9c5cbc7",
                "is_starred": false,
                "has_rich_preview": false
            }
        ],
        "upload": true,
        "user": "U011487FG3X",
        "display_as_bot": false,
        "ts": "1585771645.009900",
        "client_msg_id": "d08a71ba-dfce-4bd1-8e8d-2838fef36efe",
        "reactions": [
            {
                "name": "+1",
                "users": [
                    "U010L38EL8H",
                    "U01155M7M62"
                ],
                "count": 2
            }
        ]
    },
    {
        "client_msg_id": "2fa8feb7-cf67-49fc-b19e-7317d001baee",
        "type": "message",
        "text": "Nevermind, this is it!",
        "user": "U011487FG3X",
        "ts": "1585771660.010500",
        "team": "TUU48M0T1",
        "user_team": "TUU48M0T1",
        "source_team": "TUU48M0T1",
        "user_profile": {
            "avatar_hash": "25f046ef2a48",
            "image_72": "https:\/\/avatars.slack-edge.com\/2020-03-31\/1028335220577_25f046ef2a488ae23eb4_72.jpg",
            "first_name": "Sabina",
            "real_name": "Sabina Giraldo",
            "display_name": "Sabina Giraldo",
            "team": "TUU48M0T1",
            "name": "sabinagiraldo1101",
            "is_restricted": false,
            "is_ultra_restricted": false
        },
        "blocks": [
            {
                "type": "rich_text",
                "block_id": "jOEA",
                "elements": [
                    {
                        "type": "rich_text_section",
                        "elements": [
                            {
                                "type": "text",
                                "text": "Nevermind, this is it!"
                            }
                        ]
                    }
                ]
            }
        ]
    },
    {
        "type": "message",
        "subtype": "channel_join",
        "ts": "1585779017.010800",
        "user": "U01155M7M62",
        "text": "<@U01155M7M62> has joined the channel",
        "inviter": "U010HGKFDNE"
    },
    {
        "client_msg_id": "bce6a452-4976-4faf-9863-13b4c7f5997b",
        "type": "message",
        "text": "Hi Jenny!",
        "user": "U010HGKFDNE",
        "ts": "1585779021.011000",
        "team": "TUU48M0T1",
        "user_team": "TUU48M0T1",
        "source_team": "TUU48M0T1",
        "user_profile": {
            "avatar_hash": "168a8764c68c",
            "image_72": "https:\/\/avatars.slack-edge.com\/2020-03-27\/1030474372304_168a8764c68cd6e9af14_72.png",
            "first_name": "Evangeline",
            "real_name": "Evangeline - JOGL UX\/UI",
            "display_name": "Evangeline Ng",
            "team": "TUU48M0T1",
            "name": "irrelevandesign",
            "is_restricted": false,
            "is_ultra_restricted": false
        },
        "blocks": [
            {
                "type": "rich_text",
                "block_id": "eN=",
                "elements": [
                    {
                        "type": "rich_text_section",
                        "elements": [
                            {
                                "type": "text",
                                "text": "Hi Jenny!"
                            }
                        ]
                    }
                ]
            }
        ],
        "reactions": [
            {
                "name": "relaxed",
                "users": [
                    "U01155M7M62"
                ],
                "count": 1
            }
        ]
    },
    {
        "client_msg_id": "addbb20b-f648-4333-8f36-112749f22019",
        "type": "message",
        "text": "Hello Evangeline :slightly_smiling_face:",
        "user": "U01155M7M62",
        "ts": "1585779609.011300",
        "team": "TUU48M0T1",
        "user_team": "TUU48M0T1",
        "source_team": "TUU48M0T1",
        "user_profile": {
            "avatar_hash": "g009ca02c22b",
            "image_72": "https:\/\/secure.gravatar.com\/avatar\/009ca02c22b6e79ad9db59c60c6957ea.jpg?s=72&d=https%3A%2F%2Fa.slack-edge.com%2Fdf10d%2Fimg%2Favatars%2Fava_0006-72.png",
            "first_name": "Jenny",
            "real_name": "Jenny Lee",
            "display_name": "Jenny Lee",
            "team": "TUU48M0T1",
            "name": "jennyxxdance",
            "is_restricted": false,
            "is_ultra_restricted": false
        },
        "blocks": [
            {
                "type": "rich_text",
                "block_id": "Nux2",
                "elements": [
                    {
                        "type": "rich_text_section",
                        "elements": [
                            {
                                "type": "text",
                                "text": "Hello Evangeline "
                            },
                            {
                                "type": "emoji",
                                "name": "slightly_smiling_face"
                            }
                        ]
                    }
                ]
            }
        ]
    },
    {
        "client_msg_id": "0a517a3c-e8f6-47fa-9b47-606c099e3d64",
        "type": "message",
        "text": "Sorry I missed the zoom meeting! I will join next time. Do we have a fixed time for meetings?",
        "user": "U01155M7M62",
        "ts": "1585779819.012800",
        "team": "TUU48M0T1",
        "user_team": "TUU48M0T1",
        "source_team": "TUU48M0T1",
        "user_profile": {
            "avatar_hash": "g009ca02c22b",
            "image_72": "https:\/\/secure.gravatar.com\/avatar\/009ca02c22b6e79ad9db59c60c6957ea.jpg?s=72&d=https%3A%2F%2Fa.slack-edge.com%2Fdf10d%2Fimg%2Favatars%2Fava_0006-72.png",
            "first_name": "Jenny",
            "real_name": "Jenny Lee",
            "display_name": "Jenny Lee",
            "team": "TUU48M0T1",
            "name": "jennyxxdance",
            "is_restricted": false,
            "is_ultra_restricted": false
        },
        "blocks": [
            {
                "type": "rich_text",
                "block_id": "B2m8i",
                "elements": [
                    {
                        "type": "rich_text_section",
                        "elements": [
                            {
                                "type": "text",
                                "text": "Sorry I missed the zoom meeting! I will join next time. Do we have a fixed time for meetings?"
                            }
                        ]
                    }
                ]
            }
        ]
    },
    {
        "client_msg_id": "86dd2f65-7869-4c35-8e8a-1dfb9bf15d45",
        "type": "message",
        "text": "No problem, there will be another tomorrow at 12PM PST",
        "user": "U010HGKFDNE",
        "ts": "1585779844.013100",
        "team": "TUU48M0T1",
        "user_team": "TUU48M0T1",
        "source_team": "TUU48M0T1",
        "user_profile": {
            "avatar_hash": "168a8764c68c",
            "image_72": "https:\/\/avatars.slack-edge.com\/2020-03-27\/1030474372304_168a8764c68cd6e9af14_72.png",
            "first_name": "Evangeline",
            "real_name": "Evangeline - JOGL UX\/UI",
            "display_name": "Evangeline Ng",
            "team": "TUU48M0T1",
            "name": "irrelevandesign",
            "is_restricted": false,
            "is_ultra_restricted": false
        },
        "blocks": [
            {
                "type": "rich_text",
                "block_id": "Y751e",
                "elements": [
                    {
                        "type": "rich_text_section",
                        "elements": [
                            {
                                "type": "text",
                                "text": "No problem, there will be another tomorrow at 12PM PST"
                            }
                        ]
                    }
                ]
            }
        ],
        "reactions": [
            {
                "name": "+1",
                "users": [
                    "U01155M7M62"
                ],
                "count": 1
            }
        ]
    },
    {
        "client_msg_id": "3a2b57d9-bc3f-47a9-8af4-6735321e188c",
        "type": "message",
        "text": "Jenny, as I understood from David he needs help for the design of the website <http:\/\/coughchecker.com|coughchecker.com>",
        "user": "U010HGKFDNE",
        "ts": "1585779871.013800",
        "team": "TUU48M0T1",
        "user_team": "TUU48M0T1",
        "source_team": "TUU48M0T1",
        "user_profile": {
            "avatar_hash": "168a8764c68c",
            "image_72": "https:\/\/avatars.slack-edge.com\/2020-03-27\/1030474372304_168a8764c68cd6e9af14_72.png",
            "first_name": "Evangeline",
            "real_name": "Evangeline - JOGL UX\/UI",
            "display_name": "Evangeline Ng",
            "team": "TUU48M0T1",
            "name": "irrelevandesign",
            "is_restricted": false,
            "is_ultra_restricted": false
        },
        "blocks": [
            {
                "type": "rich_text",
                "block_id": "ZaR",
                "elements": [
                    {
                        "type": "rich_text_section",
                        "elements": [
                            {
                                "type": "text",
                                "text": "Jenny, as I understood from David he needs help for the design of the website "
                            },
                            {
                                "type": "link",
                                "url": "http:\/\/coughchecker.com",
                                "text": "coughchecker.com"
                            }
                        ]
                    }
                ]
            }
        ],
        "thread_ts": "1585779871.013800",
        "reply_count": 1,
        "reply_users_count": 1,
        "latest_reply": "1585878507.040200",
        "reply_users": [
            "U01155M7M62"
        ],
        "replies": [
            {
                "user": "U01155M7M62",
                "ts": "1585878507.040200"
            }
        ],
        "subscribed": false,
        "reactions": [
            {
                "name": "+1",
                "users": [
                    "U01155M7M62"
                ],
                "count": 1
            },
            {
                "name": "pray",
                "users": [
                    "U01072UT127"
                ],
                "count": 1
            }
        ]
    },
    {
        "client_msg_id": "41225855-28f3-4ac5-9e71-e7579b7e1fe3",
        "type": "message",
        "text": "and the copy that Gloria gave today was really good",
        "user": "U010HGKFDNE",
        "ts": "1585779893.014300",
        "team": "TUU48M0T1",
        "user_team": "TUU48M0T1",
        "source_team": "TUU48M0T1",
        "user_profile": {
            "avatar_hash": "168a8764c68c",
            "image_72": "https:\/\/avatars.slack-edge.com\/2020-03-27\/1030474372304_168a8764c68cd6e9af14_72.png",
            "first_name": "Evangeline",
            "real_name": "Evangeline - JOGL UX\/UI",
            "display_name": "Evangeline Ng",
            "team": "TUU48M0T1",
            "name": "irrelevandesign",
            "is_restricted": false,
            "is_ultra_restricted": false
        },
        "blocks": [
            {
                "type": "rich_text",
                "block_id": "Ie+3",
                "elements": [
                    {
                        "type": "rich_text_section",
                        "elements": [
                            {
                                "type": "text",
                                "text": "and the copy that Gloria gave today was really good"
                            }
                        ]
                    }
                ]
            }
        ]
    },
    {
        "client_msg_id": "6a1ee092-f915-4b6e-87f2-d7478b0f242e",
        "type": "message",
        "text": "We'll also need a lead for the marketing design as we dont have any resources on that aspect yet",
        "user": "U010HGKFDNE",
        "ts": "1585779921.014900",
        "team": "TUU48M0T1",
        "user_team": "TUU48M0T1",
        "source_team": "TUU48M0T1",
        "user_profile": {
            "avatar_hash": "168a8764c68c",
            "image_72": "https:\/\/avatars.slack-edge.com\/2020-03-27\/1030474372304_168a8764c68cd6e9af14_72.png",
            "first_name": "Evangeline",
            "real_name": "Evangeline - JOGL UX\/UI",
            "display_name": "Evangeline Ng",
            "team": "TUU48M0T1",
            "name": "irrelevandesign",
            "is_restricted": false,
            "is_ultra_restricted": false
        },
        "blocks": [
            {
                "type": "rich_text",
                "block_id": "mg\/y0",
                "elements": [
                    {
                        "type": "rich_text_section",
                        "elements": [
                            {
                                "type": "text",
                                "text": "We'll also need a lead for the marketing design as we dont have any resources on that aspect yet"
                            }
                        ]
                    }
                ]
            }
        ]
    },
    {
        "client_msg_id": "400f6e91-8c5b-4d3c-85f1-94ca62c97cd8",
        "type": "message",
        "text": "Heres Gloria and I have so far on the information for the app:\n<https:\/\/docs.google.com\/document\/d\/1aIZ1OCfO5fUSeiNZCyBQ05Y1r_lX-IrWpLjlnJj8dz4\/edit?usp=sharing>",
        "user": "U010HGKFDNE",
        "ts": "1585779970.015300",
        "team": "TUU48M0T1",
        "user_team": "TUU48M0T1",
        "source_team": "TUU48M0T1",
        "user_profile": {
            "avatar_hash": "168a8764c68c",
            "image_72": "https:\/\/avatars.slack-edge.com\/2020-03-27\/1030474372304_168a8764c68cd6e9af14_72.png",
            "first_name": "Evangeline",
            "real_name": "Evangeline - JOGL UX\/UI",
            "display_name": "Evangeline Ng",
            "team": "TUU48M0T1",
            "name": "irrelevandesign",
            "is_restricted": false,
            "is_ultra_restricted": false
        },
        "blocks": [
            {
                "type": "rich_text",
                "block_id": "rd6",
                "elements": [
                    {
                        "type": "rich_text_section",
                        "elements": [
                            {
                                "type": "text",
                                "text": "Heres Gloria and I have so far on the information for the app:\n"
                            },
                            {
                                "type": "link",
                                "url": "https:\/\/docs.google.com\/document\/d\/1aIZ1OCfO5fUSeiNZCyBQ05Y1r_lX-IrWpLjlnJj8dz4\/edit?usp=sharing"
                            }
                        ]
                    }
                ]
            }
        ],
        "reactions": [
            {
                "name": "+1",
                "users": [
                    "U01155M7M62"
                ],
                "count": 1
            }
        ]
    },
    {
        "client_msg_id": "2396ad38-d9de-45d1-a5b7-18cb9e0e4af4",
        "type": "message",
        "text": "ok so i made revisions and transferred the changes for the recording pages and share page to builderX, i'm missing error states and dashboard and wonder if someone can help take over",
        "user": "U010L38EL8H",
        "ts": "1585786267.016500",
        "team": "TUU48M0T1",
        "user_team": "TUU48M0T1",
        "source_team": "TUU48M0T1",
        "user_profile": {
            "avatar_hash": "gd13a8df079d",
            "image_72": "https:\/\/secure.gravatar.com\/avatar\/d13a8df079df34cd0dbc819b8db3f459.jpg?s=72&d=https%3A%2F%2Fa.slack-edge.com%2Fdf10d%2Fimg%2Favatars%2Fava_0002-72.png",
            "first_name": "",
            "real_name": "Gloria Zhong",
            "display_name": "Gloria Zhong",
            "team": "TUU48M0T1",
            "name": "gzhong17",
            "is_restricted": false,
            "is_ultra_restricted": false
        },
        "edited": {
            "user": "U010L38EL8H",
            "ts": "1585786347.000000"
        },
        "blocks": [
            {
                "type": "rich_text",
                "block_id": "KV7s",
                "elements": [
                    {
                        "type": "rich_text_section",
                        "elements": [
                            {
                                "type": "text",
                                "text": "ok so i made revisions and transferred the changes for the recording pages and share page to builderX, i'm missing error states and dashboard and wonder if someone can help take over"
                            }
                        ]
                    }
                ]
            }
        ]
    },
    {
        "client_msg_id": "3822c290-3812-45b9-90dd-dab88bcc0f11",
        "type": "message",
        "text": "Thank  you <@U010HGKFDNE>!",
        "user": "U01155M7M62",
        "ts": "1585786618.017600",
        "team": "TUU48M0T1",
        "user_team": "TUU48M0T1",
        "source_team": "TUU48M0T1",
        "user_profile": {
            "avatar_hash": "g009ca02c22b",
            "image_72": "https:\/\/secure.gravatar.com\/avatar\/009ca02c22b6e79ad9db59c60c6957ea.jpg?s=72&d=https%3A%2F%2Fa.slack-edge.com%2Fdf10d%2Fimg%2Favatars%2Fava_0006-72.png",
            "first_name": "Jenny",
            "real_name": "Jenny Lee",
            "display_name": "Jenny Lee",
            "team": "TUU48M0T1",
            "name": "jennyxxdance",
            "is_restricted": false,
            "is_ultra_restricted": false
        },
        "blocks": [
            {
                "type": "rich_text",
                "block_id": "PNPx6",
                "elements": [
                    {
                        "type": "rich_text_section",
                        "elements": [
                            {
                                "type": "text",
                                "text": "Thank  you "
                            },
                            {
                                "type": "user",
                                "user_id": "U010HGKFDNE"
                            },
                            {
                                "type": "text",
                                "text": "!"
                            }
                        ]
                    }
                ]
            }
        ]
    },
    {
        "client_msg_id": "67144299-bc6c-4382-883b-b3feb476527c",
        "type": "message",
        "text": "I’ll take a  look",
        "user": "U01155M7M62",
        "ts": "1585786629.017900",
        "team": "TUU48M0T1",
        "user_team": "TUU48M0T1",
        "source_team": "TUU48M0T1",
        "user_profile": {
            "avatar_hash": "g009ca02c22b",
            "image_72": "https:\/\/secure.gravatar.com\/avatar\/009ca02c22b6e79ad9db59c60c6957ea.jpg?s=72&d=https%3A%2F%2Fa.slack-edge.com%2Fdf10d%2Fimg%2Favatars%2Fava_0006-72.png",
            "first_name": "Jenny",
            "real_name": "Jenny Lee",
            "display_name": "Jenny Lee",
            "team": "TUU48M0T1",
            "name": "jennyxxdance",
            "is_restricted": false,
            "is_ultra_restricted": false
        },
        "blocks": [
            {
                "type": "rich_text",
                "block_id": "Pkp",
                "elements": [
                    {
                        "type": "rich_text_section",
                        "elements": [
                            {
                                "type": "text",
                                "text": "I’ll take a  look"
                            }
                        ]
                    }
                ]
            }
        ]
    },
    {
        "client_msg_id": "9d9959be-4761-44cc-b12b-594a0afd3c62",
        "type": "message",
        "text": "I’ll add on ideas for further details and let you guys know!",
        "user": "U01155M7M62",
        "ts": "1585786676.018600",
        "team": "TUU48M0T1",
        "user_team": "TUU48M0T1",
        "source_team": "TUU48M0T1",
        "user_profile": {
            "avatar_hash": "g009ca02c22b",
            "image_72": "https:\/\/secure.gravatar.com\/avatar\/009ca02c22b6e79ad9db59c60c6957ea.jpg?s=72&d=https%3A%2F%2Fa.slack-edge.com%2Fdf10d%2Fimg%2Favatars%2Fava_0006-72.png",
            "first_name": "Jenny",
            "real_name": "Jenny Lee",
            "display_name": "Jenny Lee",
            "team": "TUU48M0T1",
            "name": "jennyxxdance",
            "is_restricted": false,
            "is_ultra_restricted": false
        },
        "blocks": [
            {
                "type": "rich_text",
                "block_id": "F2bq",
                "elements": [
                    {
                        "type": "rich_text_section",
                        "elements": [
                            {
                                "type": "text",
                                "text": "I’ll add on ideas for further details and let you guys know!"
                            }
                        ]
                    }
                ]
            }
        ]
    },
    {
        "type": "message",
        "text": "FYI i made a new page with my revisions if anyone needs the design on sketch, otherwise refer to builderX for the latest revision",
        "files": [
            {
                "id": "F010WATSF3L",
                "created": 1585787583,
                "timestamp": 1585787583,
                "name": "CoughChecker_V1.1.sketch",
                "title": "CoughChecker_V1.1.sketch",
                "mimetype": "application\/x-sketch",
                "filetype": "sketch",
                "pretty_type": "Sketch File",
                "user": "U010L38EL8H",
                "editable": false,
                "size": 11198745,
                "mode": "hosted",
                "is_external": false,
                "external_type": "",
                "is_public": true,
                "public_url_shared": false,
                "display_as_bot": false,
                "username": "",
                "url_private": "https:\/\/files.slack.com\/files-pri\/TUU48M0T1-F010WATSF3L\/coughchecker_v1.1.sketch?t=xoxe-980144714919-1106606678066-1105227127893-6f722bb664235052954ad46852628b64",
                "url_private_download": "https:\/\/files.slack.com\/files-pri\/TUU48M0T1-F010WATSF3L\/download\/coughchecker_v1.1.sketch?t=xoxe-980144714919-1106606678066-1105227127893-6f722bb664235052954ad46852628b64",
                "permalink": "https:\/\/open-covid19.slack.com\/files\/U010L38EL8H\/F010WATSF3L\/coughchecker_v1.1.sketch",
                "permalink_public": "https:\/\/slack-files.com\/TUU48M0T1-F010WATSF3L-9b9e063a5d",
                "is_starred": false,
                "has_rich_preview": false
            }
        ],
        "upload": true,
        "blocks": [
            {
                "type": "rich_text",
                "block_id": "pOe",
                "elements": [
                    {
                        "type": "rich_text_section",
                        "elements": [
                            {
                                "type": "text",
                                "text": "FYI i made a new page with my revisions if anyone needs the design on sketch, otherwise refer to builderX for the latest revision"
                            }
                        ]
                    }
                ]
            }
        ],
        "user": "U010L38EL8H",
        "display_as_bot": false,
        "ts": "1585787591.019200",
        "client_msg_id": "fb64ee08-a7e2-499f-862f-e3fd64d0bc8a"
    },
    {
        "client_msg_id": "651faef9-69cb-4e0e-9ed5-302ed01981fe",
        "type": "message",
        "text": "Alright thank you Gloria :slightly_smiling_face:",
        "user": "U01155M7M62",
        "ts": "1585789380.019700",
        "team": "TUU48M0T1",
        "user_team": "TUU48M0T1",
        "source_team": "TUU48M0T1",
        "user_profile": {
            "avatar_hash": "g009ca02c22b",
            "image_72": "https:\/\/secure.gravatar.com\/avatar\/009ca02c22b6e79ad9db59c60c6957ea.jpg?s=72&d=https%3A%2F%2Fa.slack-edge.com%2Fdf10d%2Fimg%2Favatars%2Fava_0006-72.png",
            "first_name": "Jenny",
            "real_name": "Jenny Lee",
            "display_name": "Jenny Lee",
            "team": "TUU48M0T1",
            "name": "jennyxxdance",
            "is_restricted": false,
            "is_ultra_restricted": false
        },
        "blocks": [
            {
                "type": "rich_text",
                "block_id": "Xmm\/",
                "elements": [
                    {
                        "type": "rich_text_section",
                        "elements": [
                            {
                                "type": "text",
                                "text": "Alright thank you Gloria "
                            },
                            {
                                "type": "emoji",
                                "name": "slightly_smiling_face"
                            }
                        ]
                    }
                ]
            }
        ]
    },
    {
        "client_msg_id": "e8c737c9-8047-43be-a2cf-568fc58d84dc",
        "type": "message",
        "text": "<!channel> By the way guys, Global Community Call has recently released the application for having project  reviewed",
        "user": "U01155M7M62",
        "ts": "1585789401.020200",
        "team": "TUU48M0T1",
        "user_team": "TUU48M0T1",
        "source_team": "TUU48M0T1",
        "user_profile": {
            "avatar_hash": "g009ca02c22b",
            "image_72": "https:\/\/secure.gravatar.com\/avatar\/009ca02c22b6e79ad9db59c60c6957ea.jpg?s=72&d=https%3A%2F%2Fa.slack-edge.com%2Fdf10d%2Fimg%2Favatars%2Fava_0006-72.png",
            "first_name": "Jenny",
            "real_name": "Jenny Lee",
            "display_name": "Jenny Lee",
            "team": "TUU48M0T1",
            "name": "jennyxxdance",
            "is_restricted": false,
            "is_ultra_restricted": false
        },
        "blocks": [
            {
                "type": "rich_text",
                "block_id": "Um1",
                "elements": [
                    {
                        "type": "rich_text_section",
                        "elements": [
                            {
                                "type": "broadcast",
                                "range": "channel"
                            },
                            {
                                "type": "text",
                                "text": " By the way guys, Global Community Call has recently released the application for having project  reviewed"
                            }
                        ]
                    }
                ]
            }
        ]
    },
    {
        "client_msg_id": "f9d810d5-cc40-4b61-a115-26723e1f5b0a",
        "type": "message",
        "text": "Are we doing  this?",
        "user": "U01155M7M62",
        "ts": "1585789403.020400",
        "team": "TUU48M0T1",
        "user_team": "TUU48M0T1",
        "source_team": "TUU48M0T1",
        "user_profile": {
            "avatar_hash": "g009ca02c22b",
            "image_72": "https:\/\/secure.gravatar.com\/avatar\/009ca02c22b6e79ad9db59c60c6957ea.jpg?s=72&d=https%3A%2F%2Fa.slack-edge.com%2Fdf10d%2Fimg%2Favatars%2Fava_0006-72.png",
            "first_name": "Jenny",
            "real_name": "Jenny Lee",
            "display_name": "Jenny Lee",
            "team": "TUU48M0T1",
            "name": "jennyxxdance",
            "is_restricted": false,
            "is_ultra_restricted": false
        },
        "blocks": [
            {
                "type": "rich_text",
                "block_id": "QkX",
                "elements": [
                    {
                        "type": "rich_text_section",
                        "elements": [
                            {
                                "type": "text",
                                "text": "Are we doing  this?"
                            }
                        ]
                    }
                ]
            }
        ]
    }
]