[
    {
        "client_msg_id": "6a28d36e-1a72-4b05-94b7-813c1ad65ce7",
        "type": "message",
        "text": "This paper attempts to recognize age, height, weight, and smoking habbit from speech.\nNeed to read still, not sure how they address biases nor how diverse their sampling is.\nI'll try and research to authors today.\n\n<https:\/\/ieeexplore.ieee.org\/abstract\/document\/6993339>",
        "user": "UVDCTDP8B",
        "ts": "1586344944.075500",
        "team": "TUU48M0T1",
        "user_team": "TUU48M0T1",
        "source_team": "TUU48M0T1",
        "user_profile": {
            "avatar_hash": "b9681d276810",
            "image_72": "https:\/\/avatars.slack-edge.com\/2020-03-21\/1018866726103_b9681d2768103ad056d7_72.jpg",
            "first_name": "",
            "real_name": "Wesley",
            "display_name": "Wesley",
            "team": "TUU48M0T1",
            "name": "someprogrammerorsomet",
            "is_restricted": false,
            "is_ultra_restricted": false
        },
        "attachments": [
            {
                "title": "Multitask speaker profiling for estimating age, height, weight and smoking habits from spontaneous telephone speech signals - IEEE Conference Publication",
                "title_link": "https:\/\/ieeexplore.ieee.org\/abstract\/document\/6993339",
                "text": "This paper proposes a novel approach for automatic estimation of four important traits of speakers, namely age, height, weight and smoking habit, from spee",
                "fallback": "Multitask speaker profiling for estimating age, height, weight and smoking habits from spontaneous telephone speech signals - IEEE Conference Publication",
                "from_url": "https:\/\/ieeexplore.ieee.org\/abstract\/document\/6993339",
                "service_icon": "https:\/\/ieeexplore.ieee.org\/favicon.ico",
                "service_name": "ieeexplore.ieee.org",
                "id": 1,
                "original_url": "https:\/\/ieeexplore.ieee.org\/abstract\/document\/6993339"
            }
        ],
        "blocks": [
            {
                "type": "rich_text",
                "block_id": "Rvyw",
                "elements": [
                    {
                        "type": "rich_text_section",
                        "elements": [
                            {
                                "type": "text",
                                "text": "This paper attempts to recognize age, height, weight, and smoking habbit from speech.\nNeed to read still, not sure how they address biases nor how diverse their sampling is.\nI'll try and research to authors today.\n\n"
                            },
                            {
                                "type": "link",
                                "url": "https:\/\/ieeexplore.ieee.org\/abstract\/document\/6993339"
                            }
                        ]
                    }
                ]
            }
        ]
    },
    {
        "client_msg_id": "24d6c95e-d521-4b1f-aeb9-70e561d8cceb",
        "type": "message",
        "text": "Federated Machine Learning\n• Potential avenue for fighting problems with Isolated Data Islands AND potentially a way to strengthen data privacy &amp; security of shared data and models\n<https:\/\/arxiv.org\/abs\/1902.04885>",
        "user": "UVDCTDP8B",
        "ts": "1586347647.077200",
        "team": "TUU48M0T1",
        "user_team": "TUU48M0T1",
        "source_team": "TUU48M0T1",
        "user_profile": {
            "avatar_hash": "b9681d276810",
            "image_72": "https:\/\/avatars.slack-edge.com\/2020-03-21\/1018866726103_b9681d2768103ad056d7_72.jpg",
            "first_name": "",
            "real_name": "Wesley",
            "display_name": "Wesley",
            "team": "TUU48M0T1",
            "name": "someprogrammerorsomet",
            "is_restricted": false,
            "is_ultra_restricted": false
        },
        "attachments": [
            {
                "service_name": "arXiv.org",
                "title": "Federated Machine Learning: Concept and Applications",
                "title_link": "https:\/\/arxiv.org\/abs\/1902.04885",
                "text": "Today's AI still faces two major challenges. One is that in most industries, data exists in the form of isolated islands. The other is the strengthening of data privacy and security. We propose a...",
                "fallback": "arXiv.org: Federated Machine Learning: Concept and Applications",
                "from_url": "https:\/\/arxiv.org\/abs\/1902.04885",
                "service_icon": "https:\/\/static.arxiv.org\/static\/browse\/0.2.9\/images\/icons\/favicon.ico",
                "id": 1,
                "original_url": "https:\/\/arxiv.org\/abs\/1902.04885"
            }
        ],
        "blocks": [
            {
                "type": "rich_text",
                "block_id": "3yd9Z",
                "elements": [
                    {
                        "type": "rich_text_section",
                        "elements": [
                            {
                                "type": "text",
                                "text": "Federated Machine Learning\n"
                            }
                        ]
                    },
                    {
                        "type": "rich_text_list",
                        "elements": [
                            {
                                "type": "rich_text_section",
                                "elements": [
                                    {
                                        "type": "text",
                                        "text": "Potential avenue for fighting problems with Isolated Data Islands AND potentially a way to strengthen data privacy & security of shared data and models"
                                    }
                                ]
                            }
                        ],
                        "style": "bullet",
                        "indent": 0
                    },
                    {
                        "type": "rich_text_section",
                        "elements": [
                            {
                                "type": "text",
                                "text": "\n"
                            },
                            {
                                "type": "link",
                                "url": "https:\/\/arxiv.org\/abs\/1902.04885"
                            }
                        ]
                    }
                ]
            }
        ],
        "thread_ts": "1586347647.077200",
        "reply_count": 2,
        "reply_users_count": 1,
        "latest_reply": "1586348308.078000",
        "reply_users": [
            "UVDCTDP8B"
        ],
        "replies": [
            {
                "user": "UVDCTDP8B",
                "ts": "1586348026.077400"
            },
            {
                "user": "UVDCTDP8B",
                "ts": "1586348308.078000"
            }
        ],
        "subscribed": false
    },
    {
        "client_msg_id": "ad4536c9-5dc5-463c-b381-6708b089e95d",
        "type": "message",
        "text": "<https:\/\/en.wikipedia.org\/wiki\/Federated_learning>",
        "user": "UVDCTDP8B",
        "ts": "1586348026.077400",
        "team": "TUU48M0T1",
        "user_team": "TUU48M0T1",
        "source_team": "TUU48M0T1",
        "user_profile": {
            "avatar_hash": "b9681d276810",
            "image_72": "https:\/\/avatars.slack-edge.com\/2020-03-21\/1018866726103_b9681d2768103ad056d7_72.jpg",
            "first_name": "",
            "real_name": "Wesley",
            "display_name": "Wesley",
            "team": "TUU48M0T1",
            "name": "someprogrammerorsomet",
            "is_restricted": false,
            "is_ultra_restricted": false
        },
        "attachments": [
            {
                "image_url": "https:\/\/upload.wikimedia.org\/wikipedia\/commons\/e\/e2\/Federated_learning_process_central_case.png",
                "image_width": 906,
                "image_height": 435,
                "image_bytes": 75100,
                "title": "Federated learning",
                "title_link": "https:\/\/en.wikipedia.org\/wiki\/Federated_learning",
                "from_url": "https:\/\/en.wikipedia.org\/wiki\/Federated_learning",
                "author_name": "Wikipedia",
                "author_link": "https:\/\/en.wikipedia.org\/",
                "text": "Federated learning (aka collaborative learning) is a machine learning technique that trains an algorithm across multiple decentralized edge devices or servers holding local data samples, without exchanging their data samples. This approach stands in contrast to traditional centralized machine learning techniques where all data samples are uploaded to one server, as well as to more classical decentralized approaches which assume that local data samples are identically distributed.\nFederated learning enables multiple actors to build a common, robust machine learning model without sharing data, thus addressing critical issues such as data privacy, data security, data access rights and access to heterogeneous data. Its applications are spread over a number of industries including defense, telecommunications, IoT, or pharmaceutics.",
                "fallback": "wikipedia: Federated learning",
                "service_icon": "https:\/\/a.slack-edge.com\/80588\/img\/unfurl_icons\/wikipedia.png",
                "id": 1,
                "original_url": "https:\/\/en.wikipedia.org\/wiki\/Federated_learning"
            }
        ],
        "blocks": [
            {
                "type": "rich_text",
                "block_id": "AX7jQ",
                "elements": [
                    {
                        "type": "rich_text_section",
                        "elements": [
                            {
                                "type": "link",
                                "url": "https:\/\/en.wikipedia.org\/wiki\/Federated_learning"
                            }
                        ]
                    }
                ]
            }
        ],
        "thread_ts": "1586347647.077200",
        "parent_user_id": "UVDCTDP8B"
    },
    {
        "client_msg_id": "ac9132de-13fa-4743-8257-01faf89bc056",
        "type": "message",
        "text": "Federated Learning Link Spam ( not of all these emphasize the privacy, but the op does ) :\n\n• <https:\/\/arxiv.org\/abs\/1610.02527>\n• <https:\/\/arxiv.org\/abs\/1610.05492>\n• <https:\/\/arxiv.org\/abs\/1602.05629>",
        "user": "UVDCTDP8B",
        "ts": "1586348308.078000",
        "team": "TUU48M0T1",
        "user_team": "TUU48M0T1",
        "source_team": "TUU48M0T1",
        "user_profile": {
            "avatar_hash": "b9681d276810",
            "image_72": "https:\/\/avatars.slack-edge.com\/2020-03-21\/1018866726103_b9681d2768103ad056d7_72.jpg",
            "first_name": "",
            "real_name": "Wesley",
            "display_name": "Wesley",
            "team": "TUU48M0T1",
            "name": "someprogrammerorsomet",
            "is_restricted": false,
            "is_ultra_restricted": false
        },
        "attachments": [
            {
                "service_name": "arXiv.org",
                "title": "Federated Optimization: Distributed Machine Learning for On-Device...",
                "title_link": "https:\/\/arxiv.org\/abs\/1610.02527",
                "text": "We introduce a new and increasingly relevant setting for distributed optimization in machine learning, where the data defining the optimization are unevenly distributed over an extremely large...",
                "fallback": "arXiv.org: Federated Optimization: Distributed Machine Learning for On-Device...",
                "from_url": "https:\/\/arxiv.org\/abs\/1610.02527",
                "service_icon": "https:\/\/static.arxiv.org\/static\/browse\/0.2.9\/images\/icons\/favicon.ico",
                "id": 1,
                "original_url": "https:\/\/arxiv.org\/abs\/1610.02527"
            },
            {
                "service_name": "arXiv.org",
                "title": "Federated Learning: Strategies for Improving Communication Efficiency",
                "title_link": "https:\/\/arxiv.org\/abs\/1610.05492",
                "text": "Federated Learning is a machine learning setting where the goal is to train a high-quality centralized model while training data remains distributed over a large number of clients each with...",
                "fallback": "arXiv.org: Federated Learning: Strategies for Improving Communication Efficiency",
                "from_url": "https:\/\/arxiv.org\/abs\/1610.05492",
                "service_icon": "https:\/\/static.arxiv.org\/static\/browse\/0.2.9\/images\/icons\/favicon.ico",
                "id": 2,
                "original_url": "https:\/\/arxiv.org\/abs\/1610.05492"
            },
            {
                "service_name": "arXiv.org",
                "title": "Communication-Efficient Learning of Deep Networks from Decentralized Data",
                "title_link": "https:\/\/arxiv.org\/abs\/1602.05629",
                "text": "Modern mobile devices have access to a wealth of data suitable for learning models, which in turn can greatly improve the user experience on the device. For example, language models can improve...",
                "fallback": "arXiv.org: Communication-Efficient Learning of Deep Networks from Decentralized Data",
                "from_url": "https:\/\/arxiv.org\/abs\/1602.05629",
                "service_icon": "https:\/\/static.arxiv.org\/static\/browse\/0.2.9\/images\/icons\/favicon.ico",
                "id": 3,
                "original_url": "https:\/\/arxiv.org\/abs\/1602.05629"
            }
        ],
        "blocks": [
            {
                "type": "rich_text",
                "block_id": "OuCV",
                "elements": [
                    {
                        "type": "rich_text_section",
                        "elements": [
                            {
                                "type": "text",
                                "text": "Federated Learning Link Spam ( not of all these emphasize the privacy, but the op does ) :\n\n"
                            }
                        ]
                    },
                    {
                        "type": "rich_text_list",
                        "elements": [
                            {
                                "type": "rich_text_section",
                                "elements": [
                                    {
                                        "type": "link",
                                        "url": "https:\/\/arxiv.org\/abs\/1610.02527"
                                    }
                                ]
                            },
                            {
                                "type": "rich_text_section",
                                "elements": [
                                    {
                                        "type": "link",
                                        "url": "https:\/\/arxiv.org\/abs\/1610.05492"
                                    }
                                ]
                            },
                            {
                                "type": "rich_text_section",
                                "elements": [
                                    {
                                        "type": "link",
                                        "url": "https:\/\/arxiv.org\/abs\/1602.05629"
                                    }
                                ]
                            }
                        ],
                        "style": "bullet",
                        "indent": 0
                    }
                ]
            }
        ],
        "thread_ts": "1586347647.077200",
        "parent_user_id": "UVDCTDP8B"
    },
    {
        "client_msg_id": "9332590c-9d8d-4c5d-a39d-3eed5afd8e52",
        "type": "message",
        "text": "<@U010WDF7UAC> is this the paper you were referring to:\n• <https:\/\/ubicomplab.cs.washington.edu\/pdfs\/accurate-and.pdf>\n?",
        "user": "UVDCTDP8B",
        "ts": "1586350935.080400",
        "team": "TUU48M0T1",
        "user_team": "TUU48M0T1",
        "source_team": "TUU48M0T1",
        "user_profile": {
            "avatar_hash": "b9681d276810",
            "image_72": "https:\/\/avatars.slack-edge.com\/2020-03-21\/1018866726103_b9681d2768103ad056d7_72.jpg",
            "first_name": "",
            "real_name": "Wesley",
            "display_name": "Wesley",
            "team": "TUU48M0T1",
            "name": "someprogrammerorsomet",
            "is_restricted": false,
            "is_ultra_restricted": false
        },
        "blocks": [
            {
                "type": "rich_text",
                "block_id": "9r1Hd",
                "elements": [
                    {
                        "type": "rich_text_section",
                        "elements": [
                            {
                                "type": "user",
                                "user_id": "U010WDF7UAC"
                            },
                            {
                                "type": "text",
                                "text": " is this the paper you were referring to:\n"
                            }
                        ]
                    },
                    {
                        "type": "rich_text_list",
                        "elements": [
                            {
                                "type": "rich_text_section",
                                "elements": [
                                    {
                                        "type": "link",
                                        "url": "https:\/\/ubicomplab.cs.washington.edu\/pdfs\/accurate-and.pdf"
                                    }
                                ]
                            }
                        ],
                        "style": "bullet",
                        "indent": 0
                    },
                    {
                        "type": "rich_text_section",
                        "elements": [
                            {
                                "type": "text",
                                "text": "\n?"
                            }
                        ]
                    }
                ]
            }
        ],
        "thread_ts": "1586350935.080400",
        "reply_count": 7,
        "reply_users_count": 2,
        "latest_reply": "1586368357.082300",
        "reply_users": [
            "U010WDF7UAC",
            "UVDCTDP8B"
        ],
        "replies": [
            {
                "user": "U010WDF7UAC",
                "ts": "1586358692.080800"
            },
            {
                "user": "UVDCTDP8B",
                "ts": "1586359032.081000"
            },
            {
                "user": "U010WDF7UAC",
                "ts": "1586365745.081300"
            },
            {
                "user": "U010WDF7UAC",
                "ts": "1586365762.081500"
            },
            {
                "user": "U010WDF7UAC",
                "ts": "1586365790.081700"
            },
            {
                "user": "U010WDF7UAC",
                "ts": "1586365799.081900"
            },
            {
                "user": "UVDCTDP8B",
                "ts": "1586368357.082300"
            }
        ],
        "subscribed": false
    },
    {
        "type": "message",
        "subtype": "channel_join",
        "ts": "1586358217.080700",
        "user": "U010859829K",
        "text": "<@U010859829K> has joined the channel",
        "inviter": "U010KAJ3SLW"
    },
    {
        "client_msg_id": "4356d782-381f-4c53-880c-6f2d0e7d8ea3",
        "type": "message",
        "text": "yeah that's our paper from a long time ago. we use deep learning now",
        "user": "U010WDF7UAC",
        "ts": "1586358692.080800",
        "team": "TUU48M0T1",
        "user_team": "TUU48M0T1",
        "source_team": "TUU48M0T1",
        "user_profile": {
            "avatar_hash": "gdbf21ad7882",
            "image_72": "https:\/\/secure.gravatar.com\/avatar\/dbf21ad788225733e268de894df5034f.jpg?s=72&d=https%3A%2F%2Fa.slack-edge.com%2Fdf10d%2Fimg%2Favatars%2Fava_0024-72.png",
            "first_name": "",
            "real_name": "Matt Whitehill",
            "display_name": "Matt Whitehill",
            "team": "TUU48M0T1",
            "name": "mattw12",
            "is_restricted": false,
            "is_ultra_restricted": false
        },
        "blocks": [
            {
                "type": "rich_text",
                "block_id": "eZI",
                "elements": [
                    {
                        "type": "rich_text_section",
                        "elements": [
                            {
                                "type": "text",
                                "text": "yeah that's our paper from a long time ago. we use deep learning now"
                            }
                        ]
                    }
                ]
            }
        ],
        "thread_ts": "1586350935.080400",
        "parent_user_id": "UVDCTDP8B"
    },
    {
        "client_msg_id": "efcd3751-8fe9-4e4d-a863-e83241f94ec3",
        "type": "message",
        "text": "Do you have a paper that elaborates on your new approaches?\nThe privacy aspect of using PCA seems interesting to me, do you just classify based off of that via deep learning?",
        "user": "UVDCTDP8B",
        "ts": "1586359032.081000",
        "team": "TUU48M0T1",
        "user_team": "TUU48M0T1",
        "source_team": "TUU48M0T1",
        "user_profile": {
            "avatar_hash": "b9681d276810",
            "image_72": "https:\/\/avatars.slack-edge.com\/2020-03-21\/1018866726103_b9681d2768103ad056d7_72.jpg",
            "first_name": "",
            "real_name": "Wesley",
            "display_name": "Wesley",
            "team": "TUU48M0T1",
            "name": "someprogrammerorsomet",
            "is_restricted": false,
            "is_ultra_restricted": false
        },
        "edited": {
            "user": "UVDCTDP8B",
            "ts": "1586359261.000000"
        },
        "blocks": [
            {
                "type": "rich_text",
                "block_id": "MrVwa",
                "elements": [
                    {
                        "type": "rich_text_section",
                        "elements": [
                            {
                                "type": "text",
                                "text": "Do you have a paper that elaborates on your new approaches?\nThe privacy aspect of using PCA seems interesting to me, do you just classify based off of that via deep learning?"
                            }
                        ]
                    }
                ]
            }
        ],
        "thread_ts": "1586350935.080400",
        "parent_user_id": "UVDCTDP8B"
    },
    {
        "client_msg_id": "472fb511-7785-45e4-abe8-c5f0d0567665",
        "type": "message",
        "text": "unfortunately I don't - we didn't publish the results because it didn't include enough of an innovation over others. but our approach is simple - we convert to the MF spec then use a convolutional neural network",
        "user": "U010WDF7UAC",
        "ts": "1586365745.081300",
        "team": "TUU48M0T1",
        "user_team": "TUU48M0T1",
        "source_team": "TUU48M0T1",
        "user_profile": {
            "avatar_hash": "gdbf21ad7882",
            "image_72": "https:\/\/secure.gravatar.com\/avatar\/dbf21ad788225733e268de894df5034f.jpg?s=72&d=https%3A%2F%2Fa.slack-edge.com%2Fdf10d%2Fimg%2Favatars%2Fava_0024-72.png",
            "first_name": "",
            "real_name": "Matt Whitehill",
            "display_name": "Matt Whitehill",
            "team": "TUU48M0T1",
            "name": "mattw12",
            "is_restricted": false,
            "is_ultra_restricted": false
        },
        "blocks": [
            {
                "type": "rich_text",
                "block_id": "W=3W",
                "elements": [
                    {
                        "type": "rich_text_section",
                        "elements": [
                            {
                                "type": "text",
                                "text": "unfortunately I don't - we didn't publish the results because it didn't include enough of an innovation over others. but our approach is simple - we convert to the MF spec then use a convolutional neural network"
                            }
                        ]
                    }
                ]
            }
        ],
        "thread_ts": "1586350935.080400",
        "parent_user_id": "UVDCTDP8B"
    },
    {
        "client_msg_id": "9c9f7589-10f1-4655-9024-9f0be92be192",
        "type": "message",
        "text": "yeah the PCA was a cool touch - they use a random forrest to do the classification",
        "user": "U010WDF7UAC",
        "ts": "1586365762.081500",
        "team": "TUU48M0T1",
        "user_team": "TUU48M0T1",
        "source_team": "TUU48M0T1",
        "user_profile": {
            "avatar_hash": "gdbf21ad7882",
            "image_72": "https:\/\/secure.gravatar.com\/avatar\/dbf21ad788225733e268de894df5034f.jpg?s=72&d=https%3A%2F%2Fa.slack-edge.com%2Fdf10d%2Fimg%2Favatars%2Fava_0024-72.png",
            "first_name": "",
            "real_name": "Matt Whitehill",
            "display_name": "Matt Whitehill",
            "team": "TUU48M0T1",
            "name": "mattw12",
            "is_restricted": false,
            "is_ultra_restricted": false
        },
        "blocks": [
            {
                "type": "rich_text",
                "block_id": "mPaP",
                "elements": [
                    {
                        "type": "rich_text_section",
                        "elements": [
                            {
                                "type": "text",
                                "text": "yeah the PCA was a cool touch - they use a random forrest to do the classification"
                            }
                        ]
                    }
                ]
            }
        ],
        "thread_ts": "1586350935.080400",
        "parent_user_id": "UVDCTDP8B",
        "reactions": [
            {
                "name": "100",
                "users": [
                    "UVDCTDP8B"
                ],
                "count": 1
            },
            {
                "name": "+1",
                "users": [
                    "UVDCTDP8B"
                ],
                "count": 1
            }
        ]
    },
    {
        "client_msg_id": "8d13f51a-dce8-43b7-ab55-0d60d0a6e919",
        "type": "message",
        "text": "I have a paper that will be published in may that should be released soon",
        "user": "U010WDF7UAC",
        "ts": "1586365790.081700",
        "team": "TUU48M0T1",
        "user_team": "TUU48M0T1",
        "source_team": "TUU48M0T1",
        "user_profile": {
            "avatar_hash": "gdbf21ad7882",
            "image_72": "https:\/\/secure.gravatar.com\/avatar\/dbf21ad788225733e268de894df5034f.jpg?s=72&d=https%3A%2F%2Fa.slack-edge.com%2Fdf10d%2Fimg%2Favatars%2Fava_0024-72.png",
            "first_name": "",
            "real_name": "Matt Whitehill",
            "display_name": "Matt Whitehill",
            "team": "TUU48M0T1",
            "name": "mattw12",
            "is_restricted": false,
            "is_ultra_restricted": false
        },
        "blocks": [
            {
                "type": "rich_text",
                "block_id": "1BDf",
                "elements": [
                    {
                        "type": "rich_text_section",
                        "elements": [
                            {
                                "type": "text",
                                "text": "I have a paper that will be published in may that should be released soon"
                            }
                        ]
                    }
                ]
            }
        ],
        "thread_ts": "1586350935.080400",
        "parent_user_id": "UVDCTDP8B"
    },
    {
        "client_msg_id": "8a9db425-28b2-47e9-8992-61de489c1df1",
        "type": "message",
        "text": "on a related cough task",
        "user": "U010WDF7UAC",
        "ts": "1586365799.081900",
        "team": "TUU48M0T1",
        "user_team": "TUU48M0T1",
        "source_team": "TUU48M0T1",
        "user_profile": {
            "avatar_hash": "gdbf21ad7882",
            "image_72": "https:\/\/secure.gravatar.com\/avatar\/dbf21ad788225733e268de894df5034f.jpg?s=72&d=https%3A%2F%2Fa.slack-edge.com%2Fdf10d%2Fimg%2Favatars%2Fava_0024-72.png",
            "first_name": "",
            "real_name": "Matt Whitehill",
            "display_name": "Matt Whitehill",
            "team": "TUU48M0T1",
            "name": "mattw12",
            "is_restricted": false,
            "is_ultra_restricted": false
        },
        "blocks": [
            {
                "type": "rich_text",
                "block_id": "pzUu",
                "elements": [
                    {
                        "type": "rich_text_section",
                        "elements": [
                            {
                                "type": "text",
                                "text": "on a related cough task"
                            }
                        ]
                    }
                ]
            }
        ],
        "thread_ts": "1586350935.080400",
        "parent_user_id": "UVDCTDP8B"
    },
    {
        "client_msg_id": "69fa8399-288e-4853-a3b9-67dee3f3dd9c",
        "type": "message",
        "text": "Sounds exciting!",
        "user": "UVDCTDP8B",
        "ts": "1586368357.082300",
        "team": "TUU48M0T1",
        "user_team": "TUU48M0T1",
        "source_team": "TUU48M0T1",
        "user_profile": {
            "avatar_hash": "b9681d276810",
            "image_72": "https:\/\/avatars.slack-edge.com\/2020-03-21\/1018866726103_b9681d2768103ad056d7_72.jpg",
            "first_name": "",
            "real_name": "Wesley",
            "display_name": "Wesley",
            "team": "TUU48M0T1",
            "name": "someprogrammerorsomet",
            "is_restricted": false,
            "is_ultra_restricted": false
        },
        "blocks": [
            {
                "type": "rich_text",
                "block_id": "nmKOp",
                "elements": [
                    {
                        "type": "rich_text_section",
                        "elements": [
                            {
                                "type": "text",
                                "text": "Sounds exciting!"
                            }
                        ]
                    }
                ]
            }
        ],
        "thread_ts": "1586350935.080400",
        "parent_user_id": "UVDCTDP8B"
    }
]