[
    {
        "type": "message",
        "text": "Hello <!channel> - I’ve added this challenge a new section to this deck that will be used to share project updates on the Global Community Call later today — please add a slide with your project update!\n<https:\/\/docs.google.com\/presentation\/d\/1-qHD_mQNyNz7i1ODXg2JSi_Rp-3PdUj3VDa8y3BgAlE\/edit#slide=id.g73568cc0b1_0_138>",
        "files": [
            {
                "id": "F011BMZA355",
                "created": 1586299249,
                "timestamp": 1586299249,
                "name": "8",
                "title": "Weekly Updates - Global Community Calls",
                "mimetype": "application\/vnd.google-apps.presentation",
                "filetype": "gpres",
                "pretty_type": "GSuite Presentation",
                "user": "UV0QTJCMT",
                "editable": false,
                "size": 1602,
                "mode": "external",
                "is_external": true,
                "external_type": "gdrive",
                "is_public": true,
                "public_url_shared": false,
                "display_as_bot": false,
                "username": "",
                "url_private": "https:\/\/docs.google.com\/presentation\/d\/1-qHD_mQNyNz7i1ODXg2JSi_Rp-3PdUj3VDa8y3BgAlE\/edit#slide=id.p",
                "thumb_64": "https:\/\/files.slack.com\/files-tmb\/TUU48M0T1-F011BMZA355-18be214ce4\/8_64.png?t=xoxe-980144714919-1133254701825-1120841107731-daf595b5a7d6c9028b0b02a925032e36",
                "thumb_80": "https:\/\/files.slack.com\/files-tmb\/TUU48M0T1-F011BMZA355-18be214ce4\/8_80.png?t=xoxe-980144714919-1133254701825-1120841107731-daf595b5a7d6c9028b0b02a925032e36",
                "thumb_360": "https:\/\/files.slack.com\/files-tmb\/TUU48M0T1-F011BMZA355-18be214ce4\/8_360.png?t=xoxe-980144714919-1133254701825-1120841107731-daf595b5a7d6c9028b0b02a925032e36",
                "thumb_360_w": 360,
                "thumb_360_h": 203,
                "thumb_480": "https:\/\/files.slack.com\/files-tmb\/TUU48M0T1-F011BMZA355-18be214ce4\/8_480.png?t=xoxe-980144714919-1133254701825-1120841107731-daf595b5a7d6c9028b0b02a925032e36",
                "thumb_480_w": 480,
                "thumb_480_h": 270,
                "thumb_160": "https:\/\/files.slack.com\/files-tmb\/TUU48M0T1-F011BMZA355-18be214ce4\/8_160.png?t=xoxe-980144714919-1133254701825-1120841107731-daf595b5a7d6c9028b0b02a925032e36",
                "thumb_720": "https:\/\/files.slack.com\/files-tmb\/TUU48M0T1-F011BMZA355-18be214ce4\/8_720.png?t=xoxe-980144714919-1133254701825-1120841107731-daf595b5a7d6c9028b0b02a925032e36",
                "thumb_720_w": 720,
                "thumb_720_h": 405,
                "thumb_800": "https:\/\/files.slack.com\/files-tmb\/TUU48M0T1-F011BMZA355-18be214ce4\/8_800.png?t=xoxe-980144714919-1133254701825-1120841107731-daf595b5a7d6c9028b0b02a925032e36",
                "thumb_800_w": 800,
                "thumb_800_h": 450,
                "image_exif_rotation": 1,
                "original_w": 800,
                "original_h": 450,
                "thumb_tiny": "AwAbADDTzRUM2NwyB07timLtzghMezmgCzRUSrCTgHOe2aXyU9D+ZoAkooAAAA6CigBjMQM8fjTfMPqtOowPQUAIGYjjbS7n9BRRQAbn9BSgnvSUUAf\/2Q==",
                "permalink": "https:\/\/open-covid19.slack.com\/files\/UV0QTJCMT\/F011BMZA355\/8",
                "is_starred": false,
                "external_id": "1-qHD_mQNyNz7i1ODXg2JSi_Rp-3PdUj3VDa8y3BgAlE",
                "external_url": "https:\/\/docs.google.com\/presentation\/d\/1-qHD_mQNyNz7i1ODXg2JSi_Rp-3PdUj3VDa8y3BgAlE\/edit#slide=id.p",
                "has_rich_preview": true
            }
        ],
        "upload": false,
        "blocks": [
            {
                "type": "rich_text",
                "block_id": "=kEd",
                "elements": [
                    {
                        "type": "rich_text_section",
                        "elements": [
                            {
                                "type": "text",
                                "text": "Hello "
                            },
                            {
                                "type": "broadcast",
                                "range": "channel"
                            },
                            {
                                "type": "text",
                                "text": " - I’ve added this challenge a new section to this deck that will be used to share project updates on the Global Community Call later today — please add a slide with your project update!\n"
                            },
                            {
                                "type": "link",
                                "url": "https:\/\/docs.google.com\/presentation\/d\/1-qHD_mQNyNz7i1ODXg2JSi_Rp-3PdUj3VDa8y3BgAlE\/edit#slide=id.g73568cc0b1_0_138"
                            }
                        ]
                    }
                ]
            }
        ],
        "user": "U011B6VLM2A",
        "display_as_bot": false,
        "x_files": [
            "F011BMZA355"
        ],
        "ts": "1586962591.001200",
        "edited": {
            "user": "U011B6VLM2A",
            "ts": "1586962606.000000"
        },
        "client_msg_id": "534b049e-6c2e-471c-aa7f-47d5e2712181"
    },
    {
        "type": "message",
        "subtype": "channel_join",
        "ts": "1586986089.002400",
        "user": "U011X9JASTC",
        "text": "<@U011X9JASTC> has joined the channel"
    }
]