[
    {
        "type": "message",
        "text": "Anyone having trouble sourcing any reagents? ",
        "files": [
            {
                "id": "F011Q37BSMB",
                "created": 1586747145,
                "timestamp": 1586747145,
                "name": "Image from iOS.jpg",
                "title": "Image from iOS",
                "mimetype": "image\/jpeg",
                "filetype": "jpg",
                "pretty_type": "JPEG",
                "user": "UUNGFHSV8",
                "editable": false,
                "size": 267917,
                "mode": "hosted",
                "is_external": false,
                "external_type": "",
                "is_public": true,
                "public_url_shared": false,
                "display_as_bot": false,
                "username": "",
                "url_private": "https:\/\/files.slack.com\/files-pri\/TUU48M0T1-F011Q37BSMB\/image_from_ios.jpg?t=xoxe-980144714919-1106606678066-1105227127893-6f722bb664235052954ad46852628b64",
                "url_private_download": "https:\/\/files.slack.com\/files-pri\/TUU48M0T1-F011Q37BSMB\/download\/image_from_ios.jpg?t=xoxe-980144714919-1106606678066-1105227127893-6f722bb664235052954ad46852628b64",
                "thumb_64": "https:\/\/files.slack.com\/files-tmb\/TUU48M0T1-F011Q37BSMB-ee08d0af2c\/image_from_ios_64.jpg?t=xoxe-980144714919-1106606678066-1105227127893-6f722bb664235052954ad46852628b64",
                "thumb_80": "https:\/\/files.slack.com\/files-tmb\/TUU48M0T1-F011Q37BSMB-ee08d0af2c\/image_from_ios_80.jpg?t=xoxe-980144714919-1106606678066-1105227127893-6f722bb664235052954ad46852628b64",
                "thumb_360": "https:\/\/files.slack.com\/files-tmb\/TUU48M0T1-F011Q37BSMB-ee08d0af2c\/image_from_ios_360.jpg?t=xoxe-980144714919-1106606678066-1105227127893-6f722bb664235052954ad46852628b64",
                "thumb_360_w": 222,
                "thumb_360_h": 360,
                "thumb_480": "https:\/\/files.slack.com\/files-tmb\/TUU48M0T1-F011Q37BSMB-ee08d0af2c\/image_from_ios_480.jpg?t=xoxe-980144714919-1106606678066-1105227127893-6f722bb664235052954ad46852628b64",
                "thumb_480_w": 296,
                "thumb_480_h": 480,
                "thumb_160": "https:\/\/files.slack.com\/files-tmb\/TUU48M0T1-F011Q37BSMB-ee08d0af2c\/image_from_ios_160.jpg?t=xoxe-980144714919-1106606678066-1105227127893-6f722bb664235052954ad46852628b64",
                "thumb_720": "https:\/\/files.slack.com\/files-tmb\/TUU48M0T1-F011Q37BSMB-ee08d0af2c\/image_from_ios_720.jpg?t=xoxe-980144714919-1106606678066-1105227127893-6f722bb664235052954ad46852628b64",
                "thumb_720_w": 445,
                "thumb_720_h": 720,
                "thumb_800": "https:\/\/files.slack.com\/files-tmb\/TUU48M0T1-F011Q37BSMB-ee08d0af2c\/image_from_ios_800.jpg?t=xoxe-980144714919-1106606678066-1105227127893-6f722bb664235052954ad46852628b64",
                "thumb_800_w": 800,
                "thumb_800_h": 1296,
                "thumb_960": "https:\/\/files.slack.com\/files-tmb\/TUU48M0T1-F011Q37BSMB-ee08d0af2c\/image_from_ios_960.jpg?t=xoxe-980144714919-1106606678066-1105227127893-6f722bb664235052954ad46852628b64",
                "thumb_960_w": 593,
                "thumb_960_h": 960,
                "thumb_1024": "https:\/\/files.slack.com\/files-tmb\/TUU48M0T1-F011Q37BSMB-ee08d0af2c\/image_from_ios_1024.jpg?t=xoxe-980144714919-1106606678066-1105227127893-6f722bb664235052954ad46852628b64",
                "thumb_1024_w": 632,
                "thumb_1024_h": 1024,
                "image_exif_rotation": 1,
                "original_w": 1125,
                "original_h": 1822,
                "thumb_tiny": "AwAwAB2kvP5Up57fkKXaVHG4Ej1FITIepP50AJkDjn8qaaU570lAD1JPU5xS01Opp1ABTG5PFPpjD\/OaAFTqadTU607tQAUxjk0\/IpjHJoA\/\/9k=",
                "permalink": "https:\/\/open-covid19.slack.com\/files\/UUNGFHSV8\/F011Q37BSMB\/image_from_ios.jpg",
                "permalink_public": "https:\/\/slack-files.com\/TUU48M0T1-F011Q37BSMB-67224f4594",
                "is_starred": false,
                "has_rich_preview": false
            }
        ],
        "upload": true,
        "blocks": [
            {
                "type": "rich_text",
                "block_id": "cWaue",
                "elements": [
                    {
                        "type": "rich_text_section",
                        "elements": [
                            {
                                "type": "text",
                                "text": "Anyone having trouble sourcing any reagents? "
                            }
                        ]
                    }
                ]
            }
        ],
        "user": "UUNGFHSV8",
        "display_as_bot": false,
        "ts": "1586747149.001900",
        "client_msg_id": "FDDA3988-277E-4C0D-9DD8-6A696BA8495E"
    }
]