[
    {
        "type": "message",
        "subtype": "channel_join",
        "ts": "1583714305.000200",
        "user": "UUQM4L2AF",
        "text": "<@UUQM4L2AF> has joined the channel"
    },
    {
        "type": "message",
        "subtype": "channel_purpose",
        "ts": "1583714306.000300",
        "user": "UUQM4L2AF",
        "text": "<@UUQM4L2AF> set the channel purpose: Developments in testing and treatment",
        "purpose": "Developments in testing and treatment"
    },
    {
        "type": "message",
        "subtype": "channel_join",
        "ts": "1583714321.000500",
        "user": "UUUEFQW8N",
        "text": "<@UUUEFQW8N> has joined the channel",
        "inviter": "UUQM4L2AF"
    },
    {
        "type": "message",
        "subtype": "channel_join",
        "ts": "1583714321.000700",
        "user": "UV02WET96",
        "text": "<@UV02WET96> has joined the channel",
        "inviter": "UUQM4L2AF"
    },
    {
        "type": "message",
        "subtype": "channel_join",
        "ts": "1583714321.000900",
        "user": "UV3HA9MM4",
        "text": "<@UV3HA9MM4> has joined the channel",
        "inviter": "UUQM4L2AF"
    },
    {
        "type": "message",
        "subtype": "channel_join",
        "ts": "1583714322.001100",
        "user": "UV39M083H",
        "text": "<@UV39M083H> has joined the channel",
        "inviter": "UUQM4L2AF"
    },
    {
        "client_msg_id": "28f46411-f9dc-49e4-ae00-1682a0cd66ce",
        "type": "message",
        "text": "Gates Foundation is debuting a test kit here in King County (Seattle, WA)\n<https:\/\/q13fox.com\/2020\/03\/08\/king-county-reports-2-more-coronavirus-deaths-bringing-statewide-total-to-18\/>",
        "user": "UUQM4L2AF",
        "ts": "1583714348.001700",
        "team": "TUU48M0T1",
        "user_team": "TUU48M0T1",
        "source_team": "TUU48M0T1",
        "user_profile": {
            "avatar_hash": "8498d1c7b98b",
            "image_72": "https:\/\/avatars.slack-edge.com\/2020-03-08\/988293405557_8498d1c7b98b63b41054_72.jpg",
            "first_name": "",
            "real_name": "JJ Hastings",
            "display_name": "JJ Hastings",
            "team": "TUU48M0T1",
            "name": "astro.hacker.2001",
            "is_restricted": false,
            "is_ultra_restricted": false
        },
        "attachments": [
            {
                "service_name": "Q13 FOX News",
                "service_url": "http:\/\/q13fox.com",
                "title": "Three more coronavirus deaths reported Sunday, bringing statewide total to 19",
                "title_link": "https:\/\/q13fox.com\/2020\/03\/08\/king-county-reports-2-more-coronavirus-deaths-bringing-statewide-total-to-18\/",
                "author_name": "Tyler Slauson",
                "author_link": "https:\/\/q13fox.com\/author\/tslauson\/",
                "thumb_url": "https:\/\/tribkcpq.files.wordpress.com\/2020\/03\/hypatia-h_e5d1449bfce0d9c52e9f8352ed5552b1-h_1144ce41ddd29623563cafa0666162e4.jpg?quality=85&strip=all&w=1200&fit=200%2C150",
                "thumb_width": 200,
                "thumb_height": 133,
                "text": "King County on Sunday reported two more deaths linked to coronavirus, bringing the total number of deaths in the state to 18.",
                "fallback": "Q13 FOX News Link: Three more coronavirus deaths reported Sunday, bringing statewide total to&nbsp;19",
                "from_url": "https:\/\/q13fox.com\/2020\/03\/08\/king-county-reports-2-more-coronavirus-deaths-bringing-statewide-total-to-18\/",
                "service_icon": "https:\/\/secure.gravatar.com\/blavatar\/5d3a4599cc1b5c4176496909ea375afa?s=114",
                "id": 1,
                "original_url": "https:\/\/q13fox.com\/2020\/03\/08\/king-county-reports-2-more-coronavirus-deaths-bringing-statewide-total-to-18\/"
            }
        ],
        "blocks": [
            {
                "type": "rich_text",
                "block_id": "PFd\/",
                "elements": [
                    {
                        "type": "rich_text_section",
                        "elements": [
                            {
                                "type": "text",
                                "text": "Gates Foundation is debuting a test kit here in King County (Seattle, WA)\n"
                            },
                            {
                                "type": "link",
                                "url": "https:\/\/q13fox.com\/2020\/03\/08\/king-county-reports-2-more-coronavirus-deaths-bringing-statewide-total-to-18\/"
                            }
                        ]
                    }
                ]
            }
        ],
        "thread_ts": "1583714348.001700",
        "reply_count": 2,
        "reply_users_count": 2,
        "latest_reply": "1583716828.004200",
        "reply_users": [
            "UUUEFQW8N",
            "UV3HA9MM4"
        ],
        "replies": [
            {
                "user": "UUUEFQW8N",
                "ts": "1583714394.002300"
            },
            {
                "user": "UV3HA9MM4",
                "ts": "1583716828.004200"
            }
        ],
        "subscribed": true,
        "last_read": "1583716828.004200",
        "reactions": [
            {
                "name": "100",
                "users": [
                    "UUUEFQW8N"
                ],
                "count": 1
            }
        ]
    },
    {
        "client_msg_id": "cda54432-810e-4f40-9df3-68275db32412",
        "type": "message",
        "text": "yeah i pinged a friend of mine who works at the Foundation (not in that area though) to see whether i can find a connection to them",
        "user": "UUUEFQW8N",
        "ts": "1583714394.002300",
        "team": "TUU48M0T1",
        "user_team": "TUU48M0T1",
        "source_team": "TUU48M0T1",
        "user_profile": {
            "avatar_hash": "5660f4d7fe91",
            "image_72": "https:\/\/avatars.slack-edge.com\/2020-03-06\/974037299378_5660f4d7fe9118b28c09_72.jpg",
            "first_name": "zachmueller",
            "real_name": "zachmueller",
            "display_name": "zachmueller",
            "team": "TUU48M0T1",
            "name": "zach",
            "is_restricted": false,
            "is_ultra_restricted": false
        },
        "blocks": [
            {
                "type": "rich_text",
                "block_id": "sFW\/",
                "elements": [
                    {
                        "type": "rich_text_section",
                        "elements": [
                            {
                                "type": "text",
                                "text": "yeah i pinged a friend of mine who works at the Foundation (not in that area though) to see whether i can find a connection to them"
                            }
                        ]
                    }
                ]
            }
        ],
        "thread_ts": "1583714348.001700",
        "parent_user_id": "UUQM4L2AF",
        "reactions": [
            {
                "name": "+1",
                "users": [
                    "UUQM4L2AF",
                    "UV3HA9MM4"
                ],
                "count": 2
            }
        ]
    },
    {
        "client_msg_id": "1bb34b2e-174c-4cfd-bf43-bf1cd355e1ae",
        "type": "message",
        "text": "Gilead Pharma is running a Phase 3 trial of their existing vaccine for MERS and SARS - looks like they are open to new patients with confirmed cases in WA and Nebraska\n<https:\/\/www.gilead.com\/purpose\/advancing-global-health\/covid-19>",
        "user": "UUQM4L2AF",
        "ts": "1583714440.003000",
        "team": "TUU48M0T1",
        "user_team": "TUU48M0T1",
        "source_team": "TUU48M0T1",
        "user_profile": {
            "avatar_hash": "8498d1c7b98b",
            "image_72": "https:\/\/avatars.slack-edge.com\/2020-03-08\/988293405557_8498d1c7b98b63b41054_72.jpg",
            "first_name": "",
            "real_name": "JJ Hastings",
            "display_name": "JJ Hastings",
            "team": "TUU48M0T1",
            "name": "astro.hacker.2001",
            "is_restricted": false,
            "is_ultra_restricted": false
        },
        "attachments": [
            {
                "title": "COVID-19",
                "title_link": "https:\/\/www.gilead.com\/purpose\/advancing-global-health\/covid-19",
                "text": "COVID-19 description",
                "fallback": "COVID-19",
                "from_url": "https:\/\/www.gilead.com\/purpose\/advancing-global-health\/covid-19",
                "service_icon": "https:\/\/www.gilead.com\/-\/media\/gilead-corporate\/images\/gileadicon.png",
                "service_name": "gilead.com",
                "id": 1,
                "original_url": "https:\/\/www.gilead.com\/purpose\/advancing-global-health\/covid-19"
            }
        ],
        "blocks": [
            {
                "type": "rich_text",
                "block_id": "o1w",
                "elements": [
                    {
                        "type": "rich_text_section",
                        "elements": [
                            {
                                "type": "text",
                                "text": "Gilead Pharma is running a Phase 3 trial of their existing vaccine for MERS and SARS - looks like they are open to new patients with confirmed cases in WA and Nebraska\n"
                            },
                            {
                                "type": "link",
                                "url": "https:\/\/www.gilead.com\/purpose\/advancing-global-health\/covid-19"
                            }
                        ]
                    }
                ]
            }
        ],
        "thread_ts": "1583714440.003000",
        "reply_count": 1,
        "reply_users_count": 1,
        "latest_reply": "1583852249.000100",
        "reply_users": [
            "UURGMNE3T"
        ],
        "replies": [
            {
                "user": "UURGMNE3T",
                "ts": "1583852249.000100"
            }
        ],
        "subscribed": false
    },
    {
        "type": "message",
        "subtype": "channel_join",
        "ts": "1583714819.003400",
        "user": "UV0QTJCMT",
        "text": "<@UV0QTJCMT> has joined the channel"
    },
    {
        "client_msg_id": "89cb6950-faff-43ba-9966-07ab27aaefd6",
        "type": "message",
        "text": "That would be great <@UUUEFQW8N>",
        "user": "UV3HA9MM4",
        "ts": "1583716828.004200",
        "team": "TUU48M0T1",
        "user_team": "TUU48M0T1",
        "source_team": "TUU48M0T1",
        "user_profile": {
            "avatar_hash": "b2f89757c831",
            "image_72": "https:\/\/avatars.slack-edge.com\/2020-03-07\/987455908032_b2f89757c8312ec04011_72.jpg",
            "first_name": "AJP",
            "real_name": "AJP",
            "display_name": "AJP",
            "team": "TUU48M0T1",
            "name": "bioajp",
            "is_restricted": false,
            "is_ultra_restricted": false
        },
        "blocks": [
            {
                "type": "rich_text",
                "block_id": "tjfp",
                "elements": [
                    {
                        "type": "rich_text_section",
                        "elements": [
                            {
                                "type": "text",
                                "text": "That would be great "
                            },
                            {
                                "type": "user",
                                "user_id": "UUUEFQW8N"
                            }
                        ]
                    }
                ]
            }
        ],
        "thread_ts": "1583714348.001700",
        "parent_user_id": "UUQM4L2AF"
    },
    {
        "client_msg_id": "704433ae-3342-4d36-85d5-0a3bce901372",
        "type": "message",
        "text": "I posted a short article here: <https:\/\/biohackspace.org\/2020\/03\/corona-virus-diy-detection\/>",
        "user": "UV3HA9MM4",
        "ts": "1583716848.004600",
        "team": "TUU48M0T1",
        "user_team": "TUU48M0T1",
        "source_team": "TUU48M0T1",
        "user_profile": {
            "avatar_hash": "b2f89757c831",
            "image_72": "https:\/\/avatars.slack-edge.com\/2020-03-07\/987455908032_b2f89757c8312ec04011_72.jpg",
            "first_name": "AJP",
            "real_name": "AJP",
            "display_name": "AJP",
            "team": "TUU48M0T1",
            "name": "bioajp",
            "is_restricted": false,
            "is_ultra_restricted": false
        },
        "blocks": [
            {
                "type": "rich_text",
                "block_id": "NC7HG",
                "elements": [
                    {
                        "type": "rich_text_section",
                        "elements": [
                            {
                                "type": "text",
                                "text": "I posted a short article here: "
                            },
                            {
                                "type": "link",
                                "url": "https:\/\/biohackspace.org\/2020\/03\/corona-virus-diy-detection\/"
                            }
                        ]
                    }
                ]
            }
        ]
    }
]