[
    {
        "type": "message",
        "subtype": "channel_name",
        "ts": "1584300143.007100",
        "user": "UV0QTJCMT",
        "text": "<@UV0QTJCMT> has renamed the channel from \"publicallyannounced\" to \"prgm-media-updates\"",
        "old_name": "publicallyannounced",
        "name": "prgm-media-updates"
    },
    {
        "type": "message",
        "subtype": "channel_topic",
        "ts": "1584300158.007200",
        "user": "UV0QTJCMT",
        "text": "<@UV0QTJCMT> set the channel topic: All and any public news updates\/pandemic developments\/discussions",
        "topic": "All and any public news updates\/pandemic developments\/discussions"
    }
]