[
    {
        "type": "message",
        "subtype": "channel_join",
        "ts": "1586767428.001900",
        "user": "U011B6VLM2A",
        "text": "<@U011B6VLM2A> has joined the channel"
    },
    {
        "client_msg_id": "2652b36b-3f96-4d1a-acf4-07fb7eb6940b",
        "type": "message",
        "text": "book for children (for the pedagogy part of the project) <https:\/\/www.bookbub.com\/blog\/coronavirus-book-for-kids?position=4&amp;source=multicontent&amp;target=title&amp;fbclid=IwAR3Ba3yB0aHgZw-PBBorP6ZH5GxfIt-Q769NYs6MIv_shpgLICCflJNytNw>",
        "user": "U011B6VLM2A",
        "ts": "1586767431.002100",
        "team": "TUU48M0T1",
        "user_team": "TUU48M0T1",
        "source_team": "TUU48M0T1",
        "user_profile": {
            "avatar_hash": "4231dc598cfc",
            "image_72": "https:\/\/avatars.slack-edge.com\/2020-04-02\/1044784558839_4231dc598cfc2e59c4c4_72.jpg",
            "first_name": "Alix",
            "real_name": "Alix Mains",
            "display_name": "Alix Mains - JOGL Coordinator",
            "team": "TUU48M0T1",
            "name": "alixhmains",
            "is_restricted": false,
            "is_ultra_restricted": false
        },
        "edited": {
            "user": "U011B6VLM2A",
            "ts": "1586767459.000000"
        },
        "attachments": [
            {
                "title": "‘Coronavirus: A Book for Children’ Gets 100,000 Downloads in 1 Day",
                "title_link": "https:\/\/www.bookbub.com\/blog\/coronavirus-book-for-kids?position=4&source=multicontent&target=title&fbclid=IwAR3Ba3yB0aHgZw-PBBorP6ZH5GxfIt-Q769NYs6MIv_shpgLICCflJNytNw",
                "text": "This free resource helps parents and other caregivers explain coronavirus to children.",
                "fallback": "‘Coronavirus: A Book for Children’ Gets 100,000 Downloads in 1 Day",
                "image_url": "https:\/\/bookbub-res.cloudinary.com\/image\/upload\/w_1200,h_628,c_fill,g_auto,f_auto,q_auto\/v1586448487\/blog\/coronavirus-book-for-kids-share.png",
                "from_url": "https:\/\/www.bookbub.com\/blog\/coronavirus-book-for-kids?position=4&source=multicontent&target=title&fbclid=IwAR3Ba3yB0aHgZw-PBBorP6ZH5GxfIt-Q769NYs6MIv_shpgLICCflJNytNw",
                "image_width": 478,
                "image_height": 250,
                "image_bytes": 82918,
                "service_icon": "http:\/\/d2616tuem1neks.cloudfront.net\/assets\/modules\/touch_icons\/BB_60x60-14d298022b6ad188e455994d0ed1abbaa567a95852f7dbfe5c698617c968a18f.png",
                "service_name": "bookbub.com",
                "id": 1,
                "original_url": "https:\/\/www.bookbub.com\/blog\/coronavirus-book-for-kids?position=4&amp;source=multicontent&amp;target=title&amp;fbclid=IwAR3Ba3yB0aHgZw-PBBorP6ZH5GxfIt-Q769NYs6MIv_shpgLICCflJNytNw"
            }
        ],
        "blocks": [
            {
                "type": "rich_text",
                "block_id": "cqg",
                "elements": [
                    {
                        "type": "rich_text_section",
                        "elements": [
                            {
                                "type": "text",
                                "text": "book for children (for the pedagogy part of the project) "
                            },
                            {
                                "type": "link",
                                "url": "https:\/\/www.bookbub.com\/blog\/coronavirus-book-for-kids?position=4&source=multicontent&target=title&fbclid=IwAR3Ba3yB0aHgZw-PBBorP6ZH5GxfIt-Q769NYs6MIv_shpgLICCflJNytNw"
                            }
                        ]
                    }
                ]
            }
        ]
    },
    {
        "client_msg_id": "4acfa2dd-5299-40e5-bc0e-ac82c3eadcfb",
        "type": "message",
        "text": "<@U011BAD8A5V> - see above",
        "user": "U011B6VLM2A",
        "ts": "1586767572.002500",
        "team": "TUU48M0T1",
        "user_team": "TUU48M0T1",
        "source_team": "TUU48M0T1",
        "user_profile": {
            "avatar_hash": "4231dc598cfc",
            "image_72": "https:\/\/avatars.slack-edge.com\/2020-04-02\/1044784558839_4231dc598cfc2e59c4c4_72.jpg",
            "first_name": "Alix",
            "real_name": "Alix Mains",
            "display_name": "Alix Mains - JOGL Coordinator",
            "team": "TUU48M0T1",
            "name": "alixhmains",
            "is_restricted": false,
            "is_ultra_restricted": false
        },
        "blocks": [
            {
                "type": "rich_text",
                "block_id": "mn0o",
                "elements": [
                    {
                        "type": "rich_text_section",
                        "elements": [
                            {
                                "type": "user",
                                "user_id": "U011BAD8A5V"
                            },
                            {
                                "type": "text",
                                "text": " - see above"
                            }
                        ]
                    }
                ]
            }
        ]
    },
    {
        "client_msg_id": "fea0ded2-4638-495f-b342-aa46aa1d597f",
        "type": "message",
        "text": "<@U011BAD8A5V> - test",
        "user": "U011B6VLM2A",
        "ts": "1586767612.002800",
        "team": "TUU48M0T1",
        "user_team": "TUU48M0T1",
        "source_team": "TUU48M0T1",
        "user_profile": {
            "avatar_hash": "4231dc598cfc",
            "image_72": "https:\/\/avatars.slack-edge.com\/2020-04-02\/1044784558839_4231dc598cfc2e59c4c4_72.jpg",
            "first_name": "Alix",
            "real_name": "Alix Mains",
            "display_name": "Alix Mains - JOGL Coordinator",
            "team": "TUU48M0T1",
            "name": "alixhmains",
            "is_restricted": false,
            "is_ultra_restricted": false
        },
        "blocks": [
            {
                "type": "rich_text",
                "block_id": "Vzj",
                "elements": [
                    {
                        "type": "rich_text_section",
                        "elements": [
                            {
                                "type": "user",
                                "user_id": "U011BAD8A5V"
                            },
                            {
                                "type": "text",
                                "text": " - test"
                            }
                        ]
                    }
                ]
            }
        ]
    }
]