[
    {
        "type": "message",
        "subtype": "channel_join",
        "ts": "1586969626.003000",
        "user": "U011MRXFFT8",
        "text": "<@U011MRXFFT8> has joined the channel"
    },
    {
        "type": "message",
        "subtype": "channel_join",
        "ts": "1586971876.003300",
        "user": "U010GFNDDL4",
        "text": "<@U010GFNDDL4> has joined the channel"
    }
]