[
    {
        "type": "message",
        "subtype": "channel_join",
        "ts": "1586166094.000200",
        "user": "U011BAD8A5V",
        "text": "<@U011BAD8A5V> has joined the channel"
    },
    {
        "type": "message",
        "subtype": "channel_purpose",
        "ts": "1586166094.000300",
        "user": "U011BAD8A5V",
        "text": "<@U011BAD8A5V> set the channel purpose: covid19 museum discussion",
        "purpose": "covid19 museum discussion"
    },
    {
        "client_msg_id": "11d5c7e6-b0b5-452b-8bfc-bc47dd5f8cf2",
        "type": "message",
        "text": "*Covid-19 Museum is a participative electronic archive aims at gathering all the scientific, literary, iconographic and media traces of this period within a relational database; a museum for all, accessible via a website that can be consulted by all, a tool for reflection and analysis for health actors, philosophers, sociologists, anthropologists, psychologists, historians, political scientists, economists, epidemiologists and more generally any researcher who would like to exploit the mass of data that will be collected there; a multi-dimensional museum reflecting each aspect of the moments we are going through; a museum which could be copied in all countries to promote the emergence of a world museum of this pandemic; a museum of memory, didactics and analytics available tomorrow to all populations.*",
        "user": "U011BAD8A5V",
        "ts": "1586166202.000700",
        "team": "TUU48M0T1",
        "user_team": "TUU48M0T1",
        "source_team": "TUU48M0T1",
        "user_profile": {
            "avatar_hash": "cc2342c6b5e4",
            "image_72": "https:\/\/avatars.slack-edge.com\/2020-04-15\/1050435442151_cc2342c6b5e4ed35a60a_72.png",
            "first_name": "Yves",
            "real_name": "Yves Rozenholc",
            "display_name": "Yves - Covid19 Museum",
            "team": "TUU48M0T1",
            "name": "contact",
            "is_restricted": false,
            "is_ultra_restricted": false
        },
        "edited": {
            "user": "U011BAD8A5V",
            "ts": "1586166454.000000"
        },
        "blocks": [
            {
                "type": "rich_text",
                "block_id": "OC7zD",
                "elements": [
                    {
                        "type": "rich_text_section",
                        "elements": [
                            {
                                "type": "text",
                                "text": "Covid-19 Museum is a participative electronic archive aims at gathering all the scientific, literary, iconographic and media traces of this period within a relational database; a museum for all, accessible via a website that can be consulted by all, a tool for reflection and analysis for health actors, philosophers, sociologists, anthropologists, psychologists, historians, political scientists, economists, epidemiologists and more generally any researcher who would like to exploit the mass of data that will be collected there; a multi-dimensional museum reflecting each aspect of the moments we are going through; a museum which could be copied in all countries to promote the emergence of a world museum of this pandemic; a museum of memory, didactics and analytics available tomorrow to all populations.",
                                "style": {
                                    "bold": true
                                }
                            }
                        ]
                    }
                ]
            }
        ]
    },
    {
        "client_msg_id": "3ae593bc-9dca-4582-87fe-2ed497297555",
        "type": "message",
        "text": "We are looking for *web designers* and *data-base managers (SQL \/ PHP)*",
        "user": "U011BAD8A5V",
        "ts": "1586166222.001200",
        "team": "TUU48M0T1",
        "user_team": "TUU48M0T1",
        "source_team": "TUU48M0T1",
        "user_profile": {
            "avatar_hash": "cc2342c6b5e4",
            "image_72": "https:\/\/avatars.slack-edge.com\/2020-04-15\/1050435442151_cc2342c6b5e4ed35a60a_72.png",
            "first_name": "Yves",
            "real_name": "Yves Rozenholc",
            "display_name": "Yves - Covid19 Museum",
            "team": "TUU48M0T1",
            "name": "contact",
            "is_restricted": false,
            "is_ultra_restricted": false
        },
        "edited": {
            "user": "U011BAD8A5V",
            "ts": "1586166506.000000"
        },
        "blocks": [
            {
                "type": "rich_text",
                "block_id": "sAOoR",
                "elements": [
                    {
                        "type": "rich_text_section",
                        "elements": [
                            {
                                "type": "text",
                                "text": "We are looking for"
                            },
                            {
                                "type": "text",
                                "text": " web designers",
                                "style": {
                                    "bold": true
                                }
                            },
                            {
                                "type": "text",
                                "text": " and "
                            },
                            {
                                "type": "text",
                                "text": "data-base managers (SQL \/ PHP)",
                                "style": {
                                    "bold": true
                                }
                            }
                        ]
                    }
                ]
            }
        ]
    },
    {
        "type": "message",
        "subtype": "channel_join",
        "ts": "1586168865.001900",
        "user": "UV02WET96",
        "text": "<@UV02WET96> has joined the channel"
    },
    {
        "client_msg_id": "fb3df182-e196-4397-bcf5-0129f7214aff",
        "type": "message",
        "text": "Hello <@U011BAD8A5V>, il faudrait que tu fasses une intro dans <#C0102E5J2S3|prgm-introductions>",
        "user": "UV02WET96",
        "ts": "1586169192.003300",
        "team": "TUU48M0T1",
        "user_team": "TUU48M0T1",
        "source_team": "TUU48M0T1",
        "user_profile": {
            "avatar_hash": "a99c74a194f8",
            "image_72": "https:\/\/avatars.slack-edge.com\/2020-03-07\/975708504851_a99c74a194f86715ca7d_72.png",
            "first_name": "Thomas",
            "real_name": "Thomas Landrain",
            "display_name": "Thomas Landrain - JOGL CoFounder \/ CEO",
            "team": "TUU48M0T1",
            "name": "thomas",
            "is_restricted": false,
            "is_ultra_restricted": false
        },
        "blocks": [
            {
                "type": "rich_text",
                "block_id": "OfMt",
                "elements": [
                    {
                        "type": "rich_text_section",
                        "elements": [
                            {
                                "type": "text",
                                "text": "Hello "
                            },
                            {
                                "type": "user",
                                "user_id": "U011BAD8A5V"
                            },
                            {
                                "type": "text",
                                "text": ", il faudrait que tu fasses une intro dans "
                            },
                            {
                                "type": "channel",
                                "channel_id": "C0102E5J2S3"
                            }
                        ]
                    }
                ]
            }
        ]
    },
    {
        "client_msg_id": "12fe5e23-90bc-470f-93f5-0ee5e91b8c0e",
        "type": "message",
        "text": "Bonjour Thomas, intro du genre du texte qui est juste au dessus ? Ou ce texte doit-il être adapté à des codes de JOGL que j'ignore?",
        "user": "U011BAD8A5V",
        "ts": "1586169687.005800",
        "team": "TUU48M0T1",
        "user_team": "TUU48M0T1",
        "source_team": "TUU48M0T1",
        "user_profile": {
            "avatar_hash": "cc2342c6b5e4",
            "image_72": "https:\/\/avatars.slack-edge.com\/2020-04-15\/1050435442151_cc2342c6b5e4ed35a60a_72.png",
            "first_name": "Yves",
            "real_name": "Yves Rozenholc",
            "display_name": "Yves - Covid19 Museum",
            "team": "TUU48M0T1",
            "name": "contact",
            "is_restricted": false,
            "is_ultra_restricted": false
        },
        "blocks": [
            {
                "type": "rich_text",
                "block_id": "MNAyW",
                "elements": [
                    {
                        "type": "rich_text_section",
                        "elements": [
                            {
                                "type": "text",
                                "text": "Bonjour Thomas, intro du genre du texte qui est juste au dessus ? Ou ce texte doit-il être adapté à des codes de JOGL que j'ignore?"
                            }
                        ]
                    }
                ]
            }
        ]
    },
    {
        "client_msg_id": "f65e87b4-52bf-4ede-9442-1cd3d2d4e1d2",
        "type": "message",
        "text": "Intro personnel et intro de ton projet avec lien ves ce canal",
        "user": "UV02WET96",
        "ts": "1586169784.006200",
        "team": "TUU48M0T1",
        "user_team": "TUU48M0T1",
        "source_team": "TUU48M0T1",
        "user_profile": {
            "avatar_hash": "a99c74a194f8",
            "image_72": "https:\/\/avatars.slack-edge.com\/2020-03-07\/975708504851_a99c74a194f86715ca7d_72.png",
            "first_name": "Thomas",
            "real_name": "Thomas Landrain",
            "display_name": "Thomas Landrain - JOGL CoFounder \/ CEO",
            "team": "TUU48M0T1",
            "name": "thomas",
            "is_restricted": false,
            "is_ultra_restricted": false
        },
        "blocks": [
            {
                "type": "rich_text",
                "block_id": "ULwZ",
                "elements": [
                    {
                        "type": "rich_text_section",
                        "elements": [
                            {
                                "type": "text",
                                "text": "Intro personnel et intro de ton projet avec lien ves ce canal"
                            }
                        ]
                    }
                ]
            }
        ]
    },
    {
        "client_msg_id": "016dba9d-60c2-4d20-9fc9-071358c26048",
        "type": "message",
        "text": "pour le lien vers un canal utilise le hashtag <#C011GJCQLLU|proj-covid19-museum>",
        "user": "UV02WET96",
        "ts": "1586170495.006600",
        "team": "TUU48M0T1",
        "user_team": "TUU48M0T1",
        "source_team": "TUU48M0T1",
        "user_profile": {
            "avatar_hash": "a99c74a194f8",
            "image_72": "https:\/\/avatars.slack-edge.com\/2020-03-07\/975708504851_a99c74a194f86715ca7d_72.png",
            "first_name": "Thomas",
            "real_name": "Thomas Landrain",
            "display_name": "Thomas Landrain - JOGL CoFounder \/ CEO",
            "team": "TUU48M0T1",
            "name": "thomas",
            "is_restricted": false,
            "is_ultra_restricted": false
        },
        "blocks": [
            {
                "type": "rich_text",
                "block_id": "SQ5W",
                "elements": [
                    {
                        "type": "rich_text_section",
                        "elements": [
                            {
                                "type": "text",
                                "text": "pour le lien vers un canal utilise le hashtag "
                            },
                            {
                                "type": "channel",
                                "channel_id": "C011GJCQLLU"
                            }
                        ]
                    }
                ]
            }
        ]
    },
    {
        "client_msg_id": "30ff2fc7-68d6-49e8-957b-b15b0746582b",
        "type": "message",
        "text": "et donne aussi le lien vers ton projet sur JOGL",
        "user": "UV02WET96",
        "ts": "1586170505.006900",
        "team": "TUU48M0T1",
        "user_team": "TUU48M0T1",
        "source_team": "TUU48M0T1",
        "user_profile": {
            "avatar_hash": "a99c74a194f8",
            "image_72": "https:\/\/avatars.slack-edge.com\/2020-03-07\/975708504851_a99c74a194f86715ca7d_72.png",
            "first_name": "Thomas",
            "real_name": "Thomas Landrain",
            "display_name": "Thomas Landrain - JOGL CoFounder \/ CEO",
            "team": "TUU48M0T1",
            "name": "thomas",
            "is_restricted": false,
            "is_ultra_restricted": false
        },
        "blocks": [
            {
                "type": "rich_text",
                "block_id": "0u68",
                "elements": [
                    {
                        "type": "rich_text_section",
                        "elements": [
                            {
                                "type": "text",
                                "text": "et donne aussi le lien vers ton projet sur JOGL"
                            }
                        ]
                    }
                ]
            }
        ]
    },
    {
        "client_msg_id": "a9f967cf-deb4-4952-b813-15918c7ffca2",
        "type": "message",
        "text": "tout ce qui peut aider la communauté a se connecter a toi",
        "user": "UV02WET96",
        "ts": "1586170519.007200",
        "team": "TUU48M0T1",
        "user_team": "TUU48M0T1",
        "source_team": "TUU48M0T1",
        "user_profile": {
            "avatar_hash": "a99c74a194f8",
            "image_72": "https:\/\/avatars.slack-edge.com\/2020-03-07\/975708504851_a99c74a194f86715ca7d_72.png",
            "first_name": "Thomas",
            "real_name": "Thomas Landrain",
            "display_name": "Thomas Landrain - JOGL CoFounder \/ CEO",
            "team": "TUU48M0T1",
            "name": "thomas",
            "is_restricted": false,
            "is_ultra_restricted": false
        },
        "blocks": [
            {
                "type": "rich_text",
                "block_id": "H2TIt",
                "elements": [
                    {
                        "type": "rich_text_section",
                        "elements": [
                            {
                                "type": "text",
                                "text": "tout ce qui peut aider la communauté a se connecter a toi"
                            }
                        ]
                    }
                ]
            }
        ]
    },
    {
        "client_msg_id": "64b22af2-9cb6-4156-91d6-a4fc0827a977",
        "type": "message",
        "text": "et moi qui ait réussi à éviter twitter et facebook jusqu'à ce jour ... je vais vraiment finir par maudire ce foutu virus :wink:",
        "user": "U011BAD8A5V",
        "ts": "1586170872.008100",
        "team": "TUU48M0T1",
        "user_team": "TUU48M0T1",
        "source_team": "TUU48M0T1",
        "user_profile": {
            "avatar_hash": "cc2342c6b5e4",
            "image_72": "https:\/\/avatars.slack-edge.com\/2020-04-15\/1050435442151_cc2342c6b5e4ed35a60a_72.png",
            "first_name": "Yves",
            "real_name": "Yves Rozenholc",
            "display_name": "Yves - Covid19 Museum",
            "team": "TUU48M0T1",
            "name": "contact",
            "is_restricted": false,
            "is_ultra_restricted": false
        },
        "edited": {
            "user": "U011BAD8A5V",
            "ts": "1586173461.000000"
        },
        "blocks": [
            {
                "type": "rich_text",
                "block_id": "J=M",
                "elements": [
                    {
                        "type": "rich_text_section",
                        "elements": [
                            {
                                "type": "text",
                                "text": "et moi qui ait réussi à éviter twitter et facebook jusqu'à ce jour ... je vais vraiment finir par maudire ce foutu virus "
                            },
                            {
                                "type": "emoji",
                                "name": "wink"
                            }
                        ]
                    }
                ]
            }
        ],
        "reactions": [
            {
                "name": "joy",
                "users": [
                    "UV02WET96"
                ],
                "count": 1
            },
            {
                "name": "slightly_smiling_face",
                "users": [
                    "U010GFNDDL4"
                ],
                "count": 1
            }
        ]
    },
    {
        "client_msg_id": "a2d21852-b117-442d-87c5-5e06d24ca0d8",
        "type": "message",
        "text": "Ceci étant, plus sérieusement, est-il possible de recevoir une alerte par mail (par exemple) quand un message est posté sur ce canal?",
        "user": "U011BAD8A5V",
        "ts": "1586171776.009700",
        "team": "TUU48M0T1",
        "user_team": "TUU48M0T1",
        "source_team": "TUU48M0T1",
        "user_profile": {
            "avatar_hash": "cc2342c6b5e4",
            "image_72": "https:\/\/avatars.slack-edge.com\/2020-04-15\/1050435442151_cc2342c6b5e4ed35a60a_72.png",
            "first_name": "Yves",
            "real_name": "Yves Rozenholc",
            "display_name": "Yves - Covid19 Museum",
            "team": "TUU48M0T1",
            "name": "contact",
            "is_restricted": false,
            "is_ultra_restricted": false
        },
        "blocks": [
            {
                "type": "rich_text",
                "block_id": "oAWR",
                "elements": [
                    {
                        "type": "rich_text_section",
                        "elements": [
                            {
                                "type": "text",
                                "text": "Ceci étant, plus sérieusement, est-il possible de recevoir une alerte par mail (par exemple) quand un message est posté sur ce canal?"
                            }
                        ]
                    }
                ]
            }
        ]
    },
    {
        "client_msg_id": "0b95a7e2-bc03-4525-b4e8-90acb4980b43",
        "type": "message",
        "text": "D’ailleurs ce canal est publique aussi :wink:",
        "user": "UV02WET96",
        "ts": "1586172385.010000",
        "team": "TUU48M0T1",
        "user_team": "TUU48M0T1",
        "source_team": "TUU48M0T1",
        "user_profile": {
            "avatar_hash": "a99c74a194f8",
            "image_72": "https:\/\/avatars.slack-edge.com\/2020-03-07\/975708504851_a99c74a194f86715ca7d_72.png",
            "first_name": "Thomas",
            "real_name": "Thomas Landrain",
            "display_name": "Thomas Landrain - JOGL CoFounder \/ CEO",
            "team": "TUU48M0T1",
            "name": "thomas",
            "is_restricted": false,
            "is_ultra_restricted": false
        },
        "blocks": [
            {
                "type": "rich_text",
                "block_id": "=sSUn",
                "elements": [
                    {
                        "type": "rich_text_section",
                        "elements": [
                            {
                                "type": "text",
                                "text": "D’ailleurs ce canal est publique aussi "
                            },
                            {
                                "type": "emoji",
                                "name": "wink"
                            }
                        ]
                    }
                ]
            }
        ]
    }
]