[
    {
        "type": "message",
        "subtype": "channel_join",
        "ts": "1586859450.000200",
        "user": "U011LQ49GLW",
        "text": "<@U011LQ49GLW> has joined the channel"
    },
    {
        "client_msg_id": "7f04a1ee-5476-4b96-a701-10c936104f23",
        "type": "message",
        "text": "Hi George, interesting project. I'm a designer, glad to help out with graphics and such in a later stage of web\/app development, let me know if this can be of any help.\nThere's an Amsterdam-based design studio experienced with design and app development for mental health, always based on thorough research and community involvement: <https:\/\/www.reframingstudio.com> . Maybe drop them a line for tips on development?",
        "user": "U011LQ49GLW",
        "ts": "1586860435.005000",
        "team": "TUU48M0T1",
        "user_team": "TUU48M0T1",
        "source_team": "TUU48M0T1",
        "user_profile": {
            "avatar_hash": "60440d611821",
            "image_72": "https:\/\/avatars.slack-edge.com\/2020-04-14\/1060952694723_60440d6118216793464e_72.png",
            "first_name": "Charlotte",
            "real_name": "Charlotte Vanhoutte",
            "display_name": "Charlotte Vanhoutte",
            "team": "TUU48M0T1",
            "name": "charlottevanhoutte",
            "is_restricted": false,
            "is_ultra_restricted": false
        },
        "blocks": [
            {
                "type": "rich_text",
                "block_id": "nOLXJ",
                "elements": [
                    {
                        "type": "rich_text_section",
                        "elements": [
                            {
                                "type": "text",
                                "text": "Hi George, interesting project. I'm a designer, glad to help out with graphics and such in a later stage of web\/app development, let me know if this can be of any help.\nThere's an Amsterdam-based design studio experienced with design and app development for mental health, always based on thorough research and community involvement: "
                            },
                            {
                                "type": "link",
                                "url": "https:\/\/www.reframingstudio.com"
                            },
                            {
                                "type": "text",
                                "text": " . Maybe drop them a line for tips on development?"
                            }
                        ]
                    }
                ]
            }
        ],
        "reactions": [
            {
                "name": "+1",
                "users": [
                    "U010W4KTANM",
                    "U010Q3G4MDF"
                ],
                "count": 2
            }
        ]
    },
    {
        "client_msg_id": "5405b284-306b-40b1-9332-220d073680f6",
        "type": "message",
        "text": "Hi <@U011B6VLM2A> - So great to hear from you! My apologies for just getting to this - as I am now working with medical professionals on the ground (virtually) providing mental health consultation. I hope to have a better grasp on my availability to connect over the next 2-3 days. Thanks for your patience! Hope you are well and safe! :slightly_smiling_face:",
        "user": "U011D6K9RH6",
        "ts": "1586884956.005100",
        "team": "TUU48M0T1",
        "user_team": "TUU48M0T1",
        "source_team": "TUU48M0T1",
        "user_profile": {
            "avatar_hash": "85c5155708e4",
            "image_72": "https:\/\/avatars.slack-edge.com\/2020-04-02\/1033600589794_85c5155708e4e6cfa61f_72.jpg",
            "first_name": "George",
            "real_name": "George Elerick",
            "display_name": "George Elerick",
            "team": "TUU48M0T1",
            "name": "george",
            "is_restricted": false,
            "is_ultra_restricted": false
        },
        "blocks": [
            {
                "type": "rich_text",
                "block_id": "j51",
                "elements": [
                    {
                        "type": "rich_text_section",
                        "elements": [
                            {
                                "type": "text",
                                "text": "Hi "
                            },
                            {
                                "type": "user",
                                "user_id": "U011B6VLM2A"
                            },
                            {
                                "type": "text",
                                "text": " - So great to hear from you! My apologies for just getting to this - as I am now working with medical professionals on the ground (virtually) providing mental health consultation. I hope to have a better grasp on my availability to connect over the next 2-3 days. Thanks for your patience! Hope you are well and safe! "
                            },
                            {
                                "type": "emoji",
                                "name": "slightly_smiling_face"
                            }
                        ]
                    }
                ]
            }
        ],
        "thread_ts": "1586193274.004100",
        "parent_user_id": "U011D6K9RH6"
    },
    {
        "client_msg_id": "835125a1-09ff-4c5d-9a1d-27174d68e361",
        "type": "message",
        "text": "Hi <!channel> - So great to have you all here!! - Welcome. Glad to be working on this much needed project for mental health development in these precarious times. Would love to hear more about you, your passions for this, and experience. Feel free to share here and we can begin working together to help others. I sincerely appreciate all of your time!!! :slightly_smiling_face: - Be safe",
        "user": "U011D6K9RH6",
        "ts": "1586885049.006900",
        "team": "TUU48M0T1",
        "user_team": "TUU48M0T1",
        "source_team": "TUU48M0T1",
        "user_profile": {
            "avatar_hash": "85c5155708e4",
            "image_72": "https:\/\/avatars.slack-edge.com\/2020-04-02\/1033600589794_85c5155708e4e6cfa61f_72.jpg",
            "first_name": "George",
            "real_name": "George Elerick",
            "display_name": "George Elerick",
            "team": "TUU48M0T1",
            "name": "george",
            "is_restricted": false,
            "is_ultra_restricted": false
        },
        "blocks": [
            {
                "type": "rich_text",
                "block_id": "LEY4",
                "elements": [
                    {
                        "type": "rich_text_section",
                        "elements": [
                            {
                                "type": "text",
                                "text": "Hi "
                            },
                            {
                                "type": "broadcast",
                                "range": "channel"
                            },
                            {
                                "type": "text",
                                "text": " - So great to have you all here!! - Welcome. Glad to be working on this much needed project for mental health development in these precarious times. Would love to hear more about you, your passions for this, and experience. Feel free to share here and we can begin working together to help others. I sincerely appreciate all of your time!!! "
                            },
                            {
                                "type": "emoji",
                                "name": "slightly_smiling_face"
                            },
                            {
                                "type": "text",
                                "text": " - Be safe"
                            }
                        ]
                    }
                ]
            }
        ]
    },
    {
        "client_msg_id": "c1e8b80b-2dc8-489e-9b4f-062698ebd9e8",
        "type": "message",
        "text": "Hi <@U011LQ49GLW> - So good to hear from you! And nice to e-meet you! YES! I would love to hear you are\nI was wondering if you might have any direct connections would chase up with the studio?( Great idea; and, thanks for referring them) - In terms of the app development skills, do you also wireframe? - Could we come up with a possible wireframe for people to access information and mental health resources from within the app itself? Do you happen to know how we can use AI as a way to increase the emotional detection process for the app? (I can help with the writing of the content,the behavioral science, the nudge theory for the copywriting side of it. Would love to get your thoughts (I am very collaborative!)? Thanks for your time!! :slightly_smiling_face: Looking forward to your thoughts! :slightly_smiling_face:",
        "user": "U011D6K9RH6",
        "ts": "1586885266.010900",
        "team": "TUU48M0T1",
        "user_team": "TUU48M0T1",
        "source_team": "TUU48M0T1",
        "user_profile": {
            "avatar_hash": "85c5155708e4",
            "image_72": "https:\/\/avatars.slack-edge.com\/2020-04-02\/1033600589794_85c5155708e4e6cfa61f_72.jpg",
            "first_name": "George",
            "real_name": "George Elerick",
            "display_name": "George Elerick",
            "team": "TUU48M0T1",
            "name": "george",
            "is_restricted": false,
            "is_ultra_restricted": false
        },
        "blocks": [
            {
                "type": "rich_text",
                "block_id": "eQe9",
                "elements": [
                    {
                        "type": "rich_text_section",
                        "elements": [
                            {
                                "type": "text",
                                "text": "Hi "
                            },
                            {
                                "type": "user",
                                "user_id": "U011LQ49GLW"
                            },
                            {
                                "type": "text",
                                "text": " - So good to hear from you! And nice to e-meet you! YES! I would love to hear you are\nI was wondering if you might have any direct connections would chase up with the studio?( Great idea; and, thanks for referring them) - In terms of the app development skills, do you also wireframe? - Could we come up with a possible wireframe for people to access information and mental health resources from within the app itself? Do you happen to know how we can use AI as a way to increase the emotional detection process for the app? (I can help with the writing of the content,the behavioral science, the nudge theory for the copywriting side of it. Would love to get your thoughts (I am very collaborative!)? Thanks for your time!! "
                            },
                            {
                                "type": "emoji",
                                "name": "slightly_smiling_face"
                            },
                            {
                                "type": "text",
                                "text": " Looking forward to your thoughts! "
                            },
                            {
                                "type": "emoji",
                                "name": "slightly_smiling_face"
                            }
                        ]
                    }
                ]
            }
        ],
        "thread_ts": "1586885266.010900",
        "reply_count": 1,
        "reply_users_count": 1,
        "latest_reply": "1586967767.000200",
        "reply_users": [
            "U011LQ49GLW"
        ],
        "replies": [
            {
                "user": "U011LQ49GLW",
                "ts": "1586967767.000200"
            }
        ],
        "subscribed": false
    },
    {
        "type": "message",
        "subtype": "channel_join",
        "ts": "1586889435.011100",
        "user": "U010W4KTANM",
        "text": "<@U010W4KTANM> has joined the channel"
    }
]