[
    {
        "type": "message",
        "subtype": "channel_join",
        "ts": "1584549540.000200",
        "user": "UV5EETE1Z",
        "text": "<@UV5EETE1Z> has joined the channel"
    },
    {
        "type": "message",
        "subtype": "channel_purpose",
        "ts": "1584549541.000300",
        "user": "UV5EETE1Z",
        "text": "<@UV5EETE1Z> set the channel purpose: We are gathering data around how governments are attempting to stop the spread of Covid- so we can understand the impact of each decision, both in the long term and in the short term",
        "purpose": "We are gathering data around how governments are attempting to stop the spread of Covid- so we can understand the impact of each decision, both in the long term and in the short term"
    },
    {
        "type": "message",
        "subtype": "channel_join",
        "ts": "1584554629.000200",
        "user": "U0101CDQPGD",
        "text": "<@U0101CDQPGD> has joined the channel"
    },
    {
        "client_msg_id": "D9509C35-CF9A-4B56-890E-043BF4629CC5",
        "type": "message",
        "text": "There’s a link at the end of this article that provides info to the response(s) of Taiwan and the date of those responses... <https:\/\/www.google.com\/amp\/s\/www.vox.com\/platform\/amp\/future-perfect\/2020\/3\/10\/21171722\/taiwan-coronavirus-china-social-distancing-quarantine|https:\/\/www.google.com\/amp\/s\/www.vox.com\/platform\/amp\/future-perfect\/2020\/3\/10\/21171722\/taiwan-coronavirus-china-social-distancing-quarantine>. Not real time, of course, but may be informative.",
        "user": "U0101CDQPGD",
        "ts": "1584556169.002000",
        "team": "TUU48M0T1",
        "user_team": "TUU48M0T1",
        "source_team": "TUU48M0T1",
        "user_profile": {
            "avatar_hash": "g4924198bfa8",
            "image_72": "https:\/\/secure.gravatar.com\/avatar\/4924198bfa8722790c7ceb219a1d0f3c.jpg?s=72&d=https%3A%2F%2Fa.slack-edge.com%2Fdf10d%2Fimg%2Favatars%2Fava_0019-72.png",
            "first_name": "",
            "real_name": "Lisa Jarosek",
            "display_name": "",
            "team": "TUU48M0T1",
            "name": "lisa.jarosek",
            "is_restricted": false,
            "is_ultra_restricted": false
        },
        "attachments": [
            {
                "service_name": "Vox",
                "title": "Taiwan has millions of visitors from China and only 45 coronavirus cases. Here’s how.",
                "title_link": "https:\/\/www.google.com\/amp\/s\/www.vox.com\/platform\/amp\/future-perfect\/2020\/3\/10\/21171722\/taiwan-coronavirus-china-social-distancing-quarantine",
                "text": "Aggressive measures starting in December saved Taiwan. Can we learn from them?",
                "fallback": "Vox: Taiwan has millions of visitors from China and only 45 coronavirus cases. Here’s how.",
                "image_url": "https:\/\/cdn.vox-cdn.com\/thumbor\/XRVZ9-BPQejtwOhqE5Y175GWEug=\/0x0:5675x2971\/fit-in\/1200x630\/cdn.vox-cdn.com\/uploads\/chorus_asset\/file\/19782786\/GettyImages_1205429130.jpg",
                "image_width": 478,
                "image_height": 250,
                "ts": 1583868600,
                "from_url": "https:\/\/www.google.com\/amp\/s\/www.vox.com\/platform\/amp\/future-perfect\/2020\/3\/10\/21171722\/taiwan-coronavirus-china-social-distancing-quarantine",
                "image_bytes": 289206,
                "service_icon": "https:\/\/cdn.vox-cdn.com\/uploads\/hub\/sbnu_logo_minimal\/441\/touch_icon_iphone_retina_1000_yellow.755.png",
                "id": 1,
                "original_url": "https:\/\/www.google.com\/amp\/s\/www.vox.com\/platform\/amp\/future-perfect\/2020\/3\/10\/21171722\/taiwan-coronavirus-china-social-distancing-quarantine"
            }
        ],
        "blocks": [
            {
                "type": "rich_text",
                "block_id": "aZ+",
                "elements": [
                    {
                        "type": "rich_text_section",
                        "elements": [
                            {
                                "type": "text",
                                "text": "There’s a link at the end of this article that provides info to the response(s) of Taiwan and the date of those responses... "
                            },
                            {
                                "type": "link",
                                "url": "https:\/\/www.google.com\/amp\/s\/www.vox.com\/platform\/amp\/future-perfect\/2020\/3\/10\/21171722\/taiwan-coronavirus-china-social-distancing-quarantine",
                                "text": "https:\/\/www.google.com\/amp\/s\/www.vox.com\/platform\/amp\/future-perfect\/2020\/3\/10\/21171722\/taiwan-coronavirus-china-social-distancing-quarantine"
                            },
                            {
                                "type": "text",
                                "text": ". Not real time, of course, but may be informative."
                            }
                        ]
                    }
                ]
            }
        ]
    },
    {
        "type": "message",
        "subtype": "channel_join",
        "ts": "1584560068.000200",
        "user": "UV2P3AQEN",
        "text": "<@UV2P3AQEN> has joined the channel"
    },
    {
        "type": "message",
        "subtype": "channel_join",
        "ts": "1584578959.000200",
        "user": "UVALZTQ58",
        "text": "<@UVALZTQ58> has joined the channel"
    }
]