[
    {
        "client_msg_id": "6c458c19-d29f-4f0c-a661-831d3267e76e",
        "type": "message",
        "text": "I think it'll be good to look into this. I've used Benchling in the past for our iGEM project and I loved the interface as well.",
        "user": "UUP8XJTH8",
        "ts": "1584184285.021000",
        "team": "TUU48M0T1",
        "user_team": "TUU48M0T1",
        "source_team": "TUU48M0T1",
        "user_profile": {
            "avatar_hash": "551563ed5769",
            "image_72": "https:\/\/avatars.slack-edge.com\/2020-03-09\/990308488310_551563ed5769d8569a8f_72.jpg",
            "first_name": "",
            "real_name": "Muhammad Ismail",
            "display_name": "Muhammad Ismail",
            "team": "TUU48M0T1",
            "name": "ismail",
            "is_restricted": false,
            "is_ultra_restricted": false
        },
        "blocks": [
            {
                "type": "rich_text",
                "block_id": "bgru7",
                "elements": [
                    {
                        "type": "rich_text_section",
                        "elements": [
                            {
                                "type": "text",
                                "text": "I think it'll be good to look into this. I've used Benchling in the past for our iGEM project and I loved the interface as well."
                            }
                        ]
                    }
                ]
            }
        ],
        "thread_ts": "1584162044.020600",
        "parent_user_id": "UUUEFQW8N"
    },
    {
        "client_msg_id": "b0a4b9d0-b3e9-4b65-a229-3653a8918d5f",
        "type": "message",
        "text": "where is the gdrive? following the instructions on the jogl project page to join the google group for permissions doesn't result in a team drive or other share becoming visible",
        "user": "UV2CNECM7",
        "ts": "1584192570.022800",
        "team": "TUU48M0T1",
        "user_team": "TUU48M0T1",
        "source_team": "TUU48M0T1",
        "user_profile": {
            "avatar_hash": "135b0b0aa9c1",
            "image_72": "https:\/\/avatars.slack-edge.com\/2020-03-14\/990564660081_135b0b0aa9c163d47018_72.jpg",
            "first_name": "",
            "real_name": "Jeremy Cahill",
            "display_name": "Jeremy Cahill",
            "team": "TUU48M0T1",
            "name": "jeremy.cahill",
            "is_restricted": false,
            "is_ultra_restricted": false
        },
        "blocks": [
            {
                "type": "rich_text",
                "block_id": "FwVs",
                "elements": [
                    {
                        "type": "rich_text_section",
                        "elements": [
                            {
                                "type": "text",
                                "text": "where is the gdrive? following the instructions on the jogl project page to join the google group for permissions doesn't result in a team drive or other share becoming visible"
                            }
                        ]
                    }
                ]
            }
        ]
    }
]