[
    {
        "client_msg_id": "955f63c2-aeb5-406b-9eac-add8a55f7295",
        "type": "message",
        "text": "<@UV9V03C8Y> I totally agree that in an ideal world, this would happen exclusively on the JOGL website. I think these channels can be a good intermediate solution, and once people get used to using them I think it’ll be easy to make the switch to JOGL, or to the JOGL-Slack integration. <@UV87UQ37A> - also agree that this would be a great solution! <@UVC9WMA7N> keep us posted :slightly_smiling_face:",
        "user": "U011B6VLM2A",
        "ts": "1587644301.313700",
        "team": "TUU48M0T1",
        "user_team": "TUU48M0T1",
        "source_team": "TUU48M0T1",
        "user_profile": {
            "avatar_hash": "4231dc598cfc",
            "image_72": "https:\/\/avatars.slack-edge.com\/2020-04-02\/1044784558839_4231dc598cfc2e59c4c4_72.jpg",
            "first_name": "Alix",
            "real_name": "Alix Mains",
            "display_name": "Alix Mains - JOGL Coordinator",
            "team": "TUU48M0T1",
            "name": "alixhmains",
            "is_restricted": false,
            "is_ultra_restricted": false
        },
        "blocks": [
            {
                "type": "rich_text",
                "block_id": "\/tp",
                "elements": [
                    {
                        "type": "rich_text_section",
                        "elements": [
                            {
                                "type": "user",
                                "user_id": "UV9V03C8Y"
                            },
                            {
                                "type": "text",
                                "text": " I totally agree that in an ideal world, this would happen exclusively on the JOGL website. I think these channels can be a good intermediate solution, and once people get used to using them I think it’ll be easy to make the switch to JOGL, or to the JOGL-Slack integration. "
                            },
                            {
                                "type": "user",
                                "user_id": "UV87UQ37A"
                            },
                            {
                                "type": "text",
                                "text": " - also agree that this would be a great solution! "
                            },
                            {
                                "type": "user",
                                "user_id": "UVC9WMA7N"
                            },
                            {
                                "type": "text",
                                "text": " keep us posted "
                            },
                            {
                                "type": "emoji",
                                "name": "slightly_smiling_face"
                            }
                        ]
                    }
                ]
            }
        ],
        "thread_ts": "1587575184.310900",
        "parent_user_id": "U011B6VLM2A"
    },
    {
        "client_msg_id": "70f2ef6a-8c56-4c5e-be0c-c0f3144d0758",
        "type": "message",
        "text": "I think <@U0101DKUALV> is working on the Slack integration actually! <@U0101DKUALV> do you have any update on that matter?",
        "user": "UV9V03C8Y",
        "ts": "1587645676.313900",
        "team": "TUU48M0T1",
        "user_team": "TUU48M0T1",
        "source_team": "TUU48M0T1",
        "user_profile": {
            "avatar_hash": "177697fb7b8f",
            "image_72": "https:\/\/avatars.slack-edge.com\/2020-03-12\/996126178096_177697fb7b8ffa57649c_72.jpg",
            "first_name": "Camille",
            "real_name": "Camille Masselot - JOGL Program coordinator",
            "display_name": "Camille Masselot - JOGL coordinator",
            "team": "TUU48M0T1",
            "name": "masselot.camille",
            "is_restricted": false,
            "is_ultra_restricted": false
        },
        "blocks": [
            {
                "type": "rich_text",
                "block_id": "0BrB",
                "elements": [
                    {
                        "type": "rich_text_section",
                        "elements": [
                            {
                                "type": "text",
                                "text": "I think "
                            },
                            {
                                "type": "user",
                                "user_id": "U0101DKUALV"
                            },
                            {
                                "type": "text",
                                "text": " is working on the Slack integration actually! "
                            },
                            {
                                "type": "user",
                                "user_id": "U0101DKUALV"
                            },
                            {
                                "type": "text",
                                "text": " do you have any update on that matter?"
                            }
                        ]
                    }
                ]
            }
        ],
        "thread_ts": "1587575184.310900",
        "parent_user_id": "U011B6VLM2A"
    },
    {
        "client_msg_id": "8d6f0150-8753-4cd5-8a00-2b34a94b16b0",
        "type": "message",
        "text": "Hey team! <!channel>\n\nLast Monday we focused our conversation on two topics:\n• *Crisis management, based on the experience with the syringe-pump channel*\n• *How to help the projects with their coordination*\nThe actions taken following this meeting were:\n• *Creation a code of conduct* and a moderation process, and a meeting set with the syringe-pump team to understand what happened\n• *Creation of the <#C011Z9RDS78|prgm-capacity-building>* channel which is going to work on a webinar series, and an administrative toolkit for project management\nOther updates:\n• I am currently working with the Holaspirit following up with Manu for the visualization of the community\n• *Creation of <#C01311KN2M6|billboard> channel for all essential documents*\n• *People did an amazing work on the <#C0125162LJ1|prgm-onboarding>*: we now have a step by step onboarding flow, a FAQ, a masterfile, a revised initial form\n• Alix has finished the interview with all project and presented their amazing recommendation to improve the work of this community \n*Let's continue this amazing work!*\nThank you <@UV87UQ37A> <@UV2SC7ZE3> <@U010Q3372P3> <@UV0QTJCMT> <@U011VF29MK2> <@U011B6VLM2A> <@U010HTBUHS9> <@U011D8T1Z61> <@U0101DKUALV> <@UUWR0FJ7M>",
        "user": "UV9V03C8Y",
        "ts": "1587646420.323400",
        "team": "TUU48M0T1",
        "user_team": "TUU48M0T1",
        "source_team": "TUU48M0T1",
        "user_profile": {
            "avatar_hash": "177697fb7b8f",
            "image_72": "https:\/\/avatars.slack-edge.com\/2020-03-12\/996126178096_177697fb7b8ffa57649c_72.jpg",
            "first_name": "Camille",
            "real_name": "Camille Masselot - JOGL Program coordinator",
            "display_name": "Camille Masselot - JOGL coordinator",
            "team": "TUU48M0T1",
            "name": "masselot.camille",
            "is_restricted": false,
            "is_ultra_restricted": false
        },
        "edited": {
            "user": "UV9V03C8Y",
            "ts": "1587646448.000000"
        },
        "blocks": [
            {
                "type": "rich_text",
                "block_id": "R=K",
                "elements": [
                    {
                        "type": "rich_text_section",
                        "elements": [
                            {
                                "type": "text",
                                "text": "Hey team! "
                            },
                            {
                                "type": "broadcast",
                                "range": "channel"
                            },
                            {
                                "type": "text",
                                "text": "\n\nLast Monday we focused our conversation on two topics:\n"
                            }
                        ]
                    },
                    {
                        "type": "rich_text_list",
                        "elements": [
                            {
                                "type": "rich_text_section",
                                "elements": [
                                    {
                                        "type": "text",
                                        "text": "Crisis management, based on the experience with the syringe-pump channel",
                                        "style": {
                                            "bold": true
                                        }
                                    }
                                ]
                            },
                            {
                                "type": "rich_text_section",
                                "elements": [
                                    {
                                        "type": "text",
                                        "text": "How to help the projects with their coordination",
                                        "style": {
                                            "bold": true
                                        }
                                    }
                                ]
                            }
                        ],
                        "style": "bullet",
                        "indent": 0
                    },
                    {
                        "type": "rich_text_section",
                        "elements": [
                            {
                                "type": "text",
                                "text": "\nThe actions taken following this meeting were:\n"
                            }
                        ]
                    },
                    {
                        "type": "rich_text_list",
                        "elements": [
                            {
                                "type": "rich_text_section",
                                "elements": [
                                    {
                                        "type": "text",
                                        "text": "Creation a code of conduct",
                                        "style": {
                                            "bold": true
                                        }
                                    },
                                    {
                                        "type": "text",
                                        "text": " and a moderation process, and a meeting set with the syringe-pump team to understand what happened"
                                    }
                                ]
                            },
                            {
                                "type": "rich_text_section",
                                "elements": [
                                    {
                                        "type": "text",
                                        "text": "Creation of the ",
                                        "style": {
                                            "bold": true
                                        }
                                    },
                                    {
                                        "type": "channel",
                                        "channel_id": "C011Z9RDS78",
                                        "style": {
                                            "bold": true
                                        }
                                    },
                                    {
                                        "type": "text",
                                        "text": " channel which is going to work on a webinar series, and an administrative toolkit for project management"
                                    }
                                ]
                            }
                        ],
                        "style": "bullet",
                        "indent": 0
                    },
                    {
                        "type": "rich_text_section",
                        "elements": [
                            {
                                "type": "text",
                                "text": "\nOther updates:\n"
                            }
                        ]
                    },
                    {
                        "type": "rich_text_list",
                        "elements": [
                            {
                                "type": "rich_text_section",
                                "elements": [
                                    {
                                        "type": "text",
                                        "text": "I am currently working with the Holaspirit following up with Manu for the visualization of the community"
                                    }
                                ]
                            },
                            {
                                "type": "rich_text_section",
                                "elements": [
                                    {
                                        "type": "text",
                                        "text": "Creation of ",
                                        "style": {
                                            "bold": true
                                        }
                                    },
                                    {
                                        "type": "channel",
                                        "channel_id": "C01311KN2M6",
                                        "style": {
                                            "bold": true
                                        }
                                    },
                                    {
                                        "type": "text",
                                        "text": " channel for all essential documents",
                                        "style": {
                                            "bold": true
                                        }
                                    }
                                ]
                            },
                            {
                                "type": "rich_text_section",
                                "elements": [
                                    {
                                        "type": "text",
                                        "text": "People did an amazing work on the ",
                                        "style": {
                                            "bold": true
                                        }
                                    },
                                    {
                                        "type": "channel",
                                        "channel_id": "C0125162LJ1",
                                        "style": {
                                            "bold": true
                                        }
                                    },
                                    {
                                        "type": "text",
                                        "text": ": we now have a step by step onboarding flow, a FAQ, a masterfile, a revised initial form"
                                    }
                                ]
                            },
                            {
                                "type": "rich_text_section",
                                "elements": [
                                    {
                                        "type": "text",
                                        "text": "Alix has finished the interview with all project and presented their amazing recommendation to improve the work of this community "
                                    }
                                ]
                            }
                        ],
                        "style": "bullet",
                        "indent": 0
                    },
                    {
                        "type": "rich_text_section",
                        "elements": [
                            {
                                "type": "text",
                                "text": "\n"
                            },
                            {
                                "type": "text",
                                "text": "Let's continue this amazing work!",
                                "style": {
                                    "bold": true
                                }
                            },
                            {
                                "type": "text",
                                "text": "\nThank you "
                            },
                            {
                                "type": "user",
                                "user_id": "UV87UQ37A"
                            },
                            {
                                "type": "text",
                                "text": " "
                            },
                            {
                                "type": "user",
                                "user_id": "UV2SC7ZE3"
                            },
                            {
                                "type": "text",
                                "text": " "
                            },
                            {
                                "type": "user",
                                "user_id": "U010Q3372P3"
                            },
                            {
                                "type": "text",
                                "text": " "
                            },
                            {
                                "type": "user",
                                "user_id": "UV0QTJCMT"
                            },
                            {
                                "type": "text",
                                "text": " "
                            },
                            {
                                "type": "user",
                                "user_id": "U011VF29MK2"
                            },
                            {
                                "type": "text",
                                "text": " "
                            },
                            {
                                "type": "user",
                                "user_id": "U011B6VLM2A"
                            },
                            {
                                "type": "text",
                                "text": " "
                            },
                            {
                                "type": "user",
                                "user_id": "U010HTBUHS9"
                            },
                            {
                                "type": "text",
                                "text": " "
                            },
                            {
                                "type": "user",
                                "user_id": "U011D8T1Z61"
                            },
                            {
                                "type": "text",
                                "text": " "
                            },
                            {
                                "type": "user",
                                "user_id": "U0101DKUALV"
                            },
                            {
                                "type": "text",
                                "text": " "
                            },
                            {
                                "type": "user",
                                "user_id": "UUWR0FJ7M"
                            }
                        ]
                    }
                ]
            }
        ],
        "thread_ts": "1587646420.323400",
        "reply_count": 1,
        "reply_users_count": 1,
        "latest_reply": "1587658251.327900",
        "reply_users": [
            "UV87UQ37A"
        ],
        "replies": [
            {
                "user": "UV87UQ37A",
                "ts": "1587658251.327900"
            }
        ],
        "subscribed": false,
        "reactions": [
            {
                "name": "pray",
                "users": [
                    "U011D8T1Z61"
                ],
                "count": 1
            }
        ]
    },
    {
        "type": "message",
        "subtype": "channel_join",
        "ts": "1587646452.323700",
        "user": "U010Q3372P3",
        "text": "<@U010Q3372P3> has joined the channel",
        "inviter": "UV9V03C8Y"
    },
    {
        "type": "message",
        "subtype": "channel_join",
        "ts": "1587646452.323900",
        "user": "U011VF29MK2",
        "text": "<@U011VF29MK2> has joined the channel",
        "inviter": "UV9V03C8Y"
    },
    {
        "type": "message",
        "text": "*<!channel> [Agenda] for today's governance meeting - 7PM UTC*\n\n• Agenda: <https:\/\/docs.google.com\/document\/d\/1l3Y6Mu7Sxu1SWsqVrFMOB-oBvak95DJYxImfJQER538\/edit#|here>\n• Zoom: <https:\/\/zoom.us\/j\/7804345815>\n*Focus of the day* :point_right: *Moderation process, user groups, and looking-for channels!* \n\nLooking forward to our chat!",
        "files": [
            {
                "id": "F01243K9PBP",
                "created": 1587390543,
                "timestamp": 1587390543,
                "name": "Governance Meetings",
                "title": "Governance Meetings",
                "mimetype": "application\/vnd.google-apps.document",
                "filetype": "gdoc",
                "pretty_type": "GSuite Document",
                "user": "UV9V03C8Y",
                "editable": false,
                "size": 3200,
                "mode": "external",
                "is_external": true,
                "external_type": "gdrive",
                "is_public": true,
                "public_url_shared": false,
                "display_as_bot": false,
                "username": "",
                "url_private": "https:\/\/docs.google.com\/document\/d\/1l3Y6Mu7Sxu1SWsqVrFMOB-oBvak95DJYxImfJQER538\/edit#heading=h.qhf4bph2ejti",
                "thumb_64": "https:\/\/files.slack.com\/files-tmb\/TUU48M0T1-F01243K9PBP-264ff92044\/governance_meetings_64.png?t=xoxe-980144714919-1106606678066-1105227127893-6f722bb664235052954ad46852628b64",
                "thumb_80": "https:\/\/files.slack.com\/files-tmb\/TUU48M0T1-F01243K9PBP-264ff92044\/governance_meetings_80.png?t=xoxe-980144714919-1106606678066-1105227127893-6f722bb664235052954ad46852628b64",
                "thumb_360": "https:\/\/files.slack.com\/files-tmb\/TUU48M0T1-F01243K9PBP-264ff92044\/governance_meetings_360.png?t=xoxe-980144714919-1106606678066-1105227127893-6f722bb664235052954ad46852628b64",
                "thumb_360_w": 255,
                "thumb_360_h": 360,
                "thumb_480": "https:\/\/files.slack.com\/files-tmb\/TUU48M0T1-F01243K9PBP-264ff92044\/governance_meetings_480.png?t=xoxe-980144714919-1106606678066-1105227127893-6f722bb664235052954ad46852628b64",
                "thumb_480_w": 340,
                "thumb_480_h": 480,
                "thumb_160": "https:\/\/files.slack.com\/files-tmb\/TUU48M0T1-F01243K9PBP-264ff92044\/governance_meetings_160.png?t=xoxe-980144714919-1106606678066-1105227127893-6f722bb664235052954ad46852628b64",
                "thumb_720": "https:\/\/files.slack.com\/files-tmb\/TUU48M0T1-F01243K9PBP-264ff92044\/governance_meetings_720.png?t=xoxe-980144714919-1106606678066-1105227127893-6f722bb664235052954ad46852628b64",
                "thumb_720_w": 509,
                "thumb_720_h": 720,
                "thumb_800": "https:\/\/files.slack.com\/files-tmb\/TUU48M0T1-F01243K9PBP-264ff92044\/governance_meetings_800.png?t=xoxe-980144714919-1106606678066-1105227127893-6f722bb664235052954ad46852628b64",
                "thumb_800_w": 800,
                "thumb_800_h": 1131,
                "thumb_960": "https:\/\/files.slack.com\/files-tmb\/TUU48M0T1-F01243K9PBP-264ff92044\/governance_meetings_960.png?t=xoxe-980144714919-1106606678066-1105227127893-6f722bb664235052954ad46852628b64",
                "thumb_960_w": 679,
                "thumb_960_h": 960,
                "thumb_1024": "https:\/\/files.slack.com\/files-tmb\/TUU48M0T1-F01243K9PBP-264ff92044\/governance_meetings_1024.png?t=xoxe-980144714919-1106606678066-1105227127893-6f722bb664235052954ad46852628b64",
                "thumb_1024_w": 724,
                "thumb_1024_h": 1024,
                "image_exif_rotation": 1,
                "original_w": 800,
                "original_h": 1131,
                "thumb_tiny": "AwAwACHSJpME\/wAVKVB60cDt+lABg\/3jSijNFABRRRQA1uOnWky1Kw4pB9KAFBbvinU0Z9KUUALRRRQAhJFIGz60uDmjmgAHPc0tIM96OaAFooooA\/\/Z",
                "permalink": "https:\/\/open-covid19.slack.com\/files\/UV9V03C8Y\/F01243K9PBP\/governance_meetings",
                "is_starred": false,
                "external_id": "1l3Y6Mu7Sxu1SWsqVrFMOB-oBvak95DJYxImfJQER538",
                "external_url": "https:\/\/docs.google.com\/document\/d\/1l3Y6Mu7Sxu1SWsqVrFMOB-oBvak95DJYxImfJQER538\/edit#heading=h.qhf4bph2ejti",
                "has_rich_preview": true
            }
        ],
        "upload": false,
        "blocks": [
            {
                "type": "rich_text",
                "block_id": "jRJ43",
                "elements": [
                    {
                        "type": "rich_text_section",
                        "elements": [
                            {
                                "type": "broadcast",
                                "range": "channel",
                                "style": {
                                    "bold": true
                                }
                            },
                            {
                                "type": "text",
                                "text": " [Agenda] for today's governance meeting - 7PM UTC",
                                "style": {
                                    "bold": true
                                }
                            },
                            {
                                "type": "text",
                                "text": "\n\n"
                            }
                        ]
                    },
                    {
                        "type": "rich_text_list",
                        "style": "bullet",
                        "indent": 0,
                        "elements": [
                            {
                                "type": "rich_text_section",
                                "elements": [
                                    {
                                        "type": "text",
                                        "text": "Agenda: "
                                    },
                                    {
                                        "type": "link",
                                        "url": "https:\/\/docs.google.com\/document\/d\/1l3Y6Mu7Sxu1SWsqVrFMOB-oBvak95DJYxImfJQER538\/edit#",
                                        "text": "here"
                                    }
                                ]
                            },
                            {
                                "type": "rich_text_section",
                                "elements": [
                                    {
                                        "type": "text",
                                        "text": "Zoom: "
                                    },
                                    {
                                        "type": "link",
                                        "url": "https:\/\/zoom.us\/j\/7804345815"
                                    }
                                ]
                            }
                        ]
                    },
                    {
                        "type": "rich_text_section",
                        "elements": [
                            {
                                "type": "text",
                                "text": "\n"
                            },
                            {
                                "type": "text",
                                "text": "Focus of the day ",
                                "style": {
                                    "bold": true
                                }
                            },
                            {
                                "type": "emoji",
                                "name": "point_right",
                                "style": {
                                    "bold": true
                                }
                            },
                            {
                                "type": "text",
                                "text": " Moderation process, user groups, and looking-for channels! ",
                                "style": {
                                    "bold": true
                                }
                            },
                            {
                                "type": "text",
                                "text": "\n\nLooking forward to our chat!"
                            }
                        ]
                    }
                ]
            }
        ],
        "user": "UV9V03C8Y",
        "display_as_bot": false,
        "x_files": [
            "F01243K9PBP"
        ],
        "ts": "1587650721.326300",
        "client_msg_id": "2ba0e545-0f94-41c7-82eb-f78f4a66d78a"
    },
    {
        "client_msg_id": "42807ca9-687c-46d1-b37b-ebf6ada5c44a",
        "type": "message",
        "text": "Hello Camille! I am mostly trying to match up project names\/IDs on JOGL with Slack channel names, but I know my teammates\/mentors(? as I see it!) at <#CV48ZESEP|prgm-metastudy-team> have been working on this.",
        "user": "U0101DKUALV",
        "ts": "1587657051.327300",
        "team": "TUU48M0T1",
        "user_team": "TUU48M0T1",
        "source_team": "TUU48M0T1",
        "user_profile": {
            "avatar_hash": "b0aee06ed3e5",
            "image_72": "https:\/\/avatars.slack-edge.com\/2020-04-22\/1072886325190_b0aee06ed3e501ebdf56_72.png",
            "first_name": "",
            "real_name": "Pauline Chane",
            "display_name": "Pauline Chane",
            "team": "TUU48M0T1",
            "name": "pauline.chane",
            "is_restricted": false,
            "is_ultra_restricted": false
        },
        "blocks": [
            {
                "type": "rich_text",
                "block_id": "nNvE",
                "elements": [
                    {
                        "type": "rich_text_section",
                        "elements": [
                            {
                                "type": "text",
                                "text": "Hello Camille! I am mostly trying to match up project names\/IDs on JOGL with Slack channel names, but I know my teammates\/mentors(? as I see it!) at "
                            },
                            {
                                "type": "channel",
                                "channel_id": "CV48ZESEP"
                            },
                            {
                                "type": "text",
                                "text": " have been working on this."
                            }
                        ]
                    }
                ]
            }
        ],
        "thread_ts": "1587575184.310900",
        "parent_user_id": "U011B6VLM2A"
    },
    {
        "type": "message",
        "text": "I think we need to build a process around surveys -- survey fatigue is real and not everybody should just be able to up and do one. my first thought (and how it has happened elsewhere in other communities I am involved in) is that the different teams\/working groups consolidate their inquiries, and one general survey goes at at some interval (monthly might be okay here). perhaps it should ultimately go through meta-study? what are your general thoughts on this?",
        "user": "UV87UQ37A",
        "ts": "1587658048.327600",
        "team": "TUU48M0T1",
        "user_team": "TUU48M0T1",
        "source_team": "TUU48M0T1",
        "user_profile": {
            "avatar_hash": "g7c78d2f0258",
            "image_72": "https:\/\/secure.gravatar.com\/avatar\/7c78d2f0258f7bdf78a86301cfd6b712.jpg?s=72&d=https%3A%2F%2Fa.slack-edge.com%2Fdf10d%2Fimg%2Favatars%2Fava_0014-72.png",
            "first_name": "Victoria",
            "real_name": "Victoria Costa",
            "display_name": "Victoria Costa",
            "team": "TUU48M0T1",
            "name": "victorycoast",
            "is_restricted": false,
            "is_ultra_restricted": false
        },
        "attachments": [
            {
                "fallback": "[April 23rd, 2020 6:16 AM] masselot.camille: Not yet. There are two existing surveys at the student-engagement level, one for mentors and one for mentees which we can maybe adapt. Otherwise building on sounds nice. We just have to be careful that all data collected are utilized. We have had many surveys asking similar questions and in term of database managment it's not the best. <@U010HTBUHS9> do you have an idea of which questions you want to ask? The list of all surveys is on the master file here: <https:\/\/docs.google.com\/spreadsheets\/d\/1gnka4rNOkY5DIgoUx5SkIMlFlKZEBTbj8aAIwvYuLuY\/edit#gid=12706035>",
                "ts": "1587636975.017000",
                "author_id": "UV9V03C8Y",
                "author_subname": "Camille Masselot - JOGL Program coordinator",
                "channel_id": "C011Z9RDS78",
                "channel_name": "prgm-capacity-building",
                "is_msg_unfurl": true,
                "is_reply_unfurl": true,
                "text": "Not yet. There are two existing surveys at the student-engagement level, one for mentors and one for mentees which we can maybe adapt. Otherwise building on sounds nice. We just have to be careful that all data collected are utilized. We have had many surveys asking similar questions and in term of database managment it's not the best. <@U010HTBUHS9> do you have an idea of which questions you want to ask? The list of all surveys is on the master file here: <https:\/\/docs.google.com\/spreadsheets\/d\/1gnka4rNOkY5DIgoUx5SkIMlFlKZEBTbj8aAIwvYuLuY\/edit#gid=12706035>",
                "author_name": "Camille Masselot - JOGL Program coordinator",
                "author_link": "https:\/\/open-covid19.slack.com\/team\/UV9V03C8Y",
                "author_icon": "https:\/\/avatars.slack-edge.com\/2020-03-12\/996126178096_177697fb7b8ffa57649c_48.jpg",
                "mrkdwn_in": [
                    "text"
                ],
                "files": [
                    {
                        "id": "F012H7SRQG4",
                        "created": 1587566757,
                        "timestamp": 1587566757,
                        "name": "Master-file_Opencovid19",
                        "title": "Master-file_Opencovid19",
                        "mimetype": "application\/vnd.google-apps.spreadsheet",
                        "filetype": "gsheet",
                        "pretty_type": "GSuite Spreadsheet",
                        "user": "UV9V03C8Y",
                        "editable": false,
                        "size": 515125,
                        "mode": "external",
                        "is_external": true,
                        "external_type": "gdrive",
                        "is_public": true,
                        "public_url_shared": false,
                        "display_as_bot": false,
                        "username": "",
                        "url_private": "https:\/\/docs.google.com\/spreadsheets\/d\/1gnka4rNOkY5DIgoUx5SkIMlFlKZEBTbj8aAIwvYuLuY\/edit#gid=1655667408",
                        "thumb_64": "https:\/\/files.slack.com\/files-tmb\/TUU48M0T1-F012H7SRQG4-35991e482e\/master-file_opencovid19_64.png",
                        "thumb_80": "https:\/\/files.slack.com\/files-tmb\/TUU48M0T1-F012H7SRQG4-35991e482e\/master-file_opencovid19_80.png",
                        "thumb_360": "https:\/\/files.slack.com\/files-tmb\/TUU48M0T1-F012H7SRQG4-35991e482e\/master-file_opencovid19_360.png",
                        "thumb_360_w": 254,
                        "thumb_360_h": 360,
                        "thumb_480": "https:\/\/files.slack.com\/files-tmb\/TUU48M0T1-F012H7SRQG4-35991e482e\/master-file_opencovid19_480.png",
                        "thumb_480_w": 339,
                        "thumb_480_h": 480,
                        "thumb_160": "https:\/\/files.slack.com\/files-tmb\/TUU48M0T1-F012H7SRQG4-35991e482e\/master-file_opencovid19_160.png",
                        "thumb_720": "https:\/\/files.slack.com\/files-tmb\/TUU48M0T1-F012H7SRQG4-35991e482e\/master-file_opencovid19_720.png",
                        "thumb_720_w": 509,
                        "thumb_720_h": 720,
                        "thumb_800": "https:\/\/files.slack.com\/files-tmb\/TUU48M0T1-F012H7SRQG4-35991e482e\/master-file_opencovid19_800.png",
                        "thumb_800_w": 800,
                        "thumb_800_h": 1132,
                        "thumb_960": "https:\/\/files.slack.com\/files-tmb\/TUU48M0T1-F012H7SRQG4-35991e482e\/master-file_opencovid19_960.png",
                        "thumb_960_w": 678,
                        "thumb_960_h": 960,
                        "thumb_1024": "https:\/\/files.slack.com\/files-tmb\/TUU48M0T1-F012H7SRQG4-35991e482e\/master-file_opencovid19_1024.png",
                        "thumb_1024_w": 724,
                        "thumb_1024_h": 1024,
                        "image_exif_rotation": 1,
                        "original_w": 1024,
                        "original_h": 1449,
                        "thumb_tiny": "AwAwACHTooooAKKKKACiiigAooooAKKKKACiiigAooooAKKKKACiiigD\/9k=",
                        "permalink": "https:\/\/open-covid19.slack.com\/files\/UV9V03C8Y\/F012H7SRQG4\/master-file_opencovid19",
                        "is_starred": false,
                        "external_id": "1gnka4rNOkY5DIgoUx5SkIMlFlKZEBTbj8aAIwvYuLuY",
                        "external_url": "https:\/\/docs.google.com\/spreadsheets\/d\/1gnka4rNOkY5DIgoUx5SkIMlFlKZEBTbj8aAIwvYuLuY\/edit#gid=1655667408",
                        "has_rich_preview": true
                    }
                ],
                "color": "D0D0D0",
                "from_url": "https:\/\/open-covid19.slack.com\/archives\/C011Z9RDS78\/p1587636975017000?thread_ts=1587574918016700&cid=C011Z9RDS78",
                "is_share": true,
                "footer": "From a thread in #prgm-capacity-building"
            }
        ],
        "blocks": [
            {
                "type": "rich_text",
                "block_id": "ldb",
                "elements": [
                    {
                        "type": "rich_text_section",
                        "elements": [
                            {
                                "type": "text",
                                "text": "I think we need to build a process around surveys -- survey fatigue is real and not everybody should just be able to up and do one. my first thought (and how it has happened elsewhere in other communities I am involved in) is that the different teams\/working groups consolidate their inquiries, and one general survey goes at at some interval (monthly might be okay here). perhaps it should ultimately go through meta-study? what are your general thoughts on this?"
                            }
                        ]
                    }
                ]
            }
        ]
    },
    {
        "client_msg_id": "f52d5517-90d9-46fa-a956-cab32ee8777c",
        "type": "message",
        "text": "this is moving at lightning speed. well done, everyone - such excellent work. we are all now ready for some reality show competition for community organizing or an accelerator\/incubator challenge",
        "user": "UV87UQ37A",
        "ts": "1587658251.327900",
        "team": "TUU48M0T1",
        "user_team": "TUU48M0T1",
        "source_team": "TUU48M0T1",
        "user_profile": {
            "avatar_hash": "g7c78d2f0258",
            "image_72": "https:\/\/secure.gravatar.com\/avatar\/7c78d2f0258f7bdf78a86301cfd6b712.jpg?s=72&d=https%3A%2F%2Fa.slack-edge.com%2Fdf10d%2Fimg%2Favatars%2Fava_0014-72.png",
            "first_name": "Victoria",
            "real_name": "Victoria Costa",
            "display_name": "Victoria Costa",
            "team": "TUU48M0T1",
            "name": "victorycoast",
            "is_restricted": false,
            "is_ultra_restricted": false
        },
        "blocks": [
            {
                "type": "rich_text",
                "block_id": "Cvsz",
                "elements": [
                    {
                        "type": "rich_text_section",
                        "elements": [
                            {
                                "type": "text",
                                "text": "this is moving at lightning speed. well done, everyone - such excellent work. we are all now ready for some reality show competition for community organizing or an accelerator\/incubator challenge"
                            }
                        ]
                    }
                ]
            }
        ],
        "thread_ts": "1587646420.323400",
        "parent_user_id": "UV9V03C8Y"
    },
    {
        "client_msg_id": "22607e75-9bee-463d-a7e7-fb02f4b8f0db",
        "type": "message",
        "text": "So funny <@UV87UQ37A> <@U010HTBUHS9>, I just modified the <#C011F2EPBR9|prgm-forms-surveys> with a small process before I saw your message! Have a look and tell me if the process seems okay!",
        "user": "UV9V03C8Y",
        "ts": "1587660066.329300",
        "team": "TUU48M0T1",
        "user_team": "TUU48M0T1",
        "source_team": "TUU48M0T1",
        "user_profile": {
            "avatar_hash": "177697fb7b8f",
            "image_72": "https:\/\/avatars.slack-edge.com\/2020-03-12\/996126178096_177697fb7b8ffa57649c_72.jpg",
            "first_name": "Camille",
            "real_name": "Camille Masselot - JOGL Program coordinator",
            "display_name": "Camille Masselot - JOGL coordinator",
            "team": "TUU48M0T1",
            "name": "masselot.camille",
            "is_restricted": false,
            "is_ultra_restricted": false
        },
        "blocks": [
            {
                "type": "rich_text",
                "block_id": "JLc",
                "elements": [
                    {
                        "type": "rich_text_section",
                        "elements": [
                            {
                                "type": "text",
                                "text": "So funny "
                            },
                            {
                                "type": "user",
                                "user_id": "UV87UQ37A"
                            },
                            {
                                "type": "text",
                                "text": " "
                            },
                            {
                                "type": "user",
                                "user_id": "U010HTBUHS9"
                            },
                            {
                                "type": "text",
                                "text": ", I just modified the "
                            },
                            {
                                "type": "channel",
                                "channel_id": "C011F2EPBR9"
                            },
                            {
                                "type": "text",
                                "text": " with a small process before I saw your message! Have a look and tell me if the process seems okay!"
                            }
                        ]
                    }
                ]
            }
        ]
    },
    {
        "type": "message",
        "text": "<https:\/\/app.slack.com\/team\/UV9V03C8Y|Camille Masselot - JOGL coordinator>  [18 h 29]\n*Creating a surveys? Here are the steps to follow:*\n1. Check that the survey you are creating doesn't exist already: look at the list in this <https:\/\/docs.google.com\/spreadsheets\/d\/1gnka4rNOkY5DIgoUx5SkIMlFlKZEBTbj8aAIwvYuLuY\/edit#gid=12706035|masterfile>\n2. Make sure you do not ask information already collected either on the JOGL profile, or by other surveys\n3. Submit your survey here for feedback\/review\n4. After validation, ask coordination to disseminate it in the announcement channel if necessary\nThanks!",
        "files": [
            {
                "id": "F012H7SRQG4",
                "created": 1587566757,
                "timestamp": 1587566757,
                "name": "Master-file_Opencovid19",
                "title": "Single Source of Truth -- Opencovid19",
                "mimetype": "application\/vnd.google-apps.spreadsheet",
                "filetype": "gsheet",
                "pretty_type": "GSuite Spreadsheet",
                "user": "UV9V03C8Y",
                "editable": false,
                "size": 515125,
                "mode": "external",
                "is_external": true,
                "external_type": "gdrive",
                "is_public": true,
                "public_url_shared": false,
                "display_as_bot": false,
                "username": "",
                "url_private": "https:\/\/docs.google.com\/spreadsheets\/d\/1gnka4rNOkY5DIgoUx5SkIMlFlKZEBTbj8aAIwvYuLuY\/edit#gid=1655667408",
                "thumb_64": "https:\/\/files.slack.com\/files-tmb\/TUU48M0T1-F012H7SRQG4-36955a1ab6\/master-file_opencovid19_64.png?t=xoxe-980144714919-1106606678066-1105227127893-6f722bb664235052954ad46852628b64",
                "thumb_80": "https:\/\/files.slack.com\/files-tmb\/TUU48M0T1-F012H7SRQG4-36955a1ab6\/master-file_opencovid19_80.png?t=xoxe-980144714919-1106606678066-1105227127893-6f722bb664235052954ad46852628b64",
                "thumb_360": "https:\/\/files.slack.com\/files-tmb\/TUU48M0T1-F012H7SRQG4-36955a1ab6\/master-file_opencovid19_360.png?t=xoxe-980144714919-1106606678066-1105227127893-6f722bb664235052954ad46852628b64",
                "thumb_360_w": 254,
                "thumb_360_h": 360,
                "thumb_480": "https:\/\/files.slack.com\/files-tmb\/TUU48M0T1-F012H7SRQG4-36955a1ab6\/master-file_opencovid19_480.png?t=xoxe-980144714919-1106606678066-1105227127893-6f722bb664235052954ad46852628b64",
                "thumb_480_w": 339,
                "thumb_480_h": 480,
                "thumb_160": "https:\/\/files.slack.com\/files-tmb\/TUU48M0T1-F012H7SRQG4-36955a1ab6\/master-file_opencovid19_160.png?t=xoxe-980144714919-1106606678066-1105227127893-6f722bb664235052954ad46852628b64",
                "thumb_720": "https:\/\/files.slack.com\/files-tmb\/TUU48M0T1-F012H7SRQG4-36955a1ab6\/master-file_opencovid19_720.png?t=xoxe-980144714919-1106606678066-1105227127893-6f722bb664235052954ad46852628b64",
                "thumb_720_w": 509,
                "thumb_720_h": 720,
                "thumb_800": "https:\/\/files.slack.com\/files-tmb\/TUU48M0T1-F012H7SRQG4-36955a1ab6\/master-file_opencovid19_800.png?t=xoxe-980144714919-1106606678066-1105227127893-6f722bb664235052954ad46852628b64",
                "thumb_800_w": 800,
                "thumb_800_h": 1132,
                "thumb_960": "https:\/\/files.slack.com\/files-tmb\/TUU48M0T1-F012H7SRQG4-36955a1ab6\/master-file_opencovid19_960.png?t=xoxe-980144714919-1106606678066-1105227127893-6f722bb664235052954ad46852628b64",
                "thumb_960_w": 678,
                "thumb_960_h": 960,
                "thumb_1024": "https:\/\/files.slack.com\/files-tmb\/TUU48M0T1-F012H7SRQG4-36955a1ab6\/master-file_opencovid19_1024.png?t=xoxe-980144714919-1106606678066-1105227127893-6f722bb664235052954ad46852628b64",
                "thumb_1024_w": 724,
                "thumb_1024_h": 1024,
                "image_exif_rotation": 1,
                "original_w": 1024,
                "original_h": 1449,
                "thumb_tiny": "AwAwACHQcvu+VkA9xTSZezx\/kf8AGnnG6g9KAuMPm\/3o\/wDvk\/40q+buG5kx6Af\/AF6ce1LQO4tFFFAhpxuoPAoIO7\/69B6c0CEPanCm9hThQAtFFFAxDnPX9KQ9P\/rUuOaCKBCelKKMH2oxQAtFFFAz\/9k=",
                "permalink": "https:\/\/open-covid19.slack.com\/files\/UV9V03C8Y\/F012H7SRQG4\/master-file_opencovid19",
                "is_starred": false,
                "external_id": "1gnka4rNOkY5DIgoUx5SkIMlFlKZEBTbj8aAIwvYuLuY",
                "external_url": "https:\/\/docs.google.com\/spreadsheets\/d\/1gnka4rNOkY5DIgoUx5SkIMlFlKZEBTbj8aAIwvYuLuY\/edit#gid=1655667408",
                "has_rich_preview": true
            }
        ],
        "upload": false,
        "blocks": [
            {
                "type": "rich_text",
                "block_id": "eh8",
                "elements": [
                    {
                        "type": "rich_text_section",
                        "elements": [
                            {
                                "type": "link",
                                "url": "https:\/\/app.slack.com\/team\/UV9V03C8Y",
                                "text": "Camille Masselot - JOGL coordinator"
                            },
                            {
                                "type": "text",
                                "text": "  [18 h 29]\n"
                            },
                            {
                                "type": "text",
                                "text": "Creating a surveys? Here are the steps to follow:",
                                "style": {
                                    "bold": true
                                }
                            },
                            {
                                "type": "text",
                                "text": "\n"
                            }
                        ]
                    },
                    {
                        "type": "rich_text_list",
                        "style": "ordered",
                        "indent": 0,
                        "elements": [
                            {
                                "type": "rich_text_section",
                                "elements": [
                                    {
                                        "type": "text",
                                        "text": "Check that the survey you are creating doesn't exist already: look at the list in this "
                                    },
                                    {
                                        "type": "link",
                                        "url": "https:\/\/docs.google.com\/spreadsheets\/d\/1gnka4rNOkY5DIgoUx5SkIMlFlKZEBTbj8aAIwvYuLuY\/edit#gid=12706035",
                                        "text": "masterfile"
                                    }
                                ]
                            },
                            {
                                "type": "rich_text_section",
                                "elements": [
                                    {
                                        "type": "text",
                                        "text": "Make sure you do not ask information already collected either on the JOGL profile, or by other surveys"
                                    }
                                ]
                            },
                            {
                                "type": "rich_text_section",
                                "elements": [
                                    {
                                        "type": "text",
                                        "text": "Submit your survey here for feedback\/review"
                                    }
                                ]
                            },
                            {
                                "type": "rich_text_section",
                                "elements": [
                                    {
                                        "type": "text",
                                        "text": "After validation, ask coordination to disseminate it in the announcement channel if necessary"
                                    }
                                ]
                            }
                        ]
                    },
                    {
                        "type": "rich_text_section",
                        "elements": [
                            {
                                "type": "text",
                                "text": "Thanks!"
                            }
                        ]
                    }
                ]
            }
        ],
        "user": "UV9V03C8Y",
        "display_as_bot": false,
        "x_files": [
            "F012H7SRQG4"
        ],
        "ts": "1587660088.329700",
        "client_msg_id": "908f0574-e6e7-4961-a182-9b7523df9f8b"
    },
    {
        "client_msg_id": "c68122a2-0487-43da-808f-ca58068056c8",
        "type": "message",
        "text": "<@UV9V03C8Y> is there a way to use JOGL to identify (from the surveys already created) a way to help the survey creator see what similar surveys exist, based on how they’re building their questions? Instead of asking the user to review the masterfile (if they’re strapped for time, they may not review it).",
        "user": "U010Q3372P3",
        "ts": "1587665427.332300",
        "team": "TUU48M0T1",
        "user_team": "TUU48M0T1",
        "source_team": "TUU48M0T1",
        "user_profile": {
            "avatar_hash": "95066184973b",
            "image_72": "https:\/\/avatars.slack-edge.com\/2020-03-30\/1036274198128_95066184973b1de50d1a_72.png",
            "first_name": "Kathryn",
            "real_name": "Kathryn Rowe",
            "display_name": "Kathryn Rowe",
            "team": "TUU48M0T1",
            "name": "kathryn.rowe",
            "is_restricted": false,
            "is_ultra_restricted": false
        },
        "blocks": [
            {
                "type": "rich_text",
                "block_id": "elCWV",
                "elements": [
                    {
                        "type": "rich_text_section",
                        "elements": [
                            {
                                "type": "user",
                                "user_id": "UV9V03C8Y"
                            },
                            {
                                "type": "text",
                                "text": " is there a way to use JOGL to identify (from the surveys already created) a way to help the survey creator see what similar surveys exist, based on how they’re building their questions? Instead of asking the user to review the masterfile (if they’re strapped for time, they may not review it)."
                            }
                        ]
                    }
                ]
            }
        ],
        "thread_ts": "1587665427.332300",
        "reply_count": 1,
        "reply_users_count": 1,
        "latest_reply": "1587993937.344700",
        "reply_users": [
            "UV9V03C8Y"
        ],
        "replies": [
            {
                "user": "UV9V03C8Y",
                "ts": "1587993937.344700"
            }
        ],
        "subscribed": false
    },
    {
        "client_msg_id": "2d8bccce-3a2c-431a-93ab-75b4b7bcf5d0",
        "type": "message",
        "text": "Hi all, I remember hearing in here (I think) a discussion a while ago about making this server a paid version. Does anyone know who did that process? I have another org that wants to try to convince slack to do the same for an international group.",
        "user": "UV120B2P7",
        "ts": "1587675985.334700",
        "team": "TUU48M0T1",
        "user_team": "TUU48M0T1",
        "source_team": "TUU48M0T1",
        "user_profile": {
            "avatar_hash": "34ebddbce513",
            "image_72": "https:\/\/avatars.slack-edge.com\/2020-03-13\/988769523137_34ebddbce5135c5663e2_72.jpg",
            "first_name": "Yoshi",
            "real_name": "Yoshi Goto - SoundBio Lab, Seattle",
            "display_name": "Yoshi Goto - SoundBio Lab, Seattle",
            "team": "TUU48M0T1",
            "name": "yoshi",
            "is_restricted": false,
            "is_ultra_restricted": false
        },
        "edited": {
            "user": "UV120B2P7",
            "ts": "1587675992.000000"
        },
        "blocks": [
            {
                "type": "rich_text",
                "block_id": "Pf1",
                "elements": [
                    {
                        "type": "rich_text_section",
                        "elements": [
                            {
                                "type": "text",
                                "text": "Hi all, I remember hearing in here (I think) a discussion a while ago about making this server a paid version. Does anyone know who did that process? I have another org that wants to try to convince slack to do the same for an international group."
                            }
                        ]
                    }
                ]
            }
        ],
        "thread_ts": "1587675985.334700",
        "reply_count": 4,
        "reply_users_count": 3,
        "latest_reply": "1587766471.338700",
        "reply_users": [
            "UV02WET96",
            "UV120B2P7",
            "UV87UQ37A"
        ],
        "replies": [
            {
                "user": "UV02WET96",
                "ts": "1587677449.335700"
            },
            {
                "user": "UV120B2P7",
                "ts": "1587680746.335900"
            },
            {
                "user": "UV87UQ37A",
                "ts": "1587682665.336100"
            },
            {
                "user": "UV120B2P7",
                "ts": "1587766471.338700"
            }
        ],
        "subscribed": false
    },
    {
        "client_msg_id": "1FB01C1A-0CCA-4227-8539-3997223E45C7",
        "type": "message",
        "text": "You just need to ask slack indicating that your group is working on Covid19 ",
        "user": "UV02WET96",
        "ts": "1587677449.335700",
        "team": "TUU48M0T1",
        "user_team": "TUU48M0T1",
        "source_team": "TUU48M0T1",
        "user_profile": {
            "avatar_hash": "a99c74a194f8",
            "image_72": "https:\/\/avatars.slack-edge.com\/2020-03-07\/975708504851_a99c74a194f86715ca7d_72.png",
            "first_name": "Thomas",
            "real_name": "Thomas Landrain",
            "display_name": "Thomas Landrain - JOGL CoFounder \/ CEO",
            "team": "TUU48M0T1",
            "name": "thomas",
            "is_restricted": false,
            "is_ultra_restricted": false
        },
        "blocks": [
            {
                "type": "rich_text",
                "block_id": "HIm",
                "elements": [
                    {
                        "type": "rich_text_section",
                        "elements": [
                            {
                                "type": "text",
                                "text": "You just need to ask slack indicating that your group is working on Covid19 "
                            }
                        ]
                    }
                ]
            }
        ],
        "thread_ts": "1587675985.334700",
        "parent_user_id": "UV120B2P7",
        "reactions": [
            {
                "name": "heart",
                "users": [
                    "U011D6K9RH6"
                ],
                "count": 1
            }
        ]
    },
    {
        "client_msg_id": "6b93ff33-6eda-4690-ac64-e6d6f6aa03a4",
        "type": "message",
        "text": "I see, so it's only for covid-19 specific servers <@UV02WET96>",
        "user": "UV120B2P7",
        "ts": "1587680746.335900",
        "team": "TUU48M0T1",
        "user_team": "TUU48M0T1",
        "source_team": "TUU48M0T1",
        "user_profile": {
            "avatar_hash": "34ebddbce513",
            "image_72": "https:\/\/avatars.slack-edge.com\/2020-03-13\/988769523137_34ebddbce5135c5663e2_72.jpg",
            "first_name": "Yoshi",
            "real_name": "Yoshi Goto - SoundBio Lab, Seattle",
            "display_name": "Yoshi Goto - SoundBio Lab, Seattle",
            "team": "TUU48M0T1",
            "name": "yoshi",
            "is_restricted": false,
            "is_ultra_restricted": false
        },
        "blocks": [
            {
                "type": "rich_text",
                "block_id": "I2fh",
                "elements": [
                    {
                        "type": "rich_text_section",
                        "elements": [
                            {
                                "type": "text",
                                "text": "I see, so it's only for covid-19 specific servers "
                            },
                            {
                                "type": "user",
                                "user_id": "UV02WET96"
                            }
                        ]
                    }
                ]
            }
        ],
        "thread_ts": "1587675985.334700",
        "parent_user_id": "UV120B2P7"
    },
    {
        "client_msg_id": "9f5a6988-7c8a-4e9a-ba44-549bfccf274b",
        "type": "message",
        "text": "all nonprofits are upgraded at no cost anytime",
        "user": "UV87UQ37A",
        "ts": "1587682665.336100",
        "team": "TUU48M0T1",
        "user_team": "TUU48M0T1",
        "source_team": "TUU48M0T1",
        "user_profile": {
            "avatar_hash": "g7c78d2f0258",
            "image_72": "https:\/\/secure.gravatar.com\/avatar\/7c78d2f0258f7bdf78a86301cfd6b712.jpg?s=72&d=https%3A%2F%2Fa.slack-edge.com%2Fdf10d%2Fimg%2Favatars%2Fava_0014-72.png",
            "first_name": "Victoria",
            "real_name": "Victoria Costa",
            "display_name": "Victoria Costa",
            "team": "TUU48M0T1",
            "name": "victorycoast",
            "is_restricted": false,
            "is_ultra_restricted": false
        },
        "blocks": [
            {
                "type": "rich_text",
                "block_id": "2n7",
                "elements": [
                    {
                        "type": "rich_text_section",
                        "elements": [
                            {
                                "type": "text",
                                "text": "all nonprofits are upgraded at no cost anytime"
                            }
                        ]
                    }
                ]
            }
        ],
        "thread_ts": "1587675985.334700",
        "parent_user_id": "UV120B2P7"
    }
]