[
    {
        "client_msg_id": "a9a8086d-992b-4f4d-ac02-05d956fb7f75",
        "type": "message",
        "text": "This is what we used for the Co-Immune program on JOGL and it worked pretty efficiently to share tasks ; however it is a challenge for coordinating persons\/leaders as the options available for Gantt and retro planning is very limited. I had to have the entire program pipeline somewhere else which involved duplication of information.",
        "user": "UV9V03C8Y",
        "ts": "1584354204.100500",
        "team": "TUU48M0T1",
        "user_team": "TUU48M0T1",
        "source_team": "TUU48M0T1",
        "user_profile": {
            "avatar_hash": "177697fb7b8f",
            "image_72": "https:\/\/avatars.slack-edge.com\/2020-03-12\/996126178096_177697fb7b8ffa57649c_72.jpg",
            "first_name": "Camille",
            "real_name": "Camille Masselot - JOGL Program coordinator",
            "display_name": "Camille Masselot - JOGL coordinator",
            "team": "TUU48M0T1",
            "name": "masselot.camille",
            "is_restricted": false,
            "is_ultra_restricted": false
        },
        "blocks": [
            {
                "type": "rich_text",
                "block_id": "ERnZ",
                "elements": [
                    {
                        "type": "rich_text_section",
                        "elements": [
                            {
                                "type": "text",
                                "text": "This is what we used for the Co-Immune program on JOGL and it worked pretty efficiently to share tasks ; however it is a challenge for coordinating persons\/leaders as the options available for Gantt and retro planning is very limited. I had to have the entire program pipeline somewhere else which involved duplication of information."
                            }
                        ]
                    }
                ]
            }
        ],
        "thread_ts": "1584262830.072100",
        "parent_user_id": "UVD8Q035K"
    },
    {
        "client_msg_id": "e4cf7689-8ad5-43ef-9bc5-9351dcedb04d",
        "type": "message",
        "text": "Hi <!channel> everyone, hope you are safe at home :tulip:\n\nOur main immediate goal today is to finish the redaction of the program page and of the challenges pages. If you don’t have another task at hand, please join the redaction.\n\nYou will find the docs here:\n<https:\/\/drive.google.com\/drive\/u\/1\/folders\/197gE8eZjs8HxnewBNzGkQaZeMFI0dRE_>\n\nIf yon don’t have an access yet, first register your email on this google mailing list, it will grant you an access: <https:\/\/groups.google.com\/a\/community.bio\/forum\/#!forum\/covid19-jogl\/join>\n\nIf we can, we will launch the program this evening (Europe time) :raised_hands:\n\nYou can follow the model of the CoImmune program on JOGL.\nSee you on the google doc :wink:",
        "user": "UV02WET96",
        "ts": "1584357709.105500",
        "team": "TUU48M0T1",
        "user_team": "TUU48M0T1",
        "source_team": "TUU48M0T1",
        "user_profile": {
            "avatar_hash": "a99c74a194f8",
            "image_72": "https:\/\/avatars.slack-edge.com\/2020-03-07\/975708504851_a99c74a194f86715ca7d_72.png",
            "first_name": "Thomas",
            "real_name": "Thomas Landrain",
            "display_name": "Thomas Landrain - JOGL CoFounder \/ CEO",
            "team": "TUU48M0T1",
            "name": "thomas",
            "is_restricted": false,
            "is_ultra_restricted": false
        },
        "blocks": [
            {
                "type": "rich_text",
                "block_id": "5IN",
                "elements": [
                    {
                        "type": "rich_text_section",
                        "elements": [
                            {
                                "type": "text",
                                "text": "Hi "
                            },
                            {
                                "type": "broadcast",
                                "range": "channel"
                            },
                            {
                                "type": "text",
                                "text": " everyone, hope you are safe at home "
                            },
                            {
                                "type": "emoji",
                                "name": "tulip"
                            },
                            {
                                "type": "text",
                                "text": "\n\nOur main immediate goal today is to finish the redaction of the program page and of the challenges pages. If you don’t have another task at hand, please join the redaction.\n\nYou will find the docs here:\n"
                            },
                            {
                                "type": "link",
                                "url": "https:\/\/drive.google.com\/drive\/u\/1\/folders\/197gE8eZjs8HxnewBNzGkQaZeMFI0dRE_"
                            },
                            {
                                "type": "text",
                                "text": "\n\nIf yon don’t have an access yet, first register your email on this google mailing list, it will grant you an access: "
                            },
                            {
                                "type": "link",
                                "url": "https:\/\/groups.google.com\/a\/community.bio\/forum\/#!forum\/covid19-jogl\/join"
                            },
                            {
                                "type": "text",
                                "text": "\n\nIf we can, we will launch the program this evening (Europe time) "
                            },
                            {
                                "type": "emoji",
                                "name": "raised_hands"
                            },
                            {
                                "type": "text",
                                "text": "\n\nYou can follow the model of the CoImmune program on JOGL.\nSee you on the google doc "
                            },
                            {
                                "type": "emoji",
                                "name": "wink"
                            }
                        ]
                    }
                ]
            }
        ],
        "thread_ts": "1584357709.105500",
        "reply_count": 1,
        "reply_users_count": 1,
        "latest_reply": "1584364325.106300",
        "reply_users": [
            "UV9V03C8Y"
        ],
        "replies": [
            {
                "user": "UV9V03C8Y",
                "ts": "1584364325.106300"
            }
        ],
        "subscribed": false,
        "reactions": [
            {
                "name": "+1",
                "users": [
                    "UV9V03C8Y",
                    "UV2SC7ZE3",
                    "UUS2G6N6M"
                ],
                "count": 3
            }
        ]
    },
    {
        "client_msg_id": "bb88abb2-927a-41e4-9d7c-9ee3eafdd5b0",
        "type": "message",
        "text": "I'll have a look at it today",
        "user": "UV9V03C8Y",
        "ts": "1584364325.106300",
        "team": "TUU48M0T1",
        "user_team": "TUU48M0T1",
        "source_team": "TUU48M0T1",
        "user_profile": {
            "avatar_hash": "177697fb7b8f",
            "image_72": "https:\/\/avatars.slack-edge.com\/2020-03-12\/996126178096_177697fb7b8ffa57649c_72.jpg",
            "first_name": "Camille",
            "real_name": "Camille Masselot - JOGL Program coordinator",
            "display_name": "Camille Masselot - JOGL coordinator",
            "team": "TUU48M0T1",
            "name": "masselot.camille",
            "is_restricted": false,
            "is_ultra_restricted": false
        },
        "blocks": [
            {
                "type": "rich_text",
                "block_id": "+oE2",
                "elements": [
                    {
                        "type": "rich_text_section",
                        "elements": [
                            {
                                "type": "text",
                                "text": "I'll have a look at it today"
                            }
                        ]
                    }
                ]
            }
        ],
        "thread_ts": "1584357709.105500",
        "parent_user_id": "UV02WET96"
    },
    {
        "client_msg_id": "6d32098a-2f84-43c8-9aac-a435f798050e",
        "type": "message",
        "text": "Hi <!channel>! Hope your weekend was as nice as it could have been :slightly_smiling_face:.\n*I'm posting here few links about the Co-Immune program that may help you to build the Covid19 program content*.\n• *Co-Immune general presentation* (useful for: generalities on JOGL, global view on the program organization and how program and challenges are presented)  <https:\/\/drive.google.com\/file\/d\/1cf5sHbXiNyfV2af-DJuth9BfKc_kHnem\/view>\n• *JOGL* *presentation*: <https:\/\/drive.google.com\/file\/d\/1PV3oKS3Xafs7BGQzfoURbMAKflLurWuz\/view>\n• *Co-Immune FAQ* (useful for: definition of program, challenges, roles on the platform, use of the platform) : <https:\/\/app.jogl.io\/challenge\/1#faq> \n• *Co-Immune participation rules* (useful for: scientific, ethical, and reglementary considerations): <https:\/\/drive.google.com\/file\/d\/1fxd-SgO13raRrXFwn09avX3ux_QWabFr\/view> \n• FYI, these documents have been elaborated under high time\/resources constrains. Therefore, I invite you to share all documents you think may be useful as well so that we can make the best out sharing our experiences!\nAt this point, I am not sure where my help (if needed) will be the most beneficial (gathering tools, helping on the content, contributing to the overall coordination...). Please comment below if you have specific pain points I can help you address:wink:.\nHave a wonderful day!",
        "user": "UV9V03C8Y",
        "ts": "1584365058.115600",
        "team": "TUU48M0T1",
        "user_team": "TUU48M0T1",
        "source_team": "TUU48M0T1",
        "user_profile": {
            "avatar_hash": "177697fb7b8f",
            "image_72": "https:\/\/avatars.slack-edge.com\/2020-03-12\/996126178096_177697fb7b8ffa57649c_72.jpg",
            "first_name": "Camille",
            "real_name": "Camille Masselot - JOGL Program coordinator",
            "display_name": "Camille Masselot - JOGL coordinator",
            "team": "TUU48M0T1",
            "name": "masselot.camille",
            "is_restricted": false,
            "is_ultra_restricted": false
        },
        "edited": {
            "user": "UV9V03C8Y",
            "ts": "1584365278.000000"
        },
        "attachments": [
            {
                "title": "JOGL - Just One Giant Lab",
                "title_link": "https:\/\/app.jogl.io\/challenge\/1#faq",
                "text": "JOGL helps sync humanity onto solving our most important social &amp; environmental problems using open science, responsible innovation &amp; continuous learning.",
                "fallback": "JOGL - Just One Giant Lab",
                "thumb_url": "https:\/\/app.jogl.io\/planet.jpg",
                "from_url": "https:\/\/app.jogl.io\/challenge\/1#faq",
                "thumb_width": 2049,
                "thumb_height": 1011,
                "service_icon": "https:\/\/app.jogl.io\/favicon.ico",
                "service_name": "app.jogl.io",
                "id": 1,
                "original_url": "https:\/\/app.jogl.io\/challenge\/1#faq"
            }
        ],
        "blocks": [
            {
                "type": "rich_text",
                "block_id": "nXoN",
                "elements": [
                    {
                        "type": "rich_text_section",
                        "elements": [
                            {
                                "type": "text",
                                "text": "Hi "
                            },
                            {
                                "type": "broadcast",
                                "range": "channel"
                            },
                            {
                                "type": "text",
                                "text": "! Hope your weekend was as nice as it could have been "
                            },
                            {
                                "type": "emoji",
                                "name": "slightly_smiling_face"
                            },
                            {
                                "type": "text",
                                "text": ".\n"
                            },
                            {
                                "type": "text",
                                "text": "I'm posting here few links about the Co-Immune program that may help you to build the Covid19 program content",
                                "style": {
                                    "bold": true
                                }
                            },
                            {
                                "type": "text",
                                "text": ".\n"
                            }
                        ]
                    },
                    {
                        "type": "rich_text_list",
                        "elements": [
                            {
                                "type": "rich_text_section",
                                "elements": [
                                    {
                                        "type": "text",
                                        "text": "Co-Immune general presentation ",
                                        "style": {
                                            "bold": true
                                        }
                                    },
                                    {
                                        "type": "text",
                                        "text": "(useful for: generalities on JOGL, global view on the program organization and how program and challenges are presented)  "
                                    },
                                    {
                                        "type": "link",
                                        "url": "https:\/\/drive.google.com\/file\/d\/1cf5sHbXiNyfV2af-DJuth9BfKc_kHnem\/view"
                                    }
                                ]
                            },
                            {
                                "type": "rich_text_section",
                                "elements": [
                                    {
                                        "type": "text",
                                        "text": "JOGL",
                                        "style": {
                                            "bold": true
                                        }
                                    },
                                    {
                                        "type": "text",
                                        "text": " "
                                    },
                                    {
                                        "type": "text",
                                        "text": "presentation",
                                        "style": {
                                            "bold": true
                                        }
                                    },
                                    {
                                        "type": "text",
                                        "text": ": "
                                    },
                                    {
                                        "type": "link",
                                        "url": "https:\/\/drive.google.com\/file\/d\/1PV3oKS3Xafs7BGQzfoURbMAKflLurWuz\/view"
                                    }
                                ]
                            },
                            {
                                "type": "rich_text_section",
                                "elements": [
                                    {
                                        "type": "text",
                                        "text": "Co-Immune FAQ",
                                        "style": {
                                            "bold": true
                                        }
                                    },
                                    {
                                        "type": "text",
                                        "text": " (useful for: definition of program, challenges, roles on the platform, use of the platform) : "
                                    },
                                    {
                                        "type": "link",
                                        "url": "https:\/\/app.jogl.io\/challenge\/1#faq"
                                    },
                                    {
                                        "type": "text",
                                        "text": " "
                                    }
                                ]
                            },
                            {
                                "type": "rich_text_section",
                                "elements": [
                                    {
                                        "type": "text",
                                        "text": "Co-Immune participation rules",
                                        "style": {
                                            "bold": true
                                        }
                                    },
                                    {
                                        "type": "text",
                                        "text": " (useful for: scientific, ethical, and reglementary considerations): "
                                    },
                                    {
                                        "type": "link",
                                        "url": "https:\/\/drive.google.com\/file\/d\/1fxd-SgO13raRrXFwn09avX3ux_QWabFr\/view"
                                    },
                                    {
                                        "type": "text",
                                        "text": " "
                                    }
                                ]
                            },
                            {
                                "type": "rich_text_section",
                                "elements": [
                                    {
                                        "type": "text",
                                        "text": "FYI, these documents have been elaborated under high time\/resources constrains. Therefore, I invite you to share all documents you think may be useful as well so that we can make the best out sharing our experiences!"
                                    }
                                ]
                            }
                        ],
                        "style": "bullet",
                        "indent": 0
                    },
                    {
                        "type": "rich_text_section",
                        "elements": [
                            {
                                "type": "text",
                                "text": "At this point, I am not sure where my help (if needed) will be the most beneficial (gathering tools, helping on the content, contributing to the overall coordination...). Please comment below if you have specific pain points I can help you address"
                            },
                            {
                                "type": "emoji",
                                "name": "wink"
                            },
                            {
                                "type": "text",
                                "text": ".\nHave a wonderful day!"
                            }
                        ]
                    }
                ]
            }
        ],
        "thread_ts": "1584365058.115600",
        "reply_count": 3,
        "reply_users_count": 2,
        "latest_reply": "1584376681.124700",
        "reply_users": [
            "UV2SC7ZE3",
            "UV9V03C8Y"
        ],
        "replies": [
            {
                "user": "UV2SC7ZE3",
                "ts": "1584369883.116600"
            },
            {
                "user": "UV2SC7ZE3",
                "ts": "1584372594.122800"
            },
            {
                "user": "UV9V03C8Y",
                "ts": "1584376681.124700"
            }
        ],
        "subscribed": false,
        "reactions": [
            {
                "name": "100",
                "users": [
                    "UV2SC7ZE3"
                ],
                "count": 1
            }
        ]
    },
    {
        "client_msg_id": "925b5abc-1fba-4dd0-8c10-903c0e622267",
        "type": "message",
        "text": "Thank you!",
        "user": "UV2SC7ZE3",
        "ts": "1584369883.116600",
        "team": "TUU48M0T1",
        "user_team": "TUU48M0T1",
        "source_team": "TUU48M0T1",
        "user_profile": {
            "avatar_hash": "d28dd0d076e8",
            "image_72": "https:\/\/avatars.slack-edge.com\/2020-03-14\/987873094258_d28dd0d076e8fa9a8409_72.png",
            "first_name": "David",
            "real_name": "David Lu",
            "display_name": "David Lu",
            "team": "TUU48M0T1",
            "name": "ludavidyi",
            "is_restricted": false,
            "is_ultra_restricted": false
        },
        "blocks": [
            {
                "type": "rich_text",
                "block_id": "t9cNz",
                "elements": [
                    {
                        "type": "rich_text_section",
                        "elements": [
                            {
                                "type": "text",
                                "text": "Thank you!"
                            }
                        ]
                    }
                ]
            }
        ],
        "thread_ts": "1584365058.115600",
        "parent_user_id": "UV9V03C8Y"
    },
    {
        "client_msg_id": "83553b9f-c1a6-47c3-9730-45b909def178",
        "type": "message",
        "text": "hi all, Leo here,\n\nthanks to Jason Yamada-Hanff  I've negociated with PaperSpace some free CPU and GPU instances so that projects can run analysis on notebooks and other form of analysis.\n\nThe process is as follows, Project leaders will need to:\n1. Create an account on PaperSpace\n2. Fill a form to describe their project, \n3. upon validation that they are a legit project on JOGL on COVID-19,  paperspace will add credit to their account to use the instances\nThe form to communicate to project leaders is\n<https:\/\/forms.gle\/iK4PXu9w8WDd6kdg6>\n\nThey will need to have a valid COVID-19 project on JOGL.\n\nTo help Users, here is the type of machines that PaperSpace offers\n\n<https:\/\/support.paperspace.com\/hc\/en-us\/articles\/236361368-What-types-of-virtual-machines-does-Paperspace-offer->\n\nCurtis Kline is our point of contact with them. <mailto:curtis@klinemail.com|curtis@klinemail.com>",
        "user": "UVC9WMA7N",
        "ts": "1584370177.120800",
        "team": "TUU48M0T1",
        "user_team": "TUU48M0T1",
        "source_team": "TUU48M0T1",
        "user_profile": {
            "avatar_hash": "56d14d58ed53",
            "image_72": "https:\/\/avatars.slack-edge.com\/2020-03-13\/998337892660_56d14d58ed537e6e4654_72.png",
            "first_name": "Leo",
            "real_name": "Leo Blondel",
            "display_name": "Leo Blondel - JOGL CoFounder \/ CTO",
            "team": "TUU48M0T1",
            "name": "leo",
            "is_restricted": false,
            "is_ultra_restricted": false
        },
        "attachments": [
            {
                "service_name": "Google Docs",
                "title": "COVID-19 Project resource request",
                "title_link": "https:\/\/forms.gle\/iK4PXu9w8WDd6kdg6",
                "text": "Paperspace is happy to provide no-cost access to GPU instances for projects related to COVID-19. Please fill in this form to make a request and we'll respond ASAP.",
                "fallback": "Google Docs: COVID-19 Project resource request",
                "image_url": "https:\/\/lh4.googleusercontent.com\/efPMqsxECBMsWS9-Qgjf5Q5kBmDeCiuch1KZBk01-iKrg_GYlBoXEgQ3q6rNeIt5oEt_tiA",
                "image_width": 333,
                "image_height": 250,
                "from_url": "https:\/\/forms.gle\/iK4PXu9w8WDd6kdg6",
                "image_bytes": 108950,
                "service_icon": "http:\/\/ssl.gstatic.com\/docs\/forms\/device_home\/ios_120.png",
                "id": 1,
                "original_url": "https:\/\/forms.gle\/iK4PXu9w8WDd6kdg6"
            },
            {
                "service_name": "Help Center Home",
                "title": "What types of  virtual machines does Paperspace offer?",
                "title_link": "https:\/\/support.paperspace.com\/hc\/en-us\/articles\/236361368-What-types-of-virtual-machines-does-Paperspace-offer-",
                "text": "Paperspace offers an array of virtual machines for various use cases. If you're looking for Gradient° Instances, click here. STANDARD GPU SECTION Standard GPU (Windows Only)  GRID Architecture ...",
                "fallback": "Help Center Home: What types of  virtual machines does Paperspace offer?",
                "image_url": "https:\/\/theme.zdassets.com\/theme_assets\/881745\/ab84599aef40e2cfbd23922b8aa194dca7deda7f.png",
                "from_url": "https:\/\/support.paperspace.com\/hc\/en-us\/articles\/236361368-What-types-of-virtual-machines-does-Paperspace-offer-",
                "image_width": 1908,
                "image_height": 250,
                "image_bytes": 100405,
                "service_icon": "http:\/\/theme.zdassets.com\/theme_assets\/881745\/d012f42232e15050403a3f975a99dbc3f72f98e8.png",
                "id": 2,
                "original_url": "https:\/\/support.paperspace.com\/hc\/en-us\/articles\/236361368-What-types-of-virtual-machines-does-Paperspace-offer-"
            }
        ],
        "blocks": [
            {
                "type": "rich_text",
                "block_id": "4MIX",
                "elements": [
                    {
                        "type": "rich_text_section",
                        "elements": [
                            {
                                "type": "text",
                                "text": "hi all, Leo here,\n\nthanks to Jason Yamada-Hanff  I've negociated with PaperSpace some free CPU and GPU instances so that projects can run analysis on notebooks and other form of analysis.\n\nThe process is as follows, Project leaders will need to:\n"
                            }
                        ]
                    },
                    {
                        "type": "rich_text_list",
                        "elements": [
                            {
                                "type": "rich_text_section",
                                "elements": [
                                    {
                                        "type": "text",
                                        "text": "Create an account on PaperSpace"
                                    }
                                ]
                            },
                            {
                                "type": "rich_text_section",
                                "elements": [
                                    {
                                        "type": "text",
                                        "text": "Fill a form to describe their project, "
                                    }
                                ]
                            },
                            {
                                "type": "rich_text_section",
                                "elements": [
                                    {
                                        "type": "text",
                                        "text": "upon validation that they are a legit project on JOGL on COVID-19,  paperspace will add credit to their account to use the instances"
                                    }
                                ]
                            }
                        ],
                        "style": "ordered",
                        "indent": 0
                    },
                    {
                        "type": "rich_text_section",
                        "elements": [
                            {
                                "type": "text",
                                "text": "\nThe form to communicate to project leaders is\n"
                            },
                            {
                                "type": "link",
                                "url": "https:\/\/forms.gle\/iK4PXu9w8WDd6kdg6"
                            },
                            {
                                "type": "text",
                                "text": "\n\nThey will need to have a valid COVID-19 project on JOGL.\n\nTo help Users, here is the type of machines that PaperSpace offers\n\n"
                            },
                            {
                                "type": "link",
                                "url": "https:\/\/support.paperspace.com\/hc\/en-us\/articles\/236361368-What-types-of-virtual-machines-does-Paperspace-offer-"
                            },
                            {
                                "type": "text",
                                "text": "\n\nCurtis Kline is our point of contact with them. "
                            },
                            {
                                "type": "link",
                                "url": "mailto:curtis@klinemail.com",
                                "text": "curtis@klinemail.com"
                            }
                        ]
                    }
                ]
            }
        ],
        "reactions": [
            {
                "name": "raised_hands",
                "users": [
                    "UV02WET96",
                    "UV2SC7ZE3",
                    "UV0QTJCMT"
                ],
                "count": 3
            },
            {
                "name": "100",
                "users": [
                    "UV02WET96",
                    "UV2SC7ZE3"
                ],
                "count": 2
            }
        ]
    },
    {
        "client_msg_id": "5a167993-486b-4886-a40d-2732111775c8",
        "type": "message",
        "text": "Quick question about the co immune program. What are these 'prizes' and why did they implement that? Was the co immune program like a competition?",
        "user": "UV2SC7ZE3",
        "ts": "1584372594.122800",
        "team": "TUU48M0T1",
        "user_team": "TUU48M0T1",
        "source_team": "TUU48M0T1",
        "user_profile": {
            "avatar_hash": "d28dd0d076e8",
            "image_72": "https:\/\/avatars.slack-edge.com\/2020-03-14\/987873094258_d28dd0d076e8fa9a8409_72.png",
            "first_name": "David",
            "real_name": "David Lu",
            "display_name": "David Lu",
            "team": "TUU48M0T1",
            "name": "ludavidyi",
            "is_restricted": false,
            "is_ultra_restricted": false
        },
        "blocks": [
            {
                "type": "rich_text",
                "block_id": "5\/sF",
                "elements": [
                    {
                        "type": "rich_text_section",
                        "elements": [
                            {
                                "type": "text",
                                "text": "Quick question about the co immune program. What are these 'prizes' and why did they implement that? Was the co immune program like a competition?"
                            }
                        ]
                    }
                ]
            }
        ],
        "thread_ts": "1584365058.115600",
        "parent_user_id": "UV9V03C8Y"
    },
    {
        "client_msg_id": "81516c1e-d487-4852-a8a8-0b03dbd662a8",
        "type": "message",
        "text": "Gov peeps\n\nWhen you have the challenges and Program Ready do not forget to set their \"Status\" to \"Active\" so that they can be access by non admins, and be discovered and be Googleable !",
        "user": "UVC9WMA7N",
        "ts": "1584376017.123900",
        "team": "TUU48M0T1",
        "user_team": "TUU48M0T1",
        "source_team": "TUU48M0T1",
        "user_profile": {
            "avatar_hash": "56d14d58ed53",
            "image_72": "https:\/\/avatars.slack-edge.com\/2020-03-13\/998337892660_56d14d58ed537e6e4654_72.png",
            "first_name": "Leo",
            "real_name": "Leo Blondel",
            "display_name": "Leo Blondel - JOGL CoFounder \/ CTO",
            "team": "TUU48M0T1",
            "name": "leo",
            "is_restricted": false,
            "is_ultra_restricted": false
        },
        "blocks": [
            {
                "type": "rich_text",
                "block_id": "6v0H",
                "elements": [
                    {
                        "type": "rich_text_section",
                        "elements": [
                            {
                                "type": "text",
                                "text": "Gov peeps\n\nWhen you have the challenges and Program Ready do not forget to set their \"Status\" to \"Active\" so that they can be access by non admins, and be discovered and be Googleable !"
                            }
                        ]
                    }
                ]
            }
        ],
        "reactions": [
            {
                "name": "+1",
                "users": [
                    "UV2SC7ZE3",
                    "UV0QTJCMT"
                ],
                "count": 2
            }
        ]
    },
    {
        "client_msg_id": "44c13acf-0b2b-4116-89f7-ee3f3c27502d",
        "type": "message",
        "text": "<@UUWPKNE2E> and I are at the ready when you launch the program to add links all over the platform.",
        "user": "UVC9WMA7N",
        "ts": "1584376052.124500",
        "team": "TUU48M0T1",
        "user_team": "TUU48M0T1",
        "source_team": "TUU48M0T1",
        "user_profile": {
            "avatar_hash": "56d14d58ed53",
            "image_72": "https:\/\/avatars.slack-edge.com\/2020-03-13\/998337892660_56d14d58ed537e6e4654_72.png",
            "first_name": "Leo",
            "real_name": "Leo Blondel",
            "display_name": "Leo Blondel - JOGL CoFounder \/ CTO",
            "team": "TUU48M0T1",
            "name": "leo",
            "is_restricted": false,
            "is_ultra_restricted": false
        },
        "blocks": [
            {
                "type": "rich_text",
                "block_id": "I0C4c",
                "elements": [
                    {
                        "type": "rich_text_section",
                        "elements": [
                            {
                                "type": "user",
                                "user_id": "UUWPKNE2E"
                            },
                            {
                                "type": "text",
                                "text": " and I are at the ready when you launch the program to add links all over the platform."
                            }
                        ]
                    }
                ]
            }
        ]
    },
    {
        "client_msg_id": "d0d35def-5925-421e-a7fa-045485a074fc",
        "type": "message",
        "text": "Hi <@UV2SC7ZE3>! Co-Immune was a mix between a competition and a collaboration. Competition because initially, prizes were meant to motivate participants to document and develop their project in a very short time period. And collaboration because the program was meant to bridge projects, peoples, resources and skills to efficiently tackle challenges around vaccination (e.g. some project merged; participants were working on several projects at the same time). About prizes more specifically, 4 were attributed by JOGL based on the assessment provided by an external committee (independent from our founding partners ; which were members of our scientific committee + other experts in the area): awarded projects were featured at the ChangeNow Summit and the MaddyKeynote in Paris which enabled them to gain visibility; and other projects were awarded by partners such as Excelya (a CRO) and the WildcodeSchool (tech school) who provided technical expertise and support to two projects of their choice. Hope this answers your question :) !",
        "user": "UV9V03C8Y",
        "ts": "1584376681.124700",
        "team": "TUU48M0T1",
        "user_team": "TUU48M0T1",
        "source_team": "TUU48M0T1",
        "user_profile": {
            "avatar_hash": "177697fb7b8f",
            "image_72": "https:\/\/avatars.slack-edge.com\/2020-03-12\/996126178096_177697fb7b8ffa57649c_72.jpg",
            "first_name": "Camille",
            "real_name": "Camille Masselot - JOGL Program coordinator",
            "display_name": "Camille Masselot - JOGL coordinator",
            "team": "TUU48M0T1",
            "name": "masselot.camille",
            "is_restricted": false,
            "is_ultra_restricted": false
        },
        "blocks": [
            {
                "type": "rich_text",
                "block_id": "MJV\/",
                "elements": [
                    {
                        "type": "rich_text_section",
                        "elements": [
                            {
                                "type": "text",
                                "text": "Hi "
                            },
                            {
                                "type": "user",
                                "user_id": "UV2SC7ZE3"
                            },
                            {
                                "type": "text",
                                "text": "! Co-Immune was a mix between a competition and a collaboration. Competition because initially, prizes were meant to motivate participants to document and develop their project in a very short time period. And collaboration because the program was meant to bridge projects, peoples, resources and skills to efficiently tackle challenges around vaccination (e.g. some project merged; participants were working on several projects at the same time). About prizes more specifically, 4 were attributed by JOGL based on the assessment provided by an external committee (independent from our founding partners ; which were members of our scientific committee + other experts in the area): awarded projects were featured at the ChangeNow Summit and the MaddyKeynote in Paris which enabled them to gain visibility; and other projects were awarded by partners such as Excelya (a CRO) and the WildcodeSchool (tech school) who provided technical expertise and support to two projects of their choice. Hope this answers your question :) !"
                            }
                        ]
                    }
                ]
            }
        ],
        "thread_ts": "1584365058.115600",
        "parent_user_id": "UV9V03C8Y"
    },
    {
        "client_msg_id": "6f96890b-6ee0-4a69-a4f4-e096f24a1549",
        "type": "message",
        "text": "<!channel>, working on the program description. Has anyone created a channel for literature review, a shared Zotero or Mendeley folder?",
        "user": "UV9V03C8Y",
        "ts": "1584377525.125800",
        "team": "TUU48M0T1",
        "user_team": "TUU48M0T1",
        "source_team": "TUU48M0T1",
        "user_profile": {
            "avatar_hash": "177697fb7b8f",
            "image_72": "https:\/\/avatars.slack-edge.com\/2020-03-12\/996126178096_177697fb7b8ffa57649c_72.jpg",
            "first_name": "Camille",
            "real_name": "Camille Masselot - JOGL Program coordinator",
            "display_name": "Camille Masselot - JOGL coordinator",
            "team": "TUU48M0T1",
            "name": "masselot.camille",
            "is_restricted": false,
            "is_ultra_restricted": false
        },
        "blocks": [
            {
                "type": "rich_text",
                "block_id": "6oWo",
                "elements": [
                    {
                        "type": "rich_text_section",
                        "elements": [
                            {
                                "type": "broadcast",
                                "range": "channel"
                            },
                            {
                                "type": "text",
                                "text": ", working on the program description. Has anyone created a channel for literature review, a shared Zotero or Mendeley folder?"
                            }
                        ]
                    }
                ]
            }
        ],
        "thread_ts": "1584377525.125800",
        "reply_count": 4,
        "reply_users_count": 3,
        "latest_reply": "1584383263.127100",
        "reply_users": [
            "UV02WET96",
            "UV9V03C8Y",
            "UVC9WMA7N"
        ],
        "replies": [
            {
                "user": "UV02WET96",
                "ts": "1584377887.126100"
            },
            {
                "user": "UV9V03C8Y",
                "ts": "1584379363.126300"
            },
            {
                "user": "UV9V03C8Y",
                "ts": "1584380372.126800"
            },
            {
                "user": "UVC9WMA7N",
                "ts": "1584383263.127100"
            }
        ],
        "subscribed": false
    },
    {
        "client_msg_id": "eaff3066-8e3b-46b4-97de-bb1328d3504a",
        "type": "message",
        "text": "I don’t believe so",
        "user": "UV02WET96",
        "ts": "1584377887.126100",
        "team": "TUU48M0T1",
        "user_team": "TUU48M0T1",
        "source_team": "TUU48M0T1",
        "user_profile": {
            "avatar_hash": "a99c74a194f8",
            "image_72": "https:\/\/avatars.slack-edge.com\/2020-03-07\/975708504851_a99c74a194f86715ca7d_72.png",
            "first_name": "Thomas",
            "real_name": "Thomas Landrain",
            "display_name": "Thomas Landrain - JOGL CoFounder \/ CEO",
            "team": "TUU48M0T1",
            "name": "thomas",
            "is_restricted": false,
            "is_ultra_restricted": false
        },
        "blocks": [
            {
                "type": "rich_text",
                "block_id": "vc6",
                "elements": [
                    {
                        "type": "rich_text_section",
                        "elements": [
                            {
                                "type": "text",
                                "text": "I don’t believe so"
                            }
                        ]
                    }
                ]
            }
        ],
        "thread_ts": "1584377525.125800",
        "parent_user_id": "UV9V03C8Y"
    },
    {
        "client_msg_id": "1395d145-5c52-4eab-a3c6-6221f4cac158",
        "type": "message",
        "text": "<@UV02WET96> I'm on it!",
        "user": "UV9V03C8Y",
        "ts": "1584379363.126300",
        "team": "TUU48M0T1",
        "user_team": "TUU48M0T1",
        "source_team": "TUU48M0T1",
        "user_profile": {
            "avatar_hash": "177697fb7b8f",
            "image_72": "https:\/\/avatars.slack-edge.com\/2020-03-12\/996126178096_177697fb7b8ffa57649c_72.jpg",
            "first_name": "Camille",
            "real_name": "Camille Masselot - JOGL Program coordinator",
            "display_name": "Camille Masselot - JOGL coordinator",
            "team": "TUU48M0T1",
            "name": "masselot.camille",
            "is_restricted": false,
            "is_ultra_restricted": false
        },
        "blocks": [
            {
                "type": "rich_text",
                "block_id": "b7Ra",
                "elements": [
                    {
                        "type": "rich_text_section",
                        "elements": [
                            {
                                "type": "user",
                                "user_id": "UV02WET96"
                            },
                            {
                                "type": "text",
                                "text": " I'm on it!"
                            }
                        ]
                    }
                ]
            }
        ],
        "thread_ts": "1584377525.125800",
        "parent_user_id": "UV9V03C8Y",
        "reactions": [
            {
                "name": "raised_hands",
                "users": [
                    "UV02WET96"
                ],
                "count": 1
            }
        ]
    },
    {
        "client_msg_id": "6db9f31c-f6ba-4dd5-a8b2-386a5d5f971e",
        "type": "message",
        "text": "Answer to my own question: <https:\/\/docs.google.com\/spreadsheets\/d\/1Jhl5NRsghJfFfrKb-3tr-wnT47AdLi9XYqyvmXubfME\/edit#gid=1053298223>\nWill i) create a channel ; ii) create a Mendeley or Zotero folder following what works best for the community ; iii) seeks for collaboration with whomever needs literature review to be done",
        "user": "UV9V03C8Y",
        "ts": "1584380372.126800",
        "team": "TUU48M0T1",
        "user_team": "TUU48M0T1",
        "source_team": "TUU48M0T1",
        "user_profile": {
            "avatar_hash": "177697fb7b8f",
            "image_72": "https:\/\/avatars.slack-edge.com\/2020-03-12\/996126178096_177697fb7b8ffa57649c_72.jpg",
            "first_name": "Camille",
            "real_name": "Camille Masselot - JOGL Program coordinator",
            "display_name": "Camille Masselot - JOGL coordinator",
            "team": "TUU48M0T1",
            "name": "masselot.camille",
            "is_restricted": false,
            "is_ultra_restricted": false
        },
        "blocks": [
            {
                "type": "rich_text",
                "block_id": "oY0",
                "elements": [
                    {
                        "type": "rich_text_section",
                        "elements": [
                            {
                                "type": "text",
                                "text": "Answer to my own question: "
                            },
                            {
                                "type": "link",
                                "url": "https:\/\/docs.google.com\/spreadsheets\/d\/1Jhl5NRsghJfFfrKb-3tr-wnT47AdLi9XYqyvmXubfME\/edit#gid=1053298223"
                            },
                            {
                                "type": "text",
                                "text": "\nWill i) create a channel ; ii) create a Mendeley or Zotero folder following what works best for the community ; iii) seeks for collaboration with whomever needs literature review to be done"
                            }
                        ]
                    }
                ]
            }
        ],
        "thread_ts": "1584377525.125800",
        "parent_user_id": "UV9V03C8Y"
    },
    {
        "client_msg_id": "90bb8af8-4c79-489c-8c30-02167c8f6855",
        "type": "message",
        "text": ":+1: :heart:",
        "user": "UVC9WMA7N",
        "ts": "1584383263.127100",
        "team": "TUU48M0T1",
        "user_team": "TUU48M0T1",
        "source_team": "TUU48M0T1",
        "user_profile": {
            "avatar_hash": "56d14d58ed53",
            "image_72": "https:\/\/avatars.slack-edge.com\/2020-03-13\/998337892660_56d14d58ed537e6e4654_72.png",
            "first_name": "Leo",
            "real_name": "Leo Blondel",
            "display_name": "Leo Blondel - JOGL CoFounder \/ CTO",
            "team": "TUU48M0T1",
            "name": "leo",
            "is_restricted": false,
            "is_ultra_restricted": false
        },
        "blocks": [
            {
                "type": "rich_text",
                "block_id": "eaQG",
                "elements": [
                    {
                        "type": "rich_text_section",
                        "elements": [
                            {
                                "type": "emoji",
                                "name": "+1"
                            },
                            {
                                "type": "text",
                                "text": " "
                            },
                            {
                                "type": "emoji",
                                "name": "heart"
                            }
                        ]
                    }
                ]
            }
        ],
        "thread_ts": "1584377525.125800",
        "parent_user_id": "UV9V03C8Y"
    },
    {
        "client_msg_id": "5f11a389-9387-4c35-aefd-e36cc61e2ab8",
        "type": "message",
        "text": "Is there an option for once a week?",
        "user": "UV2SC7ZE3",
        "ts": "1584397218.128900",
        "team": "TUU48M0T1",
        "user_team": "TUU48M0T1",
        "source_team": "TUU48M0T1",
        "user_profile": {
            "avatar_hash": "d28dd0d076e8",
            "image_72": "https:\/\/avatars.slack-edge.com\/2020-03-14\/987873094258_d28dd0d076e8fa9a8409_72.png",
            "first_name": "David",
            "real_name": "David Lu",
            "display_name": "David Lu",
            "team": "TUU48M0T1",
            "name": "ludavidyi",
            "is_restricted": false,
            "is_ultra_restricted": false
        },
        "blocks": [
            {
                "type": "rich_text",
                "block_id": "RKRce",
                "elements": [
                    {
                        "type": "rich_text_section",
                        "elements": [
                            {
                                "type": "text",
                                "text": "Is there an option for once a week?"
                            }
                        ]
                    }
                ]
            }
        ],
        "thread_ts": "1584397218.128900",
        "reply_count": 1,
        "reply_users_count": 1,
        "latest_reply": "1584397324.129000",
        "reply_users": [
            "UV02WET96"
        ],
        "replies": [
            {
                "user": "UV02WET96",
                "ts": "1584397324.129000"
            }
        ],
        "subscribed": false
    },
    {
        "client_msg_id": "eea3c26e-6c07-49f1-8deb-863526cb112f",
        "type": "message",
        "text": "we already have the weekly community call, but i’m going to add the option",
        "user": "UV02WET96",
        "ts": "1584397324.129000",
        "team": "TUU48M0T1",
        "user_team": "TUU48M0T1",
        "source_team": "TUU48M0T1",
        "user_profile": {
            "avatar_hash": "a99c74a194f8",
            "image_72": "https:\/\/avatars.slack-edge.com\/2020-03-07\/975708504851_a99c74a194f86715ca7d_72.png",
            "first_name": "Thomas",
            "real_name": "Thomas Landrain",
            "display_name": "Thomas Landrain - JOGL CoFounder \/ CEO",
            "team": "TUU48M0T1",
            "name": "thomas",
            "is_restricted": false,
            "is_ultra_restricted": false
        },
        "blocks": [
            {
                "type": "rich_text",
                "block_id": "vHS0k",
                "elements": [
                    {
                        "type": "rich_text_section",
                        "elements": [
                            {
                                "type": "text",
                                "text": "we already have the weekly community call, but i’m going to add the option"
                            }
                        ]
                    }
                ]
            }
        ],
        "thread_ts": "1584397218.128900",
        "parent_user_id": "UV2SC7ZE3",
        "reactions": [
            {
                "name": "+1",
                "users": [
                    "UV2SC7ZE3"
                ],
                "count": 1
            }
        ]
    },
    {
        "type": "message",
        "subtype": "bot_message",
        "text": "Should we have a regular 30min call for the management team in the week?",
        "ts": "1584397390.129300",
        "bot_id": "BVCSDRY15",
        "blocks": [
            {
                "type": "section",
                "block_id": "poll-1cf27f3d-3d1e-42cf-b12b-82cbc7460811-title-and-menu",
                "text": {
                    "type": "mrkdwn",
                    "text": "*Should we have a regular 30min call for the management team in the week?*",
                    "verbatim": false
                },
                "accessory": {
                    "type": "overflow",
                    "action_id": "title-and-menu",
                    "options": [
                        {
                            "text": {
                                "type": "plain_text",
                                "text": ":information_source: View info",
                                "emoji": true
                            },
                            "value": "view_info"
                        },
                        {
                            "text": {
                                "type": "plain_text",
                                "text": ":pushpin: Capture Decision from Poll",
                                "emoji": true
                            },
                            "value": "capture_decision_from_poll"
                        },
                        {
                            "text": {
                                "type": "plain_text",
                                "text": ":x: Delete Poll",
                                "emoji": true
                            },
                            "value": "delete_poll"
                        },
                        {
                            "text": {
                                "type": "plain_text",
                                "text": ":gear: Go to Settings",
                                "emoji": true
                            },
                            "value": "go_to_settings_from_poll",
                            "url": "https:\/\/simplepoll.rocks\/dashboard\/jogl-covid-19\/settings\/"
                        }
                    ]
                }
            },
            {
                "type": "section",
                "block_id": "poll-1cf27f3d-3d1e-42cf-b12b-82cbc7460811-vote-1",
                "text": {
                    "type": "mrkdwn",
                    "text": ":one: No\n",
                    "verbatim": false
                },
                "accessory": {
                    "type": "button",
                    "action_id": "vote-1",
                    "text": {
                        "type": "plain_text",
                        "text": ":one:",
                        "emoji": true
                    }
                }
            },
            {
                "type": "section",
                "block_id": "poll-1cf27f3d-3d1e-42cf-b12b-82cbc7460811-vote-2",
                "text": {
                    "type": "mrkdwn",
                    "text": ":two: Once    `3`\n<@UV0QTJCMT>, <@UUPFF4TC3>, <@U01019BQXM3>",
                    "verbatim": false
                },
                "accessory": {
                    "type": "button",
                    "action_id": "vote-2",
                    "text": {
                        "type": "plain_text",
                        "text": ":two:",
                        "emoji": true
                    }
                }
            },
            {
                "type": "section",
                "block_id": "poll-1cf27f3d-3d1e-42cf-b12b-82cbc7460811-vote-3",
                "text": {
                    "type": "mrkdwn",
                    "text": ":three: Twice    `10`\n<@UUWR0FJ7M>, <@UV0QTJCMT>, <@UV87UQ37A>, <@UV2SC7ZE3>, <@UUPFF4TC3>, <@UVADMLUB0>, <@UV85E8945>, <@UVC9WMA7N>, <@UV9V03C8Y>, <@U01019BQXM3>",
                    "verbatim": false
                },
                "accessory": {
                    "type": "button",
                    "action_id": "vote-3",
                    "text": {
                        "type": "plain_text",
                        "text": ":three:",
                        "emoji": true
                    }
                }
            },
            {
                "type": "section",
                "block_id": "poll-1cf27f3d-3d1e-42cf-b12b-82cbc7460811-vote-4",
                "text": {
                    "type": "mrkdwn",
                    "text": ":four: Thrice\n",
                    "verbatim": false
                },
                "accessory": {
                    "type": "button",
                    "action_id": "vote-4",
                    "text": {
                        "type": "plain_text",
                        "text": ":four:",
                        "emoji": true
                    }
                }
            },
            {
                "type": "section",
                "block_id": "poll-1cf27f3d-3d1e-42cf-b12b-82cbc7460811-vote-5",
                "text": {
                    "type": "mrkdwn",
                    "text": ":five: Daily\n",
                    "verbatim": false
                },
                "accessory": {
                    "type": "button",
                    "action_id": "vote-5",
                    "text": {
                        "type": "plain_text",
                        "text": ":five:",
                        "emoji": true
                    }
                }
            },
            {
                "type": "context",
                "block_id": "4Uh",
                "elements": [
                    {
                        "type": "mrkdwn",
                        "text": "Created by <@UV02WET96> with \/poll",
                        "verbatim": false
                    }
                ]
            }
        ],
        "edited": {
            "user": "BVCSDRY15",
            "ts": "1584446622.000000"
        }
    },
    {
        "client_msg_id": "B477D96C-FDBA-4710-855A-954381EDD143",
        "type": "message",
        "text": "I say twice to accommodate time zones. Like a Monday morning and Thursday night UTC or something that accommodates different regions on either day. Super quick updates about the gaps of challenges and needs across functions. A standing agenda that can be directed without one particular leader needing to be there and a detailed journal of meeting notes ",
        "user": "UV87UQ37A",
        "ts": "1584398088.133800",
        "team": "TUU48M0T1",
        "user_team": "TUU48M0T1",
        "source_team": "TUU48M0T1",
        "user_profile": {
            "avatar_hash": "g7c78d2f0258",
            "image_72": "https:\/\/secure.gravatar.com\/avatar\/7c78d2f0258f7bdf78a86301cfd6b712.jpg?s=72&d=https%3A%2F%2Fa.slack-edge.com%2Fdf10d%2Fimg%2Favatars%2Fava_0014-72.png",
            "first_name": "Victoria",
            "real_name": "Victoria Costa",
            "display_name": "Victoria Costa",
            "team": "TUU48M0T1",
            "name": "victorycoast",
            "is_restricted": false,
            "is_ultra_restricted": false
        },
        "blocks": [
            {
                "type": "rich_text",
                "block_id": "XtnY",
                "elements": [
                    {
                        "type": "rich_text_section",
                        "elements": [
                            {
                                "type": "text",
                                "text": "I say twice to accommodate time zones. Like a Monday morning and Thursday night UTC or something that accommodates different regions on either day. Super quick updates about the gaps of challenges and needs across functions. A standing agenda that can be directed without one particular leader needing to be there and a detailed journal of meeting notes "
                            }
                        ]
                    }
                ]
            }
        ],
        "thread_ts": "1584398088.133800",
        "reply_count": 7,
        "reply_users_count": 3,
        "latest_reply": "1584554125.259500",
        "reply_users": [
            "UV0QTJCMT",
            "UV02WET96",
            "UV87UQ37A"
        ],
        "replies": [
            {
                "user": "UV0QTJCMT",
                "ts": "1584398133.135000"
            },
            {
                "user": "UV02WET96",
                "ts": "1584398895.135300"
            },
            {
                "user": "UV87UQ37A",
                "ts": "1584427663.148400"
            },
            {
                "user": "UV87UQ37A",
                "ts": "1584427760.149600"
            },
            {
                "user": "UV02WET96",
                "ts": "1584434761.153700"
            },
            {
                "user": "UV87UQ37A",
                "ts": "1584554113.259300"
            },
            {
                "user": "UV87UQ37A",
                "ts": "1584554125.259500"
            }
        ],
        "subscribed": false,
        "reactions": [
            {
                "name": "+1",
                "users": [
                    "UV2SC7ZE3",
                    "UV0QTJCMT",
                    "UV02WET96",
                    "UVADMLUB0"
                ],
                "count": 4
            },
            {
                "name": "star",
                "users": [
                    "UV02WET96"
                ],
                "count": 1
            }
        ]
    },
    {
        "client_msg_id": "A972A22C-F94A-4F73-A077-44A9FF28283C",
        "type": "message",
        "text": "think that’s an excellent point and definitely agree it would be helpful ",
        "user": "UV0QTJCMT",
        "ts": "1584398133.135000",
        "team": "TUU48M0T1",
        "user_team": "TUU48M0T1",
        "source_team": "TUU48M0T1",
        "user_profile": {
            "avatar_hash": "06a6ae8f69d1",
            "image_72": "https:\/\/avatars.slack-edge.com\/2020-04-13\/1060635499315_06a6ae8f69d18f1ad464_72.png",
            "first_name": "Katherine",
            "real_name": "Katherine Holo",
            "display_name": "Kat Holo - Co-Organizer of OpenCOVID19",
            "team": "TUU48M0T1",
            "name": "katherineh245",
            "is_restricted": false,
            "is_ultra_restricted": false
        },
        "blocks": [
            {
                "type": "rich_text",
                "block_id": "AB8",
                "elements": [
                    {
                        "type": "rich_text_section",
                        "elements": [
                            {
                                "type": "text",
                                "text": "think that’s an excellent point and definitely agree it would be helpful "
                            }
                        ]
                    }
                ]
            }
        ],
        "thread_ts": "1584398088.133800",
        "parent_user_id": "UV87UQ37A"
    },
    {
        "client_msg_id": "28f45175-a1a3-4f62-9b8f-94767b7c65cf",
        "type": "message",
        "text": "Great points Victoria, thanks!\nWhat would be the best time for Monday and Thursday?",
        "user": "UV02WET96",
        "ts": "1584398895.135300",
        "team": "TUU48M0T1",
        "user_team": "TUU48M0T1",
        "source_team": "TUU48M0T1",
        "user_profile": {
            "avatar_hash": "a99c74a194f8",
            "image_72": "https:\/\/avatars.slack-edge.com\/2020-03-07\/975708504851_a99c74a194f86715ca7d_72.png",
            "first_name": "Thomas",
            "real_name": "Thomas Landrain",
            "display_name": "Thomas Landrain - JOGL CoFounder \/ CEO",
            "team": "TUU48M0T1",
            "name": "thomas",
            "is_restricted": false,
            "is_ultra_restricted": false
        },
        "blocks": [
            {
                "type": "rich_text",
                "block_id": "nxt",
                "elements": [
                    {
                        "type": "rich_text_section",
                        "elements": [
                            {
                                "type": "text",
                                "text": "Great points Victoria, thanks!\nWhat would be the best time for Monday and Thursday?"
                            }
                        ]
                    }
                ]
            }
        ],
        "thread_ts": "1584398088.133800",
        "parent_user_id": "UV87UQ37A"
    },
    {
        "client_msg_id": "0465bdaf-815f-43fd-a9ba-5b7e6048c298",
        "type": "message",
        "text": "<!channel> Here is the list of slack channels with membership as of today: <https:\/\/docs.google.com\/spreadsheets\/d\/1iPvmiHSWiNQ-4l8nfNcItCx_fhZ3yKpsOUEo23BXho8\/edit?usp=sharing>. A few channels don't have descriptions. Analytics on msgs exchanged and last active are only available in the premium version.",
        "user": "UUWR0FJ7M",
        "ts": "1584404573.138500",
        "team": "TUU48M0T1",
        "user_team": "TUU48M0T1",
        "source_team": "TUU48M0T1",
        "user_profile": {
            "avatar_hash": "g0851a85aef5",
            "image_72": "https:\/\/secure.gravatar.com\/avatar\/0851a85aef59ee4069c5669edd21a593.jpg?s=72&d=https%3A%2F%2Fa.slack-edge.com%2Fdf10d%2Fimg%2Favatars%2Fava_0004-72.png",
            "first_name": "manuel",
            "real_name": "manuel lannaud",
            "display_name": "manu lannaud",
            "team": "TUU48M0T1",
            "name": "slack1260",
            "is_restricted": false,
            "is_ultra_restricted": false
        },
        "blocks": [
            {
                "type": "rich_text",
                "block_id": "hObh",
                "elements": [
                    {
                        "type": "rich_text_section",
                        "elements": [
                            {
                                "type": "broadcast",
                                "range": "channel"
                            },
                            {
                                "type": "text",
                                "text": " Here is the list of slack channels with membership as of today: "
                            },
                            {
                                "type": "link",
                                "url": "https:\/\/docs.google.com\/spreadsheets\/d\/1iPvmiHSWiNQ-4l8nfNcItCx_fhZ3yKpsOUEo23BXho8\/edit?usp=sharing"
                            },
                            {
                                "type": "text",
                                "text": ". A few channels don't have descriptions. Analytics on msgs exchanged and last active are only available in the premium version."
                            }
                        ]
                    }
                ]
            }
        ]
    },
    {
        "client_msg_id": "268ad1ab-e3d9-42e3-b6d5-384aef47daf3",
        "type": "message",
        "text": "Hi all, I'm new here, have done my homework of reading the governance-related threads and docs I found. So I can probably start contributing to a concrete coordination task. Also happy to take part in structural conversations a little later when\/if we all see fit. Ideally I'd love to team up with a \"task buddy\" for faster and happier learning and execution :slightly_smiling_face:",
        "user": "UV8519NFK",
        "ts": "1584409676.144200",
        "team": "TUU48M0T1",
        "user_team": "TUU48M0T1",
        "source_team": "TUU48M0T1",
        "user_profile": {
            "avatar_hash": "63f8ab1a9517",
            "image_72": "https:\/\/avatars.slack-edge.com\/2020-03-16\/1006137856183_63f8ab1a95179e961ab1_72.jpg",
            "first_name": "David",
            "real_name": "David Canat",
            "display_name": "David Canat",
            "team": "TUU48M0T1",
            "name": "dcanat",
            "is_restricted": false,
            "is_ultra_restricted": false
        },
        "blocks": [
            {
                "type": "rich_text",
                "block_id": "dUF6G",
                "elements": [
                    {
                        "type": "rich_text_section",
                        "elements": [
                            {
                                "type": "text",
                                "text": "Hi all, I'm new here, have done my homework of reading the governance-related threads and docs I found. So I can probably start contributing to a concrete coordination task. Also happy to take part in structural conversations a little later when\/if we all see fit. Ideally I'd love to team up with a \"task buddy\" for faster and happier learning and execution "
                            },
                            {
                                "type": "emoji",
                                "name": "slightly_smiling_face"
                            }
                        ]
                    }
                ]
            }
        ],
        "thread_ts": "1584409676.144200",
        "reply_count": 2,
        "reply_users_count": 2,
        "latest_reply": "1584433987.150300",
        "reply_users": [
            "UV87UQ37A",
            "UV02WET96"
        ],
        "replies": [
            {
                "user": "UV87UQ37A",
                "ts": "1584427475.146600"
            },
            {
                "user": "UV02WET96",
                "ts": "1584433987.150300"
            }
        ],
        "subscribed": false,
        "reactions": [
            {
                "name": "wave",
                "users": [
                    "UV2SC7ZE3"
                ],
                "count": 1
            },
            {
                "name": "100",
                "users": [
                    "UV87UQ37A",
                    "UV02WET96"
                ],
                "count": 2
            }
        ]
    },
    {
        "client_msg_id": "6535e322-f1aa-4d43-a749-8ef1734e7077",
        "type": "message",
        "text": "Hi, I wondered if we could have a new channel for newbie 3D printer owners, both so we can chat about what we are doing to get set up, and so that you can send printing requests to us? I have just bought one and I see someone else volunteering to do that too.  Thanks!",
        "user": "U01016B7KPY",
        "ts": "1584426057.145600",
        "team": "TUU48M0T1",
        "user_team": "TUU48M0T1",
        "source_team": "TUU48M0T1",
        "user_profile": {
            "avatar_hash": "9a7d8bed69ad",
            "image_72": "https:\/\/avatars.slack-edge.com\/2020-03-13\/1001221150774_9a7d8bed69ad082201d0_72.jpg",
            "first_name": "",
            "real_name": "Jennifer Deegan",
            "display_name": "Jennifer Deegan",
            "team": "TUU48M0T1",
            "name": "jendeegan",
            "is_restricted": false,
            "is_ultra_restricted": false
        },
        "blocks": [
            {
                "type": "rich_text",
                "block_id": "xnQEU",
                "elements": [
                    {
                        "type": "rich_text_section",
                        "elements": [
                            {
                                "type": "text",
                                "text": "Hi, I wondered if we could have a new channel for newbie 3D printer owners, both so we can chat about what we are doing to get set up, and so that you can send printing requests to us? I have just bought one and I see someone else volunteering to do that too.  Thanks!"
                            }
                        ]
                    }
                ]
            }
        ],
        "thread_ts": "1584426057.145600",
        "reply_count": 1,
        "reply_users_count": 1,
        "latest_reply": "1584437113.155700",
        "reply_users": [
            "UV02WET96"
        ],
        "replies": [
            {
                "user": "UV02WET96",
                "ts": "1584437113.155700"
            }
        ],
        "subscribed": false,
        "reactions": [
            {
                "name": "+1",
                "users": [
                    "UV02WET96"
                ],
                "count": 1
            },
            {
                "name": "boom",
                "users": [
                    "UV87UQ37A"
                ],
                "count": 1
            }
        ]
    },
    {
        "client_msg_id": "54B186A2-410D-4E46-A0FB-73D01E627B43",
        "type": "message",
        "text": "I love the idea of task buddies",
        "user": "UV87UQ37A",
        "ts": "1584427475.146600",
        "team": "TUU48M0T1",
        "user_team": "TUU48M0T1",
        "source_team": "TUU48M0T1",
        "user_profile": {
            "avatar_hash": "g7c78d2f0258",
            "image_72": "https:\/\/secure.gravatar.com\/avatar\/7c78d2f0258f7bdf78a86301cfd6b712.jpg?s=72&d=https%3A%2F%2Fa.slack-edge.com%2Fdf10d%2Fimg%2Favatars%2Fava_0014-72.png",
            "first_name": "Victoria",
            "real_name": "Victoria Costa",
            "display_name": "Victoria Costa",
            "team": "TUU48M0T1",
            "name": "victorycoast",
            "is_restricted": false,
            "is_ultra_restricted": false
        },
        "blocks": [
            {
                "type": "rich_text",
                "block_id": "440",
                "elements": [
                    {
                        "type": "rich_text_section",
                        "elements": [
                            {
                                "type": "text",
                                "text": "I love the idea of task buddies"
                            }
                        ]
                    }
                ]
            }
        ],
        "thread_ts": "1584409676.144200",
        "parent_user_id": "UV8519NFK"
    },
    {
        "client_msg_id": "63D74877-3567-46E7-AB6F-43298349A3A2",
        "type": "message",
        "text": "in ten years of remote international meetings, I’ve never found a sweet spot :joy: ",
        "user": "UV87UQ37A",
        "ts": "1584427663.148400",
        "team": "TUU48M0T1",
        "user_team": "TUU48M0T1",
        "source_team": "TUU48M0T1",
        "user_profile": {
            "avatar_hash": "g7c78d2f0258",
            "image_72": "https:\/\/secure.gravatar.com\/avatar\/7c78d2f0258f7bdf78a86301cfd6b712.jpg?s=72&d=https%3A%2F%2Fa.slack-edge.com%2Fdf10d%2Fimg%2Favatars%2Fava_0014-72.png",
            "first_name": "Victoria",
            "real_name": "Victoria Costa",
            "display_name": "Victoria Costa",
            "team": "TUU48M0T1",
            "name": "victorycoast",
            "is_restricted": false,
            "is_ultra_restricted": false
        },
        "blocks": [
            {
                "type": "rich_text",
                "block_id": "oA8B",
                "elements": [
                    {
                        "type": "rich_text_section",
                        "elements": [
                            {
                                "type": "text",
                                "text": "in ten years of remote international meetings, I’ve never found a sweet spot "
                            },
                            {
                                "type": "emoji",
                                "name": "joy"
                            },
                            {
                                "type": "text",
                                "text": " "
                            }
                        ]
                    }
                ]
            }
        ],
        "thread_ts": "1584398088.133800",
        "parent_user_id": "UV87UQ37A",
        "reactions": [
            {
                "name": "joy",
                "users": [
                    "UV0QTJCMT",
                    "UV02WET96"
                ],
                "count": 2
            }
        ]
    },
    {
        "client_msg_id": "AD045136-D187-430D-80E2-48C09DA7BDA3",
        "type": "message",
        "text": "3pm UTC is common",
        "user": "UV87UQ37A",
        "ts": "1584427760.149600",
        "team": "TUU48M0T1",
        "user_team": "TUU48M0T1",
        "source_team": "TUU48M0T1",
        "user_profile": {
            "avatar_hash": "g7c78d2f0258",
            "image_72": "https:\/\/secure.gravatar.com\/avatar\/7c78d2f0258f7bdf78a86301cfd6b712.jpg?s=72&d=https%3A%2F%2Fa.slack-edge.com%2Fdf10d%2Fimg%2Favatars%2Fava_0014-72.png",
            "first_name": "Victoria",
            "real_name": "Victoria Costa",
            "display_name": "Victoria Costa",
            "team": "TUU48M0T1",
            "name": "victorycoast",
            "is_restricted": false,
            "is_ultra_restricted": false
        },
        "blocks": [
            {
                "type": "rich_text",
                "block_id": "oTXrZ",
                "elements": [
                    {
                        "type": "rich_text_section",
                        "elements": [
                            {
                                "type": "text",
                                "text": "3pm UTC is common"
                            }
                        ]
                    }
                ]
            }
        ],
        "thread_ts": "1584398088.133800",
        "parent_user_id": "UV87UQ37A"
    }
]