[
    {
        "type": "message",
        "text": "Hi <!channel>! *[Agenda] for today's governance meeting!* \n\nLink to the agenda: <https:\/\/docs.google.com\/document\/d\/1l3Y6Mu7Sxu1SWsqVrFMOB-oBvak95DJYxImfJQER538\/edit#heading=h.qhf4bph2ejti|here>\nZoom: <https:\/\/zoom.us\/j\/7804345815>\n\n*Let's try to focus on mediation process today!*",
        "files": [
            {
                "id": "F01243K9PBP",
                "created": 1587390543,
                "timestamp": 1587390543,
                "name": "Governance Meetings",
                "title": "Governance Meetings",
                "mimetype": "application\/vnd.google-apps.document",
                "filetype": "gdoc",
                "pretty_type": "GSuite Document",
                "user": "UV9V03C8Y",
                "editable": false,
                "size": 3200,
                "mode": "external",
                "is_external": true,
                "external_type": "gdrive",
                "is_public": true,
                "public_url_shared": false,
                "display_as_bot": false,
                "username": "",
                "url_private": "https:\/\/docs.google.com\/document\/d\/1l3Y6Mu7Sxu1SWsqVrFMOB-oBvak95DJYxImfJQER538\/edit#heading=h.qhf4bph2ejti",
                "thumb_64": "https:\/\/files.slack.com\/files-tmb\/TUU48M0T1-F01243K9PBP-264ff92044\/governance_meetings_64.png?t=xoxe-980144714919-1106606678066-1105227127893-6f722bb664235052954ad46852628b64",
                "thumb_80": "https:\/\/files.slack.com\/files-tmb\/TUU48M0T1-F01243K9PBP-264ff92044\/governance_meetings_80.png?t=xoxe-980144714919-1106606678066-1105227127893-6f722bb664235052954ad46852628b64",
                "thumb_360": "https:\/\/files.slack.com\/files-tmb\/TUU48M0T1-F01243K9PBP-264ff92044\/governance_meetings_360.png?t=xoxe-980144714919-1106606678066-1105227127893-6f722bb664235052954ad46852628b64",
                "thumb_360_w": 255,
                "thumb_360_h": 360,
                "thumb_480": "https:\/\/files.slack.com\/files-tmb\/TUU48M0T1-F01243K9PBP-264ff92044\/governance_meetings_480.png?t=xoxe-980144714919-1106606678066-1105227127893-6f722bb664235052954ad46852628b64",
                "thumb_480_w": 340,
                "thumb_480_h": 480,
                "thumb_160": "https:\/\/files.slack.com\/files-tmb\/TUU48M0T1-F01243K9PBP-264ff92044\/governance_meetings_160.png?t=xoxe-980144714919-1106606678066-1105227127893-6f722bb664235052954ad46852628b64",
                "thumb_720": "https:\/\/files.slack.com\/files-tmb\/TUU48M0T1-F01243K9PBP-264ff92044\/governance_meetings_720.png?t=xoxe-980144714919-1106606678066-1105227127893-6f722bb664235052954ad46852628b64",
                "thumb_720_w": 509,
                "thumb_720_h": 720,
                "thumb_800": "https:\/\/files.slack.com\/files-tmb\/TUU48M0T1-F01243K9PBP-264ff92044\/governance_meetings_800.png?t=xoxe-980144714919-1106606678066-1105227127893-6f722bb664235052954ad46852628b64",
                "thumb_800_w": 800,
                "thumb_800_h": 1131,
                "thumb_960": "https:\/\/files.slack.com\/files-tmb\/TUU48M0T1-F01243K9PBP-264ff92044\/governance_meetings_960.png?t=xoxe-980144714919-1106606678066-1105227127893-6f722bb664235052954ad46852628b64",
                "thumb_960_w": 679,
                "thumb_960_h": 960,
                "thumb_1024": "https:\/\/files.slack.com\/files-tmb\/TUU48M0T1-F01243K9PBP-264ff92044\/governance_meetings_1024.png?t=xoxe-980144714919-1106606678066-1105227127893-6f722bb664235052954ad46852628b64",
                "thumb_1024_w": 724,
                "thumb_1024_h": 1024,
                "image_exif_rotation": 1,
                "original_w": 800,
                "original_h": 1131,
                "thumb_tiny": "AwAwACHSJpME\/wAVKVB60cDt+lABg\/3jSijNFABRRRQA1uOnWky1Kw4pB9KAFBbvinU0Z9KUUALRRRQAhJFIGz60uDmjmgAHPc0tIM96OaAFooooA\/\/Z",
                "permalink": "https:\/\/open-covid19.slack.com\/files\/UV9V03C8Y\/F01243K9PBP\/governance_meetings",
                "is_starred": false,
                "external_id": "1l3Y6Mu7Sxu1SWsqVrFMOB-oBvak95DJYxImfJQER538",
                "external_url": "https:\/\/docs.google.com\/document\/d\/1l3Y6Mu7Sxu1SWsqVrFMOB-oBvak95DJYxImfJQER538\/edit#heading=h.qhf4bph2ejti",
                "has_rich_preview": true
            }
        ],
        "upload": false,
        "blocks": [
            {
                "type": "rich_text",
                "block_id": "l1wht",
                "elements": [
                    {
                        "type": "rich_text_section",
                        "elements": [
                            {
                                "type": "text",
                                "text": "Hi "
                            },
                            {
                                "type": "broadcast",
                                "range": "channel"
                            },
                            {
                                "type": "text",
                                "text": "! "
                            },
                            {
                                "type": "text",
                                "text": "[Agenda] for today's governance meeting! ",
                                "style": {
                                    "bold": true
                                }
                            },
                            {
                                "type": "text",
                                "text": "\n\nLink to the agenda: "
                            },
                            {
                                "type": "link",
                                "url": "https:\/\/docs.google.com\/document\/d\/1l3Y6Mu7Sxu1SWsqVrFMOB-oBvak95DJYxImfJQER538\/edit#heading=h.qhf4bph2ejti",
                                "text": "here"
                            },
                            {
                                "type": "text",
                                "text": "\nZoom: "
                            },
                            {
                                "type": "link",
                                "url": "https:\/\/zoom.us\/j\/7804345815"
                            },
                            {
                                "type": "text",
                                "text": "\n\n"
                            },
                            {
                                "type": "text",
                                "text": "Let's try to focus on mediation process today!",
                                "style": {
                                    "bold": true
                                }
                            }
                        ]
                    }
                ]
            }
        ],
        "user": "UV9V03C8Y",
        "display_as_bot": false,
        "x_files": [
            "F01243K9PBP"
        ],
        "ts": "1587390541.295900",
        "client_msg_id": "a338c928-5545-4b99-9427-e3a1d9d3f82b"
    },
    {
        "type": "message",
        "text": "Hi everyone!\n:point_right: *Opencovid 19 Code of Conduct, Crisis Managment, and Moderation process*\n\nI have gathered information from the JOGL previous program Co-Immune.\nDraft document is here: <https:\/\/docs.google.com\/document\/d\/1yKzzJTPML1ZiZot0EdawSrAGwyw6oYOwRdlxSlrNm1w\/edit#heading=h.41mghml|Code of conduct_Opencovid19>\n\n*Who would be available to build up on it for Opencovid19?* ",
        "files": [
            {
                "id": "F011Z32N2K0",
                "created": 1587397355,
                "timestamp": 1587397355,
                "name": "Code of conduct_Opencovid 19",
                "title": "OpenCOVID19 Code of Conduct",
                "mimetype": "application\/vnd.google-apps.document",
                "filetype": "gdoc",
                "pretty_type": "GSuite Document",
                "user": "UV9V03C8Y",
                "editable": false,
                "size": 6510,
                "mode": "external",
                "is_external": true,
                "external_type": "gdrive",
                "is_public": true,
                "public_url_shared": false,
                "display_as_bot": false,
                "username": "",
                "url_private": "https:\/\/docs.google.com\/document\/d\/1yKzzJTPML1ZiZot0EdawSrAGwyw6oYOwRdlxSlrNm1w\/edit#heading=h.41mghml",
                "thumb_64": "https:\/\/files.slack.com\/files-tmb\/TUU48M0T1-F011Z32N2K0-a76520fce5\/code_of_conduct_opencovid_19_64.png?t=xoxe-980144714919-1106606678066-1105227127893-6f722bb664235052954ad46852628b64",
                "thumb_80": "https:\/\/files.slack.com\/files-tmb\/TUU48M0T1-F011Z32N2K0-a76520fce5\/code_of_conduct_opencovid_19_80.png?t=xoxe-980144714919-1106606678066-1105227127893-6f722bb664235052954ad46852628b64",
                "thumb_360": "https:\/\/files.slack.com\/files-tmb\/TUU48M0T1-F011Z32N2K0-a76520fce5\/code_of_conduct_opencovid_19_360.png?t=xoxe-980144714919-1106606678066-1105227127893-6f722bb664235052954ad46852628b64",
                "thumb_360_w": 255,
                "thumb_360_h": 360,
                "thumb_480": "https:\/\/files.slack.com\/files-tmb\/TUU48M0T1-F011Z32N2K0-a76520fce5\/code_of_conduct_opencovid_19_480.png?t=xoxe-980144714919-1106606678066-1105227127893-6f722bb664235052954ad46852628b64",
                "thumb_480_w": 340,
                "thumb_480_h": 480,
                "thumb_160": "https:\/\/files.slack.com\/files-tmb\/TUU48M0T1-F011Z32N2K0-a76520fce5\/code_of_conduct_opencovid_19_160.png?t=xoxe-980144714919-1106606678066-1105227127893-6f722bb664235052954ad46852628b64",
                "thumb_720": "https:\/\/files.slack.com\/files-tmb\/TUU48M0T1-F011Z32N2K0-a76520fce5\/code_of_conduct_opencovid_19_720.png?t=xoxe-980144714919-1106606678066-1105227127893-6f722bb664235052954ad46852628b64",
                "thumb_720_w": 509,
                "thumb_720_h": 720,
                "thumb_800": "https:\/\/files.slack.com\/files-tmb\/TUU48M0T1-F011Z32N2K0-a76520fce5\/code_of_conduct_opencovid_19_800.png?t=xoxe-980144714919-1106606678066-1105227127893-6f722bb664235052954ad46852628b64",
                "thumb_800_w": 800,
                "thumb_800_h": 1131,
                "thumb_960": "https:\/\/files.slack.com\/files-tmb\/TUU48M0T1-F011Z32N2K0-a76520fce5\/code_of_conduct_opencovid_19_960.png?t=xoxe-980144714919-1106606678066-1105227127893-6f722bb664235052954ad46852628b64",
                "thumb_960_w": 679,
                "thumb_960_h": 960,
                "thumb_1024": "https:\/\/files.slack.com\/files-tmb\/TUU48M0T1-F011Z32N2K0-a76520fce5\/code_of_conduct_opencovid_19_1024.png?t=xoxe-980144714919-1106606678066-1105227127893-6f722bb664235052954ad46852628b64",
                "thumb_1024_w": 724,
                "thumb_1024_h": 1024,
                "image_exif_rotation": 1,
                "original_w": 800,
                "original_h": 1131,
                "thumb_tiny": "AwAwACHTPAzTRIhAIYYPTmgtwcqcVGojUALGMDpTsBLuHqKUEHoaiLKeNlOQgD5VNFmA+im7v9lqN3+y1KwA2c8ZpMtilfpTfyoAdlvSjLZ6U38qUdR0oAfRRRQAjDIpu0+gp9FADNp9BSgHNOooAKKKKAP\/2Q==",
                "permalink": "https:\/\/open-covid19.slack.com\/files\/UV9V03C8Y\/F011Z32N2K0\/code_of_conduct_opencovid_19",
                "is_starred": false,
                "external_id": "1yKzzJTPML1ZiZot0EdawSrAGwyw6oYOwRdlxSlrNm1w",
                "external_url": "https:\/\/docs.google.com\/document\/d\/1yKzzJTPML1ZiZot0EdawSrAGwyw6oYOwRdlxSlrNm1w\/edit#heading=h.41mghml",
                "has_rich_preview": true
            }
        ],
        "upload": false,
        "blocks": [
            {
                "type": "rich_text",
                "block_id": "ffV",
                "elements": [
                    {
                        "type": "rich_text_section",
                        "elements": [
                            {
                                "type": "text",
                                "text": "Hi everyone!\n"
                            },
                            {
                                "type": "emoji",
                                "name": "point_right"
                            },
                            {
                                "type": "text",
                                "text": " Opencovid 19 Code of Conduct, Crisis Managment, and Moderation process",
                                "style": {
                                    "bold": true
                                }
                            },
                            {
                                "type": "text",
                                "text": "\n\nI have gathered information from the JOGL previous program Co-Immune.\nDraft document is here: "
                            },
                            {
                                "type": "link",
                                "url": "https:\/\/docs.google.com\/document\/d\/1yKzzJTPML1ZiZot0EdawSrAGwyw6oYOwRdlxSlrNm1w\/edit#heading=h.41mghml",
                                "text": "Code of conduct_Opencovid19"
                            },
                            {
                                "type": "text",
                                "text": "\n\n"
                            },
                            {
                                "type": "text",
                                "text": "Who would be available to build up on it for Opencovid19? ",
                                "style": {
                                    "bold": true
                                }
                            }
                        ]
                    }
                ]
            }
        ],
        "user": "UV9V03C8Y",
        "display_as_bot": false,
        "x_files": [
            "F011Z32N2K0"
        ],
        "ts": "1587397353.300300",
        "client_msg_id": "0c323028-a2ac-4f00-bc45-2f2373be15e3",
        "thread_ts": "1587397353.300300",
        "reply_count": 3,
        "reply_users_count": 2,
        "latest_reply": "1587405034.302500",
        "reply_users": [
            "UV0QTJCMT",
            "UV9V03C8Y"
        ],
        "replies": [
            {
                "user": "UV0QTJCMT",
                "ts": "1587403530.301600"
            },
            {
                "user": "UV9V03C8Y",
                "ts": "1587404029.302200"
            },
            {
                "user": "UV9V03C8Y",
                "ts": "1587405034.302500"
            }
        ],
        "subscribed": false
    },
    {
        "type": "message",
        "text": "thanks for creating this doc <@UV9V03C8Y>--i'll review it later and leave some comments :slightly_smiling_face: not sure if it's redundant at this point but here's the draft code of conduct thomas, zach, david kong and i were working on a while back (<https:\/\/docs.google.com\/document\/d\/1S1snmozXqYYYi3_dm_INb0DZduFVbbEc003J9yX1OGk\/edit>) it's largely just an adaptation of the community bio code of conduct",
        "files": [
            {
                "id": "F01263G4B7C",
                "created": 1587403531,
                "timestamp": 1587403531,
                "name": "[WIP] OpenCovid19 Code of Conduct",
                "title": "[WIP] OpenCovid19 Code of Conduct",
                "mimetype": "application\/vnd.google-apps.document",
                "filetype": "gdoc",
                "pretty_type": "GSuite Document",
                "user": "UV0QTJCMT",
                "editable": false,
                "size": 5187,
                "mode": "external",
                "is_external": true,
                "external_type": "gdrive",
                "is_public": true,
                "public_url_shared": false,
                "display_as_bot": false,
                "username": "",
                "url_private": "https:\/\/docs.google.com\/document\/d\/1S1snmozXqYYYi3_dm_INb0DZduFVbbEc003J9yX1OGk\/edit",
                "thumb_64": "https:\/\/a.slack-edge.com\/80588\/img\/files\/gdraw_64.png",
                "thumb_360": "https:\/\/a.slack-edge.com\/80588\/img\/files\/gdraw_360.png",
                "thumb_360_w": 360,
                "thumb_360_h": 167,
                "permalink": "https:\/\/open-covid19.slack.com\/files\/UV0QTJCMT\/F01263G4B7C\/_wip__opencovid19_code_of_conduct",
                "is_starred": false,
                "external_id": "1S1snmozXqYYYi3_dm_INb0DZduFVbbEc003J9yX1OGk",
                "external_url": "https:\/\/docs.google.com\/document\/d\/1S1snmozXqYYYi3_dm_INb0DZduFVbbEc003J9yX1OGk\/edit",
                "has_rich_preview": true
            }
        ],
        "upload": false,
        "blocks": [
            {
                "type": "rich_text",
                "block_id": "QOR",
                "elements": [
                    {
                        "type": "rich_text_section",
                        "elements": [
                            {
                                "type": "text",
                                "text": "thanks for creating this doc "
                            },
                            {
                                "type": "user",
                                "user_id": "UV9V03C8Y"
                            },
                            {
                                "type": "text",
                                "text": "--i'll review it later and leave some comments "
                            },
                            {
                                "type": "emoji",
                                "name": "slightly_smiling_face"
                            },
                            {
                                "type": "text",
                                "text": " not sure if it's redundant at this point but here's the draft code of conduct thomas, zach, david kong and i were working on a while back ("
                            },
                            {
                                "type": "link",
                                "url": "https:\/\/docs.google.com\/document\/d\/1S1snmozXqYYYi3_dm_INb0DZduFVbbEc003J9yX1OGk\/edit"
                            },
                            {
                                "type": "text",
                                "text": ") it's largely just an adaptation of the community bio code of conduct"
                            }
                        ]
                    }
                ]
            }
        ],
        "user": "UV0QTJCMT",
        "display_as_bot": false,
        "x_files": [
            "F01263G4B7C"
        ],
        "ts": "1587403530.301600",
        "client_msg_id": "601df46e-dc13-4a76-b660-f5a76ce26865",
        "thread_ts": "1587397353.300300",
        "parent_user_id": "UV9V03C8Y"
    },
    {
        "client_msg_id": "2a46c13b-9f3d-404a-bb4f-576e433a266b",
        "type": "message",
        "text": "Awesome <@UV0QTJCMT>! thanks! let me compile them in one document.",
        "user": "UV9V03C8Y",
        "ts": "1587404029.302200",
        "team": "TUU48M0T1",
        "user_team": "TUU48M0T1",
        "source_team": "TUU48M0T1",
        "user_profile": {
            "avatar_hash": "177697fb7b8f",
            "image_72": "https:\/\/avatars.slack-edge.com\/2020-03-12\/996126178096_177697fb7b8ffa57649c_72.jpg",
            "first_name": "Camille",
            "real_name": "Camille Masselot - JOGL Program coordinator",
            "display_name": "Camille Masselot - JOGL coordinator",
            "team": "TUU48M0T1",
            "name": "masselot.camille",
            "is_restricted": false,
            "is_ultra_restricted": false
        },
        "blocks": [
            {
                "type": "rich_text",
                "block_id": "VABCP",
                "elements": [
                    {
                        "type": "rich_text_section",
                        "elements": [
                            {
                                "type": "text",
                                "text": "Awesome "
                            },
                            {
                                "type": "user",
                                "user_id": "UV0QTJCMT"
                            },
                            {
                                "type": "text",
                                "text": "! thanks! let me compile them in one document."
                            }
                        ]
                    }
                ]
            }
        ],
        "thread_ts": "1587397353.300300",
        "parent_user_id": "UV9V03C8Y",
        "reactions": [
            {
                "name": "+1",
                "users": [
                    "UV0QTJCMT"
                ],
                "count": 1
            }
        ]
    },
    {
        "client_msg_id": "0e8787e2-c06c-4539-b6e6-7c1ccb9b2406",
        "type": "message",
        "text": "Done!",
        "user": "UV9V03C8Y",
        "ts": "1587405034.302500",
        "team": "TUU48M0T1",
        "user_team": "TUU48M0T1",
        "source_team": "TUU48M0T1",
        "user_profile": {
            "avatar_hash": "177697fb7b8f",
            "image_72": "https:\/\/avatars.slack-edge.com\/2020-03-12\/996126178096_177697fb7b8ffa57649c_72.jpg",
            "first_name": "Camille",
            "real_name": "Camille Masselot - JOGL Program coordinator",
            "display_name": "Camille Masselot - JOGL coordinator",
            "team": "TUU48M0T1",
            "name": "masselot.camille",
            "is_restricted": false,
            "is_ultra_restricted": false
        },
        "blocks": [
            {
                "type": "rich_text",
                "block_id": "9249T",
                "elements": [
                    {
                        "type": "rich_text_section",
                        "elements": [
                            {
                                "type": "text",
                                "text": "Done!"
                            }
                        ]
                    }
                ]
            }
        ],
        "thread_ts": "1587397353.300300",
        "parent_user_id": "UV9V03C8Y",
        "reactions": [
            {
                "name": "+1",
                "users": [
                    "UV0QTJCMT"
                ],
                "count": 1
            }
        ]
    }
]