[
    {
        "type": "message",
        "text": "Hey <@UV8T52QJ3>, thank you very much for your feedback and suggestions! I'll try to answer them in order :slightly_smiling_face: .\n• Of course, please do! You are free to make any suggestion\/contact you think are relevant here. We are a \"doing\" community, finding its way to organize and communicate to facilitate everybody's collaborative work. \n• The list of documents above is great ; I just wonder: do you have access to the Drive folders\/full organization? I'm afraid it's a big issue here. In short, we keep notes of meetings in Meeting&gt;Governance meetings ; and the working documents are in the Opencovid19 initiative&gt;Goververnance\n• *The 2 current working documents are: <https:\/\/docs.google.com\/document\/d\/1qWtQqIMKxFDwFB6XVelH6ST_2iHtrml3UL7iyW2HqVk\/edit#heading=h.qci3vz6obqw0|governance_0.2_PART1> and <https:\/\/docs.google.com\/document\/d\/1XieaaUdIHxG5uciTS6Tu9jhPOniBMc1hL5uV6JCqSe0\/edit#heading=h.qci3vz6obqw0|governance_0.2_PART2>*\n• Great! yes, if you would like to be an ambassador for your project please do! I don't think we should restrict the number of ambassador per project. We should adapt to the way project work, therefore organize the way you want. Plus, definition of the missions of ambassador will be done collectively during the ambassador meeting. \n• Could you please clarify what is \"that\" when you say \"Is that a good idea for project coordination\"? Some people are elaborating guidelines for project management and gathering tools in order to provide support to projects in need of this. Therefore, feel free to share the tools or methods you are using and feel could be useful to others. \nHope this helps!",
        "files": [
            {
                "id": "F0111RWHB4H",
                "created": 1585839332,
                "timestamp": 1585839332,
                "name": "governance_0",
                "title": "governance_0.2_PART 2_Opencovid19",
                "mimetype": "application\/vnd.google-apps.document",
                "filetype": "gdoc",
                "pretty_type": "GSuite Document",
                "user": "UV9V03C8Y",
                "editable": false,
                "size": 28147,
                "mode": "external",
                "is_external": true,
                "external_type": "gdrive",
                "is_public": true,
                "public_url_shared": false,
                "display_as_bot": false,
                "username": "",
                "url_private": "https:\/\/docs.google.com\/document\/d\/1XieaaUdIHxG5uciTS6Tu9jhPOniBMc1hL5uV6JCqSe0\/edit?usp=drive_web&ouid=116359027881748659132",
                "thumb_64": "https:\/\/files.slack.com\/files-tmb\/TUU48M0T1-F0111RWHB4H-fdd412654a\/governance_0_64.png?t=xoxe-980144714919-1106606678066-1105227127893-6f722bb664235052954ad46852628b64",
                "thumb_80": "https:\/\/files.slack.com\/files-tmb\/TUU48M0T1-F0111RWHB4H-fdd412654a\/governance_0_80.png?t=xoxe-980144714919-1106606678066-1105227127893-6f722bb664235052954ad46852628b64",
                "thumb_360": "https:\/\/files.slack.com\/files-tmb\/TUU48M0T1-F0111RWHB4H-fdd412654a\/governance_0_360.png?t=xoxe-980144714919-1106606678066-1105227127893-6f722bb664235052954ad46852628b64",
                "thumb_360_w": 255,
                "thumb_360_h": 360,
                "thumb_480": "https:\/\/files.slack.com\/files-tmb\/TUU48M0T1-F0111RWHB4H-fdd412654a\/governance_0_480.png?t=xoxe-980144714919-1106606678066-1105227127893-6f722bb664235052954ad46852628b64",
                "thumb_480_w": 340,
                "thumb_480_h": 480,
                "thumb_160": "https:\/\/files.slack.com\/files-tmb\/TUU48M0T1-F0111RWHB4H-fdd412654a\/governance_0_160.png?t=xoxe-980144714919-1106606678066-1105227127893-6f722bb664235052954ad46852628b64",
                "thumb_720": "https:\/\/files.slack.com\/files-tmb\/TUU48M0T1-F0111RWHB4H-fdd412654a\/governance_0_720.png?t=xoxe-980144714919-1106606678066-1105227127893-6f722bb664235052954ad46852628b64",
                "thumb_720_w": 509,
                "thumb_720_h": 720,
                "thumb_800": "https:\/\/files.slack.com\/files-tmb\/TUU48M0T1-F0111RWHB4H-fdd412654a\/governance_0_800.png?t=xoxe-980144714919-1106606678066-1105227127893-6f722bb664235052954ad46852628b64",
                "thumb_800_w": 800,
                "thumb_800_h": 1131,
                "thumb_960": "https:\/\/files.slack.com\/files-tmb\/TUU48M0T1-F0111RWHB4H-fdd412654a\/governance_0_960.png?t=xoxe-980144714919-1106606678066-1105227127893-6f722bb664235052954ad46852628b64",
                "thumb_960_w": 679,
                "thumb_960_h": 960,
                "thumb_1024": "https:\/\/files.slack.com\/files-tmb\/TUU48M0T1-F0111RWHB4H-fdd412654a\/governance_0_1024.png?t=xoxe-980144714919-1106606678066-1105227127893-6f722bb664235052954ad46852628b64",
                "thumb_1024_w": 724,
                "thumb_1024_h": 1024,
                "image_exif_rotation": 1,
                "original_w": 800,
                "original_h": 1131,
                "thumb_tiny": "AwAwACHTpDu7EUjfrSbj60AKN3cinUzJ9aVSc9aAHUUUUAIRmjaKWigBNoowKWigAooooAKKKKACiiigAooooA\/\/2Q==",
                "permalink": "https:\/\/open-covid19.slack.com\/files\/UV9V03C8Y\/F0111RWHB4H\/governance_0",
                "is_starred": false,
                "external_id": "1XieaaUdIHxG5uciTS6Tu9jhPOniBMc1hL5uV6JCqSe0",
                "external_url": "https:\/\/docs.google.com\/document\/d\/1XieaaUdIHxG5uciTS6Tu9jhPOniBMc1hL5uV6JCqSe0\/edit?usp=drive_web&ouid=116359027881748659132",
                "has_rich_preview": true
            }
        ],
        "upload": false,
        "blocks": [
            {
                "type": "rich_text",
                "block_id": "1kxQ",
                "elements": [
                    {
                        "type": "rich_text_section",
                        "elements": [
                            {
                                "type": "text",
                                "text": "Hey "
                            },
                            {
                                "type": "user",
                                "user_id": "UV8T52QJ3"
                            },
                            {
                                "type": "text",
                                "text": ", thank you very much for your feedback and suggestions! I'll try to answer them in order "
                            },
                            {
                                "type": "emoji",
                                "name": "slightly_smiling_face"
                            },
                            {
                                "type": "text",
                                "text": " .\n"
                            }
                        ]
                    },
                    {
                        "type": "rich_text_list",
                        "style": "bullet",
                        "indent": 0,
                        "elements": [
                            {
                                "type": "rich_text_section",
                                "elements": [
                                    {
                                        "type": "text",
                                        "text": "Of course, please do! You are free to make any suggestion\/contact you think are relevant here. We are a \"doing\" community, finding its way to organize and communicate to facilitate everybody's collaborative work. "
                                    }
                                ]
                            },
                            {
                                "type": "rich_text_section",
                                "elements": [
                                    {
                                        "type": "text",
                                        "text": "The list of documents above is great ; I just wonder: do you have access to the Drive folders\/full organization? I'm afraid it's a big issue here. In short, we keep notes of meetings in Meeting>Governance meetings ; and the working documents are in the Opencovid19 initiative>Goververnance"
                                    }
                                ]
                            },
                            {
                                "type": "rich_text_section",
                                "elements": [
                                    {
                                        "type": "text",
                                        "text": "The 2 current working documents are: ",
                                        "style": {
                                            "bold": true
                                        }
                                    },
                                    {
                                        "type": "link",
                                        "url": "https:\/\/docs.google.com\/document\/d\/1qWtQqIMKxFDwFB6XVelH6ST_2iHtrml3UL7iyW2HqVk\/edit#heading=h.qci3vz6obqw0",
                                        "text": "governance_0.2_PART1",
                                        "style": {
                                            "bold": true
                                        }
                                    },
                                    {
                                        "type": "text",
                                        "text": " and ",
                                        "style": {
                                            "bold": true
                                        }
                                    },
                                    {
                                        "type": "link",
                                        "url": "https:\/\/docs.google.com\/document\/d\/1XieaaUdIHxG5uciTS6Tu9jhPOniBMc1hL5uV6JCqSe0\/edit#heading=h.qci3vz6obqw0",
                                        "text": "governance_0.2_PART2",
                                        "style": {
                                            "bold": true
                                        }
                                    }
                                ]
                            },
                            {
                                "type": "rich_text_section",
                                "elements": [
                                    {
                                        "type": "text",
                                        "text": "Great! yes, if you would like to be an ambassador for your project please do! I don't think we should restrict the number of ambassador per project. We should adapt to the way project work, therefore organize the way you want. Plus, definition of the missions of ambassador will be done collectively during the ambassador meeting. "
                                    }
                                ]
                            },
                            {
                                "type": "rich_text_section",
                                "elements": [
                                    {
                                        "type": "text",
                                        "text": "Could you please clarify what is \"that\" when you say \"Is that a good idea for project coordination\"? Some people are elaborating guidelines for project management and gathering tools in order to provide support to projects in need of this. Therefore, feel free to share the tools or methods you are using and feel could be useful to others. "
                                    }
                                ]
                            }
                        ]
                    },
                    {
                        "type": "rich_text_section",
                        "elements": [
                            {
                                "type": "text",
                                "text": "Hope this helps!"
                            }
                        ]
                    }
                ]
            }
        ],
        "user": "UV9V03C8Y",
        "display_as_bot": false,
        "x_files": [
            "F0111RWHB4H"
        ],
        "ts": "1585948858.116400",
        "client_msg_id": "1735e188-b134-42e0-bea8-2692c6e7a7cd"
    },
    {
        "bot_id": "B010RAQ6BRT",
        "type": "message",
        "text": "@channel, I’ve invited you to a *<slack:\/\/app?team=TUU48M0T1&amp;id=AKHMRPUCT&amp;tab=home|Cloverpop>* decision poll, due *<!date^1586124000^{date_short_pretty}|Apr 06>*.",
        "user": "UV9V03C8Y",
        "ts": "1585950469.117700",
        "team": "TUU48M0T1",
        "bot_profile": {
            "id": "B010RAQ6BRT",
            "deleted": false,
            "name": "Cloverpop",
            "updated": 1585148661,
            "app_id": "AKHMRPUCT",
            "icons": {
                "image_36": "https:\/\/avatars.slack-edge.com\/2019-10-08\/775562855714_7f791d2af39b650a825a_36.png",
                "image_48": "https:\/\/avatars.slack-edge.com\/2019-10-08\/775562855714_7f791d2af39b650a825a_48.png",
                "image_72": "https:\/\/avatars.slack-edge.com\/2019-10-08\/775562855714_7f791d2af39b650a825a_72.png"
            },
            "team_id": "TUU48M0T1"
        },
        "edited": {
            "user": "B010RAQ6BRT",
            "ts": "1586025156.000000"
        },
        "blocks": [
            {
                "type": "context",
                "block_id": "CBzIg",
                "elements": [
                    {
                        "fallback": "88x88px image",
                        "image_url": "https:\/\/avatars.slack-edge.com\/2019-06-07\/661037330918_c66299258658692de505_88.png",
                        "image_width": 88,
                        "image_height": 88,
                        "image_bytes": 7025,
                        "type": "image",
                        "alt_text": "Cloverpop"
                    },
                    {
                        "type": "mrkdwn",
                        "text": "<!channel>, I’ve invited you to a *<slack:\/\/app?team=TUU48M0T1&amp;id=AKHMRPUCT&amp;tab=home|Cloverpop>* decision poll, due *<!date^1586124000^{date_short_pretty}|Apr 06>*.",
                        "verbatim": false
                    }
                ]
            },
            {
                "type": "section",
                "block_id": "=aNT",
                "text": {
                    "type": "mrkdwn",
                    "text": "*During the last governance meeting, we agreed that anybody (all community) could take one, or several, of the following roles in order to efficiently manage the community. This would come with badge near their name. Please vote for the ones you agree with*",
                    "verbatim": false
                }
            },
            {
                "type": "section",
                "block_id": "0F8f\/",
                "text": {
                    "type": "mrkdwn",
                    "text": "*3 votes:* Moderator: Report conflict, and solve conflict when applicable ; Make sure people stay dear to code of conduct ; Archive messages ; Keep the channel conversation on topic. \n`          30%`",
                    "verbatim": false
                }
            },
            {
                "type": "section",
                "block_id": "5xav",
                "text": {
                    "type": "mrkdwn",
                    "text": "*3 votes:* Welcoming agent: Welcome people on the introduction channel (note: this is supposed to be the Bot, but it could be a good entry point for other tasks such as triaging) ; Report questions\/issues \n`          30%`",
                    "verbatim": false
                }
            },
            {
                "type": "section",
                "block_id": "H+UE",
                "text": {
                    "type": "mrkdwn",
                    "text": "*2 votes:* Liaison: Guide people to appropriate Slack channel and\/or to the appropriate people; Report questions\/issues \n`       20%`",
                    "verbatim": false
                }
            },
            {
                "type": "section",
                "block_id": "Z2a",
                "text": {
                    "type": "mrkdwn",
                    "text": "*2 votes:* Recruiter: Recruit specific person to answer projects needs ; Report questions\/issues \n`       20%`",
                    "verbatim": false
                }
            },
            {
                "type": "actions",
                "block_id": "actions_block",
                "elements": [
                    {
                        "type": "button",
                        "action_id": "xYY",
                        "text": {
                            "type": "plain_text",
                            "text": "Take Poll",
                            "emoji": true
                        },
                        "style": "primary",
                        "value": "poll_message_take_poll"
                    },
                    {
                        "type": "button",
                        "action_id": "fN6",
                        "text": {
                            "type": "plain_text",
                            "text": "Add a Choice",
                            "emoji": true
                        },
                        "value": "poll_message_add_choice"
                    },
                    {
                        "type": "button",
                        "action_id": "r7g",
                        "text": {
                            "type": "plain_text",
                            "text": "Show Details",
                            "emoji": true
                        },
                        "value": "poll_message_show_details"
                    }
                ]
            }
        ]
    },
    {
        "bot_id": "B010RAQ6BRT",
        "type": "message",
        "text": "@channel, I’ve invited you to a *<slack:\/\/app?team=TUU48M0T1&amp;id=AKHMRPUCT&amp;tab=home|Cloverpop>* decision poll, due *<!date^1586469600^{date_short_pretty}|Apr 10>*.",
        "user": "UV9V03C8Y",
        "ts": "1585951674.118000",
        "team": "TUU48M0T1",
        "bot_profile": {
            "id": "B010RAQ6BRT",
            "deleted": false,
            "name": "Cloverpop",
            "updated": 1585148661,
            "app_id": "AKHMRPUCT",
            "icons": {
                "image_36": "https:\/\/avatars.slack-edge.com\/2019-10-08\/775562855714_7f791d2af39b650a825a_36.png",
                "image_48": "https:\/\/avatars.slack-edge.com\/2019-10-08\/775562855714_7f791d2af39b650a825a_48.png",
                "image_72": "https:\/\/avatars.slack-edge.com\/2019-10-08\/775562855714_7f791d2af39b650a825a_72.png"
            },
            "team_id": "TUU48M0T1"
        },
        "edited": {
            "user": "B010RAQ6BRT",
            "ts": "1586025492.000000"
        },
        "blocks": [
            {
                "type": "context",
                "block_id": "x3Iv",
                "elements": [
                    {
                        "fallback": "88x88px image",
                        "image_url": "https:\/\/avatars.slack-edge.com\/2019-06-07\/661037330918_c66299258658692de505_88.png",
                        "image_width": 88,
                        "image_height": 88,
                        "image_bytes": 7025,
                        "type": "image",
                        "alt_text": "Cloverpop"
                    },
                    {
                        "type": "mrkdwn",
                        "text": "<!channel>, I’ve invited you to a *<slack:\/\/app?team=TUU48M0T1&amp;id=AKHMRPUCT&amp;tab=home|Cloverpop>* decision poll, due *<!date^1586469600^{date_short_pretty}|Apr 10>*.",
                        "verbatim": false
                    }
                ]
            },
            {
                "type": "section",
                "block_id": "R0GP",
                "text": {
                    "type": "mrkdwn",
                    "text": "*As we are about to hit the wave, it is important that we come up with the right and simplest surfboard to ride it. Could we please come together and elaborate a governance 1.0 by Friday 10th of April? What could you personally contribute to write?*",
                    "verbatim": false
                }
            },
            {
                "type": "section",
                "block_id": "Lzx",
                "text": {
                    "type": "mrkdwn",
                    "text": "*2 votes:* Roles and accountability within working groups \n`      18%`",
                    "verbatim": false
                }
            },
            {
                "type": "section",
                "block_id": "erT",
                "text": {
                    "type": "mrkdwn",
                    "text": "*2 votes:* Minimum viable bureaucracy \n`      18%`",
                    "verbatim": false
                }
            },
            {
                "type": "section",
                "block_id": "EJF",
                "text": {
                    "type": "mrkdwn",
                    "text": "*2 votes:* Decision making process \n`      18%`",
                    "verbatim": false
                }
            },
            {
                "type": "section",
                "block_id": "SCsuk",
                "text": {
                    "type": "mrkdwn",
                    "text": "*2 votes:* Community management \n`      18%`",
                    "verbatim": false
                }
            },
            {
                "type": "section",
                "block_id": "i59",
                "text": {
                    "type": "mrkdwn",
                    "text": "*1 vote:* Information\/Communication process \n`   9%`",
                    "verbatim": false
                }
            },
            {
                "type": "section",
                "block_id": "0M1",
                "text": {
                    "type": "mrkdwn",
                    "text": "*1 vote:* How to make the governance more open, agile, inclusive and non-discriminatory \n`   9%`",
                    "verbatim": false
                }
            },
            {
                "type": "section",
                "block_id": "mEYrv",
                "text": {
                    "type": "mrkdwn",
                    "text": "*1 vote:* Guidelines and templates (project management, meetings) \n`   9%`",
                    "verbatim": false
                }
            },
            {
                "type": "section",
                "block_id": "SIX1",
                "text": {
                    "type": "mrkdwn",
                    "text": "Community consultation process\n`0%`",
                    "verbatim": false
                }
            },
            {
                "type": "section",
                "block_id": "5a5",
                "text": {
                    "type": "mrkdwn",
                    "text": "Coordination process (tools, meetings)\n`0%`",
                    "verbatim": false
                }
            },
            {
                "type": "actions",
                "block_id": "actions_block",
                "elements": [
                    {
                        "type": "button",
                        "action_id": "NVf",
                        "text": {
                            "type": "plain_text",
                            "text": "Take Poll",
                            "emoji": true
                        },
                        "style": "primary",
                        "value": "poll_message_take_poll"
                    },
                    {
                        "type": "button",
                        "action_id": "+80",
                        "text": {
                            "type": "plain_text",
                            "text": "Add a Choice",
                            "emoji": true
                        },
                        "value": "poll_message_add_choice"
                    },
                    {
                        "type": "button",
                        "action_id": "MTR6O",
                        "text": {
                            "type": "plain_text",
                            "text": "Show Details",
                            "emoji": true
                        },
                        "value": "poll_message_show_details"
                    }
                ]
            }
        ]
    },
    {
        "type": "message",
        "text": ":ocean: Easy ride to the *governance 1.0 by Friday April 10th*!\n\n*Who's in* :call_me_hand:*?*\n\nContributions are welcome here: <https:\/\/docs.google.com\/document\/d\/1XieaaUdIHxG5uciTS6Tu9jhPOniBMc1hL5uV6JCqSe0\/edit#heading=h.phb0splhfd7k|governance 0.2 PART 2>",
        "files": [
            {
                "id": "F0111RWHB4H",
                "created": 1585839332,
                "timestamp": 1585839332,
                "name": "governance_0",
                "title": "governance_0.2_PART 2_Opencovid19",
                "mimetype": "application\/vnd.google-apps.document",
                "filetype": "gdoc",
                "pretty_type": "GSuite Document",
                "user": "UV9V03C8Y",
                "editable": false,
                "size": 28147,
                "mode": "external",
                "is_external": true,
                "external_type": "gdrive",
                "is_public": true,
                "public_url_shared": false,
                "display_as_bot": false,
                "username": "",
                "url_private": "https:\/\/docs.google.com\/document\/d\/1XieaaUdIHxG5uciTS6Tu9jhPOniBMc1hL5uV6JCqSe0\/edit?usp=drive_web&ouid=116359027881748659132",
                "thumb_64": "https:\/\/files.slack.com\/files-tmb\/TUU48M0T1-F0111RWHB4H-fdd412654a\/governance_0_64.png?t=xoxe-980144714919-1106606678066-1105227127893-6f722bb664235052954ad46852628b64",
                "thumb_80": "https:\/\/files.slack.com\/files-tmb\/TUU48M0T1-F0111RWHB4H-fdd412654a\/governance_0_80.png?t=xoxe-980144714919-1106606678066-1105227127893-6f722bb664235052954ad46852628b64",
                "thumb_360": "https:\/\/files.slack.com\/files-tmb\/TUU48M0T1-F0111RWHB4H-fdd412654a\/governance_0_360.png?t=xoxe-980144714919-1106606678066-1105227127893-6f722bb664235052954ad46852628b64",
                "thumb_360_w": 255,
                "thumb_360_h": 360,
                "thumb_480": "https:\/\/files.slack.com\/files-tmb\/TUU48M0T1-F0111RWHB4H-fdd412654a\/governance_0_480.png?t=xoxe-980144714919-1106606678066-1105227127893-6f722bb664235052954ad46852628b64",
                "thumb_480_w": 340,
                "thumb_480_h": 480,
                "thumb_160": "https:\/\/files.slack.com\/files-tmb\/TUU48M0T1-F0111RWHB4H-fdd412654a\/governance_0_160.png?t=xoxe-980144714919-1106606678066-1105227127893-6f722bb664235052954ad46852628b64",
                "thumb_720": "https:\/\/files.slack.com\/files-tmb\/TUU48M0T1-F0111RWHB4H-fdd412654a\/governance_0_720.png?t=xoxe-980144714919-1106606678066-1105227127893-6f722bb664235052954ad46852628b64",
                "thumb_720_w": 509,
                "thumb_720_h": 720,
                "thumb_800": "https:\/\/files.slack.com\/files-tmb\/TUU48M0T1-F0111RWHB4H-fdd412654a\/governance_0_800.png?t=xoxe-980144714919-1106606678066-1105227127893-6f722bb664235052954ad46852628b64",
                "thumb_800_w": 800,
                "thumb_800_h": 1131,
                "thumb_960": "https:\/\/files.slack.com\/files-tmb\/TUU48M0T1-F0111RWHB4H-fdd412654a\/governance_0_960.png?t=xoxe-980144714919-1106606678066-1105227127893-6f722bb664235052954ad46852628b64",
                "thumb_960_w": 679,
                "thumb_960_h": 960,
                "thumb_1024": "https:\/\/files.slack.com\/files-tmb\/TUU48M0T1-F0111RWHB4H-fdd412654a\/governance_0_1024.png?t=xoxe-980144714919-1106606678066-1105227127893-6f722bb664235052954ad46852628b64",
                "thumb_1024_w": 724,
                "thumb_1024_h": 1024,
                "image_exif_rotation": 1,
                "original_w": 800,
                "original_h": 1131,
                "thumb_tiny": "AwAwACHTpDu7EUjfrSbj60AKN3cinUzJ9aVSc9aAHUUUUAIRmjaKWigBNoowKWigAooooAKKKKACiiigAooooA\/\/2Q==",
                "permalink": "https:\/\/open-covid19.slack.com\/files\/UV9V03C8Y\/F0111RWHB4H\/governance_0",
                "is_starred": false,
                "external_id": "1XieaaUdIHxG5uciTS6Tu9jhPOniBMc1hL5uV6JCqSe0",
                "external_url": "https:\/\/docs.google.com\/document\/d\/1XieaaUdIHxG5uciTS6Tu9jhPOniBMc1hL5uV6JCqSe0\/edit?usp=drive_web&ouid=116359027881748659132",
                "has_rich_preview": true
            }
        ],
        "upload": false,
        "blocks": [
            {
                "type": "rich_text",
                "block_id": "pVw",
                "elements": [
                    {
                        "type": "rich_text_section",
                        "elements": [
                            {
                                "type": "emoji",
                                "name": "ocean"
                            },
                            {
                                "type": "text",
                                "text": " Easy ride to the "
                            },
                            {
                                "type": "text",
                                "text": "governance 1.0 by Friday April 10th",
                                "style": {
                                    "bold": true
                                }
                            },
                            {
                                "type": "text",
                                "text": "!\n\n"
                            },
                            {
                                "type": "text",
                                "text": "Who's in ",
                                "style": {
                                    "bold": true
                                }
                            },
                            {
                                "type": "emoji",
                                "name": "call_me_hand",
                                "style": {
                                    "bold": true
                                }
                            },
                            {
                                "type": "text",
                                "text": "?",
                                "style": {
                                    "bold": true
                                }
                            },
                            {
                                "type": "text",
                                "text": "\n\nContributions are welcome here: "
                            },
                            {
                                "type": "link",
                                "url": "https:\/\/docs.google.com\/document\/d\/1XieaaUdIHxG5uciTS6Tu9jhPOniBMc1hL5uV6JCqSe0\/edit#heading=h.phb0splhfd7k",
                                "text": "governance 0.2 PART 2"
                            }
                        ]
                    }
                ]
            }
        ],
        "user": "UV9V03C8Y",
        "display_as_bot": false,
        "x_files": [
            "F0111RWHB4H"
        ],
        "ts": "1585951935.119700",
        "edited": {
            "user": "UV9V03C8Y",
            "ts": "1585951948.000000"
        },
        "client_msg_id": "036f70a2-802d-4f40-bf02-5b3c5bfb8e70",
        "reactions": [
            {
                "name": "hand",
                "users": [
                    "UV2SC7ZE3",
                    "UV1G2M821"
                ],
                "count": 2
            }
        ]
    }
]